version 1
nodes
  0 "Dummy01"  -1
  1 "Skull1"   0
  2 "Object13"   0
  3 "Object11"   0
  4 "Lung01"   0
  5 "Bone02"   0
  6 "Leg_Bone01"   5
  7 "Big_Gib01"   0
  8 "Spinal01"   0
  9 "Object03"   0
 10 "Object12"   0
 11 "Object07"   0
 12 "Object16"   0
end
skeleton
time 0
  0 0.019532 -0.019532 1.487296 0.000000 0.000000 0.000000
  1 -6.996940 0.431675 -0.180818 -0.000796 0.000000 0.000000
  2 -0.044049 0.118442 -0.409537 -3.134463 -0.436111 -0.000000
  3 0.293220 -0.073337 -0.650005 0.000000 0.645444 0.000000
  4 -1.368814 0.602594 1.216496 -0.000796 -0.000000 0.000000
  5 0.000000 -0.000000 0.000000 0.000000 0.000000 0.000000
  6 1.286482 -0.006302 -0.681520 -0.000796 -0.000000 0.000000
  7 0.439064 -1.476532 -0.293700 -0.000796 0.000000 0.000000
  8 3.109554 4.272732 -2.114853 -0.000796 -0.000000 -0.000000
  9 0.786732 -1.420460 -1.210920 0.019037 0.007130 -3.141592
 10 1.336896 -1.069988 -2.910900 0.008722 -0.139556 -0.000000
 11 -0.101332 0.041900 -1.227408 0.000000 -0.183167 -0.000000
 12 1.316116 -0.502716 -2.453368 -0.008722 0.000000 0.000000
time 1
  0 0.019532 -0.019532 1.487296 0.000000 0.000000 0.000000
  1 -6.996940 0.431675 -0.180818 -0.000796 0.000000 0.000000
  2 -0.044049 0.118442 -0.409537 -3.134463 -0.436111 -0.000000
  3 0.293220 -0.073337 -0.650005 0.000000 0.645444 0.000000
  4 -1.368814 0.602594 1.216496 -0.000796 -0.000000 0.000000
  5 0.000000 -0.000000 0.000000 0.000000 0.000000 0.000000
  6 1.286482 -0.006302 -0.681520 -0.000796 -0.000000 0.000000
  7 0.439064 -1.476532 -0.293700 -0.000796 0.000000 0.000000
  8 3.109554 4.272732 -2.114853 -0.000796 -0.000000 -0.000000
  9 0.786732 -1.420460 -1.210920 0.019037 0.007130 -3.141592
 10 1.336896 -1.069988 -2.910900 0.008722 -0.139556 -0.000000
 11 -0.101332 0.041900 -1.227408 0.000000 -0.183167 -0.000000
 12 1.316116 -0.502716 -2.453368 -0.008722 0.000000 0.000000
end
