version 1
nodes
  0 "Bip01"  -1
  1 "Bip01 Pelvis"   0
  2 "Bip01 L Leg"   1
  3 "Bip01 L Leg1"   2
  4 "Bip01 L Foot"   3
  5 "Bip01 L Toe0"   4
  6 "Bip01 R Leg"   1
  7 "Bip01 R Leg1"   6
  8 "Bip01 R Foot"   7
  9 "Bip01 R Toe0"   8
 10 "Bip01 R Toe01"   9
 11 "Bip01 R Toe02"  10
 12 "Bip01 Spine"   1
 13 "Bip01 Spine1"  12
 14 "Bip01 Spine2"  13
 15 "Bip01 Spine3"  14
 16 "Bip01 Neck"  15
 17 "Bip01 Head"  16
 18 "Bip01 L Arm"  16
 19 "Bip01 L Arm1"  18
 20 "Bip01 L Arm2"  19
 21 "Bip01 L Hand"  20
 22 "Bip01 L Finger1"  21
 23 "Bip01 L Finger11"  22
 24 "Bip01 L Finger12"  23
 25 "Bip01 R Arm"  16
 26 "Bip01 R Arm1"  25
 27 "Bip01 R Arm2"  26
 28 "Bip01 R Hand"  27
 29 "Bip01 R Finger1"  28
 30 "Bip01 R Finger11"  29
 31 "Bip01 R Finger12"  30
end
skeleton
time 0
  0 0.235347 -0.235347 3.532833 -0.000000 -0.000000 -1.571254
  1 0.000000 0.000000 0.000000 -1.570795 -1.570796 0.000000
  2 -0.000005 0.000007 3.713255 -6.281131 3.115177 6.261712
  3 18.045721 0.000000 0.000000 0.000000 -0.000000 -0.121501
  4 17.597597 0.000000 0.000000 -0.002613 0.026036 0.099967
  5 3.793090 6.407221 0.000000 0.000000 -0.000000 1.570796
  6 0.000005 -0.000003 -3.713255 6.280565 -3.123995 6.258640
  7 18.045725 0.000000 0.000000 0.000000 -0.000000 -0.127551
  8 17.597597 0.000000 0.000000 0.002950 -0.017289 0.103055
  9 3.793090 6.407221 0.000000 0.000000 -0.000000 1.570796
 10 0.935740 0.000000 0.000000 0.000000 -0.000000 0.000000
 11 0.935741 0.000000 0.000000 0.000000 -0.000000 0.000000
 12 1.293670 0.684478 -0.000001 -0.000004 -0.000001 0.061869
 13 5.309685 -0.003834 0.000000 -0.221112 0.050743 0.221108
 14 4.826790 -0.004591 0.000000 -0.152362 0.037883 0.241240
 15 5.792767 -0.005304 0.000000 -0.206771 0.032610 0.153586
 16 6.662317 -0.001453 0.000000 0.000000 -0.000001 0.471000
 17 2.046985 -0.000002 0.000000 0.505535 -0.039194 -0.235243
 18 -3.112024 1.517254 4.341911 0.999080 -1.044327 1.739141
 19 4.827230 0.000000 0.000001 -0.353125 0.507583 -0.603389
 20 11.139763 0.000000 0.000000 0.000000 -0.000000 -1.045303
 21 10.314597 0.000001 0.000000 -2.987507 -0.064632 0.326449
 22 2.975834 -0.386307 -0.044143 -0.023088 -0.037007 0.541079
 23 1.438886 0.000000 0.000000 0.000000 -0.000000 0.784940
 24 1.485303 0.000000 0.000000 0.000000 -0.000000 0.688984
 25 -2.869898 1.399663 -4.140396 -1.187882 0.734767 1.639722
 26 4.972048 0.000000 0.000001 0.527005 -0.428669 -1.004325
 27 11.585355 0.000000 0.000000 0.000000 -0.000000 -0.911601
 28 10.127057 0.000000 0.000001 2.052614 0.054576 0.642281
 29 2.683750 -0.427338 0.044205 -0.005738 0.043239 -0.157060
 30 1.438885 -0.000001 0.000000 0.000000 -0.000000 0.732589
 31 1.485305 0.000001 0.000000 0.000000 -0.000000 1.168627
time 1
  0 0.235347 -0.235347 3.532833 -0.000000 -0.000000 -1.571254
  1 0.000000 0.000000 0.000000 -1.570795 -1.570796 0.000000
  2 -0.000005 0.000007 3.713255 -6.281131 3.115177 6.261712
  3 18.045721 0.000000 0.000000 0.000000 -0.000000 -0.121501
  4 17.597597 0.000000 0.000000 -0.002613 0.026036 0.099967
  5 3.793090 6.407221 0.000000 0.000000 -0.000000 1.570796
  6 0.000005 -0.000003 -3.713255 6.280565 -3.123995 6.258640
  7 18.045725 0.000000 0.000000 0.000000 -0.000000 -0.127551
  8 17.597597 0.000000 0.000000 0.002950 -0.017289 0.103055
  9 3.793090 6.407221 0.000000 0.000000 -0.000000 1.570796
 10 0.935740 0.000000 0.000000 0.000000 -0.000000 0.000000
 11 0.935741 0.000000 0.000000 0.000000 -0.000000 0.000000
 12 1.293670 0.684478 -0.000001 -0.000004 -0.000001 0.061869
 13 5.309685 -0.003834 0.000000 -0.221063 0.050935 0.222158
 14 4.826790 -0.004591 0.000000 -0.153429 0.038195 0.241196
 15 5.792767 -0.005304 0.000000 -0.206771 0.032610 0.153586
 16 6.662317 -0.001453 0.000000 0.000000 -0.000001 0.471000
 17 2.046985 -0.000002 0.000000 0.506612 -0.039487 -0.236367
 18 -3.112024 1.517254 4.341911 0.996683 -1.043481 1.741538
 19 4.827230 0.000000 0.000001 -0.352949 0.505200 -0.602514
 20 11.139763 0.000000 0.000000 0.000000 -0.000000 -1.045303
 21 10.314597 0.000001 0.000000 -2.987507 -0.064632 0.326449
 22 2.975834 -0.386307 -0.044143 -0.023088 -0.037007 0.541079
 23 1.438886 0.000000 0.000000 0.000000 -0.000000 0.784940
 24 1.485303 0.000000 0.000000 0.000000 -0.000000 0.688984
 25 -2.869898 1.399663 -4.140396 -1.185581 0.733806 1.642982
 26 4.972048 0.000000 0.000001 0.524143 -0.426658 -1.004654
 27 11.585355 0.000000 0.000000 0.000000 -0.000000 -0.911601
 28 10.127057 0.000000 0.000001 2.052614 0.054576 0.642281
 29 2.683750 -0.427338 0.044205 -0.005738 0.043239 -0.157060
 30 1.438885 -0.000001 0.000000 0.000000 -0.000000 0.732589
 31 1.485305 0.000001 0.000000 0.000000 -0.000000 1.168627
time 2
  0 0.235347 -0.235347 3.532833 -0.000000 -0.000000 -1.571254
  1 0.000000 0.000000 0.000000 -1.570795 -1.570796 0.000000
  2 -0.000005 0.000007 3.713255 -6.281131 3.115177 6.261712
  3 18.045721 0.000000 0.000000 0.000000 -0.000000 -0.121501
  4 17.597597 0.000000 0.000000 -0.002613 0.026036 0.099967
  5 3.793090 6.407221 0.000000 0.000000 -0.000000 1.570796
  6 0.000005 -0.000003 -3.713255 6.280565 -3.123995 6.258640
  7 18.045725 0.000000 0.000000 0.000000 -0.000000 -0.127551
  8 17.597597 0.000000 0.000000 0.002950 -0.017289 0.103055
  9 3.793090 6.407221 0.000000 0.000000 -0.000000 1.570796
 10 0.935740 0.000000 0.000000 0.000000 -0.000000 0.000000
 11 0.935741 0.000000 0.000000 0.000000 -0.000000 0.000000
 12 1.293670 0.684478 -0.000001 -0.000004 -0.000001 0.061869
 13 5.309685 -0.003834 0.000000 -0.220977 0.051258 0.223624
 14 4.826790 -0.004591 0.000000 -0.154874 0.038506 0.241152
 15 5.792767 -0.005304 0.000000 -0.206771 0.032610 0.153586
 16 6.662317 -0.001453 0.000000 0.000000 -0.000001 0.471000
 17 2.046985 -0.000002 0.000000 0.508120 -0.039892 -0.237895
 18 -3.112024 1.517254 4.341911 0.993807 -1.042404 1.744798
 19 4.827230 0.000000 0.000001 -0.352949 0.502392 -0.601464
 20 11.139763 0.000000 0.000000 0.000000 -0.000000 -1.045303
 21 10.314597 0.000001 0.000000 -2.987507 -0.064632 0.326449
 22 2.975834 -0.386307 -0.044143 -0.023088 -0.037007 0.541079
 23 1.438886 0.000000 0.000000 0.000000 -0.000000 0.784940
 24 1.485303 0.000000 0.000000 0.000000 -0.000000 0.688984
 25 -2.869898 1.399663 -4.140396 -1.183088 0.732506 1.647296
 26 4.972048 0.000000 0.000001 0.520198 -0.424084 -1.004786
 27 11.585355 0.000000 0.000000 0.000000 -0.000000 -0.911601
 28 10.127057 0.000000 0.000001 2.052614 0.054576 0.642281
 29 2.683750 -0.427338 0.044205 -0.005738 0.043239 -0.157060
 30 1.438885 -0.000001 0.000000 0.000000 -0.000000 0.732589
 31 1.485305 0.000001 0.000000 0.000000 -0.000000 1.168627
time 3
  0 0.235347 -0.235347 3.532833 -0.000000 -0.000000 -1.571254
  1 0.000000 0.000000 0.000000 -1.570795 -1.570796 0.000000
  2 -0.000005 0.000007 3.713255 -6.281131 3.115177 6.261712
  3 18.045721 0.000000 0.000000 0.000000 -0.000000 -0.121501
  4 17.597597 0.000000 0.000000 -0.002613 0.026036 0.099967
  5 3.793090 6.407221 0.000000 0.000000 -0.000000 1.570796
  6 0.000005 -0.000003 -3.713255 6.280565 -3.123995 6.258640
  7 18.045725 0.000000 0.000000 0.000000 -0.000000 -0.127551
  8 17.597597 0.000000 0.000000 0.002950 -0.017289 0.103055
  9 3.793090 6.407221 0.000000 0.000000 -0.000000 1.570796
 10 0.935740 0.000000 0.000000 0.000000 -0.000000 0.000000
 11 0.935741 0.000000 0.000000 0.000000 -0.000000 0.000000
 12 1.293670 0.684478 -0.000001 -0.000004 -0.000001 0.061869
 13 5.309685 -0.003834 0.000000 -0.220867 0.051702 0.225399
 14 4.826790 -0.004591 0.000000 -0.156631 0.038986 0.241086
 15 5.792767 -0.005304 0.000000 -0.206771 0.032610 0.153586
 16 6.662317 -0.001453 0.000000 0.000000 -0.000001 0.471000
 17 2.046985 -0.000002 0.000000 0.510016 -0.040387 -0.239738
 18 -3.112024 1.517254 4.341911 0.990739 -1.041250 1.748345
 19 4.827230 0.000000 0.000001 -0.353125 0.498562 -0.600326
 20 11.139763 0.000000 0.000000 0.000000 -0.000000 -1.045303
 21 10.314597 0.000001 0.000000 -2.987507 -0.064632 0.326449
 22 2.975834 -0.386307 -0.044143 -0.023088 -0.037007 0.541079
 23 1.438886 0.000000 0.000000 0.000000 -0.000000 0.784940
 24 1.485303 0.000000 0.000000 0.000000 -0.000000 0.688984
 25 -2.869898 1.399663 -4.140396 -1.179541 0.730895 1.652569
 26 4.972048 0.000000 0.000001 0.515247 -0.420625 -1.004918
 27 11.585355 0.000000 0.000000 0.000000 -0.000000 -0.911601
 28 10.127057 0.000000 0.000001 2.052614 0.054576 0.642281
 29 2.683750 -0.427338 0.044205 -0.005738 0.043239 -0.157060
 30 1.438885 -0.000001 0.000000 0.000000 -0.000000 0.732589
 31 1.485305 0.000001 0.000000 0.000000 -0.000000 1.168627
time 4
  0 0.235347 -0.235347 3.532833 -0.000000 -0.000000 -1.571254
  1 0.000000 0.000000 0.000000 -1.570795 -1.570796 0.000000
  2 -0.000005 0.000007 3.713255 -6.281131 3.115177 6.261712
  3 18.045721 0.000000 0.000000 0.000000 -0.000000 -0.121501
  4 17.597597 0.000000 0.000000 -0.002613 0.026036 0.099967
  5 3.793090 6.407221 0.000000 0.000000 -0.000000 1.570796
  6 0.000005 -0.000003 -3.713255 6.280565 -3.123995 6.258640
  7 18.045725 0.000000 0.000000 0.000000 -0.000000 -0.127551
  8 17.597597 0.000000 0.000000 0.002950 -0.017289 0.103055
  9 3.793090 6.407221 0.000000 0.000000 -0.000000 1.570796
 10 0.935740 0.000000 0.000000 0.000000 -0.000000 0.000000
 11 0.935741 0.000000 0.000000 0.000000 -0.000000 0.000000
 12 1.293670 0.684478 -0.000001 -0.000004 -0.000001 0.061869
 13 5.309685 -0.003834 0.000000 -0.220769 0.052157 0.227409
 14 4.826790 -0.004591 0.000000 -0.158667 0.039429 0.241064
 15 5.792767 -0.005304 0.000000 -0.206771 0.032610 0.153586
 16 6.662317 -0.001453 0.000000 0.000000 -0.000001 0.471000
 17 2.046985 -0.000002 0.000000 0.511868 -0.040950 -0.241670
 18 -3.112024 1.517254 4.341911 0.987479 -1.039904 1.752276
 19 4.827230 0.000000 0.000001 -0.353360 0.494818 -0.599101
 20 11.139763 0.000000 0.000000 0.000000 -0.000000 -1.045303
 21 10.314597 0.000001 0.000000 -2.987507 -0.064632 0.326449
 22 2.975834 -0.386307 -0.044143 -0.023088 -0.037007 0.541079
 23 1.438886 0.000000 0.000000 0.000000 -0.000000 0.784940
 24 1.485303 0.000000 0.000000 0.000000 -0.000000 0.688984
 25 -2.869898 1.399663 -4.140396 -1.175514 0.729086 1.658609
 26 4.972048 0.000000 0.000001 0.509755 -0.417005 -1.005247
 27 11.585355 0.000000 0.000000 0.000000 -0.000000 -0.911601
 28 10.127057 0.000000 0.000001 2.052614 0.054576 0.642281
 29 2.683750 -0.427338 0.044205 -0.005738 0.043239 -0.157060
 30 1.438885 -0.000001 0.000000 0.000000 -0.000000 0.732589
 31 1.485305 0.000001 0.000000 0.000000 -0.000000 1.168627
time 5
  0 0.235347 -0.235347 3.532833 -0.000000 -0.000000 -1.571254
  1 0.000000 0.000000 0.000000 -1.570795 -1.570796 0.000000
  2 -0.000005 0.000007 3.713255 -6.281131 3.115177 6.261712
  3 18.045721 0.000000 0.000000 0.000000 -0.000000 -0.121501
  4 17.597597 0.000000 0.000000 -0.002613 0.026036 0.099967
  5 3.793090 6.407221 0.000000 0.000000 -0.000000 1.570796
  6 0.000005 -0.000003 -3.713255 6.280565 -3.123995 6.258640
  7 18.045725 0.000000 0.000000 0.000000 -0.000000 -0.127551
  8 17.597597 0.000000 0.000000 0.002950 -0.017289 0.103055
  9 3.793090 6.407221 0.000000 0.000000 -0.000000 1.570796
 10 0.935740 0.000000 0.000000 0.000000 -0.000000 0.000000
 11 0.935741 0.000000 0.000000 0.000000 -0.000000 0.000000
 12 1.293670 0.684478 -0.000001 -0.000004 -0.000001 0.061869
 13 5.309685 -0.003834 0.000000 -0.220671 0.052600 0.229618
 14 4.826790 -0.004591 0.000000 -0.160851 0.040017 0.240976
 15 5.792767 -0.005304 0.000000 -0.206771 0.032610 0.153586
 16 6.662317 -0.001453 0.000000 0.000000 -0.000001 0.471000
 17 2.046985 -0.000002 0.000000 0.514281 -0.041535 -0.244143
 18 -3.112024 1.517254 4.341911 0.983932 -1.038596 1.756303
 19 4.827230 0.000000 0.000001 -0.353830 0.490563 -0.597701
 20 11.139763 0.000000 0.000000 0.000000 -0.000000 -1.045303
 21 10.314597 0.000001 0.000000 -2.987507 -0.064632 0.326449
 22 2.975834 -0.386307 -0.044143 -0.023088 -0.037007 0.541079
 23 1.438886 0.000000 0.000000 0.000000 -0.000000 0.784940
 24 1.485303 0.000000 0.000000 0.000000 -0.000000 0.688984
 25 -2.869898 1.399663 -4.140396 -1.171200 0.727051 1.665416
 26 4.972048 0.000000 0.000001 0.503644 -0.412742 -1.005445
 27 11.585355 0.000000 0.000000 0.000000 -0.000000 -0.911601
 28 10.127057 0.000000 0.000001 2.052614 0.054576 0.642281
 29 2.683750 -0.427338 0.044205 -0.005738 0.043239 -0.157060
 30 1.438885 -0.000001 0.000000 0.000000 -0.000000 0.732589
 31 1.485305 0.000001 0.000000 0.000000 -0.000000 1.168627
time 6
  0 0.235347 -0.235347 3.532833 -0.000000 -0.000000 -1.571254
  1 0.000000 0.000000 0.000000 -1.570795 -1.570796 0.000000
  2 -0.000005 0.000007 3.713255 -6.281131 3.115177 6.261712
  3 18.045721 0.000000 0.000000 0.000000 -0.000000 -0.121501
  4 17.597597 0.000000 0.000000 -0.002613 0.026036 0.099967
  5 3.793090 6.407221 0.000000 0.000000 -0.000000 1.570796
  6 0.000005 -0.000003 -3.713255 6.280565 -3.123995 6.258640
  7 18.045725 0.000000 0.000000 0.000000 -0.000000 -0.127551
  8 17.597597 0.000000 0.000000 0.002950 -0.017289 0.103055
  9 3.793090 6.407221 0.000000 0.000000 -0.000000 1.570796
 10 0.935740 0.000000 0.000000 0.000000 -0.000000 0.000000
 11 0.935741 0.000000 0.000000 0.000000 -0.000000 0.000000
 12 1.293670 0.684478 -0.000001 -0.000004 -0.000001 0.061869
 13 5.309685 -0.003834 0.000000 -0.220549 0.053176 0.231935
 14 4.826790 -0.004591 0.000000 -0.163150 0.040592 0.240888
 15 5.792767 -0.005304 0.000000 -0.206771 0.032610 0.153586
 16 6.662317 -0.001453 0.000000 0.000000 -0.000001 0.471000
 17 2.046985 -0.000002 0.000000 0.516435 -0.042166 -0.246615
 18 -3.112024 1.517254 4.341911 0.980289 -1.037096 1.760809
 19 4.827230 0.000000 0.000001 -0.354182 0.485882 -0.596213
 20 11.139763 0.000000 0.000000 0.000000 -0.000000 -1.045303
 21 10.314597 0.000001 0.000000 -2.987507 -0.064632 0.326449
 22 2.975834 -0.386307 -0.044143 -0.023088 -0.037007 0.541079
 23 1.438886 0.000000 0.000000 0.000000 -0.000000 0.784940
 24 1.485303 0.000000 0.000000 0.000000 -0.000000 0.688984
 25 -2.869898 1.399663 -4.140396 -1.166694 0.724903 1.672127
 26 4.972048 0.000000 0.000001 0.497378 -0.408559 -1.005906
 27 11.585355 0.000000 0.000000 0.000000 -0.000000 -0.911601
 28 10.127057 0.000000 0.000001 2.052614 0.054576 0.642281
 29 2.683750 -0.427338 0.044205 -0.005738 0.043239 -0.157060
 30 1.438885 -0.000001 0.000000 0.000000 -0.000000 0.732589
 31 1.485305 0.000001 0.000000 0.000000 -0.000000 1.168627
time 7
  0 0.235347 -0.235347 3.532833 -0.000000 -0.000000 -1.571254
  1 0.000000 0.000000 0.000000 -1.570795 -1.570796 0.000000
  2 -0.000005 0.000007 3.713255 -6.281131 3.115177 6.261712
  3 18.045721 0.000000 0.000000 0.000000 -0.000000 -0.121501
  4 17.597597 0.000000 0.000000 -0.002613 0.026036 0.099967
  5 3.793090 6.407221 0.000000 0.000000 -0.000000 1.570796
  6 0.000005 -0.000003 -3.713255 6.280565 -3.123995 6.258640
  7 18.045725 0.000000 0.000000 0.000000 -0.000000 -0.127551
  8 17.597597 0.000000 0.000000 0.002950 -0.017289 0.103055
  9 3.793090 6.407221 0.000000 0.000000 -0.000000 1.570796
 10 0.935740 0.000000 0.000000 0.000000 -0.000000 0.000000
 11 0.935741 0.000000 0.000000 0.000000 -0.000000 0.000000
 12 1.293670 0.684478 -0.000001 -0.000004 -0.000001 0.061869
 13 5.309685 -0.003834 0.000000 -0.220414 0.053703 0.234307
 14 4.826790 -0.004591 0.000000 -0.165498 0.041119 0.240711
 15 5.792767 -0.005304 0.000000 -0.206771 0.032610 0.153586
 16 6.662317 -0.001453 0.000000 0.000000 -0.000001 0.471000
 17 2.046985 -0.000002 0.000000 0.518977 -0.042796 -0.249087
 18 -3.112024 1.517254 4.341911 0.976358 -1.035519 1.765411
 19 4.827230 0.000000 0.000001 -0.354476 0.481287 -0.594638
 20 11.139763 0.000000 0.000000 0.000000 -0.000000 -1.045303
 21 10.314597 0.000001 0.000000 -2.987507 -0.064632 0.326449
 22 2.975834 -0.386307 -0.044143 -0.023088 -0.037007 0.541079
 23 1.438886 0.000000 0.000000 0.000000 -0.000000 0.784940
 24 1.485303 0.000000 0.000000 0.000000 -0.000000 0.688984
 25 -2.869898 1.399663 -4.140396 -1.162092 0.722670 1.679030
 26 4.972048 0.000000 0.000001 0.491035 -0.404215 -1.006301
 27 11.585355 0.000000 0.000000 0.000000 -0.000000 -0.911601
 28 10.127057 0.000000 0.000001 2.052614 0.054576 0.642281
 29 2.683750 -0.427338 0.044205 -0.005738 0.043239 -0.157060
 30 1.438885 -0.000001 0.000000 0.000000 -0.000000 0.732589
 31 1.485305 0.000001 0.000000 0.000000 -0.000000 1.168627
time 8
  0 0.235347 -0.235347 3.532833 -0.000000 -0.000000 -1.571254
  1 0.000000 0.000000 0.000000 -1.570795 -1.570796 0.000000
  2 -0.000005 0.000007 3.713255 -6.281131 3.115177 6.261712
  3 18.045721 0.000000 0.000000 0.000000 -0.000000 -0.121501
  4 17.597597 0.000000 0.000000 -0.002613 0.026036 0.099967
  5 3.793090 6.407221 0.000000 0.000000 -0.000000 1.570796
  6 0.000005 -0.000003 -3.713255 6.280565 -3.123995 6.258640
  7 18.045725 0.000000 0.000000 0.000000 -0.000000 -0.127551
  8 17.597597 0.000000 0.000000 0.002950 -0.017289 0.103055
  9 3.793090 6.407221 0.000000 0.000000 -0.000000 1.570796
 10 0.935740 0.000000 0.000000 0.000000 -0.000000 0.000000
 11 0.935741 0.000000 0.000000 0.000000 -0.000000 0.000000
 12 1.293670 0.684478 -0.000001 -0.000004 -0.000001 0.061869
 13 5.309685 -0.003834 0.000000 -0.220304 0.054182 0.236643
 14 4.826790 -0.004591 0.000000 -0.167813 0.041694 0.240623
 15 5.792767 -0.005304 0.000000 -0.206771 0.032610 0.153586
 16 6.662317 -0.001453 0.000000 0.000000 -0.000001 0.471000
 17 2.046985 -0.000002 0.000000 0.521174 -0.043381 -0.251514
 18 -3.112024 1.517254 4.341911 0.971948 -1.033827 1.770109
 19 4.827230 0.000000 0.000001 -0.354476 0.476351 -0.593150
 20 11.139763 0.000000 0.000000 0.000000 -0.000000 -1.045303
 21 10.314597 0.000001 0.000000 -2.987507 -0.064632 0.326449
 22 2.975834 -0.386307 -0.044143 -0.023088 -0.037007 0.541079
 23 1.438886 0.000000 0.000000 0.000000 -0.000000 0.784940
 24 1.485303 0.000000 0.000000 0.000000 -0.000000 0.688984
 25 -2.869898 1.399663 -4.140396 -1.157586 0.720409 1.685837
 26 4.972048 0.000000 0.000001 0.484460 -0.399791 -1.006433
 27 11.585355 0.000000 0.000000 0.000000 -0.000000 -0.911601
 28 10.127057 0.000000 0.000001 2.052614 0.054576 0.642281
 29 2.683750 -0.427338 0.044205 -0.005738 0.043239 -0.157060
 30 1.438885 -0.000001 0.000000 0.000000 -0.000000 0.732589
 31 1.485305 0.000001 0.000000 0.000000 -0.000000 1.168627
time 9
  0 0.235347 -0.235347 3.532833 -0.000000 -0.000000 -1.571254
  1 0.000000 0.000000 0.000000 -1.570795 -1.570796 0.000000
  2 -0.000005 0.000007 3.713255 -6.281131 3.115177 6.261712
  3 18.045721 0.000000 0.000000 0.000000 -0.000000 -0.121501
  4 17.597597 0.000000 0.000000 -0.002613 0.026036 0.099967
  5 3.793090 6.407221 0.000000 0.000000 -0.000000 1.570796
  6 0.000005 -0.000003 -3.713255 6.280565 -3.123995 6.258640
  7 18.045725 0.000000 0.000000 0.000000 -0.000000 -0.127551
  8 17.597597 0.000000 0.000000 0.002950 -0.017289 0.103055
  9 3.793090 6.407221 0.000000 0.000000 -0.000000 1.570796
 10 0.935740 0.000000 0.000000 0.000000 -0.000000 0.000000
 11 0.935741 0.000000 0.000000 0.000000 -0.000000 0.000000
 12 1.293670 0.684478 -0.000001 -0.000004 -0.000001 0.061869
 13 5.309685 -0.003834 0.000000 -0.220169 0.054734 0.238888
 14 4.826790 -0.004591 0.000000 -0.170079 0.042294 0.240601
 15 5.792767 -0.005304 0.000000 -0.206771 0.032610 0.153586
 16 6.662317 -0.001453 0.000000 0.000000 -0.000001 0.471000
 17 2.046985 -0.000002 0.000000 0.523630 -0.043966 -0.253716
 18 -3.112024 1.517254 4.341911 0.967346 -1.032019 1.775478
 19 4.827230 0.000000 0.000001 -0.354476 0.471415 -0.591575
 20 11.139763 0.000000 0.000000 0.000000 -0.000000 -1.045303
 21 10.314597 0.000001 0.000000 -2.987507 -0.064632 0.326449
 22 2.975834 -0.386307 -0.044143 -0.023088 -0.037007 0.541079
 23 1.438886 0.000000 0.000000 0.000000 -0.000000 0.784940
 24 1.485303 0.000000 0.000000 0.000000 -0.000000 0.688984
 25 -2.869898 1.399663 -4.140396 -1.153080 0.718204 1.692069
 26 4.972048 0.000000 0.000001 0.478349 -0.395849 -1.006960
 27 11.585355 0.000000 0.000000 0.000000 -0.000000 -0.911601
 28 10.127057 0.000000 0.000001 2.052614 0.054576 0.642281
 29 2.683750 -0.427338 0.044205 -0.005738 0.043239 -0.157060
 30 1.438885 -0.000001 0.000000 0.000000 -0.000000 0.732589
 31 1.485305 0.000001 0.000000 0.000000 -0.000000 1.168627
time 10
  0 0.235347 -0.235347 3.532833 -0.000000 -0.000000 -1.571254
  1 0.000000 0.000000 0.000000 -1.570795 -1.570796 0.000000
  2 -0.000005 0.000007 3.713255 -6.281131 3.115177 6.261712
  3 18.045721 0.000000 0.000000 0.000000 -0.000000 -0.121501
  4 17.597597 0.000000 0.000000 -0.002613 0.026036 0.099967
  5 3.793090 6.407221 0.000000 0.000000 -0.000000 1.570796
  6 0.000005 -0.000003 -3.713255 6.280565 -3.123995 6.258640
  7 18.045725 0.000000 0.000000 0.000000 -0.000000 -0.127551
  8 17.597597 0.000000 0.000000 0.002950 -0.017289 0.103055
  9 3.793090 6.407221 0.000000 0.000000 -0.000000 1.570796
 10 0.935740 0.000000 0.000000 0.000000 -0.000000 0.000000
 11 0.935741 0.000000 0.000000 0.000000 -0.000000 0.000000
 12 1.293670 0.684478 -0.000001 -0.000004 -0.000001 0.061869
 13 5.309685 -0.003834 0.000000 -0.220059 0.055141 0.240989
 14 4.826790 -0.004591 0.000000 -0.172148 0.042797 0.240513
 15 5.792767 -0.005304 0.000000 -0.206771 0.032610 0.153586
 16 6.662317 -0.001453 0.000000 0.000000 -0.000001 0.471000
 17 2.046985 -0.000002 0.000000 0.525784 -0.044484 -0.256054
 18 -3.112024 1.517254 4.341911 0.962840 -1.030019 1.780943
 19 4.827230 0.000000 0.000001 -0.354182 0.466394 -0.589825
 20 11.139763 0.000000 0.000000 0.000000 -0.000000 -1.045303
 21 10.314597 0.000001 0.000000 -2.987507 -0.064632 0.326449
 22 2.975834 -0.386307 -0.044143 -0.023088 -0.037007 0.541079
 23 1.438886 0.000000 0.000000 0.000000 -0.000000 0.784940
 24 1.485303 0.000000 0.000000 0.000000 -0.000000 0.688984
 25 -2.869898 1.399663 -4.140396 -1.149341 0.716169 1.698205
 26 4.972048 0.000000 0.000001 0.472857 -0.391988 -1.007421
 27 11.585355 0.000000 0.000000 0.000000 -0.000000 -0.911601
 28 10.127057 0.000000 0.000001 2.052614 0.054576 0.642281
 29 2.683750 -0.427338 0.044205 -0.005738 0.043239 -0.157060
 30 1.438885 -0.000001 0.000000 0.000000 -0.000000 0.732589
 31 1.485305 0.000001 0.000000 0.000000 -0.000000 1.168627
time 11
  0 0.235347 -0.235347 3.532833 -0.000000 -0.000000 -1.571254
  1 0.000000 0.000000 0.000000 -1.570795 -1.570796 0.000000
  2 -0.000005 0.000007 3.713255 -6.281131 3.115177 6.261712
  3 18.045721 0.000000 0.000000 0.000000 -0.000000 -0.121501
  4 17.597597 0.000000 0.000000 -0.002613 0.026036 0.099967
  5 3.793090 6.407221 0.000000 0.000000 -0.000000 1.570796
  6 0.000005 -0.000003 -3.713255 6.280565 -3.123995 6.258640
  7 18.045725 0.000000 0.000000 0.000000 -0.000000 -0.127551
  8 17.597597 0.000000 0.000000 0.002950 -0.017289 0.103055
  9 3.793090 6.407221 0.000000 0.000000 -0.000000 1.570796
 10 0.935740 0.000000 0.000000 0.000000 -0.000000 0.000000
 11 0.935741 0.000000 0.000000 0.000000 -0.000000 0.000000
 12 1.293670 0.684478 -0.000001 -0.000004 -0.000001 0.061869
 13 5.309685 -0.003834 0.000000 -0.219961 0.055597 0.242854
 14 4.826790 -0.004591 0.000000 -0.173987 0.043204 0.240425
 15 5.792767 -0.005304 0.000000 -0.206771 0.032610 0.153586
 16 6.662317 -0.001453 0.000000 0.000000 -0.000001 0.471000
 17 2.046985 -0.000002 0.000000 0.527680 -0.044935 -0.257897
 18 -3.112024 1.517254 4.341911 0.957567 -1.027865 1.787079
 19 4.827230 0.000000 0.000001 -0.353536 0.461373 -0.588337
 20 11.139763 0.000000 0.000000 0.000000 -0.000000 -1.045303
 21 10.314597 0.000001 0.000000 -2.987507 -0.064632 0.326449
 22 2.975834 -0.386307 -0.044143 -0.023088 -0.037007 0.541079
 23 1.438886 0.000000 0.000000 0.000000 -0.000000 0.784940
 24 1.485303 0.000000 0.000000 0.000000 -0.000000 0.688984
 25 -2.869898 1.399663 -4.140396 -1.145602 0.714417 1.703861
 26 4.972048 0.000000 0.000001 0.467674 -0.388529 -1.007948
 27 11.585355 0.000000 0.000000 0.000000 -0.000000 -0.911601
 28 10.127057 0.000000 0.000001 2.052614 0.054576 0.642281
 29 2.683750 -0.427338 0.044205 -0.005738 0.043239 -0.157060
 30 1.438885 -0.000001 0.000000 0.000000 -0.000000 0.732589
 31 1.485305 0.000001 0.000000 0.000000 -0.000000 1.168627
time 12
  0 0.235347 -0.235347 3.532833 -0.000000 -0.000000 -1.571254
  1 0.000000 0.000000 0.000000 -1.570795 -1.570796 0.000000
  2 -0.000005 0.000007 3.713255 -6.281131 3.115177 6.261712
  3 18.045721 0.000000 0.000000 0.000000 -0.000000 -0.121501
  4 17.597597 0.000000 0.000000 -0.002613 0.026036 0.099967
  5 3.793090 6.407221 0.000000 0.000000 -0.000000 1.570796
  6 0.000005 -0.000003 -3.713255 6.280565 -3.123995 6.258640
  7 18.045725 0.000000 0.000000 0.000000 -0.000000 -0.127551
  8 17.597597 0.000000 0.000000 0.002950 -0.017289 0.103055
  9 3.793090 6.407221 0.000000 0.000000 -0.000000 1.570796
 10 0.935740 0.000000 0.000000 0.000000 -0.000000 0.000000
 11 0.935741 0.000000 0.000000 0.000000 -0.000000 0.000000
 12 1.293670 0.684478 -0.000001 -0.000004 -0.000001 0.061869
 13 5.309685 -0.003834 0.000000 -0.219863 0.055908 0.244411
 14 4.826790 -0.004591 0.000000 -0.175547 0.043636 0.240292
 15 5.792767 -0.005304 0.000000 -0.206771 0.032610 0.153586
 16 6.662317 -0.001453 0.000000 0.000000 -0.000001 0.471000
 17 2.046985 -0.000002 0.000000 0.529274 -0.045317 -0.259605
 18 -3.112024 1.517254 4.341911 0.952294 -1.025673 1.792832
 19 4.827230 0.000000 0.000001 -0.352479 0.456778 -0.586762
 20 11.139763 0.000000 0.000000 0.000000 -0.000000 -1.045303
 21 10.314597 0.000001 0.000000 -2.987507 -0.064632 0.326449
 22 2.975834 -0.386307 -0.044143 -0.023088 -0.037007 0.541079
 23 1.438886 0.000000 0.000000 0.000000 -0.000000 0.784940
 24 1.485303 0.000000 0.000000 0.000000 -0.000000 0.688984
 25 -2.869898 1.399663 -4.140396 -1.142534 0.712806 1.708463
 26 4.972048 0.000000 0.000001 0.463497 -0.385794 -1.008277
 27 11.585355 0.000000 0.000000 0.000000 -0.000000 -0.911601
 28 10.127057 0.000000 0.000001 2.052614 0.054576 0.642281
 29 2.683750 -0.427338 0.044205 -0.005738 0.043239 -0.157060
 30 1.438885 -0.000001 0.000000 0.000000 -0.000000 0.732589
 31 1.485305 0.000001 0.000000 0.000000 -0.000000 1.168627
time 13
  0 0.235347 -0.235347 3.532833 -0.000000 -0.000000 -1.571254
  1 0.000000 0.000000 0.000000 -1.570795 -1.570796 0.000000
  2 -0.000005 0.000007 3.713255 -6.281131 3.115177 6.261712
  3 18.045721 0.000000 0.000000 0.000000 -0.000000 -0.121501
  4 17.597597 0.000000 0.000000 -0.002613 0.026036 0.099967
  5 3.793090 6.407221 0.000000 0.000000 -0.000000 1.570796
  6 0.000005 -0.000003 -3.713255 6.280565 -3.123995 6.258640
  7 18.045725 0.000000 0.000000 0.000000 -0.000000 -0.127551
  8 17.597597 0.000000 0.000000 0.002950 -0.017289 0.103055
  9 3.793090 6.407221 0.000000 0.000000 -0.000000 1.570796
 10 0.935740 0.000000 0.000000 0.000000 -0.000000 0.000000
 11 0.935741 0.000000 0.000000 0.000000 -0.000000 0.000000
 12 1.293670 0.684478 -0.000001 -0.000004 -0.000001 0.061869
 13 5.309685 -0.003834 0.000000 -0.219802 0.056232 0.245624
 14 4.826790 -0.004591 0.000000 -0.176762 0.043936 0.240248
 15 5.792767 -0.005304 0.000000 -0.206771 0.032610 0.153586
 16 6.662317 -0.001453 0.000000 0.000000 -0.000001 0.471000
 17 2.046985 -0.000002 0.000000 0.530480 -0.045610 -0.260728
 18 -3.112024 1.517254 4.341911 0.947404 -1.023442 1.798872
 19 4.827230 0.000000 0.000001 -0.351128 0.452523 -0.585274
 20 11.139763 0.000000 0.000000 0.000000 -0.000000 -1.045303
 21 10.314597 0.000001 0.000000 -2.987507 -0.064632 0.326449
 22 2.975834 -0.386307 -0.044143 -0.023088 -0.037007 0.541079
 23 1.438886 0.000000 0.000000 0.000000 -0.000000 0.784940
 24 1.485303 0.000000 0.000000 0.000000 -0.000000 0.688984
 25 -2.869898 1.399663 -4.140396 -1.140329 0.711647 1.711531
 26 4.972048 0.000000 0.000001 0.460248 -0.383622 -1.008541
 27 11.585355 0.000000 0.000000 0.000000 -0.000000 -0.911601
 28 10.127057 0.000000 0.000001 2.052614 0.054576 0.642281
 29 2.683750 -0.427338 0.044205 -0.005738 0.043239 -0.157060
 30 1.438885 -0.000001 0.000000 0.000000 -0.000000 0.732589
 31 1.485305 0.000001 0.000000 0.000000 -0.000000 1.168627
time 14
  0 0.235347 -0.235347 3.532833 -0.000000 -0.000000 -1.571254
  1 0.000000 0.000000 0.000000 -1.570795 -1.570796 0.000000
  2 -0.000005 0.000007 3.713255 -6.281131 3.115177 6.261712
  3 18.045721 0.000000 0.000000 0.000000 -0.000000 -0.121501
  4 17.597597 0.000000 0.000000 -0.002613 0.026036 0.099967
  5 3.793090 6.407221 0.000000 0.000000 -0.000000 1.570796
  6 0.000005 -0.000003 -3.713255 6.280565 -3.123995 6.258640
  7 18.045725 0.000000 0.000000 0.000000 -0.000000 -0.127551
  8 17.597597 0.000000 0.000000 0.002950 -0.017289 0.103055
  9 3.793090 6.407221 0.000000 0.000000 -0.000000 1.570796
 10 0.935740 0.000000 0.000000 0.000000 -0.000000 0.000000
 11 0.935741 0.000000 0.000000 0.000000 -0.000000 0.000000
 12 1.293670 0.684478 -0.000001 -0.000004 -0.000001 0.061869
 13 5.309685 -0.003834 0.000000 -0.219765 0.056376 0.246385
 14 4.826790 -0.004591 0.000000 -0.177534 0.044079 0.240204
 15 5.792767 -0.005304 0.000000 -0.206771 0.032610 0.153586
 16 6.662317 -0.001453 0.000000 0.000000 -0.000001 0.471000
 17 2.046985 -0.000002 0.000000 0.531299 -0.045812 -0.261537
 18 -3.112024 1.517254 4.341911 0.942419 -1.021288 1.804433
 19 4.827230 0.000000 0.000001 -0.349601 0.448438 -0.584224
 20 11.139763 0.000000 0.000000 0.000000 -0.000000 -1.045303
 21 10.314597 0.000001 0.000000 -2.987507 -0.064632 0.326449
 22 2.975834 -0.386307 -0.044143 -0.023088 -0.037007 0.541079
 23 1.438886 0.000000 0.000000 0.000000 -0.000000 0.784940
 24 1.485303 0.000000 0.000000 0.000000 -0.000000 0.688984
 25 -2.869898 1.399663 -4.140396 -1.139178 0.710884 1.713736
 26 4.972048 0.000000 0.000001 0.458082 -0.382094 -1.008541
 27 11.585355 0.000000 0.000000 0.000000 -0.000000 -0.911601
 28 10.127057 0.000000 0.000001 2.052614 0.054576 0.642281
 29 2.683750 -0.427338 0.044205 -0.005738 0.043239 -0.157060
 30 1.438885 -0.000001 0.000000 0.000000 -0.000000 0.732589
 31 1.485305 0.000001 0.000000 0.000000 -0.000000 1.168627
time 15
  0 0.235347 -0.235347 3.532833 -0.000000 -0.000000 -1.571254
  1 0.000000 0.000000 0.000000 -1.570795 -1.570796 0.000000
  2 -0.000005 0.000007 3.713255 -6.281131 3.115177 6.261712
  3 18.045721 0.000000 0.000000 0.000000 -0.000000 -0.121501
  4 17.597597 0.000000 0.000000 -0.002613 0.026036 0.099967
  5 3.793090 6.407221 0.000000 0.000000 -0.000000 1.570796
  6 0.000005 -0.000003 -3.713255 6.280565 -3.123995 6.258640
  7 18.045725 0.000000 0.000000 0.000000 -0.000000 -0.127551
  8 17.597597 0.000000 0.000000 0.002950 -0.017289 0.103055
  9 3.793090 6.407221 0.000000 0.000000 -0.000000 1.570796
 10 0.935740 0.000000 0.000000 0.000000 -0.000000 0.000000
 11 0.935741 0.000000 0.000000 0.000000 -0.000000 0.000000
 12 1.293670 0.684478 -0.000001 -0.000004 -0.000001 0.061869
 13 5.309685 -0.003834 0.000000 -0.219704 0.056411 0.246674
 14 4.826790 -0.004591 0.000000 -0.177813 0.044139 0.240204
 15 5.792767 -0.005304 0.000000 -0.206771 0.032610 0.153586
 16 6.662317 -0.001453 0.000000 0.000000 -0.000001 0.471000
 17 2.046985 -0.000002 0.000000 0.531514 -0.045858 -0.261987
 18 -3.112024 1.517254 4.341911 0.938680 -1.019634 1.808843
 19 4.827230 0.000000 0.000001 -0.348015 0.445800 -0.583349
 20 11.139763 0.000000 0.000000 0.000000 -0.000000 -1.045303
 21 10.314597 0.000001 0.000000 -2.987507 -0.064632 0.326449
 22 2.975834 -0.386307 -0.044143 -0.023088 -0.037007 0.541079
 23 1.438886 0.000000 0.000000 0.000000 -0.000000 0.784940
 24 1.485303 0.000000 0.000000 0.000000 -0.000000 0.688984
 25 -2.869898 1.399663 -4.140396 -1.138603 0.710573 1.714503
 26 4.972048 0.000000 0.000001 0.457386 -0.381611 -1.008541
 27 11.585355 0.000000 0.000000 0.000000 -0.000000 -0.911601
 28 10.127057 0.000000 0.000001 2.052614 0.054576 0.642281
 29 2.683750 -0.427338 0.044205 -0.005738 0.043239 -0.157060
 30 1.438885 -0.000001 0.000000 0.000000 -0.000000 0.732589
 31 1.485305 0.000001 0.000000 0.000000 -0.000000 1.168627
time 16
  0 0.235347 -0.235347 3.532833 -0.000000 -0.000000 -1.571254
  1 0.000000 0.000000 0.000000 -1.570795 -1.570796 0.000000
  2 -0.000005 0.000007 3.713255 -6.281131 3.115177 6.261712
  3 18.045721 0.000000 0.000000 0.000000 -0.000000 -0.121501
  4 17.597597 0.000000 0.000000 -0.002613 0.026036 0.099967
  5 3.793090 6.407221 0.000000 0.000000 -0.000000 1.570796
  6 0.000005 -0.000003 -3.713255 6.280565 -3.123995 6.258640
  7 18.045725 0.000000 0.000000 0.000000 -0.000000 -0.127551
  8 17.597597 0.000000 0.000000 0.002950 -0.017289 0.103055
  9 3.793090 6.407221 0.000000 0.000000 -0.000000 1.570796
 10 0.935740 0.000000 0.000000 0.000000 -0.000000 0.000000
 11 0.935741 0.000000 0.000000 0.000000 -0.000000 0.000000
 12 1.293670 0.684478 -0.000001 -0.000004 -0.000001 0.061869
 13 5.309685 -0.003834 0.000000 -0.219765 0.056376 0.246385
 14 4.826790 -0.004591 0.000000 -0.177534 0.044079 0.240204
 15 5.792767 -0.005304 0.000000 -0.206771 0.032610 0.153586
 16 6.662317 -0.001453 0.000000 0.000000 -0.000001 0.471000
 17 2.046985 -0.000002 0.000000 0.531299 -0.045812 -0.261537
 18 -3.112024 1.517254 4.341911 0.934557 -1.017634 1.814116
 19 4.827230 0.000000 0.000001 -0.345783 0.443247 -0.582474
 20 11.139763 0.000000 0.000000 0.000000 -0.000000 -1.045303
 21 10.314597 0.000001 0.000000 -2.987507 -0.064632 0.326449
 22 2.975834 -0.386307 -0.044143 -0.023088 -0.037007 0.541079
 23 1.438886 0.000000 0.000000 0.000000 -0.000000 0.782697
 24 1.485303 0.000000 0.000000 0.000000 -0.000000 0.688984
 25 -2.869898 1.399663 -4.140396 -1.139178 0.710884 1.713736
 26 4.972048 0.000000 0.000001 0.458082 -0.382094 -1.008541
 27 11.585355 0.000000 0.000000 0.000000 -0.000000 -0.911601
 28 10.127057 0.000000 0.000001 2.052614 0.054576 0.642281
 29 2.683750 -0.427338 0.044205 -0.005738 0.043239 -0.157060
 30 1.438885 -0.000001 0.000000 0.000000 -0.000000 0.732589
 31 1.485305 0.000001 0.000000 0.000000 -0.000000 1.168627
time 17
  0 0.235347 -0.235347 3.532833 -0.000000 -0.000000 -1.571254
  1 0.000000 0.000000 0.000000 -1.570795 -1.570796 0.000000
  2 -0.000005 0.000007 3.713255 -6.281131 3.115177 6.261712
  3 18.045721 0.000000 0.000000 0.000000 -0.000000 -0.121501
  4 17.597597 0.000000 0.000000 -0.002613 0.026036 0.099967
  5 3.793090 6.407221 0.000000 0.000000 -0.000000 1.570796
  6 0.000005 -0.000003 -3.713255 6.280565 -3.123995 6.258640
  7 18.045725 0.000000 0.000000 0.000000 -0.000000 -0.127551
  8 17.597597 0.000000 0.000000 0.002950 -0.017289 0.103055
  9 3.793090 6.407221 0.000000 0.000000 -0.000000 1.570796
 10 0.935740 0.000000 0.000000 0.000000 -0.000000 0.000000
 11 0.935741 0.000000 0.000000 0.000000 -0.000000 0.000000
 12 1.293670 0.684478 -0.000001 -0.000004 -0.000001 0.061869
 13 5.309685 -0.003834 0.000000 -0.219802 0.056232 0.245624
 14 4.826790 -0.004591 0.000000 -0.176762 0.043936 0.240248
 15 5.792767 -0.005304 0.000000 -0.206771 0.032610 0.153586
 16 6.662317 -0.001453 0.000000 0.000000 -0.000001 0.471000
 17 2.046985 -0.000002 0.000000 0.530480 -0.045610 -0.260728
 18 -3.112024 1.517254 4.341911 0.937146 -1.018865 1.811144
 19 4.827230 0.000000 0.000001 -0.346429 0.445800 -0.583349
 20 11.139763 0.000000 0.000000 0.000000 -0.000000 -1.045303
 21 10.314597 0.000001 0.000000 -2.987507 -0.064632 0.326449
 22 2.975834 -0.386307 -0.044143 -0.023088 -0.037007 0.541079
 23 1.438886 0.000000 0.000000 0.000000 -0.000000 0.777745
 24 1.485303 0.000000 0.000000 0.000000 -0.000000 0.688984
 25 -2.869898 1.399663 -4.140396 -1.140329 0.711647 1.711531
 26 4.972048 0.000000 0.000001 0.460248 -0.383622 -1.008541
 27 11.585355 0.000000 0.000000 0.000000 -0.000000 -0.911601
 28 10.127057 0.000000 0.000001 2.052614 0.054576 0.642281
 29 2.683750 -0.427338 0.044205 -0.005738 0.043239 -0.157060
 30 1.438885 -0.000001 0.000000 0.000000 -0.000000 0.732589
 31 1.485305 0.000001 0.000000 0.000000 -0.000000 1.168627
time 18
  0 0.235347 -0.235347 3.532833 -0.000000 -0.000000 -1.571254
  1 0.000000 0.000000 0.000000 -1.570795 -1.570796 0.000000
  2 -0.000005 0.000007 3.713255 -6.281131 3.115177 6.261712
  3 18.045721 0.000000 0.000000 0.000000 -0.000000 -0.121501
  4 17.597597 0.000000 0.000000 -0.002613 0.026036 0.099967
  5 3.793090 6.407221 0.000000 0.000000 -0.000000 1.570796
  6 0.000005 -0.000003 -3.713255 6.280565 -3.123995 6.258640
  7 18.045725 0.000000 0.000000 0.000000 -0.000000 -0.127551
  8 17.597597 0.000000 0.000000 0.002950 -0.017289 0.103055
  9 3.793090 6.407221 0.000000 0.000000 -0.000000 1.570796
 10 0.935740 0.000000 0.000000 0.000000 -0.000000 0.000000
 11 0.935741 0.000000 0.000000 0.000000 -0.000000 0.000000
 12 1.293670 0.684478 -0.000001 -0.000004 -0.000001 0.061869
 13 5.309685 -0.003834 0.000000 -0.219863 0.055908 0.244411
 14 4.826790 -0.004591 0.000000 -0.175547 0.043636 0.240292
 15 5.792767 -0.005304 0.000000 -0.206771 0.032610 0.153586
 16 6.662317 -0.001453 0.000000 0.000000 -0.000001 0.471000
 17 2.046985 -0.000002 0.000000 0.529274 -0.045317 -0.259605
 18 -3.112024 1.517254 4.341911 0.943953 -1.021942 1.802899
 19 4.827230 0.000000 0.000001 -0.348485 0.451587 -0.585099
 20 11.139763 0.000000 0.000000 0.000000 -0.000000 -1.045303
 21 10.314597 0.000001 0.000000 -2.987507 -0.064632 0.326449
 22 2.975834 -0.386307 -0.044143 -0.023088 -0.037007 0.541079
 23 1.438886 0.000000 0.000000 0.000000 -0.000000 0.776264
 24 1.485303 0.000000 0.000000 0.000000 -0.000000 0.688984
 25 -2.869898 1.399663 -4.140396 -1.142534 0.712806 1.708463
 26 4.972048 0.000000 0.000001 0.463497 -0.385794 -1.008277
 27 11.585355 0.000000 0.000000 0.000000 -0.000000 -0.911601
 28 10.127057 0.000000 0.000001 2.052614 0.054576 0.642281
 29 2.683750 -0.427338 0.044205 -0.005738 0.043239 -0.157060
 30 1.438885 -0.000001 0.000000 0.000000 -0.000000 0.732589
 31 1.485305 0.000001 0.000000 0.000000 -0.000000 1.168627
time 19
  0 0.235347 -0.235347 3.532833 -0.000000 -0.000000 -1.571254
  1 0.000000 0.000000 0.000000 -1.570795 -1.570796 0.000000
  2 -0.000005 0.000007 3.713255 -6.281131 3.115177 6.261712
  3 18.045721 0.000000 0.000000 0.000000 -0.000000 -0.121501
  4 17.597597 0.000000 0.000000 -0.002613 0.026036 0.099967
  5 3.793090 6.407221 0.000000 0.000000 -0.000000 1.570796
  6 0.000005 -0.000003 -3.713255 6.280565 -3.123995 6.258640
  7 18.045725 0.000000 0.000000 0.000000 -0.000000 -0.127551
  8 17.597597 0.000000 0.000000 0.002950 -0.017289 0.103055
  9 3.793090 6.407221 0.000000 0.000000 -0.000000 1.570796
 10 0.935740 0.000000 0.000000 0.000000 -0.000000 0.000000
 11 0.935741 0.000000 0.000000 0.000000 -0.000000 0.000000
 12 1.293670 0.684478 -0.000001 -0.000004 -0.000001 0.061869
 13 5.309685 -0.003834 0.000000 -0.219961 0.055597 0.242854
 14 4.826790 -0.004591 0.000000 -0.173987 0.043204 0.240425
 15 5.792767 -0.005304 0.000000 -0.206771 0.032610 0.153586
 16 6.662317 -0.001453 0.000000 0.000000 -0.000001 0.471000
 17 2.046985 -0.000002 0.000000 0.527680 -0.044935 -0.257897
 18 -3.112024 1.517254 4.341911 0.948459 -1.024019 1.797338
 19 4.827230 0.000000 0.000001 -0.349307 0.455927 -0.586412
 20 11.139763 0.000000 0.000000 0.000000 -0.000000 -1.045303
 21 10.314597 0.000001 0.000000 -2.987507 -0.064632 0.326449
 22 2.975834 -0.386307 -0.044143 -0.023088 -0.037007 0.541079
 23 1.438886 0.000000 0.000000 0.000000 -0.000000 0.776560
 24 1.485303 0.000000 0.000000 0.000000 -0.000000 0.688984
 25 -2.869898 1.399663 -4.140396 -1.145602 0.714417 1.703861
 26 4.972048 0.000000 0.000001 0.467674 -0.388529 -1.007948
 27 11.585355 0.000000 0.000000 0.000000 -0.000000 -0.911601
 28 10.127057 0.000000 0.000001 2.052614 0.054576 0.642281
 29 2.683750 -0.427338 0.044205 -0.005738 0.043239 -0.157060
 30 1.438885 -0.000001 0.000000 0.000000 -0.000000 0.732589
 31 1.485305 0.000001 0.000000 0.000000 -0.000000 1.168627
time 20
  0 0.235347 -0.235347 3.532833 -0.000000 -0.000000 -1.571254
  1 0.000000 0.000000 0.000000 -1.570795 -1.570796 0.000000
  2 -0.000005 0.000007 3.713255 -6.281131 3.115177 6.261712
  3 18.045721 0.000000 0.000000 0.000000 -0.000000 -0.121501
  4 17.597597 0.000000 0.000000 -0.002613 0.026036 0.099967
  5 3.793090 6.407221 0.000000 0.000000 -0.000000 1.570796
  6 0.000005 -0.000003 -3.713255 6.280565 -3.123995 6.258640
  7 18.045725 0.000000 0.000000 0.000000 -0.000000 -0.127551
  8 17.597597 0.000000 0.000000 0.002950 -0.017289 0.103055
  9 3.793090 6.407221 0.000000 0.000000 -0.000000 1.570796
 10 0.935740 0.000000 0.000000 0.000000 -0.000000 0.000000
 11 0.935741 0.000000 0.000000 0.000000 -0.000000 0.000000
 12 1.293670 0.684478 -0.000001 -0.000004 -0.000001 0.061869
 13 5.309685 -0.003834 0.000000 -0.220059 0.055141 0.240989
 14 4.826790 -0.004591 0.000000 -0.172148 0.042797 0.240513
 15 5.792767 -0.005304 0.000000 -0.206771 0.032610 0.153586
 16 6.662317 -0.001453 0.000000 0.000000 -0.000001 0.471000
 17 2.046985 -0.000002 0.000000 0.525784 -0.044484 -0.256054
 18 -3.112024 1.517254 4.341911 0.954403 -1.026442 1.791010
 19 4.827230 0.000000 0.000001 -0.350247 0.461203 -0.588162
 20 11.139763 0.000000 0.000000 0.000000 -0.000000 -1.045303
 21 10.314597 0.000001 0.000000 -2.987507 -0.064632 0.326449
 22 2.975834 -0.386307 -0.044143 -0.023088 -0.037007 0.541079
 23 1.438886 0.000000 0.000000 0.000000 -0.000000 0.777195
 24 1.485303 0.000000 0.000000 0.000000 -0.000000 0.688984
 25 -2.869898 1.399663 -4.140396 -1.149341 0.716169 1.698205
 26 4.972048 0.000000 0.000001 0.472857 -0.391988 -1.007421
 27 11.585355 0.000000 0.000000 0.000000 -0.000000 -0.911601
 28 10.127057 0.000000 0.000001 2.052614 0.054576 0.642281
 29 2.683750 -0.427338 0.044205 -0.005738 0.043239 -0.157060
 30 1.438885 -0.000001 0.000000 0.000000 -0.000000 0.732589
 31 1.485305 0.000001 0.000000 0.000000 -0.000000 1.168627
time 21
  0 0.235347 -0.235347 3.532833 -0.000000 -0.000000 -1.571254
  1 0.000000 0.000000 0.000000 -1.570795 -1.570796 0.000000
  2 -0.000005 0.000007 3.713255 -6.281131 3.115177 6.261712
  3 18.045721 0.000000 0.000000 0.000000 -0.000000 -0.121501
  4 17.597597 0.000000 0.000000 -0.002613 0.026036 0.099967
  5 3.793090 6.407221 0.000000 0.000000 -0.000000 1.570796
  6 0.000005 -0.000003 -3.713255 6.280565 -3.123995 6.258640
  7 18.045725 0.000000 0.000000 0.000000 -0.000000 -0.127551
  8 17.597597 0.000000 0.000000 0.002950 -0.017289 0.103055
  9 3.793090 6.407221 0.000000 0.000000 -0.000000 1.570796
 10 0.935740 0.000000 0.000000 0.000000 -0.000000 0.000000
 11 0.935741 0.000000 0.000000 0.000000 -0.000000 0.000000
 12 1.293670 0.684478 -0.000001 -0.000004 -0.000001 0.061869
 13 5.309685 -0.003834 0.000000 -0.220169 0.054734 0.238888
 14 4.826790 -0.004591 0.000000 -0.170079 0.042294 0.240601
 15 5.792767 -0.005304 0.000000 -0.206771 0.032610 0.153586
 16 6.662317 -0.001453 0.000000 0.000000 -0.000001 0.471000
 17 2.046985 -0.000002 0.000000 0.523630 -0.043966 -0.253716
 18 -3.112024 1.517254 4.341911 0.959868 -1.028942 1.784011
 19 4.827230 0.000000 0.000001 -0.351128 0.466905 -0.590000
 20 11.139763 0.000000 0.000000 0.000000 -0.000000 -1.045303
 21 10.314597 0.000001 0.000000 -2.987507 -0.064632 0.326449
 22 2.975834 -0.386307 -0.044143 -0.023088 -0.037007 0.541079
 23 1.438886 0.000000 0.000000 0.000000 -0.000000 0.778126
 24 1.485303 0.000000 0.000000 0.000000 -0.000000 0.688984
 25 -2.869898 1.399663 -4.140396 -1.153080 0.718204 1.692069
 26 4.972048 0.000000 0.000001 0.478349 -0.395849 -1.006960
 27 11.585355 0.000000 0.000000 0.000000 -0.000000 -0.911601
 28 10.127057 0.000000 0.000001 2.052614 0.054576 0.642281
 29 2.683750 -0.427338 0.044205 -0.005738 0.043239 -0.157060
 30 1.438885 -0.000001 0.000000 0.000000 -0.000000 0.732589
 31 1.485305 0.000001 0.000000 0.000000 -0.000000 1.168627
time 22
  0 0.235347 -0.235347 3.532833 -0.000000 -0.000000 -1.571254
  1 0.000000 0.000000 0.000000 -1.570795 -1.570796 0.000000
  2 -0.000005 0.000007 3.713255 -6.281131 3.115177 6.261712
  3 18.045721 0.000000 0.000000 0.000000 -0.000000 -0.121501
  4 17.597597 0.000000 0.000000 -0.002613 0.026036 0.099967
  5 3.793090 6.407221 0.000000 0.000000 -0.000000 1.570796
  6 0.000005 -0.000003 -3.713255 6.280565 -3.123995 6.258640
  7 18.045725 0.000000 0.000000 0.000000 -0.000000 -0.127551
  8 17.597597 0.000000 0.000000 0.002950 -0.017289 0.103055
  9 3.793090 6.407221 0.000000 0.000000 -0.000000 1.570796
 10 0.935740 0.000000 0.000000 0.000000 -0.000000 0.000000
 11 0.935741 0.000000 0.000000 0.000000 -0.000000 0.000000
 12 1.293670 0.684478 -0.000001 -0.000004 -0.000001 0.061869
 13 5.309685 -0.003834 0.000000 -0.220304 0.054182 0.236643
 14 4.826790 -0.004591 0.000000 -0.167813 0.041694 0.240623
 15 5.792767 -0.005304 0.000000 -0.206771 0.032610 0.153586
 16 6.662317 -0.001453 0.000000 0.000000 -0.000001 0.471000
 17 2.046985 -0.000002 0.000000 0.521174 -0.043381 -0.251514
 18 -3.112024 1.517254 4.341911 0.965908 -1.031365 1.777204
 19 4.827230 0.000000 0.000001 -0.351833 0.472862 -0.591750
 20 11.139763 0.000000 0.000000 0.000000 -0.000000 -1.045303
 21 10.314597 0.000001 0.000000 -2.987507 -0.064632 0.326449
 22 2.975834 -0.386307 -0.044143 -0.023088 -0.037007 0.541079
 23 1.438886 0.000000 0.000000 0.000000 -0.000000 0.779142
 24 1.485303 0.000000 0.000000 0.000000 -0.000000 0.688984
 25 -2.869898 1.399663 -4.140396 -1.157586 0.720409 1.685837
 26 4.972048 0.000000 0.000001 0.484460 -0.399791 -1.006433
 27 11.585355 0.000000 0.000000 0.000000 -0.000000 -0.911601
 28 10.127057 0.000000 0.000001 2.052614 0.054576 0.642281
 29 2.683750 -0.427338 0.044205 -0.005738 0.043239 -0.157060
 30 1.438885 -0.000001 0.000000 0.000000 -0.000000 0.732589
 31 1.485305 0.000001 0.000000 0.000000 -0.000000 1.168627
time 23
  0 0.235347 -0.235347 3.532833 -0.000000 -0.000000 -1.571254
  1 0.000000 0.000000 0.000000 -1.570795 -1.570796 0.000000
  2 -0.000005 0.000007 3.713255 -6.281131 3.115177 6.261712
  3 18.045721 0.000000 0.000000 0.000000 -0.000000 -0.121501
  4 17.597597 0.000000 0.000000 -0.002613 0.026036 0.099967
  5 3.793090 6.407221 0.000000 0.000000 -0.000000 1.570796
  6 0.000005 -0.000003 -3.713255 6.280565 -3.123995 6.258640
  7 18.045725 0.000000 0.000000 0.000000 -0.000000 -0.127551
  8 17.597597 0.000000 0.000000 0.002950 -0.017289 0.103055
  9 3.793090 6.407221 0.000000 0.000000 -0.000000 1.570796
 10 0.935740 0.000000 0.000000 0.000000 -0.000000 0.000000
 11 0.935741 0.000000 0.000000 0.000000 -0.000000 0.000000
 12 1.293670 0.684478 -0.000001 -0.000004 -0.000001 0.061869
 13 5.309685 -0.003834 0.000000 -0.220414 0.053703 0.234307
 14 4.826790 -0.004591 0.000000 -0.165498 0.041119 0.240711
 15 5.792767 -0.005304 0.000000 -0.206771 0.032610 0.153586
 16 6.662317 -0.001453 0.000000 0.000000 -0.000001 0.471000
 17 2.046985 -0.000002 0.000000 0.518977 -0.042796 -0.249087
 18 -3.112024 1.517254 4.341911 0.971181 -1.033519 1.770876
 19 4.827230 0.000000 0.000001 -0.352244 0.478223 -0.593588
 20 11.139763 0.000000 0.000000 0.000000 -0.000000 -1.045303
 21 10.314597 0.000001 0.000000 -2.987507 -0.064632 0.326449
 22 2.975834 -0.386307 -0.044143 -0.023088 -0.037007 0.541079
 23 1.438886 0.000000 0.000000 0.000000 -0.000000 0.780073
 24 1.485303 0.000000 0.000000 0.000000 -0.000000 0.688984
 25 -2.869898 1.399663 -4.140396 -1.162092 0.722670 1.679030
 26 4.972048 0.000000 0.000001 0.491035 -0.404215 -1.006301
 27 11.585355 0.000000 0.000000 0.000000 -0.000000 -0.911601
 28 10.127057 0.000000 0.000001 2.052614 0.054576 0.642281
 29 2.683750 -0.427338 0.044205 -0.005738 0.043239 -0.157060
 30 1.438885 -0.000001 0.000000 0.000000 -0.000000 0.732589
 31 1.485305 0.000001 0.000000 0.000000 -0.000000 1.168627
time 24
  0 0.235347 -0.235347 3.532833 -0.000000 -0.000000 -1.571254
  1 0.000000 0.000000 0.000000 -1.570795 -1.570796 0.000000
  2 -0.000005 0.000007 3.713255 -6.281131 3.115177 6.261712
  3 18.045721 0.000000 0.000000 0.000000 -0.000000 -0.121501
  4 17.597597 0.000000 0.000000 -0.002613 0.026036 0.099967
  5 3.793090 6.407221 0.000000 0.000000 -0.000000 1.570796
  6 0.000005 -0.000003 -3.713255 6.280565 -3.123995 6.258640
  7 18.045725 0.000000 0.000000 0.000000 -0.000000 -0.127551
  8 17.597597 0.000000 0.000000 0.002950 -0.017289 0.103055
  9 3.793090 6.407221 0.000000 0.000000 -0.000000 1.570796
 10 0.935740 0.000000 0.000000 0.000000 -0.000000 0.000000
 11 0.935741 0.000000 0.000000 0.000000 -0.000000 0.000000
 12 1.293670 0.684478 -0.000001 -0.000004 -0.000001 0.061869
 13 5.309685 -0.003834 0.000000 -0.220549 0.053176 0.231935
 14 4.826790 -0.004591 0.000000 -0.163150 0.040592 0.240888
 15 5.792767 -0.005304 0.000000 -0.206771 0.032610 0.153586
 16 6.662317 -0.001453 0.000000 0.000000 -0.000001 0.471000
 17 2.046985 -0.000002 0.000000 0.516435 -0.042166 -0.246615
 18 -3.112024 1.517254 4.341911 0.976358 -1.035596 1.765411
 19 4.827230 0.000000 0.000001 -0.352420 0.483840 -0.595338
 20 11.139763 0.000000 0.000000 0.000000 -0.000000 -1.045303
 21 10.314597 0.000001 0.000000 -2.987507 -0.064632 0.326449
 22 2.975834 -0.386307 -0.044143 -0.023088 -0.037007 0.541079
 23 1.438886 0.000000 0.000000 0.000000 -0.000000 0.780962
 24 1.485303 0.000000 0.000000 0.000000 -0.000000 0.688984
 25 -2.869898 1.399663 -4.140396 -1.166694 0.724903 1.672127
 26 4.972048 0.000000 0.000001 0.497378 -0.408559 -1.005906
 27 11.585355 0.000000 0.000000 0.000000 -0.000000 -0.911601
 28 10.127057 0.000000 0.000001 2.052614 0.054576 0.642281
 29 2.683750 -0.427338 0.044205 -0.005738 0.043239 -0.157060
 30 1.438885 -0.000001 0.000000 0.000000 -0.000000 0.732589
 31 1.485305 0.000001 0.000000 0.000000 -0.000000 1.168627
time 25
  0 0.235347 -0.235347 3.532833 -0.000000 -0.000000 -1.571254
  1 0.000000 0.000000 0.000000 -1.570795 -1.570796 0.000000
  2 -0.000005 0.000007 3.713255 -6.281131 3.115177 6.261712
  3 18.045721 0.000000 0.000000 0.000000 -0.000000 -0.121501
  4 17.597597 0.000000 0.000000 -0.002613 0.026036 0.099967
  5 3.793090 6.407221 0.000000 0.000000 -0.000000 1.570796
  6 0.000005 -0.000003 -3.713255 6.280565 -3.123995 6.258640
  7 18.045725 0.000000 0.000000 0.000000 -0.000000 -0.127551
  8 17.597597 0.000000 0.000000 0.002950 -0.017289 0.103055
  9 3.793090 6.407221 0.000000 0.000000 -0.000000 1.570796
 10 0.935740 0.000000 0.000000 0.000000 -0.000000 0.000000
 11 0.935741 0.000000 0.000000 0.000000 -0.000000 0.000000
 12 1.293670 0.684478 -0.000001 -0.000004 -0.000001 0.061869
 13 5.309685 -0.003834 0.000000 -0.220671 0.052600 0.229618
 14 4.826790 -0.004591 0.000000 -0.160851 0.040017 0.240976
 15 5.792767 -0.005304 0.000000 -0.206771 0.032610 0.153586
 16 6.662317 -0.001453 0.000000 0.000000 -0.000001 0.471000
 17 2.046985 -0.000002 0.000000 0.514281 -0.041535 -0.244143
 18 -3.112024 1.517254 4.341911 0.980960 -1.037404 1.760042
 19 4.827230 0.000000 0.000001 -0.352479 0.488861 -0.596913
 20 11.139763 0.000000 0.000000 0.000000 -0.000000 -1.045303
 21 10.314597 0.000001 0.000000 -2.987507 -0.064632 0.326449
 22 2.975834 -0.386307 -0.044143 -0.023088 -0.037007 0.541079
 23 1.438886 0.000000 0.000000 0.000000 -0.000000 0.781808
 24 1.485303 0.000000 0.000000 0.000000 -0.000000 0.688984
 25 -2.869898 1.399663 -4.140396 -1.171200 0.727051 1.665416
 26 4.972048 0.000000 0.000001 0.503644 -0.412742 -1.005445
 27 11.585355 0.000000 0.000000 0.000000 -0.000000 -0.911601
 28 10.127057 0.000000 0.000001 2.052614 0.054576 0.642281
 29 2.683750 -0.427338 0.044205 -0.005738 0.043239 -0.157060
 30 1.438885 -0.000001 0.000000 0.000000 -0.000000 0.732589
 31 1.485305 0.000001 0.000000 0.000000 -0.000000 1.168627
time 26
  0 0.235347 -0.235347 3.532833 -0.000000 -0.000000 -1.571254
  1 0.000000 0.000000 0.000000 -1.570795 -1.570796 0.000000
  2 -0.000005 0.000007 3.713255 -6.281131 3.115177 6.261712
  3 18.045721 0.000000 0.000000 0.000000 -0.000000 -0.121501
  4 17.597597 0.000000 0.000000 -0.002613 0.026036 0.099967
  5 3.793090 6.407221 0.000000 0.000000 -0.000000 1.570796
  6 0.000005 -0.000003 -3.713255 6.280565 -3.123995 6.258640
  7 18.045725 0.000000 0.000000 0.000000 -0.000000 -0.127551
  8 17.597597 0.000000 0.000000 0.002950 -0.017289 0.103055
  9 3.793090 6.407221 0.000000 0.000000 -0.000000 1.570796
 10 0.935740 0.000000 0.000000 0.000000 -0.000000 0.000000
 11 0.935741 0.000000 0.000000 0.000000 -0.000000 0.000000
 12 1.293670 0.684478 -0.000001 -0.000004 -0.000001 0.061869
 13 5.309685 -0.003834 0.000000 -0.220769 0.052157 0.227409
 14 4.826790 -0.004591 0.000000 -0.158667 0.039429 0.241064
 15 5.792767 -0.005304 0.000000 -0.206771 0.032610 0.153586
 16 6.662317 -0.001453 0.000000 0.000000 -0.000001 0.471000
 17 2.046985 -0.000002 0.000000 0.511868 -0.040950 -0.241670
 18 -3.112024 1.517254 4.341911 0.985274 -1.039096 1.754769
 19 4.827230 0.000000 0.000001 -0.352479 0.493286 -0.598576
 20 11.139763 0.000000 0.000000 0.000000 -0.000000 -1.045303
 21 10.314597 0.000001 0.000000 -2.987507 -0.064632 0.326449
 22 2.975834 -0.386307 -0.044143 -0.023088 -0.037007 0.541079
 23 1.438886 0.000000 0.000000 0.000000 -0.000000 0.782570
 24 1.485303 0.000000 0.000000 0.000000 -0.000000 0.688984
 25 -2.869898 1.399663 -4.140396 -1.175514 0.729086 1.658609
 26 4.972048 0.000000 0.000001 0.509755 -0.417005 -1.005247
 27 11.585355 0.000000 0.000000 0.000000 -0.000000 -0.911601
 28 10.127057 0.000000 0.000001 2.052614 0.054576 0.642281
 29 2.683750 -0.427338 0.044205 -0.005738 0.043239 -0.157060
 30 1.438885 -0.000001 0.000000 0.000000 -0.000000 0.732589
 31 1.485305 0.000001 0.000000 0.000000 -0.000000 1.168627
time 27
  0 0.235347 -0.235347 3.532833 -0.000000 -0.000000 -1.571254
  1 0.000000 0.000000 0.000000 -1.570795 -1.570796 0.000000
  2 -0.000005 0.000007 3.713255 -6.281131 3.115177 6.261712
  3 18.045721 0.000000 0.000000 0.000000 -0.000000 -0.121501
  4 17.597597 0.000000 0.000000 -0.002613 0.026036 0.099967
  5 3.793090 6.407221 0.000000 0.000000 -0.000000 1.570796
  6 0.000005 -0.000003 -3.713255 6.280565 -3.123995 6.258640
  7 18.045725 0.000000 0.000000 0.000000 -0.000000 -0.127551
  8 17.597597 0.000000 0.000000 0.002950 -0.017289 0.103055
  9 3.793090 6.407221 0.000000 0.000000 -0.000000 1.570796
 10 0.935740 0.000000 0.000000 0.000000 -0.000000 0.000000
 11 0.935741 0.000000 0.000000 0.000000 -0.000000 0.000000
 12 1.293670 0.684478 -0.000001 -0.000004 -0.000001 0.061869
 13 5.309685 -0.003834 0.000000 -0.220867 0.051702 0.225399
 14 4.826790 -0.004591 0.000000 -0.156631 0.038986 0.241086
 15 5.792767 -0.005304 0.000000 -0.206771 0.032610 0.153586
 16 6.662317 -0.001453 0.000000 0.000000 -0.000001 0.471000
 17 2.046985 -0.000002 0.000000 0.510016 -0.040387 -0.239738
 18 -3.112024 1.517254 4.341911 0.989301 -1.040673 1.750167
 19 4.827230 0.000000 0.000001 -0.352479 0.497711 -0.599976
 20 11.139763 0.000000 0.000000 0.000000 -0.000000 -1.045303
 21 10.314597 0.000001 0.000000 -2.987507 -0.064632 0.326449
 22 2.975834 -0.386307 -0.044143 -0.023088 -0.037007 0.541079
 23 1.438886 0.000000 0.000000 0.000000 -0.000000 0.783205
 24 1.485303 0.000000 0.000000 0.000000 -0.000000 0.688984
 25 -2.869898 1.399663 -4.140396 -1.179541 0.730895 1.652569
 26 4.972048 0.000000 0.000001 0.515247 -0.420625 -1.004918
 27 11.585355 0.000000 0.000000 0.000000 -0.000000 -0.911601
 28 10.127057 0.000000 0.000001 2.052614 0.054576 0.642281
 29 2.683750 -0.427338 0.044205 -0.005738 0.043239 -0.157060
 30 1.438885 -0.000001 0.000000 0.000000 -0.000000 0.732589
 31 1.485305 0.000001 0.000000 0.000000 -0.000000 1.168627
time 28
  0 0.235347 -0.235347 3.532833 -0.000000 -0.000000 -1.571254
  1 0.000000 0.000000 0.000000 -1.570795 -1.570796 0.000000
  2 -0.000005 0.000007 3.713255 -6.281131 3.115177 6.261712
  3 18.045721 0.000000 0.000000 0.000000 -0.000000 -0.121501
  4 17.597597 0.000000 0.000000 -0.002613 0.026036 0.099967
  5 3.793090 6.407221 0.000000 0.000000 -0.000000 1.570796
  6 0.000005 -0.000003 -3.713255 6.280565 -3.123995 6.258640
  7 18.045725 0.000000 0.000000 0.000000 -0.000000 -0.127551
  8 17.597597 0.000000 0.000000 0.002950 -0.017289 0.103055
  9 3.793090 6.407221 0.000000 0.000000 -0.000000 1.570796
 10 0.935740 0.000000 0.000000 0.000000 -0.000000 0.000000
 11 0.935741 0.000000 0.000000 0.000000 -0.000000 0.000000
 12 1.293670 0.684478 -0.000001 -0.000004 -0.000001 0.061869
 13 5.309685 -0.003834 0.000000 -0.220977 0.051258 0.223624
 14 4.826790 -0.004591 0.000000 -0.154874 0.038506 0.241152
 15 5.792767 -0.005304 0.000000 -0.206771 0.032610 0.153586
 16 6.662317 -0.001453 0.000000 0.000000 -0.000001 0.471000
 17 2.046985 -0.000002 0.000000 0.508120 -0.039892 -0.237895
 18 -3.112024 1.517254 4.341911 0.992944 -1.042019 1.746140
 19 4.827230 0.000000 0.000001 -0.352479 0.501541 -0.601026
 20 11.139763 0.000000 0.000000 0.000000 -0.000000 -1.045303
 21 10.314597 0.000001 0.000000 -2.987507 -0.064632 0.326449
 22 2.975834 -0.386307 -0.044143 -0.023088 -0.037007 0.541079
 23 1.438886 0.000000 0.000000 0.000000 -0.000000 0.783967
 24 1.485303 0.000000 0.000000 0.000000 -0.000000 0.688984
 25 -2.869898 1.399663 -4.140396 -1.183088 0.732506 1.647296
 26 4.972048 0.000000 0.000001 0.520198 -0.424084 -1.004786
 27 11.585355 0.000000 0.000000 0.000000 -0.000000 -0.911601
 28 10.127057 0.000000 0.000001 2.052614 0.054576 0.642281
 29 2.683750 -0.427338 0.044205 -0.005738 0.043239 -0.157060
 30 1.438885 -0.000001 0.000000 0.000000 -0.000000 0.732589
 31 1.485305 0.000001 0.000000 0.000000 -0.000000 1.168627
time 29
  0 0.235347 -0.235347 3.532833 -0.000000 -0.000000 -1.571254
  1 0.000000 0.000000 0.000000 -1.570795 -1.570796 0.000000
  2 -0.000005 0.000007 3.713255 -6.281131 3.115177 6.261712
  3 18.045721 0.000000 0.000000 0.000000 -0.000000 -0.121501
  4 17.597597 0.000000 0.000000 -0.002613 0.026036 0.099967
  5 3.793090 6.407221 0.000000 0.000000 -0.000000 1.570796
  6 0.000005 -0.000003 -3.713255 6.280565 -3.123995 6.258640
  7 18.045725 0.000000 0.000000 0.000000 -0.000000 -0.127551
  8 17.597597 0.000000 0.000000 0.002950 -0.017289 0.103055
  9 3.793090 6.407221 0.000000 0.000000 -0.000000 1.570796
 10 0.935740 0.000000 0.000000 0.000000 -0.000000 0.000000
 11 0.935741 0.000000 0.000000 0.000000 -0.000000 0.000000
 12 1.293670 0.684478 -0.000001 -0.000004 -0.000001 0.061869
 13 5.309685 -0.003834 0.000000 -0.221063 0.050935 0.222158
 14 4.826790 -0.004591 0.000000 -0.153429 0.038195 0.241196
 15 5.792767 -0.005304 0.000000 -0.206771 0.032610 0.153586
 16 6.662317 -0.001453 0.000000 0.000000 -0.000001 0.471000
 17 2.046985 -0.000002 0.000000 0.506612 -0.039487 -0.236367
 18 -3.112024 1.517254 4.341911 0.996108 -1.043327 1.742209
 19 4.827230 0.000000 0.000001 -0.352714 0.504945 -0.602514
 20 11.139763 0.000000 0.000000 0.000000 -0.000000 -1.045303
 21 10.314597 0.000001 0.000000 -2.987507 -0.064632 0.326449
 22 2.975834 -0.386307 -0.044143 -0.023088 -0.037007 0.541079
 23 1.438886 0.000000 0.000000 0.000000 -0.000000 0.784517
 24 1.485303 0.000000 0.000000 0.000000 -0.000000 0.688984
 25 -2.869898 1.399663 -4.140396 -1.185581 0.733806 1.642982
 26 4.972048 0.000000 0.000001 0.524143 -0.426658 -1.004654
 27 11.585355 0.000000 0.000000 0.000000 -0.000000 -0.911601
 28 10.127057 0.000000 0.000001 2.052614 0.054576 0.642281
 29 2.683750 -0.427338 0.044205 -0.005738 0.043239 -0.157060
 30 1.438885 -0.000001 0.000000 0.000000 -0.000000 0.732589
 31 1.485305 0.000001 0.000000 0.000000 -0.000000 1.168627
time 30
  0 0.235347 -0.235347 3.532833 -0.000000 -0.000000 -1.571254
  1 0.000000 0.000000 0.000000 -1.570795 -1.570796 0.000000
  2 -0.000005 0.000007 3.713255 -6.281131 3.115177 6.261712
  3 18.045721 0.000000 0.000000 0.000000 -0.000000 -0.121501
  4 17.597597 0.000000 0.000000 -0.002613 0.026036 0.099967
  5 3.793090 6.407221 0.000000 0.000000 -0.000000 1.570796
  6 0.000005 -0.000003 -3.713255 6.280565 -3.123995 6.258640
  7 18.045725 0.000000 0.000000 0.000000 -0.000000 -0.127551
  8 17.597597 0.000000 0.000000 0.002950 -0.017289 0.103055
  9 3.793090 6.407221 0.000000 0.000000 -0.000000 1.570796
 10 0.935740 0.000000 0.000000 0.000000 -0.000000 0.000000
 11 0.935741 0.000000 0.000000 0.000000 -0.000000 0.000000
 12 1.293670 0.684478 -0.000001 -0.000004 -0.000001 0.061869
 13 5.309685 -0.003834 0.000000 -0.221112 0.050743 0.221108
 14 4.826790 -0.004591 0.000000 -0.152362 0.037883 0.241240
 15 5.792767 -0.005304 0.000000 -0.206771 0.032610 0.153586
 16 6.662317 -0.001453 0.000000 0.000000 -0.000001 0.471000
 17 2.046985 -0.000002 0.000000 0.505535 -0.039194 -0.235243
 18 -3.112024 1.517254 4.341911 0.999080 -1.044327 1.739141
 19 4.827230 0.000000 0.000001 -0.353125 0.507583 -0.603389
 20 11.139763 0.000000 0.000000 0.000000 -0.000000 -1.045303
 21 10.314597 0.000001 0.000000 -2.987507 -0.064632 0.326449
 22 2.975834 -0.386307 -0.044143 -0.023088 -0.037007 0.541079
 23 1.438886 0.000000 0.000000 0.000000 -0.000000 0.784940
 24 1.485303 0.000000 0.000000 0.000000 -0.000000 0.688984
 25 -2.869898 1.399663 -4.140396 -1.187882 0.734767 1.639722
 26 4.972048 0.000000 0.000001 0.527005 -0.428669 -1.004325
 27 11.585355 0.000000 0.000000 0.000000 -0.000000 -0.911601
 28 10.127057 0.000000 0.000001 2.052614 0.054576 0.642281
 29 2.683750 -0.427338 0.044205 -0.005738 0.043239 -0.157060
 30 1.438885 -0.000001 0.000000 0.000000 -0.000000 0.732589
 31 1.485305 0.000001 0.000000 0.000000 -0.000000 1.168627
end
