version 1
nodes
  0 "Bip01"  -1
  1 "Bip01 Pelvis"   0
  2 "Bip01 L Leg"   1
  3 "Bip01 L Leg1"   2
  4 "Bip01 L Foot"   3
  5 "Bip01 L Toe0"   4
  6 "Bip01 R Leg"   1
  7 "Bip01 R Leg1"   6
  8 "Bip01 R Foot"   7
  9 "Bip01 R Toe0"   8
 10 "Bip01 R Toe01"   9
 11 "Bip01 R Toe02"  10
 12 "Bip01 Spine"   1
 13 "Bip01 Spine1"  12
 14 "Bip01 Spine2"  13
 15 "Bip01 Spine3"  14
 16 "Bip01 Neck"  15
 17 "Bip01 Head"  16
 18 "Bip01 L Arm"  16
 19 "Bip01 L Arm1"  18
 20 "Bip01 L Arm2"  19
 21 "Bip01 L Hand"  20
 22 "Bip01 L Finger1"  21
 23 "Bip01 L Finger11"  22
 24 "Bip01 L Finger12"  23
 25 "Bip01 R Arm"  16
 26 "Bip01 R Arm1"  25
 27 "Bip01 R Arm2"  26
 28 "Bip01 R Hand"  27
 29 "Bip01 R Finger1"  28
 30 "Bip01 R Finger11"  29
 31 "Bip01 R Finger12"  30
end
skeleton
time 0
  0 0.235347 -0.235347 -14.381776 -0.045585 0.257873 -1.742273
  1 0.000000 0.000000 0.000000 -1.570795 -1.570796 0.000000
  2 -0.000005 0.000007 3.713255 -3.368582 -0.221254 1.331540
  3 18.045721 0.000000 0.000000 0.000000 -0.000000 -1.349056
  4 17.597597 0.000000 0.000000 -0.205032 0.225938 -0.216505
  5 3.793090 6.407221 0.000000 0.000000 -0.000000 1.570796
  6 0.000005 -0.000003 -3.713255 6.216042 2.542639 5.445438
  7 18.045725 0.000000 0.000000 0.000000 -0.000000 -2.074575
  8 17.597597 0.000000 0.000000 -0.092072 0.087818 0.559914
  9 3.793090 6.407221 0.000000 0.000000 -0.000000 1.570796
 10 0.935740 0.000000 0.000000 0.000000 -0.000000 0.000000
 11 0.935741 0.000000 0.000000 0.000000 -0.000000 0.000000
 12 1.293670 0.684478 -0.000001 -0.000004 -0.000001 0.271132
 13 5.309685 -0.003834 0.000000 -0.032957 0.011325 0.331161
 14 4.826790 -0.004591 0.000000 -0.148766 0.198393 0.146675
 15 5.792767 -0.005304 0.000000 0.000049 0.087260 0.034802
 16 6.662317 -0.001453 0.000000 0.000000 -0.000001 -0.314346
 17 2.046985 -0.000002 0.000000 0.409331 -0.063012 -0.770885
 18 -3.268279 -1.123452 4.341911 1.923105 -1.393567 1.526584
 19 4.827230 0.000000 0.000001 -0.705132 -0.201902 -1.344084
 20 11.139763 0.000000 0.000000 0.000000 -0.000000 -1.550088
 21 10.314597 0.000001 0.000000 -1.626805 0.320768 -0.018694
 22 2.975834 -0.386307 -0.044143 -0.037734 -0.021799 1.029782
 23 1.438886 0.000000 0.000000 0.000000 -0.000000 1.256261
 24 1.485303 0.000000 0.000000 0.000000 -0.000000 1.665926
 25 -3.014434 -1.034005 -4.140396 -0.000013 1.370795 3.455176
 26 4.972048 0.000000 0.000001 1.910958 0.000403 -1.045166
 27 11.585355 0.000000 0.000000 0.000000 -0.000000 -2.067989
 28 10.127057 0.000000 0.000001 2.180464 0.000000 -0.069778
 29 2.683750 -0.427338 0.044205 0.001045 0.043611 0.000046
 30 1.438885 -0.000001 0.000000 0.000000 -0.000000 0.767689
 31 1.485305 0.000001 0.000000 0.000000 -0.000000 1.221538
time 1
  0 0.235347 -0.235347 -14.381776 -0.045585 0.257873 -1.742273
  1 0.000000 0.000000 0.000000 -1.570795 -1.570796 0.000000
  2 -0.000005 0.000007 3.713255 -3.368582 -0.221254 1.331540
  3 18.045721 0.000000 0.000000 0.000000 -0.000000 -1.349056
  4 17.597597 0.000000 0.000000 -0.205032 0.225938 -0.216505
  5 3.793090 6.407221 0.000000 0.000000 -0.000000 1.570796
  6 0.000005 -0.000003 -3.713255 6.216042 2.542639 5.445438
  7 18.045725 0.000000 0.000000 0.000000 -0.000000 -2.074575
  8 17.597597 0.000000 0.000000 -0.092072 0.087818 0.559914
  9 3.793090 6.407221 0.000000 0.000000 -0.000000 1.570796
 10 0.935740 0.000000 0.000000 0.000000 -0.000000 0.000000
 11 0.935741 0.000000 0.000000 0.000000 -0.000000 0.000000
 12 1.293670 0.684478 -0.000001 -0.000004 -0.000001 0.271132
 13 5.309685 -0.003834 0.000000 -0.032957 0.011325 0.331161
 14 4.826790 -0.004591 0.000000 -0.146697 0.102265 0.161161
 15 5.792767 -0.005304 0.000000 -0.000033 -0.058437 0.034802
 16 6.662317 -0.001453 0.000000 0.000000 -0.000001 -0.314346
 17 2.046985 -0.000002 0.000000 0.196372 0.053962 -0.769941
 18 -3.268279 -1.123452 4.341911 1.923105 -1.393567 1.526584
 19 4.827230 0.000000 0.000001 -1.258898 0.125651 -0.894276
 20 11.139763 0.000000 0.000000 0.000000 -0.000000 -1.550088
 21 10.314597 0.000001 0.000000 -1.626805 0.320768 -0.018694
 22 2.975834 -0.386307 -0.044143 -0.037734 -0.021799 1.029782
 23 1.438886 0.000000 0.000000 0.000000 -0.000000 1.256261
 24 1.485303 0.000000 0.000000 0.000000 -0.000000 1.665926
 25 -3.014434 -1.034005 -4.140396 -3.141106 1.481223 0.313701
 26 4.972048 0.000000 0.000001 1.967814 0.711260 -1.110775
 27 11.585355 0.000000 0.000000 0.000000 -0.000000 -0.984357
 28 10.127057 0.000000 0.000001 2.465085 0.555967 -0.347965
 29 2.683750 -0.427338 0.044205 0.001045 0.043611 0.000046
 30 1.438885 -0.000001 0.000000 0.000000 -0.000000 0.767689
 31 1.485305 0.000001 0.000000 0.000000 -0.000000 1.221538
time 2
  0 0.235347 -0.235347 -14.381776 -0.045585 0.257873 -1.742273
  1 0.000000 0.000000 0.000000 -1.570795 -1.570796 0.000000
  2 -0.000005 0.000007 3.713255 -3.368582 -0.221254 1.331540
  3 18.045721 0.000000 0.000000 0.000000 -0.000000 -1.349056
  4 17.597597 0.000000 0.000000 -0.205032 0.225938 -0.216505
  5 3.793090 6.407221 0.000000 0.000000 -0.000000 1.570796
  6 0.000005 -0.000003 -3.713255 6.216042 2.542639 5.445438
  7 18.045725 0.000000 0.000000 0.000000 -0.000000 -2.074575
  8 17.597597 0.000000 0.000000 -0.092072 0.087818 0.559914
  9 3.793090 6.407221 0.000000 0.000000 -0.000000 1.570796
 10 0.935740 0.000000 0.000000 0.000000 -0.000000 0.000000
 11 0.935741 0.000000 0.000000 0.000000 -0.000000 0.000000
 12 1.293670 0.684478 -0.000001 -0.000004 -0.000001 0.271132
 13 5.309685 -0.003834 0.000000 -0.032957 0.011325 0.331161
 14 4.826790 -0.004591 0.000000 -0.146040 0.025743 0.172494
 15 5.792767 -0.005304 0.000000 -0.000098 -0.174532 0.034802
 16 6.662317 -0.001453 0.000000 0.000000 -0.000001 -0.314346
 17 2.046985 -0.000002 0.000000 0.025204 0.145632 -0.787201
 18 -3.268279 -1.123452 4.341911 1.923105 -1.393567 1.526584
 19 4.827230 0.000000 0.000001 -1.449145 0.289470 -0.709190
 20 11.139763 0.000000 0.000000 0.000000 -0.000000 -1.550088
 21 10.314597 0.000001 0.000000 -1.626805 0.320768 -0.018694
 22 2.975834 -0.386307 -0.044143 -0.037734 -0.021799 1.029782
 23 1.438886 0.000000 0.000000 0.000000 -0.000000 1.256261
 24 1.485303 0.000000 0.000000 0.000000 -0.000000 1.665926
 25 -3.014434 -1.034005 -4.140396 -3.141106 1.334532 0.313701
 26 4.972048 0.000000 0.000001 2.155941 1.020395 -0.862304
 27 11.585355 0.000000 0.000000 0.000000 -0.000000 -0.435265
 28 10.127057 0.000000 0.000001 2.231362 -0.700177 0.172400
 29 2.683750 -0.427338 0.044205 0.001045 0.043611 0.000046
 30 1.438885 -0.000001 0.000000 0.000000 -0.000000 0.767689
 31 1.485305 0.000001 0.000000 0.000000 -0.000000 1.221538
time 3
  0 0.235347 -0.235347 -14.381776 -0.045585 0.257873 -1.742273
  1 0.000000 0.000000 0.000000 -1.570795 -1.570796 0.000000
  2 -0.000005 0.000007 3.713255 -3.368582 -0.221254 1.331540
  3 18.045721 0.000000 0.000000 0.000000 -0.000000 -1.349056
  4 17.597597 0.000000 0.000000 -0.205032 0.225938 -0.216505
  5 3.793090 6.407221 0.000000 0.000000 -0.000000 1.570796
  6 0.000005 -0.000003 -3.713255 6.216042 2.542639 5.445438
  7 18.045725 0.000000 0.000000 0.000000 -0.000000 -2.074575
  8 17.597597 0.000000 0.000000 -0.092072 0.087818 0.559914
  9 3.793090 6.407221 0.000000 0.000000 -0.000000 1.570796
 10 0.935740 0.000000 0.000000 0.000000 -0.000000 0.000000
 11 0.935741 0.000000 0.000000 0.000000 -0.000000 0.000000
 12 1.293670 0.684478 -0.000001 -0.000004 -0.000001 0.271132
 13 5.309685 -0.003834 0.000000 -0.032553 0.012512 0.365907
 14 4.826790 -0.004591 0.000000 -0.145088 0.036996 0.205941
 15 5.792767 -0.005304 0.000000 -0.000098 -0.165052 0.034802
 16 6.662317 -0.001453 0.000000 0.000000 -0.000001 -0.314346
 17 2.046985 -0.000002 0.000000 0.030546 0.131517 -0.854982
 18 -3.268279 -1.123452 4.341911 1.923105 -1.393567 1.526584
 19 4.827230 0.000000 0.000001 -1.424182 0.179179 -0.755921
 20 11.139763 0.000000 0.000000 0.000000 -0.000000 -1.550088
 21 10.314597 0.000001 0.000000 -1.626805 0.320768 -0.018694
 22 2.975834 -0.386307 -0.044143 -0.037734 -0.021799 1.029782
 23 1.438886 0.000000 0.000000 0.000000 -0.000000 1.256261
 24 1.485303 0.000000 0.000000 0.000000 -0.000000 1.665926
 25 -3.014434 -1.034005 -4.140396 -2.245363 1.287585 1.190173
 26 4.972048 0.000000 0.000001 1.830664 0.821384 -1.109787
 27 11.585355 0.000000 0.000000 0.000000 -0.000000 -0.244143
 28 10.127057 0.000000 0.000001 1.360108 -0.530249 0.632043
 29 2.683750 -0.427338 0.044205 0.001045 0.043611 0.000046
 30 1.438885 -0.000001 0.000000 0.000000 -0.000000 0.767689
 31 1.485305 0.000001 0.000000 0.000000 -0.000000 1.221538
time 4
  0 0.235347 -0.235347 -14.381776 -0.045585 0.257873 -1.742273
  1 0.000000 0.000000 0.000000 -1.570795 -1.570796 0.000000
  2 -0.000005 0.000007 3.713255 -3.368582 -0.221254 1.331540
  3 18.045721 0.000000 0.000000 0.000000 -0.000000 -1.349056
  4 17.597597 0.000000 0.000000 -0.205032 0.225938 -0.216505
  5 3.793090 6.407221 0.000000 0.000000 -0.000000 1.570796
  6 0.000005 -0.000003 -3.713255 6.216042 2.542639 5.445438
  7 18.045725 0.000000 0.000000 0.000000 -0.000000 -2.074575
  8 17.597597 0.000000 0.000000 -0.092072 0.087818 0.559914
  9 3.793090 6.407221 0.000000 0.000000 -0.000000 1.570796
 10 0.935740 0.000000 0.000000 0.000000 -0.000000 0.000000
 11 0.935741 0.000000 0.000000 0.000000 -0.000000 0.000000
 12 1.293670 0.684478 -0.000001 -0.000004 -0.000001 0.271132
 13 5.309685 -0.003834 0.000000 -0.032051 0.013698 0.404022
 14 4.826790 -0.004591 0.000000 -0.144037 0.074592 0.239102
 15 5.792767 -0.005304 0.000000 -0.000082 -0.116334 0.034802
 16 6.662317 -0.001453 0.000000 0.000000 -0.000001 -0.314346
 17 2.046985 -0.000002 0.000000 0.098488 0.096240 -0.922673
 18 -3.268279 -1.123452 4.341911 1.923105 -1.393567 1.526584
 19 4.827230 0.000000 0.000001 -1.366679 0.036125 -0.831618
 20 11.139763 0.000000 0.000000 0.000000 -0.000000 -1.550088
 21 10.314597 0.000001 0.000000 -1.626805 0.320768 -0.018694
 22 2.975834 -0.386307 -0.044143 -0.037734 -0.021799 1.029782
 23 1.438886 0.000000 0.000000 0.000000 -0.000000 1.256261
 24 1.485303 0.000000 0.000000 0.000000 -0.000000 1.665926
 25 -3.014434 -1.034005 -4.140396 1.372316 2.029745 4.805357
 26 4.972048 0.000000 0.000001 1.648803 0.514984 -1.190744
 27 11.585355 0.000000 0.000000 0.000000 -0.000000 -0.108566
 28 10.127057 0.000000 0.000001 0.795453 -0.109071 0.620707
 29 2.683750 -0.427338 0.044205 0.001045 0.043611 0.000046
 30 1.438885 -0.000001 0.000000 0.000000 -0.000000 0.767689
 31 1.485305 0.000001 0.000000 0.000000 -0.000000 1.221538
time 5
  0 0.235347 -0.235347 -14.381776 -0.045585 0.257873 -1.742273
  1 0.000000 0.000000 0.000000 -1.570795 -1.570796 0.000000
  2 -0.000005 0.000007 3.713255 -3.368582 -0.221254 1.331540
  3 18.045721 0.000000 0.000000 0.000000 -0.000000 -1.349056
  4 17.597597 0.000000 0.000000 -0.205032 0.225938 -0.216505
  5 3.793090 6.407221 0.000000 0.000000 -0.000000 1.570796
  6 0.000005 -0.000003 -3.713255 6.216042 2.542639 5.445438
  7 18.045725 0.000000 0.000000 0.000000 -0.000000 -2.074575
  8 17.597597 0.000000 0.000000 -0.092072 0.087818 0.559914
  9 3.793090 6.407221 0.000000 0.000000 -0.000000 1.570796
 10 0.935740 0.000000 0.000000 0.000000 -0.000000 0.000000
 11 0.935741 0.000000 0.000000 0.000000 -0.000000 0.000000
 12 1.293670 0.684478 -0.000001 -0.000004 -0.000001 0.271132
 13 5.309685 -0.003834 0.000000 -0.031855 0.014202 0.418363
 14 4.826790 -0.004591 0.000000 -0.143889 0.105165 0.249200
 15 5.792767 -0.005304 0.000000 -0.000049 -0.073238 0.034802
 16 6.662317 -0.001453 0.000000 0.000000 -0.000001 -0.314346
 17 2.046985 -0.000002 0.000000 0.164491 0.072535 -0.945416
 18 -3.268279 -1.123452 4.341911 1.923105 -1.393567 1.526584
 19 4.827230 0.000000 0.000001 -1.253318 -0.082761 -0.906703
 20 11.139763 0.000000 0.000000 0.000000 -0.000000 -1.550088
 21 10.314597 0.000001 0.000000 -1.626805 0.320768 -0.018694
 22 2.975834 -0.386307 -0.044143 -0.037734 -0.021799 1.029782
 23 1.438886 0.000000 0.000000 0.000000 -0.000000 1.256261
 24 1.485303 0.000000 0.000000 0.000000 -0.000000 1.665926
 25 -3.014434 -1.034005 -4.140396 1.512674 2.095318 4.958754
 26 4.972048 0.000000 0.000001 1.637896 0.327476 -1.166569
 27 11.585355 0.000000 0.000000 0.000000 -0.000000 -0.002652
 28 10.127057 0.000000 0.000001 0.635497 0.050191 0.482202
 29 2.683750 -0.427338 0.044205 0.001045 0.043611 0.000046
 30 1.438885 -0.000001 0.000000 0.000000 -0.000000 0.767689
 31 1.485305 0.000001 0.000000 0.000000 -0.000000 1.221538
time 6
  0 0.235347 -0.235347 -14.381776 -0.045585 0.257873 -1.742273
  1 0.000000 0.000000 0.000000 -1.570795 -1.570796 0.000000
  2 -0.000005 0.000007 3.713255 -3.368582 -0.221254 1.331540
  3 18.045721 0.000000 0.000000 0.000000 -0.000000 -1.349056
  4 17.597597 0.000000 0.000000 -0.205032 0.225938 -0.216505
  5 3.793090 6.407221 0.000000 0.000000 -0.000000 1.570796
  6 0.000005 -0.000003 -3.713255 6.216042 2.542639 5.445438
  7 18.045725 0.000000 0.000000 0.000000 -0.000000 -2.074575
  8 17.597597 0.000000 0.000000 -0.092072 0.087818 0.559914
  9 3.793090 6.407221 0.000000 0.000000 -0.000000 1.570796
 10 0.935740 0.000000 0.000000 0.000000 -0.000000 0.000000
 11 0.935741 0.000000 0.000000 0.000000 -0.000000 0.000000
 12 1.293670 0.684478 -0.000001 -0.000004 -0.000001 0.271132
 13 5.309685 -0.003834 0.000000 -0.032002 0.013830 0.408277
 14 4.826790 -0.004591 0.000000 -0.144661 0.127804 0.235596
 15 5.792767 -0.005304 0.000000 0.000000 -0.036733 0.034802
 16 6.662317 -0.001453 0.000000 0.000000 -0.000001 -0.314346
 17 2.046985 -0.000002 0.000000 0.222868 0.051080 -0.921819
 18 -3.268279 -1.123452 4.341911 1.923105 -1.393567 1.526584
 19 4.827230 0.000000 0.000001 -1.114348 -0.149735 -0.992289
 20 11.139763 0.000000 0.000000 0.000000 -0.000000 -1.550088
 21 10.314597 0.000001 0.000000 -1.626805 0.320768 -0.018694
 22 2.975834 -0.386307 -0.044143 -0.037734 -0.021799 1.029782
 23 1.438886 0.000000 0.000000 0.000000 -0.000000 1.256261
 24 1.485303 0.000000 0.000000 0.000000 -0.000000 1.665926
 25 -3.014434 -1.034005 -4.140396 -1.495539 1.171787 1.966074
 26 4.972048 0.000000 0.000001 1.791600 -0.289104 -1.315902
 27 11.585355 0.000000 0.000000 0.000000 -0.000000 -0.515715
 28 10.127057 0.000000 0.000001 1.003440 -0.028777 0.348365
 29 2.683750 -0.427338 0.044205 0.001045 0.043611 0.000046
 30 1.438885 -0.000001 0.000000 0.000000 -0.000000 0.767689
 31 1.485305 0.000001 0.000000 0.000000 -0.000000 1.221538
time 7
  0 0.235347 -0.235347 -14.381776 -0.045585 0.257873 -1.742273
  1 0.000000 0.000000 0.000000 -1.570795 -1.570796 0.000000
  2 -0.000005 0.000007 3.713255 -3.368582 -0.221254 1.331540
  3 18.045721 0.000000 0.000000 0.000000 -0.000000 -1.349056
  4 17.597597 0.000000 0.000000 -0.205032 0.225938 -0.216505
  5 3.793090 6.407221 0.000000 0.000000 -0.000000 1.570796
  6 0.000005 -0.000003 -3.713255 6.216042 2.542639 5.445438
  7 18.045725 0.000000 0.000000 0.000000 -0.000000 -2.074575
  8 17.597597 0.000000 0.000000 -0.092072 0.087818 0.559914
  9 3.793090 6.407221 0.000000 0.000000 -0.000000 1.570796
 10 0.935740 0.000000 0.000000 0.000000 -0.000000 0.000000
 11 0.935741 0.000000 0.000000 0.000000 -0.000000 0.000000
 12 1.293670 0.684478 -0.000001 -0.000004 -0.000001 0.271132
 13 5.309685 -0.003834 0.000000 -0.032259 0.013171 0.387762
 14 4.826790 -0.004591 0.000000 -0.145794 0.149843 0.211497
 15 5.792767 -0.005304 0.000000 0.000000 0.001186 0.034802
 16 6.662317 -0.001453 0.000000 0.000000 -0.000001 -0.314346
 17 2.046985 -0.000002 0.000000 0.283098 0.023098 -0.878939
 18 -3.268279 -1.123452 4.341911 1.923105 -1.393567 1.526584
 19 4.827230 0.000000 0.000001 -0.987360 -0.179180 -1.085313
 20 11.139763 0.000000 0.000000 0.000000 -0.000000 -1.550088
 21 10.314597 0.000001 0.000000 -1.626805 0.320768 -0.018694
 22 2.975834 -0.386307 -0.044143 -0.037734 -0.021799 1.029782
 23 1.438886 0.000000 0.000000 0.000000 -0.000000 1.256261
 24 1.485303 0.000000 0.000000 0.000000 -0.000000 1.665926
 25 -3.014434 -1.034005 -4.140396 -1.268703 1.288631 2.198183
 26 4.972048 0.000000 0.000001 1.896493 -0.660500 -1.376307
 27 11.585355 0.000000 0.000000 0.000000 -0.000000 -1.018286
 28 10.127057 0.000000 0.000001 1.384251 -0.074690 0.212802
 29 2.683750 -0.427338 0.044205 0.001045 0.043611 0.000046
 30 1.438885 -0.000001 0.000000 0.000000 -0.000000 0.767689
 31 1.485305 0.000001 0.000000 0.000000 -0.000000 1.221538
time 8
  0 0.235347 -0.235347 -14.381776 -0.045585 0.257873 -1.742273
  1 0.000000 0.000000 0.000000 -1.570795 -1.570796 0.000000
  2 -0.000005 0.000007 3.713255 -3.368582 -0.221254 1.331540
  3 18.045721 0.000000 0.000000 0.000000 -0.000000 -1.349056
  4 17.597597 0.000000 0.000000 -0.205032 0.225938 -0.216505
  5 3.793090 6.407221 0.000000 0.000000 -0.000000 1.570796
  6 0.000005 -0.000003 -3.713255 6.216042 2.542639 5.445438
  7 18.045725 0.000000 0.000000 0.000000 -0.000000 -2.074575
  8 17.597597 0.000000 0.000000 -0.092072 0.087818 0.559914
  9 3.793090 6.407221 0.000000 0.000000 -0.000000 1.570796
 10 0.935740 0.000000 0.000000 0.000000 -0.000000 0.000000
 11 0.935741 0.000000 0.000000 0.000000 -0.000000 0.000000
 12 1.293670 0.684478 -0.000001 -0.000004 -0.000001 0.271132
 13 5.309685 -0.003834 0.000000 -0.032553 0.012488 0.365256
 14 4.826790 -0.004591 0.000000 -0.147009 0.169594 0.185745
 15 5.792767 -0.005304 0.000000 0.000000 0.036050 0.034802
 16 6.662317 -0.001453 0.000000 0.000000 -0.000001 -0.314346
 17 2.046985 -0.000002 0.000000 0.336090 -0.008194 -0.834351
 18 -3.268279 -1.123452 4.341911 1.923105 -1.393567 1.526584
 19 4.827230 0.000000 0.000001 -0.874880 -0.191179 -1.181138
 20 11.139763 0.000000 0.000000 0.000000 -0.000000 -1.550088
 21 10.314597 0.000001 0.000000 -1.626805 0.320768 -0.018725
 22 2.975834 -0.386307 -0.044143 -0.037734 -0.021799 1.029782
 23 1.438886 0.000000 0.000000 0.000000 -0.000000 1.256261
 24 1.485303 0.000000 0.000000 0.000000 -0.000000 1.665926
 25 -3.014434 -1.034005 -4.140396 -0.887799 1.362457 2.578032
 26 4.972048 0.000000 0.000001 1.870579 -0.533564 -1.233759
 27 11.585355 0.000000 0.000000 0.000000 -0.000000 -1.440965
 28 10.127057 0.000000 0.000001 1.706266 -0.070440 0.091360
 29 2.683750 -0.427338 0.044205 0.001045 0.043611 0.000046
 30 1.438885 -0.000001 0.000000 0.000000 -0.000000 0.767689
 31 1.485305 0.000001 0.000000 0.000000 -0.000000 1.221538
time 9
  0 0.235347 -0.235347 -14.381776 -0.045585 0.257873 -1.742273
  1 0.000000 0.000000 0.000000 -1.570795 -1.570796 0.000000
  2 -0.000005 0.000007 3.713255 -3.368582 -0.221254 1.331540
  3 18.045721 0.000000 0.000000 0.000000 -0.000000 -1.349056
  4 17.597597 0.000000 0.000000 -0.205032 0.225938 -0.216505
  5 3.793090 6.407221 0.000000 0.000000 -0.000000 1.570796
  6 0.000005 -0.000003 -3.713255 6.216042 2.542639 5.445438
  7 18.045725 0.000000 0.000000 0.000000 -0.000000 -2.074575
  8 17.597597 0.000000 0.000000 -0.092072 0.087818 0.559914
  9 3.793090 6.407221 0.000000 0.000000 -0.000000 1.570796
 10 0.935740 0.000000 0.000000 0.000000 -0.000000 0.000000
 11 0.935741 0.000000 0.000000 0.000000 -0.000000 0.000000
 12 1.293670 0.684478 -0.000001 -0.000004 -0.000001 0.271132
 13 5.309685 -0.003834 0.000000 -0.032810 0.011829 0.345030
 14 4.826790 -0.004591 0.000000 -0.148060 0.186157 0.162638
 15 5.792767 -0.005304 0.000000 0.000049 0.065616 0.034802
 16 6.662317 -0.001453 0.000000 0.000000 -0.000001 -0.314346
 17 2.046985 -0.000002 0.000000 0.378871 -0.038969 -0.795920
 18 -3.268279 -1.123452 4.341911 1.923105 -1.393567 1.526584
 19 4.827230 0.000000 0.000001 -0.777965 -0.197051 -1.272062
 20 11.139763 0.000000 0.000000 0.000000 -0.000000 -1.550088
 21 10.314597 0.000001 0.000000 -1.626805 0.320768 -0.018694
 22 2.975834 -0.386307 -0.044143 -0.037734 -0.021799 1.029782
 23 1.438886 0.000000 0.000000 0.000000 -0.000000 1.256261
 24 1.485303 0.000000 0.000000 0.000000 -0.000000 1.665926
 25 -3.014434 -1.034005 -4.140396 -0.369221 1.386256 3.091146
 26 4.972048 0.000000 0.000001 1.876226 -0.231106 -1.111104
 27 11.585355 0.000000 0.000000 0.000000 -0.000000 -1.810058
 28 10.127057 0.000000 0.000001 1.987001 -0.037954 -0.007841
 29 2.683750 -0.427338 0.044205 0.001045 0.043611 0.000046
 30 1.438885 -0.000001 0.000000 0.000000 -0.000000 0.767689
 31 1.485305 0.000001 0.000000 0.000000 -0.000000 1.221538
time 10
  0 0.235347 -0.235347 -14.381776 -0.045585 0.257873 -1.742273
  1 0.000000 0.000000 0.000000 -1.570795 -1.570796 0.000000
  2 -0.000005 0.000007 3.713255 -3.368582 -0.221254 1.331540
  3 18.045721 0.000000 0.000000 0.000000 -0.000000 -1.349056
  4 17.597597 0.000000 0.000000 -0.205032 0.225938 -0.216505
  5 3.793090 6.407221 0.000000 0.000000 -0.000000 1.570796
  6 0.000005 -0.000003 -3.713255 6.216042 2.542639 5.445438
  7 18.045725 0.000000 0.000000 0.000000 -0.000000 -2.074575
  8 17.597597 0.000000 0.000000 -0.092072 0.087818 0.559914
  9 3.793090 6.407221 0.000000 0.000000 -0.000000 1.570796
 10 0.935740 0.000000 0.000000 0.000000 -0.000000 0.000000
 11 0.935741 0.000000 0.000000 0.000000 -0.000000 0.000000
 12 1.293670 0.684478 -0.000001 -0.000004 -0.000001 0.271132
 13 5.309685 -0.003834 0.000000 -0.032957 0.011325 0.331161
 14 4.826790 -0.004591 0.000000 -0.148766 0.198393 0.146675
 15 5.792767 -0.005304 0.000000 0.000049 0.087260 0.034802
 16 6.662317 -0.001453 0.000000 0.000000 -0.000001 -0.314346
 17 2.046985 -0.000002 0.000000 0.409331 -0.063012 -0.770885
 18 -3.268279 -1.123452 4.341911 1.923105 -1.393567 1.526584
 19 4.827230 0.000000 0.000001 -0.705132 -0.201902 -1.344084
 20 11.139763 0.000000 0.000000 0.000000 -0.000000 -1.550088
 21 10.314597 0.000001 0.000000 -1.626805 0.320768 -0.018694
 22 2.975834 -0.386307 -0.044143 -0.037734 -0.021799 1.029782
 23 1.438886 0.000000 0.000000 0.000000 -0.000000 1.256261
 24 1.485303 0.000000 0.000000 0.000000 -0.000000 1.665926
 25 -3.014434 -1.034005 -4.140396 -0.000013 1.370795 3.455176
 26 4.972048 0.000000 0.000001 1.910958 0.000403 -1.045166
 27 11.585355 0.000000 0.000000 0.000000 -0.000000 -2.067989
 28 10.127057 0.000000 0.000001 2.180464 0.000000 -0.069778
 29 2.683750 -0.427338 0.044205 0.001045 0.043611 0.000046
 30 1.438885 -0.000001 0.000000 0.000000 -0.000000 0.767689
 31 1.485305 0.000001 0.000000 0.000000 -0.000000 1.221538
end
