version 1
nodes
  0 "Bip01"  -1
  1 "Bip01 Pelvis"   0
  2 "Bip01 L Leg"   1
  3 "Bip01 L Leg1"   2
  4 "Bip01 L Foot"   3
  5 "Bip01 L Toe0"   4
  6 "Bip01 R Leg"   1
  7 "Bip01 R Leg1"   6
  8 "Bip01 R Foot"   7
  9 "Bip01 R Toe0"   8
 10 "Bip01 R Toe01"   9
 11 "Bip01 R Toe02"  10
 12 "Bip01 Spine"   1
 13 "Bip01 Spine1"  12
 14 "Bip01 Spine2"  13
 15 "Bip01 Spine3"  14
 16 "Bip01 Neck"  15
 17 "Bip01 Head"  16
 18 "Bip01 L Arm"  16
 19 "Bip01 L Arm1"  18
 20 "Bip01 L Arm2"  19
 21 "Bip01 L Hand"  20
 22 "Bip01 L Finger1"  21
 23 "Bip01 L Finger11"  22
 24 "Bip01 L Finger12"  23
 25 "Bip01 R Arm"  16
 26 "Bip01 R Arm1"  25
 27 "Bip01 R Arm2"  26
 28 "Bip01 R Hand"  27
 29 "Bip01 R Finger1"  28
 30 "Bip01 R Finger11"  29
 31 "Bip01 R Finger12"  30
end
skeleton
time 0
  0 0.235347 -0.235347 -14.381776 -0.045585 0.257873 -1.742273
  1 0.000000 0.000000 0.000000 -1.570795 -1.570796 0.000000
  2 -0.000005 0.000007 3.713255 -3.368582 -0.221254 1.331540
  3 18.045721 0.000000 0.000000 0.000000 -0.000000 -1.349056
  4 17.597597 0.000000 0.000000 -0.205032 0.225938 -0.216505
  5 3.793090 6.407221 0.000000 0.000000 -0.000000 1.570796
  6 0.000005 -0.000003 -3.713255 6.216042 2.542639 5.445438
  7 18.045725 0.000000 0.000000 0.000000 -0.000000 -2.074575
  8 17.597597 0.000000 0.000000 -0.092072 0.087818 0.559914
  9 3.793090 6.407221 0.000000 0.000000 -0.000000 1.570796
 10 0.935740 0.000000 0.000000 0.000000 -0.000000 0.000000
 11 0.935741 0.000000 0.000000 0.000000 -0.000000 0.000000
 12 1.293670 0.684478 -0.000001 -0.000004 -0.000001 0.271132
 13 5.309685 -0.003834 0.000000 -0.032957 0.011325 0.331161
 14 4.826790 -0.004591 0.000000 -0.148766 0.198393 0.146675
 15 5.792767 -0.005304 0.000000 0.000049 0.087260 0.034802
 16 6.662317 -0.001453 0.000000 0.000000 -0.000001 -0.314346
 17 2.046985 -0.000002 0.000000 0.409331 -0.063012 -0.770885
 18 -3.268279 -1.123452 4.341911 1.923105 -1.393567 1.526584
 19 4.827230 0.000000 0.000001 -0.705132 -0.201902 -1.344084
 20 11.139763 0.000000 0.000000 0.000000 -0.000000 -1.550088
 21 10.314597 0.000001 0.000000 -1.626805 0.320768 -0.018694
 22 2.975834 -0.386307 -0.044143 -0.037734 -0.021799 1.029782
 23 1.438886 0.000000 0.000000 0.000000 -0.000000 1.256261
 24 1.485303 0.000000 0.000000 0.000000 -0.000000 1.665926
 25 -3.014434 -1.034005 -4.140396 -0.000013 1.370795 3.455176
 26 4.972048 0.000000 0.000001 1.910958 0.000403 -1.045166
 27 11.585355 0.000000 0.000000 0.000000 -0.000000 -2.067989
 28 10.127057 0.000000 0.000001 2.180464 -0.000000 -0.069778
 29 2.683750 -0.427338 0.044205 0.001045 0.043611 0.000046
 30 1.438885 -0.000001 0.000000 0.000000 -0.000000 0.767689
 31 1.485305 0.000001 0.000000 0.000000 -0.000000 1.221538
time 1
  0 0.235347 -0.235347 -14.381776 -0.045585 0.257873 -1.742273
  1 0.000000 0.000000 0.000000 -1.570795 -1.570796 0.000000
  2 -0.000005 0.000007 3.713255 -3.368582 -0.221254 1.331540
  3 18.045721 0.000000 0.000000 0.000000 -0.000000 -1.349056
  4 17.597597 0.000000 0.000000 -0.205032 0.225938 -0.216505
  5 3.793090 6.407221 0.000000 0.000000 -0.000000 1.570796
  6 0.000005 -0.000003 -3.713255 6.216042 2.542639 5.445438
  7 18.045725 0.000000 0.000000 0.000000 -0.000000 -2.074575
  8 17.597597 0.000000 0.000000 -0.092072 0.087818 0.559914
  9 3.793090 6.407221 0.000000 0.000000 -0.000000 1.570796
 10 0.935740 0.000000 0.000000 0.000000 -0.000000 0.000000
 11 0.935741 0.000000 0.000000 0.000000 -0.000000 0.000000
 12 1.293670 0.684478 -0.000001 -0.000004 -0.000001 0.271132
 13 5.309685 -0.003834 0.000000 -0.032957 0.011325 0.331161
 14 4.826790 -0.004591 0.000000 -0.148766 0.198393 0.146675
 15 5.792767 -0.005304 0.000000 0.000049 0.087260 0.038477
 16 6.662317 -0.001453 0.000000 0.000000 -0.000001 -0.314346
 17 2.046985 -0.000002 0.000000 0.409417 -0.062719 -0.774390
 18 -3.268279 -1.123452 4.341911 1.909491 -1.386721 1.540390
 19 4.827230 0.000000 0.000001 -0.705308 -0.204710 -1.336208
 20 11.139763 0.000000 0.000000 0.000000 -0.000000 -1.550088
 21 10.314597 0.000001 0.000000 -1.626805 0.320768 -0.018694
 22 2.975834 -0.386307 -0.044143 -0.037734 -0.021799 1.029782
 23 1.438886 0.000000 0.000000 0.000000 -0.000000 1.256261
 24 1.485303 0.000000 0.000000 0.000000 -0.000000 1.665926
 25 -3.014434 -1.034005 -4.140396 -0.036637 1.370710 3.418936
 26 4.972048 0.000000 0.000001 1.913279 0.004747 -1.038974
 27 11.585355 0.000000 0.000000 0.000000 -0.000000 -2.067989
 28 10.127057 0.000000 0.000001 2.180464 -0.000000 -0.069778
 29 2.683750 -0.427338 0.044205 0.001045 0.043611 0.000046
 30 1.438885 -0.000001 0.000000 0.000000 -0.000000 0.767689
 31 1.485305 0.000001 0.000000 0.000000 -0.000000 1.221538
time 2
  0 0.235347 -0.235347 -14.381776 -0.045585 0.257873 -1.742273
  1 0.000000 0.000000 0.000000 -1.570795 -1.570796 0.000000
  2 -0.000005 0.000007 3.713255 -3.368582 -0.221254 1.331540
  3 18.045721 0.000000 0.000000 0.000000 -0.000000 -1.349056
  4 17.597597 0.000000 0.000000 -0.205032 0.225938 -0.216505
  5 3.793090 6.407221 0.000000 0.000000 -0.000000 1.570796
  6 0.000005 -0.000003 -3.713255 6.216042 2.542639 5.445438
  7 18.045725 0.000000 0.000000 0.000000 -0.000000 -2.074575
  8 17.597597 0.000000 0.000000 -0.092072 0.087818 0.559914
  9 3.793090 6.407221 0.000000 0.000000 -0.000000 1.570796
 10 0.935740 0.000000 0.000000 0.000000 -0.000000 0.000000
 11 0.935741 0.000000 0.000000 0.000000 -0.000000 0.000000
 12 1.293670 0.684478 -0.000001 -0.000004 -0.000001 0.271132
 13 5.309685 -0.003834 0.000000 -0.032957 0.011325 0.331161
 14 4.826790 -0.004591 0.000000 -0.148766 0.198393 0.146675
 15 5.792767 -0.005304 0.000000 0.000049 0.087260 0.043439
 16 6.662317 -0.001453 0.000000 0.000000 -0.000001 -0.314346
 17 2.046985 -0.000002 0.000000 0.409503 -0.062337 -0.779425
 18 -3.268279 -1.123452 4.341911 1.892138 -1.377259 1.557456
 19 4.827230 0.000000 0.000001 -0.705484 -0.209391 -1.325619
 20 11.139763 0.000000 0.000000 0.000000 -0.000000 -1.550088
 21 10.314597 0.000001 0.000000 -1.626805 0.320768 -0.018694
 22 2.975834 -0.386307 -0.044143 -0.037734 -0.021799 1.029782
 23 1.438886 0.000000 0.000000 0.000000 -0.000000 1.256261
 24 1.485303 0.000000 0.000000 0.000000 -0.000000 1.665926
 25 -3.014434 -1.034005 -4.140396 -0.086395 1.370088 3.370424
 26 4.972048 0.000000 0.000001 1.916760 0.010458 -1.030740
 27 11.585355 0.000000 0.000000 0.000000 -0.000000 -2.067989
 28 10.127057 0.000000 0.000001 2.180464 -0.000000 -0.069778
 29 2.683750 -0.427338 0.044205 0.001045 0.043611 0.000046
 30 1.438885 -0.000001 0.000000 0.000000 -0.000000 0.767689
 31 1.485305 0.000001 0.000000 0.000000 -0.000000 1.221538
time 3
  0 0.235347 -0.235347 -14.381776 -0.045585 0.257873 -1.742273
  1 0.000000 0.000000 0.000000 -1.570795 -1.570796 0.000000
  2 -0.000005 0.000007 3.713255 -3.368582 -0.221254 1.331540
  3 18.045721 0.000000 0.000000 0.000000 -0.000000 -1.349056
  4 17.597597 0.000000 0.000000 -0.205032 0.225938 -0.216505
  5 3.793090 6.407221 0.000000 0.000000 -0.000000 1.570796
  6 0.000005 -0.000003 -3.713255 6.216042 2.542639 5.445438
  7 18.045725 0.000000 0.000000 0.000000 -0.000000 -2.074575
  8 17.597597 0.000000 0.000000 -0.092072 0.087818 0.559914
  9 3.793090 6.407221 0.000000 0.000000 -0.000000 1.570796
 10 0.935740 0.000000 0.000000 0.000000 -0.000000 0.000000
 11 0.935741 0.000000 0.000000 0.000000 -0.000000 0.000000
 12 1.293670 0.684478 -0.000001 -0.000004 -0.000001 0.271132
 13 5.309685 -0.003834 0.000000 -0.032957 0.011325 0.331161
 14 4.826790 -0.004591 0.000000 -0.148766 0.198393 0.146675
 15 5.792767 -0.005304 0.000000 0.000049 0.087260 0.049502
 16 6.662317 -0.001453 0.000000 0.000000 -0.000001 -0.314346
 17 2.046985 -0.000002 0.000000 0.409934 -0.061864 -0.785448
 18 -3.268279 -1.123452 4.341911 -1.268511 -1.775692 4.717339
 19 4.827230 0.000000 0.000001 -0.705543 -0.214667 -1.312580
 20 11.139763 0.000000 0.000000 0.000000 -0.000000 -1.550088
 21 10.314597 0.000001 0.000000 -1.626805 0.320768 -0.018694
 22 2.975834 -0.386307 -0.044143 -0.037734 -0.021799 1.029782
 23 1.438886 0.000000 0.000000 0.000000 -0.000000 1.256261
 24 1.485303 0.000000 0.000000 0.000000 -0.000000 1.665926
 25 -3.014434 -1.034005 -4.140396 -0.146220 1.368703 3.311462
 26 4.972048 0.000000 0.000001 1.920937 0.017537 -1.020398
 27 11.585355 0.000000 0.000000 0.000000 -0.000000 -2.067989
 28 10.127057 0.000000 0.000001 2.180464 -0.000000 -0.069778
 29 2.683750 -0.427338 0.044205 0.001045 0.043611 0.000046
 30 1.438885 -0.000001 0.000000 0.000000 -0.000000 0.767689
 31 1.485305 0.000001 0.000000 0.000000 -0.000000 1.221538
time 4
  0 0.235347 -0.235347 -14.381776 -0.045585 0.257873 -1.742273
  1 0.000000 0.000000 0.000000 -1.570795 -1.570796 0.000000
  2 -0.000005 0.000007 3.713255 -3.368582 -0.221254 1.331540
  3 18.045721 0.000000 0.000000 0.000000 -0.000000 -1.349056
  4 17.597597 0.000000 0.000000 -0.205032 0.225938 -0.216505
  5 3.793090 6.407221 0.000000 0.000000 -0.000000 1.570796
  6 0.000005 -0.000003 -3.713255 6.216042 2.542639 5.445438
  7 18.045725 0.000000 0.000000 0.000000 -0.000000 -2.074575
  8 17.597597 0.000000 0.000000 -0.092072 0.087818 0.559914
  9 3.793090 6.407221 0.000000 0.000000 -0.000000 1.570796
 10 0.935740 0.000000 0.000000 0.000000 -0.000000 0.000000
 11 0.935741 0.000000 0.000000 0.000000 -0.000000 0.000000
 12 1.293670 0.684478 -0.000001 -0.000004 -0.000001 0.271132
 13 5.309685 -0.003834 0.000000 -0.032957 0.011325 0.331161
 14 4.826790 -0.004591 0.000000 -0.148766 0.198393 0.146675
 15 5.792767 -0.005304 0.000000 0.000049 0.087260 0.056395
 16 6.662317 -0.001453 0.000000 0.000000 -0.000001 -0.314346
 17 2.046985 -0.000002 0.000000 0.410020 -0.061323 -0.792325
 18 -3.268279 -1.123452 4.341911 -1.287686 -1.788885 4.736514
 19 4.827230 0.000000 0.000001 -0.705778 -0.220624 -1.297703
 20 11.139763 0.000000 0.000000 0.000000 -0.000000 -1.550088
 21 10.314597 0.000001 0.000000 -1.626805 0.320768 -0.018694
 22 2.975834 -0.386307 -0.044143 -0.037734 -0.021799 1.029782
 23 1.438886 0.000000 0.000000 0.000000 -0.000000 1.256261
 24 1.485303 0.000000 0.000000 0.000000 -0.000000 1.665926
 25 -3.014434 -1.034005 -4.140396 -0.213523 1.366301 3.245214
 26 4.972048 0.000000 0.000001 1.925501 0.025742 -1.008936
 27 11.585355 0.000000 0.000000 0.000000 -0.000000 -2.067989
 28 10.127057 0.000000 0.000001 2.180464 -0.000000 -0.069778
 29 2.683750 -0.427338 0.044205 0.001045 0.043611 0.000046
 30 1.438885 -0.000001 0.000000 0.000000 -0.000000 0.767689
 31 1.485305 0.000001 0.000000 0.000000 -0.000000 1.221538
time 5
  0 0.235347 -0.235347 -14.381776 -0.045585 0.257873 -1.742273
  1 0.000000 0.000000 0.000000 -1.570795 -1.570796 0.000000
  2 -0.000005 0.000007 3.713255 -3.368582 -0.221254 1.331540
  3 18.045721 0.000000 0.000000 0.000000 -0.000000 -1.349056
  4 17.597597 0.000000 0.000000 -0.205032 0.225938 -0.216505
  5 3.793090 6.407221 0.000000 0.000000 -0.000000 1.570796
  6 0.000005 -0.000003 -3.713255 6.216042 2.542639 5.445438
  7 18.045725 0.000000 0.000000 0.000000 -0.000000 -2.074575
  8 17.597597 0.000000 0.000000 -0.092072 0.087818 0.559914
  9 3.793090 6.407221 0.000000 0.000000 -0.000000 1.570796
 10 0.935740 0.000000 0.000000 0.000000 -0.000000 0.000000
 11 0.935741 0.000000 0.000000 0.000000 -0.000000 0.000000
 12 1.293670 0.684478 -0.000001 -0.000004 -0.000001 0.271132
 13 5.309685 -0.003834 0.000000 -0.032957 0.011325 0.331161
 14 4.826790 -0.004591 0.000000 -0.148766 0.198393 0.146675
 15 5.792767 -0.005304 0.000000 0.000049 0.087260 0.063932
 16 6.662317 -0.001453 0.000000 0.000000 -0.000001 -0.314346
 17 2.046985 -0.000002 0.000000 0.410451 -0.060738 -0.800011
 18 -3.268279 -1.123452 4.341911 -1.306477 -1.803308 4.754539
 19 4.827230 0.000000 0.000001 -0.706013 -0.227177 -1.281601
 20 11.139763 0.000000 0.000000 0.000000 -0.000000 -1.550088
 21 10.314597 0.000001 0.000000 -1.626805 0.320768 -0.018694
 22 2.975834 -0.386307 -0.044143 -0.037734 -0.021799 1.029782
 23 1.438886 0.000000 0.000000 0.000000 -0.000000 1.256261
 24 1.485303 0.000000 0.000000 0.000000 -0.000000 1.665926
 25 -3.014434 -1.034005 -4.140396 -0.285140 1.362683 3.175610
 26 4.972048 0.000000 0.000001 1.930761 0.034510 -0.996091
 27 11.585355 0.000000 0.000000 0.000000 -0.000000 -2.067989
 28 10.127057 0.000000 0.000001 2.180464 -0.000000 -0.069778
 29 2.683750 -0.427338 0.044205 0.001045 0.043611 0.000046
 30 1.438885 -0.000001 0.000000 0.000000 -0.000000 0.767689
 31 1.485305 0.000001 0.000000 0.000000 -0.000000 1.221538
time 6
  0 0.235347 -0.235347 -14.381776 -0.045585 0.257873 -1.742273
  1 0.000000 0.000000 0.000000 -1.570795 -1.570796 0.000000
  2 -0.000005 0.000007 3.713255 -3.368582 -0.221254 1.331540
  3 18.045721 0.000000 0.000000 0.000000 -0.000000 -1.349056
  4 17.597597 0.000000 0.000000 -0.205032 0.225938 -0.216505
  5 3.793090 6.407221 0.000000 0.000000 -0.000000 1.570796
  6 0.000005 -0.000003 -3.713255 6.216042 2.542639 5.445438
  7 18.045725 0.000000 0.000000 0.000000 -0.000000 -2.074575
  8 17.597597 0.000000 0.000000 -0.092072 0.087818 0.559914
  9 3.793090 6.407221 0.000000 0.000000 -0.000000 1.570796
 10 0.935740 0.000000 0.000000 0.000000 -0.000000 0.000000
 11 0.935741 0.000000 0.000000 0.000000 -0.000000 0.000000
 12 1.293670 0.684478 -0.000001 -0.000004 -0.000001 0.271132
 13 5.309685 -0.003834 0.000000 -0.032957 0.011325 0.331161
 14 4.826790 -0.004591 0.000000 -0.148766 0.198393 0.146675
 15 5.792767 -0.005304 0.000000 0.000049 0.087260 0.071822
 16 6.662317 -0.001453 0.000000 0.000000 -0.000001 -0.314346
 17 2.046985 -0.000002 0.000000 0.410796 -0.060130 -0.807832
 18 -3.268279 -1.123452 4.341911 -1.323734 -1.818616 4.771509
 19 4.827230 0.000000 0.000001 -0.706248 -0.234070 -1.264536
 20 11.139763 0.000000 0.000000 0.000000 -0.000000 -1.550088
 21 10.314597 0.000001 0.000000 -1.626805 0.320768 -0.018694
 22 2.975834 -0.386307 -0.044143 -0.037734 -0.021799 1.029782
 23 1.438886 0.000000 0.000000 0.000000 -0.000000 1.256261
 24 1.485303 0.000000 0.000000 0.000000 -0.000000 1.665926
 25 -3.014434 -1.034005 -4.140396 -0.357141 1.357737 3.105431
 26 4.972048 0.000000 0.000001 1.936176 0.043761 -0.982653
 27 11.585355 0.000000 0.000000 0.000000 -0.000000 -2.067989
 28 10.127057 0.000000 0.000001 2.180464 -0.000000 -0.069778
 29 2.683750 -0.427338 0.044205 0.001045 0.043611 0.000046
 30 1.438885 -0.000001 0.000000 0.000000 -0.000000 0.767689
 31 1.485305 0.000001 0.000000 0.000000 -0.000000 1.221538
time 7
  0 0.235347 -0.235347 -14.381776 -0.045585 0.257873 -1.742273
  1 0.000000 0.000000 0.000000 -1.570795 -1.570796 0.000000
  2 -0.000005 0.000007 3.713255 -3.368582 -0.221254 1.331540
  3 18.045721 0.000000 0.000000 0.000000 -0.000000 -1.349056
  4 17.597597 0.000000 0.000000 -0.205032 0.225938 -0.216505
  5 3.793090 6.407221 0.000000 0.000000 -0.000000 1.570796
  6 0.000005 -0.000003 -3.713255 6.216042 2.542639 5.445438
  7 18.045725 0.000000 0.000000 0.000000 -0.000000 -2.074575
  8 17.597597 0.000000 0.000000 -0.092072 0.087818 0.559914
  9 3.793090 6.407221 0.000000 0.000000 -0.000000 1.570796
 10 0.935740 0.000000 0.000000 0.000000 -0.000000 0.000000
 11 0.935741 0.000000 0.000000 0.000000 -0.000000 0.000000
 12 1.293670 0.684478 -0.000001 -0.000004 -0.000001 0.271132
 13 5.309685 -0.003834 0.000000 -0.032957 0.011325 0.331161
 14 4.826790 -0.004591 0.000000 -0.148766 0.198393 0.146675
 15 5.792767 -0.005304 0.000000 0.000049 0.087260 0.079878
 16 6.662317 -0.001453 0.000000 0.000000 -0.000001 -0.314346
 17 2.046985 -0.000002 0.000000 0.410968 -0.059500 -0.815787
 18 -3.268279 -1.123452 4.341911 -1.339170 -1.834232 4.786178
 19 4.827230 0.000000 0.000001 -0.706424 -0.240963 -1.247209
 20 11.139763 0.000000 0.000000 0.000000 -0.000000 -1.550088
 21 10.314597 0.000001 0.000000 -1.626805 0.320768 -0.018694
 22 2.975834 -0.386307 -0.044143 -0.037734 -0.021799 1.029782
 23 1.438886 0.000000 0.000000 0.000000 -0.000000 1.256261
 24 1.485303 0.000000 0.000000 0.000000 -0.000000 1.665926
 25 -3.014434 -1.034005 -4.140396 -0.426649 1.351773 3.037265
 26 4.972048 0.000000 0.000001 1.941900 0.053092 -0.968754
 27 11.585355 0.000000 0.000000 0.000000 -0.000000 -2.067989
 28 10.127057 0.000000 0.000001 2.180464 -0.000000 -0.069778
 29 2.683750 -0.427338 0.044205 0.001045 0.043611 0.000046
 30 1.438885 -0.000001 0.000000 0.000000 -0.000000 0.767689
 31 1.485305 0.000001 0.000000 0.000000 -0.000000 1.221538
time 8
  0 0.235347 -0.235347 -14.381776 -0.045585 0.257873 -1.742273
  1 0.000000 0.000000 0.000000 -1.570795 -1.570796 0.000000
  2 -0.000005 0.000007 3.713255 -3.368582 -0.221254 1.331540
  3 18.045721 0.000000 0.000000 0.000000 -0.000000 -1.349056
  4 17.597597 0.000000 0.000000 -0.205032 0.225938 -0.216505
  5 3.793090 6.407221 0.000000 0.000000 -0.000000 1.570796
  6 0.000005 -0.000003 -3.713255 6.216042 2.542639 5.445438
  7 18.045725 0.000000 0.000000 0.000000 -0.000000 -2.074575
  8 17.597597 0.000000 0.000000 -0.092072 0.087818 0.559914
  9 3.793090 6.407221 0.000000 0.000000 -0.000000 1.570796
 10 0.935740 0.000000 0.000000 0.000000 -0.000000 0.000000
 11 0.935741 0.000000 0.000000 0.000000 -0.000000 0.000000
 12 1.293670 0.684478 -0.000001 -0.000004 -0.000001 0.271132
 13 5.309685 -0.003834 0.000000 -0.032957 0.011325 0.331161
 14 4.826790 -0.004591 0.000000 -0.148766 0.198393 0.146675
 15 5.792767 -0.005304 0.000000 0.000049 0.087260 0.087851
 16 6.662317 -0.001453 0.000000 0.000000 -0.000001 -0.314346
 17 2.046985 -0.000002 0.000000 0.411399 -0.058870 -0.823923
 18 -3.268279 -1.123452 4.341911 -1.352688 -1.849771 4.799408
 19 4.827230 0.000000 0.000001 -0.706659 -0.247771 -1.230144
 20 11.139763 0.000000 0.000000 0.000000 -0.000000 -1.550088
 21 10.314597 0.000001 0.000000 -1.626805 0.320768 -0.018694
 22 2.975834 -0.386307 -0.044143 -0.037734 -0.021799 1.029782
 23 1.438886 0.000000 0.000000 0.000000 -0.000000 1.256261
 24 1.485303 0.000000 0.000000 0.000000 -0.000000 1.665926
 25 -3.014434 -1.034005 -4.140396 -0.492130 1.344792 2.973222
 26 4.972048 0.000000 0.000001 1.947315 0.062423 -0.955184
 27 11.585355 0.000000 0.000000 0.000000 -0.000000 -2.067989
 28 10.127057 0.000000 0.000001 2.180464 -0.000000 -0.069778
 29 2.683750 -0.427338 0.044205 0.001045 0.043611 0.000046
 30 1.438885 -0.000001 0.000000 0.000000 -0.000000 0.767689
 31 1.485305 0.000001 0.000000 0.000000 -0.000000 1.221538
time 9
  0 0.235347 -0.235347 -14.381776 -0.045585 0.257873 -1.742273
  1 0.000000 0.000000 0.000000 -1.570795 -1.570796 0.000000
  2 -0.000005 0.000007 3.713255 -3.368582 -0.221254 1.331540
  3 18.045721 0.000000 0.000000 0.000000 -0.000000 -1.349056
  4 17.597597 0.000000 0.000000 -0.205032 0.225938 -0.216505
  5 3.793090 6.407221 0.000000 0.000000 -0.000000 1.570796
  6 0.000005 -0.000003 -3.713255 6.216042 2.542639 5.445438
  7 18.045725 0.000000 0.000000 0.000000 -0.000000 -2.074575
  8 17.597597 0.000000 0.000000 -0.092072 0.087818 0.559914
  9 3.793090 6.407221 0.000000 0.000000 -0.000000 1.570796
 10 0.935740 0.000000 0.000000 0.000000 -0.000000 0.000000
 11 0.935741 0.000000 0.000000 0.000000 -0.000000 0.000000
 12 1.293670 0.684478 -0.000001 -0.000004 -0.000001 0.271132
 13 5.309685 -0.003834 0.000000 -0.032957 0.011325 0.331161
 14 4.826790 -0.004591 0.000000 -0.148766 0.198393 0.146675
 15 5.792767 -0.005304 0.000000 0.000049 0.087260 0.095554
 16 6.662317 -0.001453 0.000000 0.000000 -0.000001 -0.314346
 17 2.046985 -0.000002 0.000000 0.411485 -0.058262 -0.831609
 18 -3.268279 -1.123452 4.341911 -1.364864 -1.864810 4.810914
 19 4.827230 0.000000 0.000001 -0.706894 -0.254494 -1.213517
 20 11.139763 0.000000 0.000000 0.000000 -0.000000 -1.550088
 21 10.314597 0.000001 0.000000 -1.626805 0.320768 -0.018694
 22 2.975834 -0.386307 -0.044143 -0.037734 -0.021799 1.029782
 23 1.438886 0.000000 0.000000 0.000000 -0.000000 1.256261
 24 1.485303 0.000000 0.000000 0.000000 -0.000000 1.665926
 25 -3.014434 -1.034005 -4.140396 -0.550613 1.337245 2.916369
 26 4.972048 0.000000 0.000001 1.952807 0.071352 -0.941812
 27 11.585355 0.000000 0.000000 0.000000 -0.000000 -2.067989
 28 10.127057 0.000000 0.000001 2.180464 -0.000000 -0.069778
 29 2.683750 -0.427338 0.044205 0.001045 0.043611 0.000046
 30 1.438885 -0.000001 0.000000 0.000000 -0.000000 0.767689
 31 1.485305 0.000001 0.000000 0.000000 -0.000000 1.221538
time 10
  0 0.235347 -0.235347 -14.381776 -0.045585 0.257873 -1.742273
  1 0.000000 0.000000 0.000000 -1.570795 -1.570796 0.000000
  2 -0.000005 0.000007 3.713255 -3.368582 -0.221254 1.331540
  3 18.045721 0.000000 0.000000 0.000000 -0.000000 -1.349056
  4 17.597597 0.000000 0.000000 -0.205032 0.225938 -0.216505
  5 3.793090 6.407221 0.000000 0.000000 -0.000000 1.570796
  6 0.000005 -0.000003 -3.713255 6.216042 2.542639 5.445438
  7 18.045725 0.000000 0.000000 0.000000 -0.000000 -2.074575
  8 17.597597 0.000000 0.000000 -0.092072 0.087818 0.559914
  9 3.793090 6.407221 0.000000 0.000000 -0.000000 1.570796
 10 0.935740 0.000000 0.000000 0.000000 -0.000000 0.000000
 11 0.935741 0.000000 0.000000 0.000000 -0.000000 0.000000
 12 1.293670 0.684478 -0.000001 -0.000004 -0.000001 0.271132
 13 5.309685 -0.003834 0.000000 -0.032957 0.011325 0.331161
 14 4.826790 -0.004591 0.000000 -0.148766 0.198393 0.146675
 15 5.792767 -0.005304 0.000000 0.000049 0.087260 0.102717
 16 6.662317 -0.001453 0.000000 0.000000 -0.000001 -0.314346
 17 2.046985 -0.000002 0.000000 0.411916 -0.057676 -0.838711
 18 -3.268279 -1.123452 4.341911 -1.374643 -1.878733 4.820789
 19 4.827230 0.000000 0.000001 -0.707070 -0.260536 -1.198290
 20 11.139763 0.000000 0.000000 0.000000 -0.000000 -1.550088
 21 10.314597 0.000001 0.000000 -1.626805 0.320768 -0.018694
 22 2.975834 -0.386307 -0.044143 -0.037734 -0.021799 1.029782
 23 1.438886 0.000000 0.000000 0.000000 -0.000000 1.256261
 24 1.485303 0.000000 0.000000 0.000000 -0.000000 1.665926
 25 -3.014434 -1.034005 -4.140396 -0.602001 1.329614 2.866515
 26 4.972048 0.000000 0.000001 1.957758 0.079718 -0.929428
 27 11.585355 0.000000 0.000000 0.000000 -0.000000 -2.067989
 28 10.127057 0.000000 0.000001 2.180464 -0.000000 -0.069778
 29 2.683750 -0.427338 0.044205 0.001045 0.043611 0.000046
 30 1.438885 -0.000001 0.000000 0.000000 -0.000000 0.767689
 31 1.485305 0.000001 0.000000 0.000000 -0.000000 1.221538
time 11
  0 0.235347 -0.235347 -14.381776 -0.045585 0.257873 -1.742273
  1 0.000000 0.000000 0.000000 -1.570795 -1.570796 0.000000
  2 -0.000005 0.000007 3.713255 -3.368582 -0.221254 1.331540
  3 18.045721 0.000000 0.000000 0.000000 -0.000000 -1.349056
  4 17.597597 0.000000 0.000000 -0.205032 0.225938 -0.216505
  5 3.793090 6.407221 0.000000 0.000000 -0.000000 1.570796
  6 0.000005 -0.000003 -3.713255 6.216042 2.542639 5.445438
  7 18.045725 0.000000 0.000000 0.000000 -0.000000 -2.074575
  8 17.597597 0.000000 0.000000 -0.092072 0.087818 0.559914
  9 3.793090 6.407221 0.000000 0.000000 -0.000000 1.570796
 10 0.935740 0.000000 0.000000 0.000000 -0.000000 0.000000
 11 0.935741 0.000000 0.000000 0.000000 -0.000000 0.000000
 12 1.293670 0.684478 -0.000001 -0.000004 -0.000001 0.271132
 13 5.309685 -0.003834 0.000000 -0.032957 0.011325 0.331161
 14 4.826790 -0.004591 0.000000 -0.148766 0.198393 0.146675
 15 5.792767 -0.005304 0.000000 0.000049 0.087260 0.109029
 16 6.662317 -0.001453 0.000000 0.000000 -0.000001 -0.314346
 17 2.046985 -0.000002 0.000000 0.412002 -0.057181 -0.844913
 18 -3.268279 -1.123452 4.341911 -1.382984 -1.891195 4.828555
 19 4.827230 0.000000 0.000001 -0.707129 -0.266323 -1.184551
 20 11.139763 0.000000 0.000000 0.000000 -0.000000 -1.550088
 21 10.314597 0.000001 0.000000 -1.626805 0.320768 -0.018694
 22 2.975834 -0.386307 -0.044143 -0.037734 -0.021799 1.029782
 23 1.438886 0.000000 0.000000 0.000000 -0.000000 1.256261
 24 1.485303 0.000000 0.000000 0.000000 -0.000000 1.665926
 25 -3.014434 -1.034005 -4.140396 -0.645144 1.322322 2.824331
 26 4.972048 0.000000 0.000001 1.962167 0.087038 -0.918493
 27 11.585355 0.000000 0.000000 0.000000 -0.000000 -2.067989
 28 10.127057 0.000000 0.000001 2.180464 -0.000000 -0.069778
 29 2.683750 -0.427338 0.044205 0.001045 0.043611 0.000046
 30 1.438885 -0.000001 0.000000 0.000000 -0.000000 0.767689
 31 1.485305 0.000001 0.000000 0.000000 -0.000000 1.221538
time 12
  0 0.235347 -0.235347 -14.381776 -0.045585 0.257873 -1.742273
  1 0.000000 0.000000 0.000000 -1.570795 -1.570796 0.000000
  2 -0.000005 0.000007 3.713255 -3.368582 -0.221254 1.331540
  3 18.045721 0.000000 0.000000 0.000000 -0.000000 -1.349056
  4 17.597597 0.000000 0.000000 -0.205032 0.225938 -0.216505
  5 3.793090 6.407221 0.000000 0.000000 -0.000000 1.570796
  6 0.000005 -0.000003 -3.713255 6.216042 2.542639 5.445438
  7 18.045725 0.000000 0.000000 0.000000 -0.000000 -2.074575
  8 17.597597 0.000000 0.000000 -0.092072 0.087818 0.559914
  9 3.793090 6.407221 0.000000 0.000000 -0.000000 1.570796
 10 0.935740 0.000000 0.000000 0.000000 -0.000000 0.000000
 11 0.935741 0.000000 0.000000 0.000000 -0.000000 0.000000
 12 1.293670 0.684478 -0.000001 -0.000004 -0.000001 0.271132
 13 5.309685 -0.003834 0.000000 -0.032957 0.011325 0.331161
 14 4.826790 -0.004591 0.000000 -0.148766 0.198393 0.146675
 15 5.792767 -0.005304 0.000000 0.000049 0.087260 0.114427
 16 6.662317 -0.001453 0.000000 0.000000 -0.000001 -0.314346
 17 2.046985 -0.000002 0.000000 0.412347 -0.056753 -0.850397
 18 -3.268279 -1.123452 4.341911 -1.389695 -1.901734 4.834691
 19 4.827230 0.000000 0.000001 -0.707305 -0.271174 -1.173087
 20 11.139763 0.000000 0.000000 0.000000 -0.000000 -1.550088
 21 10.314597 0.000001 0.000000 -1.626805 0.320768 -0.018694
 22 2.975834 -0.386307 -0.044143 -0.037734 -0.021799 1.029782
 23 1.438886 0.000000 0.000000 0.000000 -0.000000 1.256261
 24 1.485303 0.000000 0.000000 0.000000 -0.000000 1.665926
 25 -3.014434 -1.034005 -4.140396 -0.679179 1.315906 2.791542
 26 4.972048 0.000000 0.000001 1.965880 0.093232 -0.909205
 27 11.585355 0.000000 0.000000 0.000000 -0.000000 -2.067989
 28 10.127057 0.000000 0.000001 2.180464 -0.000000 -0.069778
 29 2.683750 -0.427338 0.044205 0.001045 0.043611 0.000046
 30 1.438885 -0.000001 0.000000 0.000000 -0.000000 0.767689
 31 1.485305 0.000001 0.000000 0.000000 -0.000000 1.221538
time 13
  0 0.235347 -0.235347 -14.381776 -0.045585 0.257873 -1.742273
  1 0.000000 0.000000 0.000000 -1.570795 -1.570796 0.000000
  2 -0.000005 0.000007 3.713255 -3.368582 -0.221254 1.331540
  3 18.045721 0.000000 0.000000 0.000000 -0.000000 -1.349056
  4 17.597597 0.000000 0.000000 -0.205032 0.225938 -0.216505
  5 3.793090 6.407221 0.000000 0.000000 -0.000000 1.570796
  6 0.000005 -0.000003 -3.713255 6.216042 2.542639 5.445438
  7 18.045725 0.000000 0.000000 0.000000 -0.000000 -2.074575
  8 17.597597 0.000000 0.000000 -0.092072 0.087818 0.559914
  9 3.793090 6.407221 0.000000 0.000000 -0.000000 1.570796
 10 0.935740 0.000000 0.000000 0.000000 -0.000000 0.000000
 11 0.935741 0.000000 0.000000 0.000000 -0.000000 0.000000
 12 1.293670 0.684478 -0.000001 -0.000004 -0.000001 0.271132
 13 5.309685 -0.003834 0.000000 -0.032957 0.011325 0.331161
 14 4.826790 -0.004591 0.000000 -0.148766 0.198393 0.146675
 15 5.792767 -0.005304 0.000000 0.000049 0.087260 0.118538
 16 6.662317 -0.001453 0.000000 0.000000 -0.000001 -0.314346
 17 2.046985 -0.000002 0.000000 0.412476 -0.056416 -0.854352
 18 -3.268279 -1.123452 4.341911 -1.394297 -1.909811 4.839197
 19 4.827230 0.000000 0.000001 -0.707364 -0.274748 -1.164161
 20 11.139763 0.000000 0.000000 0.000000 -0.000000 -1.550088
 21 10.314597 0.000001 0.000000 -1.626805 0.320768 -0.018694
 22 2.975834 -0.386307 -0.044143 -0.037734 -0.021799 1.029782
 23 1.438886 0.000000 0.000000 0.000000 -0.000000 1.256261
 24 1.485303 0.000000 0.000000 0.000000 -0.000000 1.665926
 25 -3.014434 -1.034005 -4.140396 -0.704777 1.310790 2.766999
 26 4.972048 0.000000 0.000001 1.968897 0.097978 -0.902025
 27 11.585355 0.000000 0.000000 0.000000 -0.000000 -2.067989
 28 10.127057 0.000000 0.000001 2.180464 -0.000000 -0.069778
 29 2.683750 -0.427338 0.044205 0.001045 0.043611 0.000046
 30 1.438885 -0.000001 0.000000 0.000000 -0.000000 0.767689
 31 1.485305 0.000001 0.000000 0.000000 -0.000000 1.221538
time 14
  0 0.235347 -0.235347 -14.381776 -0.045585 0.257873 -1.742273
  1 0.000000 0.000000 0.000000 -1.570795 -1.570796 0.000000
  2 -0.000005 0.000007 3.713255 -3.368582 -0.221254 1.331540
  3 18.045721 0.000000 0.000000 0.000000 -0.000000 -1.349056
  4 17.597597 0.000000 0.000000 -0.205032 0.225938 -0.216505
  5 3.793090 6.407221 0.000000 0.000000 -0.000000 1.570796
  6 0.000005 -0.000003 -3.713255 6.216042 2.542639 5.445438
  7 18.045725 0.000000 0.000000 0.000000 -0.000000 -2.074575
  8 17.597597 0.000000 0.000000 -0.092072 0.087818 0.559914
  9 3.793090 6.407221 0.000000 0.000000 -0.000000 1.570796
 10 0.935740 0.000000 0.000000 0.000000 -0.000000 0.000000
 11 0.935741 0.000000 0.000000 0.000000 -0.000000 0.000000
 12 1.293670 0.684478 -0.000001 -0.000004 -0.000001 0.271132
 13 5.309685 -0.003834 0.000000 -0.032957 0.011325 0.331161
 14 4.826790 -0.004591 0.000000 -0.148766 0.198393 0.146675
 15 5.792767 -0.005304 0.000000 0.000049 0.087260 0.121175
 16 6.662317 -0.001453 0.000000 0.000000 -0.000001 -0.314346
 17 2.046985 -0.000002 0.000000 0.412562 -0.056213 -0.856959
 18 -3.268279 -1.123452 4.341911 -1.397269 -1.914965 4.841690
 19 4.827230 0.000000 0.000001 -0.707481 -0.277046 -1.158560
 20 11.139763 0.000000 0.000000 0.000000 -0.000000 -1.550088
 21 10.314597 0.000001 0.000000 -1.626805 0.320768 -0.018694
 22 2.975834 -0.386307 -0.044143 -0.037734 -0.021799 1.029782
 23 1.438886 0.000000 0.000000 0.000000 -0.000000 1.256261
 24 1.485303 0.000000 0.000000 0.000000 -0.000000 1.665926
 25 -3.014434 -1.034005 -4.140396 -0.720404 1.307370 2.751851
 26 4.972048 0.000000 0.000001 1.970676 0.101115 -0.897414
 27 11.585355 0.000000 0.000000 0.000000 -0.000000 -2.067989
 28 10.127057 0.000000 0.000001 2.180464 -0.000000 -0.069778
 29 2.683750 -0.427338 0.044205 0.001045 0.043611 0.000046
 30 1.438885 -0.000001 0.000000 0.000000 -0.000000 0.767689
 31 1.485305 0.000001 0.000000 0.000000 -0.000000 1.221538
time 15
  0 0.235347 -0.235347 -14.381776 -0.045585 0.257873 -1.742273
  1 0.000000 0.000000 0.000000 -1.570795 -1.570796 0.000000
  2 -0.000005 0.000007 3.713255 -3.368582 -0.221254 1.331540
  3 18.045721 0.000000 0.000000 0.000000 -0.000000 -1.349056
  4 17.597597 0.000000 0.000000 -0.205032 0.225938 -0.216505
  5 3.793090 6.407221 0.000000 0.000000 -0.000000 1.570796
  6 0.000005 -0.000003 -3.713255 6.216042 2.542639 5.445438
  7 18.045725 0.000000 0.000000 0.000000 -0.000000 -2.074575
  8 17.597597 0.000000 0.000000 -0.092072 0.087818 0.559914
  9 3.793090 6.407221 0.000000 0.000000 -0.000000 1.570796
 10 0.935740 0.000000 0.000000 0.000000 -0.000000 0.000000
 11 0.935741 0.000000 0.000000 0.000000 -0.000000 0.000000
 12 1.293670 0.684478 -0.000001 -0.000004 -0.000001 0.271132
 13 5.309685 -0.003834 0.000000 -0.032957 0.011325 0.331161
 14 4.826790 -0.004591 0.000000 -0.148766 0.198393 0.146675
 15 5.792767 -0.005304 0.000000 0.000049 0.087260 0.122068
 16 6.662317 -0.001453 0.000000 0.000000 -0.000001 -0.314346
 17 2.046985 -0.000002 0.000000 0.412562 -0.056123 -0.857903
 18 -3.268279 -1.123452 4.341911 -1.398036 -1.916811 4.842649
 19 4.827230 0.000000 0.000001 -0.707481 -0.277812 -1.156635
 20 11.139763 0.000000 0.000000 0.000000 -0.000000 -1.550088
 21 10.314597 0.000001 0.000000 -1.626805 0.320768 -0.018694
 22 2.975834 -0.386307 -0.044143 -0.037734 -0.021799 1.029782
 23 1.438886 0.000000 0.000000 0.000000 -0.000000 1.256261
 24 1.485303 0.000000 0.000000 0.000000 -0.000000 1.665926
 25 -3.014434 -1.034005 -4.140396 -0.725869 1.306183 2.746578
 26 4.972048 0.000000 0.000001 1.971295 0.102161 -0.895767
 27 11.585355 0.000000 0.000000 0.000000 -0.000000 -2.067989
 28 10.127057 0.000000 0.000001 2.180464 -0.000000 -0.069778
 29 2.683750 -0.427338 0.044205 0.001045 0.043611 0.000046
 30 1.438885 -0.000001 0.000000 0.000000 -0.000000 0.767689
 31 1.485305 0.000001 0.000000 0.000000 -0.000000 1.221538
time 16
  0 0.235347 -0.235347 -14.381776 -0.045585 0.257873 -1.742273
  1 0.000000 0.000000 0.000000 -1.570795 -1.570796 0.000000
  2 -0.000005 0.000007 3.713255 -3.368582 -0.221254 1.331540
  3 18.045721 0.000000 0.000000 0.000000 -0.000000 -1.349056
  4 17.597597 0.000000 0.000000 -0.205032 0.225938 -0.216505
  5 3.793090 6.407221 0.000000 0.000000 -0.000000 1.570796
  6 0.000005 -0.000003 -3.713255 6.216042 2.542639 5.445438
  7 18.045725 0.000000 0.000000 0.000000 -0.000000 -2.074575
  8 17.597597 0.000000 0.000000 -0.092072 0.087818 0.559914
  9 3.793090 6.407221 0.000000 0.000000 -0.000000 1.570796
 10 0.935740 0.000000 0.000000 0.000000 -0.000000 0.000000
 11 0.935741 0.000000 0.000000 0.000000 -0.000000 0.000000
 12 1.293670 0.684478 -0.000001 -0.000004 -0.000001 0.271132
 13 5.309685 -0.003834 0.000000 -0.032957 0.011325 0.331161
 14 4.826790 -0.004591 0.000000 -0.148766 0.198393 0.146675
 15 5.792767 -0.005304 0.000000 0.000049 0.087260 0.121175
 16 6.662317 -0.001453 0.000000 0.000000 -0.000001 -0.314346
 17 2.046985 -0.000002 0.000000 0.412562 -0.056213 -0.856959
 18 -3.268279 -1.123452 4.341911 -1.397269 -1.914965 4.841690
 19 4.827230 0.000000 0.000001 -0.707481 -0.277046 -1.158560
 20 11.139763 0.000000 0.000000 0.000000 -0.000000 -1.550088
 21 10.314597 0.000001 0.000000 -1.626805 0.320768 -0.018694
 22 2.975834 -0.386307 -0.044143 -0.037734 -0.021799 1.029782
 23 1.438886 0.000000 0.000000 0.000000 -0.000000 1.256261
 24 1.485303 0.000000 0.000000 0.000000 -0.000000 1.665926
 25 -3.014434 -1.034005 -4.140396 -0.720404 1.307370 2.751851
 26 4.972048 0.000000 0.000001 1.970676 0.101115 -0.897414
 27 11.585355 0.000000 0.000000 0.000000 -0.000000 -2.067989
 28 10.127057 0.000000 0.000001 2.180464 -0.000000 -0.069778
 29 2.683750 -0.427338 0.044205 0.001045 0.043611 0.000046
 30 1.438885 -0.000001 0.000000 0.000000 -0.000000 0.767689
 31 1.485305 0.000001 0.000000 0.000000 -0.000000 1.221538
time 17
  0 0.235347 -0.235347 -14.381776 -0.045585 0.257873 -1.742273
  1 0.000000 0.000000 0.000000 -1.570795 -1.570796 0.000000
  2 -0.000005 0.000007 3.713255 -3.368582 -0.221254 1.331540
  3 18.045721 0.000000 0.000000 0.000000 -0.000000 -1.349056
  4 17.597597 0.000000 0.000000 -0.205032 0.225938 -0.216505
  5 3.793090 6.407221 0.000000 0.000000 -0.000000 1.570796
  6 0.000005 -0.000003 -3.713255 6.216042 2.542639 5.445438
  7 18.045725 0.000000 0.000000 0.000000 -0.000000 -2.074575
  8 17.597597 0.000000 0.000000 -0.092072 0.087818 0.559914
  9 3.793090 6.407221 0.000000 0.000000 -0.000000 1.570796
 10 0.935740 0.000000 0.000000 0.000000 -0.000000 0.000000
 11 0.935741 0.000000 0.000000 0.000000 -0.000000 0.000000
 12 1.293670 0.684478 -0.000001 -0.000004 -0.000001 0.271132
 13 5.309685 -0.003834 0.000000 -0.032957 0.011325 0.331161
 14 4.826790 -0.004591 0.000000 -0.148766 0.198393 0.146675
 15 5.792767 -0.005304 0.000000 0.000049 0.087260 0.118538
 16 6.662317 -0.001453 0.000000 0.000000 -0.000001 -0.314346
 17 2.046985 -0.000002 0.000000 0.412476 -0.056416 -0.854352
 18 -3.268279 -1.123452 4.341911 -1.394297 -1.909811 4.839197
 19 4.827230 0.000000 0.000001 -0.707364 -0.274748 -1.164161
 20 11.139763 0.000000 0.000000 0.000000 -0.000000 -1.550088
 21 10.314597 0.000001 0.000000 -1.626805 0.320768 -0.018694
 22 2.975834 -0.386307 -0.044143 -0.037734 -0.021799 1.029782
 23 1.438886 0.000000 0.000000 0.000000 -0.000000 1.256261
 24 1.485303 0.000000 0.000000 0.000000 -0.000000 1.665926
 25 -3.014434 -1.034005 -4.140396 -0.704777 1.310790 2.766999
 26 4.972048 0.000000 0.000001 1.968897 0.097978 -0.902025
 27 11.585355 0.000000 0.000000 0.000000 -0.000000 -2.067989
 28 10.127057 0.000000 0.000001 2.180464 -0.000000 -0.069778
 29 2.683750 -0.427338 0.044205 0.001045 0.043611 0.000046
 30 1.438885 -0.000001 0.000000 0.000000 -0.000000 0.767689
 31 1.485305 0.000001 0.000000 0.000000 -0.000000 1.221538
time 18
  0 0.235347 -0.235347 -14.381776 -0.045585 0.257873 -1.742273
  1 0.000000 0.000000 0.000000 -1.570795 -1.570796 0.000000
  2 -0.000005 0.000007 3.713255 -3.368582 -0.221254 1.331540
  3 18.045721 0.000000 0.000000 0.000000 -0.000000 -1.349056
  4 17.597597 0.000000 0.000000 -0.205032 0.225938 -0.216505
  5 3.793090 6.407221 0.000000 0.000000 -0.000000 1.570796
  6 0.000005 -0.000003 -3.713255 6.216042 2.542639 5.445438
  7 18.045725 0.000000 0.000000 0.000000 -0.000000 -2.074575
  8 17.597597 0.000000 0.000000 -0.092072 0.087818 0.559914
  9 3.793090 6.407221 0.000000 0.000000 -0.000000 1.570796
 10 0.935740 0.000000 0.000000 0.000000 -0.000000 0.000000
 11 0.935741 0.000000 0.000000 0.000000 -0.000000 0.000000
 12 1.293670 0.684478 -0.000001 -0.000004 -0.000001 0.271132
 13 5.309685 -0.003834 0.000000 -0.032957 0.011325 0.331161
 14 4.826790 -0.004591 0.000000 -0.148766 0.198393 0.146675
 15 5.792767 -0.005304 0.000000 0.000049 0.087260 0.114427
 16 6.662317 -0.001453 0.000000 0.000000 -0.000001 -0.314346
 17 2.046985 -0.000002 0.000000 0.412347 -0.056753 -0.850397
 18 -3.268279 -1.123452 4.341911 -1.389695 -1.901734 4.834691
 19 4.827230 0.000000 0.000001 -0.707305 -0.271174 -1.173087
 20 11.139763 0.000000 0.000000 0.000000 -0.000000 -1.550088
 21 10.314597 0.000001 0.000000 -1.626805 0.320768 -0.018694
 22 2.975834 -0.386307 -0.044143 -0.037734 -0.021799 1.029782
 23 1.438886 0.000000 0.000000 0.000000 -0.000000 1.256261
 24 1.485303 0.000000 0.000000 0.000000 -0.000000 1.665926
 25 -3.014434 -1.034005 -4.140396 -0.679179 1.315906 2.791542
 26 4.972048 0.000000 0.000001 1.965880 0.093232 -0.909205
 27 11.585355 0.000000 0.000000 0.000000 -0.000000 -2.067989
 28 10.127057 0.000000 0.000001 2.180464 -0.000000 -0.069778
 29 2.683750 -0.427338 0.044205 0.001045 0.043611 0.000046
 30 1.438885 -0.000001 0.000000 0.000000 -0.000000 0.767689
 31 1.485305 0.000001 0.000000 0.000000 -0.000000 1.221538
time 19
  0 0.235347 -0.235347 -14.381776 -0.045585 0.257873 -1.742273
  1 0.000000 0.000000 0.000000 -1.570795 -1.570796 0.000000
  2 -0.000005 0.000007 3.713255 -3.368582 -0.221254 1.331540
  3 18.045721 0.000000 0.000000 0.000000 -0.000000 -1.349056
  4 17.597597 0.000000 0.000000 -0.205032 0.225938 -0.216505
  5 3.793090 6.407221 0.000000 0.000000 -0.000000 1.570796
  6 0.000005 -0.000003 -3.713255 6.216042 2.542639 5.445438
  7 18.045725 0.000000 0.000000 0.000000 -0.000000 -2.074575
  8 17.597597 0.000000 0.000000 -0.092072 0.087818 0.559914
  9 3.793090 6.407221 0.000000 0.000000 -0.000000 1.570796
 10 0.935740 0.000000 0.000000 0.000000 -0.000000 0.000000
 11 0.935741 0.000000 0.000000 0.000000 -0.000000 0.000000
 12 1.293670 0.684478 -0.000001 -0.000004 -0.000001 0.271132
 13 5.309685 -0.003834 0.000000 -0.032957 0.011325 0.331161
 14 4.826790 -0.004591 0.000000 -0.148766 0.198393 0.146675
 15 5.792767 -0.005304 0.000000 0.000049 0.087260 0.109029
 16 6.662317 -0.001453 0.000000 0.000000 -0.000001 -0.314346
 17 2.046985 -0.000002 0.000000 0.412002 -0.057181 -0.844913
 18 -3.268279 -1.123452 4.341911 -1.382984 -1.891195 4.828555
 19 4.827230 0.000000 0.000001 -0.707129 -0.266323 -1.184551
 20 11.139763 0.000000 0.000000 0.000000 -0.000000 -1.550088
 21 10.314597 0.000001 0.000000 -1.626805 0.320768 -0.018694
 22 2.975834 -0.386307 -0.044143 -0.037734 -0.021799 1.029782
 23 1.438886 0.000000 0.000000 0.000000 -0.000000 1.256261
 24 1.485303 0.000000 0.000000 0.000000 -0.000000 1.665926
 25 -3.014434 -1.034005 -4.140396 -0.645144 1.322322 2.824331
 26 4.972048 0.000000 0.000001 1.962167 0.087038 -0.918493
 27 11.585355 0.000000 0.000000 0.000000 -0.000000 -2.067989
 28 10.127057 0.000000 0.000001 2.180464 -0.000000 -0.069778
 29 2.683750 -0.427338 0.044205 0.001045 0.043611 0.000046
 30 1.438885 -0.000001 0.000000 0.000000 -0.000000 0.767689
 31 1.485305 0.000001 0.000000 0.000000 -0.000000 1.221538
time 20
  0 0.235347 -0.235347 -14.381776 -0.045585 0.257873 -1.742273
  1 0.000000 0.000000 0.000000 -1.570795 -1.570796 0.000000
  2 -0.000005 0.000007 3.713255 -3.368582 -0.221254 1.331540
  3 18.045721 0.000000 0.000000 0.000000 -0.000000 -1.349056
  4 17.597597 0.000000 0.000000 -0.205032 0.225938 -0.216505
  5 3.793090 6.407221 0.000000 0.000000 -0.000000 1.570796
  6 0.000005 -0.000003 -3.713255 6.216042 2.542639 5.445438
  7 18.045725 0.000000 0.000000 0.000000 -0.000000 -2.074575
  8 17.597597 0.000000 0.000000 -0.092072 0.087818 0.559914
  9 3.793090 6.407221 0.000000 0.000000 -0.000000 1.570796
 10 0.935740 0.000000 0.000000 0.000000 -0.000000 0.000000
 11 0.935741 0.000000 0.000000 0.000000 -0.000000 0.000000
 12 1.293670 0.684478 -0.000001 -0.000004 -0.000001 0.271132
 13 5.309685 -0.003834 0.000000 -0.032957 0.011325 0.331161
 14 4.826790 -0.004591 0.000000 -0.148766 0.198393 0.146675
 15 5.792767 -0.005304 0.000000 0.000049 0.087260 0.102717
 16 6.662317 -0.001453 0.000000 0.000000 -0.000001 -0.314346
 17 2.046985 -0.000002 0.000000 0.411916 -0.057676 -0.838711
 18 -3.268279 -1.123452 4.341911 -1.374643 -1.878733 4.820789
 19 4.827230 0.000000 0.000001 -0.707070 -0.260536 -1.198290
 20 11.139763 0.000000 0.000000 0.000000 -0.000000 -1.550088
 21 10.314597 0.000001 0.000000 -1.626805 0.320768 -0.018694
 22 2.975834 -0.386307 -0.044143 -0.037734 -0.021799 1.029782
 23 1.438886 0.000000 0.000000 0.000000 -0.000000 1.256261
 24 1.485303 0.000000 0.000000 0.000000 -0.000000 1.665926
 25 -3.014434 -1.034005 -4.140396 -0.602001 1.329614 2.866515
 26 4.972048 0.000000 0.000001 1.957758 0.079718 -0.929428
 27 11.585355 0.000000 0.000000 0.000000 -0.000000 -2.067989
 28 10.127057 0.000000 0.000001 2.180464 -0.000000 -0.069778
 29 2.683750 -0.427338 0.044205 0.001045 0.043611 0.000046
 30 1.438885 -0.000001 0.000000 0.000000 -0.000000 0.767689
 31 1.485305 0.000001 0.000000 0.000000 -0.000000 1.221538
time 21
  0 0.235347 -0.235347 -14.381776 -0.045585 0.257873 -1.742273
  1 0.000000 0.000000 0.000000 -1.570795 -1.570796 0.000000
  2 -0.000005 0.000007 3.713255 -3.368582 -0.221254 1.331540
  3 18.045721 0.000000 0.000000 0.000000 -0.000000 -1.349056
  4 17.597597 0.000000 0.000000 -0.205032 0.225938 -0.216505
  5 3.793090 6.407221 0.000000 0.000000 -0.000000 1.570796
  6 0.000005 -0.000003 -3.713255 6.216042 2.542639 5.445438
  7 18.045725 0.000000 0.000000 0.000000 -0.000000 -2.074575
  8 17.597597 0.000000 0.000000 -0.092072 0.087818 0.559914
  9 3.793090 6.407221 0.000000 0.000000 -0.000000 1.570796
 10 0.935740 0.000000 0.000000 0.000000 -0.000000 0.000000
 11 0.935741 0.000000 0.000000 0.000000 -0.000000 0.000000
 12 1.293670 0.684478 -0.000001 -0.000004 -0.000001 0.271132
 13 5.309685 -0.003834 0.000000 -0.032957 0.011325 0.331161
 14 4.826790 -0.004591 0.000000 -0.148766 0.198393 0.146675
 15 5.792767 -0.005304 0.000000 0.000049 0.087260 0.095554
 16 6.662317 -0.001453 0.000000 0.000000 -0.000001 -0.314346
 17 2.046985 -0.000002 0.000000 0.411485 -0.058262 -0.831609
 18 -3.268279 -1.123452 4.341911 -1.364864 -1.864810 4.810914
 19 4.827230 0.000000 0.000001 -0.706894 -0.254494 -1.213517
 20 11.139763 0.000000 0.000000 0.000000 -0.000000 -1.550088
 21 10.314597 0.000001 0.000000 -1.626805 0.320768 -0.018694
 22 2.975834 -0.386307 -0.044143 -0.037734 -0.021799 1.029782
 23 1.438886 0.000000 0.000000 0.000000 -0.000000 1.256261
 24 1.485303 0.000000 0.000000 0.000000 -0.000000 1.665926
 25 -3.014434 -1.034005 -4.140396 -0.550613 1.337245 2.916369
 26 4.972048 0.000000 0.000001 1.952807 0.071352 -0.941812
 27 11.585355 0.000000 0.000000 0.000000 -0.000000 -2.067989
 28 10.127057 0.000000 0.000001 2.180464 -0.000000 -0.069778
 29 2.683750 -0.427338 0.044205 0.001045 0.043611 0.000046
 30 1.438885 -0.000001 0.000000 0.000000 -0.000000 0.767689
 31 1.485305 0.000001 0.000000 0.000000 -0.000000 1.221538
time 22
  0 0.235347 -0.235347 -14.381776 -0.045585 0.257873 -1.742273
  1 0.000000 0.000000 0.000000 -1.570795 -1.570796 0.000000
  2 -0.000005 0.000007 3.713255 -3.368582 -0.221254 1.331540
  3 18.045721 0.000000 0.000000 0.000000 -0.000000 -1.349056
  4 17.597597 0.000000 0.000000 -0.205032 0.225938 -0.216505
  5 3.793090 6.407221 0.000000 0.000000 -0.000000 1.570796
  6 0.000005 -0.000003 -3.713255 6.216042 2.542639 5.445438
  7 18.045725 0.000000 0.000000 0.000000 -0.000000 -2.074575
  8 17.597597 0.000000 0.000000 -0.092072 0.087818 0.559914
  9 3.793090 6.407221 0.000000 0.000000 -0.000000 1.570796
 10 0.935740 0.000000 0.000000 0.000000 -0.000000 0.000000
 11 0.935741 0.000000 0.000000 0.000000 -0.000000 0.000000
 12 1.293670 0.684478 -0.000001 -0.000004 -0.000001 0.271132
 13 5.309685 -0.003834 0.000000 -0.032957 0.011325 0.331161
 14 4.826790 -0.004591 0.000000 -0.148766 0.198393 0.146675
 15 5.792767 -0.005304 0.000000 0.000049 0.087260 0.087851
 16 6.662317 -0.001453 0.000000 0.000000 -0.000001 -0.314346
 17 2.046985 -0.000002 0.000000 0.411399 -0.058870 -0.823923
 18 -3.268279 -1.123452 4.341911 -1.352688 -1.849771 4.799408
 19 4.827230 0.000000 0.000001 -0.706659 -0.247771 -1.230144
 20 11.139763 0.000000 0.000000 0.000000 -0.000000 -1.550088
 21 10.314597 0.000001 0.000000 -1.626805 0.320768 -0.018694
 22 2.975834 -0.386307 -0.044143 -0.037734 -0.021799 1.029782
 23 1.438886 0.000000 0.000000 0.000000 -0.000000 1.256261
 24 1.485303 0.000000 0.000000 0.000000 -0.000000 1.665926
 25 -3.014434 -1.034005 -4.140396 -0.492130 1.344792 2.973222
 26 4.972048 0.000000 0.000001 1.947315 0.062423 -0.955184
 27 11.585355 0.000000 0.000000 0.000000 -0.000000 -2.067989
 28 10.127057 0.000000 0.000001 2.180464 -0.000000 -0.069778
 29 2.683750 -0.427338 0.044205 0.001045 0.043611 0.000046
 30 1.438885 -0.000001 0.000000 0.000000 -0.000000 0.767689
 31 1.485305 0.000001 0.000000 0.000000 -0.000000 1.221538
time 23
  0 0.235347 -0.235347 -14.381776 -0.045585 0.257873 -1.742273
  1 0.000000 0.000000 0.000000 -1.570795 -1.570796 0.000000
  2 -0.000005 0.000007 3.713255 -3.368582 -0.221254 1.331540
  3 18.045721 0.000000 0.000000 0.000000 -0.000000 -1.349056
  4 17.597597 0.000000 0.000000 -0.205032 0.225938 -0.216505
  5 3.793090 6.407221 0.000000 0.000000 -0.000000 1.570796
  6 0.000005 -0.000003 -3.713255 6.216042 2.542639 5.445438
  7 18.045725 0.000000 0.000000 0.000000 -0.000000 -2.074575
  8 17.597597 0.000000 0.000000 -0.092072 0.087818 0.559914
  9 3.793090 6.407221 0.000000 0.000000 -0.000000 1.570796
 10 0.935740 0.000000 0.000000 0.000000 -0.000000 0.000000
 11 0.935741 0.000000 0.000000 0.000000 -0.000000 0.000000
 12 1.293670 0.684478 -0.000001 -0.000004 -0.000001 0.271132
 13 5.309685 -0.003834 0.000000 -0.032957 0.011325 0.331161
 14 4.826790 -0.004591 0.000000 -0.148766 0.198393 0.146675
 15 5.792767 -0.005304 0.000000 0.000049 0.087260 0.079878
 16 6.662317 -0.001453 0.000000 0.000000 -0.000001 -0.314346
 17 2.046985 -0.000002 0.000000 0.410968 -0.059500 -0.815787
 18 -3.268279 -1.123452 4.341911 -1.339170 -1.834232 4.786178
 19 4.827230 0.000000 0.000001 -0.706424 -0.240963 -1.247209
 20 11.139763 0.000000 0.000000 0.000000 -0.000000 -1.550088
 21 10.314597 0.000001 0.000000 -1.626805 0.320768 -0.018694
 22 2.975834 -0.386307 -0.044143 -0.037734 -0.021799 1.029782
 23 1.438886 0.000000 0.000000 0.000000 -0.000000 1.256261
 24 1.485303 0.000000 0.000000 0.000000 -0.000000 1.665926
 25 -3.014434 -1.034005 -4.140396 -0.426649 1.351773 3.037265
 26 4.972048 0.000000 0.000001 1.941900 0.053092 -0.968754
 27 11.585355 0.000000 0.000000 0.000000 -0.000000 -2.067989
 28 10.127057 0.000000 0.000001 2.180464 -0.000000 -0.069778
 29 2.683750 -0.427338 0.044205 0.001045 0.043611 0.000046
 30 1.438885 -0.000001 0.000000 0.000000 -0.000000 0.767689
 31 1.485305 0.000001 0.000000 0.000000 -0.000000 1.221538
time 24
  0 0.235347 -0.235347 -14.381776 -0.045585 0.257873 -1.742273
  1 0.000000 0.000000 0.000000 -1.570795 -1.570796 0.000000
  2 -0.000005 0.000007 3.713255 -3.368582 -0.221254 1.331540
  3 18.045721 0.000000 0.000000 0.000000 -0.000000 -1.349056
  4 17.597597 0.000000 0.000000 -0.205032 0.225938 -0.216505
  5 3.793090 6.407221 0.000000 0.000000 -0.000000 1.570796
  6 0.000005 -0.000003 -3.713255 6.216042 2.542639 5.445438
  7 18.045725 0.000000 0.000000 0.000000 -0.000000 -2.074575
  8 17.597597 0.000000 0.000000 -0.092072 0.087818 0.559914
  9 3.793090 6.407221 0.000000 0.000000 -0.000000 1.570796
 10 0.935740 0.000000 0.000000 0.000000 -0.000000 0.000000
 11 0.935741 0.000000 0.000000 0.000000 -0.000000 0.000000
 12 1.293670 0.684478 -0.000001 -0.000004 -0.000001 0.271132
 13 5.309685 -0.003834 0.000000 -0.032957 0.011325 0.331161
 14 4.826790 -0.004591 0.000000 -0.148766 0.198393 0.146675
 15 5.792767 -0.005304 0.000000 0.000049 0.087260 0.071822
 16 6.662317 -0.001453 0.000000 0.000000 -0.000001 -0.314346
 17 2.046985 -0.000002 0.000000 0.410796 -0.060130 -0.807832
 18 -3.268279 -1.123452 4.341911 -1.323734 -1.818616 4.771509
 19 4.827230 0.000000 0.000001 -0.706248 -0.234070 -1.264536
 20 11.139763 0.000000 0.000000 0.000000 -0.000000 -1.550088
 21 10.314597 0.000001 0.000000 -1.626805 0.320768 -0.018694
 22 2.975834 -0.386307 -0.044143 -0.037734 -0.021799 1.029782
 23 1.438886 0.000000 0.000000 0.000000 -0.000000 1.256261
 24 1.485303 0.000000 0.000000 0.000000 -0.000000 1.665926
 25 -3.014434 -1.034005 -4.140396 -0.357141 1.357737 3.105431
 26 4.972048 0.000000 0.000001 1.936176 0.043761 -0.982653
 27 11.585355 0.000000 0.000000 0.000000 -0.000000 -2.067989
 28 10.127057 0.000000 0.000001 2.180464 -0.000000 -0.069778
 29 2.683750 -0.427338 0.044205 0.001045 0.043611 0.000046
 30 1.438885 -0.000001 0.000000 0.000000 -0.000000 0.767689
 31 1.485305 0.000001 0.000000 0.000000 -0.000000 1.221538
time 25
  0 0.235347 -0.235347 -14.381776 -0.045585 0.257873 -1.742273
  1 0.000000 0.000000 0.000000 -1.570795 -1.570796 0.000000
  2 -0.000005 0.000007 3.713255 -3.368582 -0.221254 1.331540
  3 18.045721 0.000000 0.000000 0.000000 -0.000000 -1.349056
  4 17.597597 0.000000 0.000000 -0.205032 0.225938 -0.216505
  5 3.793090 6.407221 0.000000 0.000000 -0.000000 1.570796
  6 0.000005 -0.000003 -3.713255 6.216042 2.542639 5.445438
  7 18.045725 0.000000 0.000000 0.000000 -0.000000 -2.074575
  8 17.597597 0.000000 0.000000 -0.092072 0.087818 0.559914
  9 3.793090 6.407221 0.000000 0.000000 -0.000000 1.570796
 10 0.935740 0.000000 0.000000 0.000000 -0.000000 0.000000
 11 0.935741 0.000000 0.000000 0.000000 -0.000000 0.000000
 12 1.293670 0.684478 -0.000001 -0.000004 -0.000001 0.271132
 13 5.309685 -0.003834 0.000000 -0.032957 0.011325 0.331161
 14 4.826790 -0.004591 0.000000 -0.148766 0.198393 0.146675
 15 5.792767 -0.005304 0.000000 0.000049 0.087260 0.063932
 16 6.662317 -0.001453 0.000000 0.000000 -0.000001 -0.314346
 17 2.046985 -0.000002 0.000000 0.410451 -0.060738 -0.800011
 18 -3.268279 -1.123452 4.341911 -1.306477 -1.803308 4.754539
 19 4.827230 0.000000 0.000001 -0.706013 -0.227177 -1.281601
 20 11.139763 0.000000 0.000000 0.000000 -0.000000 -1.550088
 21 10.314597 0.000001 0.000000 -1.626805 0.320768 -0.018694
 22 2.975834 -0.386307 -0.044143 -0.037734 -0.021799 1.029782
 23 1.438886 0.000000 0.000000 0.000000 -0.000000 1.256261
 24 1.485303 0.000000 0.000000 0.000000 -0.000000 1.665926
 25 -3.014434 -1.034005 -4.140396 -0.285140 1.362683 3.175610
 26 4.972048 0.000000 0.000001 1.930761 0.034510 -0.996091
 27 11.585355 0.000000 0.000000 0.000000 -0.000000 -2.067989
 28 10.127057 0.000000 0.000001 2.180464 -0.000000 -0.069778
 29 2.683750 -0.427338 0.044205 0.001045 0.043611 0.000046
 30 1.438885 -0.000001 0.000000 0.000000 -0.000000 0.767689
 31 1.485305 0.000001 0.000000 0.000000 -0.000000 1.221538
time 26
  0 0.235347 -0.235347 -14.381776 -0.045585 0.257873 -1.742273
  1 0.000000 0.000000 0.000000 -1.570795 -1.570796 0.000000
  2 -0.000005 0.000007 3.713255 -3.368582 -0.221254 1.331540
  3 18.045721 0.000000 0.000000 0.000000 -0.000000 -1.349056
  4 17.597597 0.000000 0.000000 -0.205032 0.225938 -0.216505
  5 3.793090 6.407221 0.000000 0.000000 -0.000000 1.570796
  6 0.000005 -0.000003 -3.713255 6.216042 2.542639 5.445438
  7 18.045725 0.000000 0.000000 0.000000 -0.000000 -2.074575
  8 17.597597 0.000000 0.000000 -0.092072 0.087818 0.559914
  9 3.793090 6.407221 0.000000 0.000000 -0.000000 1.570796
 10 0.935740 0.000000 0.000000 0.000000 -0.000000 0.000000
 11 0.935741 0.000000 0.000000 0.000000 -0.000000 0.000000
 12 1.293670 0.684478 -0.000001 -0.000004 -0.000001 0.271132
 13 5.309685 -0.003834 0.000000 -0.032957 0.011325 0.331161
 14 4.826790 -0.004591 0.000000 -0.148766 0.198393 0.146675
 15 5.792767 -0.005304 0.000000 0.000049 0.087260 0.056395
 16 6.662317 -0.001453 0.000000 0.000000 -0.000001 -0.314346
 17 2.046985 -0.000002 0.000000 0.410020 -0.061323 -0.792325
 18 -3.268279 -1.123452 4.341911 -1.287686 -1.788885 4.736514
 19 4.827230 0.000000 0.000001 -0.705778 -0.220624 -1.297703
 20 11.139763 0.000000 0.000000 0.000000 -0.000000 -1.550088
 21 10.314597 0.000001 0.000000 -1.626805 0.320768 -0.018694
 22 2.975834 -0.386307 -0.044143 -0.037734 -0.021799 1.029782
 23 1.438886 0.000000 0.000000 0.000000 -0.000000 1.256261
 24 1.485303 0.000000 0.000000 0.000000 -0.000000 1.665926
 25 -3.014434 -1.034005 -4.140396 -0.213523 1.366301 3.245214
 26 4.972048 0.000000 0.000001 1.925501 0.025742 -1.008936
 27 11.585355 0.000000 0.000000 0.000000 -0.000000 -2.067989
 28 10.127057 0.000000 0.000001 2.180464 -0.000000 -0.069778
 29 2.683750 -0.427338 0.044205 0.001045 0.043611 0.000046
 30 1.438885 -0.000001 0.000000 0.000000 -0.000000 0.767689
 31 1.485305 0.000001 0.000000 0.000000 -0.000000 1.221538
time 27
  0 0.235347 -0.235347 -14.381776 -0.045585 0.257873 -1.742273
  1 0.000000 0.000000 0.000000 -1.570795 -1.570796 0.000000
  2 -0.000005 0.000007 3.713255 -3.368582 -0.221254 1.331540
  3 18.045721 0.000000 0.000000 0.000000 -0.000000 -1.349056
  4 17.597597 0.000000 0.000000 -0.205032 0.225938 -0.216505
  5 3.793090 6.407221 0.000000 0.000000 -0.000000 1.570796
  6 0.000005 -0.000003 -3.713255 6.216042 2.542639 5.445438
  7 18.045725 0.000000 0.000000 0.000000 -0.000000 -2.074575
  8 17.597597 0.000000 0.000000 -0.092072 0.087818 0.559914
  9 3.793090 6.407221 0.000000 0.000000 -0.000000 1.570796
 10 0.935740 0.000000 0.000000 0.000000 -0.000000 0.000000
 11 0.935741 0.000000 0.000000 0.000000 -0.000000 0.000000
 12 1.293670 0.684478 -0.000001 -0.000004 -0.000001 0.271132
 13 5.309685 -0.003834 0.000000 -0.032957 0.011325 0.331161
 14 4.826790 -0.004591 0.000000 -0.148766 0.198393 0.146675
 15 5.792767 -0.005304 0.000000 0.000049 0.087260 0.049502
 16 6.662317 -0.001453 0.000000 0.000000 -0.000001 -0.314346
 17 2.046985 -0.000002 0.000000 0.409934 -0.061864 -0.785448
 18 -3.268279 -1.123452 4.341911 -1.268511 -1.775692 4.717339
 19 4.827230 0.000000 0.000001 -0.705543 -0.214667 -1.312580
 20 11.139763 0.000000 0.000000 0.000000 -0.000000 -1.550088
 21 10.314597 0.000001 0.000000 -1.626805 0.320768 -0.018694
 22 2.975834 -0.386307 -0.044143 -0.037734 -0.021799 1.029782
 23 1.438886 0.000000 0.000000 0.000000 -0.000000 1.256261
 24 1.485303 0.000000 0.000000 0.000000 -0.000000 1.665926
 25 -3.014434 -1.034005 -4.140396 -0.146220 1.368703 3.311462
 26 4.972048 0.000000 0.000001 1.920937 0.017537 -1.020398
 27 11.585355 0.000000 0.000000 0.000000 -0.000000 -2.067989
 28 10.127057 0.000000 0.000001 2.180464 -0.000000 -0.069778
 29 2.683750 -0.427338 0.044205 0.001045 0.043611 0.000046
 30 1.438885 -0.000001 0.000000 0.000000 -0.000000 0.767689
 31 1.485305 0.000001 0.000000 0.000000 -0.000000 1.221538
time 28
  0 0.235347 -0.235347 -14.381776 -0.045585 0.257873 -1.742273
  1 0.000000 0.000000 0.000000 -1.570795 -1.570796 0.000000
  2 -0.000005 0.000007 3.713255 -3.368582 -0.221254 1.331540
  3 18.045721 0.000000 0.000000 0.000000 -0.000000 -1.349056
  4 17.597597 0.000000 0.000000 -0.205032 0.225938 -0.216505
  5 3.793090 6.407221 0.000000 0.000000 -0.000000 1.570796
  6 0.000005 -0.000003 -3.713255 6.216042 2.542639 5.445438
  7 18.045725 0.000000 0.000000 0.000000 -0.000000 -2.074575
  8 17.597597 0.000000 0.000000 -0.092072 0.087818 0.559914
  9 3.793090 6.407221 0.000000 0.000000 -0.000000 1.570796
 10 0.935740 0.000000 0.000000 0.000000 -0.000000 0.000000
 11 0.935741 0.000000 0.000000 0.000000 -0.000000 0.000000
 12 1.293670 0.684478 -0.000001 -0.000004 -0.000001 0.271132
 13 5.309685 -0.003834 0.000000 -0.032957 0.011325 0.331161
 14 4.826790 -0.004591 0.000000 -0.148766 0.198393 0.146675
 15 5.792767 -0.005304 0.000000 0.000049 0.087260 0.043439
 16 6.662317 -0.001453 0.000000 0.000000 -0.000001 -0.314346
 17 2.046985 -0.000002 0.000000 0.409503 -0.062337 -0.779425
 18 -3.268279 -1.123452 4.341911 1.892138 -1.377259 1.557456
 19 4.827230 0.000000 0.000001 -0.705484 -0.209391 -1.325619
 20 11.139763 0.000000 0.000000 0.000000 -0.000000 -1.550088
 21 10.314597 0.000001 0.000000 -1.626805 0.320768 -0.018694
 22 2.975834 -0.386307 -0.044143 -0.037734 -0.021799 1.029782
 23 1.438886 0.000000 0.000000 0.000000 -0.000000 1.256261
 24 1.485303 0.000000 0.000000 0.000000 -0.000000 1.665926
 25 -3.014434 -1.034005 -4.140396 -0.086395 1.370088 3.370424
 26 4.972048 0.000000 0.000001 1.916760 0.010458 -1.030740
 27 11.585355 0.000000 0.000000 0.000000 -0.000000 -2.067989
 28 10.127057 0.000000 0.000001 2.180464 -0.000000 -0.069778
 29 2.683750 -0.427338 0.044205 0.001045 0.043611 0.000046
 30 1.438885 -0.000001 0.000000 0.000000 -0.000000 0.767689
 31 1.485305 0.000001 0.000000 0.000000 -0.000000 1.221538
time 29
  0 0.235347 -0.235347 -14.381776 -0.045585 0.257873 -1.742273
  1 0.000000 0.000000 0.000000 -1.570795 -1.570796 0.000000
  2 -0.000005 0.000007 3.713255 -3.368582 -0.221254 1.331540
  3 18.045721 0.000000 0.000000 0.000000 -0.000000 -1.349056
  4 17.597597 0.000000 0.000000 -0.205032 0.225938 -0.216505
  5 3.793090 6.407221 0.000000 0.000000 -0.000000 1.570796
  6 0.000005 -0.000003 -3.713255 6.216042 2.542639 5.445438
  7 18.045725 0.000000 0.000000 0.000000 -0.000000 -2.074575
  8 17.597597 0.000000 0.000000 -0.092072 0.087818 0.559914
  9 3.793090 6.407221 0.000000 0.000000 -0.000000 1.570796
 10 0.935740 0.000000 0.000000 0.000000 -0.000000 0.000000
 11 0.935741 0.000000 0.000000 0.000000 -0.000000 0.000000
 12 1.293670 0.684478 -0.000001 -0.000004 -0.000001 0.271132
 13 5.309685 -0.003834 0.000000 -0.032957 0.011325 0.331161
 14 4.826790 -0.004591 0.000000 -0.148766 0.198393 0.146675
 15 5.792767 -0.005304 0.000000 0.000049 0.087260 0.038477
 16 6.662317 -0.001453 0.000000 0.000000 -0.000001 -0.314346
 17 2.046985 -0.000002 0.000000 0.409417 -0.062719 -0.774390
 18 -3.268279 -1.123452 4.341911 1.909491 -1.386721 1.540390
 19 4.827230 0.000000 0.000001 -0.705308 -0.204710 -1.336208
 20 11.139763 0.000000 0.000000 0.000000 -0.000000 -1.550088
 21 10.314597 0.000001 0.000000 -1.626805 0.320768 -0.018694
 22 2.975834 -0.386307 -0.044143 -0.037734 -0.021799 1.029782
 23 1.438886 0.000000 0.000000 0.000000 -0.000000 1.256261
 24 1.485303 0.000000 0.000000 0.000000 -0.000000 1.665926
 25 -3.014434 -1.034005 -4.140396 -0.036637 1.370710 3.418936
 26 4.972048 0.000000 0.000001 1.913279 0.004747 -1.038974
 27 11.585355 0.000000 0.000000 0.000000 -0.000000 -2.067989
 28 10.127057 0.000000 0.000001 2.180464 -0.000000 -0.069778
 29 2.683750 -0.427338 0.044205 0.001045 0.043611 0.000046
 30 1.438885 -0.000001 0.000000 0.000000 -0.000000 0.767689
 31 1.485305 0.000001 0.000000 0.000000 -0.000000 1.221538
time 30
  0 0.235347 -0.235347 -14.381776 -0.045585 0.257873 -1.742273
  1 0.000000 0.000000 0.000000 -1.570795 -1.570796 0.000000
  2 -0.000005 0.000007 3.713255 -3.368582 -0.221254 1.331540
  3 18.045721 0.000000 0.000000 0.000000 -0.000000 -1.349056
  4 17.597597 0.000000 0.000000 -0.205032 0.225938 -0.216505
  5 3.793090 6.407221 0.000000 0.000000 -0.000000 1.570796
  6 0.000005 -0.000003 -3.713255 6.216042 2.542639 5.445438
  7 18.045725 0.000000 0.000000 0.000000 -0.000000 -2.074575
  8 17.597597 0.000000 0.000000 -0.092072 0.087818 0.559914
  9 3.793090 6.407221 0.000000 0.000000 -0.000000 1.570796
 10 0.935740 0.000000 0.000000 0.000000 -0.000000 0.000000
 11 0.935741 0.000000 0.000000 0.000000 -0.000000 0.000000
 12 1.293670 0.684478 -0.000001 -0.000004 -0.000001 0.271132
 13 5.309685 -0.003834 0.000000 -0.032957 0.011325 0.331161
 14 4.826790 -0.004591 0.000000 -0.148766 0.198393 0.146675
 15 5.792767 -0.005304 0.000000 0.000049 0.087260 0.034802
 16 6.662317 -0.001453 0.000000 0.000000 -0.000001 -0.314346
 17 2.046985 -0.000002 0.000000 0.409331 -0.063012 -0.770885
 18 -3.268279 -1.123452 4.341911 1.923105 -1.393567 1.526584
 19 4.827230 0.000000 0.000001 -0.705132 -0.201902 -1.344084
 20 11.139763 0.000000 0.000000 0.000000 -0.000000 -1.550088
 21 10.314597 0.000001 0.000000 -1.626805 0.320768 -0.018694
 22 2.975834 -0.386307 -0.044143 -0.037734 -0.021799 1.029782
 23 1.438886 0.000000 0.000000 0.000000 -0.000000 1.256261
 24 1.485303 0.000000 0.000000 0.000000 -0.000000 1.665926
 25 -3.014434 -1.034005 -4.140396 -0.000013 1.370795 3.455176
 26 4.972048 0.000000 0.000001 1.910958 0.000403 -1.045166
 27 11.585355 0.000000 0.000000 0.000000 -0.000000 -2.067989
 28 10.127057 0.000000 0.000001 2.180464 -0.000000 -0.069778
 29 2.683750 -0.427338 0.044205 0.001045 0.043611 0.000046
 30 1.438885 -0.000001 0.000000 0.000000 -0.000000 0.767689
 31 1.485305 0.000001 0.000000 0.000000 -0.000000 1.221538
end
