version 1
nodes
  0 "Bip01"  -1
  1 "Bip01 Pelvis"   0
  2 "Bip01 L Leg"   1
  3 "Bip01 L Leg1"   2
  4 "Bip01 L Foot"   3
  5 "Bip01 L Toe0"   4
  6 "Bip01 R Leg"   1
  7 "Bip01 R Leg1"   6
  8 "Bip01 R Foot"   7
  9 "Bip01 R Toe0"   8
 10 "Bip01 R Toe01"   9
 11 "Bip01 R Toe02"  10
 12 "Bip01 Spine"   1
 13 "Bip01 Spine1"  12
 14 "Bip01 Spine2"  13
 15 "Bip01 Spine3"  14
 16 "Bip01 Neck"  15
 17 "Bip01 Head"  16
 18 "Bip01 L Arm"  16
 19 "Bip01 L Arm1"  18
 20 "Bip01 L Arm2"  19
 21 "Bip01 L Hand"  20
 22 "Bip01 L Finger1"  21
 23 "Bip01 L Finger11"  22
 24 "Bip01 L Finger12"  23
 25 "Bip01 R Arm"  16
 26 "Bip01 R Arm1"  25
 27 "Bip01 R Arm2"  26
 28 "Bip01 R Hand"  27
 29 "Bip01 R Finger1"  28
 30 "Bip01 R Finger11"  29
 31 "Bip01 R Finger12"  30
end
skeleton
time 0
  0 0.235347 -0.235347 -12.131707 -0.000000 0.270322 -1.571254
  1 -2.027406 -0.062502 0.000000 -1.570795 -1.570796 0.000000
  2 -0.000005 0.000007 3.713255 -3.389770 -0.209750 1.567109
  3 18.045721 0.000000 0.000000 0.000000 -0.000000 -1.744563
  4 17.597597 0.000000 0.000000 -0.164903 0.191688 0.413694
  5 3.793090 6.407221 0.000000 0.000000 -0.000000 1.570796
  6 0.000005 -0.000003 -3.713255 0.311943 2.936853 5.354742
  7 18.045725 0.000000 0.000000 0.000000 -0.000000 -1.993292
  8 17.597597 0.000000 0.000000 0.131015 -0.129891 1.055680
  9 3.793090 6.407221 0.000000 0.000000 -0.000000 1.570796
 10 0.935740 0.000000 0.000000 0.000000 -0.000000 0.000000
 11 0.935741 0.000000 0.000000 0.000000 -0.000000 0.000000
 12 1.293670 0.684478 -0.000001 -0.000004 -0.000001 0.279871
 13 5.309685 -0.003834 0.000000 -0.209347 -0.005225 -0.025634
 14 4.826790 -0.004591 0.000000 -0.409861 -0.013579 -0.032070
 15 5.792767 -0.005304 0.000000 0.000000 -0.000000 0.043564
 16 6.662317 -0.001453 0.000000 0.000000 -0.000001 0.078555
 17 2.046985 -0.000002 0.000000 0.548661 0.303218 -0.532887
 18 -3.447972 0.216433 4.341911 1.808249 -0.756089 1.152188
 19 4.827230 0.000000 0.000001 -0.340849 -0.503754 -0.009188
 20 11.139763 0.000000 0.000000 0.000000 -0.000000 -1.327024
 21 10.314597 0.000001 0.000000 -4.434674 0.060501 -0.051407
 22 2.975834 -0.386307 -0.044143 -0.012063 -0.041921 0.261905
 23 1.438886 0.000000 0.000000 0.000000 -0.000000 0.924779
 24 1.485303 0.000000 0.000000 0.000000 -0.000000 0.540939
 25 -3.186314 0.196501 -4.140396 -1.122880 1.033293 2.001643
 26 4.972048 0.000000 0.000001 0.430621 -0.395045 -1.091540
 27 11.585355 0.000000 0.000000 0.000000 -0.000000 -1.873578
 28 10.127057 0.000000 0.000001 2.063125 0.632525 0.364369
 29 2.683750 -0.427338 0.044205 0.001045 0.043611 0.000046
 30 1.438885 -0.000001 0.000000 0.000000 -0.000000 0.767689
 31 1.485305 0.000001 0.000000 0.000000 -0.000000 1.221538
time 1
  0 0.235347 -0.235347 -12.131707 -0.000000 0.270322 -1.571254
  1 -2.039125 -0.058596 0.000000 -1.570795 -1.570796 0.000000
  2 -0.000005 0.000007 3.713255 -3.389865 -0.209654 1.566917
  3 18.045721 0.000000 0.000000 0.000000 -0.000000 -1.744192
  4 17.597597 0.000000 0.000000 -0.165106 0.192053 0.413008
  5 3.793090 6.407221 0.000000 0.000000 -0.000000 1.570796
  6 0.000005 -0.000003 -3.713255 0.311752 2.936182 5.353783
  7 18.045725 0.000000 0.000000 0.000000 -0.000000 -1.993582
  8 17.597597 0.000000 0.000000 0.131015 -0.129812 1.055131
  9 3.793090 6.407221 0.000000 0.000000 -0.000000 1.570796
 10 0.935740 0.000000 0.000000 0.000000 -0.000000 0.000000
 11 0.935741 0.000000 0.000000 0.000000 -0.000000 0.000000
 12 1.293670 0.684478 -0.000001 -0.000004 -0.000001 0.279871
 13 5.309685 -0.003834 0.000000 -0.209359 -0.005046 -0.024565
 14 4.826790 -0.004591 0.000000 -0.409861 -0.012824 -0.030483
 15 5.792767 -0.005304 0.000000 0.000000 -0.000000 0.047239
 16 6.662317 -0.001453 0.000000 0.000000 -0.000001 0.078555
 17 2.046985 -0.000002 0.000000 0.548618 0.303601 -0.539449
 18 -3.447972 0.216433 4.341911 1.804510 -0.757012 1.157557
 19 4.827230 0.000000 0.000001 -0.345372 -0.512690 -0.005950
 20 11.139763 0.000000 0.000000 0.000000 -0.000000 -1.325973
 21 10.314597 0.000001 0.000000 -4.434674 0.060501 -0.051407
 22 2.975834 -0.386307 -0.044143 -0.012063 -0.041921 0.261905
 23 1.438886 0.000000 0.000000 0.000000 -0.000000 0.924779
 24 1.485303 0.000000 0.000000 0.000000 -0.000000 0.540939
 25 -3.186314 0.196501 -4.140396 -1.129495 1.027244 1.995795
 26 4.972048 0.000000 0.000001 0.431859 -0.387081 -1.086534
 27 11.585355 0.000000 0.000000 0.000000 -0.000000 -1.873578
 28 10.127057 0.000000 0.000001 2.063125 0.632525 0.364369
 29 2.683750 -0.427338 0.044205 0.001045 0.043611 0.000046
 30 1.438885 -0.000001 0.000000 0.000000 -0.000000 0.767689
 31 1.485305 0.000001 0.000000 0.000000 -0.000000 1.221538
time 2
  0 0.235347 -0.235347 -12.147333 -0.000000 0.270322 -1.571254
  1 -2.058657 -0.039064 0.000000 -1.570795 -1.570796 0.000000
  2 -0.000005 0.000007 3.713255 -3.390537 -0.209079 1.566917
  3 18.045721 0.000000 0.000000 0.000000 -0.000000 -1.743524
  4 17.597597 0.000000 0.000000 -0.165410 0.192613 0.412047
  5 3.793090 6.407221 0.000000 0.000000 -0.000000 1.570796
  6 0.000005 -0.000003 -3.713255 0.311272 2.936086 5.352633
  7 18.045725 0.000000 0.000000 0.000000 -0.000000 -1.993944
  8 17.597597 0.000000 0.000000 0.131015 -0.129674 1.054238
  9 3.793090 6.407221 0.000000 0.000000 -0.000000 1.570796
 10 0.935740 0.000000 0.000000 0.000000 -0.000000 0.000000
 11 0.935741 0.000000 0.000000 0.000000 -0.000000 0.000000
 12 1.293670 0.684478 -0.000001 -0.000004 -0.000001 0.279871
 13 5.309685 -0.003834 0.000000 -0.209359 -0.004734 -0.023099
 14 4.826790 -0.004591 0.000000 -0.409894 -0.011865 -0.028123
 15 5.792767 -0.005304 0.000000 0.000000 -0.000000 0.052201
 16 6.662317 -0.001453 0.000000 0.000000 -0.000001 0.078555
 17 2.046985 -0.000002 0.000000 0.548187 0.304141 -0.548304
 18 -3.447972 0.216433 4.341911 1.799812 -0.758320 1.164556
 19 4.827230 0.000000 0.000001 -0.351833 -0.524774 -0.001312
 20 11.139763 0.000000 0.000000 0.000000 -0.000000 -1.324501
 21 10.314597 0.000001 0.000000 -4.434674 0.060501 -0.051407
 22 2.975834 -0.386307 -0.044143 -0.012063 -0.041921 0.261905
 23 1.438886 0.000000 0.000000 0.000000 -0.000000 0.924779
 24 1.485303 0.000000 0.000000 0.000000 -0.000000 0.540939
 25 -3.186314 0.196501 -4.140396 -1.138028 1.018963 1.988796
 26 4.972048 0.000000 0.000001 0.433483 -0.376463 -1.080276
 27 11.585355 0.000000 0.000000 0.000000 -0.000000 -1.873578
 28 10.127057 0.000000 0.000001 2.063125 0.632525 0.364369
 29 2.683750 -0.427338 0.044205 0.001045 0.043611 0.000046
 30 1.438885 -0.000001 0.000000 0.000000 -0.000000 0.767689
 31 1.485305 0.000001 0.000000 0.000000 -0.000000 1.221538
time 3
  0 0.235347 -0.235347 -12.155146 -0.000000 0.270322 -1.571254
  1 -2.082095 -0.031251 0.000000 -1.570795 -1.570796 0.000000
  2 -0.000005 0.000007 3.713255 -3.391016 -0.208887 1.566246
  3 18.045721 0.000000 0.000000 0.000000 -0.000000 -1.742782
  4 17.597597 0.000000 0.000000 -0.165740 0.193246 0.410949
  5 3.793090 6.407221 0.000000 0.000000 -0.000000 1.570796
  6 0.000005 -0.000003 -3.713255 0.310985 2.935511 5.351387
  7 18.045725 0.000000 0.000000 0.000000 -0.000000 -1.994451
  8 17.597597 0.000000 0.000000 0.131015 -0.129536 1.053345
  9 3.793090 6.407221 0.000000 0.000000 -0.000000 1.570796
 10 0.935740 0.000000 0.000000 0.000000 -0.000000 0.000000
 11 0.935741 0.000000 0.000000 0.000000 -0.000000 0.000000
 12 1.293670 0.684478 -0.000001 -0.000004 -0.000001 0.279871
 13 5.309685 -0.003834 0.000000 -0.209359 -0.004302 -0.021324
 14 4.826790 -0.004591 0.000000 -0.409943 -0.010618 -0.025367
 15 5.792767 -0.005304 0.000000 0.000000 -0.000000 0.058264
 16 6.662317 -0.001453 0.000000 0.000000 -0.000001 0.078555
 17 2.046985 -0.000002 0.000000 0.548015 0.304794 -0.559136
 18 -3.447972 0.216433 4.341911 1.793676 -0.759743 1.173856
 19 4.827230 0.000000 0.000001 -0.359997 -0.539241 0.004464
 20 11.139763 0.000000 0.000000 0.000000 -0.000000 -1.322679
 21 10.314597 0.000001 0.000000 -4.434674 0.060501 -0.051407
 22 2.975834 -0.386307 -0.044143 -0.012063 -0.041921 0.261905
 23 1.438886 0.000000 0.000000 0.000000 -0.000000 0.924779
 24 1.485303 0.000000 0.000000 0.000000 -0.000000 0.540939
 25 -3.186314 0.196501 -4.140396 -1.148478 1.008901 1.979688
 26 4.972048 0.000000 0.000001 0.435572 -0.363512 -1.072371
 27 11.585355 0.000000 0.000000 0.000000 -0.000000 -1.873578
 28 10.127057 0.000000 0.000001 2.063125 0.632525 0.364369
 29 2.683750 -0.427338 0.044205 0.001045 0.043611 0.000046
 30 1.438885 -0.000001 0.000000 0.000000 -0.000000 0.767689
 31 1.485305 0.000001 0.000000 0.000000 -0.000000 1.221538
time 4
  0 0.235347 -0.235347 -12.159052 -0.000000 0.270322 -1.571254
  1 -2.101627 -0.019532 0.000000 -1.570795 -1.570796 0.000000
  2 -0.000005 0.000007 3.713255 -3.391304 -0.208312 1.566055
  3 18.045721 0.000000 0.000000 0.000000 -0.000000 -1.741743
  4 17.597597 0.000000 0.000000 -0.166120 0.193952 0.409668
  5 3.793090 6.407221 0.000000 0.000000 -0.000000 1.570796
  6 0.000005 -0.000003 -3.713255 0.310505 2.934744 5.349853
  7 18.045725 0.000000 0.000000 0.000000 -0.000000 -1.995031
  8 17.597597 0.000000 0.000000 0.131015 -0.129319 1.052212
  9 3.793090 6.407221 0.000000 0.000000 -0.000000 1.570796
 10 0.935740 0.000000 0.000000 0.000000 -0.000000 0.000000
 11 0.935741 0.000000 0.000000 0.000000 -0.000000 0.000000
 12 1.293670 0.684478 -0.000001 -0.000004 -0.000001 0.279871
 13 5.309685 -0.003834 0.000000 -0.209359 -0.003919 -0.019296
 14 4.826790 -0.004591 0.000000 -0.409976 -0.009240 -0.022259
 15 5.792767 -0.005304 0.000000 0.000000 -0.000000 0.065157
 16 6.662317 -0.001453 0.000000 0.000000 -0.000001 0.078555
 17 2.046985 -0.000002 0.000000 0.547627 0.305537 -0.571497
 18 -3.447972 0.216433 4.341911 1.786390 -0.761397 1.183923
 19 4.827230 0.000000 0.000001 -0.369336 -0.556091 0.011027
 20 11.139763 0.000000 0.000000 0.000000 -0.000000 -1.320647
 21 10.314597 0.000001 0.000000 -4.434674 0.060501 -0.051407
 22 2.975834 -0.386307 -0.044143 -0.012063 -0.041921 0.261905
 23 1.438886 0.000000 0.000000 0.000000 -0.000000 0.924779
 24 1.485303 0.000000 0.000000 0.000000 -0.000000 0.540939
 25 -3.186314 0.196501 -4.140396 -1.159791 0.997256 1.970101
 26 4.972048 0.000000 0.000001 0.437815 -0.348791 -1.063215
 27 11.585355 0.000000 0.000000 0.000000 -0.000000 -1.873578
 28 10.127057 0.000000 0.000001 2.063125 0.632525 0.364369
 29 2.683750 -0.427338 0.044205 0.001045 0.043611 0.000046
 30 1.438885 -0.000001 0.000000 0.000000 -0.000000 0.767689
 31 1.485305 0.000001 0.000000 0.000000 -0.000000 1.221538
time 5
  0 0.235347 -0.235347 -12.162958 -0.000000 0.270322 -1.571254
  1 -2.136784 -0.007813 0.000000 -1.570795 -1.570796 0.000000
  2 -0.000005 0.000007 3.713255 -3.392071 -0.207641 1.565383
  3 18.045721 0.000000 0.000000 0.000000 -0.000000 -1.740778
  4 17.597597 0.000000 0.000000 -0.166551 0.194804 0.408295
  5 3.793090 6.407221 0.000000 0.000000 -0.000000 1.570796
  6 0.000005 -0.000003 -3.713255 0.309834 2.933977 5.348031
  7 18.045725 0.000000 0.000000 0.000000 -0.000000 -1.995538
  8 17.597597 0.000000 0.000000 0.131015 -0.129161 1.051010
  9 3.793090 6.407221 0.000000 0.000000 -0.000000 1.570796
 10 0.935740 0.000000 0.000000 0.000000 -0.000000 0.000000
 11 0.935741 0.000000 0.000000 0.000000 -0.000000 0.000000
 12 1.293670 0.684478 -0.000001 -0.000004 -0.000001 0.279871
 13 5.309685 -0.003834 0.000000 -0.209359 -0.003452 -0.017105
 14 4.826790 -0.004591 0.000000 -0.409976 -0.007790 -0.018775
 15 5.792767 -0.005304 0.000000 0.000000 -0.000000 0.072673
 16 6.662317 -0.001453 0.000000 0.000000 -0.000001 0.078555
 17 2.046985 -0.000002 0.000000 0.547110 0.306347 -0.584981
 18 -3.447972 0.216433 4.341911 1.778816 -0.763166 1.194949
 19 4.827230 0.000000 0.000001 -0.379850 -0.574558 0.018553
 20 11.139763 0.000000 0.000000 0.000000 -0.000000 -1.318264
 21 10.314597 0.000001 0.000000 -4.434674 0.060501 -0.051407
 22 2.975834 -0.386307 -0.044143 -0.012063 -0.041921 0.261905
 23 1.438886 0.000000 0.000000 0.000000 -0.000000 0.924779
 24 1.485303 0.000000 0.000000 0.000000 -0.000000 0.540939
 25 -3.186314 0.196501 -4.140396 -1.171679 0.984509 1.960130
 26 4.972048 0.000000 0.000001 0.440136 -0.332542 -1.053202
 27 11.585355 0.000000 0.000000 0.000000 -0.000000 -1.873578
 28 10.127057 0.000000 0.000001 2.063125 0.632525 0.364369
 29 2.683750 -0.427338 0.044205 0.001045 0.043611 0.000046
 30 1.438885 -0.000001 0.000000 0.000000 -0.000000 0.767689
 31 1.485305 0.000001 0.000000 0.000000 -0.000000 1.221538
time 6
  0 0.235347 -0.235347 -12.162958 -0.000000 0.270322 -1.571254
  1 -2.168035 0.000000 0.000000 -1.570795 -1.570796 0.000000
  2 -0.000005 0.000007 3.713255 -3.392742 -0.207449 1.564904
  3 18.045721 0.000000 0.000000 0.000000 -0.000000 -1.739739
  4 17.597597 0.000000 0.000000 -0.167007 0.195656 0.406877
  5 3.793090 6.407221 0.000000 0.000000 -0.000000 1.570796
  6 0.000005 -0.000003 -3.713255 0.309259 2.933306 5.346113
  7 18.045725 0.000000 0.000000 0.000000 -0.000000 -1.996190
  8 17.597597 0.000000 0.000000 0.131048 -0.128944 1.049705
  9 3.793090 6.407221 0.000000 0.000000 -0.000000 1.570796
 10 0.935740 0.000000 0.000000 0.000000 -0.000000 0.000000
 11 0.935741 0.000000 0.000000 0.000000 -0.000000 0.000000
 12 1.293670 0.684478 -0.000001 -0.000004 -0.000001 0.279871
 13 5.309685 -0.003834 0.000000 -0.209396 -0.002912 -0.014770
 14 4.826790 -0.004591 0.000000 -0.410025 -0.006160 -0.015115
 15 5.792767 -0.005304 0.000000 0.000000 -0.000000 0.080584
 16 6.662317 -0.001453 0.000000 0.000000 -0.000001 0.078555
 17 2.046985 -0.000002 0.000000 0.546636 0.307180 -0.599050
 18 -3.447972 0.216433 4.341911 1.770571 -0.764974 1.207029
 19 4.827230 0.000000 0.000001 -0.391186 -0.593280 0.026954
 20 11.139763 0.000000 0.000000 0.000000 -0.000000 -1.315741
 21 10.314597 0.000001 0.000000 -4.434674 0.060501 -0.051407
 22 2.975834 -0.386307 -0.044143 -0.012063 -0.041921 0.261905
 23 1.438886 0.000000 0.000000 0.000000 -0.000000 0.924779
 24 1.485303 0.000000 0.000000 0.000000 -0.000000 0.540939
 25 -3.186314 0.196501 -4.140396 -1.183375 0.971140 1.950255
 26 4.972048 0.000000 0.000001 0.442611 -0.315569 -1.042597
 27 11.585355 0.000000 0.000000 0.000000 -0.000000 -1.873578
 28 10.127057 0.000000 0.000001 2.063125 0.632525 0.364369
 29 2.683750 -0.427338 0.044205 0.001045 0.043611 0.000046
 30 1.438885 -0.000001 0.000000 0.000000 -0.000000 0.767689
 31 1.485305 0.000001 0.000000 0.000000 -0.000000 1.221538
time 7
  0 0.235347 -0.235347 -12.182490 -0.000000 0.270322 -1.571254
  1 -2.187567 0.019532 0.000000 -1.570795 -1.570796 0.000000
  2 -0.000005 0.000007 3.713255 -3.393317 -0.206874 1.564520
  3 18.045721 0.000000 0.000000 0.000000 -0.000000 -1.738701
  4 17.597597 0.000000 0.000000 -0.167489 0.196508 0.405367
  5 3.793090 6.407221 0.000000 0.000000 -0.000000 1.570796
  6 0.000005 -0.000003 -3.713255 0.308876 2.932539 5.344388
  7 18.045725 0.000000 0.000000 0.000000 -0.000000 -1.996842
  8 17.597597 0.000000 0.000000 0.131048 -0.128727 1.048400
  9 3.793090 6.407221 0.000000 0.000000 -0.000000 1.570796
 10 0.935740 0.000000 0.000000 0.000000 -0.000000 0.000000
 11 0.935741 0.000000 0.000000 0.000000 -0.000000 0.000000
 12 1.293670 0.684478 -0.000001 -0.000004 -0.000001 0.279871
 13 5.309685 -0.003834 0.000000 -0.209408 -0.002457 -0.012416
 14 4.826790 -0.004591 0.000000 -0.410025 -0.004554 -0.011477
 15 5.792767 -0.005304 0.000000 0.000000 -0.000000 0.088640
 16 6.662317 -0.001453 0.000000 0.000000 -0.000001 0.078555
 17 2.046985 -0.000002 0.000000 0.546378 0.308058 -0.613613
 18 -3.447972 0.216433 4.341911 1.762230 -0.766666 1.218822
 19 4.827230 0.000000 0.000001 -0.403051 -0.612683 0.035530
 20 11.139763 0.000000 0.000000 0.000000 -0.000000 -1.313569
 21 10.314597 0.000001 0.000000 -4.434674 0.060501 -0.051407
 22 2.975834 -0.386307 -0.044143 -0.012063 -0.041921 0.261905
 23 1.438886 0.000000 0.000000 0.000000 -0.000000 0.924779
 24 1.485303 0.000000 0.000000 0.000000 -0.000000 0.540939
 25 -3.186314 0.196501 -4.140396 -1.195456 0.957319 1.940476
 26 4.972048 0.000000 0.000001 0.445009 -0.298435 -1.031728
 27 11.585355 0.000000 0.000000 0.000000 -0.000000 -1.873578
 28 10.127057 0.000000 0.000001 2.063125 0.632525 0.364369
 29 2.683750 -0.427338 0.044205 0.001045 0.043611 0.000046
 30 1.438885 -0.000001 0.000000 0.000000 -0.000000 0.767689
 31 1.485305 0.000001 0.000000 0.000000 -0.000000 1.221538
time 8
  0 0.235347 -0.235347 -12.190303 -0.000000 0.270322 -1.571254
  1 -2.218818 0.031251 0.000000 -1.570795 -1.570796 0.000000
  2 -0.000005 0.000007 3.713255 -3.393700 -0.206107 1.563849
  3 18.045721 0.000000 0.000000 0.000000 -0.000000 -1.737662
  4 17.597597 0.000000 0.000000 -0.167945 0.197384 0.403903
  5 3.793090 6.407221 0.000000 0.000000 -0.000000 1.570796
  6 0.000005 -0.000003 -3.713255 0.308204 2.931868 5.342662
  7 18.045725 0.000000 0.000000 0.000000 -0.000000 -1.997494
  8 17.597597 0.000000 0.000000 0.131048 -0.128471 1.047061
  9 3.793090 6.407221 0.000000 0.000000 -0.000000 1.570796
 10 0.935740 0.000000 0.000000 0.000000 -0.000000 0.000000
 11 0.935741 0.000000 0.000000 0.000000 -0.000000 0.000000
 12 1.293670 0.684478 -0.000001 -0.000004 -0.000001 0.279871
 13 5.309685 -0.003834 0.000000 -0.209408 -0.001942 -0.010062
 14 4.826790 -0.004591 0.000000 -0.410058 -0.002972 -0.007817
 15 5.792767 -0.005304 0.000000 0.000000 -0.000000 0.096592
 16 6.662317 -0.001453 0.000000 0.000000 -0.000001 0.078555
 17 2.046985 -0.000002 0.000000 0.545904 0.308914 -0.627906
 18 -3.447972 0.216433 4.341911 1.753889 -0.768320 1.231094
 19 4.827230 0.000000 0.000001 -0.415327 -0.632086 0.044544
 20 11.139763 0.000000 0.000000 0.000000 -0.000000 -1.311186
 21 10.314597 0.000001 0.000000 -4.434674 0.060501 -0.051407
 22 2.975834 -0.386307 -0.044143 -0.012063 -0.041921 0.261905
 23 1.438886 0.000000 0.000000 0.000000 -0.000000 0.924779
 24 1.485303 0.000000 0.000000 0.000000 -0.000000 0.540939
 25 -3.186314 0.196501 -4.140396 -1.206769 0.943639 1.931368
 26 4.972048 0.000000 0.000001 0.447407 -0.281221 -1.020859
 27 11.585355 0.000000 0.000000 0.000000 -0.000000 -1.873578
 28 10.127057 0.000000 0.000001 2.063125 0.632525 0.364369
 29 2.683750 -0.427338 0.044205 0.001045 0.043611 0.000046
 30 1.438885 -0.000001 0.000000 0.000000 -0.000000 0.767689
 31 1.485305 0.000001 0.000000 0.000000 -0.000000 1.221538
time 9
  0 0.235347 -0.235347 -12.194209 -0.000000 0.270322 -1.571254
  1 -2.250069 0.050783 0.000000 -1.570795 -1.570796 0.000000
  2 -0.000005 0.000007 3.713255 -3.394372 -0.205531 1.563658
  3 18.045721 0.000000 0.000000 0.000000 -0.000000 -1.736697
  4 17.597597 0.000000 0.000000 -0.168376 0.198163 0.402439
  5 3.793090 6.407221 0.000000 0.000000 -0.000000 1.570796
  6 0.000005 -0.000003 -3.713255 0.307629 2.931196 5.340936
  7 18.045725 0.000000 0.000000 0.000000 -0.000000 -1.998001
  8 17.597597 0.000000 0.000000 0.131048 -0.128313 1.045859
  9 3.793090 6.407221 0.000000 0.000000 -0.000000 1.570796
 10 0.935740 0.000000 0.000000 0.000000 -0.000000 0.000000
 11 0.935741 0.000000 0.000000 0.000000 -0.000000 0.000000
 12 1.293670 0.684478 -0.000001 -0.000004 -0.000001 0.279871
 13 5.309685 -0.003834 0.000000 -0.209408 -0.001438 -0.007817
 14 4.826790 -0.004591 0.000000 -0.410058 -0.001438 -0.004245
 15 5.792767 -0.005304 0.000000 0.000000 -0.000000 0.104295
 16 6.662317 -0.001453 0.000000 0.000000 -0.000001 0.078555
 17 2.046985 -0.000002 0.000000 0.545473 0.309724 -0.641660
 18 -3.447972 0.216433 4.341911 1.746027 -0.769820 1.242599
 19 4.827230 0.000000 0.000001 -0.427544 -0.650383 0.053645
 20 11.139763 0.000000 0.000000 0.000000 -0.000000 -1.308663
 21 10.314597 0.000001 0.000000 -4.434674 0.060501 -0.051407
 22 2.975834 -0.386307 -0.044143 -0.012063 -0.041921 0.261905
 23 1.438886 0.000000 0.000000 0.000000 -0.000000 0.924779
 24 1.485303 0.000000 0.000000 0.000000 -0.000000 0.540939
 25 -3.186314 0.196501 -4.140396 -1.217123 0.930383 1.923123
 26 4.972048 0.000000 0.000001 0.449573 -0.264811 -1.010517
 27 11.585355 0.000000 0.000000 0.000000 -0.000000 -1.873578
 28 10.127057 0.000000 0.000001 2.063125 0.632525 0.364369
 29 2.683750 -0.427338 0.044205 0.001045 0.043611 0.000046
 30 1.438885 -0.000001 0.000000 0.000000 -0.000000 0.767689
 31 1.485305 0.000001 0.000000 0.000000 -0.000000 1.221538
time 10
  0 0.235347 -0.235347 -12.194209 -0.000000 0.270322 -1.571254
  1 -2.281320 0.062502 0.000000 -1.570795 -1.570796 0.000000
  2 -0.000005 0.000007 3.713255 -3.395139 -0.205340 1.562986
  3 18.045721 0.000000 0.000000 0.000000 -0.000000 -1.735807
  4 17.597597 0.000000 0.000000 -0.168807 0.198942 0.401158
  5 3.793090 6.407221 0.000000 0.000000 -0.000000 1.570796
  6 0.000005 -0.000003 -3.713255 0.307342 2.930909 5.339211
  7 18.045725 0.000000 0.000000 0.000000 -0.000000 -1.998653
  8 17.597597 0.000000 0.000000 0.131048 -0.128116 1.044726
  9 3.793090 6.407221 0.000000 0.000000 -0.000000 1.570796
 10 0.935740 0.000000 0.000000 0.000000 -0.000000 0.000000
 11 0.935741 0.000000 0.000000 0.000000 -0.000000 0.000000
 12 1.293670 0.684478 -0.000001 -0.000004 -0.000001 0.279871
 13 5.309685 -0.003834 0.000000 -0.209408 -0.001043 -0.005716
 14 4.826790 -0.004591 0.000000 -0.410058 -0.000060 -0.000960
 15 5.792767 -0.005304 0.000000 0.000000 -0.000000 0.111396
 16 6.662317 -0.001453 0.000000 0.000000 -0.000001 0.078555
 17 2.046985 -0.000002 0.000000 0.544999 0.310489 -0.654470
 18 -3.447972 0.216433 4.341911 1.738549 -0.771128 1.253433
 19 4.827230 0.000000 0.000001 -0.439115 -0.666892 0.062221
 20 11.139763 0.000000 0.000000 0.000000 -0.000000 -1.306771
 21 10.314597 0.000001 0.000000 -4.434674 0.060501 -0.051407
 22 2.975834 -0.386307 -0.044143 -0.012063 -0.041921 0.261905
 23 1.438886 0.000000 0.000000 0.000000 -0.000000 0.924779
 24 1.485303 0.000000 0.000000 0.000000 -0.000000 0.540939
 25 -3.186314 0.196501 -4.140396 -1.226423 0.918060 1.915549
 26 4.972048 0.000000 0.000001 0.451739 -0.249527 -1.000702
 27 11.585355 0.000000 0.000000 0.000000 -0.000000 -1.873578
 28 10.127057 0.000000 0.000001 2.063125 0.632525 0.364369
 29 2.683750 -0.427338 0.044205 0.001045 0.043611 0.000046
 30 1.438885 -0.000001 0.000000 0.000000 -0.000000 0.767689
 31 1.485305 0.000001 0.000000 0.000000 -0.000000 1.221538
time 11
  0 0.235347 -0.235347 -12.213741 -0.000000 0.270322 -1.571254
  1 -2.304758 0.070315 0.000000 -1.570795 -1.570796 0.000000
  2 -0.000005 0.000007 3.713255 -3.395618 -0.204669 1.562507
  3 18.045721 0.000000 0.000000 0.000000 -0.000000 -1.734990
  4 17.597597 0.000000 0.000000 -0.169162 0.199648 0.399968
  5 3.793090 6.407221 0.000000 0.000000 -0.000000 1.570796
  6 0.000005 -0.000003 -3.713255 0.306670 2.930334 5.337868
  7 18.045725 0.000000 0.000000 0.000000 -0.000000 -1.998798
  8 17.597597 0.000000 0.000000 0.131048 -0.127899 1.043627
  9 3.793090 6.407221 0.000000 0.000000 -0.000000 1.570796
 10 0.935740 0.000000 0.000000 0.000000 -0.000000 0.000000
 11 0.935741 0.000000 0.000000 0.000000 -0.000000 0.000000
 12 1.293670 0.684478 -0.000001 -0.000004 -0.000001 0.279871
 13 5.309685 -0.003834 0.000000 -0.209408 -0.000587 -0.003851
 14 4.826790 -0.004591 0.000000 -0.410058 0.001163 0.001884
 15 5.792767 -0.005304 0.000000 0.000000 -0.000000 0.117791
 16 6.662317 -0.001453 0.000000 0.000000 -0.000001 0.078555
 17 2.046985 -0.000002 0.000000 0.544568 0.311187 -0.665842
 18 -3.447972 0.216433 4.341911 1.731838 -0.772320 1.262733
 19 4.827230 0.000000 0.000001 -0.449805 -0.681955 0.070272
 20 11.139763 0.000000 0.000000 0.000000 -0.000000 -1.304809
 21 10.314597 0.000001 0.000000 -4.434674 0.060501 -0.051407
 22 2.975834 -0.386307 -0.044143 -0.012063 -0.041921 0.261905
 23 1.438886 0.000000 0.000000 0.000000 -0.000000 0.924779
 24 1.485303 0.000000 0.000000 0.000000 -0.000000 0.540939
 25 -3.186314 0.196501 -4.140396 -1.234476 0.907037 1.909413
 26 4.972048 0.000000 0.000001 0.453673 -0.236013 -0.991941
 27 11.585355 0.000000 0.000000 0.000000 -0.000000 -1.873578
 28 10.127057 0.000000 0.000001 2.063125 0.632525 0.364369
 29 2.683750 -0.427338 0.044205 0.001045 0.043611 0.000046
 30 1.438885 -0.000001 0.000000 0.000000 -0.000000 0.767689
 31 1.485305 0.000001 0.000000 0.000000 -0.000000 1.221538
time 12
  0 0.235347 -0.235347 -12.217648 -0.000000 0.270322 -1.571254
  1 -2.324290 0.082034 0.000000 -1.570795 -1.570796 0.000000
  2 -0.000005 0.000007 3.713255 -3.395810 -0.204573 1.562315
  3 18.045721 0.000000 0.000000 0.000000 -0.000000 -1.734248
  4 17.597597 0.000000 0.000000 -0.169466 0.200208 0.398916
  5 3.793090 6.407221 0.000000 0.000000 -0.000000 1.570796
  6 0.000005 -0.000003 -3.713255 0.306479 2.929567 5.336622
  7 18.045725 0.000000 0.000000 0.000000 -0.000000 -1.999450
  8 17.597597 0.000000 0.000000 0.131048 -0.127800 1.042734
  9 3.793090 6.407221 0.000000 0.000000 -0.000000 1.570796
 10 0.935740 0.000000 0.000000 0.000000 -0.000000 0.000000
 11 0.935741 0.000000 0.000000 0.000000 -0.000000 0.000000
 12 1.293670 0.684478 -0.000001 -0.000004 -0.000001 0.279871
 13 5.309685 -0.003834 0.000000 -0.209408 -0.000312 -0.002294
 14 4.826790 -0.004591 0.000000 -0.410058 0.002205 0.004398
 15 5.792767 -0.005304 0.000000 0.000000 -0.000000 0.123127
 16 6.662317 -0.001453 0.000000 0.000000 -0.000001 0.078555
 17 2.046985 -0.000002 0.000000 0.544439 0.311750 -0.675461
 18 -3.447972 0.216433 4.341911 1.725894 -0.773205 1.271170
 19 4.827230 0.000000 0.000001 -0.458968 -0.694635 0.077098
 20 11.139763 0.000000 0.000000 0.000000 -0.000000 -1.303197
 21 10.314597 0.000001 0.000000 -4.434674 0.060501 -0.051407
 22 2.975834 -0.386307 -0.044143 -0.012063 -0.041921 0.261905
 23 1.438886 0.000000 0.000000 0.000000 -0.000000 0.924779
 24 1.485303 0.000000 0.000000 0.000000 -0.000000 0.540939
 25 -3.186314 0.196501 -4.140396 -1.240804 0.897738 1.904140
 26 4.972048 0.000000 0.000001 0.455065 -0.224671 -0.984563
 27 11.585355 0.000000 0.000000 0.000000 -0.000000 -1.873578
 28 10.127057 0.000000 0.000001 2.063125 0.632525 0.364369
 29 2.683750 -0.427338 0.044205 0.001045 0.043611 0.000046
 30 1.438885 -0.000001 0.000000 0.000000 -0.000000 0.767689
 31 1.485305 0.000001 0.000000 0.000000 -0.000000 1.221538
time 13
  0 0.235347 -0.235347 -12.221554 -0.000000 0.270322 -1.571254
  1 -2.336009 0.093753 0.000000 -1.570795 -1.570796 0.000000
  2 -0.000005 0.000007 3.713255 -3.396385 -0.203997 1.562220
  3 18.045721 0.000000 0.000000 0.000000 -0.000000 -1.733655
  4 17.597597 0.000000 0.000000 -0.169669 0.200646 0.398184
  5 3.793090 6.407221 0.000000 0.000000 -0.000000 1.570796
  6 0.000005 -0.000003 -3.713255 0.305999 2.929471 5.335471
  7 18.045725 0.000000 0.000000 0.000000 -0.000000 -1.999812
  8 17.597597 0.000000 0.000000 0.131048 -0.127682 1.042116
  9 3.793090 6.407221 0.000000 0.000000 -0.000000 1.570796
 10 0.935740 0.000000 0.000000 0.000000 -0.000000 0.000000
 11 0.935741 0.000000 0.000000 0.000000 -0.000000 0.000000
 12 1.293670 0.684478 -0.000001 -0.000004 -0.000001 0.279871
 13 5.309685 -0.003834 0.000000 -0.209408 -0.000048 -0.001081
 14 4.826790 -0.004591 0.000000 -0.410058 0.003032 0.006294
 15 5.792767 -0.005304 0.000000 0.000000 -0.000000 0.127238
 16 6.662317 -0.001453 0.000000 0.000000 -0.000001 0.078555
 17 2.046985 -0.000002 0.000000 0.544008 0.312178 -0.682607
 18 -3.447972 0.216433 4.341911 1.721388 -0.773897 1.277498
 19 4.827230 0.000000 0.000001 -0.466310 -0.704422 0.082524
 20 11.139763 0.000000 0.000000 0.000000 -0.000000 -1.301725
 21 10.314597 0.000001 0.000000 -4.434674 0.060501 -0.051407
 22 2.975834 -0.386307 -0.044143 -0.012063 -0.041921 0.261905
 23 1.438886 0.000000 0.000000 0.000000 -0.000000 0.924779
 24 1.485303 0.000000 0.000000 0.000000 -0.000000 0.540939
 25 -3.186314 0.196501 -4.140396 -1.246077 0.890559 1.900401
 26 4.972048 0.000000 0.000001 0.456303 -0.215983 -0.978832
 27 11.585355 0.000000 0.000000 0.000000 -0.000000 -1.873578
 28 10.127057 0.000000 0.000001 2.063125 0.632525 0.364369
 29 2.683750 -0.427338 0.044205 0.001045 0.043611 0.000046
 30 1.438885 -0.000001 0.000000 0.000000 -0.000000 0.767689
 31 1.485305 0.000001 0.000000 0.000000 -0.000000 1.221538
time 14
  0 0.235347 -0.235347 -12.225460 -0.000000 0.270322 -1.571254
  1 -2.347728 0.101566 0.000000 -1.570795 -1.570796 0.000000
  2 -0.000005 0.000007 3.713255 -3.396577 -0.203902 1.561740
  3 18.045721 0.000000 0.000000 0.000000 -0.000000 -1.733284
  4 17.597597 0.000000 0.000000 -0.169872 0.200914 0.397635
  5 3.793090 6.407221 0.000000 0.000000 -0.000000 1.570796
  6 0.000005 -0.000003 -3.713255 0.305903 2.929279 5.334992
  7 18.045725 0.000000 0.000000 0.000000 -0.000000 -1.999957
  8 17.597597 0.000000 0.000000 0.131048 -0.127603 1.041738
  9 3.793090 6.407221 0.000000 0.000000 -0.000000 1.570796
 10 0.935740 0.000000 0.000000 0.000000 -0.000000 0.000000
 11 0.935741 0.000000 0.000000 0.000000 -0.000000 0.000000
 12 1.293670 0.684478 -0.000001 -0.000004 -0.000001 0.279871
 13 5.309685 -0.003834 0.000000 -0.209408 0.000108 -0.000302
 14 4.826790 -0.004591 0.000000 -0.410058 0.003559 0.007418
 15 5.792767 -0.005304 0.000000 0.000000 -0.000000 0.129854
 16 6.662317 -0.001453 0.000000 0.000000 -0.000001 0.078555
 17 2.046985 -0.000002 0.000000 0.544008 0.312470 -0.687507
 18 -3.447972 0.216433 4.341911 1.718991 -0.774320 1.281237
 19 4.827230 0.000000 0.000001 -0.471009 -0.710549 0.086199
 20 11.139763 0.000000 0.000000 0.000000 -0.000000 -1.300954
 21 10.314597 0.000001 0.000000 -4.434674 0.060501 -0.051407
 22 2.975834 -0.386307 -0.044143 -0.012063 -0.041921 0.261905
 23 1.438886 0.000000 0.000000 0.000000 -0.000000 0.924779
 24 1.485303 0.000000 0.000000 0.000000 -0.000000 0.540939
 25 -3.186314 0.196501 -4.140396 -1.249145 0.885980 1.897621
 26 4.972048 0.000000 0.000001 0.456999 -0.210272 -0.974880
 27 11.585355 0.000000 0.000000 0.000000 -0.000000 -1.873578
 28 10.127057 0.000000 0.000001 2.063125 0.632525 0.364369
 29 2.683750 -0.427338 0.044205 0.001045 0.043611 0.000046
 30 1.438885 -0.000001 0.000000 0.000000 -0.000000 0.767689
 31 1.485305 0.000001 0.000000 0.000000 -0.000000 1.221538
time 15
  0 0.235347 -0.235347 -12.225460 -0.000000 0.270322 -1.571254
  1 -2.347728 0.101566 0.000000 -1.570795 -1.570796 0.000000
  2 -0.000005 0.000007 3.713255 -3.396577 -0.203902 1.561740
  3 18.045721 0.000000 0.000000 0.000000 -0.000000 -1.733284
  4 17.597597 0.000000 0.000000 -0.169897 0.200987 0.397452
  5 3.793090 6.407221 0.000000 0.000000 -0.000000 1.570796
  6 0.000005 -0.000003 -3.713255 0.305903 2.928992 5.334896
  7 18.045725 0.000000 0.000000 0.000000 -0.000000 -2.000102
  8 17.597597 0.000000 0.000000 0.131048 -0.127583 1.041532
  9 3.793090 6.407221 0.000000 0.000000 -0.000000 1.570796
 10 0.935740 0.000000 0.000000 0.000000 -0.000000 0.000000
 11 0.935741 0.000000 0.000000 0.000000 -0.000000 0.000000
 12 1.293670 0.684478 -0.000001 -0.000004 -0.000001 0.279871
 13 5.309685 -0.003834 0.000000 -0.209408 0.000156 -0.000031
 14 4.826790 -0.004591 0.000000 -0.410058 0.003739 0.007859
 15 5.792767 -0.005304 0.000000 0.000000 -0.000000 0.130830
 16 6.662317 -0.001453 0.000000 0.000000 -0.000001 0.078555
 17 2.046985 -0.000002 0.000000 0.544008 0.312561 -0.689215
 18 -3.447972 0.216433 4.341911 1.717649 -0.774474 1.282867
 19 4.827230 0.000000 0.000001 -0.472536 -0.712421 0.087512
 20 11.139763 0.000000 0.000000 0.000000 -0.000000 -1.300814
 21 10.314597 0.000001 0.000000 -4.434674 0.060501 -0.051407
 22 2.975834 -0.386307 -0.044143 -0.012063 -0.041921 0.261905
 23 1.438886 0.000000 0.000000 0.000000 -0.000000 0.924779
 24 1.485303 0.000000 0.000000 0.000000 -0.000000 0.540939
 25 -3.186314 0.196501 -4.140396 -1.250391 0.884341 1.896758
 26 4.972048 0.000000 0.000001 0.457231 -0.208261 -0.973892
 27 11.585355 0.000000 0.000000 0.000000 -0.000000 -1.873578
 28 10.127057 0.000000 0.000001 2.063125 0.632525 0.364369
 29 2.683750 -0.427338 0.044205 0.001045 0.043611 0.000046
 30 1.438885 -0.000001 0.000000 0.000000 -0.000000 0.767689
 31 1.485305 0.000001 0.000000 0.000000 -0.000000 1.221538
time 16
  0 0.235347 -0.235347 -12.225460 -0.000000 0.270322 -1.571254
  1 -2.347728 0.101566 0.000000 -1.570795 -1.570796 0.000000
  2 -0.000005 0.000007 3.713255 -3.396577 -0.203902 1.561740
  3 18.045721 0.000000 0.000000 0.000000 -0.000000 -1.733284
  4 17.597597 0.000000 0.000000 -0.169872 0.200914 0.397635
  5 3.793090 6.407221 0.000000 0.000000 -0.000000 1.570796
  6 0.000005 -0.000003 -3.713255 0.305903 2.929279 5.334992
  7 18.045725 0.000000 0.000000 0.000000 -0.000000 -1.999957
  8 17.597597 0.000000 0.000000 0.131048 -0.127603 1.041738
  9 3.793090 6.407221 0.000000 0.000000 -0.000000 1.570796
 10 0.935740 0.000000 0.000000 0.000000 -0.000000 0.000000
 11 0.935741 0.000000 0.000000 0.000000 -0.000000 0.000000
 12 1.293670 0.684478 -0.000001 -0.000004 -0.000001 0.279871
 13 5.309685 -0.003834 0.000000 -0.209408 0.000108 -0.000302
 14 4.826790 -0.004591 0.000000 -0.410058 0.003559 0.007418
 15 5.792767 -0.005304 0.000000 0.000000 -0.000000 0.129854
 16 6.662317 -0.001453 0.000000 0.000000 -0.000001 0.078555
 17 2.046985 -0.000002 0.000000 0.544008 0.312470 -0.687507
 18 -3.447972 0.216433 4.341911 1.718991 -0.774320 1.281237
 19 4.827230 0.000000 0.000001 -0.471009 -0.710549 0.086199
 20 11.139763 0.000000 0.000000 0.000000 -0.000000 -1.300954
 21 10.314597 0.000001 0.000000 -4.434674 0.060501 -0.051407
 22 2.975834 -0.386307 -0.044143 -0.012063 -0.041921 0.261905
 23 1.438886 0.000000 0.000000 0.000000 -0.000000 0.924779
 24 1.485303 0.000000 0.000000 0.000000 -0.000000 0.540939
 25 -3.186314 0.196501 -4.140396 -1.249145 0.885980 1.897621
 26 4.972048 0.000000 0.000001 0.456999 -0.210272 -0.974880
 27 11.585355 0.000000 0.000000 0.000000 -0.000000 -1.873578
 28 10.127057 0.000000 0.000001 2.063125 0.632525 0.364369
 29 2.683750 -0.427338 0.044205 0.001045 0.043611 0.000046
 30 1.438885 -0.000001 0.000000 0.000000 -0.000000 0.767689
 31 1.485305 0.000001 0.000000 0.000000 -0.000000 1.221538
time 17
  0 0.235347 -0.235347 -12.221554 -0.000000 0.270322 -1.571254
  1 -2.336009 0.093753 0.000000 -1.570795 -1.570796 0.000000
  2 -0.000005 0.000007 3.713255 -3.396385 -0.203997 1.562220
  3 18.045721 0.000000 0.000000 0.000000 -0.000000 -1.733655
  4 17.597597 0.000000 0.000000 -0.169669 0.200646 0.398184
  5 3.793090 6.407221 0.000000 0.000000 -0.000000 1.570796
  6 0.000005 -0.000003 -3.713255 0.305999 2.929471 5.335471
  7 18.045725 0.000000 0.000000 0.000000 -0.000000 -1.999812
  8 17.597597 0.000000 0.000000 0.131048 -0.127682 1.042116
  9 3.793090 6.407221 0.000000 0.000000 -0.000000 1.570796
 10 0.935740 0.000000 0.000000 0.000000 -0.000000 0.000000
 11 0.935741 0.000000 0.000000 0.000000 -0.000000 0.000000
 12 1.293670 0.684478 -0.000001 -0.000004 -0.000001 0.279871
 13 5.309685 -0.003834 0.000000 -0.209408 -0.000048 -0.001081
 14 4.826790 -0.004591 0.000000 -0.410058 0.003032 0.006294
 15 5.792767 -0.005304 0.000000 0.000000 -0.000000 0.127238
 16 6.662317 -0.001453 0.000000 0.000000 -0.000001 0.078555
 17 2.046985 -0.000002 0.000000 0.544008 0.312178 -0.682607
 18 -3.447972 0.216433 4.341911 1.721388 -0.773897 1.277498
 19 4.827230 0.000000 0.000001 -0.466310 -0.704422 0.082524
 20 11.139763 0.000000 0.000000 0.000000 -0.000000 -1.301725
 21 10.314597 0.000001 0.000000 -4.434674 0.060501 -0.051407
 22 2.975834 -0.386307 -0.044143 -0.012063 -0.041921 0.261905
 23 1.438886 0.000000 0.000000 0.000000 -0.000000 0.924779
 24 1.485303 0.000000 0.000000 0.000000 -0.000000 0.540939
 25 -3.186314 0.196501 -4.140396 -1.246077 0.890559 1.900401
 26 4.972048 0.000000 0.000001 0.456303 -0.215983 -0.978832
 27 11.585355 0.000000 0.000000 0.000000 -0.000000 -1.873578
 28 10.127057 0.000000 0.000001 2.063125 0.632525 0.364369
 29 2.683750 -0.427338 0.044205 0.001045 0.043611 0.000046
 30 1.438885 -0.000001 0.000000 0.000000 -0.000000 0.767689
 31 1.485305 0.000001 0.000000 0.000000 -0.000000 1.221538
time 18
  0 0.235347 -0.235347 -12.217648 -0.000000 0.270322 -1.571254
  1 -2.324290 0.082034 0.000000 -1.570795 -1.570796 0.000000
  2 -0.000005 0.000007 3.713255 -3.395810 -0.204573 1.562315
  3 18.045721 0.000000 0.000000 0.000000 -0.000000 -1.734248
  4 17.597597 0.000000 0.000000 -0.169466 0.200208 0.398916
  5 3.793090 6.407221 0.000000 0.000000 -0.000000 1.570796
  6 0.000005 -0.000003 -3.713255 0.306479 2.929567 5.336622
  7 18.045725 0.000000 0.000000 0.000000 -0.000000 -1.999450
  8 17.597597 0.000000 0.000000 0.131048 -0.127800 1.042734
  9 3.793090 6.407221 0.000000 0.000000 -0.000000 1.570796
 10 0.935740 0.000000 0.000000 0.000000 -0.000000 0.000000
 11 0.935741 0.000000 0.000000 0.000000 -0.000000 0.000000
 12 1.293670 0.684478 -0.000001 -0.000004 -0.000001 0.279871
 13 5.309685 -0.003834 0.000000 -0.209408 -0.000312 -0.002294
 14 4.826790 -0.004591 0.000000 -0.410058 0.002205 0.004398
 15 5.792767 -0.005304 0.000000 0.000000 -0.000000 0.123127
 16 6.662317 -0.001453 0.000000 0.000000 -0.000001 0.078555
 17 2.046985 -0.000002 0.000000 0.544439 0.311750 -0.675461
 18 -3.447972 0.216433 4.341911 1.725894 -0.773205 1.271170
 19 4.827230 0.000000 0.000001 -0.458968 -0.694635 0.077098
 20 11.139763 0.000000 0.000000 0.000000 -0.000000 -1.303197
 21 10.314597 0.000001 0.000000 -4.434674 0.060501 -0.051407
 22 2.975834 -0.386307 -0.044143 -0.012063 -0.041921 0.261905
 23 1.438886 0.000000 0.000000 0.000000 -0.000000 0.924779
 24 1.485303 0.000000 0.000000 0.000000 -0.000000 0.540939
 25 -3.186314 0.196501 -4.140396 -1.240804 0.897738 1.904140
 26 4.972048 0.000000 0.000001 0.455065 -0.224671 -0.984563
 27 11.585355 0.000000 0.000000 0.000000 -0.000000 -1.873578
 28 10.127057 0.000000 0.000001 2.063125 0.632525 0.364369
 29 2.683750 -0.427338 0.044205 0.001045 0.043611 0.000046
 30 1.438885 -0.000001 0.000000 0.000000 -0.000000 0.767689
 31 1.485305 0.000001 0.000000 0.000000 -0.000000 1.221538
time 19
  0 0.235347 -0.235347 -12.213741 -0.000000 0.270322 -1.571254
  1 -2.304758 0.070315 0.000000 -1.570795 -1.570796 0.000000
  2 -0.000005 0.000007 3.713255 -3.395618 -0.204669 1.562507
  3 18.045721 0.000000 0.000000 0.000000 -0.000000 -1.734990
  4 17.597597 0.000000 0.000000 -0.169162 0.199648 0.399968
  5 3.793090 6.407221 0.000000 0.000000 -0.000000 1.570796
  6 0.000005 -0.000003 -3.713255 0.306670 2.930334 5.337868
  7 18.045725 0.000000 0.000000 0.000000 -0.000000 -1.998798
  8 17.597597 0.000000 0.000000 0.131048 -0.127899 1.043627
  9 3.793090 6.407221 0.000000 0.000000 -0.000000 1.570796
 10 0.935740 0.000000 0.000000 0.000000 -0.000000 0.000000
 11 0.935741 0.000000 0.000000 0.000000 -0.000000 0.000000
 12 1.293670 0.684478 -0.000001 -0.000004 -0.000001 0.279871
 13 5.309685 -0.003834 0.000000 -0.209408 -0.000587 -0.003851
 14 4.826790 -0.004591 0.000000 -0.410058 0.001163 0.001884
 15 5.792767 -0.005304 0.000000 0.000000 -0.000000 0.117791
 16 6.662317 -0.001453 0.000000 0.000000 -0.000001 0.078555
 17 2.046985 -0.000002 0.000000 0.544568 0.311187 -0.665842
 18 -3.447972 0.216433 4.341911 1.731838 -0.772320 1.262733
 19 4.827230 0.000000 0.000001 -0.449805 -0.681955 0.070272
 20 11.139763 0.000000 0.000000 0.000000 -0.000000 -1.304809
 21 10.314597 0.000001 0.000000 -4.434674 0.060501 -0.051407
 22 2.975834 -0.386307 -0.044143 -0.012063 -0.041921 0.261905
 23 1.438886 0.000000 0.000000 0.000000 -0.000000 0.924779
 24 1.485303 0.000000 0.000000 0.000000 -0.000000 0.540939
 25 -3.186314 0.196501 -4.140396 -1.234476 0.907037 1.909413
 26 4.972048 0.000000 0.000001 0.453673 -0.236013 -0.991941
 27 11.585355 0.000000 0.000000 0.000000 -0.000000 -1.873578
 28 10.127057 0.000000 0.000001 2.063125 0.632525 0.364369
 29 2.683750 -0.427338 0.044205 0.001045 0.043611 0.000046
 30 1.438885 -0.000001 0.000000 0.000000 -0.000000 0.767689
 31 1.485305 0.000001 0.000000 0.000000 -0.000000 1.221538
time 20
  0 0.235347 -0.235347 -12.194209 -0.000000 0.270322 -1.571254
  1 -2.281320 0.062502 0.000000 -1.570795 -1.570796 0.000000
  2 -0.000005 0.000007 3.713255 -3.395139 -0.205340 1.562986
  3 18.045721 0.000000 0.000000 0.000000 -0.000000 -1.735807
  4 17.597597 0.000000 0.000000 -0.168807 0.198942 0.401158
  5 3.793090 6.407221 0.000000 0.000000 -0.000000 1.570796
  6 0.000005 -0.000003 -3.713255 0.307342 2.930909 5.339211
  7 18.045725 0.000000 0.000000 0.000000 -0.000000 -1.998653
  8 17.597597 0.000000 0.000000 0.131048 -0.128116 1.044726
  9 3.793090 6.407221 0.000000 0.000000 -0.000000 1.570796
 10 0.935740 0.000000 0.000000 0.000000 -0.000000 0.000000
 11 0.935741 0.000000 0.000000 0.000000 -0.000000 0.000000
 12 1.293670 0.684478 -0.000001 -0.000004 -0.000001 0.279871
 13 5.309685 -0.003834 0.000000 -0.209408 -0.001043 -0.005716
 14 4.826790 -0.004591 0.000000 -0.410058 -0.000060 -0.000960
 15 5.792767 -0.005304 0.000000 0.000000 -0.000000 0.111396
 16 6.662317 -0.001453 0.000000 0.000000 -0.000001 0.078555
 17 2.046985 -0.000002 0.000000 0.544999 0.310489 -0.654470
 18 -3.447972 0.216433 4.341911 1.738549 -0.771128 1.253433
 19 4.827230 0.000000 0.000001 -0.439115 -0.666892 0.062221
 20 11.139763 0.000000 0.000000 0.000000 -0.000000 -1.306771
 21 10.314597 0.000001 0.000000 -4.434674 0.060501 -0.051407
 22 2.975834 -0.386307 -0.044143 -0.012063 -0.041921 0.261905
 23 1.438886 0.000000 0.000000 0.000000 -0.000000 0.924779
 24 1.485303 0.000000 0.000000 0.000000 -0.000000 0.540939
 25 -3.186314 0.196501 -4.140396 -1.226423 0.918060 1.915549
 26 4.972048 0.000000 0.000001 0.451739 -0.249527 -1.000702
 27 11.585355 0.000000 0.000000 0.000000 -0.000000 -1.873578
 28 10.127057 0.000000 0.000001 2.063125 0.632525 0.364369
 29 2.683750 -0.427338 0.044205 0.001045 0.043611 0.000046
 30 1.438885 -0.000001 0.000000 0.000000 -0.000000 0.767689
 31 1.485305 0.000001 0.000000 0.000000 -0.000000 1.221538
time 21
  0 0.235347 -0.235347 -12.194209 -0.000000 0.270322 -1.571254
  1 -2.250069 0.050783 0.000000 -1.570795 -1.570796 0.000000
  2 -0.000005 0.000007 3.713255 -3.394372 -0.205531 1.563658
  3 18.045721 0.000000 0.000000 0.000000 -0.000000 -1.736697
  4 17.597597 0.000000 0.000000 -0.168376 0.198163 0.402439
  5 3.793090 6.407221 0.000000 0.000000 -0.000000 1.570796
  6 0.000005 -0.000003 -3.713255 0.307629 2.931196 5.340936
  7 18.045725 0.000000 0.000000 0.000000 -0.000000 -1.998001
  8 17.597597 0.000000 0.000000 0.131048 -0.128313 1.045859
  9 3.793090 6.407221 0.000000 0.000000 -0.000000 1.570796
 10 0.935740 0.000000 0.000000 0.000000 -0.000000 0.000000
 11 0.935741 0.000000 0.000000 0.000000 -0.000000 0.000000
 12 1.293670 0.684478 -0.000001 -0.000004 -0.000001 0.279871
 13 5.309685 -0.003834 0.000000 -0.209408 -0.001438 -0.007817
 14 4.826790 -0.004591 0.000000 -0.410058 -0.001438 -0.004245
 15 5.792767 -0.005304 0.000000 0.000000 -0.000000 0.104295
 16 6.662317 -0.001453 0.000000 0.000000 -0.000001 0.078555
 17 2.046985 -0.000002 0.000000 0.545473 0.309724 -0.641660
 18 -3.447972 0.216433 4.341911 1.746027 -0.769820 1.242599
 19 4.827230 0.000000 0.000001 -0.427544 -0.650383 0.053645
 20 11.139763 0.000000 0.000000 0.000000 -0.000000 -1.308663
 21 10.314597 0.000001 0.000000 -4.434674 0.060501 -0.051407
 22 2.975834 -0.386307 -0.044143 -0.012063 -0.041921 0.261905
 23 1.438886 0.000000 0.000000 0.000000 -0.000000 0.924779
 24 1.485303 0.000000 0.000000 0.000000 -0.000000 0.540939
 25 -3.186314 0.196501 -4.140396 -1.217123 0.930383 1.923123
 26 4.972048 0.000000 0.000001 0.449573 -0.264811 -1.010517
 27 11.585355 0.000000 0.000000 0.000000 -0.000000 -1.873578
 28 10.127057 0.000000 0.000001 2.063125 0.632525 0.364369
 29 2.683750 -0.427338 0.044205 0.001045 0.043611 0.000046
 30 1.438885 -0.000001 0.000000 0.000000 -0.000000 0.767689
 31 1.485305 0.000001 0.000000 0.000000 -0.000000 1.221538
time 22
  0 0.235347 -0.235347 -12.190303 -0.000000 0.270322 -1.571254
  1 -2.218818 0.031251 0.000000 -1.570795 -1.570796 0.000000
  2 -0.000005 0.000007 3.713255 -3.393700 -0.206107 1.563849
  3 18.045721 0.000000 0.000000 0.000000 -0.000000 -1.737662
  4 17.597597 0.000000 0.000000 -0.167945 0.197384 0.403903
  5 3.793090 6.407221 0.000000 0.000000 -0.000000 1.570796
  6 0.000005 -0.000003 -3.713255 0.308204 2.931868 5.342662
  7 18.045725 0.000000 0.000000 0.000000 -0.000000 -1.997494
  8 17.597597 0.000000 0.000000 0.131048 -0.128471 1.047061
  9 3.793090 6.407221 0.000000 0.000000 -0.000000 1.570796
 10 0.935740 0.000000 0.000000 0.000000 -0.000000 0.000000
 11 0.935741 0.000000 0.000000 0.000000 -0.000000 0.000000
 12 1.293670 0.684478 -0.000001 -0.000004 -0.000001 0.279871
 13 5.309685 -0.003834 0.000000 -0.209408 -0.001942 -0.010062
 14 4.826790 -0.004591 0.000000 -0.410058 -0.002972 -0.007817
 15 5.792767 -0.005304 0.000000 0.000000 -0.000000 0.096592
 16 6.662317 -0.001453 0.000000 0.000000 -0.000001 0.078555
 17 2.046985 -0.000002 0.000000 0.545904 0.308914 -0.627906
 18 -3.447972 0.216433 4.341911 1.753889 -0.768320 1.231094
 19 4.827230 0.000000 0.000001 -0.415327 -0.632086 0.044544
 20 11.139763 0.000000 0.000000 0.000000 -0.000000 -1.311186
 21 10.314597 0.000001 0.000000 -4.434674 0.060501 -0.051407
 22 2.975834 -0.386307 -0.044143 -0.012063 -0.041921 0.261905
 23 1.438886 0.000000 0.000000 0.000000 -0.000000 0.924779
 24 1.485303 0.000000 0.000000 0.000000 -0.000000 0.540939
 25 -3.186314 0.196501 -4.140396 -1.206769 0.943639 1.931368
 26 4.972048 0.000000 0.000001 0.447407 -0.281221 -1.020859
 27 11.585355 0.000000 0.000000 0.000000 -0.000000 -1.873578
 28 10.127057 0.000000 0.000001 2.063125 0.632525 0.364369
 29 2.683750 -0.427338 0.044205 0.001045 0.043611 0.000046
 30 1.438885 -0.000001 0.000000 0.000000 -0.000000 0.767689
 31 1.485305 0.000001 0.000000 0.000000 -0.000000 1.221538
time 23
  0 0.235347 -0.235347 -12.182490 -0.000000 0.270322 -1.571254
  1 -2.187567 0.019532 0.000000 -1.570795 -1.570796 0.000000
  2 -0.000005 0.000007 3.713255 -3.393317 -0.206874 1.564520
  3 18.045721 0.000000 0.000000 0.000000 -0.000000 -1.738701
  4 17.597597 0.000000 0.000000 -0.167489 0.196508 0.405367
  5 3.793090 6.407221 0.000000 0.000000 -0.000000 1.570796
  6 0.000005 -0.000003 -3.713255 0.308876 2.932539 5.344388
  7 18.045725 0.000000 0.000000 0.000000 -0.000000 -1.996842
  8 17.597597 0.000000 0.000000 0.131048 -0.128727 1.048400
  9 3.793090 6.407221 0.000000 0.000000 -0.000000 1.570796
 10 0.935740 0.000000 0.000000 0.000000 -0.000000 0.000000
 11 0.935741 0.000000 0.000000 0.000000 -0.000000 0.000000
 12 1.293670 0.684478 -0.000001 -0.000004 -0.000001 0.279871
 13 5.309685 -0.003834 0.000000 -0.209408 -0.002457 -0.012416
 14 4.826790 -0.004591 0.000000 -0.410025 -0.004554 -0.011477
 15 5.792767 -0.005304 0.000000 0.000000 -0.000000 0.088640
 16 6.662317 -0.001453 0.000000 0.000000 -0.000001 0.078555
 17 2.046985 -0.000002 0.000000 0.546378 0.308058 -0.613613
 18 -3.447972 0.216433 4.341911 1.762230 -0.766666 1.218822
 19 4.827230 0.000000 0.000001 -0.403051 -0.612683 0.035530
 20 11.139763 0.000000 0.000000 0.000000 -0.000000 -1.313569
 21 10.314597 0.000001 0.000000 -4.434674 0.060501 -0.051407
 22 2.975834 -0.386307 -0.044143 -0.012063 -0.041921 0.261905
 23 1.438886 0.000000 0.000000 0.000000 -0.000000 0.924779
 24 1.485303 0.000000 0.000000 0.000000 -0.000000 0.540939
 25 -3.186314 0.196501 -4.140396 -1.195456 0.957319 1.940476
 26 4.972048 0.000000 0.000001 0.445009 -0.298435 -1.031728
 27 11.585355 0.000000 0.000000 0.000000 -0.000000 -1.873578
 28 10.127057 0.000000 0.000001 2.063125 0.632525 0.364369
 29 2.683750 -0.427338 0.044205 0.001045 0.043611 0.000046
 30 1.438885 -0.000001 0.000000 0.000000 -0.000000 0.767689
 31 1.485305 0.000001 0.000000 0.000000 -0.000000 1.221538
time 24
  0 0.235347 -0.235347 -12.162958 -0.000000 0.270322 -1.571254
  1 -2.168035 0.000000 0.000000 -1.570795 -1.570796 0.000000
  2 -0.000005 0.000007 3.713255 -3.392742 -0.207449 1.564904
  3 18.045721 0.000000 0.000000 0.000000 -0.000000 -1.739739
  4 17.597597 0.000000 0.000000 -0.167007 0.195656 0.406877
  5 3.793090 6.407221 0.000000 0.000000 -0.000000 1.570796
  6 0.000005 -0.000003 -3.713255 0.309259 2.933306 5.346113
  7 18.045725 0.000000 0.000000 0.000000 -0.000000 -1.996190
  8 17.597597 0.000000 0.000000 0.131048 -0.128944 1.049705
  9 3.793090 6.407221 0.000000 0.000000 -0.000000 1.570796
 10 0.935740 0.000000 0.000000 0.000000 -0.000000 0.000000
 11 0.935741 0.000000 0.000000 0.000000 -0.000000 0.000000
 12 1.293670 0.684478 -0.000001 -0.000004 -0.000001 0.279871
 13 5.309685 -0.003834 0.000000 -0.209396 -0.002912 -0.014770
 14 4.826790 -0.004591 0.000000 -0.410025 -0.006160 -0.015115
 15 5.792767 -0.005304 0.000000 0.000000 -0.000000 0.080584
 16 6.662317 -0.001453 0.000000 0.000000 -0.000001 0.078555
 17 2.046985 -0.000002 0.000000 0.546636 0.307180 -0.599050
 18 -3.447972 0.216433 4.341911 1.770571 -0.764974 1.207029
 19 4.827230 0.000000 0.000001 -0.391186 -0.593280 0.026954
 20 11.139763 0.000000 0.000000 0.000000 -0.000000 -1.315741
 21 10.314597 0.000001 0.000000 -4.434674 0.060501 -0.051407
 22 2.975834 -0.386307 -0.044143 -0.012063 -0.041921 0.261905
 23 1.438886 0.000000 0.000000 0.000000 -0.000000 0.924779
 24 1.485303 0.000000 0.000000 0.000000 -0.000000 0.540939
 25 -3.186314 0.196501 -4.140396 -1.183375 0.971140 1.950255
 26 4.972048 0.000000 0.000001 0.442611 -0.315569 -1.042597
 27 11.585355 0.000000 0.000000 0.000000 -0.000000 -1.873578
 28 10.127057 0.000000 0.000001 2.063125 0.632525 0.364369
 29 2.683750 -0.427338 0.044205 0.001045 0.043611 0.000046
 30 1.438885 -0.000001 0.000000 0.000000 -0.000000 0.767689
 31 1.485305 0.000001 0.000000 0.000000 -0.000000 1.221538
time 25
  0 0.235347 -0.235347 -12.162958 -0.000000 0.270322 -1.571254
  1 -2.136784 -0.007813 0.000000 -1.570795 -1.570796 0.000000
  2 -0.000005 0.000007 3.713255 -3.392071 -0.207641 1.565383
  3 18.045721 0.000000 0.000000 0.000000 -0.000000 -1.740778
  4 17.597597 0.000000 0.000000 -0.166551 0.194804 0.408295
  5 3.793090 6.407221 0.000000 0.000000 -0.000000 1.570796
  6 0.000005 -0.000003 -3.713255 0.309834 2.933977 5.348031
  7 18.045725 0.000000 0.000000 0.000000 -0.000000 -1.995538
  8 17.597597 0.000000 0.000000 0.131015 -0.129161 1.051010
  9 3.793090 6.407221 0.000000 0.000000 -0.000000 1.570796
 10 0.935740 0.000000 0.000000 0.000000 -0.000000 0.000000
 11 0.935741 0.000000 0.000000 0.000000 -0.000000 0.000000
 12 1.293670 0.684478 -0.000001 -0.000004 -0.000001 0.279871
 13 5.309685 -0.003834 0.000000 -0.209359 -0.003452 -0.017105
 14 4.826790 -0.004591 0.000000 -0.409976 -0.007790 -0.018775
 15 5.792767 -0.005304 0.000000 0.000000 -0.000000 0.072673
 16 6.662317 -0.001453 0.000000 0.000000 -0.000001 0.078555
 17 2.046985 -0.000002 0.000000 0.547110 0.306347 -0.584981
 18 -3.447972 0.216433 4.341911 1.778816 -0.763166 1.194949
 19 4.827230 0.000000 0.000001 -0.379850 -0.574558 0.018553
 20 11.139763 0.000000 0.000000 0.000000 -0.000000 -1.318264
 21 10.314597 0.000001 0.000000 -4.434674 0.060501 -0.051407
 22 2.975834 -0.386307 -0.044143 -0.012063 -0.041921 0.261905
 23 1.438886 0.000000 0.000000 0.000000 -0.000000 0.924779
 24 1.485303 0.000000 0.000000 0.000000 -0.000000 0.540939
 25 -3.186314 0.196501 -4.140396 -1.171679 0.984509 1.960130
 26 4.972048 0.000000 0.000001 0.440136 -0.332542 -1.053202
 27 11.585355 0.000000 0.000000 0.000000 -0.000000 -1.873578
 28 10.127057 0.000000 0.000001 2.063125 0.632525 0.364369
 29 2.683750 -0.427338 0.044205 0.001045 0.043611 0.000046
 30 1.438885 -0.000001 0.000000 0.000000 -0.000000 0.767689
 31 1.485305 0.000001 0.000000 0.000000 -0.000000 1.221538
time 26
  0 0.235347 -0.235347 -12.159052 -0.000000 0.270322 -1.571254
  1 -2.101627 -0.019532 0.000000 -1.570795 -1.570796 0.000000
  2 -0.000005 0.000007 3.713255 -3.391304 -0.208312 1.566055
  3 18.045721 0.000000 0.000000 0.000000 -0.000000 -1.741743
  4 17.597597 0.000000 0.000000 -0.166120 0.193952 0.409668
  5 3.793090 6.407221 0.000000 0.000000 -0.000000 1.570796
  6 0.000005 -0.000003 -3.713255 0.310505 2.934744 5.349853
  7 18.045725 0.000000 0.000000 0.000000 -0.000000 -1.995031
  8 17.597597 0.000000 0.000000 0.131015 -0.129319 1.052212
  9 3.793090 6.407221 0.000000 0.000000 -0.000000 1.570796
 10 0.935740 0.000000 0.000000 0.000000 -0.000000 0.000000
 11 0.935741 0.000000 0.000000 0.000000 -0.000000 0.000000
 12 1.293670 0.684478 -0.000001 -0.000004 -0.000001 0.279871
 13 5.309685 -0.003834 0.000000 -0.209359 -0.003919 -0.019296
 14 4.826790 -0.004591 0.000000 -0.409976 -0.009240 -0.022259
 15 5.792767 -0.005304 0.000000 0.000000 -0.000000 0.065157
 16 6.662317 -0.001453 0.000000 0.000000 -0.000001 0.078555
 17 2.046985 -0.000002 0.000000 0.547627 0.305537 -0.571497
 18 -3.447972 0.216433 4.341911 1.786390 -0.761397 1.183923
 19 4.827230 0.000000 0.000001 -0.369336 -0.556091 0.011027
 20 11.139763 0.000000 0.000000 0.000000 -0.000000 -1.320647
 21 10.314597 0.000001 0.000000 -4.434674 0.060501 -0.051407
 22 2.975834 -0.386307 -0.044143 -0.012063 -0.041921 0.261905
 23 1.438886 0.000000 0.000000 0.000000 -0.000000 0.924779
 24 1.485303 0.000000 0.000000 0.000000 -0.000000 0.540939
 25 -3.186314 0.196501 -4.140396 -1.159791 0.997256 1.970101
 26 4.972048 0.000000 0.000001 0.437815 -0.348791 -1.063215
 27 11.585355 0.000000 0.000000 0.000000 -0.000000 -1.873578
 28 10.127057 0.000000 0.000001 2.063125 0.632525 0.364369
 29 2.683750 -0.427338 0.044205 0.001045 0.043611 0.000046
 30 1.438885 -0.000001 0.000000 0.000000 -0.000000 0.767689
 31 1.485305 0.000001 0.000000 0.000000 -0.000000 1.221538
time 27
  0 0.235347 -0.235347 -12.155146 -0.000000 0.270322 -1.571254
  1 -2.082095 -0.031251 0.000000 -1.570795 -1.570796 0.000000
  2 -0.000005 0.000007 3.713255 -3.391016 -0.208887 1.566246
  3 18.045721 0.000000 0.000000 0.000000 -0.000000 -1.742782
  4 17.597597 0.000000 0.000000 -0.165740 0.193246 0.410949
  5 3.793090 6.407221 0.000000 0.000000 -0.000000 1.570796
  6 0.000005 -0.000003 -3.713255 0.310985 2.935511 5.351387
  7 18.045725 0.000000 0.000000 0.000000 -0.000000 -1.994451
  8 17.597597 0.000000 0.000000 0.131015 -0.129536 1.053345
  9 3.793090 6.407221 0.000000 0.000000 -0.000000 1.570796
 10 0.935740 0.000000 0.000000 0.000000 -0.000000 0.000000
 11 0.935741 0.000000 0.000000 0.000000 -0.000000 0.000000
 12 1.293670 0.684478 -0.000001 -0.000004 -0.000001 0.279871
 13 5.309685 -0.003834 0.000000 -0.209359 -0.004302 -0.021324
 14 4.826790 -0.004591 0.000000 -0.409943 -0.010618 -0.025367
 15 5.792767 -0.005304 0.000000 0.000000 -0.000000 0.058264
 16 6.662317 -0.001453 0.000000 0.000000 -0.000001 0.078555
 17 2.046985 -0.000002 0.000000 0.548015 0.304794 -0.559136
 18 -3.447972 0.216433 4.341911 1.793676 -0.759743 1.173856
 19 4.827230 0.000000 0.000001 -0.359997 -0.539241 0.004464
 20 11.139763 0.000000 0.000000 0.000000 -0.000000 -1.322679
 21 10.314597 0.000001 0.000000 -4.434674 0.060501 -0.051407
 22 2.975834 -0.386307 -0.044143 -0.012063 -0.041921 0.261905
 23 1.438886 0.000000 0.000000 0.000000 -0.000000 0.924779
 24 1.485303 0.000000 0.000000 0.000000 -0.000000 0.540939
 25 -3.186314 0.196501 -4.140396 -1.148478 1.008901 1.979688
 26 4.972048 0.000000 0.000001 0.435572 -0.363512 -1.072371
 27 11.585355 0.000000 0.000000 0.000000 -0.000000 -1.873578
 28 10.127057 0.000000 0.000001 2.063125 0.632525 0.364369
 29 2.683750 -0.427338 0.044205 0.001045 0.043611 0.000046
 30 1.438885 -0.000001 0.000000 0.000000 -0.000000 0.767689
 31 1.485305 0.000001 0.000000 0.000000 -0.000000 1.221538
time 28
  0 0.235347 -0.235347 -12.147333 -0.000000 0.270322 -1.571254
  1 -2.058657 -0.039064 0.000000 -1.570795 -1.570796 0.000000
  2 -0.000005 0.000007 3.713255 -3.390537 -0.209079 1.566917
  3 18.045721 0.000000 0.000000 0.000000 -0.000000 -1.743524
  4 17.597597 0.000000 0.000000 -0.165410 0.192613 0.412047
  5 3.793090 6.407221 0.000000 0.000000 -0.000000 1.570796
  6 0.000005 -0.000003 -3.713255 0.311272 2.936086 5.352633
  7 18.045725 0.000000 0.000000 0.000000 -0.000000 -1.993944
  8 17.597597 0.000000 0.000000 0.131015 -0.129674 1.054238
  9 3.793090 6.407221 0.000000 0.000000 -0.000000 1.570796
 10 0.935740 0.000000 0.000000 0.000000 -0.000000 0.000000
 11 0.935741 0.000000 0.000000 0.000000 -0.000000 0.000000
 12 1.293670 0.684478 -0.000001 -0.000004 -0.000001 0.279871
 13 5.309685 -0.003834 0.000000 -0.209359 -0.004734 -0.023099
 14 4.826790 -0.004591 0.000000 -0.409894 -0.011865 -0.028123
 15 5.792767 -0.005304 0.000000 0.000000 -0.000000 0.052201
 16 6.662317 -0.001453 0.000000 0.000000 -0.000001 0.078555
 17 2.046985 -0.000002 0.000000 0.548187 0.304141 -0.548304
 18 -3.447972 0.216433 4.341911 1.799812 -0.758320 1.164556
 19 4.827230 0.000000 0.000001 -0.351833 -0.524774 -0.001312
 20 11.139763 0.000000 0.000000 0.000000 -0.000000 -1.324501
 21 10.314597 0.000001 0.000000 -4.434674 0.060501 -0.051407
 22 2.975834 -0.386307 -0.044143 -0.012063 -0.041921 0.261905
 23 1.438886 0.000000 0.000000 0.000000 -0.000000 0.924779
 24 1.485303 0.000000 0.000000 0.000000 -0.000000 0.540939
 25 -3.186314 0.196501 -4.140396 -1.138028 1.018963 1.988796
 26 4.972048 0.000000 0.000001 0.433483 -0.376463 -1.080276
 27 11.585355 0.000000 0.000000 0.000000 -0.000000 -1.873578
 28 10.127057 0.000000 0.000001 2.063125 0.632525 0.364369
 29 2.683750 -0.427338 0.044205 0.001045 0.043611 0.000046
 30 1.438885 -0.000001 0.000000 0.000000 -0.000000 0.767689
 31 1.485305 0.000001 0.000000 0.000000 -0.000000 1.221538
time 29
  0 0.235347 -0.235347 -12.131707 -0.000000 0.270322 -1.571254
  1 -2.039125 -0.058596 0.000000 -1.570795 -1.570796 0.000000
  2 -0.000005 0.000007 3.713255 -3.389865 -0.209654 1.566917
  3 18.045721 0.000000 0.000000 0.000000 -0.000000 -1.744192
  4 17.597597 0.000000 0.000000 -0.165106 0.192053 0.413008
  5 3.793090 6.407221 0.000000 0.000000 -0.000000 1.570796
  6 0.000005 -0.000003 -3.713255 0.311752 2.936182 5.353783
  7 18.045725 0.000000 0.000000 0.000000 -0.000000 -1.993582
  8 17.597597 0.000000 0.000000 0.131015 -0.129812 1.055131
  9 3.793090 6.407221 0.000000 0.000000 -0.000000 1.570796
 10 0.935740 0.000000 0.000000 0.000000 -0.000000 0.000000
 11 0.935741 0.000000 0.000000 0.000000 -0.000000 0.000000
 12 1.293670 0.684478 -0.000001 -0.000004 -0.000001 0.279871
 13 5.309685 -0.003834 0.000000 -0.209359 -0.005046 -0.024565
 14 4.826790 -0.004591 0.000000 -0.409861 -0.012824 -0.030483
 15 5.792767 -0.005304 0.000000 0.000000 -0.000000 0.047239
 16 6.662317 -0.001453 0.000000 0.000000 -0.000001 0.078555
 17 2.046985 -0.000002 0.000000 0.548618 0.303601 -0.539449
 18 -3.447972 0.216433 4.341911 1.804510 -0.757012 1.157557
 19 4.827230 0.000000 0.000001 -0.345372 -0.512690 -0.005950
 20 11.139763 0.000000 0.000000 0.000000 -0.000000 -1.325973
 21 10.314597 0.000001 0.000000 -4.434674 0.060501 -0.051407
 22 2.975834 -0.386307 -0.044143 -0.012063 -0.041921 0.261905
 23 1.438886 0.000000 0.000000 0.000000 -0.000000 0.924779
 24 1.485303 0.000000 0.000000 0.000000 -0.000000 0.540939
 25 -3.186314 0.196501 -4.140396 -1.129495 1.027244 1.995795
 26 4.972048 0.000000 0.000001 0.431859 -0.387081 -1.086534
 27 11.585355 0.000000 0.000000 0.000000 -0.000000 -1.873578
 28 10.127057 0.000000 0.000001 2.063125 0.632525 0.364369
 29 2.683750 -0.427338 0.044205 0.001045 0.043611 0.000046
 30 1.438885 -0.000001 0.000000 0.000000 -0.000000 0.767689
 31 1.485305 0.000001 0.000000 0.000000 -0.000000 1.221538
time 30
  0 0.235347 -0.235347 -12.131707 -0.000000 0.270322 -1.571254
  1 -2.027406 -0.062502 0.000000 -1.570795 -1.570796 0.000000
  2 -0.000005 0.000007 3.713255 -3.389770 -0.209750 1.567109
  3 18.045721 0.000000 0.000000 0.000000 -0.000000 -1.744563
  4 17.597597 0.000000 0.000000 -0.164903 0.191688 0.413694
  5 3.793090 6.407221 0.000000 0.000000 -0.000000 1.570796
  6 0.000005 -0.000003 -3.713255 0.311943 2.936853 5.354742
  7 18.045725 0.000000 0.000000 0.000000 -0.000000 -1.993292
  8 17.597597 0.000000 0.000000 0.131015 -0.129891 1.055680
  9 3.793090 6.407221 0.000000 0.000000 -0.000000 1.570796
 10 0.935740 0.000000 0.000000 0.000000 -0.000000 0.000000
 11 0.935741 0.000000 0.000000 0.000000 -0.000000 0.000000
 12 1.293670 0.684478 -0.000001 -0.000004 -0.000001 0.279871
 13 5.309685 -0.003834 0.000000 -0.209347 -0.005225 -0.025634
 14 4.826790 -0.004591 0.000000 -0.409861 -0.013579 -0.032070
 15 5.792767 -0.005304 0.000000 0.000000 -0.000000 0.043564
 16 6.662317 -0.001453 0.000000 0.000000 -0.000001 0.078555
 17 2.046985 -0.000002 0.000000 0.548661 0.303218 -0.532887
 18 -3.447972 0.216433 4.341911 1.808249 -0.756089 1.152188
 19 4.827230 0.000000 0.000001 -0.340849 -0.503754 -0.009188
 20 11.139763 0.000000 0.000000 0.000000 -0.000000 -1.327024
 21 10.314597 0.000001 0.000000 -4.434674 0.060501 -0.051407
 22 2.975834 -0.386307 -0.044143 -0.012063 -0.041921 0.261905
 23 1.438886 0.000000 0.000000 0.000000 -0.000000 0.924779
 24 1.485303 0.000000 0.000000 0.000000 -0.000000 0.540939
 25 -3.186314 0.196501 -4.140396 -1.122880 1.033293 2.001643
 26 4.972048 0.000000 0.000001 0.430621 -0.395045 -1.091540
 27 11.585355 0.000000 0.000000 0.000000 -0.000000 -1.873578
 28 10.127057 0.000000 0.000001 2.063125 0.632525 0.364369
 29 2.683750 -0.427338 0.044205 0.001045 0.043611 0.000046
 30 1.438885 -0.000001 0.000000 0.000000 -0.000000 0.767689
 31 1.485305 0.000001 0.000000 0.000000 -0.000000 1.221538
end
