version 1
nodes
  0 "Bip01"  -1
  1 "Bip01 Pelvis"   0
  2 "Bip01 L Leg"   1
  3 "Bip01 L Leg1"   2
  4 "Bip01 L Foot"   3
  5 "Bip01 L Toe0"   4
  6 "Bip01 R Leg"   1
  7 "Bip01 R Leg1"   6
  8 "Bip01 R Foot"   7
  9 "Bip01 R Toe0"   8
 10 "Bip01 R Toe01"   9
 11 "Bip01 R Toe02"  10
 12 "Bip01 Spine"   1
 13 "Bip01 Spine1"  12
 14 "Bip01 Spine2"  13
 15 "Bip01 Spine3"  14
 16 "Bip01 Neck"  15
 17 "Bip01 Head"  16
 18 "Bip01 L Arm"  16
 19 "Bip01 L Arm1"  18
 20 "Bip01 L Arm2"  19
 21 "Bip01 L Hand"  20
 22 "Bip01 L Finger1"  21
 23 "Bip01 L Finger11"  22
 24 "Bip01 L Finger12"  23
 25 "Bip01 R Arm"  16
 26 "Bip01 R Arm1"  25
 27 "Bip01 R Arm2"  26
 28 "Bip01 R Hand"  27
 29 "Bip01 R Finger1"  28
 30 "Bip01 R Finger11"  29
 31 "Bip01 R Finger12"  30
end
skeleton
time 0
  0 0.235347 -0.235347 -12.569221 -0.000000 0.270322 -1.571254
  1 -3.699332 0.589862 0.000000 -1.570795 -1.570796 0.000000
  2 -0.000005 0.000007 3.713255 -3.389770 -0.209750 1.567109
  3 18.045721 0.000000 0.000000 0.000000 -0.000000 -1.744563
  4 17.597597 0.000000 0.000000 -0.164903 0.191688 0.413694
  5 3.793090 6.407221 0.000000 0.000000 -0.000000 1.570796
  6 0.000005 -0.000003 -3.713255 0.311943 2.936853 5.354742
  7 18.045725 0.000000 0.000000 0.000000 -0.000000 -1.993292
  8 17.597597 0.000000 0.000000 0.131015 -0.129891 1.055680
  9 3.793090 6.407221 0.000000 0.000000 -0.000000 1.570796
 10 0.935740 0.000000 0.000000 0.000000 -0.000000 0.000000
 11 0.935741 0.000000 0.000000 0.000000 -0.000000 0.000000
 12 1.293670 0.684478 -0.000001 -0.000004 -0.000001 0.279871
 13 5.309685 -0.003834 0.000000 -0.206274 0.036193 0.170644
 14 4.826790 -0.004591 0.000000 -0.293180 0.045949 0.150203
 15 5.792767 -0.005304 0.000000 0.000000 0.000000 0.279097
 16 6.662317 -0.001453 0.000000 0.000000 -0.000001 0.078555
 17 2.046985 -0.000002 0.000000 0.485588 -0.141355 -0.329184
 18 -3.447972 0.216433 4.341911 1.735769 -0.581969 1.197154
 19 4.827230 0.000000 0.000001 -0.137210 0.455927 0.271636
 20 11.139763 0.000000 0.000000 0.000000 -0.000000 -1.550228
 21 10.314597 0.000001 0.000000 -4.383981 0.179765 -0.497769
 22 2.975834 -0.386307 -0.044143 -0.012063 -0.041921 0.261905
 23 1.438886 0.000000 0.000000 0.000000 -0.000000 0.636933
 24 1.485303 0.000000 0.000000 0.000000 -0.000000 0.540939
 25 -3.186314 0.196501 -4.140396 -0.682918 1.249598 2.405077
 26 4.972048 0.000000 0.000001 0.277768 -0.425532 -1.388559
 27 11.585355 0.000000 0.000000 0.000000 -0.000000 -1.485248
 28 10.127057 0.000000 0.000001 2.143071 0.406072 0.748268
 29 2.683750 -0.427338 0.044205 0.001045 0.043611 0.000046
 30 1.438885 -0.000001 0.000000 0.000000 -0.000000 0.767689
 31 1.485305 0.000001 0.000000 0.000000 -0.000000 1.221538
time 1
  0 0.235347 -0.235347 -12.537970 -0.000000 0.270322 -1.571254
  1 -3.543077 0.582049 0.000000 -1.570795 -1.570796 0.000000
  2 -0.000005 0.000007 3.713255 -3.389770 -0.209750 1.567109
  3 18.045721 0.000000 0.000000 0.000000 -0.000000 -1.744563
  4 17.597597 0.000000 0.000000 -0.164903 0.191688 0.413694
  5 3.793090 6.407221 0.000000 0.000000 -0.000000 1.570796
  6 0.000005 -0.000003 -3.713255 0.311943 2.936853 5.354742
  7 18.045725 0.000000 0.000000 0.000000 -0.000000 -1.993292
  8 17.597597 0.000000 0.000000 0.131015 -0.129891 1.055680
  9 3.793090 6.407221 0.000000 0.000000 -0.000000 1.570796
 10 0.935740 0.000000 0.000000 0.000000 -0.000000 0.000000
 11 0.935741 0.000000 0.000000 0.000000 -0.000000 0.000000
 12 1.293670 0.684478 -0.000001 -0.000004 -0.000001 0.279871
 13 5.309685 -0.003834 0.000000 -0.230061 0.034336 0.144697
 14 4.826790 -0.004591 0.000000 -0.293180 0.045949 0.150203
 15 5.792767 -0.005304 0.000000 -0.029970 0.007406 0.242949
 16 6.662317 -0.001453 0.000000 0.000000 -0.000001 0.078555
 17 2.046985 -0.000002 0.000000 0.537244 -0.158149 -0.277584
 18 -3.447972 0.216433 4.341911 1.735769 -0.581969 1.197154
 19 4.827230 0.000000 0.000001 0.050276 0.597960 0.444558
 20 11.139763 0.000000 0.000000 0.000000 -0.000000 -1.748484
 21 10.314597 0.000001 0.000000 -4.383981 0.179765 -0.497769
 22 2.975834 -0.386307 -0.044143 -0.012063 -0.041921 0.261905
 23 1.438886 0.000000 0.000000 0.000000 -0.000000 0.636933
 24 1.485303 0.000000 0.000000 0.000000 -0.000000 0.540939
 25 -3.186314 0.196501 -4.140396 -0.682918 1.249598 2.405077
 26 4.972048 0.000000 0.000001 0.038278 -0.613281 -1.167030
 27 11.585355 0.000000 0.000000 0.000000 -0.000000 -1.840979
 28 10.127057 0.000000 0.000001 2.194351 0.550336 0.858962
 29 2.683750 -0.427338 0.044205 0.001045 0.043611 0.000046
 30 1.438885 -0.000001 0.000000 0.000000 -0.000000 0.767689
 31 1.485305 0.000001 0.000000 0.000000 -0.000000 1.221538
time 2
  0 0.235347 -0.235347 -12.475468 -0.000000 0.270322 -1.571254
  1 -3.320414 0.558611 0.000000 -1.570795 -1.570796 0.000000
  2 -0.000005 0.000007 3.713255 -3.389770 -0.209750 1.567109
  3 18.045721 0.000000 0.000000 0.000000 -0.000000 -1.744563
  4 17.597597 0.000000 0.000000 -0.164903 0.191688 0.413694
  5 3.793090 6.407221 0.000000 0.000000 -0.000000 1.570796
  6 0.000005 -0.000003 -3.713255 0.311943 2.936853 5.354742
  7 18.045725 0.000000 0.000000 0.000000 -0.000000 -1.993292
  8 17.597597 0.000000 0.000000 0.131015 -0.129891 1.055680
  9 3.793090 6.407221 0.000000 0.000000 -0.000000 1.570796
 10 0.935740 0.000000 0.000000 0.000000 -0.000000 0.000000
 11 0.935741 0.000000 0.000000 0.000000 -0.000000 0.000000
 12 1.293670 0.684478 -0.000001 -0.000004 -0.000001 0.279871
 13 5.309685 -0.003834 0.000000 -0.262920 0.029734 0.109189
 14 4.826790 -0.004591 0.000000 -0.293180 0.045949 0.150203
 15 5.792767 -0.005304 0.000000 -0.072169 0.014166 0.192765
 16 6.662317 -0.001453 0.000000 0.000000 -0.000001 0.078555
 17 2.046985 -0.000002 0.000000 0.608891 -0.182912 -0.208050
 18 -3.447972 0.216433 4.341911 1.735769 -0.581969 1.197154
 19 4.827230 0.000000 0.000001 0.219966 0.709442 0.591577
 20 11.139763 0.000000 0.000000 0.000000 -0.000000 -1.843302
 21 10.314597 0.000001 0.000000 -4.383981 0.179765 -0.497769
 22 2.975834 -0.386307 -0.044143 -0.012063 -0.041921 0.261905
 23 1.438886 0.000000 0.000000 0.000000 -0.000000 0.636933
 24 1.485303 0.000000 0.000000 0.000000 -0.000000 0.540939
 25 -3.186314 0.196501 -4.140396 0.783942 1.221306 3.814892
 26 4.972048 0.000000 0.000001 0.045240 -0.795641 -1.492572
 27 11.585355 0.000000 0.000000 0.000000 -0.000000 -1.793898
 28 10.127057 0.000000 0.000001 2.143071 0.406072 0.748268
 29 2.683750 -0.427338 0.044205 0.001045 0.043611 0.000046
 30 1.438885 -0.000001 0.000000 0.000000 -0.000000 0.767689
 31 1.485305 0.000001 0.000000 0.000000 -0.000000 1.221538
time 3
  0 0.235347 -0.235347 -12.436404 -0.000000 0.270322 -1.571254
  1 -3.152440 0.527360 0.000000 -1.570795 -1.570796 0.000000
  2 -0.000005 0.000007 3.713255 -3.389770 -0.209750 1.567109
  3 18.045721 0.000000 0.000000 0.000000 -0.000000 -1.744563
  4 17.597597 0.000000 0.000000 -0.164903 0.191688 0.413694
  5 3.793090 6.407221 0.000000 0.000000 -0.000000 1.570796
  6 0.000005 -0.000003 -3.713255 0.311943 2.936853 5.354742
  7 18.045725 0.000000 0.000000 0.000000 -0.000000 -1.993292
  8 17.597597 0.000000 0.000000 0.131015 -0.129891 1.055680
  9 3.793090 6.407221 0.000000 0.000000 -0.000000 1.570796
 10 0.935740 0.000000 0.000000 0.000000 -0.000000 0.000000
 11 0.935741 0.000000 0.000000 0.000000 -0.000000 0.000000
 12 1.293670 0.684478 -0.000001 -0.000004 -0.000001 0.279871
 13 5.309685 -0.003834 0.000000 -0.286854 0.024964 0.083586
 14 4.826790 -0.004591 0.000000 -0.293180 0.045949 0.150203
 15 5.792767 -0.005304 0.000000 -0.103361 0.016407 0.156119
 16 6.662317 -0.001453 0.000000 0.000000 -0.000001 0.078555
 17 2.046985 -0.000002 0.000000 0.660935 -0.202003 -0.159057
 18 -3.447972 0.216433 4.341911 1.735769 -0.581969 1.197154
 19 4.827230 0.000000 0.000001 0.262315 0.750120 0.641371
 20 11.139763 0.000000 0.000000 0.000000 -0.000000 -1.746312
 21 10.314597 0.000001 0.000000 -4.383981 0.179765 -0.497769
 22 2.975834 -0.386307 -0.044143 -0.012063 -0.041921 0.261905
 23 1.438886 0.000000 0.000000 0.000000 -0.000000 0.636933
 24 1.485303 0.000000 0.000000 0.000000 -0.000000 0.540939
 25 -3.186314 0.196501 -4.140396 0.599578 1.267857 3.640307
 26 4.972048 0.000000 0.000001 0.047019 -0.820256 -1.503968
 27 11.585355 0.000000 0.000000 0.000000 -0.000000 -1.715966
 28 10.127057 0.000000 0.000001 2.143071 0.406072 0.748268
 29 2.683750 -0.427338 0.044205 0.001045 0.043611 0.000046
 30 1.438885 -0.000001 0.000000 0.000000 -0.000000 0.767689
 31 1.485305 0.000001 0.000000 0.000000 -0.000000 1.221538
time 4
  0 0.235347 -0.235347 -12.463749 -0.000000 0.270322 -1.571254
  1 -3.234474 0.507828 0.000000 -1.570795 -1.570796 0.000000
  2 -0.000005 0.000007 3.713255 -3.389770 -0.209750 1.567109
  3 18.045721 0.000000 0.000000 0.000000 -0.000000 -1.744563
  4 17.597597 0.000000 0.000000 -0.164903 0.191688 0.413694
  5 3.793090 6.407221 0.000000 0.000000 -0.000000 1.570796
  6 0.000005 -0.000003 -3.713255 0.311943 2.936853 5.354742
  7 18.045725 0.000000 0.000000 0.000000 -0.000000 -1.993292
  8 17.597597 0.000000 0.000000 0.131015 -0.129891 1.055680
  9 3.793090 6.407221 0.000000 0.000000 -0.000000 1.570796
 10 0.935740 0.000000 0.000000 0.000000 -0.000000 0.000000
 11 0.935741 0.000000 0.000000 0.000000 -0.000000 0.000000
 12 1.293670 0.684478 -0.000001 -0.000004 -0.000001 0.279871
 13 5.309685 -0.003834 0.000000 -0.277268 0.026965 0.093835
 14 4.826790 -0.004591 0.000000 -0.243066 0.038279 0.152298
 15 5.792767 -0.005304 0.000000 -0.090806 0.015784 0.170819
 16 6.662317 -0.001453 0.000000 0.000000 -0.000001 0.078555
 17 2.046985 -0.000002 0.000000 0.589805 -0.182507 -0.168541
 18 -3.447972 0.216433 4.341911 1.735769 -0.581969 1.197154
 19 4.827230 0.000000 0.000001 0.156883 0.691656 0.505291
 20 11.139763 0.000000 0.000000 0.000000 -0.000000 -1.680787
 21 10.314597 0.000001 0.000000 -4.383981 0.179765 -0.497769
 22 2.975834 -0.386307 -0.044143 -0.012063 -0.041921 0.261905
 23 1.438886 0.000000 0.000000 0.000000 -0.000000 0.636933
 24 1.485303 0.000000 0.000000 0.000000 -0.000000 0.540939
 25 -3.186314 0.196501 -4.140396 0.205156 1.313051 3.261033
 26 4.972048 0.000000 0.000001 0.140773 -0.736597 -1.461019
 27 11.585355 0.000000 0.000000 0.000000 -0.000000 -1.638034
 28 10.127057 0.000000 0.000001 2.143071 0.406072 0.748268
 29 2.683750 -0.427338 0.044205 0.001045 0.043611 0.000046
 30 1.438885 -0.000001 0.000000 0.000000 -0.000000 0.767689
 31 1.485305 0.000001 0.000000 0.000000 -0.000000 1.221538
time 5
  0 0.235347 -0.235347 -12.506719 -0.000000 0.270322 -1.571254
  1 -3.437605 0.507828 0.000000 -1.570795 -1.570796 0.000000
  2 -0.000005 0.000007 3.713255 -3.389770 -0.209750 1.567109
  3 18.045721 0.000000 0.000000 0.000000 -0.000000 -1.744563
  4 17.597597 0.000000 0.000000 -0.164903 0.191688 0.413694
  5 3.793090 6.407221 0.000000 0.000000 -0.000000 1.570796
  6 0.000005 -0.000003 -3.713255 0.311943 2.936853 5.354742
  7 18.045725 0.000000 0.000000 0.000000 -0.000000 -1.993292
  8 17.597597 0.000000 0.000000 0.131015 -0.129891 1.055680
  9 3.793090 6.407221 0.000000 0.000000 -0.000000 1.570796
 10 0.935740 0.000000 0.000000 0.000000 -0.000000 0.000000
 11 0.935741 0.000000 0.000000 0.000000 -0.000000 0.000000
 12 1.293670 0.684478 -0.000001 -0.000004 -0.000001 0.279871
 13 5.309685 -0.003834 0.000000 -0.249649 0.031819 0.123494
 14 4.826790 -0.004591 0.000000 -0.198305 0.031328 0.153841
 15 5.792767 -0.005304 0.000000 -0.054999 0.011961 0.213092
 16 6.662317 -0.001453 0.000000 0.000000 -0.000001 0.078555
 17 2.046985 -0.000002 0.000000 0.485071 -0.151598 -0.219826
 18 -3.447972 0.216433 4.341911 1.735769 -0.581969 1.197154
 19 4.827230 0.000000 0.000001 0.024021 0.590216 0.333069
 20 11.139763 0.000000 0.000000 0.000000 -0.000000 -1.624793
 21 10.314597 0.000001 0.000000 -4.383981 0.179765 -0.497769
 22 2.975834 -0.386307 -0.044143 -0.012063 -0.041921 0.261905
 23 1.438886 0.000000 0.000000 0.000000 -0.000000 0.636933
 24 1.485303 0.000000 0.000000 0.000000 -0.000000 0.540939
 25 -3.186314 0.196501 -4.140396 -0.200484 1.313334 2.868145
 26 4.972048 0.000000 0.000001 0.239091 -0.604513 -1.400614
 27 11.585355 0.000000 0.000000 0.000000 -0.000000 -1.575982
 28 10.127057 0.000000 0.000001 2.143071 0.406072 0.748268
 29 2.683750 -0.427338 0.044205 0.001045 0.043611 0.000046
 30 1.438885 -0.000001 0.000000 0.000000 -0.000000 0.767689
 31 1.485305 0.000001 0.000000 0.000000 -0.000000 1.221538
time 6
  0 0.235347 -0.235347 -12.557502 -0.000000 0.270322 -1.571254
  1 -3.586047 0.546892 0.000000 -1.570795 -1.570796 0.000000
  2 -0.000005 0.000007 3.713255 -3.389770 -0.209750 1.567109
  3 18.045721 0.000000 0.000000 0.000000 -0.000000 -1.744563
  4 17.597597 0.000000 0.000000 -0.164903 0.191688 0.413694
  5 3.793090 6.407221 0.000000 0.000000 -0.000000 1.570796
  6 0.000005 -0.000003 -3.713255 0.311943 2.936853 5.354742
  7 18.045725 0.000000 0.000000 0.000000 -0.000000 -1.993292
  8 17.597597 0.000000 0.000000 0.131015 -0.129891 1.055680
  9 3.793090 6.407221 0.000000 0.000000 -0.000000 1.570796
 10 0.935740 0.000000 0.000000 0.000000 -0.000000 0.000000
 11 0.935741 0.000000 0.000000 0.000000 -0.000000 0.000000
 12 1.293670 0.684478 -0.000001 -0.000004 -0.000001 0.279871
 13 5.309685 -0.003834 0.000000 -0.225617 0.034731 0.149531
 14 4.826790 -0.004591 0.000000 -0.239815 0.037727 0.152430
 15 5.792767 -0.005304 0.000000 -0.024328 0.006172 0.249676
 16 6.662317 -0.001453 0.000000 0.000000 -0.000001 0.078555
 17 2.046985 -0.000002 0.000000 0.474214 -0.144079 -0.278977
 18 -3.447972 0.216433 4.341911 1.735769 -0.581969 1.197154
 19 4.827230 0.000000 0.000001 -0.069487 0.513455 0.283800
 20 11.139763 0.000000 0.000000 0.000000 -0.000000 -1.582535
 21 10.314597 0.000001 0.000000 -4.383981 0.179765 -0.497769
 22 2.975834 -0.386307 -0.044143 -0.012063 -0.041921 0.261905
 23 1.438886 0.000000 0.000000 0.000000 -0.000000 0.636933
 24 1.485303 0.000000 0.000000 0.000000 -0.000000 0.540939
 25 -3.186314 0.196501 -4.140396 -0.501526 1.284561 2.578032
 26 4.972048 0.000000 0.000001 0.270265 -0.502675 -1.387703
 27 11.585355 0.000000 0.000000 0.000000 -0.000000 -1.524983
 28 10.127057 0.000000 0.000001 2.143071 0.406072 0.748268
 29 2.683750 -0.427338 0.044205 0.001045 0.043611 0.000046
 30 1.438885 -0.000001 0.000000 0.000000 -0.000000 0.767689
 31 1.485305 0.000001 0.000000 0.000000 -0.000000 1.221538
time 7
  0 0.235347 -0.235347 -12.569221 -0.000000 0.270322 -1.571254
  1 -3.699332 0.589862 0.000000 -1.570795 -1.570796 0.000000
  2 -0.000005 0.000007 3.713255 -3.389770 -0.209750 1.567109
  3 18.045721 0.000000 0.000000 0.000000 -0.000000 -1.744563
  4 17.597597 0.000000 0.000000 -0.164903 0.191688 0.413694
  5 3.793090 6.407221 0.000000 0.000000 -0.000000 1.570796
  6 0.000005 -0.000003 -3.713255 0.311943 2.936853 5.354742
  7 18.045725 0.000000 0.000000 0.000000 -0.000000 -1.993292
  8 17.597597 0.000000 0.000000 0.131015 -0.129891 1.055680
  9 3.793090 6.407221 0.000000 0.000000 -0.000000 1.570796
 10 0.935740 0.000000 0.000000 0.000000 -0.000000 0.000000
 11 0.935741 0.000000 0.000000 0.000000 -0.000000 0.000000
 12 1.293670 0.684478 -0.000001 -0.000004 -0.000001 0.279871
 13 5.309685 -0.003834 0.000000 -0.206274 0.036193 0.170644
 14 4.826790 -0.004591 0.000000 -0.293180 0.045949 0.150203
 15 5.792767 -0.005304 0.000000 0.000000 0.000000 0.279097
 16 6.662317 -0.001453 0.000000 0.000000 -0.000001 0.078555
 17 2.046985 -0.000002 0.000000 0.485588 -0.141355 -0.329184
 18 -3.447972 0.216433 4.341911 1.735769 -0.581969 1.197154
 19 4.827230 0.000000 0.000001 -0.137210 0.455927 0.271636
 20 11.139763 0.000000 0.000000 0.000000 -0.000000 -1.550228
 21 10.314597 0.000001 0.000000 -4.383981 0.179765 -0.497769
 22 2.975834 -0.386307 -0.044143 -0.012063 -0.041921 0.261905
 23 1.438886 0.000000 0.000000 0.000000 -0.000000 0.636933
 24 1.485303 0.000000 0.000000 0.000000 -0.000000 0.540939
 25 -3.186314 0.196501 -4.140396 -0.682918 1.249598 2.405077
 26 4.972048 0.000000 0.000001 0.277768 -0.425532 -1.388559
 27 11.585355 0.000000 0.000000 0.000000 -0.000000 -1.485248
 28 10.127057 0.000000 0.000001 2.143071 0.406072 0.748268
 29 2.683750 -0.427338 0.044205 0.001045 0.043611 0.000046
 30 1.438885 -0.000001 0.000000 0.000000 -0.000000 0.767689
 31 1.485305 0.000001 0.000000 0.000000 -0.000000 1.221538
end
