version 1
nodes
  0 "Bip01"  -1
  1 "Bip01 Pelvis"   0
  2 "Bip01 L Leg"   1
  3 "Bip01 L Leg1"   2
  4 "Bip01 L Foot"   3
  5 "Bip01 L Toe0"   4
  6 "Bip01 R Leg"   1
  7 "Bip01 R Leg1"   6
  8 "Bip01 R Foot"   7
  9 "Bip01 R Toe0"   8
 10 "Bip01 R Toe01"   9
 11 "Bip01 R Toe02"  10
 12 "Bip01 Spine"   1
 13 "Bip01 Spine1"  12
 14 "Bip01 Spine2"  13
 15 "Bip01 Spine3"  14
 16 "Bip01 Neck"  15
 17 "Bip01 Head"  16
 18 "Bip01 L Arm"  16
 19 "Bip01 L Arm1"  18
 20 "Bip01 L Arm2"  19
 21 "Bip01 L Hand"  20
 22 "Bip01 L Finger1"  21
 23 "Bip01 L Finger11"  22
 24 "Bip01 L Finger12"  23
 25 "Bip01 R Arm"  16
 26 "Bip01 R Arm1"  25
 27 "Bip01 R Arm2"  26
 28 "Bip01 R Hand"  27
 29 "Bip01 R Finger1"  28
 30 "Bip01 R Finger11"  29
 31 "Bip01 R Finger12"  30
end
skeleton
time 0
  0 0.235347 -0.235347 -14.663034 -0.045585 0.257873 -1.742273
  1 0.000000 0.000000 0.000000 -1.570795 -1.570796 0.000000
  2 -0.000005 0.000007 3.713255 -3.368582 -0.221254 1.331540
  3 18.045721 0.000000 0.000000 0.000000 -0.000000 -1.349056
  4 17.597597 0.000000 0.000000 -0.205032 0.225938 -0.216505
  5 3.793090 6.407221 0.000000 0.000000 -0.000000 1.570796
  6 0.000005 -0.000003 -3.713255 6.216042 2.542639 5.445438
  7 18.045725 0.000000 0.000000 0.000000 -0.000000 -2.074575
  8 17.597597 0.000000 0.000000 -0.092072 0.087818 0.559914
  9 3.793090 6.407221 0.000000 0.000000 -0.000000 1.570796
 10 0.935740 0.000000 0.000000 0.000000 -0.000000 0.000000
 11 0.935741 0.000000 0.000000 0.000000 -0.000000 0.000000
 12 1.293670 0.684478 -0.000001 -0.000004 -0.000001 0.358403
 13 5.309685 -0.003834 0.000000 -0.031855 0.014202 0.418363
 14 4.826790 -0.004591 0.000000 -0.143265 0.038339 0.258879
 15 5.792767 -0.005304 0.000000 0.000000 0.000000 0.122068
 16 6.662317 -0.001453 0.000000 0.000000 -0.000001 0.471000
 17 2.046985 -0.000002 0.000000 0.174055 0.048109 -1.201304
 18 -3.112024 1.517254 4.341911 -0.041815 -1.370643 2.710461
 19 4.827230 0.000000 0.000001 -0.635118 -0.462991 -1.341196
 20 11.139763 0.000000 0.000000 0.000000 -0.000000 -1.225128
 21 10.314597 0.000001 0.000000 -2.123485 0.144003 0.096696
 22 2.975834 -0.386307 -0.044143 -0.037734 -0.021799 1.029782
 23 1.438886 0.000000 0.000000 0.000000 -0.000000 0.593339
 24 1.485303 0.000000 0.000000 0.000000 -0.000000 1.665926
 25 -2.869898 1.399663 -4.140396 -0.000013 1.370795 2.669783
 26 4.972048 0.000000 0.000001 0.847331 0.099587 -1.515627
 27 11.585355 0.000000 0.000000 0.000000 -0.000000 -1.291257
 28 10.127057 0.000000 0.000001 2.022483 0.324154 0.083986
 29 2.683750 -0.427338 0.044205 0.001045 0.043611 0.000046
 30 1.438885 -0.000001 0.000000 0.000000 -0.000000 0.767689
 31 1.485305 0.000001 0.000000 0.000000 -0.000000 1.221538
time 1
  0 0.235347 -0.235347 -14.663034 -0.045585 0.257873 -1.742273
  1 0.000000 0.000000 0.000000 -1.570795 -1.570796 0.000000
  2 -0.000005 0.000007 3.713255 -3.368582 -0.221254 1.331540
  3 18.045721 0.000000 0.000000 0.000000 -0.000000 -1.349056
  4 17.597597 0.000000 0.000000 -0.205032 0.225938 -0.216505
  5 3.793090 6.407221 0.000000 0.000000 -0.000000 1.570796
  6 0.000005 -0.000003 -3.713255 6.216042 2.542639 5.445438
  7 18.045725 0.000000 0.000000 0.000000 -0.000000 -2.074575
  8 17.597597 0.000000 0.000000 -0.092072 0.087818 0.559914
  9 3.793090 6.407221 0.000000 0.000000 -0.000000 1.570796
 10 0.935740 0.000000 0.000000 0.000000 -0.000000 0.000000
 11 0.935741 0.000000 0.000000 0.000000 -0.000000 0.000000
 12 1.293670 0.684478 -0.000001 -0.000004 -0.000001 0.358403
 13 5.309685 -0.003834 0.000000 -0.031855 0.014202 0.418363
 14 4.826790 -0.004591 0.000000 -0.083135 0.022255 0.260709
 15 5.792767 -0.005304 0.000000 0.000000 -0.029961 0.122068
 16 6.662317 -0.001453 0.000000 0.000000 -0.000001 0.471000
 17 2.046985 -0.000002 0.000000 0.095601 0.049302 -1.204090
 18 -3.112024 1.517254 4.341911 1.941129 -1.522955 0.728320
 19 4.827230 0.000000 0.000001 -0.813794 -0.504520 -1.308554
 20 11.139763 0.000000 0.000000 0.000000 -0.000000 -0.980339
 21 10.314597 0.000001 0.000000 -2.123485 0.144003 0.096696
 22 2.975834 -0.386307 -0.044143 -0.037734 -0.021799 1.029782
 23 1.438886 0.000000 0.000000 0.000000 -0.000000 0.593339
 24 1.485303 0.000000 0.000000 0.000000 -0.000000 1.665926
 25 -2.869898 1.399663 -4.140396 -0.000013 1.445158 2.669783
 26 4.972048 0.000000 0.000001 0.958954 0.221133 -1.554031
 27 11.585355 0.000000 0.000000 0.000000 -0.000000 -1.043120
 28 10.127057 0.000000 0.000001 1.978210 0.341994 -0.030278
 29 2.683750 -0.427338 0.044205 0.001045 0.043611 0.000046
 30 1.438885 -0.000001 0.000000 0.000000 -0.000000 0.767689
 31 1.485305 0.000001 0.000000 0.000000 -0.000000 1.221538
time 2
  0 0.235347 -0.235347 -14.663034 -0.045585 0.257873 -1.742273
  1 0.000000 0.000000 0.000000 -1.570795 -1.570796 0.000000
  2 -0.000005 0.000007 3.713255 -3.368582 -0.221254 1.331540
  3 18.045721 0.000000 0.000000 0.000000 -0.000000 -1.349056
  4 17.597597 0.000000 0.000000 -0.205032 0.225938 -0.216505
  5 3.793090 6.407221 0.000000 0.000000 -0.000000 1.570796
  6 0.000005 -0.000003 -3.713255 6.216042 2.542639 5.445438
  7 18.045725 0.000000 0.000000 0.000000 -0.000000 -2.074575
  8 17.597597 0.000000 0.000000 -0.092072 0.087818 0.559914
  9 3.793090 6.407221 0.000000 0.000000 -0.000000 1.570796
 10 0.935740 0.000000 0.000000 0.000000 -0.000000 0.000000
 11 0.935741 0.000000 0.000000 0.000000 -0.000000 0.000000
 12 1.293670 0.684478 -0.000001 -0.000004 -0.000001 0.358403
 13 5.309685 -0.003834 0.000000 -0.031855 0.014202 0.418363
 14 4.826790 -0.004591 0.000000 0.008046 -0.002109 0.261635
 15 5.792767 -0.005304 0.000000 -0.000049 -0.075611 0.122068
 16 6.662317 -0.001453 0.000000 0.000000 -0.000001 0.471000
 17 2.046985 -0.000002 0.000000 -0.023653 0.050900 -1.205619
 18 -3.112024 1.517254 4.341911 2.786730 -1.208793 -0.138303
 19 4.827230 0.000000 0.000001 -1.093614 -0.559495 -1.220693
 20 11.139763 0.000000 0.000000 0.000000 -0.000000 -0.611649
 21 10.314597 0.000001 0.000000 -2.123485 0.144003 0.096696
 22 2.975834 -0.386307 -0.044143 -0.037734 -0.021799 1.029782
 23 1.438886 0.000000 0.000000 0.000000 -0.000000 0.593339
 24 1.485303 0.000000 0.000000 0.000000 -0.000000 1.665926
 25 -2.869898 1.399663 -4.140396 -0.000109 1.556095 2.669687
 26 4.972048 0.000000 0.000001 1.113818 0.419903 -1.558181
 27 11.585355 0.000000 0.000000 0.000000 -0.000000 -0.670110
 28 10.127057 0.000000 0.000001 1.908456 0.359428 -0.202870
 29 2.683750 -0.427338 0.044205 0.001045 0.043611 0.000046
 30 1.438885 -0.000001 0.000000 0.000000 -0.000000 0.767689
 31 1.485305 0.000001 0.000000 0.000000 -0.000000 1.221538
time 3
  0 0.235347 -0.235347 -14.663034 -0.045585 0.257873 -1.742273
  1 0.000000 0.000000 0.000000 -1.570795 -1.570796 0.000000
  2 -0.000005 0.000007 3.713255 -3.368582 -0.221254 1.331540
  3 18.045721 0.000000 0.000000 0.000000 -0.000000 -1.349056
  4 17.597597 0.000000 0.000000 -0.205032 0.225938 -0.216505
  5 3.793090 6.407221 0.000000 0.000000 -0.000000 1.570796
  6 0.000005 -0.000003 -3.713255 6.216042 2.542639 5.445438
  7 18.045725 0.000000 0.000000 0.000000 -0.000000 -2.074575
  8 17.597597 0.000000 0.000000 -0.092072 0.087818 0.559914
  9 3.793090 6.407221 0.000000 0.000000 -0.000000 1.570796
 10 0.935740 0.000000 0.000000 0.000000 -0.000000 0.000000
 11 0.935741 0.000000 0.000000 0.000000 -0.000000 0.000000
 12 1.293670 0.684478 -0.000001 -0.000004 -0.000001 0.358403
 13 5.309685 -0.003834 0.000000 -0.031855 0.014202 0.418363
 14 4.826790 -0.004591 0.000000 0.078964 -0.021189 0.260731
 15 5.792767 -0.005304 0.000000 -0.000082 -0.111001 0.122068
 16 6.662317 -0.001453 0.000000 0.000000 -0.000001 0.471000
 17 2.046985 -0.000002 0.000000 -0.116238 0.052296 -1.203956
 18 -3.112024 1.517254 4.341911 2.819998 -0.915016 -0.213566
 19 4.827230 0.000000 0.000001 -1.363801 -0.558644 -1.086626
 20 11.139763 0.000000 0.000000 0.000000 -0.000000 -0.312338
 21 10.314597 0.000001 0.000000 -2.123485 0.144003 0.096696
 22 2.975834 -0.386307 -0.044143 -0.037734 -0.021799 1.029782
 23 1.438886 0.000000 0.000000 0.000000 -0.000000 0.593339
 24 1.485303 0.000000 0.000000 0.000000 -0.000000 1.665926
 25 -2.869898 1.399663 -4.140396 -3.141106 1.486424 -0.471308
 26 4.972048 0.000000 0.000001 1.240293 0.573143 -1.518328
 27 11.585355 0.000000 0.000000 0.000000 -0.000000 -0.362300
 28 10.127057 0.000000 0.000001 1.843926 0.365384 -0.358634
 29 2.683750 -0.427338 0.044205 0.001045 0.043611 0.000046
 30 1.438885 -0.000001 0.000000 0.000000 -0.000000 0.767689
 31 1.485305 0.000001 0.000000 0.000000 -0.000000 1.221538
time 4
  0 0.235347 -0.235347 -14.663034 -0.045585 0.257873 -1.742273
  1 0.000000 0.000000 0.000000 -1.570795 -1.570796 0.000000
  2 -0.000005 0.000007 3.713255 -3.368582 -0.221254 1.331540
  3 18.045721 0.000000 0.000000 0.000000 -0.000000 -1.349056
  4 17.597597 0.000000 0.000000 -0.205032 0.225938 -0.216505
  5 3.793090 6.407221 0.000000 0.000000 -0.000000 1.570796
  6 0.000005 -0.000003 -3.713255 6.216042 2.542639 5.445438
  7 18.045725 0.000000 0.000000 0.000000 -0.000000 -2.074575
  8 17.597597 0.000000 0.000000 -0.092072 0.087818 0.559914
  9 3.793090 6.407221 0.000000 0.000000 -0.000000 1.570796
 10 0.935740 0.000000 0.000000 0.000000 -0.000000 0.000000
 11 0.935741 0.000000 0.000000 0.000000 -0.000000 0.000000
 12 1.293670 0.684478 -0.000001 -0.000004 -0.000001 0.358403
 13 5.309685 -0.003834 0.000000 -0.031855 0.014202 0.418363
 14 4.826790 -0.004591 0.000000 0.101082 -0.027061 0.260246
 15 5.792767 -0.005304 0.000000 -0.000098 -0.122111 0.122068
 16 6.662317 -0.001453 0.000000 0.000000 -0.000001 0.471000
 17 2.046985 -0.000002 0.000000 -0.144931 0.052791 -1.203102
 18 -3.112024 1.517254 4.341911 2.819998 -0.776474 -0.242712
 19 4.827230 0.000000 0.000001 -1.487030 -0.489372 -1.008041
 20 11.139763 0.000000 0.000000 0.000000 -0.000000 -0.237703
 21 10.314597 0.000001 0.000000 -2.123485 0.144003 0.096696
 22 2.975834 -0.386307 -0.044143 -0.037734 -0.021799 1.029782
 23 1.438886 0.000000 0.000000 0.000000 -0.000000 0.593339
 24 1.485303 0.000000 0.000000 0.000000 -0.000000 1.665926
 25 -2.869898 1.399663 -4.140396 -3.141106 1.439336 -0.471308
 26 4.972048 0.000000 0.000001 1.288717 0.583520 -1.497776
 27 11.585355 0.000000 0.000000 0.000000 -0.000000 -0.272475
 28 10.127057 0.000000 0.000001 1.812903 0.364734 -0.432770
 29 2.683750 -0.427338 0.044205 0.001045 0.043611 0.000046
 30 1.438885 -0.000001 0.000000 0.000000 -0.000000 0.767689
 31 1.485305 0.000001 0.000000 0.000000 -0.000000 1.221538
time 5
  0 0.235347 -0.235347 -14.663034 -0.045585 0.257873 -1.742273
  1 0.000000 0.000000 0.000000 -1.570795 -1.570796 0.000000
  2 -0.000005 0.000007 3.713255 -3.368582 -0.221254 1.331540
  3 18.045721 0.000000 0.000000 0.000000 -0.000000 -1.349056
  4 17.597597 0.000000 0.000000 -0.205032 0.225938 -0.216505
  5 3.793090 6.407221 0.000000 0.000000 -0.000000 1.570796
  6 0.000005 -0.000003 -3.713255 6.216042 2.542639 5.445438
  7 18.045725 0.000000 0.000000 0.000000 -0.000000 -2.074575
  8 17.597597 0.000000 0.000000 -0.092072 0.087818 0.559914
  9 3.793090 6.407221 0.000000 0.000000 -0.000000 1.570796
 10 0.935740 0.000000 0.000000 0.000000 -0.000000 0.000000
 11 0.935741 0.000000 0.000000 0.000000 -0.000000 0.000000
 12 1.293670 0.684478 -0.000001 -0.000004 -0.000001 0.358403
 13 5.309685 -0.003834 0.000000 -0.031855 0.014202 0.418363
 14 4.826790 -0.004591 0.000000 0.087470 -0.023466 0.260621
 15 5.792767 -0.005304 0.000000 -0.000082 -0.115304 0.122068
 16 6.662317 -0.001453 0.000000 0.000000 -0.000001 0.471000
 17 2.046985 -0.000002 0.000000 -0.127267 0.052476 -1.203686
 18 -3.112024 1.517254 4.341911 2.820765 -0.807552 -0.236001
 19 4.827230 0.000000 0.000001 -1.440393 -0.373720 -1.015917
 20 11.139763 0.000000 0.000000 0.000000 -0.000000 -0.436099
 21 10.314597 0.000001 0.000000 -2.123485 0.144003 0.096696
 22 2.975834 -0.386307 -0.044143 -0.037734 -0.021799 1.029782
 23 1.438886 0.000000 0.000000 0.000000 -0.000000 0.593339
 24 1.485303 0.000000 0.000000 0.000000 -0.000000 1.665926
 25 -2.869898 1.399663 -4.140396 -3.141106 1.449935 -0.471308
 26 4.972048 0.000000 0.000001 1.262339 0.411537 -1.503375
 27 11.585355 0.000000 0.000000 0.000000 -0.000000 -0.445759
 28 10.127057 0.000000 0.000001 1.819974 0.365113 -0.416178
 29 2.683750 -0.427338 0.044205 0.001045 0.043611 0.000046
 30 1.438885 -0.000001 0.000000 0.000000 -0.000000 0.767689
 31 1.485305 0.000001 0.000000 0.000000 -0.000000 1.221538
time 6
  0 0.235347 -0.235347 -14.663034 -0.045585 0.257873 -1.742273
  1 0.000000 0.000000 0.000000 -1.570795 -1.570796 0.000000
  2 -0.000005 0.000007 3.713255 -3.368582 -0.221254 1.331540
  3 18.045721 0.000000 0.000000 0.000000 -0.000000 -1.349056
  4 17.597597 0.000000 0.000000 -0.205032 0.225938 -0.216505
  5 3.793090 6.407221 0.000000 0.000000 -0.000000 1.570796
  6 0.000005 -0.000003 -3.713255 6.216042 2.542639 5.445438
  7 18.045725 0.000000 0.000000 0.000000 -0.000000 -2.074575
  8 17.597597 0.000000 0.000000 -0.092072 0.087818 0.559914
  9 3.793090 6.407221 0.000000 0.000000 -0.000000 1.570796
 10 0.935740 0.000000 0.000000 0.000000 -0.000000 0.000000
 11 0.935741 0.000000 0.000000 0.000000 -0.000000 0.000000
 12 1.293670 0.684478 -0.000001 -0.000004 -0.000001 0.358403
 13 5.309685 -0.003834 0.000000 -0.031855 0.014202 0.418363
 14 4.826790 -0.004591 0.000000 0.056830 -0.015208 0.261172
 15 5.792767 -0.005304 0.000000 -0.000049 -0.099940 0.122068
 16 6.662317 -0.001453 0.000000 0.000000 -0.000001 0.471000
 17 2.046985 -0.000002 0.000000 -0.087286 0.051823 -1.204765
 18 -3.112024 1.517254 4.341911 2.819998 -0.922170 -0.212032
 19 4.827230 0.000000 0.000001 -1.323508 -0.229219 -1.032719
 20 11.139763 0.000000 0.000000 0.000000 -0.000000 -0.779070
 21 10.314597 0.000001 0.000000 -2.123485 0.144003 0.096696
 22 2.975834 -0.386307 -0.044143 -0.037734 -0.021799 1.029782
 23 1.438886 0.000000 0.000000 0.000000 -0.000000 0.593339
 24 1.485303 0.000000 0.000000 0.000000 -0.000000 1.665926
 25 -2.869898 1.399663 -4.140396 -3.141106 1.488826 -0.471308
 26 4.972048 0.000000 0.000001 1.198676 0.141577 -1.493099
 27 11.585355 0.000000 0.000000 0.000000 -0.000000 -0.756017
 28 10.127057 0.000000 0.000001 1.845455 0.365357 -0.354790
 29 2.683750 -0.427338 0.044205 0.001045 0.043611 0.000046
 30 1.438885 -0.000001 0.000000 0.000000 -0.000000 0.767689
 31 1.485305 0.000001 0.000000 0.000000 -0.000000 1.221538
time 7
  0 0.235347 -0.235347 -14.663034 -0.045585 0.257873 -1.742273
  1 0.000000 0.000000 0.000000 -1.570795 -1.570796 0.000000
  2 -0.000005 0.000007 3.713255 -3.368582 -0.221254 1.331540
  3 18.045721 0.000000 0.000000 0.000000 -0.000000 -1.349056
  4 17.597597 0.000000 0.000000 -0.205032 0.225938 -0.216505
  5 3.793090 6.407221 0.000000 0.000000 -0.000000 1.570796
  6 0.000005 -0.000003 -3.713255 6.216042 2.542639 5.445438
  7 18.045725 0.000000 0.000000 0.000000 -0.000000 -2.074575
  8 17.597597 0.000000 0.000000 -0.092072 0.087818 0.559914
  9 3.793090 6.407221 0.000000 0.000000 -0.000000 1.570796
 10 0.935740 0.000000 0.000000 0.000000 -0.000000 0.000000
 11 0.935741 0.000000 0.000000 0.000000 -0.000000 0.000000
 12 1.293670 0.684478 -0.000001 -0.000004 -0.000001 0.358403
 13 5.309685 -0.003834 0.000000 -0.031855 0.014202 0.418363
 14 4.826790 -0.004591 0.000000 0.019261 -0.005129 0.261591
 15 5.792767 -0.005304 0.000000 -0.000049 -0.081208 0.122068
 16 6.662317 -0.001453 0.000000 0.000000 -0.000001 0.471000
 17 2.046985 -0.000002 0.000000 -0.038301 0.051103 -1.205529
 18 -3.112024 1.517254 4.341911 2.809931 -1.078828 -0.177133
 19 4.827230 0.000000 0.000001 -1.178723 -0.083867 -1.020905
 20 11.139763 0.000000 0.000000 0.000000 -0.000000 -1.175231
 21 10.314597 0.000001 0.000000 -2.123485 0.144003 0.096696
 22 2.975834 -0.386307 -0.044143 -0.037734 -0.021799 1.029782
 23 1.438886 0.000000 0.000000 0.000000 -0.000000 0.593339
 24 1.485303 0.000000 0.000000 0.000000 -0.000000 1.665926
 25 -2.869898 1.399663 -4.140396 -3.141106 1.541680 -0.471308
 26 4.972048 0.000000 0.000001 1.102911 -0.153239 -1.433682
 27 11.585355 0.000000 0.000000 0.000000 -0.000000 -1.119443
 28 10.127057 0.000000 0.000001 1.880045 0.363218 -0.271632
 29 2.683750 -0.427338 0.044205 0.001045 0.043611 0.000046
 30 1.438885 -0.000001 0.000000 0.000000 -0.000000 0.767689
 31 1.485305 0.000001 0.000000 0.000000 -0.000000 1.221538
time 8
  0 0.235347 -0.235347 -14.663034 -0.045585 0.257873 -1.742273
  1 0.000000 0.000000 0.000000 -1.570795 -1.570796 0.000000
  2 -0.000005 0.000007 3.713255 -3.368582 -0.221254 1.331540
  3 18.045721 0.000000 0.000000 0.000000 -0.000000 -1.349056
  4 17.597597 0.000000 0.000000 -0.205032 0.225938 -0.216505
  5 3.793090 6.407221 0.000000 0.000000 -0.000000 1.570796
  6 0.000005 -0.000003 -3.713255 6.216042 2.542639 5.445438
  7 18.045725 0.000000 0.000000 0.000000 -0.000000 -2.074575
  8 17.597597 0.000000 0.000000 -0.092072 0.087818 0.559914
  9 3.793090 6.407221 0.000000 0.000000 -0.000000 1.570796
 10 0.935740 0.000000 0.000000 0.000000 -0.000000 0.000000
 11 0.935741 0.000000 0.000000 0.000000 -0.000000 0.000000
 12 1.293670 0.684478 -0.000001 -0.000004 -0.000001 0.358403
 13 5.309685 -0.003834 0.000000 -0.031855 0.014202 0.418363
 14 4.826790 -0.004591 0.000000 -0.019852 0.005285 0.261591
 15 5.792767 -0.005304 0.000000 -0.000049 -0.061649 0.122068
 16 6.662317 -0.001453 0.000000 0.000000 -0.000001 0.471000
 17 2.046985 -0.000002 0.000000 0.012839 0.050405 -1.205619
 18 -3.112024 1.517254 4.341911 2.772157 -1.255871 -0.119032
 19 4.827230 0.000000 0.000001 -1.020546 0.033572 -0.974524
 20 11.139763 0.000000 0.000000 0.000000 -0.000000 -1.566697
 21 10.314597 0.000001 0.000000 -2.123485 0.144003 0.096696
 22 2.975834 -0.386307 -0.044143 -0.037734 -0.021799 1.029782
 23 1.438886 0.000000 0.000000 0.000000 -0.000000 0.593339
 24 1.485303 0.000000 0.000000 0.000000 -0.000000 1.665926
 25 -2.869898 1.399663 -4.140396 -0.000013 1.540182 2.669783
 26 4.972048 0.000000 0.000001 0.963131 -0.416201 -1.306877
 27 11.585355 0.000000 0.000000 0.000000 -0.000000 -1.482729
 28 10.127057 0.000000 0.000001 1.918585 0.357750 -0.178119
 29 2.683750 -0.427338 0.044205 0.001045 0.043611 0.000046
 30 1.438885 -0.000001 0.000000 0.000000 -0.000000 0.767689
 31 1.485305 0.000001 0.000000 0.000000 -0.000000 1.221538
time 9
  0 0.235347 -0.235347 -14.663034 -0.045585 0.257873 -1.742273
  1 0.000000 0.000000 0.000000 -1.570795 -1.570796 0.000000
  2 -0.000005 0.000007 3.713255 -3.368582 -0.221254 1.331540
  3 18.045721 0.000000 0.000000 0.000000 -0.000000 -1.349056
  4 17.597597 0.000000 0.000000 -0.205032 0.225938 -0.216505
  5 3.793090 6.407221 0.000000 0.000000 -0.000000 1.570796
  6 0.000005 -0.000003 -3.713255 6.216042 2.542639 5.445438
  7 18.045725 0.000000 0.000000 0.000000 -0.000000 -2.074575
  8 17.597597 0.000000 0.000000 -0.092072 0.087818 0.559914
  9 3.793090 6.407221 0.000000 0.000000 -0.000000 1.570796
 10 0.935740 0.000000 0.000000 0.000000 -0.000000 0.000000
 11 0.935741 0.000000 0.000000 0.000000 -0.000000 0.000000
 12 1.293670 0.684478 -0.000001 -0.000004 -0.000001 0.358403
 13 5.309685 -0.003834 0.000000 -0.031855 0.014202 0.418363
 14 4.826790 -0.004591 0.000000 -0.057684 0.015448 0.261172
 15 5.792767 -0.005304 0.000000 -0.000033 -0.042677 0.122068
 16 6.662317 -0.001453 0.000000 0.000000 -0.000001 0.471000
 17 2.046985 -0.000002 0.000000 0.062341 0.049752 -1.204854
 18 -3.112024 1.517254 4.341911 2.649152 -1.413606 0.015578
 19 4.827230 0.000000 0.000001 -0.889799 0.077484 -0.925343
 20 11.139763 0.000000 0.000000 0.000000 -0.000000 -1.833351
 21 10.314597 0.000001 0.000000 -2.123485 0.144003 0.096696
 22 2.975834 -0.386307 -0.044143 -0.037734 -0.021799 1.029782
 23 1.438886 0.000000 0.000000 0.000000 -0.000000 0.593339
 24 1.485303 0.000000 0.000000 0.000000 -0.000000 1.665926
 25 -2.869898 1.399663 -4.140396 -0.000013 1.486763 2.669783
 26 4.972048 0.000000 0.000001 0.813759 -0.551985 -1.166964
 27 11.585355 0.000000 0.000000 0.000000 -0.000000 -1.737512
 28 10.127057 0.000000 0.000001 1.952538 0.349926 -0.094647
 29 2.683750 -0.427338 0.044205 0.001045 0.043611 0.000046
 30 1.438885 -0.000001 0.000000 0.000000 -0.000000 0.767689
 31 1.485305 0.000001 0.000000 0.000000 -0.000000 1.221538
time 10
  0 0.235347 -0.235347 -14.663034 -0.045585 0.257873 -1.742273
  1 0.000000 0.000000 0.000000 -1.570795 -1.570796 0.000000
  2 -0.000005 0.000007 3.713255 -3.368582 -0.221254 1.331540
  3 18.045721 0.000000 0.000000 0.000000 -0.000000 -1.349056
  4 17.597597 0.000000 0.000000 -0.205032 0.225938 -0.216505
  5 3.793090 6.407221 0.000000 0.000000 -0.000000 1.570796
  6 0.000005 -0.000003 -3.713255 6.216042 2.542639 5.445438
  7 18.045725 0.000000 0.000000 0.000000 -0.000000 -2.074575
  8 17.597597 0.000000 0.000000 -0.092072 0.087818 0.559914
  9 3.793090 6.407221 0.000000 0.000000 -0.000000 1.570796
 10 0.935740 0.000000 0.000000 0.000000 -0.000000 0.000000
 11 0.935741 0.000000 0.000000 0.000000 -0.000000 0.000000
 12 1.293670 0.684478 -0.000001 -0.000004 -0.000001 0.358403
 13 5.309685 -0.003834 0.000000 -0.031855 0.014202 0.418363
 14 4.826790 -0.004591 0.000000 -0.092445 0.024748 0.260422
 15 5.792767 -0.005304 0.000000 0.000000 -0.025311 0.122068
 16 6.662317 -0.001453 0.000000 0.000000 -0.000001 0.471000
 17 2.046985 -0.000002 0.000000 0.107621 0.049122 -1.203911
 18 -3.112024 1.517254 4.341911 1.726661 -1.528262 0.942795
 19 4.827230 0.000000 0.000001 -0.813324 -0.040551 -0.973474
 20 11.139763 0.000000 0.000000 0.000000 -0.000000 -1.795858
 21 10.314597 0.000001 0.000000 -2.123485 0.144003 0.096696
 22 2.975834 -0.386307 -0.044143 -0.037734 -0.021799 1.029782
 23 1.438886 0.000000 0.000000 0.000000 -0.000000 0.593339
 24 1.485303 0.000000 0.000000 0.000000 -0.000000 1.665926
 25 -2.869898 1.399663 -4.140396 -0.000013 1.441512 2.669783
 26 4.972048 0.000000 0.000001 0.783281 -0.447412 -1.188636
 27 11.585355 0.000000 0.000000 0.000000 -0.000000 -1.731986
 28 10.127057 0.000000 0.000001 1.980376 0.341263 -0.024590
 29 2.683750 -0.427338 0.044205 0.001045 0.043611 0.000046
 30 1.438885 -0.000001 0.000000 0.000000 -0.000000 0.767689
 31 1.485305 0.000001 0.000000 0.000000 -0.000000 1.221538
time 11
  0 0.235347 -0.235347 -14.663034 -0.045585 0.257873 -1.742273
  1 0.000000 0.000000 0.000000 -1.570795 -1.570796 0.000000
  2 -0.000005 0.000007 3.713255 -3.368582 -0.221254 1.331540
  3 18.045721 0.000000 0.000000 0.000000 -0.000000 -1.349056
  4 17.597597 0.000000 0.000000 -0.205032 0.225938 -0.216505
  5 3.793090 6.407221 0.000000 0.000000 -0.000000 1.570796
  6 0.000005 -0.000003 -3.713255 6.216042 2.542639 5.445438
  7 18.045725 0.000000 0.000000 0.000000 -0.000000 -2.074575
  8 17.597597 0.000000 0.000000 -0.092072 0.087818 0.559914
  9 3.793090 6.407221 0.000000 0.000000 -0.000000 1.570796
 10 0.935740 0.000000 0.000000 0.000000 -0.000000 0.000000
 11 0.935741 0.000000 0.000000 0.000000 -0.000000 0.000000
 12 1.293670 0.684478 -0.000001 -0.000004 -0.000001 0.358403
 13 5.309685 -0.003834 0.000000 -0.031855 0.014202 0.418363
 14 4.826790 -0.004591 0.000000 -0.122067 0.032706 0.259651
 15 5.792767 -0.005304 0.000000 0.000000 -0.010522 0.122068
 16 6.662317 -0.001453 0.000000 0.000000 -0.000001 0.471000
 17 2.046985 -0.000002 0.000000 0.146482 0.048559 -1.202337
 18 -3.112024 1.517254 4.341911 0.099790 -1.452684 2.570674
 19 4.827230 0.000000 0.000001 -0.731328 -0.292534 -1.160223
 20 11.139763 0.000000 0.000000 0.000000 -0.000000 -1.482461
 21 10.314597 0.000001 0.000000 -2.123485 0.144003 0.096696
 22 2.975834 -0.386307 -0.044143 -0.037734 -0.021799 1.029782
 23 1.438886 0.000000 0.000000 0.000000 -0.000000 0.593339
 24 1.485303 0.000000 0.000000 0.000000 -0.000000 1.665926
 25 -2.869898 1.399663 -4.140396 -0.000013 1.399031 2.669783
 26 4.972048 0.000000 0.000001 0.836424 -0.139162 -1.368534
 27 11.585355 0.000000 0.000000 0.000000 -0.000000 -1.492104
 28 10.127057 0.000000 0.000001 2.005984 0.331409 0.040720
 29 2.683750 -0.427338 0.044205 0.001045 0.043611 0.000046
 30 1.438885 -0.000001 0.000000 0.000000 -0.000000 0.767689
 31 1.485305 0.000001 0.000000 0.000000 -0.000000 1.221538
time 12
  0 0.235347 -0.235347 -14.663034 -0.045585 0.257873 -1.742273
  1 0.000000 0.000000 0.000000 -1.570795 -1.570796 0.000000
  2 -0.000005 0.000007 3.713255 -3.368582 -0.221254 1.331540
  3 18.045721 0.000000 0.000000 0.000000 -0.000000 -1.349056
  4 17.597597 0.000000 0.000000 -0.205032 0.225938 -0.216505
  5 3.793090 6.407221 0.000000 0.000000 -0.000000 1.570796
  6 0.000005 -0.000003 -3.713255 6.216042 2.542639 5.445438
  7 18.045725 0.000000 0.000000 0.000000 -0.000000 -2.074575
  8 17.597597 0.000000 0.000000 -0.092072 0.087818 0.559914
  9 3.793090 6.407221 0.000000 0.000000 -0.000000 1.570796
 10 0.935740 0.000000 0.000000 0.000000 -0.000000 0.000000
 11 0.935741 0.000000 0.000000 0.000000 -0.000000 0.000000
 12 1.293670 0.684478 -0.000001 -0.000004 -0.000001 0.358403
 13 5.309685 -0.003834 0.000000 -0.031855 0.014202 0.418363
 14 4.826790 -0.004591 0.000000 -0.143265 0.038339 0.258879
 15 5.792767 -0.005304 0.000000 0.000000 0.000000 0.122068
 16 6.662317 -0.001453 0.000000 0.000000 -0.000001 0.471000
 17 2.046985 -0.000002 0.000000 0.174055 0.048109 -1.201304
 18 -3.112024 1.517254 4.341911 -0.041815 -1.370643 2.710461
 19 4.827230 0.000000 0.000001 -0.635118 -0.462991 -1.341196
 20 11.139763 0.000000 0.000000 0.000000 -0.000000 -1.225128
 21 10.314597 0.000001 0.000000 -2.123485 0.144003 0.096696
 22 2.975834 -0.386307 -0.044143 -0.037734 -0.021799 1.029782
 23 1.438886 0.000000 0.000000 0.000000 -0.000000 0.593339
 24 1.485303 0.000000 0.000000 0.000000 -0.000000 1.665926
 25 -2.869898 1.399663 -4.140396 -0.000013 1.370795 2.669783
 26 4.972048 0.000000 0.000001 0.847331 0.099587 -1.515627
 27 11.585355 0.000000 0.000000 0.000000 -0.000000 -1.291257
 28 10.127057 0.000000 0.000001 2.022483 0.324154 0.083986
 29 2.683750 -0.427338 0.044205 0.001045 0.043611 0.000046
 30 1.438885 -0.000001 0.000000 0.000000 -0.000000 0.767689
 31 1.485305 0.000001 0.000000 0.000000 -0.000000 1.221538
end
