version 1
nodes
  0 "Bip01"  -1
  1 "Bip01 Pelvis"   0
  2 "Bip01 L Leg"   1
  3 "Bip01 L Leg1"   2
  4 "Bip01 L Foot"   3
  5 "Bip01 L Toe0"   4
  6 "Bip01 R Leg"   1
  7 "Bip01 R Leg1"   6
  8 "Bip01 R Foot"   7
  9 "Bip01 R Toe0"   8
 10 "Bip01 R Toe01"   9
 11 "Bip01 R Toe02"  10
 12 "Bip01 Spine"   1
 13 "Bip01 Spine1"  12
 14 "Bip01 Spine2"  13
 15 "Bip01 Spine3"  14
 16 "Bip01 Neck"  15
 17 "Bip01 Head"  16
 18 "Bip01 L Arm"  16
 19 "Bip01 L Arm1"  18
 20 "Bip01 L Arm2"  19
 21 "Bip01 L Hand"  20
 22 "Bip01 L Finger1"  21
 23 "Bip01 L Finger11"  22
 24 "Bip01 L Finger12"  23
 25 "Bip01 R Arm"  16
 26 "Bip01 R Arm1"  25
 27 "Bip01 R Arm2"  26
 28 "Bip01 R Hand"  27
 29 "Bip01 R Finger1"  28
 30 "Bip01 R Finger11"  29
 31 "Bip01 R Finger12"  30
end
skeleton
time 0
  0 0.235347 -0.235347 5.243823 -0.642829 1.558884 -5.355247
  1 0.855495 2.031312 0.000000 -1.570795 -1.570796 0.000000
  2 -0.000005 0.000007 3.713255 -0.775483 3.167426 6.229977
  3 18.045721 0.000000 0.000000 0.000000 -0.000000 -0.121501
  4 17.597597 0.000000 0.000000 -0.527432 0.078519 -0.180681
  5 3.793090 6.407221 0.000000 0.000000 -0.000000 1.570796
  6 0.000005 -0.000003 -3.713255 1.493971 2.486364 6.204471
  7 18.045725 0.000000 0.000000 0.000000 -0.000000 -1.121855
  8 17.597597 0.000000 0.000000 0.026578 -0.078886 -0.090176
  9 3.793090 6.407221 0.000000 0.000000 -0.000000 1.570796
 10 0.935740 0.000000 0.000000 0.000000 -0.000000 0.000000
 11 0.935741 0.000000 0.000000 0.000000 -0.000000 0.000000
 12 1.293670 0.684478 -0.000001 -0.069768 0.000610 0.009520
 13 5.309685 -0.003834 0.000000 0.000184 0.235449 -0.069778
 14 4.826790 -0.004591 0.000000 -0.080672 0.243515 -0.019591
 15 5.792767 -0.005304 0.000000 0.000000 -0.000000 0.017444
 16 6.662317 -0.001453 0.000000 0.000000 -0.000001 -0.087207
 17 2.046985 -0.000002 0.000000 -0.892721 -0.468908 0.049815
 18 -3.440159 -0.353897 4.341911 -0.000014 -1.370797 3.227713
 19 4.827230 0.000000 0.000001 -1.213436 -0.782629 -0.217027
 20 11.139763 0.000000 0.000000 0.000000 -0.000000 -1.761239
 21 10.314597 0.000001 0.000000 -1.570000 -0.000000 -0.069778
 22 2.975834 -0.386307 -0.044143 -0.000797 -0.043611 0.000035
 23 1.438886 0.000000 0.000000 0.000000 -0.000000 0.409822
 24 1.485303 0.000000 0.000000 0.000000 -0.000000 -0.034849
 25 -3.174595 -0.330859 -4.140396 -0.000013 1.370795 3.227765
 26 4.972048 0.000000 0.000001 -1.548577 -0.278486 -0.269188
 27 11.585355 0.000000 0.000000 0.000000 -0.000000 -0.749161
 28 10.127057 0.000000 0.000001 1.569752 -0.000000 -0.069778
 29 2.683750 -0.427338 0.044205 0.001045 0.043611 0.000046
 30 1.438885 -0.000001 0.000000 0.000000 -0.000000 0.758773
 31 1.485305 0.000001 0.000000 0.000000 -0.000000 1.351769
time 1
  0 0.235347 -0.235347 5.243823 -0.642829 1.558884 -5.355247
  1 0.855495 2.031312 0.000000 -1.570795 -1.570796 0.000000
  2 -0.000005 0.000007 3.713255 -0.775483 3.167426 6.229977
  3 18.045721 0.000000 0.000000 0.000000 -0.000000 -0.121501
  4 17.597597 0.000000 0.000000 -0.527432 0.078519 -0.180681
  5 3.793090 6.407221 0.000000 0.000000 -0.000000 1.570796
  6 0.000005 -0.000003 -3.713255 1.493971 2.486364 6.204471
  7 18.045725 0.000000 0.000000 0.000000 -0.000000 -1.121855
  8 17.597597 0.000000 0.000000 0.026578 -0.078886 -0.090176
  9 3.793090 6.407221 0.000000 0.000000 -0.000000 1.570796
 10 0.935740 0.000000 0.000000 0.000000 -0.000000 0.000000
 11 0.935741 0.000000 0.000000 0.000000 -0.000000 0.000000
 12 1.293670 0.684478 -0.000001 -0.069768 0.000610 0.009520
 13 5.309685 -0.003834 0.000000 0.000184 0.235449 -0.069778
 14 4.826790 -0.004591 0.000000 -0.080672 0.243515 -0.019591
 15 5.792767 -0.005304 0.000000 0.000000 -0.000000 0.017444
 16 6.662317 -0.001453 0.000000 0.000000 -0.000001 -0.087207
 17 2.046985 -0.000002 0.000000 -0.892721 -0.468908 0.049815
 18 -3.440159 -0.353897 4.341911 -0.000014 -1.370797 3.227713
 19 4.827230 0.000000 0.000001 -1.213436 -0.782629 -0.217027
 20 11.139763 0.000000 0.000000 0.000000 -0.000000 -1.761239
 21 10.314597 0.000001 0.000000 -1.570000 -0.000000 -0.069778
 22 2.975834 -0.386307 -0.044143 -0.000797 -0.043611 0.000035
 23 1.438886 0.000000 0.000000 0.000000 -0.000000 0.409822
 24 1.485303 0.000000 0.000000 0.000000 -0.000000 -0.034849
 25 -3.174595 -0.330859 -4.140396 -0.000013 1.370795 3.227765
 26 4.972048 0.000000 0.000001 -1.548577 -0.278486 -0.269188
 27 11.585355 0.000000 0.000000 0.000000 -0.000000 -0.749161
 28 10.127057 0.000000 0.000001 1.569752 -0.000000 -0.069778
 29 2.683750 -0.427338 0.044205 0.001045 0.043611 0.000046
 30 1.438885 -0.000001 0.000000 0.000000 -0.000000 0.758773
 31 1.485305 0.000001 0.000000 0.000000 -0.000000 1.351769
end
