version 1
nodes
  0 "Bip01"  -1
  1 "Bip01 Pelvis"   0
  2 "Bip01 L Leg"   1
  3 "Bip01 L Leg1"   2
  4 "Bip01 L Foot"   3
  5 "Bip01 L Toe0"   4
  6 "Bip01 R Leg"   1
  7 "Bip01 R Leg1"   6
  8 "Bip01 R Foot"   7
  9 "Bip01 R Toe0"   8
 10 "Bip01 R Toe01"   9
 11 "Bip01 R Toe02"  10
 12 "Bip01 Spine"   1
 13 "Bip01 Spine1"  12
 14 "Bip01 Spine2"  13
 15 "Bip01 Spine3"  14
 16 "Bip01 Neck"  15
 17 "Bip01 Head"  16
 18 "Bip01 L Arm"  16
 19 "Bip01 L Arm1"  18
 20 "Bip01 L Arm2"  19
 21 "Bip01 L Hand"  20
 22 "Bip01 L Finger1"  21
 23 "Bip01 L Finger11"  22
 24 "Bip01 L Finger12"  23
 25 "Bip01 R Arm"  16
 26 "Bip01 R Arm1"  25
 27 "Bip01 R Arm2"  26
 28 "Bip01 R Hand"  27
 29 "Bip01 R Finger1"  28
 30 "Bip01 R Finger11"  29
 31 "Bip01 R Finger12"  30
end
skeleton
time 0
  0 0.235347 -0.235347 2.884376 -0.000000 -0.000000 -1.571254
  1 0.675802 -0.007813 0.000000 -1.570795 -1.570796 0.000000
  2 -0.000005 0.000007 3.713255 -0.055471 -3.106622 6.073123
  3 18.045721 0.000000 0.000000 0.000000 -0.000000 -0.234885
  4 17.597597 0.000000 0.000000 -0.095546 -0.022601 0.023285
  5 3.793090 6.407221 0.000000 0.000000 -0.000000 1.570796
  6 0.000005 -0.000003 -3.713255 0.258062 3.090914 0.080726
  7 18.045725 0.000000 0.000000 0.000000 -0.000000 -0.127551
  8 17.597597 0.000000 0.000000 -0.018139 0.069140 0.192751
  9 3.793090 6.407221 0.000000 0.000000 -0.000000 1.570796
 10 0.935740 0.000000 0.000000 0.000000 -0.000000 0.000000
 11 0.935741 0.000000 0.000000 0.000000 -0.000000 0.000000
 12 1.293670 0.684478 -0.000001 -0.069768 0.000610 0.009520
 13 5.309685 -0.003834 0.000000 0.000000 -0.000000 -0.069778
 14 4.826790 -0.004591 0.000000 -0.078488 0.000060 -0.000056
 15 5.792767 -0.005304 0.000000 0.000000 -0.000000 0.017444
 16 6.662317 -0.001453 0.000000 0.000000 -0.000001 0.471000
 17 2.046985 -0.000002 0.000000 0.158459 -0.045250 -0.152224
 18 -3.112024 1.517254 4.341911 -0.000014 -1.370797 2.669810
 19 4.827230 0.000000 0.000001 0.484103 1.160476 0.758636
 20 11.139763 0.000000 0.000000 0.000000 -0.000000 -0.286899
 21 10.314597 0.000001 0.000000 -1.570000 -0.000000 -0.069778
 22 2.975834 -0.386307 -0.044143 -0.000797 -0.043611 0.000035
 23 1.438886 0.000000 0.000000 0.000000 -0.000000 0.793659
 24 1.485303 0.000000 0.000000 0.000000 -0.000000 1.465135
 25 -2.869898 1.399663 -4.140396 -0.000013 1.370795 2.669783
 26 4.972048 0.000000 0.000001 -0.014710 -1.250776 -0.070780
 27 11.585355 0.000000 0.000000 0.000000 -0.000000 -1.473145
 28 10.127057 0.000000 0.000001 1.683078 -0.000000 -0.069778
 29 2.683750 -0.427338 0.044205 0.001045 0.043611 0.000046
 30 1.438885 -0.000001 0.000000 0.000000 -0.000000 1.037847
 31 1.485305 0.000001 0.000000 0.000000 -0.000000 1.142450
time 1
  0 0.235347 -0.235347 2.884376 -0.000000 -0.000000 -1.571254
  1 0.683615 -0.019532 0.000000 -1.570795 -1.570796 0.000000
  2 -0.000005 0.000007 3.713255 -0.055376 -3.106238 6.071589
  3 18.045721 0.000000 0.000000 0.000000 -0.000000 -0.237927
  4 17.597597 0.000000 0.000000 -0.095546 -0.022625 0.024932
  5 3.793090 6.407221 0.000000 0.000000 -0.000000 1.570796
  6 0.000005 -0.000003 -3.713255 0.258062 3.090627 0.078904
  7 18.045725 0.000000 0.000000 0.000000 -0.000000 -0.131898
  8 17.597597 0.000000 0.000000 -0.018139 0.069140 0.195155
  9 3.793090 6.407221 0.000000 0.000000 -0.000000 1.570796
 10 0.935740 0.000000 0.000000 0.000000 -0.000000 0.000000
 11 0.935741 0.000000 0.000000 0.000000 -0.000000 0.000000
 12 1.293670 0.684478 -0.000001 -0.069768 0.000610 0.009520
 13 5.309685 -0.003834 0.000000 0.000000 -0.000000 -0.069778
 14 4.826790 -0.004591 0.000000 -0.078488 -0.000072 -0.001886
 15 5.792767 -0.005304 0.000000 0.000000 -0.000000 0.017444
 16 6.662317 -0.001453 0.000000 0.000000 -0.000001 0.471000
 17 2.046985 -0.000002 0.000000 0.158459 -0.045250 -0.150472
 18 -3.112024 1.517254 4.341911 -0.019956 -1.370797 2.689465
 19 4.827230 0.000000 0.000001 0.487040 1.155710 0.753910
 20 11.139763 0.000000 0.000000 0.000000 -0.000000 -0.286899
 21 10.314597 0.000001 0.000000 -1.570000 -0.000000 -0.069778
 22 2.975834 -0.386307 -0.044143 -0.000797 -0.043611 0.000035
 23 1.438886 0.000000 0.000000 0.000000 -0.000000 0.793659
 24 1.485303 0.000000 0.000000 0.000000 -0.000000 1.465135
 25 -2.869898 1.399663 -4.140396 -0.000013 1.370795 2.669783
 26 4.972048 0.000000 0.000001 -0.020202 -1.249489 -0.065115
 27 11.585355 0.000000 0.000000 0.000000 -0.000000 -1.473145
 28 10.127057 0.000000 0.000001 1.683078 -0.000000 -0.069778
 29 2.683750 -0.427338 0.044205 0.001045 0.043611 0.000046
 30 1.438885 -0.000001 0.000000 0.000000 -0.000000 1.037847
 31 1.485305 0.000001 0.000000 0.000000 -0.000000 1.142450
time 2
  0 0.235347 -0.235347 2.876563 -0.000000 -0.000000 -1.571254
  1 0.695334 -0.019532 0.000000 -1.570795 -1.570796 0.000000
  2 -0.000005 0.000007 3.713255 -0.055376 -3.106143 6.069959
  3 18.045721 0.000000 0.000000 0.000000 -0.000000 -0.242231
  4 17.597597 0.000000 0.000000 -0.095546 -0.022674 0.027403
  5 3.793090 6.407221 0.000000 0.000000 -0.000000 1.570796
  6 0.000005 -0.000003 -3.713255 0.257967 3.090052 0.076699
  7 18.045725 0.000000 0.000000 0.000000 -0.000000 -0.137259
  8 17.597597 0.000000 0.000000 -0.018106 0.069199 0.198177
  9 3.793090 6.407221 0.000000 0.000000 -0.000000 1.570796
 10 0.935740 0.000000 0.000000 0.000000 -0.000000 0.000000
 11 0.935741 0.000000 0.000000 0.000000 -0.000000 0.000000
 12 1.293670 0.684478 -0.000001 -0.069768 0.000610 0.009520
 13 5.309685 -0.003834 0.000000 0.000000 -0.000000 -0.069778
 14 4.826790 -0.004591 0.000000 -0.078488 -0.000384 -0.005722
 15 5.792767 -0.005304 0.000000 0.000000 -0.000000 0.017444
 16 6.662317 -0.001453 0.000000 0.000000 -0.000001 0.471000
 17 2.046985 -0.000002 0.000000 0.158459 -0.045250 -0.146426
 18 -3.112024 1.517254 4.341911 -0.063099 -1.370412 2.731650
 19 4.827230 0.000000 0.000001 0.493501 1.146009 0.743759
 20 11.139763 0.000000 0.000000 0.000000 -0.000000 -0.286899
 21 10.314597 0.000001 0.000000 -1.570000 -0.000000 -0.069778
 22 2.975834 -0.386307 -0.044143 -0.000797 -0.043611 0.000035
 23 1.438886 0.000000 0.000000 0.000000 -0.000000 0.793659
 24 1.485303 0.000000 0.000000 0.000000 -0.000000 1.465135
 25 -2.869898 1.399663 -4.140396 -0.000013 1.370795 2.669783
 26 4.972048 0.000000 0.000001 -0.031960 -1.246593 -0.053258
 27 11.585355 0.000000 0.000000 0.000000 -0.000000 -1.473145
 28 10.127057 0.000000 0.000001 1.683078 -0.000000 -0.069778
 29 2.683750 -0.427338 0.044205 0.001045 0.043611 0.000046
 30 1.438885 -0.000001 0.000000 0.000000 -0.000000 1.037847
 31 1.485305 0.000001 0.000000 0.000000 -0.000000 1.142450
time 3
  0 0.235347 -0.235347 2.864844 -0.000000 -0.000000 -1.571254
  1 0.707053 -0.019532 0.000000 -1.570795 -1.570796 0.000000
  2 -0.000005 0.000007 3.713255 -0.055376 -3.106143 6.067274
  3 18.045721 0.000000 0.000000 0.000000 -0.000000 -0.248019
  4 17.597597 0.000000 0.000000 -0.095546 -0.022747 0.030697
  5 3.793090 6.407221 0.000000 0.000000 -0.000000 1.570796
  6 0.000005 -0.000003 -3.713255 0.257583 3.089093 0.073631
  7 18.045725 0.000000 0.000000 0.000000 -0.000000 -0.144648
  8 17.597597 0.000000 0.000000 -0.018106 0.069278 0.202332
  9 3.793090 6.407221 0.000000 0.000000 -0.000000 1.570796
 10 0.935740 0.000000 0.000000 0.000000 -0.000000 0.000000
 11 0.935741 0.000000 0.000000 0.000000 -0.000000 0.000000
 12 1.293670 0.684478 -0.000001 -0.069768 0.000610 0.009520
 13 5.309685 -0.003834 0.000000 0.000000 -0.000000 -0.069778
 14 4.826790 -0.004591 0.000000 -0.078488 -0.000647 -0.009669
 15 5.792767 -0.005304 0.000000 0.000000 -0.000000 0.017444
 16 6.662317 -0.001453 0.000000 0.000000 -0.000001 0.471000
 17 2.046985 -0.000002 0.000000 0.158459 -0.045250 -0.142651
 18 -3.112024 1.517254 4.341911 -0.106817 -1.369720 2.774411
 19 4.827230 0.000000 0.000001 0.499962 1.135967 0.733520
 20 11.139763 0.000000 0.000000 0.000000 -0.000000 -0.286899
 21 10.314597 0.000001 0.000000 -1.570000 -0.000000 -0.069778
 22 2.975834 -0.386307 -0.044143 -0.000797 -0.043611 0.000035
 23 1.438886 0.000000 0.000000 0.000000 -0.000000 0.793659
 24 1.485303 0.000000 0.000000 0.000000 -0.000000 1.465135
 25 -2.869898 1.399663 -4.140396 -0.000013 1.370795 2.669783
 26 4.972048 0.000000 0.000001 -0.043718 -1.243697 -0.041335
 27 11.585355 0.000000 0.000000 0.000000 -0.000000 -1.473145
 28 10.127057 0.000000 0.000001 1.683078 -0.000000 -0.069778
 29 2.683750 -0.427338 0.044205 0.001045 0.043611 0.000046
 30 1.438885 -0.000001 0.000000 0.000000 -0.000000 1.037847
 31 1.485305 0.000001 0.000000 0.000000 -0.000000 1.142450
time 4
  0 0.235347 -0.235347 2.853125 -0.000000 -0.000000 -1.571254
  1 0.726585 -0.019532 0.000000 -1.570795 -1.570796 0.000000
  2 -0.000005 0.000007 3.713255 -0.054896 -3.105855 6.063919
  3 18.045721 0.000000 0.000000 0.000000 -0.000000 -0.255587
  4 17.597597 0.000000 0.000000 -0.095546 -0.022893 0.034952
  5 3.793090 6.407221 0.000000 0.000000 -0.000000 1.570796
  6 0.000005 -0.000003 -3.713255 0.257391 3.087943 0.069796
  7 18.045725 0.000000 0.000000 0.000000 -0.000000 -0.153921
  8 17.597597 0.000000 0.000000 -0.018106 0.069337 0.207552
  9 3.793090 6.407221 0.000000 0.000000 -0.000000 1.570796
 10 0.935740 0.000000 0.000000 0.000000 -0.000000 0.000000
 11 0.935741 0.000000 0.000000 0.000000 -0.000000 0.000000
 12 1.293670 0.684478 -0.000001 -0.069768 0.000610 0.009520
 13 5.309685 -0.003834 0.000000 0.000000 -0.000000 -0.069778
 14 4.826790 -0.004591 0.000000 -0.078488 -0.001079 -0.014652
 15 5.792767 -0.005304 0.000000 0.000000 -0.000000 0.017444
 16 6.662317 -0.001453 0.000000 0.000000 -0.000001 0.471000
 17 2.046985 -0.000002 0.000000 0.158459 -0.045250 -0.137661
 18 -3.112024 1.517254 4.341911 -0.160506 -1.368335 2.827143
 19 4.827230 0.000000 0.000001 0.508009 1.123287 0.720481
 20 11.139763 0.000000 0.000000 0.000000 -0.000000 -0.286899
 21 10.314597 0.000001 0.000000 -1.570000 -0.000000 -0.069778
 22 2.975834 -0.386307 -0.044143 -0.000797 -0.043611 0.000035
 23 1.438886 0.000000 0.000000 0.000000 -0.000000 0.793659
 24 1.485303 0.000000 0.000000 0.000000 -0.000000 1.465135
 25 -2.869898 1.399663 -4.140396 -0.000013 1.370795 2.669783
 26 4.972048 0.000000 0.000001 -0.057874 -1.239836 -0.026909
 27 11.585355 0.000000 0.000000 0.000000 -0.000000 -1.473145
 28 10.127057 0.000000 0.000001 1.683078 -0.000000 -0.069778
 29 2.683750 -0.427338 0.044205 0.001045 0.043611 0.000046
 30 1.438885 -0.000001 0.000000 0.000000 -0.000000 1.037847
 31 1.485305 0.000001 0.000000 0.000000 -0.000000 1.142450
time 5
  0 0.235347 -0.235347 2.845312 -0.000000 -0.000000 -1.571254
  1 0.738304 -0.027345 0.000000 -1.570795 -1.570796 0.000000
  2 -0.000005 0.000007 3.713255 -0.054800 -3.105376 6.060563
  3 18.045721 0.000000 0.000000 0.000000 -0.000000 -0.263082
  4 17.597597 0.000000 0.000000 -0.095546 -0.022966 0.039070
  5 3.793090 6.407221 0.000000 0.000000 -0.000000 1.570796
  6 0.000005 -0.000003 -3.713255 0.257295 3.086888 0.065578
  7 18.045725 0.000000 0.000000 0.000000 -0.000000 -0.163194
  8 17.597597 0.000000 0.000000 -0.018073 0.069416 0.212840
  9 3.793090 6.407221 0.000000 0.000000 -0.000000 1.570796
 10 0.935740 0.000000 0.000000 0.000000 -0.000000 0.000000
 11 0.935741 0.000000 0.000000 0.000000 -0.000000 0.000000
 12 1.293670 0.684478 -0.000001 -0.069768 0.000610 0.009520
 13 5.309685 -0.003834 0.000000 0.000000 -0.000000 -0.069778
 14 4.826790 -0.004591 0.000000 -0.078455 -0.001426 -0.019635
 15 5.792767 -0.005304 0.000000 0.000000 -0.000000 0.017444
 16 6.662317 -0.001453 0.000000 0.000000 -0.000001 0.471000
 17 2.046985 -0.000002 0.000000 0.158459 -0.045250 -0.132537
 18 -3.112024 1.517254 4.341911 -0.214003 -1.366297 2.879012
 19 4.827230 0.000000 0.000001 0.516232 1.110692 0.707354
 20 11.139763 0.000000 0.000000 0.000000 -0.000000 -0.286899
 21 10.314597 0.000001 0.000000 -1.570000 -0.000000 -0.069778
 22 2.975834 -0.386307 -0.044143 -0.000797 -0.043611 0.000035
 23 1.438886 0.000000 0.000000 0.000000 -0.000000 0.793659
 24 1.485303 0.000000 0.000000 0.000000 -0.000000 1.465135
 25 -2.869898 1.399663 -4.140396 -0.000013 1.370795 2.669783
 26 4.972048 0.000000 0.000001 -0.071875 -1.235975 -0.012812
 27 11.585355 0.000000 0.000000 0.000000 -0.000000 -1.473145
 28 10.127057 0.000000 0.000001 1.683078 -0.000000 -0.069778
 29 2.683750 -0.427338 0.044205 0.001045 0.043611 0.000046
 30 1.438885 -0.000001 0.000000 0.000000 -0.000000 1.037847
 31 1.485305 0.000001 0.000000 0.000000 -0.000000 1.142450
time 6
  0 0.235347 -0.235347 2.825780 -0.000000 -0.000000 -1.571254
  1 0.750023 -0.027345 0.000000 -1.570795 -1.570796 0.000000
  2 -0.000005 0.000007 3.713255 -0.054704 -3.105280 6.057495
  3 18.045721 0.000000 0.000000 0.000000 -0.000000 -0.269983
  4 17.597597 0.000000 0.000000 -0.095546 -0.023112 0.042913
  5 3.793090 6.407221 0.000000 0.000000 -0.000000 1.570796
  6 0.000005 -0.000003 -3.713255 0.257104 3.085642 0.062127
  7 18.045725 0.000000 0.000000 0.000000 -0.000000 -0.171960
  8 17.597597 0.000000 0.000000 -0.018073 0.069495 0.217682
  9 3.793090 6.407221 0.000000 0.000000 -0.000000 1.570796
 10 0.935740 0.000000 0.000000 0.000000 -0.000000 0.000000
 11 0.935741 0.000000 0.000000 0.000000 -0.000000 0.000000
 12 1.293670 0.684478 -0.000001 -0.069768 0.000610 0.009520
 13 5.309685 -0.003834 0.000000 0.000000 -0.000000 -0.069778
 14 4.826790 -0.004591 0.000000 -0.078455 -0.001834 -0.024199
 15 5.792767 -0.005304 0.000000 0.000000 -0.000000 0.017444
 16 6.662317 -0.001453 0.000000 0.000000 -0.000001 0.471000
 17 2.046985 -0.000002 0.000000 0.158459 -0.045250 -0.128133
 18 -3.112024 1.517254 4.341911 -0.261748 -1.363989 2.926183
 19 4.827230 0.000000 0.000001 0.523809 1.098948 0.695190
 20 11.139763 0.000000 0.000000 0.000000 -0.000000 -0.286899
 21 10.314597 0.000001 0.000000 -1.570000 -0.000000 -0.069778
 22 2.975834 -0.386307 -0.044143 -0.000797 -0.043611 0.000035
 23 1.438886 0.000000 0.000000 0.000000 -0.000000 0.793659
 24 1.485303 0.000000 0.000000 0.000000 -0.000000 1.465135
 25 -2.869898 1.399663 -4.140396 -0.000013 1.370795 2.669783
 26 4.972048 0.000000 0.000001 -0.084484 -1.232355 0.000033
 27 11.585355 0.000000 0.000000 0.000000 -0.000000 -1.473145
 28 10.127057 0.000000 0.000001 1.683078 -0.000000 -0.069778
 29 2.683750 -0.427338 0.044205 0.001045 0.043611 0.000046
 30 1.438885 -0.000001 0.000000 0.000000 -0.000000 1.037847
 31 1.485305 0.000001 0.000000 0.000000 -0.000000 1.142450
time 7
  0 0.235347 -0.235347 2.810155 -0.000000 -0.000000 -1.571254
  1 0.761742 -0.031251 0.000000 -1.570795 -1.570796 0.000000
  2 -0.000005 0.000007 3.713255 -0.054704 -3.105088 6.055098
  3 18.045721 0.000000 0.000000 0.000000 -0.000000 -0.276068
  4 17.597597 0.000000 0.000000 -0.095546 -0.023185 0.046390
  5 3.793090 6.407221 0.000000 0.000000 -0.000000 1.570796
  6 0.000005 -0.000003 -3.713255 0.256816 3.084875 0.058675
  7 18.045725 0.000000 0.000000 0.000000 -0.000000 -0.179494
  8 17.597597 0.000000 0.000000 -0.018073 0.069554 0.221906
  9 3.793090 6.407221 0.000000 0.000000 -0.000000 1.570796
 10 0.935740 0.000000 0.000000 0.000000 -0.000000 0.000000
 11 0.935741 0.000000 0.000000 0.000000 -0.000000 0.000000
 12 1.293670 0.684478 -0.000001 -0.069768 0.000610 0.009520
 13 5.309685 -0.003834 0.000000 0.000000 -0.000000 -0.069778
 14 4.826790 -0.004591 0.000000 -0.078455 -0.002097 -0.028123
 15 5.792767 -0.005304 0.000000 0.000000 -0.000000 0.017444
 16 6.662317 -0.001453 0.000000 0.000000 -0.000001 0.471000
 17 2.046985 -0.000002 0.000000 0.158459 -0.045250 -0.123907
 18 -3.112024 1.517254 4.341911 -0.303069 -1.361566 2.966355
 19 4.827230 0.000000 0.000001 0.530505 1.088991 0.684514
 20 11.139763 0.000000 0.000000 0.000000 -0.000000 -0.286899
 21 10.314597 0.000001 0.000000 -1.570000 -0.000000 -0.069778
 22 2.975834 -0.386307 -0.044143 -0.000797 -0.043611 0.000035
 23 1.438886 0.000000 0.000000 0.000000 -0.000000 0.793659
 24 1.485303 0.000000 0.000000 0.000000 -0.000000 1.465135
 25 -2.869898 1.399663 -4.140396 -0.000013 1.370795 2.669783
 26 4.972048 0.000000 0.000001 -0.095391 -1.229057 0.011034
 27 11.585355 0.000000 0.000000 0.000000 -0.000000 -1.473145
 28 10.127057 0.000000 0.000001 1.683078 -0.000000 -0.069778
 29 2.683750 -0.427338 0.044205 0.001045 0.043611 0.000046
 30 1.438885 -0.000001 0.000000 0.000000 -0.000000 1.037847
 31 1.485305 0.000001 0.000000 0.000000 -0.000000 1.142450
time 8
  0 0.235347 -0.235347 2.798436 -0.000000 -0.000000 -1.571254
  1 0.769555 -0.031251 0.000000 -1.570795 -1.570796 0.000000
  2 -0.000005 0.000007 3.713255 -0.054609 -3.104705 6.052701
  3 18.045721 0.000000 0.000000 0.000000 -0.000000 -0.281262
  4 17.597597 0.000000 0.000000 -0.095495 -0.023258 0.049227
  5 3.793090 6.407221 0.000000 0.000000 -0.000000 1.570796
  6 0.000005 -0.000003 -3.713255 0.256720 3.084108 0.056087
  7 18.045725 0.000000 0.000000 0.000000 -0.000000 -0.186014
  8 17.597597 0.000000 0.000000 -0.018073 0.069613 0.225546
  9 3.793090 6.407221 0.000000 0.000000 -0.000000 1.570796
 10 0.935740 0.000000 0.000000 0.000000 -0.000000 0.000000
 11 0.935741 0.000000 0.000000 0.000000 -0.000000 0.000000
 12 1.293670 0.684478 -0.000001 -0.069768 0.000610 0.009520
 13 5.309685 -0.003834 0.000000 0.000000 -0.000000 -0.069778
 14 4.826790 -0.004591 0.000000 -0.078455 -0.002409 -0.031563
 15 5.792767 -0.005304 0.000000 0.000000 -0.000000 0.017444
 16 6.662317 -0.001453 0.000000 0.000000 -0.000001 0.471000
 17 2.046985 -0.000002 0.000000 0.158459 -0.045250 -0.120491
 18 -3.112024 1.517254 4.341911 -0.337296 -1.359258 3.000199
 19 4.827230 0.000000 0.000001 0.536085 1.080481 0.675325
 20 11.139763 0.000000 0.000000 0.000000 -0.000000 -0.286899
 21 10.314597 0.000001 0.000000 -1.570000 -0.000000 -0.069778
 22 2.975834 -0.386307 -0.044143 -0.000797 -0.043611 0.000035
 23 1.438886 0.000000 0.000000 0.000000 -0.000000 0.793659
 24 1.485303 0.000000 0.000000 0.000000 -0.000000 1.465135
 25 -2.869898 1.399663 -4.140396 -0.000013 1.370795 2.669783
 26 4.972048 0.000000 0.000001 -0.104519 -1.226322 0.020256
 27 11.585355 0.000000 0.000000 0.000000 -0.000000 -1.473145
 28 10.127057 0.000000 0.000001 1.683078 -0.000000 -0.069778
 29 2.683750 -0.427338 0.044205 0.001045 0.043611 0.000046
 30 1.438885 -0.000001 0.000000 0.000000 -0.000000 1.037847
 31 1.485305 0.000001 0.000000 0.000000 -0.000000 1.142450
time 9
  0 0.235347 -0.235347 2.790623 -0.000000 -0.000000 -1.571254
  1 0.789087 -0.031251 0.000000 -1.570795 -1.570796 0.000000
  2 -0.000005 0.000007 3.713255 -0.054609 -3.104705 6.050591
  3 18.045721 0.000000 0.000000 0.000000 -0.000000 -0.285640
  4 17.597597 0.000000 0.000000 -0.095495 -0.023307 0.051789
  5 3.793090 6.407221 0.000000 0.000000 -0.000000 1.570796
  6 0.000005 -0.000003 -3.713255 0.256528 3.083437 0.053786
  7 18.045725 0.000000 0.000000 0.000000 -0.000000 -0.191520
  8 17.597597 0.000000 0.000000 -0.018040 0.069633 0.228602
  9 3.793090 6.407221 0.000000 0.000000 -0.000000 1.570796
 10 0.935740 0.000000 0.000000 0.000000 -0.000000 0.000000
 11 0.935741 0.000000 0.000000 0.000000 -0.000000 0.000000
 12 1.293670 0.684478 -0.000001 -0.069768 0.000610 0.009520
 13 5.309685 -0.003834 0.000000 0.000000 -0.000000 -0.069778
 14 4.826790 -0.004591 0.000000 -0.078455 -0.002637 -0.034451
 15 5.792767 -0.005304 0.000000 0.000000 -0.000000 0.017444
 16 6.662317 -0.001453 0.000000 0.000000 -0.000001 0.471000
 17 2.046985 -0.000002 0.000000 0.158459 -0.045250 -0.117795
 18 -3.112024 1.517254 4.341911 -0.365866 -1.357104 3.028003
 19 4.827230 0.000000 0.000001 0.540960 1.073503 0.667449
 20 11.139763 0.000000 0.000000 0.000000 -0.000000 -0.286899
 21 10.314597 0.000001 0.000000 -1.570000 -0.000000 -0.069778
 22 2.975834 -0.386307 -0.044143 -0.000797 -0.043611 0.000035
 23 1.438886 0.000000 0.000000 0.000000 -0.000000 0.793659
 24 1.485303 0.000000 0.000000 0.000000 -0.000000 1.465135
 25 -2.869898 1.399663 -4.140396 -0.000013 1.370795 2.669783
 26 4.972048 0.000000 0.000001 -0.112177 -1.223989 0.027963
 27 11.585355 0.000000 0.000000 0.000000 -0.000000 -1.473145
 28 10.127057 0.000000 0.000001 1.683078 -0.000000 -0.069778
 29 2.683750 -0.427338 0.044205 0.001045 0.043611 0.000046
 30 1.438885 -0.000001 0.000000 0.000000 -0.000000 1.037847
 31 1.485305 0.000001 0.000000 0.000000 -0.000000 1.142450
time 10
  0 0.235347 -0.235347 2.778904 -0.000000 -0.000000 -1.571254
  1 0.792993 -0.031251 0.000000 -1.570795 -1.570796 0.000000
  2 -0.000005 0.000007 3.713255 -0.054609 -3.104513 6.048962
  3 18.045721 0.000000 0.000000 0.000000 -0.000000 -0.289424
  4 17.597597 0.000000 0.000000 -0.095495 -0.023380 0.053802
  5 3.793090 6.407221 0.000000 0.000000 -0.000000 1.570796
  6 0.000005 -0.000003 -3.713255 0.256528 3.082766 0.051580
  7 18.045725 0.000000 0.000000 0.000000 -0.000000 -0.196229
  8 17.597597 0.000000 0.000000 -0.018040 0.069712 0.231212
  9 3.793090 6.407221 0.000000 0.000000 -0.000000 1.570796
 10 0.935740 0.000000 0.000000 0.000000 -0.000000 0.000000
 11 0.935741 0.000000 0.000000 0.000000 -0.000000 0.000000
 12 1.293670 0.684478 -0.000001 -0.069768 0.000610 0.009520
 13 5.309685 -0.003834 0.000000 0.000000 -0.000000 -0.069778
 14 4.826790 -0.004591 0.000000 -0.078439 -0.002780 -0.036965
 15 5.792767 -0.005304 0.000000 0.000000 -0.000000 0.017444
 16 6.662317 -0.001453 0.000000 0.000000 -0.000001 0.471000
 17 2.046985 -0.000002 0.000000 0.158459 -0.045250 -0.115277
 18 -3.112024 1.517254 4.341911 -0.389451 -1.355104 3.051205
 19 4.827230 0.000000 0.000001 0.545189 1.067546 0.660886
 20 11.139763 0.000000 0.000000 0.000000 -0.000000 -0.286899
 21 10.314597 0.000001 0.000000 -1.570000 -0.000000 -0.069778
 22 2.975834 -0.386307 -0.044143 -0.000797 -0.043611 0.000035
 23 1.438886 0.000000 0.000000 0.000000 -0.000000 0.793659
 24 1.485303 0.000000 0.000000 0.000000 -0.000000 1.465135
 25 -2.869898 1.399663 -4.140396 -0.000013 1.370795 2.669783
 26 4.972048 0.000000 0.000001 -0.118443 -1.221978 0.034616
 27 11.585355 0.000000 0.000000 0.000000 -0.000000 -1.473145
 28 10.127057 0.000000 0.000001 1.683078 -0.000000 -0.069778
 29 2.683750 -0.427338 0.044205 0.001045 0.043611 0.000046
 30 1.438885 -0.000001 0.000000 0.000000 -0.000000 1.037847
 31 1.485305 0.000001 0.000000 0.000000 -0.000000 1.142450
time 11
  0 0.235347 -0.235347 2.763278 -0.000000 -0.000000 -1.571254
  1 0.800806 -0.031251 0.000000 -1.570795 -1.570796 0.000000
  2 -0.000005 0.000007 3.713255 -0.054225 -3.104417 6.047523
  3 18.045721 0.000000 0.000000 0.000000 -0.000000 -0.292615
  4 17.597597 0.000000 0.000000 -0.095495 -0.023404 0.055678
  5 3.793090 6.407221 0.000000 0.000000 -0.000000 1.570796
  6 0.000005 -0.000003 -3.713255 0.256528 3.082478 0.050046
  7 18.045725 0.000000 0.000000 0.000000 -0.000000 -0.200141
  8 17.597597 0.000000 0.000000 -0.018040 0.069712 0.233444
  9 3.793090 6.407221 0.000000 0.000000 -0.000000 1.570796
 10 0.935740 0.000000 0.000000 0.000000 -0.000000 0.000000
 11 0.935741 0.000000 0.000000 0.000000 -0.000000 0.000000
 12 1.293670 0.684478 -0.000001 -0.069768 0.000610 0.009520
 13 5.309685 -0.003834 0.000000 0.000000 -0.000000 -0.069778
 14 4.826790 -0.004591 0.000000 -0.078439 -0.002948 -0.038993
 15 5.792767 -0.005304 0.000000 0.000000 -0.000000 0.017444
 16 6.662317 -0.001453 0.000000 0.000000 -0.000001 0.471000
 17 2.046985 -0.000002 0.000000 0.158459 -0.045250 -0.113030
 18 -3.112024 1.517254 4.341911 -0.409105 -1.353335 3.070668
 19 4.827230 0.000000 0.000001 0.548537 1.062440 0.655285
 20 11.139763 0.000000 0.000000 0.000000 -0.000000 -0.286899
 21 10.314597 0.000001 0.000000 -1.570000 -0.000000 -0.069778
 22 2.975834 -0.386307 -0.044143 -0.000797 -0.043611 0.000035
 23 1.438886 0.000000 0.000000 0.000000 -0.000000 0.793659
 24 1.485303 0.000000 0.000000 0.000000 -0.000000 1.465135
 25 -2.869898 1.399663 -4.140396 -0.000013 1.370795 2.669783
 26 4.972048 0.000000 0.000001 -0.123858 -1.220128 0.039952
 27 11.585355 0.000000 0.000000 0.000000 -0.000000 -1.473145
 28 10.127057 0.000000 0.000001 1.683078 -0.000000 -0.069778
 29 2.683750 -0.427338 0.044205 0.001045 0.043611 0.000046
 30 1.438885 -0.000001 0.000000 0.000000 -0.000000 1.037847
 31 1.485305 0.000001 0.000000 0.000000 -0.000000 1.142450
time 12
  0 0.235347 -0.235347 2.759372 -0.000000 -0.000000 -1.571254
  1 0.800806 -0.031251 0.000000 -1.570795 -1.570796 0.000000
  2 -0.000005 0.000007 3.713255 -0.054225 -3.104033 6.046469
  3 18.045721 0.000000 0.000000 0.000000 -0.000000 -0.295361
  4 17.597597 0.000000 0.000000 -0.095495 -0.023453 0.057142
  5 3.793090 6.407221 0.000000 0.000000 -0.000000 1.570796
  6 0.000005 -0.000003 -3.713255 0.256433 3.081999 0.048512
  7 18.045725 0.000000 0.000000 0.000000 -0.000000 -0.203618
  8 17.597597 0.000000 0.000000 -0.018040 0.069771 0.235367
  9 3.793090 6.407221 0.000000 0.000000 -0.000000 1.570796
 10 0.935740 0.000000 0.000000 0.000000 -0.000000 0.000000
 11 0.935741 0.000000 0.000000 0.000000 -0.000000 0.000000
 12 1.293670 0.684478 -0.000001 -0.069768 0.000610 0.009520
 13 5.309685 -0.003834 0.000000 0.000000 -0.000000 -0.069778
 14 4.826790 -0.004591 0.000000 -0.078406 -0.003140 -0.040779
 15 5.792767 -0.005304 0.000000 0.000000 -0.000000 0.017444
 16 6.662317 -0.001453 0.000000 0.000000 -0.000001 0.471000
 17 2.046985 -0.000002 0.000000 0.158459 -0.045250 -0.111232
 18 -3.112024 1.517254 4.341911 -0.425691 -1.351758 3.086871
 19 4.827230 0.000000 0.000001 0.551650 1.057759 0.650472
 20 11.139763 0.000000 0.000000 0.000000 -0.000000 -0.286899
 21 10.314597 0.000001 0.000000 -1.570000 -0.000000 -0.069778
 22 2.975834 -0.386307 -0.044143 -0.000797 -0.043611 0.000035
 23 1.438886 0.000000 0.000000 0.000000 -0.000000 0.793659
 24 1.485303 0.000000 0.000000 0.000000 -0.000000 1.465135
 25 -2.869898 1.399663 -4.140396 -0.000013 1.370795 2.669783
 26 4.972048 0.000000 0.000001 -0.128654 -1.218680 0.044563
 27 11.585355 0.000000 0.000000 0.000000 -0.000000 -1.473145
 28 10.127057 0.000000 0.000001 1.683078 -0.000000 -0.069778
 29 2.683750 -0.427338 0.044205 0.001045 0.043611 0.000046
 30 1.438885 -0.000001 0.000000 0.000000 -0.000000 1.037847
 31 1.485305 0.000001 0.000000 0.000000 -0.000000 1.142450
time 13
  0 0.235347 -0.235347 2.747653 -0.000000 -0.000000 -1.571254
  1 0.812525 -0.031251 0.000000 -1.570795 -1.570796 0.000000
  2 -0.000005 0.000007 3.713255 -0.054129 -3.103938 6.045222
  3 18.045721 0.000000 0.000000 0.000000 -0.000000 -0.297587
  4 17.597597 0.000000 0.000000 -0.095495 -0.023477 0.058423
  5 3.793090 6.407221 0.000000 0.000000 -0.000000 1.570796
  6 0.000005 -0.000003 -3.713255 0.256337 3.081711 0.047266
  7 18.045725 0.000000 0.000000 0.000000 -0.000000 -0.206371
  8 17.597597 0.000000 0.000000 -0.018040 0.069771 0.236947
  9 3.793090 6.407221 0.000000 0.000000 -0.000000 1.570796
 10 0.935740 0.000000 0.000000 0.000000 -0.000000 0.000000
 11 0.935741 0.000000 0.000000 0.000000 -0.000000 0.000000
 12 1.293670 0.684478 -0.000001 -0.069768 0.000610 0.009520
 13 5.309685 -0.003834 0.000000 0.000000 -0.000000 -0.069778
 14 4.826790 -0.004591 0.000000 -0.078406 -0.003248 -0.042190
 15 5.792767 -0.005304 0.000000 0.000000 -0.000000 0.017444
 16 6.662317 -0.001453 0.000000 0.000000 -0.000001 0.471000
 17 2.046985 -0.000002 0.000000 0.158459 -0.045250 -0.110019
 18 -3.112024 1.517254 4.341911 -0.439305 -1.350527 3.099431
 19 4.827230 0.000000 0.000001 0.554058 1.054270 0.646534
 20 11.139763 0.000000 0.000000 0.000000 -0.000000 -0.286899
 21 10.314597 0.000001 0.000000 -1.570000 -0.000000 -0.069778
 22 2.975834 -0.386307 -0.044143 -0.000797 -0.043611 0.000035
 23 1.438886 0.000000 0.000000 0.000000 -0.000000 0.793659
 24 1.485303 0.000000 0.000000 0.000000 -0.000000 1.465135
 25 -2.869898 1.399663 -4.140396 -0.000013 1.370795 2.669783
 26 4.972048 0.000000 0.000001 -0.132367 -1.217393 0.048515
 27 11.585355 0.000000 0.000000 0.000000 -0.000000 -1.473145
 28 10.127057 0.000000 0.000001 1.683078 -0.000000 -0.069778
 29 2.683750 -0.427338 0.044205 0.001045 0.043611 0.000046
 30 1.438885 -0.000001 0.000000 0.000000 -0.000000 1.037847
 31 1.485305 0.000001 0.000000 0.000000 -0.000000 1.142450
time 14
  0 0.235347 -0.235347 2.747653 -0.000000 -0.000000 -1.571254
  1 0.812525 -0.039064 0.000000 -1.570795 -1.570796 0.000000
  2 -0.000005 0.000007 3.713255 -0.054129 -3.103938 6.044743
  3 18.045721 0.000000 0.000000 0.000000 -0.000000 -0.299071
  4 17.597597 0.000000 0.000000 -0.095495 -0.023477 0.059201
  5 3.793090 6.407221 0.000000 0.000000 -0.000000 1.570796
  6 0.000005 -0.000003 -3.713255 0.256337 3.081232 0.046403
  7 18.045725 0.000000 0.000000 0.000000 -0.000000 -0.208327
  8 17.597597 0.000000 0.000000 -0.018040 0.069771 0.237977
  9 3.793090 6.407221 0.000000 0.000000 -0.000000 1.570796
 10 0.935740 0.000000 0.000000 0.000000 -0.000000 0.000000
 11 0.935741 0.000000 0.000000 0.000000 -0.000000 0.000000
 12 1.293670 0.684478 -0.000001 -0.069768 0.000610 0.009520
 13 5.309685 -0.003834 0.000000 0.000000 -0.000000 -0.069778
 14 4.826790 -0.004591 0.000000 -0.078406 -0.003332 -0.043182
 15 5.792767 -0.005304 0.000000 0.000000 -0.000000 0.017444
 16 6.662317 -0.001453 0.000000 0.000000 -0.000001 0.471000
 17 2.046985 -0.000002 0.000000 0.158459 -0.045250 -0.109030
 18 -3.112024 1.517254 4.341911 -0.448317 -1.349604 3.108539
 19 4.827230 0.000000 0.000001 0.555703 1.052228 0.643821
 20 11.139763 0.000000 0.000000 0.000000 -0.000000 -0.286899
 21 10.314597 0.000001 0.000000 -1.570000 -0.000000 -0.069778
 22 2.975834 -0.386307 -0.044143 -0.000797 -0.043611 0.000035
 23 1.438886 0.000000 0.000000 0.000000 -0.000000 0.793659
 24 1.485303 0.000000 0.000000 0.000000 -0.000000 1.465135
 25 -2.869898 1.399663 -4.140396 -0.000013 1.370795 2.669783
 26 4.972048 0.000000 0.000001 -0.135152 -1.216669 0.050821
 27 11.585355 0.000000 0.000000 0.000000 -0.000000 -1.473145
 28 10.127057 0.000000 0.000001 1.683078 -0.000000 -0.069778
 29 2.683750 -0.427338 0.044205 0.001045 0.043611 0.000046
 30 1.438885 -0.000001 0.000000 0.000000 -0.000000 1.037847
 31 1.485305 0.000001 0.000000 0.000000 -0.000000 1.142450
time 15
  0 0.235347 -0.235347 2.747653 -0.000000 -0.000000 -1.571254
  1 0.812525 -0.039064 0.000000 -1.570795 -1.570796 0.000000
  2 -0.000005 0.000007 3.713255 -0.054129 -3.103938 6.044647
  3 18.045721 0.000000 0.000000 0.000000 -0.000000 -0.299665
  4 17.597597 0.000000 0.000000 -0.095495 -0.023477 0.059567
  5 3.793090 6.407221 0.000000 0.000000 -0.000000 1.570796
  6 0.000005 -0.000003 -3.713255 0.256337 3.081232 0.046307
  7 18.045725 0.000000 0.000000 0.000000 -0.000000 -0.208979
  8 17.597597 0.000000 0.000000 -0.018040 0.069771 0.238389
  9 3.793090 6.407221 0.000000 0.000000 -0.000000 1.570796
 10 0.935740 0.000000 0.000000 0.000000 -0.000000 0.000000
 11 0.935741 0.000000 0.000000 0.000000 -0.000000 0.000000
 12 1.293670 0.684478 -0.000001 -0.069768 0.000610 0.009520
 13 5.309685 -0.003834 0.000000 0.000000 -0.000000 -0.069778
 14 4.826790 -0.004591 0.000000 -0.078406 -0.003356 -0.043491
 15 5.792767 -0.005304 0.000000 0.000000 -0.000000 0.017444
 16 6.662317 -0.001453 0.000000 0.000000 -0.000001 0.471000
 17 2.046985 -0.000002 0.000000 0.158459 -0.045250 -0.108535
 18 -3.112024 1.517254 4.341911 -0.451097 -1.349258 3.111032
 19 4.827230 0.000000 0.000001 0.556114 1.051462 0.642946
 20 11.139763 0.000000 0.000000 0.000000 -0.000000 -0.286899
 21 10.314597 0.000001 0.000000 -1.570000 -0.000000 -0.069778
 22 2.975834 -0.386307 -0.044143 -0.000797 -0.043611 0.000035
 23 1.438886 0.000000 0.000000 0.000000 -0.000000 0.793659
 24 1.485303 0.000000 0.000000 0.000000 -0.000000 1.465135
 25 -2.869898 1.399663 -4.140396 -0.000013 1.370795 2.669783
 26 4.972048 0.000000 0.000001 -0.136312 -1.216267 0.051743
 27 11.585355 0.000000 0.000000 0.000000 -0.000000 -1.473145
 28 10.127057 0.000000 0.000001 1.683078 -0.000000 -0.069778
 29 2.683750 -0.427338 0.044205 0.001045 0.043611 0.000046
 30 1.438885 -0.000001 0.000000 0.000000 -0.000000 1.037847
 31 1.485305 0.000001 0.000000 0.000000 -0.000000 1.142450
time 16
  0 0.235347 -0.235347 2.747653 -0.000000 -0.000000 -1.571254
  1 0.812525 -0.039064 0.000000 -1.570795 -1.570796 0.000000
  2 -0.000005 0.000007 3.713255 -0.054129 -3.103938 6.045031
  3 18.045721 0.000000 0.000000 0.000000 -0.000000 -0.298774
  4 17.597597 0.000000 0.000000 -0.095495 -0.023477 0.059018
  5 3.793090 6.407221 0.000000 0.000000 -0.000000 1.570796
  6 0.000005 -0.000003 -3.713255 0.256337 3.081232 0.046595
  7 18.045725 0.000000 0.000000 0.000000 -0.000000 -0.207965
  8 17.597597 0.000000 0.000000 -0.018040 0.069771 0.237771
  9 3.793090 6.407221 0.000000 0.000000 -0.000000 1.570796
 10 0.935740 0.000000 0.000000 0.000000 -0.000000 0.000000
 11 0.935741 0.000000 0.000000 0.000000 -0.000000 0.000000
 12 1.293670 0.684478 -0.000001 -0.069768 0.000610 0.009520
 13 5.309685 -0.003834 0.000000 0.000000 -0.000000 -0.069778
 14 4.826790 -0.004591 0.000000 -0.078406 -0.003308 -0.042940
 15 5.792767 -0.005304 0.000000 0.000000 -0.000000 0.017444
 16 6.662317 -0.001453 0.000000 0.000000 -0.000001 0.471000
 17 2.046985 -0.000002 0.000000 0.158459 -0.045250 -0.109299
 18 -3.112024 1.517254 4.341911 -0.445345 -1.349873 3.105663
 19 4.827230 0.000000 0.000001 0.555174 1.052568 0.644696
 20 11.139763 0.000000 0.000000 0.000000 -0.000000 -0.286899
 21 10.314597 0.000001 0.000000 -1.570000 -0.000000 -0.069778
 22 2.975834 -0.386307 -0.044143 -0.000797 -0.043611 0.000035
 23 1.438886 0.000000 0.000000 0.000000 -0.000000 0.793659
 24 1.485303 0.000000 0.000000 0.000000 -0.000000 1.465135
 25 -2.869898 1.399663 -4.140396 -0.000013 1.370795 2.669783
 26 4.972048 0.000000 0.000001 -0.135229 -1.216830 0.050623
 27 11.585355 0.000000 0.000000 0.000000 -0.000000 -1.473145
 28 10.127057 0.000000 0.000001 1.683078 -0.000000 -0.069778
 29 2.683750 -0.427338 0.044205 0.001045 0.043611 0.000046
 30 1.438885 -0.000001 0.000000 0.000000 -0.000000 1.037847
 31 1.485305 0.000001 0.000000 0.000000 -0.000000 1.142450
time 17
  0 0.235347 -0.235347 2.747653 -0.000000 -0.000000 -1.571254
  1 0.800806 -0.031251 0.000000 -1.570795 -1.570796 0.000000
  2 -0.000005 0.000007 3.713255 -0.054129 -3.103938 6.045798
  3 18.045721 0.000000 0.000000 0.000000 -0.000000 -0.296919
  4 17.597597 0.000000 0.000000 -0.095495 -0.023477 0.058057
  5 3.793090 6.407221 0.000000 0.000000 -0.000000 1.570796
  6 0.000005 -0.000003 -3.713255 0.256337 3.081807 0.047746
  7 18.045725 0.000000 0.000000 0.000000 -0.000000 -0.205719
  8 17.597597 0.000000 0.000000 -0.018040 0.069771 0.236466
  9 3.793090 6.407221 0.000000 0.000000 -0.000000 1.570796
 10 0.935740 0.000000 0.000000 0.000000 -0.000000 0.000000
 11 0.935741 0.000000 0.000000 0.000000 -0.000000 0.000000
 12 1.293670 0.684478 -0.000001 -0.069768 0.000610 0.009520
 13 5.309685 -0.003834 0.000000 0.000000 -0.000000 -0.069778
 14 4.826790 -0.004591 0.000000 -0.078406 -0.003200 -0.041617
 15 5.792767 -0.005304 0.000000 0.000000 -0.000000 0.017444
 16 6.662317 -0.001453 0.000000 0.000000 -0.000001 0.471000
 17 2.046985 -0.000002 0.000000 0.158459 -0.045250 -0.110378
 18 -3.112024 1.517254 4.341911 -0.434032 -1.351027 3.094541
 19 4.827230 0.000000 0.000001 0.553001 1.055717 0.648109
 20 11.139763 0.000000 0.000000 0.000000 -0.000000 -0.286899
 21 10.314597 0.000001 0.000000 -1.570000 -0.000000 -0.069778
 22 2.975834 -0.386307 -0.044143 -0.000797 -0.043611 0.000035
 23 1.438886 0.000000 0.000000 0.000000 -0.000000 0.793659
 24 1.485303 0.000000 0.000000 0.000000 -0.000000 1.465135
 25 -2.869898 1.399663 -4.140396 -0.000013 1.370795 2.669783
 26 4.972048 0.000000 0.000001 -0.132599 -1.217795 0.047527
 27 11.585355 0.000000 0.000000 0.000000 -0.000000 -1.473145
 28 10.127057 0.000000 0.000001 1.683078 -0.000000 -0.069778
 29 2.683750 -0.427338 0.044205 0.001045 0.043611 0.000046
 30 1.438885 -0.000001 0.000000 0.000000 -0.000000 1.037847
 31 1.485305 0.000001 0.000000 0.000000 -0.000000 1.142450
time 18
  0 0.235347 -0.235347 2.759372 -0.000000 -0.000000 -1.571254
  1 0.800806 -0.031251 0.000000 -1.570795 -1.570796 0.000000
  2 -0.000005 0.000007 3.713255 -0.054225 -3.104033 6.046660
  3 18.045721 0.000000 0.000000 0.000000 -0.000000 -0.294544
  4 17.597597 0.000000 0.000000 -0.095495 -0.023404 0.056639
  5 3.793090 6.407221 0.000000 0.000000 -0.000000 1.570796
  6 0.000005 -0.000003 -3.713255 0.256433 3.081999 0.048800
  7 18.045725 0.000000 0.000000 0.000000 -0.000000 -0.202749
  8 17.597597 0.000000 0.000000 -0.018040 0.069751 0.234852
  9 3.793090 6.407221 0.000000 0.000000 -0.000000 1.570796
 10 0.935740 0.000000 0.000000 0.000000 -0.000000 0.000000
 11 0.935741 0.000000 0.000000 0.000000 -0.000000 0.000000
 12 1.293670 0.684478 -0.000001 -0.069768 0.000610 0.009520
 13 5.309685 -0.003834 0.000000 0.000000 -0.000000 -0.069778
 14 4.826790 -0.004591 0.000000 -0.078439 -0.003020 -0.039963
 15 5.792767 -0.005304 0.000000 0.000000 -0.000000 0.017444
 16 6.662317 -0.001453 0.000000 0.000000 -0.000001 0.471000
 17 2.046985 -0.000002 0.000000 0.158459 -0.045250 -0.112041
 18 -3.112024 1.517254 4.341911 -0.418596 -1.352527 3.079297
 19 4.827230 0.000000 0.000001 0.550299 1.060057 0.652397
 20 11.139763 0.000000 0.000000 0.000000 -0.000000 -0.286899
 21 10.314597 0.000001 0.000000 -1.570000 -0.000000 -0.069778
 22 2.975834 -0.386307 -0.044143 -0.000797 -0.043611 0.000035
 23 1.438886 0.000000 0.000000 0.000000 -0.000000 0.793659
 24 1.485303 0.000000 0.000000 0.000000 -0.000000 1.465135
 25 -2.869898 1.399663 -4.140396 -0.000013 1.370795 2.669783
 26 4.972048 0.000000 0.000001 -0.128886 -1.219082 0.043377
 27 11.585355 0.000000 0.000000 0.000000 -0.000000 -1.473145
 28 10.127057 0.000000 0.000001 1.683078 -0.000000 -0.069778
 29 2.683750 -0.427338 0.044205 0.001045 0.043611 0.000046
 30 1.438885 -0.000001 0.000000 0.000000 -0.000000 1.037847
 31 1.485305 0.000001 0.000000 0.000000 -0.000000 1.142450
time 19
  0 0.235347 -0.235347 2.763278 -0.000000 -0.000000 -1.571254
  1 0.792993 -0.031251 0.000000 -1.570795 -1.570796 0.000000
  2 -0.000005 0.000007 3.713255 -0.054225 -3.104417 6.048099
  3 18.045721 0.000000 0.000000 0.000000 -0.000000 -0.291725
  4 17.597597 0.000000 0.000000 -0.095495 -0.023404 0.055129
  5 3.793090 6.407221 0.000000 0.000000 -0.000000 1.570796
  6 0.000005 -0.000003 -3.713255 0.256528 3.082574 0.050238
  7 18.045725 0.000000 0.000000 0.000000 -0.000000 -0.199199
  8 17.597597 0.000000 0.000000 -0.018040 0.069712 0.232826
  9 3.793090 6.407221 0.000000 0.000000 -0.000000 1.570796
 10 0.935740 0.000000 0.000000 0.000000 -0.000000 0.000000
 11 0.935741 0.000000 0.000000 0.000000 -0.000000 0.000000
 12 1.293670 0.684478 -0.000001 -0.069768 0.000610 0.009520
 13 5.309685 -0.003834 0.000000 0.000000 -0.000000 -0.069778
 14 4.826790 -0.004591 0.000000 -0.078439 -0.002876 -0.038045
 15 5.792767 -0.005304 0.000000 0.000000 -0.000000 0.017444
 16 6.662317 -0.001453 0.000000 0.000000 -0.000001 0.471000
 17 2.046985 -0.000002 0.000000 0.158459 -0.045250 -0.113974
 18 -3.112024 1.517254 4.341911 -0.400476 -1.354181 3.061464
 19 4.827230 0.000000 0.000001 0.547010 1.064482 0.657823
 20 11.139763 0.000000 0.000000 0.000000 -0.000000 -0.286899
 21 10.314597 0.000001 0.000000 -1.570000 -0.000000 -0.069778
 22 2.975834 -0.386307 -0.044143 -0.000797 -0.043611 0.000035
 23 1.438886 0.000000 0.000000 0.000000 -0.000000 0.793659
 24 1.485303 0.000000 0.000000 0.000000 -0.000000 1.465135
 25 -2.869898 1.399663 -4.140396 -0.000013 1.370795 2.669783
 26 4.972048 0.000000 0.000001 -0.124786 -1.220691 0.038700
 27 11.585355 0.000000 0.000000 0.000000 -0.000000 -1.473145
 28 10.127057 0.000000 0.000001 1.683078 -0.000000 -0.069778
 29 2.683750 -0.427338 0.044205 0.001045 0.043611 0.000046
 30 1.438885 -0.000001 0.000000 0.000000 -0.000000 1.037847
 31 1.485305 0.000001 0.000000 0.000000 -0.000000 1.142450
time 20
  0 0.235347 -0.235347 2.778904 -0.000000 -0.000000 -1.571254
  1 0.792993 -0.031251 0.000000 -1.570795 -1.570796 0.000000
  2 -0.000005 0.000007 3.713255 -0.054609 -3.104609 6.049153
  3 18.045721 0.000000 0.000000 0.000000 -0.000000 -0.288534
  4 17.597597 0.000000 0.000000 -0.095495 -0.023331 0.053253
  5 3.793090 6.407221 0.000000 0.000000 -0.000000 1.570796
  6 0.000005 -0.000003 -3.713255 0.256528 3.082766 0.052156
  7 18.045725 0.000000 0.000000 0.000000 -0.000000 -0.195287
  8 17.597597 0.000000 0.000000 -0.018040 0.069692 0.230628
  9 3.793090 6.407221 0.000000 0.000000 -0.000000 1.570796
 10 0.935740 0.000000 0.000000 0.000000 -0.000000 0.000000
 11 0.935741 0.000000 0.000000 0.000000 -0.000000 0.000000
 12 1.293670 0.684478 -0.000001 -0.069768 0.000610 0.009520
 13 5.309685 -0.003834 0.000000 0.000000 -0.000000 -0.069778
 14 4.826790 -0.004591 0.000000 -0.078439 -0.002721 -0.035884
 15 5.792767 -0.005304 0.000000 0.000000 -0.000000 0.017444
 16 6.662317 -0.001453 0.000000 0.000000 -0.000001 0.471000
 17 2.046985 -0.000002 0.000000 0.158459 -0.045250 -0.116176
 18 -3.112024 1.517254 4.341911 -0.379576 -1.355912 3.041330
 19 4.827230 0.000000 0.000001 0.543427 1.070099 0.663686
 20 11.139763 0.000000 0.000000 0.000000 -0.000000 -0.286899
 21 10.314597 0.000001 0.000000 -1.570000 -0.000000 -0.069778
 22 2.975834 -0.386307 -0.044143 -0.000797 -0.043611 0.000035
 23 1.438886 0.000000 0.000000 0.000000 -0.000000 0.793659
 24 1.485303 0.000000 0.000000 0.000000 -0.000000 1.465135
 25 -2.869898 1.399663 -4.140396 -0.000013 1.370795 2.669783
 26 4.972048 0.000000 0.000001 -0.119758 -1.222300 0.033101
 27 11.585355 0.000000 0.000000 0.000000 -0.000000 -1.473145
 28 10.127057 0.000000 0.000001 1.683078 -0.000000 -0.069778
 29 2.683750 -0.427338 0.044205 0.001045 0.043611 0.000046
 30 1.438885 -0.000001 0.000000 0.000000 -0.000000 1.037847
 31 1.485305 0.000001 0.000000 0.000000 -0.000000 1.142450
time 21
  0 0.235347 -0.235347 2.790623 -0.000000 -0.000000 -1.571254
  1 0.781274 -0.031251 0.000000 -1.570795 -1.570796 0.000000
  2 -0.000005 0.000007 3.713255 -0.054609 -3.104705 6.051071
  3 18.045721 0.000000 0.000000 0.000000 -0.000000 -0.284972
  4 17.597597 0.000000 0.000000 -0.095495 -0.023307 0.051286
  5 3.793090 6.407221 0.000000 0.000000 -0.000000 1.570796
  6 0.000005 -0.000003 -3.713255 0.256528 3.083533 0.053881
  7 18.045725 0.000000 0.000000 0.000000 -0.000000 -0.190868
  8 17.597597 0.000000 0.000000 -0.018040 0.069633 0.228190
  9 3.793090 6.407221 0.000000 0.000000 -0.000000 1.570796
 10 0.935740 0.000000 0.000000 0.000000 -0.000000 0.000000
 11 0.935741 0.000000 0.000000 0.000000 -0.000000 0.000000
 12 1.293670 0.684478 -0.000001 -0.069768 0.000610 0.009520
 13 5.309685 -0.003834 0.000000 0.000000 -0.000000 -0.069778
 14 4.826790 -0.004591 0.000000 -0.078455 -0.002565 -0.033459
 15 5.792767 -0.005304 0.000000 0.000000 -0.000000 0.017444
 16 6.662317 -0.001453 0.000000 0.000000 -0.000001 0.471000
 17 2.046985 -0.000002 0.000000 0.158459 -0.045250 -0.118738
 18 -3.112024 1.517254 4.341911 -0.356183 -1.357835 3.018224
 19 4.827230 0.000000 0.000001 0.539374 1.076056 0.670162
 20 11.139763 0.000000 0.000000 0.000000 -0.000000 -0.286899
 21 10.314597 0.000001 0.000000 -1.570000 -0.000000 -0.069778
 22 2.975834 -0.386307 -0.044143 -0.000797 -0.043611 0.000035
 23 1.438886 0.000000 0.000000 0.000000 -0.000000 0.793659
 24 1.485303 0.000000 0.000000 0.000000 -0.000000 1.465135
 25 -2.869898 1.399663 -4.140396 -0.000013 1.370795 2.669783
 26 4.972048 0.000000 0.000001 -0.114343 -1.224311 0.026975
 27 11.585355 0.000000 0.000000 0.000000 -0.000000 -1.473145
 28 10.127057 0.000000 0.000001 1.683078 -0.000000 -0.069778
 29 2.683750 -0.427338 0.044205 0.001045 0.043611 0.000046
 30 1.438885 -0.000001 0.000000 0.000000 -0.000000 1.037847
 31 1.485305 0.000001 0.000000 0.000000 -0.000000 1.142450
time 22
  0 0.235347 -0.235347 2.798436 -0.000000 -0.000000 -1.571254
  1 0.769555 -0.031251 0.000000 -1.570795 -1.570796 0.000000
  2 -0.000005 0.000007 3.713255 -0.054609 -3.104705 6.052797
  3 18.045721 0.000000 0.000000 0.000000 -0.000000 -0.281039
  4 17.597597 0.000000 0.000000 -0.095495 -0.023234 0.048998
  5 3.793090 6.407221 0.000000 0.000000 -0.000000 1.570796
  6 0.000005 -0.000003 -3.713255 0.256720 3.084108 0.056087
  7 18.045725 0.000000 0.000000 0.000000 -0.000000 -0.185797
  8 17.597597 0.000000 0.000000 -0.018073 0.069613 0.225374
  9 3.793090 6.407221 0.000000 0.000000 -0.000000 1.570796
 10 0.935740 0.000000 0.000000 0.000000 -0.000000 0.000000
 11 0.935741 0.000000 0.000000 0.000000 -0.000000 0.000000
 12 1.293670 0.684478 -0.000001 -0.069768 0.000610 0.009520
 13 5.309685 -0.003834 0.000000 0.000000 -0.000000 -0.069778
 14 4.826790 -0.004591 0.000000 -0.078455 -0.002349 -0.030703
 15 5.792767 -0.005304 0.000000 0.000000 -0.000000 0.017444
 16 6.662317 -0.001453 0.000000 0.000000 -0.000001 0.471000
 17 2.046985 -0.000002 0.000000 0.158459 -0.045250 -0.121345
 18 -3.112024 1.517254 4.341911 -0.328955 -1.359835 2.991954
 19 4.827230 0.000000 0.000001 0.534734 1.082864 0.677513
 20 11.139763 0.000000 0.000000 0.000000 -0.000000 -0.286899
 21 10.314597 0.000001 0.000000 -1.570000 -0.000000 -0.069778
 22 2.975834 -0.386307 -0.044143 -0.000797 -0.043611 0.000035
 23 1.438886 0.000000 0.000000 0.000000 -0.000000 0.793659
 24 1.485303 0.000000 0.000000 0.000000 -0.000000 1.465135
 25 -2.869898 1.399663 -4.140396 -0.000013 1.370795 2.669783
 26 4.972048 0.000000 0.000001 -0.107845 -1.226483 0.020124
 27 11.585355 0.000000 0.000000 0.000000 -0.000000 -1.473145
 28 10.127057 0.000000 0.000001 1.683078 -0.000000 -0.069778
 29 2.683750 -0.427338 0.044205 0.001045 0.043611 0.000046
 30 1.438885 -0.000001 0.000000 0.000000 -0.000000 1.037847
 31 1.485305 0.000001 0.000000 0.000000 -0.000000 1.142450
time 23
  0 0.235347 -0.235347 2.810155 -0.000000 -0.000000 -1.571254
  1 0.761742 -0.031251 0.000000 -1.570795 -1.570796 0.000000
  2 -0.000005 0.000007 3.713255 -0.054704 -3.105088 6.054618
  3 18.045721 0.000000 0.000000 0.000000 -0.000000 -0.276365
  4 17.597597 0.000000 0.000000 -0.095546 -0.023185 0.046436
  5 3.793090 6.407221 0.000000 0.000000 -0.000000 1.570796
  6 0.000005 -0.000003 -3.713255 0.256816 3.084875 0.058387
  7 18.045725 0.000000 0.000000 0.000000 -0.000000 -0.180001
  8 17.597597 0.000000 0.000000 -0.018073 0.069554 0.222112
  9 3.793090 6.407221 0.000000 0.000000 -0.000000 1.570796
 10 0.935740 0.000000 0.000000 0.000000 -0.000000 0.000000
 11 0.935741 0.000000 0.000000 0.000000 -0.000000 0.000000
 12 1.293670 0.684478 -0.000001 -0.069768 0.000610 0.009520
 13 5.309685 -0.003834 0.000000 0.000000 -0.000000 -0.069778
 14 4.826790 -0.004591 0.000000 -0.078455 -0.002049 -0.027572
 15 5.792767 -0.005304 0.000000 0.000000 -0.000000 0.017444
 16 6.662317 -0.001453 0.000000 0.000000 -0.000001 0.471000
 17 2.046985 -0.000002 0.000000 0.158459 -0.045250 -0.124672
 18 -3.112024 1.517254 4.341911 -0.297221 -1.361989 2.960986
 19 4.827230 0.000000 0.000001 0.529565 1.090438 0.686089
 20 11.139763 0.000000 0.000000 0.000000 -0.000000 -0.286899
 21 10.314597 0.000001 0.000000 -1.570000 -0.000000 -0.069778
 22 2.975834 -0.386307 -0.044143 -0.000797 -0.043611 0.000035
 23 1.438886 0.000000 0.000000 0.000000 -0.000000 0.793659
 24 1.485303 0.000000 0.000000 0.000000 -0.000000 1.465135
 25 -2.869898 1.399663 -4.140396 -0.000013 1.370795 2.669783
 26 4.972048 0.000000 0.000001 -0.100419 -1.228896 0.011824
 27 11.585355 0.000000 0.000000 0.000000 -0.000000 -1.473145
 28 10.127057 0.000000 0.000001 1.683078 -0.000000 -0.069778
 29 2.683750 -0.427338 0.044205 0.001045 0.043611 0.000046
 30 1.438885 -0.000001 0.000000 0.000000 -0.000000 1.037847
 31 1.485305 0.000001 0.000000 0.000000 -0.000000 1.142450
time 24
  0 0.235347 -0.235347 2.825780 -0.000000 -0.000000 -1.571254
  1 0.750023 -0.027345 0.000000 -1.570795 -1.570796 0.000000
  2 -0.000005 0.000007 3.713255 -0.054704 -3.105280 6.057207
  3 18.045721 0.000000 0.000000 0.000000 -0.000000 -0.270948
  4 17.597597 0.000000 0.000000 -0.095546 -0.023112 0.043462
  5 3.793090 6.407221 0.000000 0.000000 -0.000000 1.570796
  6 0.000005 -0.000003 -3.713255 0.257104 3.085642 0.061360
  7 18.045725 0.000000 0.000000 0.000000 -0.000000 -0.173264
  8 17.597597 0.000000 0.000000 -0.018073 0.069495 0.218403
  9 3.793090 6.407221 0.000000 0.000000 -0.000000 1.570796
 10 0.935740 0.000000 0.000000 0.000000 -0.000000 0.000000
 11 0.935741 0.000000 0.000000 0.000000 -0.000000 0.000000
 12 1.293670 0.684478 -0.000001 -0.069768 0.000610 0.009520
 13 5.309685 -0.003834 0.000000 0.000000 -0.000000 -0.069778
 14 4.826790 -0.004591 0.000000 -0.078455 -0.001810 -0.023956
 15 5.792767 -0.005304 0.000000 0.000000 -0.000000 0.017444
 16 6.662317 -0.001453 0.000000 0.000000 -0.000001 0.471000
 17 2.046985 -0.000002 0.000000 0.158459 -0.045250 -0.128177
 18 -3.112024 1.517254 4.341911 -0.260022 -1.364143 2.924553
 19 4.827230 0.000000 0.000001 0.523574 1.099714 0.695715
 20 11.139763 0.000000 0.000000 0.000000 -0.000000 -0.286899
 21 10.314597 0.000001 0.000000 -1.570000 -0.000000 -0.069778
 22 2.975834 -0.386307 -0.044143 -0.000797 -0.043611 0.000035
 23 1.438886 0.000000 0.000000 0.000000 -0.000000 0.793659
 24 1.485303 0.000000 0.000000 0.000000 -0.000000 1.465135
 25 -2.869898 1.399663 -4.140396 -0.000013 1.370795 2.669783
 26 4.972048 0.000000 0.000001 -0.091446 -1.231631 0.002141
 27 11.585355 0.000000 0.000000 0.000000 -0.000000 -1.473145
 28 10.127057 0.000000 0.000001 1.683078 -0.000000 -0.069778
 29 2.683750 -0.427338 0.044205 0.001045 0.043611 0.000046
 30 1.438885 -0.000001 0.000000 0.000000 -0.000000 1.037847
 31 1.485305 0.000001 0.000000 0.000000 -0.000000 1.142450
time 25
  0 0.235347 -0.235347 2.845312 -0.000000 -0.000000 -1.571254
  1 0.738304 -0.027345 0.000000 -1.570795 -1.570796 0.000000
  2 -0.000005 0.000007 3.713255 -0.054704 -3.105376 6.059892
  3 18.045721 0.000000 0.000000 0.000000 -0.000000 -0.264863
  4 17.597597 0.000000 0.000000 -0.095546 -0.022966 0.039985
  5 3.793090 6.407221 0.000000 0.000000 -0.000000 1.570796
  6 0.000005 -0.000003 -3.713255 0.257295 3.086409 0.064523
  7 18.045725 0.000000 0.000000 0.000000 -0.000000 -0.165802
  8 17.597597 0.000000 0.000000 -0.018073 0.069416 0.214145
  9 3.793090 6.407221 0.000000 0.000000 -0.000000 1.570796
 10 0.935740 0.000000 0.000000 0.000000 -0.000000 0.000000
 11 0.935741 0.000000 0.000000 0.000000 -0.000000 0.000000
 12 1.293670 0.684478 -0.000001 -0.069768 0.000610 0.009520
 13 5.309685 -0.003834 0.000000 0.000000 -0.000000 -0.069778
 14 4.826790 -0.004591 0.000000 -0.078455 -0.001438 -0.019811
 15 5.792767 -0.005304 0.000000 0.000000 -0.000000 0.017444
 16 6.662317 -0.001453 0.000000 0.000000 -0.000001 0.471000
 17 2.046985 -0.000002 0.000000 0.158459 -0.045250 -0.132448
 18 -3.112024 1.517254 4.341911 -0.216400 -1.366181 2.881984
 19 4.827230 0.000000 0.000001 0.516702 1.109841 0.706654
 20 11.139763 0.000000 0.000000 0.000000 -0.000000 -0.286899
 21 10.314597 0.000001 0.000000 -1.570000 -0.000000 -0.069778
 22 2.975834 -0.386307 -0.044143 -0.000797 -0.043611 0.000035
 23 1.438886 0.000000 0.000000 0.000000 -0.000000 0.793659
 24 1.485303 0.000000 0.000000 0.000000 -0.000000 1.465135
 25 -2.869898 1.399663 -4.140396 -0.000013 1.370795 2.669783
 26 4.972048 0.000000 0.000001 -0.081235 -1.234929 -0.008794
 27 11.585355 0.000000 0.000000 0.000000 -0.000000 -1.473145
 28 10.127057 0.000000 0.000001 1.683078 -0.000000 -0.069778
 29 2.683750 -0.427338 0.044205 0.001045 0.043611 0.000046
 30 1.438885 -0.000001 0.000000 0.000000 -0.000000 1.037847
 31 1.485305 0.000001 0.000000 0.000000 -0.000000 1.142450
time 26
  0 0.235347 -0.235347 2.853125 -0.000000 -0.000000 -1.571254
  1 0.726585 -0.019532 0.000000 -1.570795 -1.570796 0.000000
  2 -0.000005 0.000007 3.713255 -0.054896 -3.105471 6.062864
  3 18.045721 0.000000 0.000000 0.000000 -0.000000 -0.258036
  4 17.597597 0.000000 0.000000 -0.095546 -0.022893 0.036233
  5 3.793090 6.407221 0.000000 0.000000 -0.000000 1.570796
  6 0.000005 -0.000003 -3.713255 0.257295 3.087271 0.068167
  7 18.045725 0.000000 0.000000 0.000000 -0.000000 -0.157181
  8 17.597597 0.000000 0.000000 -0.018106 0.069337 0.209303
  9 3.793090 6.407221 0.000000 0.000000 -0.000000 1.570796
 10 0.935740 0.000000 0.000000 0.000000 -0.000000 0.000000
 11 0.935741 0.000000 0.000000 0.000000 -0.000000 0.000000
 12 1.293670 0.684478 -0.000001 -0.069768 0.000610 0.009520
 13 5.309685 -0.003834 0.000000 0.000000 -0.000000 -0.069778
 14 4.826790 -0.004591 0.000000 -0.078488 -0.001127 -0.015181
 15 5.792767 -0.005304 0.000000 0.000000 -0.000000 0.017444
 16 6.662317 -0.001453 0.000000 0.000000 -0.000001 0.471000
 17 2.046985 -0.000002 0.000000 0.158459 -0.045250 -0.136942
 18 -3.112024 1.517254 4.341911 -0.166546 -1.368066 2.833279
 19 4.827230 0.000000 0.000001 0.509066 1.121670 0.718993
 20 11.139763 0.000000 0.000000 0.000000 -0.000000 -0.286899
 21 10.314597 0.000001 0.000000 -1.570000 -0.000000 -0.069778
 22 2.975834 -0.386307 -0.044143 -0.000797 -0.043611 0.000035
 23 1.438886 0.000000 0.000000 0.000000 -0.000000 0.793659
 24 1.485303 0.000000 0.000000 0.000000 -0.000000 1.465135
 25 -2.869898 1.399663 -4.140396 -0.000013 1.370795 2.669783
 26 4.972048 0.000000 0.000001 -0.069245 -1.238388 -0.021705
 27 11.585355 0.000000 0.000000 0.000000 -0.000000 -1.473145
 28 10.127057 0.000000 0.000001 1.683078 -0.000000 -0.069778
 29 2.683750 -0.427338 0.044205 0.001045 0.043611 0.000046
 30 1.438885 -0.000001 0.000000 0.000000 -0.000000 1.037847
 31 1.485305 0.000001 0.000000 0.000000 -0.000000 1.142450
time 27
  0 0.235347 -0.235347 2.864844 -0.000000 -0.000000 -1.571254
  1 0.707053 -0.019532 0.000000 -1.570795 -1.570796 0.000000
  2 -0.000005 0.000007 3.713255 -0.054992 -3.106047 6.066028
  3 18.045721 0.000000 0.000000 0.000000 -0.000000 -0.250764
  4 17.597597 0.000000 0.000000 -0.095546 -0.022820 0.032161
  5 3.793090 6.407221 0.000000 0.000000 -0.000000 1.570796
  6 0.000005 -0.000003 -3.713255 0.257487 3.088614 0.072097
  7 18.045725 0.000000 0.000000 0.000000 -0.000000 -0.148053
  8 17.597597 0.000000 0.000000 -0.018106 0.069278 0.204221
  9 3.793090 6.407221 0.000000 0.000000 -0.000000 1.570796
 10 0.935740 0.000000 0.000000 0.000000 -0.000000 0.000000
 11 0.935741 0.000000 0.000000 0.000000 -0.000000 0.000000
 12 1.293670 0.684478 -0.000001 -0.069768 0.000610 0.009520
 13 5.309685 -0.003834 0.000000 0.000000 -0.000000 -0.069778
 14 4.826790 -0.004591 0.000000 -0.078488 -0.000683 -0.010220
 15 5.792767 -0.005304 0.000000 0.000000 -0.000000 0.017444
 16 6.662317 -0.001453 0.000000 0.000000 -0.000001 0.471000
 17 2.046985 -0.000002 0.000000 0.158459 -0.045250 -0.141931
 18 -3.112024 1.517254 4.341911 -0.112857 -1.369566 2.779972
 19 4.827230 0.000000 0.000001 0.500902 1.134265 0.731945
 20 11.139763 0.000000 0.000000 0.000000 -0.000000 -0.286899
 21 10.314597 0.000001 0.000000 -1.570000 -0.000000 -0.069778
 22 2.975834 -0.386307 -0.044143 -0.000797 -0.043611 0.000035
 23 1.438886 0.000000 0.000000 0.000000 -0.000000 0.793659
 24 1.485303 0.000000 0.000000 0.000000 -0.000000 1.465135
 25 -2.869898 1.399663 -4.140396 -0.000013 1.370795 2.669783
 26 4.972048 0.000000 0.000001 -0.056172 -1.242169 -0.035670
 27 11.585355 0.000000 0.000000 0.000000 -0.000000 -1.473145
 28 10.127057 0.000000 0.000001 1.683078 -0.000000 -0.069778
 29 2.683750 -0.427338 0.044205 0.001045 0.043611 0.000046
 30 1.438885 -0.000001 0.000000 0.000000 -0.000000 1.037847
 31 1.485305 0.000001 0.000000 0.000000 -0.000000 1.142450
time 28
  0 0.235347 -0.235347 2.876563 -0.000000 -0.000000 -1.571254
  1 0.695334 -0.019532 0.000000 -1.570795 -1.570796 0.000000
  2 -0.000005 0.000007 3.713255 -0.055376 -3.106143 6.069096
  3 18.045721 0.000000 0.000000 0.000000 -0.000000 -0.243566
  4 17.597597 0.000000 0.000000 -0.095546 -0.022674 0.028089
  5 3.793090 6.407221 0.000000 0.000000 -0.000000 1.570796
  6 0.000005 -0.000003 -3.713255 0.257871 3.089764 0.075837
  7 18.045725 0.000000 0.000000 0.000000 -0.000000 -0.139215
  8 17.597597 0.000000 0.000000 -0.018106 0.069199 0.199207
  9 3.793090 6.407221 0.000000 0.000000 -0.000000 1.570796
 10 0.935740 0.000000 0.000000 0.000000 -0.000000 0.000000
 11 0.935741 0.000000 0.000000 0.000000 -0.000000 0.000000
 12 1.293670 0.684478 -0.000001 -0.069768 0.000610 0.009520
 13 5.309685 -0.003834 0.000000 0.000000 -0.000000 -0.069778
 14 4.826790 -0.004591 0.000000 -0.078488 -0.000360 -0.005458
 15 5.792767 -0.005304 0.000000 0.000000 -0.000000 0.017444
 16 6.662317 -0.001453 0.000000 0.000000 -0.000001 0.471000
 17 2.046985 -0.000002 0.000000 0.158459 -0.045250 -0.146921
 18 -3.112024 1.517254 4.341911 -0.059264 -1.370489 2.728199
 19 4.827230 0.000000 0.000001 0.492855 1.146860 0.744634
 20 11.139763 0.000000 0.000000 0.000000 -0.000000 -0.286899
 21 10.314597 0.000001 0.000000 -1.570000 -0.000000 -0.069778
 22 2.975834 -0.386307 -0.044143 -0.000797 -0.043611 0.000035
 23 1.438886 0.000000 0.000000 0.000000 -0.000000 0.793659
 24 1.485303 0.000000 0.000000 0.000000 -0.000000 1.465135
 25 -2.869898 1.399663 -4.140396 -0.000013 1.370795 2.669783
 26 4.972048 0.000000 0.000001 -0.042867 -1.245628 -0.049635
 27 11.585355 0.000000 0.000000 0.000000 -0.000000 -1.473145
 28 10.127057 0.000000 0.000001 1.683078 -0.000000 -0.069778
 29 2.683750 -0.427338 0.044205 0.001045 0.043611 0.000046
 30 1.438885 -0.000001 0.000000 0.000000 -0.000000 1.037847
 31 1.485305 0.000001 0.000000 0.000000 -0.000000 1.142450
time 29
  0 0.235347 -0.235347 2.884376 -0.000000 -0.000000 -1.571254
  1 0.683615 -0.019532 0.000000 -1.570795 -1.570796 0.000000
  2 -0.000005 0.000007 3.713255 -0.055376 -3.106238 6.071589
  3 18.045721 0.000000 0.000000 0.000000 -0.000000 -0.237778
  4 17.597597 0.000000 0.000000 -0.095546 -0.022625 0.024932
  5 3.793090 6.407221 0.000000 0.000000 -0.000000 1.570796
  6 0.000005 -0.000003 -3.713255 0.258062 3.090627 0.078904
  7 18.045725 0.000000 0.000000 0.000000 -0.000000 -0.132043
  8 17.597597 0.000000 0.000000 -0.018139 0.069140 0.195155
  9 3.793090 6.407221 0.000000 0.000000 -0.000000 1.570796
 10 0.935740 0.000000 0.000000 0.000000 -0.000000 0.000000
 11 0.935741 0.000000 0.000000 0.000000 -0.000000 0.000000
 12 1.293670 0.684478 -0.000001 -0.069768 0.000610 0.009520
 13 5.309685 -0.003834 0.000000 0.000000 -0.000000 -0.069778
 14 4.826790 -0.004591 0.000000 -0.078488 -0.000048 -0.001555
 15 5.792767 -0.005304 0.000000 0.000000 -0.000000 0.017444
 16 6.662317 -0.001453 0.000000 0.000000 -0.000001 0.471000
 17 2.046985 -0.000002 0.000000 0.158459 -0.045250 -0.150606
 18 -3.112024 1.517254 4.341911 -0.016984 -1.370797 2.686397
 19 4.827230 0.000000 0.000001 0.486629 1.156391 0.754698
 20 11.139763 0.000000 0.000000 0.000000 -0.000000 -0.286899
 21 10.314597 0.000001 0.000000 -1.570000 -0.000000 -0.069778
 22 2.975834 -0.386307 -0.044143 -0.000797 -0.043611 0.000035
 23 1.438886 0.000000 0.000000 0.000000 -0.000000 0.793659
 24 1.485303 0.000000 0.000000 0.000000 -0.000000 1.465135
 25 -2.869898 1.399663 -4.140396 -0.000013 1.370795 2.669783
 26 4.972048 0.000000 0.000001 -0.031728 -1.248604 -0.061360
 27 11.585355 0.000000 0.000000 0.000000 -0.000000 -1.473145
 28 10.127057 0.000000 0.000001 1.683078 -0.000000 -0.069778
 29 2.683750 -0.427338 0.044205 0.001045 0.043611 0.000046
 30 1.438885 -0.000001 0.000000 0.000000 -0.000000 1.037847
 31 1.485305 0.000001 0.000000 0.000000 -0.000000 1.142450
time 30
  0 0.235347 -0.235347 2.884376 -0.000000 -0.000000 -1.571254
  1 0.675802 -0.007813 0.000000 -1.570795 -1.570796 0.000000
  2 -0.000005 0.000007 3.713255 -0.055471 -3.106622 6.073123
  3 18.045721 0.000000 0.000000 0.000000 -0.000000 -0.234885
  4 17.597597 0.000000 0.000000 -0.095546 -0.022601 0.023285
  5 3.793090 6.407221 0.000000 0.000000 -0.000000 1.570796
  6 0.000005 -0.000003 -3.713255 0.258062 3.090914 0.080726
  7 18.045725 0.000000 0.000000 0.000000 -0.000000 -0.127551
  8 17.597597 0.000000 0.000000 -0.018139 0.069140 0.192751
  9 3.793090 6.407221 0.000000 0.000000 -0.000000 1.570796
 10 0.935740 0.000000 0.000000 0.000000 -0.000000 0.000000
 11 0.935741 0.000000 0.000000 0.000000 -0.000000 0.000000
 12 1.293670 0.684478 -0.000001 -0.069768 0.000610 0.009520
 13 5.309685 -0.003834 0.000000 0.000000 -0.000000 -0.069778
 14 4.826790 -0.004591 0.000000 -0.078488 0.000060 -0.000056
 15 5.792767 -0.005304 0.000000 0.000000 -0.000000 0.017444
 16 6.662317 -0.001453 0.000000 0.000000 -0.000001 0.471000
 17 2.046985 -0.000002 0.000000 0.158459 -0.045250 -0.152224
 18 -3.112024 1.517254 4.341911 -0.000014 -1.370797 2.669810
 19 4.827230 0.000000 0.000001 0.484103 1.160476 0.758636
 20 11.139763 0.000000 0.000000 0.000000 -0.000000 -0.286899
 21 10.314597 0.000001 0.000000 -1.570000 -0.000000 -0.069778
 22 2.975834 -0.386307 -0.044143 -0.000797 -0.043611 0.000035
 23 1.438886 0.000000 0.000000 0.000000 -0.000000 0.793659
 24 1.485303 0.000000 0.000000 0.000000 -0.000000 1.465135
 25 -2.869898 1.399663 -4.140396 -0.000013 1.370795 2.669783
 26 4.972048 0.000000 0.000001 -0.014710 -1.250776 -0.070780
 27 11.585355 0.000000 0.000000 0.000000 -0.000000 -1.473145
 28 10.127057 0.000000 0.000001 1.683078 -0.000000 -0.069778
 29 2.683750 -0.427338 0.044205 0.001045 0.043611 0.000046
 30 1.438885 -0.000001 0.000000 0.000000 -0.000000 1.037847
 31 1.485305 0.000001 0.000000 0.000000 -0.000000 1.142450
end
