version 1
nodes
  0 "Bip01"  -1
  1 "Bip01 Pelvis"   0
  2 "Bip01 L Leg"   1
  3 "Bip01 L Leg1"   2
  4 "Bip01 L Foot"   3
  5 "Bip01 L Toe0"   4
  6 "Bip01 R Leg"   1
  7 "Bip01 R Leg1"   6
  8 "Bip01 R Foot"   7
  9 "Bip01 R Toe0"   8
 10 "Bip01 R Toe01"   9
 11 "Bip01 R Toe02"  10
 12 "Bip01 Spine"   1
 13 "Bip01 Spine1"  12
 14 "Bip01 Spine2"  13
 15 "Bip01 Spine3"  14
 16 "Bip01 Neck"  15
 17 "Bip01 Head"  16
 18 "Bip01 L Arm"  16
 19 "Bip01 L Arm1"  18
 20 "Bip01 L Arm2"  19
 21 "Bip01 L Hand"  20
 22 "Bip01 L Finger1"  21
 23 "Bip01 L Finger11"  22
 24 "Bip01 L Finger12"  23
 25 "Bip01 R Arm"  16
 26 "Bip01 R Arm1"  25
 27 "Bip01 R Arm2"  26
 28 "Bip01 R Hand"  27
 29 "Bip01 R Finger1"  28
 30 "Bip01 R Finger11"  29
 31 "Bip01 R Finger12"  30
end
skeleton
time 0
  0 0.235347 -0.235347 3.532833 -0.000000 -0.000000 -1.571254
  1 0.000000 0.000000 0.000000 -1.570795 -1.570796 0.000000
  2 -0.000005 0.000007 3.713255 -6.281131 3.115177 6.261712
  3 18.045721 0.000000 0.000000 0.000000 -0.000000 -0.121501
  4 17.597597 0.000000 0.000000 -0.002613 0.026036 0.099967
  5 3.793090 6.407221 0.000000 0.000000 -0.000000 1.570796
  6 0.000005 -0.000003 -3.713255 6.280565 -3.123995 6.258640
  7 18.045725 0.000000 0.000000 0.000000 -0.000000 -0.127551
  8 17.597597 0.000000 0.000000 0.002950 -0.017289 0.103055
  9 3.793090 6.407221 0.000000 0.000000 -0.000000 1.570796
 10 0.935740 0.000000 0.000000 0.000000 -0.000000 0.000000
 11 0.935741 0.000000 0.000000 0.000000 -0.000000 0.000000
 12 1.293670 0.684478 -0.000001 -0.000004 -0.000001 0.245016
 13 5.309685 -0.003834 0.000000 -0.268429 0.032742 0.117663
 14 4.826790 -0.004591 0.000000 -0.265611 0.051114 0.184973
 15 5.792767 -0.005304 0.000000 -0.139511 0.002529 0.017319
 16 6.662317 -0.001453 0.000000 0.000000 -0.000001 0.471000
 17 2.046985 -0.000002 0.000000 0.690318 0.110040 0.032286
 18 -3.112024 1.517254 4.341911 1.141931 -1.117252 1.569728
 19 4.827230 0.000000 0.000001 -0.455561 0.226495 -0.657296
 20 11.139763 0.000000 0.000000 0.000000 -0.000000 -1.503555
 21 10.314597 0.000001 0.000000 -1.397609 -0.399857 -0.103020
 22 2.975834 -0.386307 -0.044143 -0.015658 -0.040759 0.349085
 23 1.438886 0.000000 0.000000 0.000000 -0.000000 0.767545
 24 1.485303 0.000000 0.000000 0.000000 -0.000000 0.531981
 25 -2.869898 1.399663 -4.140396 -0.000013 1.370795 2.669783
 26 4.972048 0.000000 0.000001 0.727354 -0.949766 -1.430059
 27 11.585355 0.000000 0.000000 0.000000 -0.000000 -2.010974
 28 10.127057 0.000000 0.000001 1.727224 -0.048377 1.211324
 29 2.683750 -0.427338 0.044205 -0.005738 0.043239 -0.157060
 30 1.438885 -0.000001 0.000000 0.000000 -0.000000 0.732589
 31 1.485305 0.000001 0.000000 0.000000 -0.000000 1.168627
time 1
  0 0.235347 -0.235347 3.532833 -0.000000 -0.000000 -1.571254
  1 0.000000 0.000000 0.000000 -1.570795 -1.570796 0.000000
  2 -0.000005 0.000007 3.713255 -6.281131 3.115177 6.261712
  3 18.045721 0.000000 0.000000 0.000000 -0.000000 -0.121501
  4 17.597597 0.000000 0.000000 -0.002613 0.026036 0.099967
  5 3.793090 6.407221 0.000000 0.000000 -0.000000 1.570796
  6 0.000005 -0.000003 -3.713255 6.280565 -3.123995 6.258640
  7 18.045725 0.000000 0.000000 0.000000 -0.000000 -0.127551
  8 17.597597 0.000000 0.000000 0.002950 -0.017289 0.103055
  9 3.793090 6.407221 0.000000 0.000000 -0.000000 1.570796
 10 0.935740 0.000000 0.000000 0.000000 -0.000000 0.000000
 11 0.935741 0.000000 0.000000 0.000000 -0.000000 0.000000
 12 1.293670 0.684478 -0.000001 -0.000004 -0.000001 0.245016
 13 5.309685 -0.003834 0.000000 -0.268380 0.033042 0.118714
 14 4.826790 -0.004591 0.000000 -0.265611 0.051114 0.184973
 15 5.792767 -0.005304 0.000000 -0.139495 0.002984 0.020870
 16 6.662317 -0.001453 0.000000 0.000000 -0.000001 0.471000
 17 2.046985 -0.000002 0.000000 0.690490 0.110400 0.027476
 18 -3.112024 1.517254 4.341911 1.135028 -1.115675 1.577495
 19 4.827230 0.000000 0.000001 -0.455150 0.219432 -0.657996
 20 11.139763 0.000000 0.000000 0.000000 -0.000000 -1.503555
 21 10.314597 0.000001 0.000000 -1.397609 -0.399857 -0.103020
 22 2.975834 -0.386307 -0.044143 -0.015658 -0.040759 0.349085
 23 1.438886 0.000000 0.000000 0.000000 -0.000000 0.767545
 24 1.485303 0.000000 0.000000 0.000000 -0.000000 0.531981
 25 -2.869898 1.399663 -4.140396 -0.000013 1.366838 2.669783
 26 4.972048 0.000000 0.000001 0.722403 -0.944859 -1.426963
 27 11.585355 0.000000 0.000000 0.000000 -0.000000 -2.010974
 28 10.127057 0.000000 0.000001 1.727224 -0.047294 1.211520
 29 2.683750 -0.427338 0.044205 -0.005738 0.043239 -0.157060
 30 1.438885 -0.000001 0.000000 0.000000 -0.000000 0.732589
 31 1.485305 0.000001 0.000000 0.000000 -0.000000 1.168627
time 2
  0 0.235347 -0.235347 3.532833 -0.000000 -0.000000 -1.571254
  1 0.000000 0.000000 0.000000 -1.570795 -1.570796 0.000000
  2 -0.000005 0.000007 3.713255 -6.281131 3.115177 6.261712
  3 18.045721 0.000000 0.000000 0.000000 -0.000000 -0.121501
  4 17.597597 0.000000 0.000000 -0.002613 0.026036 0.099967
  5 3.793090 6.407221 0.000000 0.000000 -0.000000 1.570796
  6 0.000005 -0.000003 -3.713255 6.280565 -3.123995 6.258640
  7 18.045725 0.000000 0.000000 0.000000 -0.000000 -0.127551
  8 17.597597 0.000000 0.000000 0.002950 -0.017289 0.103055
  9 3.793090 6.407221 0.000000 0.000000 -0.000000 1.570796
 10 0.935740 0.000000 0.000000 0.000000 -0.000000 0.000000
 11 0.935741 0.000000 0.000000 0.000000 -0.000000 0.000000
 12 1.293670 0.684478 -0.000001 -0.000004 -0.000001 0.245016
 13 5.309685 -0.003834 0.000000 -0.268331 0.033377 0.120144
 14 4.826790 -0.004591 0.000000 -0.265611 0.051114 0.184973
 15 5.792767 -0.005304 0.000000 -0.139478 0.003679 0.025770
 16 6.662317 -0.001453 0.000000 0.000000 -0.000001 0.471000
 17 2.046985 -0.000002 0.000000 0.690921 0.110873 0.021319
 18 -3.112024 1.517254 4.341911 1.126016 -1.113598 1.587561
 19 4.827230 0.000000 0.000001 -0.454504 0.210071 -0.658871
 20 11.139763 0.000000 0.000000 0.000000 -0.000000 -1.503555
 21 10.314597 0.000001 0.000000 -1.397609 -0.399857 -0.103020
 22 2.975834 -0.386307 -0.044143 -0.015658 -0.040759 0.349085
 23 1.438886 0.000000 0.000000 0.000000 -0.000000 0.767545
 24 1.485303 0.000000 0.000000 0.000000 -0.000000 0.531981
 25 -2.869898 1.399663 -4.140396 -0.000013 1.361383 2.669783
 26 4.972048 0.000000 0.000001 0.715673 -0.937941 -1.422879
 27 11.585355 0.000000 0.000000 0.000000 -0.000000 -2.010974
 28 10.127057 0.000000 0.000001 1.727224 -0.045805 1.211677
 29 2.683750 -0.427338 0.044205 -0.005738 0.043239 -0.157060
 30 1.438885 -0.000001 0.000000 0.000000 -0.000000 0.732589
 31 1.485305 0.000001 0.000000 0.000000 -0.000000 1.168627
time 3
  0 0.235347 -0.235347 3.532833 -0.000000 -0.000000 -1.571254
  1 0.000000 0.000000 0.000000 -1.570795 -1.570796 0.000000
  2 -0.000005 0.000007 3.713255 -6.281131 3.115177 6.261712
  3 18.045721 0.000000 0.000000 0.000000 -0.000000 -0.121501
  4 17.597597 0.000000 0.000000 -0.002613 0.026036 0.099967
  5 3.793090 6.407221 0.000000 0.000000 -0.000000 1.570796
  6 0.000005 -0.000003 -3.713255 6.280565 -3.123995 6.258640
  7 18.045725 0.000000 0.000000 0.000000 -0.000000 -0.127551
  8 17.597597 0.000000 0.000000 0.002950 -0.017289 0.103055
  9 3.793090 6.407221 0.000000 0.000000 -0.000000 1.570796
 10 0.935740 0.000000 0.000000 0.000000 -0.000000 0.000000
 11 0.935741 0.000000 0.000000 0.000000 -0.000000 0.000000
 12 1.293670 0.684478 -0.000001 -0.000004 -0.000001 0.245016
 13 5.309685 -0.003834 0.000000 -0.268282 0.033868 0.121900
 14 4.826790 -0.004591 0.000000 -0.265611 0.051114 0.184973
 15 5.792767 -0.005304 0.000000 -0.139462 0.004518 0.031750
 16 6.662317 -0.001453 0.000000 0.000000 -0.000001 0.471000
 17 2.046985 -0.000002 0.000000 0.691352 0.111436 0.013588
 18 -3.112024 1.517254 4.341911 1.114703 -1.110944 1.599929
 19 4.827230 0.000000 0.000001 -0.453799 0.198242 -0.660009
 20 11.139763 0.000000 0.000000 0.000000 -0.000000 -1.503555
 21 10.314597 0.000001 0.000000 -1.397609 -0.399857 -0.103020
 22 2.975834 -0.386307 -0.044143 -0.015658 -0.040759 0.349085
 23 1.438886 0.000000 0.000000 0.000000 -0.000000 0.767545
 24 1.485303 0.000000 0.000000 0.000000 -0.000000 0.531981
 25 -2.869898 1.399663 -4.140396 -0.000013 1.354684 2.669783
 26 4.972048 0.000000 0.000001 0.707783 -0.929736 -1.418202
 27 11.585355 0.000000 0.000000 0.000000 -0.000000 -2.010974
 28 10.127057 0.000000 0.000001 1.727224 -0.043937 1.212030
 29 2.683750 -0.427338 0.044205 -0.005738 0.043239 -0.157060
 30 1.438885 -0.000001 0.000000 0.000000 -0.000000 0.732589
 31 1.485305 0.000001 0.000000 0.000000 -0.000000 1.168627
time 4
  0 0.235347 -0.235347 3.532833 -0.000000 -0.000000 -1.571254
  1 0.000000 0.000000 0.000000 -1.570795 -1.570796 0.000000
  2 -0.000005 0.000007 3.713255 -6.281131 3.115177 6.261712
  3 18.045721 0.000000 0.000000 0.000000 -0.000000 -0.121501
  4 17.597597 0.000000 0.000000 -0.002613 0.026036 0.099967
  5 3.793090 6.407221 0.000000 0.000000 -0.000000 1.570796
  6 0.000005 -0.000003 -3.713255 6.280565 -3.123995 6.258640
  7 18.045725 0.000000 0.000000 0.000000 -0.000000 -0.127551
  8 17.597597 0.000000 0.000000 0.002950 -0.017289 0.103055
  9 3.793090 6.407221 0.000000 0.000000 -0.000000 1.570796
 10 0.935740 0.000000 0.000000 0.000000 -0.000000 0.000000
 11 0.935741 0.000000 0.000000 0.000000 -0.000000 0.000000
 12 1.293670 0.684478 -0.000001 -0.000004 -0.000001 0.245016
 13 5.309685 -0.003834 0.000000 -0.268221 0.034456 0.123892
 14 4.826790 -0.004591 0.000000 -0.265611 0.051114 0.184973
 15 5.792767 -0.005304 0.000000 -0.139429 0.005525 0.038581
 16 6.662317 -0.001453 0.000000 0.000000 -0.000001 0.471000
 17 2.046985 -0.000002 0.000000 0.691869 0.112089 0.004958
 18 -3.112024 1.517254 4.341911 1.102623 -1.107867 1.613832
 19 4.827230 0.000000 0.000001 -0.452918 0.184796 -0.661409
 20 11.139763 0.000000 0.000000 0.000000 -0.000000 -1.503555
 21 10.314597 0.000001 0.000000 -1.397609 -0.399857 -0.103020
 22 2.975834 -0.386307 -0.044143 -0.015658 -0.040759 0.349085
 23 1.438886 0.000000 0.000000 0.000000 -0.000000 0.767545
 24 1.485303 0.000000 0.000000 0.000000 -0.000000 0.531981
 25 -2.869898 1.399663 -4.140396 -0.000013 1.347166 2.669783
 26 4.972048 0.000000 0.000001 0.698810 -0.920244 -1.413064
 27 11.585355 0.000000 0.000000 0.000000 -0.000000 -2.010974
 28 10.127057 0.000000 0.000001 1.727224 -0.041988 1.212383
 29 2.683750 -0.427338 0.044205 -0.005738 0.043239 -0.157060
 30 1.438885 -0.000001 0.000000 0.000000 -0.000000 0.732589
 31 1.485305 0.000001 0.000000 0.000000 -0.000000 1.168627
time 5
  0 0.235347 -0.235347 3.532833 -0.000000 -0.000000 -1.571254
  1 0.000000 0.000000 0.000000 -1.570795 -1.570796 0.000000
  2 -0.000005 0.000007 3.713255 -6.281131 3.115177 6.261712
  3 18.045721 0.000000 0.000000 0.000000 -0.000000 -0.121501
  4 17.597597 0.000000 0.000000 -0.002613 0.026036 0.099967
  5 3.793090 6.407221 0.000000 0.000000 -0.000000 1.570796
  6 0.000005 -0.000003 -3.713255 6.280565 -3.123995 6.258640
  7 18.045725 0.000000 0.000000 0.000000 -0.000000 -0.127551
  8 17.597597 0.000000 0.000000 0.002950 -0.017289 0.103055
  9 3.793090 6.407221 0.000000 0.000000 -0.000000 1.570796
 10 0.935740 0.000000 0.000000 0.000000 -0.000000 0.000000
 11 0.935741 0.000000 0.000000 0.000000 -0.000000 0.000000
 12 1.293670 0.684478 -0.000001 -0.000004 -0.000001 0.245016
 13 5.309685 -0.003834 0.000000 -0.268160 0.035055 0.126065
 14 4.826790 -0.004591 0.000000 -0.265611 0.051114 0.184973
 15 5.792767 -0.005304 0.000000 -0.139380 0.006568 0.046014
 16 6.662317 -0.001453 0.000000 0.000000 -0.000001 0.471000
 17 2.046985 -0.000002 0.000000 0.692386 0.112809 -0.004571
 18 -3.112024 1.517254 4.341911 1.089009 -1.104444 1.628500
 19 4.827230 0.000000 0.000001 -0.451978 0.169818 -0.662984
 20 11.139763 0.000000 0.000000 0.000000 -0.000000 -1.503555
 21 10.314597 0.000001 0.000000 -1.397609 -0.399857 -0.103020
 22 2.975834 -0.386307 -0.044143 -0.015658 -0.040759 0.349085
 23 1.438886 0.000000 0.000000 0.000000 -0.000000 0.767545
 24 1.485303 0.000000 0.000000 0.000000 -0.000000 0.531981
 25 -2.869898 1.399663 -4.140396 -0.000013 1.338828 2.669783
 26 4.972048 0.000000 0.000001 0.689218 -0.909867 -1.407860
 27 11.585355 0.000000 0.000000 0.000000 -0.000000 -2.010974
 28 10.127057 0.000000 0.000001 1.727160 -0.039768 1.212736
 29 2.683750 -0.427338 0.044205 -0.005738 0.043239 -0.157060
 30 1.438885 -0.000001 0.000000 0.000000 -0.000000 0.732589
 31 1.485305 0.000001 0.000000 0.000000 -0.000000 1.168627
time 6
  0 0.235347 -0.235347 3.532833 -0.000000 -0.000000 -1.571254
  1 0.000000 0.000000 0.000000 -1.570795 -1.570796 0.000000
  2 -0.000005 0.000007 3.713255 -6.281131 3.115177 6.261712
  3 18.045721 0.000000 0.000000 0.000000 -0.000000 -0.121501
  4 17.597597 0.000000 0.000000 -0.002613 0.026036 0.099967
  5 3.793090 6.407221 0.000000 0.000000 -0.000000 1.570796
  6 0.000005 -0.000003 -3.713255 6.280565 -3.123995 6.258640
  7 18.045725 0.000000 0.000000 0.000000 -0.000000 -0.127551
  8 17.597597 0.000000 0.000000 0.002950 -0.017289 0.103055
  9 3.793090 6.407221 0.000000 0.000000 -0.000000 1.570796
 10 0.935740 0.000000 0.000000 0.000000 -0.000000 0.000000
 11 0.935741 0.000000 0.000000 0.000000 -0.000000 0.000000
 12 1.293670 0.684478 -0.000001 -0.000004 -0.000001 0.245016
 13 5.309685 -0.003834 0.000000 -0.268074 0.035642 0.128365
 14 4.826790 -0.004591 0.000000 -0.265611 0.051114 0.184973
 15 5.792767 -0.005304 0.000000 -0.139315 0.007622 0.053883
 16 6.662317 -0.001453 0.000000 0.000000 -0.000001 0.471000
 17 2.046985 -0.000002 0.000000 0.692946 0.113574 -0.014774
 18 -3.112024 1.517254 4.341911 1.075395 -1.100713 1.644032
 19 4.827230 0.000000 0.000001 -0.450921 0.154415 -0.664647
 20 11.139763 0.000000 0.000000 0.000000 -0.000000 -1.503555
 21 10.314597 0.000001 0.000000 -1.397609 -0.399857 -0.103020
 22 2.975834 -0.386307 -0.044143 -0.015658 -0.040759 0.349085
 23 1.438886 0.000000 0.000000 0.000000 -0.000000 0.767545
 24 1.485303 0.000000 0.000000 0.000000 -0.000000 0.531981
 25 -2.869898 1.399663 -4.140396 -0.000013 1.330151 2.669783
 26 4.972048 0.000000 0.000001 0.679471 -0.898927 -1.402722
 27 11.585355 0.000000 0.000000 0.000000 -0.000000 -2.010974
 28 10.127057 0.000000 0.000001 1.727160 -0.037413 1.213089
 29 2.683750 -0.427338 0.044205 -0.005738 0.043239 -0.157060
 30 1.438885 -0.000001 0.000000 0.000000 -0.000000 0.732589
 31 1.485305 0.000001 0.000000 0.000000 -0.000000 1.168627
time 7
  0 0.235347 -0.235347 3.532833 -0.000000 -0.000000 -1.571254
  1 0.000000 0.000000 0.000000 -1.570795 -1.570796 0.000000
  2 -0.000005 0.000007 3.713255 -6.281131 3.115177 6.261712
  3 18.045721 0.000000 0.000000 0.000000 -0.000000 -0.121501
  4 17.597597 0.000000 0.000000 -0.002613 0.026036 0.099967
  5 3.793090 6.407221 0.000000 0.000000 -0.000000 1.570796
  6 0.000005 -0.000003 -3.713255 6.280565 -3.123995 6.258640
  7 18.045725 0.000000 0.000000 0.000000 -0.000000 -0.127551
  8 17.597597 0.000000 0.000000 0.002950 -0.017289 0.103055
  9 3.793090 6.407221 0.000000 0.000000 -0.000000 1.570796
 10 0.935740 0.000000 0.000000 0.000000 -0.000000 0.000000
 11 0.935741 0.000000 0.000000 0.000000 -0.000000 0.000000
 12 1.293670 0.684478 -0.000001 -0.000004 -0.000001 0.245016
 13 5.309685 -0.003834 0.000000 -0.267976 0.036277 0.130700
 14 4.826790 -0.004591 0.000000 -0.265611 0.051114 0.184973
 15 5.792767 -0.005304 0.000000 -0.139250 0.008797 0.061856
 16 6.662317 -0.001453 0.000000 0.000000 -0.000001 0.471000
 17 2.046985 -0.000002 0.000000 0.693549 0.114340 -0.024978
 18 -3.112024 1.517254 4.341911 1.061589 -1.096867 1.659468
 19 4.827230 0.000000 0.000001 -0.449805 0.138671 -0.666572
 20 11.139763 0.000000 0.000000 0.000000 -0.000000 -1.503555
 21 10.314597 0.000001 0.000000 -1.397609 -0.399857 -0.103020
 22 2.975834 -0.386307 -0.044143 -0.015658 -0.040759 0.349085
 23 1.438886 0.000000 0.000000 0.000000 -0.000000 0.767545
 24 1.485303 0.000000 0.000000 0.000000 -0.000000 0.531981
 25 -2.869898 1.399663 -4.140396 -0.000013 1.321276 2.669783
 26 4.972048 0.000000 0.000001 0.669647 -0.887746 -1.397913
 27 11.585355 0.000000 0.000000 0.000000 -0.000000 -2.010974
 28 10.127057 0.000000 0.000001 1.727160 -0.034922 1.213403
 29 2.683750 -0.427338 0.044205 -0.005738 0.043239 -0.157060
 30 1.438885 -0.000001 0.000000 0.000000 -0.000000 0.732589
 31 1.485305 0.000001 0.000000 0.000000 -0.000000 1.168627
time 8
  0 0.235347 -0.235347 3.532833 -0.000000 -0.000000 -1.571254
  1 0.000000 0.000000 0.000000 -1.570795 -1.570796 0.000000
  2 -0.000005 0.000007 3.713255 -6.281131 3.115177 6.261712
  3 18.045721 0.000000 0.000000 0.000000 -0.000000 -0.121501
  4 17.597597 0.000000 0.000000 -0.002613 0.026036 0.099967
  5 3.793090 6.407221 0.000000 0.000000 -0.000000 1.570796
  6 0.000005 -0.000003 -3.713255 6.280565 -3.123995 6.258640
  7 18.045725 0.000000 0.000000 0.000000 -0.000000 -0.127551
  8 17.597597 0.000000 0.000000 0.002950 -0.017289 0.103055
  9 3.793090 6.407221 0.000000 0.000000 -0.000000 1.570796
 10 0.935740 0.000000 0.000000 0.000000 -0.000000 0.000000
 11 0.935741 0.000000 0.000000 0.000000 -0.000000 0.000000
 12 1.293670 0.684478 -0.000001 -0.000004 -0.000001 0.245016
 13 5.309685 -0.003834 0.000000 -0.267878 0.036937 0.133000
 14 4.826790 -0.004591 0.000000 -0.265611 0.051114 0.184973
 15 5.792767 -0.005304 0.000000 -0.139185 0.009851 0.069725
 16 6.662317 -0.001453 0.000000 0.000000 -0.000001 0.471000
 17 2.046985 -0.000002 0.000000 0.694109 0.115105 -0.034911
 18 -3.112024 1.517254 4.341911 1.048071 -1.092905 1.674521
 19 4.827230 0.000000 0.000001 -0.448689 0.123098 -0.668410
 20 11.139763 0.000000 0.000000 0.000000 -0.000000 -1.503555
 21 10.314597 0.000001 0.000000 -1.397609 -0.399857 -0.103020
 22 2.975834 -0.386307 -0.044143 -0.015658 -0.040759 0.349085
 23 1.438886 0.000000 0.000000 0.000000 -0.000000 0.767545
 24 1.485303 0.000000 0.000000 0.000000 -0.000000 0.531981
 25 -2.869898 1.399663 -4.140396 -0.000013 1.312486 2.669783
 26 4.972048 0.000000 0.000001 0.660210 -0.876806 -1.393368
 27 11.585355 0.000000 0.000000 0.000000 -0.000000 -2.010974
 28 10.127057 0.000000 0.000001 1.727160 -0.032567 1.213874
 29 2.683750 -0.427338 0.044205 -0.005738 0.043239 -0.157060
 30 1.438885 -0.000001 0.000000 0.000000 -0.000000 0.732589
 31 1.485305 0.000001 0.000000 0.000000 -0.000000 1.168627
time 9
  0 0.235347 -0.235347 3.532833 -0.000000 -0.000000 -1.571254
  1 0.000000 0.000000 0.000000 -1.570795 -1.570796 0.000000
  2 -0.000005 0.000007 3.713255 -6.281131 3.115177 6.261712
  3 18.045721 0.000000 0.000000 0.000000 -0.000000 -0.121501
  4 17.597597 0.000000 0.000000 -0.002613 0.026036 0.099967
  5 3.793090 6.407221 0.000000 0.000000 -0.000000 1.570796
  6 0.000005 -0.000003 -3.713255 6.280565 -3.123995 6.258640
  7 18.045725 0.000000 0.000000 0.000000 -0.000000 -0.127551
  8 17.597597 0.000000 0.000000 0.002950 -0.017289 0.103055
  9 3.793090 6.407221 0.000000 0.000000 -0.000000 1.570796
 10 0.935740 0.000000 0.000000 0.000000 -0.000000 0.000000
 11 0.935741 0.000000 0.000000 0.000000 -0.000000 0.000000
 12 1.293670 0.684478 -0.000001 -0.000004 -0.000001 0.245016
 13 5.309685 -0.003834 0.000000 -0.267817 0.037572 0.135227
 14 4.826790 -0.004591 0.000000 -0.265611 0.051114 0.184973
 15 5.792767 -0.005304 0.000000 -0.139103 0.010966 0.077345
 16 6.662317 -0.001453 0.000000 0.000000 -0.000001 0.471000
 17 2.046985 -0.000002 0.000000 0.694669 0.115848 -0.044800
 18 -3.112024 1.517254 4.341911 1.035416 -1.089059 1.688902
 19 4.827230 0.000000 0.000001 -0.447573 0.108205 -0.670335
 20 11.139763 0.000000 0.000000 0.000000 -0.000000 -1.503555
 21 10.314597 0.000001 0.000000 -1.397609 -0.399857 -0.103020
 22 2.975834 -0.386307 -0.044143 -0.015658 -0.040759 0.349085
 23 1.438886 0.000000 0.000000 0.000000 -0.000000 0.767545
 24 1.485303 0.000000 0.000000 0.000000 -0.000000 0.531981
 25 -2.869898 1.399663 -4.140396 -0.000013 1.304035 2.669783
 26 4.972048 0.000000 0.000001 0.651314 -0.866107 -1.389218
 27 11.585355 0.000000 0.000000 0.000000 -0.000000 -2.010974
 28 10.127057 0.000000 0.000001 1.726969 -0.030293 1.214266
 29 2.683750 -0.427338 0.044205 -0.005738 0.043239 -0.157060
 30 1.438885 -0.000001 0.000000 0.000000 -0.000000 0.732589
 31 1.485305 0.000001 0.000000 0.000000 -0.000000 1.168627
time 10
  0 0.235347 -0.235347 3.532833 -0.000000 -0.000000 -1.571254
  1 0.000000 0.000000 0.000000 -1.570795 -1.570796 0.000000
  2 -0.000005 0.000007 3.713255 -6.281131 3.115177 6.261712
  3 18.045721 0.000000 0.000000 0.000000 -0.000000 -0.121501
  4 17.597597 0.000000 0.000000 -0.002613 0.026036 0.099967
  5 3.793090 6.407221 0.000000 0.000000 -0.000000 1.570796
  6 0.000005 -0.000003 -3.713255 6.280565 -3.123995 6.258640
  7 18.045725 0.000000 0.000000 0.000000 -0.000000 -0.127551
  8 17.597597 0.000000 0.000000 0.002950 -0.017289 0.103055
  9 3.793090 6.407221 0.000000 0.000000 -0.000000 1.570796
 10 0.935740 0.000000 0.000000 0.000000 -0.000000 0.000000
 11 0.935741 0.000000 0.000000 0.000000 -0.000000 0.000000
 12 1.293670 0.684478 -0.000001 -0.000004 -0.000001 0.245016
 13 5.309685 -0.003834 0.000000 -0.267719 0.038135 0.137291
 14 4.826790 -0.004591 0.000000 -0.265611 0.051114 0.184973
 15 5.792767 -0.005304 0.000000 -0.139022 0.011949 0.084425
 16 6.662317 -0.001453 0.000000 0.000000 -0.000001 0.471000
 17 2.046985 -0.000002 0.000000 0.695143 0.116524 -0.053699
 18 -3.112024 1.517254 4.341911 1.023335 -1.085328 1.702037
 19 4.827230 0.000000 0.000001 -0.446457 0.094334 -0.672173
 20 11.139763 0.000000 0.000000 0.000000 -0.000000 -1.503555
 21 10.314597 0.000001 0.000000 -1.397609 -0.399857 -0.103020
 22 2.975834 -0.386307 -0.044143 -0.015658 -0.040759 0.349085
 23 1.438886 0.000000 0.000000 0.000000 -0.000000 0.767545
 24 1.485303 0.000000 0.000000 0.000000 -0.000000 0.531981
 25 -2.869898 1.399663 -4.140396 -0.000013 1.296234 2.669783
 26 4.972048 0.000000 0.000001 0.643192 -0.856213 -1.385661
 27 11.585355 0.000000 0.000000 0.000000 -0.000000 -2.010974
 28 10.127057 0.000000 0.000001 1.726969 -0.028290 1.214580
 29 2.683750 -0.427338 0.044205 -0.005738 0.043239 -0.157060
 30 1.438885 -0.000001 0.000000 0.000000 -0.000000 0.732589
 31 1.485305 0.000001 0.000000 0.000000 -0.000000 1.168627
time 11
  0 0.235347 -0.235347 3.532833 -0.000000 -0.000000 -1.571254
  1 0.000000 0.000000 0.000000 -1.570795 -1.570796 0.000000
  2 -0.000005 0.000007 3.713255 -6.281131 3.115177 6.261712
  3 18.045721 0.000000 0.000000 0.000000 -0.000000 -0.121501
  4 17.597597 0.000000 0.000000 -0.002613 0.026036 0.099967
  5 3.793090 6.407221 0.000000 0.000000 -0.000000 1.570796
  6 0.000005 -0.000003 -3.713255 6.280565 -3.123995 6.258640
  7 18.045725 0.000000 0.000000 0.000000 -0.000000 -0.127551
  8 17.597597 0.000000 0.000000 0.002950 -0.017289 0.103055
  9 3.793090 6.407221 0.000000 0.000000 -0.000000 1.570796
 10 0.935740 0.000000 0.000000 0.000000 -0.000000 0.000000
 11 0.935741 0.000000 0.000000 0.000000 -0.000000 0.000000
 12 1.293670 0.684478 -0.000001 -0.000004 -0.000001 0.245016
 13 5.309685 -0.003834 0.000000 -0.267670 0.038590 0.139138
 14 4.826790 -0.004591 0.000000 -0.265611 0.051114 0.184973
 15 5.792767 -0.005304 0.000000 -0.138940 0.012824 0.090737
 16 6.662317 -0.001453 0.000000 0.000000 -0.000001 0.471000
 17 2.046985 -0.000002 0.000000 0.695617 0.117131 -0.061925
 18 -3.112024 1.517254 4.341911 1.013461 -1.082059 1.713638
 19 4.827230 0.000000 0.000001 -0.445517 0.081994 -0.673748
 20 11.139763 0.000000 0.000000 0.000000 -0.000000 -1.503555
 21 10.314597 0.000001 0.000000 -1.397609 -0.399857 -0.103020
 22 2.975834 -0.386307 -0.044143 -0.015658 -0.040759 0.349085
 23 1.438886 0.000000 0.000000 0.000000 -0.000000 0.767545
 24 1.485303 0.000000 0.000000 0.000000 -0.000000 0.531981
 25 -2.869898 1.399663 -4.140396 -0.000013 1.289196 2.669783
 26 4.972048 0.000000 0.000001 0.635998 -0.847445 -1.382565
 27 11.585355 0.000000 0.000000 0.000000 -0.000000 -2.010974
 28 10.127057 0.000000 0.000001 1.726969 -0.026395 1.214815
 29 2.683750 -0.427338 0.044205 -0.005738 0.043239 -0.157060
 30 1.438885 -0.000001 0.000000 0.000000 -0.000000 0.732589
 31 1.485305 0.000001 0.000000 0.000000 -0.000000 1.168627
time 12
  0 0.235347 -0.235347 3.532833 -0.000000 -0.000000 -1.571254
  1 0.000000 0.000000 0.000000 -1.570795 -1.570796 0.000000
  2 -0.000005 0.000007 3.713255 -6.281131 3.115177 6.261712
  3 18.045721 0.000000 0.000000 0.000000 -0.000000 -0.121501
  4 17.597597 0.000000 0.000000 -0.002613 0.026036 0.099967
  5 3.793090 6.407221 0.000000 0.000000 -0.000000 1.570796
  6 0.000005 -0.000003 -3.713255 6.280565 -3.123995 6.258640
  7 18.045725 0.000000 0.000000 0.000000 -0.000000 -0.127551
  8 17.597597 0.000000 0.000000 0.002950 -0.017289 0.103055
  9 3.793090 6.407221 0.000000 0.000000 -0.000000 1.570796
 10 0.935740 0.000000 0.000000 0.000000 -0.000000 0.000000
 11 0.935741 0.000000 0.000000 0.000000 -0.000000 0.000000
 12 1.293670 0.684478 -0.000001 -0.000004 -0.000001 0.245016
 13 5.309685 -0.003834 0.000000 -0.267609 0.039070 0.140677
 14 4.826790 -0.004591 0.000000 -0.265611 0.051114 0.184973
 15 5.792767 -0.005304 0.000000 -0.138875 0.013579 0.095990
 16 6.662317 -0.001453 0.000000 0.000000 -0.000001 0.471000
 17 2.046985 -0.000002 0.000000 0.696005 0.117649 -0.068712
 18 -3.112024 1.517254 4.341911 1.005024 -1.079174 1.723226
 19 4.827230 0.000000 0.000001 -0.444636 0.071612 -0.675236
 20 11.139763 0.000000 0.000000 0.000000 -0.000000 -1.503555
 21 10.314597 0.000001 0.000000 -1.397609 -0.399857 -0.103020
 22 2.975834 -0.386307 -0.044143 -0.015658 -0.040759 0.349085
 23 1.438886 0.000000 0.000000 0.000000 -0.000000 0.767545
 24 1.485303 0.000000 0.000000 0.000000 -0.000000 0.531981
 25 -2.869898 1.399663 -4.140396 -0.000013 1.283374 2.669783
 26 4.972048 0.000000 0.000001 0.630119 -0.840205 -1.380259
 27 11.585355 0.000000 0.000000 0.000000 -0.000000 -2.010974
 28 10.127057 0.000000 0.000001 1.726969 -0.024825 1.215129
 29 2.683750 -0.427338 0.044205 -0.005738 0.043239 -0.157060
 30 1.438885 -0.000001 0.000000 0.000000 -0.000000 0.732589
 31 1.485305 0.000001 0.000000 0.000000 -0.000000 1.168627
time 13
  0 0.235347 -0.235347 3.532833 -0.000000 -0.000000 -1.571254
  1 0.000000 0.000000 0.000000 -1.570795 -1.570796 0.000000
  2 -0.000005 0.000007 3.713255 -6.281131 3.115177 6.261712
  3 18.045721 0.000000 0.000000 0.000000 -0.000000 -0.121501
  4 17.597597 0.000000 0.000000 -0.002613 0.026036 0.099967
  5 3.793090 6.407221 0.000000 0.000000 -0.000000 1.570796
  6 0.000005 -0.000003 -3.713255 6.280565 -3.123995 6.258640
  7 18.045725 0.000000 0.000000 0.000000 -0.000000 -0.127551
  8 17.597597 0.000000 0.000000 0.002950 -0.017289 0.103055
  9 3.793090 6.407221 0.000000 0.000000 -0.000000 1.570796
 10 0.935740 0.000000 0.000000 0.000000 -0.000000 0.000000
 11 0.935741 0.000000 0.000000 0.000000 -0.000000 0.000000
 12 1.293670 0.684478 -0.000001 -0.000004 -0.000001 0.245016
 13 5.309685 -0.003834 0.000000 -0.267572 0.039345 0.141872
 14 4.826790 -0.004591 0.000000 -0.265611 0.051114 0.184973
 15 5.792767 -0.005304 0.000000 -0.138810 0.014142 0.100101
 16 6.662317 -0.001453 0.000000 0.000000 -0.000001 0.471000
 17 2.046985 -0.000002 0.000000 0.696220 0.118054 -0.073881
 18 -3.112024 1.517254 4.341911 0.998313 -1.076982 1.730608
 19 4.827230 0.000000 0.000001 -0.443990 0.063953 -0.676286
 20 11.139763 0.000000 0.000000 0.000000 -0.000000 -1.503555
 21 10.314597 0.000001 0.000000 -1.397609 -0.399857 -0.103020
 22 2.975834 -0.386307 -0.044143 -0.015658 -0.040759 0.349085
 23 1.438886 0.000000 0.000000 0.000000 -0.000000 0.767545
 24 1.485303 0.000000 0.000000 0.000000 -0.000000 0.531981
 25 -2.869898 1.399663 -4.140396 -0.000013 1.278795 2.669783
 26 4.972048 0.000000 0.000001 0.625555 -0.834494 -1.378415
 27 11.585355 0.000000 0.000000 0.000000 -0.000000 -2.010974
 28 10.127057 0.000000 0.000001 1.726969 -0.023498 1.215325
 29 2.683750 -0.427338 0.044205 -0.005738 0.043239 -0.157060
 30 1.438885 -0.000001 0.000000 0.000000 -0.000000 0.732589
 31 1.485305 0.000001 0.000000 0.000000 -0.000000 1.168627
time 14
  0 0.235347 -0.235347 3.532833 -0.000000 -0.000000 -1.571254
  1 0.000000 0.000000 0.000000 -1.570795 -1.570796 0.000000
  2 -0.000005 0.000007 3.713255 -6.281131 3.115177 6.261712
  3 18.045721 0.000000 0.000000 0.000000 -0.000000 -0.121501
  4 17.597597 0.000000 0.000000 -0.002613 0.026036 0.099967
  5 3.793090 6.407221 0.000000 0.000000 -0.000000 1.570796
  6 0.000005 -0.000003 -3.713255 6.280565 -3.123995 6.258640
  7 18.045725 0.000000 0.000000 0.000000 -0.000000 -0.127551
  8 17.597597 0.000000 0.000000 0.002950 -0.017289 0.103055
  9 3.793090 6.407221 0.000000 0.000000 -0.000000 1.570796
 10 0.935740 0.000000 0.000000 0.000000 -0.000000 0.000000
 11 0.935741 0.000000 0.000000 0.000000 -0.000000 0.000000
 12 1.293670 0.684478 -0.000001 -0.000004 -0.000001 0.245016
 13 5.309685 -0.003834 0.000000 -0.267523 0.039549 0.142633
 14 4.826790 -0.004591 0.000000 -0.265611 0.051114 0.184973
 15 5.792767 -0.005304 0.000000 -0.138777 0.014465 0.102717
 16 6.662317 -0.001453 0.000000 0.000000 -0.000001 0.471000
 17 2.046985 -0.000002 0.000000 0.696306 0.118302 -0.077252
 18 -3.112024 1.517254 4.341911 0.994478 -1.075520 1.735306
 19 4.827230 0.000000 0.000001 -0.443520 0.058847 -0.677161
 20 11.139763 0.000000 0.000000 0.000000 -0.000000 -1.503555
 21 10.314597 0.000001 0.000000 -1.397609 -0.399857 -0.103020
 22 2.975834 -0.386307 -0.044143 -0.015658 -0.040759 0.349085
 23 1.438886 0.000000 0.000000 0.000000 -0.000000 0.767545
 24 1.485303 0.000000 0.000000 0.000000 -0.000000 0.531981
 25 -2.869898 1.399663 -4.140396 -0.000013 1.275884 2.669783
 26 4.972048 0.000000 0.000001 0.622693 -0.830874 -1.377427
 27 11.585355 0.000000 0.000000 0.000000 -0.000000 -2.010974
 28 10.127057 0.000000 0.000001 1.726969 -0.022713 1.215443
 29 2.683750 -0.427338 0.044205 -0.005738 0.043239 -0.157060
 30 1.438885 -0.000001 0.000000 0.000000 -0.000000 0.732589
 31 1.485305 0.000001 0.000000 0.000000 -0.000000 1.168627
time 15
  0 0.235347 -0.235347 3.532833 -0.000000 -0.000000 -1.571254
  1 0.000000 0.000000 0.000000 -1.570795 -1.570796 0.000000
  2 -0.000005 0.000007 3.713255 -6.281131 3.115177 6.261712
  3 18.045721 0.000000 0.000000 0.000000 -0.000000 -0.121501
  4 17.597597 0.000000 0.000000 -0.002613 0.026036 0.099967
  5 3.793090 6.407221 0.000000 0.000000 -0.000000 1.570796
  6 0.000005 -0.000003 -3.713255 6.280565 -3.123995 6.258640
  7 18.045725 0.000000 0.000000 0.000000 -0.000000 -0.127551
  8 17.597597 0.000000 0.000000 0.002950 -0.017289 0.103055
  9 3.793090 6.407221 0.000000 0.000000 -0.000000 1.570796
 10 0.935740 0.000000 0.000000 0.000000 -0.000000 0.000000
 11 0.935741 0.000000 0.000000 0.000000 -0.000000 0.000000
 12 1.293670 0.684478 -0.000001 -0.000004 -0.000001 0.245016
 13 5.309685 -0.003834 0.000000 -0.267523 0.039681 0.142904
 14 4.826790 -0.004591 0.000000 -0.265611 0.051114 0.184973
 15 5.792767 -0.005304 0.000000 -0.138761 0.014585 0.103610
 16 6.662317 -0.001453 0.000000 0.000000 -0.000001 0.471000
 17 2.046985 -0.000002 0.000000 0.696522 0.118392 -0.078330
 18 -3.112024 1.517254 4.341911 0.993040 -1.075020 1.736840
 19 4.827230 0.000000 0.000001 -0.443344 0.056719 -0.677336
 20 11.139763 0.000000 0.000000 0.000000 -0.000000 -1.503555
 21 10.314597 0.000001 0.000000 -1.397609 -0.399857 -0.103020
 22 2.975834 -0.386307 -0.044143 -0.015658 -0.040759 0.349085
 23 1.438886 0.000000 0.000000 0.000000 -0.000000 0.767545
 24 1.485303 0.000000 0.000000 0.000000 -0.000000 0.531981
 25 -2.869898 1.399663 -4.140396 -0.000013 1.274923 2.669783
 26 4.972048 0.000000 0.000001 0.621610 -0.829587 -1.376834
 27 11.585355 0.000000 0.000000 0.000000 -0.000000 -2.010974
 28 10.127057 0.000000 0.000001 1.726969 -0.022551 1.215521
 29 2.683750 -0.427338 0.044205 -0.005738 0.043239 -0.157060
 30 1.438885 -0.000001 0.000000 0.000000 -0.000000 0.732589
 31 1.485305 0.000001 0.000000 0.000000 -0.000000 1.168627
time 16
  0 0.235347 -0.235347 3.532833 -0.000000 -0.000000 -1.571254
  1 0.000000 0.000000 0.000000 -1.570795 -1.570796 0.000000
  2 -0.000005 0.000007 3.713255 -6.281131 3.115177 6.261712
  3 18.045721 0.000000 0.000000 0.000000 -0.000000 -0.121501
  4 17.597597 0.000000 0.000000 -0.002613 0.026036 0.099967
  5 3.793090 6.407221 0.000000 0.000000 -0.000000 1.570796
  6 0.000005 -0.000003 -3.713255 6.280565 -3.123995 6.258640
  7 18.045725 0.000000 0.000000 0.000000 -0.000000 -0.127551
  8 17.597597 0.000000 0.000000 0.002950 -0.017289 0.103055
  9 3.793090 6.407221 0.000000 0.000000 -0.000000 1.570796
 10 0.935740 0.000000 0.000000 0.000000 -0.000000 0.000000
 11 0.935741 0.000000 0.000000 0.000000 -0.000000 0.000000
 12 1.293670 0.684478 -0.000001 -0.000004 -0.000001 0.245016
 13 5.309685 -0.003834 0.000000 -0.267523 0.039549 0.142633
 14 4.826790 -0.004591 0.000000 -0.265611 0.051114 0.184973
 15 5.792767 -0.005304 0.000000 -0.138777 0.014465 0.102717
 16 6.662317 -0.001453 0.000000 0.000000 -0.000001 0.471000
 17 2.046985 -0.000002 0.000000 0.696306 0.118302 -0.077252
 18 -3.112024 1.517254 4.341911 0.994478 -1.075520 1.735306
 19 4.827230 0.000000 0.000001 -0.443520 0.058847 -0.677161
 20 11.139763 0.000000 0.000000 0.000000 -0.000000 -1.503555
 21 10.314597 0.000001 0.000000 -1.397609 -0.399857 -0.103020
 22 2.975834 -0.386307 -0.044143 -0.015658 -0.040759 0.349085
 23 1.438886 0.000000 0.000000 0.000000 -0.000000 0.767545
 24 1.485303 0.000000 0.000000 0.000000 -0.000000 0.531981
 25 -2.869898 1.399663 -4.140396 -0.000013 1.275884 2.669783
 26 4.972048 0.000000 0.000001 0.622693 -0.830874 -1.377427
 27 11.585355 0.000000 0.000000 0.000000 -0.000000 -2.010974
 28 10.127057 0.000000 0.000001 1.726969 -0.022713 1.215443
 29 2.683750 -0.427338 0.044205 -0.005738 0.043239 -0.157060
 30 1.438885 -0.000001 0.000000 0.000000 -0.000000 0.732589
 31 1.485305 0.000001 0.000000 0.000000 -0.000000 1.168627
time 17
  0 0.235347 -0.235347 3.532833 -0.000000 -0.000000 -1.571254
  1 0.000000 0.000000 0.000000 -1.570795 -1.570796 0.000000
  2 -0.000005 0.000007 3.713255 -6.281131 3.115177 6.261712
  3 18.045721 0.000000 0.000000 0.000000 -0.000000 -0.121501
  4 17.597597 0.000000 0.000000 -0.002613 0.026036 0.099967
  5 3.793090 6.407221 0.000000 0.000000 -0.000000 1.570796
  6 0.000005 -0.000003 -3.713255 6.280565 -3.123995 6.258640
  7 18.045725 0.000000 0.000000 0.000000 -0.000000 -0.127551
  8 17.597597 0.000000 0.000000 0.002950 -0.017289 0.103055
  9 3.793090 6.407221 0.000000 0.000000 -0.000000 1.570796
 10 0.935740 0.000000 0.000000 0.000000 -0.000000 0.000000
 11 0.935741 0.000000 0.000000 0.000000 -0.000000 0.000000
 12 1.293670 0.684478 -0.000001 -0.000004 -0.000001 0.245016
 13 5.309685 -0.003834 0.000000 -0.267572 0.039345 0.141872
 14 4.826790 -0.004591 0.000000 -0.265611 0.051114 0.184973
 15 5.792767 -0.005304 0.000000 -0.138810 0.014142 0.100101
 16 6.662317 -0.001453 0.000000 0.000000 -0.000001 0.471000
 17 2.046985 -0.000002 0.000000 0.696220 0.118054 -0.073881
 18 -3.112024 1.517254 4.341911 0.998313 -1.076982 1.730608
 19 4.827230 0.000000 0.000001 -0.443990 0.063953 -0.676286
 20 11.139763 0.000000 0.000000 0.000000 -0.000000 -1.503555
 21 10.314597 0.000001 0.000000 -1.397609 -0.399857 -0.103020
 22 2.975834 -0.386307 -0.044143 -0.015658 -0.040759 0.349085
 23 1.438886 0.000000 0.000000 0.000000 -0.000000 0.767545
 24 1.485303 0.000000 0.000000 0.000000 -0.000000 0.531981
 25 -2.869898 1.399663 -4.140396 -0.000013 1.278795 2.669783
 26 4.972048 0.000000 0.000001 0.625555 -0.834494 -1.378415
 27 11.585355 0.000000 0.000000 0.000000 -0.000000 -2.010974
 28 10.127057 0.000000 0.000001 1.726969 -0.023498 1.215325
 29 2.683750 -0.427338 0.044205 -0.005738 0.043239 -0.157060
 30 1.438885 -0.000001 0.000000 0.000000 -0.000000 0.732589
 31 1.485305 0.000001 0.000000 0.000000 -0.000000 1.168627
time 18
  0 0.235347 -0.235347 3.532833 -0.000000 -0.000000 -1.571254
  1 0.000000 0.000000 0.000000 -1.570795 -1.570796 0.000000
  2 -0.000005 0.000007 3.713255 -6.281131 3.115177 6.261712
  3 18.045721 0.000000 0.000000 0.000000 -0.000000 -0.121501
  4 17.597597 0.000000 0.000000 -0.002613 0.026036 0.099967
  5 3.793090 6.407221 0.000000 0.000000 -0.000000 1.570796
  6 0.000005 -0.000003 -3.713255 6.280565 -3.123995 6.258640
  7 18.045725 0.000000 0.000000 0.000000 -0.000000 -0.127551
  8 17.597597 0.000000 0.000000 0.002950 -0.017289 0.103055
  9 3.793090 6.407221 0.000000 0.000000 -0.000000 1.570796
 10 0.935740 0.000000 0.000000 0.000000 -0.000000 0.000000
 11 0.935741 0.000000 0.000000 0.000000 -0.000000 0.000000
 12 1.293670 0.684478 -0.000001 -0.000004 -0.000001 0.245016
 13 5.309685 -0.003834 0.000000 -0.267609 0.039070 0.140677
 14 4.826790 -0.004591 0.000000 -0.265611 0.051114 0.184973
 15 5.792767 -0.005304 0.000000 -0.138875 0.013579 0.095990
 16 6.662317 -0.001453 0.000000 0.000000 -0.000001 0.471000
 17 2.046985 -0.000002 0.000000 0.696005 0.117649 -0.068712
 18 -3.112024 1.517254 4.341911 1.005024 -1.079174 1.723226
 19 4.827230 0.000000 0.000001 -0.444636 0.071612 -0.675236
 20 11.139763 0.000000 0.000000 0.000000 -0.000000 -1.503555
 21 10.314597 0.000001 0.000000 -1.397609 -0.399857 -0.103020
 22 2.975834 -0.386307 -0.044143 -0.015658 -0.040759 0.349085
 23 1.438886 0.000000 0.000000 0.000000 -0.000000 0.767545
 24 1.485303 0.000000 0.000000 0.000000 -0.000000 0.531981
 25 -2.869898 1.399663 -4.140396 -0.000013 1.283374 2.669783
 26 4.972048 0.000000 0.000001 0.630119 -0.840205 -1.380259
 27 11.585355 0.000000 0.000000 0.000000 -0.000000 -2.010974
 28 10.127057 0.000000 0.000001 1.726969 -0.024825 1.215129
 29 2.683750 -0.427338 0.044205 -0.005738 0.043239 -0.157060
 30 1.438885 -0.000001 0.000000 0.000000 -0.000000 0.732589
 31 1.485305 0.000001 0.000000 0.000000 -0.000000 1.168627
time 19
  0 0.235347 -0.235347 3.532833 -0.000000 -0.000000 -1.571254
  1 0.000000 0.000000 0.000000 -1.570795 -1.570796 0.000000
  2 -0.000005 0.000007 3.713255 -6.281131 3.115177 6.261712
  3 18.045721 0.000000 0.000000 0.000000 -0.000000 -0.121501
  4 17.597597 0.000000 0.000000 -0.002613 0.026036 0.099967
  5 3.793090 6.407221 0.000000 0.000000 -0.000000 1.570796
  6 0.000005 -0.000003 -3.713255 6.280565 -3.123995 6.258640
  7 18.045725 0.000000 0.000000 0.000000 -0.000000 -0.127551
  8 17.597597 0.000000 0.000000 0.002950 -0.017289 0.103055
  9 3.793090 6.407221 0.000000 0.000000 -0.000000 1.570796
 10 0.935740 0.000000 0.000000 0.000000 -0.000000 0.000000
 11 0.935741 0.000000 0.000000 0.000000 -0.000000 0.000000
 12 1.293670 0.684478 -0.000001 -0.000004 -0.000001 0.245016
 13 5.309685 -0.003834 0.000000 -0.267670 0.038590 0.139138
 14 4.826790 -0.004591 0.000000 -0.265611 0.051114 0.184973
 15 5.792767 -0.005304 0.000000 -0.138940 0.012824 0.090737
 16 6.662317 -0.001453 0.000000 0.000000 -0.000001 0.471000
 17 2.046985 -0.000002 0.000000 0.695617 0.117131 -0.061925
 18 -3.112024 1.517254 4.341911 1.013461 -1.082059 1.713638
 19 4.827230 0.000000 0.000001 -0.445517 0.081994 -0.673748
 20 11.139763 0.000000 0.000000 0.000000 -0.000000 -1.503555
 21 10.314597 0.000001 0.000000 -1.397609 -0.399857 -0.103020
 22 2.975834 -0.386307 -0.044143 -0.015658 -0.040759 0.349085
 23 1.438886 0.000000 0.000000 0.000000 -0.000000 0.767545
 24 1.485303 0.000000 0.000000 0.000000 -0.000000 0.531981
 25 -2.869898 1.399663 -4.140396 -0.000013 1.289196 2.669783
 26 4.972048 0.000000 0.000001 0.635998 -0.847445 -1.382565
 27 11.585355 0.000000 0.000000 0.000000 -0.000000 -2.010974
 28 10.127057 0.000000 0.000001 1.726969 -0.026395 1.214815
 29 2.683750 -0.427338 0.044205 -0.005738 0.043239 -0.157060
 30 1.438885 -0.000001 0.000000 0.000000 -0.000000 0.732589
 31 1.485305 0.000001 0.000000 0.000000 -0.000000 1.168627
time 20
  0 0.235347 -0.235347 3.532833 -0.000000 -0.000000 -1.571254
  1 0.000000 0.000000 0.000000 -1.570795 -1.570796 0.000000
  2 -0.000005 0.000007 3.713255 -6.281131 3.115177 6.261712
  3 18.045721 0.000000 0.000000 0.000000 -0.000000 -0.121501
  4 17.597597 0.000000 0.000000 -0.002613 0.026036 0.099967
  5 3.793090 6.407221 0.000000 0.000000 -0.000000 1.570796
  6 0.000005 -0.000003 -3.713255 6.280565 -3.123995 6.258640
  7 18.045725 0.000000 0.000000 0.000000 -0.000000 -0.127551
  8 17.597597 0.000000 0.000000 0.002950 -0.017289 0.103055
  9 3.793090 6.407221 0.000000 0.000000 -0.000000 1.570796
 10 0.935740 0.000000 0.000000 0.000000 -0.000000 0.000000
 11 0.935741 0.000000 0.000000 0.000000 -0.000000 0.000000
 12 1.293670 0.684478 -0.000001 -0.000004 -0.000001 0.245016
 13 5.309685 -0.003834 0.000000 -0.267719 0.038135 0.137291
 14 4.826790 -0.004591 0.000000 -0.265611 0.051114 0.184973
 15 5.792767 -0.005304 0.000000 -0.139022 0.011949 0.084425
 16 6.662317 -0.001453 0.000000 0.000000 -0.000001 0.471000
 17 2.046985 -0.000002 0.000000 0.695143 0.116524 -0.053699
 18 -3.112024 1.517254 4.341911 1.023335 -1.085328 1.702037
 19 4.827230 0.000000 0.000001 -0.446457 0.094334 -0.672173
 20 11.139763 0.000000 0.000000 0.000000 -0.000000 -1.503555
 21 10.314597 0.000001 0.000000 -1.397609 -0.399857 -0.103020
 22 2.975834 -0.386307 -0.044143 -0.015658 -0.040759 0.349085
 23 1.438886 0.000000 0.000000 0.000000 -0.000000 0.767545
 24 1.485303 0.000000 0.000000 0.000000 -0.000000 0.531981
 25 -2.869898 1.399663 -4.140396 -0.000013 1.296234 2.669783
 26 4.972048 0.000000 0.000001 0.643192 -0.856213 -1.385661
 27 11.585355 0.000000 0.000000 0.000000 -0.000000 -2.010974
 28 10.127057 0.000000 0.000001 1.726969 -0.028290 1.214580
 29 2.683750 -0.427338 0.044205 -0.005738 0.043239 -0.157060
 30 1.438885 -0.000001 0.000000 0.000000 -0.000000 0.732589
 31 1.485305 0.000001 0.000000 0.000000 -0.000000 1.168627
time 21
  0 0.235347 -0.235347 3.532833 -0.000000 -0.000000 -1.571254
  1 0.000000 0.000000 0.000000 -1.570795 -1.570796 0.000000
  2 -0.000005 0.000007 3.713255 -6.281131 3.115177 6.261712
  3 18.045721 0.000000 0.000000 0.000000 -0.000000 -0.121501
  4 17.597597 0.000000 0.000000 -0.002613 0.026036 0.099967
  5 3.793090 6.407221 0.000000 0.000000 -0.000000 1.570796
  6 0.000005 -0.000003 -3.713255 6.280565 -3.123995 6.258640
  7 18.045725 0.000000 0.000000 0.000000 -0.000000 -0.127551
  8 17.597597 0.000000 0.000000 0.002950 -0.017289 0.103055
  9 3.793090 6.407221 0.000000 0.000000 -0.000000 1.570796
 10 0.935740 0.000000 0.000000 0.000000 -0.000000 0.000000
 11 0.935741 0.000000 0.000000 0.000000 -0.000000 0.000000
 12 1.293670 0.684478 -0.000001 -0.000004 -0.000001 0.245016
 13 5.309685 -0.003834 0.000000 -0.267817 0.037572 0.135227
 14 4.826790 -0.004591 0.000000 -0.265611 0.051114 0.184973
 15 5.792767 -0.005304 0.000000 -0.139103 0.010966 0.077345
 16 6.662317 -0.001453 0.000000 0.000000 -0.000001 0.471000
 17 2.046985 -0.000002 0.000000 0.694669 0.115848 -0.044800
 18 -3.112024 1.517254 4.341911 1.035416 -1.089059 1.688902
 19 4.827230 0.000000 0.000001 -0.447573 0.108205 -0.670335
 20 11.139763 0.000000 0.000000 0.000000 -0.000000 -1.503555
 21 10.314597 0.000001 0.000000 -1.397609 -0.399857 -0.103020
 22 2.975834 -0.386307 -0.044143 -0.015658 -0.040759 0.349085
 23 1.438886 0.000000 0.000000 0.000000 -0.000000 0.767545
 24 1.485303 0.000000 0.000000 0.000000 -0.000000 0.531981
 25 -2.869898 1.399663 -4.140396 -0.000013 1.304035 2.669783
 26 4.972048 0.000000 0.000001 0.651314 -0.866107 -1.389218
 27 11.585355 0.000000 0.000000 0.000000 -0.000000 -2.010974
 28 10.127057 0.000000 0.000001 1.726969 -0.030293 1.214266
 29 2.683750 -0.427338 0.044205 -0.005738 0.043239 -0.157060
 30 1.438885 -0.000001 0.000000 0.000000 -0.000000 0.732589
 31 1.485305 0.000001 0.000000 0.000000 -0.000000 1.168627
time 22
  0 0.235347 -0.235347 3.532833 -0.000000 -0.000000 -1.571254
  1 0.000000 0.000000 0.000000 -1.570795 -1.570796 0.000000
  2 -0.000005 0.000007 3.713255 -6.281131 3.115177 6.261712
  3 18.045721 0.000000 0.000000 0.000000 -0.000000 -0.121501
  4 17.597597 0.000000 0.000000 -0.002613 0.026036 0.099967
  5 3.793090 6.407221 0.000000 0.000000 -0.000000 1.570796
  6 0.000005 -0.000003 -3.713255 6.280565 -3.123995 6.258640
  7 18.045725 0.000000 0.000000 0.000000 -0.000000 -0.127551
  8 17.597597 0.000000 0.000000 0.002950 -0.017289 0.103055
  9 3.793090 6.407221 0.000000 0.000000 -0.000000 1.570796
 10 0.935740 0.000000 0.000000 0.000000 -0.000000 0.000000
 11 0.935741 0.000000 0.000000 0.000000 -0.000000 0.000000
 12 1.293670 0.684478 -0.000001 -0.000004 -0.000001 0.245016
 13 5.309685 -0.003834 0.000000 -0.267878 0.036937 0.133000
 14 4.826790 -0.004591 0.000000 -0.265611 0.051114 0.184973
 15 5.792767 -0.005304 0.000000 -0.139185 0.009851 0.069725
 16 6.662317 -0.001453 0.000000 0.000000 -0.000001 0.471000
 17 2.046985 -0.000002 0.000000 0.694109 0.115105 -0.034911
 18 -3.112024 1.517254 4.341911 1.048071 -1.092905 1.674521
 19 4.827230 0.000000 0.000001 -0.448689 0.123098 -0.668410
 20 11.139763 0.000000 0.000000 0.000000 -0.000000 -1.503555
 21 10.314597 0.000001 0.000000 -1.397609 -0.399857 -0.103020
 22 2.975834 -0.386307 -0.044143 -0.015658 -0.040759 0.349085
 23 1.438886 0.000000 0.000000 0.000000 -0.000000 0.767545
 24 1.485303 0.000000 0.000000 0.000000 -0.000000 0.531981
 25 -2.869898 1.399663 -4.140396 -0.000013 1.312486 2.669783
 26 4.972048 0.000000 0.000001 0.660210 -0.876806 -1.393368
 27 11.585355 0.000000 0.000000 0.000000 -0.000000 -2.010974
 28 10.127057 0.000000 0.000001 1.727160 -0.032567 1.213874
 29 2.683750 -0.427338 0.044205 -0.005738 0.043239 -0.157060
 30 1.438885 -0.000001 0.000000 0.000000 -0.000000 0.732589
 31 1.485305 0.000001 0.000000 0.000000 -0.000000 1.168627
time 23
  0 0.235347 -0.235347 3.532833 -0.000000 -0.000000 -1.571254
  1 0.000000 0.000000 0.000000 -1.570795 -1.570796 0.000000
  2 -0.000005 0.000007 3.713255 -6.281131 3.115177 6.261712
  3 18.045721 0.000000 0.000000 0.000000 -0.000000 -0.121501
  4 17.597597 0.000000 0.000000 -0.002613 0.026036 0.099967
  5 3.793090 6.407221 0.000000 0.000000 -0.000000 1.570796
  6 0.000005 -0.000003 -3.713255 6.280565 -3.123995 6.258640
  7 18.045725 0.000000 0.000000 0.000000 -0.000000 -0.127551
  8 17.597597 0.000000 0.000000 0.002950 -0.017289 0.103055
  9 3.793090 6.407221 0.000000 0.000000 -0.000000 1.570796
 10 0.935740 0.000000 0.000000 0.000000 -0.000000 0.000000
 11 0.935741 0.000000 0.000000 0.000000 -0.000000 0.000000
 12 1.293670 0.684478 -0.000001 -0.000004 -0.000001 0.245016
 13 5.309685 -0.003834 0.000000 -0.267976 0.036277 0.130700
 14 4.826790 -0.004591 0.000000 -0.265611 0.051114 0.184973
 15 5.792767 -0.005304 0.000000 -0.139250 0.008797 0.061856
 16 6.662317 -0.001453 0.000000 0.000000 -0.000001 0.471000
 17 2.046985 -0.000002 0.000000 0.693549 0.114340 -0.024978
 18 -3.112024 1.517254 4.341911 1.061589 -1.096867 1.659468
 19 4.827230 0.000000 0.000001 -0.449805 0.138671 -0.666572
 20 11.139763 0.000000 0.000000 0.000000 -0.000000 -1.503555
 21 10.314597 0.000001 0.000000 -1.397609 -0.399857 -0.103020
 22 2.975834 -0.386307 -0.044143 -0.015658 -0.040759 0.349085
 23 1.438886 0.000000 0.000000 0.000000 -0.000000 0.767545
 24 1.485303 0.000000 0.000000 0.000000 -0.000000 0.531981
 25 -2.869898 1.399663 -4.140396 -0.000013 1.321276 2.669783
 26 4.972048 0.000000 0.000001 0.669647 -0.887746 -1.397913
 27 11.585355 0.000000 0.000000 0.000000 -0.000000 -2.010974
 28 10.127057 0.000000 0.000001 1.727160 -0.034922 1.213403
 29 2.683750 -0.427338 0.044205 -0.005738 0.043239 -0.157060
 30 1.438885 -0.000001 0.000000 0.000000 -0.000000 0.732589
 31 1.485305 0.000001 0.000000 0.000000 -0.000000 1.168627
time 24
  0 0.235347 -0.235347 3.532833 -0.000000 -0.000000 -1.571254
  1 0.000000 0.000000 0.000000 -1.570795 -1.570796 0.000000
  2 -0.000005 0.000007 3.713255 -6.281131 3.115177 6.261712
  3 18.045721 0.000000 0.000000 0.000000 -0.000000 -0.121501
  4 17.597597 0.000000 0.000000 -0.002613 0.026036 0.099967
  5 3.793090 6.407221 0.000000 0.000000 -0.000000 1.570796
  6 0.000005 -0.000003 -3.713255 6.280565 -3.123995 6.258640
  7 18.045725 0.000000 0.000000 0.000000 -0.000000 -0.127551
  8 17.597597 0.000000 0.000000 0.002950 -0.017289 0.103055
  9 3.793090 6.407221 0.000000 0.000000 -0.000000 1.570796
 10 0.935740 0.000000 0.000000 0.000000 -0.000000 0.000000
 11 0.935741 0.000000 0.000000 0.000000 -0.000000 0.000000
 12 1.293670 0.684478 -0.000001 -0.000004 -0.000001 0.245016
 13 5.309685 -0.003834 0.000000 -0.268074 0.035642 0.128365
 14 4.826790 -0.004591 0.000000 -0.265611 0.051114 0.184973
 15 5.792767 -0.005304 0.000000 -0.139315 0.007622 0.053883
 16 6.662317 -0.001453 0.000000 0.000000 -0.000001 0.471000
 17 2.046985 -0.000002 0.000000 0.692946 0.113574 -0.014774
 18 -3.112024 1.517254 4.341911 1.075395 -1.100713 1.644032
 19 4.827230 0.000000 0.000001 -0.450921 0.154415 -0.664647
 20 11.139763 0.000000 0.000000 0.000000 -0.000000 -1.503555
 21 10.314597 0.000001 0.000000 -1.397609 -0.399857 -0.103020
 22 2.975834 -0.386307 -0.044143 -0.015658 -0.040759 0.349085
 23 1.438886 0.000000 0.000000 0.000000 -0.000000 0.767545
 24 1.485303 0.000000 0.000000 0.000000 -0.000000 0.531981
 25 -2.869898 1.399663 -4.140396 -0.000013 1.330151 2.669783
 26 4.972048 0.000000 0.000001 0.679471 -0.898927 -1.402722
 27 11.585355 0.000000 0.000000 0.000000 -0.000000 -2.010974
 28 10.127057 0.000000 0.000001 1.727160 -0.037413 1.213089
 29 2.683750 -0.427338 0.044205 -0.005738 0.043239 -0.157060
 30 1.438885 -0.000001 0.000000 0.000000 -0.000000 0.732589
 31 1.485305 0.000001 0.000000 0.000000 -0.000000 1.168627
time 25
  0 0.235347 -0.235347 3.532833 -0.000000 -0.000000 -1.571254
  1 0.000000 0.000000 0.000000 -1.570795 -1.570796 0.000000
  2 -0.000005 0.000007 3.713255 -6.281131 3.115177 6.261712
  3 18.045721 0.000000 0.000000 0.000000 -0.000000 -0.121501
  4 17.597597 0.000000 0.000000 -0.002613 0.026036 0.099967
  5 3.793090 6.407221 0.000000 0.000000 -0.000000 1.570796
  6 0.000005 -0.000003 -3.713255 6.280565 -3.123995 6.258640
  7 18.045725 0.000000 0.000000 0.000000 -0.000000 -0.127551
  8 17.597597 0.000000 0.000000 0.002950 -0.017289 0.103055
  9 3.793090 6.407221 0.000000 0.000000 -0.000000 1.570796
 10 0.935740 0.000000 0.000000 0.000000 -0.000000 0.000000
 11 0.935741 0.000000 0.000000 0.000000 -0.000000 0.000000
 12 1.293670 0.684478 -0.000001 -0.000004 -0.000001 0.245016
 13 5.309685 -0.003834 0.000000 -0.268160 0.035055 0.126065
 14 4.826790 -0.004591 0.000000 -0.265611 0.051114 0.184973
 15 5.792767 -0.005304 0.000000 -0.139380 0.006568 0.046014
 16 6.662317 -0.001453 0.000000 0.000000 -0.000001 0.471000
 17 2.046985 -0.000002 0.000000 0.692386 0.112809 -0.004571
 18 -3.112024 1.517254 4.341911 1.089009 -1.104444 1.628500
 19 4.827230 0.000000 0.000001 -0.451978 0.169818 -0.662984
 20 11.139763 0.000000 0.000000 0.000000 -0.000000 -1.503555
 21 10.314597 0.000001 0.000000 -1.397609 -0.399857 -0.103020
 22 2.975834 -0.386307 -0.044143 -0.015658 -0.040759 0.349085
 23 1.438886 0.000000 0.000000 0.000000 -0.000000 0.767545
 24 1.485303 0.000000 0.000000 0.000000 -0.000000 0.531981
 25 -2.869898 1.399663 -4.140396 -0.000013 1.338828 2.669783
 26 4.972048 0.000000 0.000001 0.689218 -0.909867 -1.407860
 27 11.585355 0.000000 0.000000 0.000000 -0.000000 -2.010974
 28 10.127057 0.000000 0.000001 1.727160 -0.039768 1.212736
 29 2.683750 -0.427338 0.044205 -0.005738 0.043239 -0.157060
 30 1.438885 -0.000001 0.000000 0.000000 -0.000000 0.732589
 31 1.485305 0.000001 0.000000 0.000000 -0.000000 1.168627
time 26
  0 0.235347 -0.235347 3.532833 -0.000000 -0.000000 -1.571254
  1 0.000000 0.000000 0.000000 -1.570795 -1.570796 0.000000
  2 -0.000005 0.000007 3.713255 -6.281131 3.115177 6.261712
  3 18.045721 0.000000 0.000000 0.000000 -0.000000 -0.121501
  4 17.597597 0.000000 0.000000 -0.002613 0.026036 0.099967
  5 3.793090 6.407221 0.000000 0.000000 -0.000000 1.570796
  6 0.000005 -0.000003 -3.713255 6.280565 -3.123995 6.258640
  7 18.045725 0.000000 0.000000 0.000000 -0.000000 -0.127551
  8 17.597597 0.000000 0.000000 0.002950 -0.017289 0.103055
  9 3.793090 6.407221 0.000000 0.000000 -0.000000 1.570796
 10 0.935740 0.000000 0.000000 0.000000 -0.000000 0.000000
 11 0.935741 0.000000 0.000000 0.000000 -0.000000 0.000000
 12 1.293670 0.684478 -0.000001 -0.000004 -0.000001 0.245016
 13 5.309685 -0.003834 0.000000 -0.268221 0.034456 0.123892
 14 4.826790 -0.004591 0.000000 -0.265611 0.051114 0.184973
 15 5.792767 -0.005304 0.000000 -0.139429 0.005525 0.038581
 16 6.662317 -0.001453 0.000000 0.000000 -0.000001 0.471000
 17 2.046985 -0.000002 0.000000 0.691869 0.112089 0.004958
 18 -3.112024 1.517254 4.341911 1.102623 -1.107867 1.613832
 19 4.827230 0.000000 0.000001 -0.452918 0.184796 -0.661409
 20 11.139763 0.000000 0.000000 0.000000 -0.000000 -1.503555
 21 10.314597 0.000001 0.000000 -1.397609 -0.399857 -0.103020
 22 2.975834 -0.386307 -0.044143 -0.015658 -0.040759 0.349085
 23 1.438886 0.000000 0.000000 0.000000 -0.000000 0.767545
 24 1.485303 0.000000 0.000000 0.000000 -0.000000 0.531981
 25 -2.869898 1.399663 -4.140396 -0.000013 1.347166 2.669783
 26 4.972048 0.000000 0.000001 0.698810 -0.920244 -1.413064
 27 11.585355 0.000000 0.000000 0.000000 -0.000000 -2.010974
 28 10.127057 0.000000 0.000001 1.727224 -0.041988 1.212383
 29 2.683750 -0.427338 0.044205 -0.005738 0.043239 -0.157060
 30 1.438885 -0.000001 0.000000 0.000000 -0.000000 0.732589
 31 1.485305 0.000001 0.000000 0.000000 -0.000000 1.168627
time 27
  0 0.235347 -0.235347 3.532833 -0.000000 -0.000000 -1.571254
  1 0.000000 0.000000 0.000000 -1.570795 -1.570796 0.000000
  2 -0.000005 0.000007 3.713255 -6.281131 3.115177 6.261712
  3 18.045721 0.000000 0.000000 0.000000 -0.000000 -0.121501
  4 17.597597 0.000000 0.000000 -0.002613 0.026036 0.099967
  5 3.793090 6.407221 0.000000 0.000000 -0.000000 1.570796
  6 0.000005 -0.000003 -3.713255 6.280565 -3.123995 6.258640
  7 18.045725 0.000000 0.000000 0.000000 -0.000000 -0.127551
  8 17.597597 0.000000 0.000000 0.002950 -0.017289 0.103055
  9 3.793090 6.407221 0.000000 0.000000 -0.000000 1.570796
 10 0.935740 0.000000 0.000000 0.000000 -0.000000 0.000000
 11 0.935741 0.000000 0.000000 0.000000 -0.000000 0.000000
 12 1.293670 0.684478 -0.000001 -0.000004 -0.000001 0.245016
 13 5.309685 -0.003834 0.000000 -0.268282 0.033868 0.121900
 14 4.826790 -0.004591 0.000000 -0.265611 0.051114 0.184973
 15 5.792767 -0.005304 0.000000 -0.139462 0.004518 0.031750
 16 6.662317 -0.001453 0.000000 0.000000 -0.000001 0.471000
 17 2.046985 -0.000002 0.000000 0.691352 0.111436 0.013588
 18 -3.112024 1.517254 4.341911 1.114703 -1.110944 1.599929
 19 4.827230 0.000000 0.000001 -0.453799 0.198242 -0.660009
 20 11.139763 0.000000 0.000000 0.000000 -0.000000 -1.503555
 21 10.314597 0.000001 0.000000 -1.397609 -0.399857 -0.103020
 22 2.975834 -0.386307 -0.044143 -0.015658 -0.040759 0.349085
 23 1.438886 0.000000 0.000000 0.000000 -0.000000 0.767545
 24 1.485303 0.000000 0.000000 0.000000 -0.000000 0.531981
 25 -2.869898 1.399663 -4.140396 -0.000013 1.354684 2.669783
 26 4.972048 0.000000 0.000001 0.707783 -0.929736 -1.418202
 27 11.585355 0.000000 0.000000 0.000000 -0.000000 -2.010974
 28 10.127057 0.000000 0.000001 1.727224 -0.043937 1.212030
 29 2.683750 -0.427338 0.044205 -0.005738 0.043239 -0.157060
 30 1.438885 -0.000001 0.000000 0.000000 -0.000000 0.732589
 31 1.485305 0.000001 0.000000 0.000000 -0.000000 1.168627
time 28
  0 0.235347 -0.235347 3.532833 -0.000000 -0.000000 -1.571254
  1 0.000000 0.000000 0.000000 -1.570795 -1.570796 0.000000
  2 -0.000005 0.000007 3.713255 -6.281131 3.115177 6.261712
  3 18.045721 0.000000 0.000000 0.000000 -0.000000 -0.121501
  4 17.597597 0.000000 0.000000 -0.002613 0.026036 0.099967
  5 3.793090 6.407221 0.000000 0.000000 -0.000000 1.570796
  6 0.000005 -0.000003 -3.713255 6.280565 -3.123995 6.258640
  7 18.045725 0.000000 0.000000 0.000000 -0.000000 -0.127551
  8 17.597597 0.000000 0.000000 0.002950 -0.017289 0.103055
  9 3.793090 6.407221 0.000000 0.000000 -0.000000 1.570796
 10 0.935740 0.000000 0.000000 0.000000 -0.000000 0.000000
 11 0.935741 0.000000 0.000000 0.000000 -0.000000 0.000000
 12 1.293670 0.684478 -0.000001 -0.000004 -0.000001 0.245016
 13 5.309685 -0.003834 0.000000 -0.268331 0.033377 0.120144
 14 4.826790 -0.004591 0.000000 -0.265611 0.051114 0.184973
 15 5.792767 -0.005304 0.000000 -0.139478 0.003679 0.025770
 16 6.662317 -0.001453 0.000000 0.000000 -0.000001 0.471000
 17 2.046985 -0.000002 0.000000 0.690921 0.110873 0.021319
 18 -3.112024 1.517254 4.341911 1.126016 -1.113598 1.587561
 19 4.827230 0.000000 0.000001 -0.454504 0.210071 -0.658871
 20 11.139763 0.000000 0.000000 0.000000 -0.000000 -1.503555
 21 10.314597 0.000001 0.000000 -1.397609 -0.399857 -0.103020
 22 2.975834 -0.386307 -0.044143 -0.015658 -0.040759 0.349085
 23 1.438886 0.000000 0.000000 0.000000 -0.000000 0.767545
 24 1.485303 0.000000 0.000000 0.000000 -0.000000 0.531981
 25 -2.869898 1.399663 -4.140396 -0.000013 1.361383 2.669783
 26 4.972048 0.000000 0.000001 0.715673 -0.937941 -1.422879
 27 11.585355 0.000000 0.000000 0.000000 -0.000000 -2.010974
 28 10.127057 0.000000 0.000001 1.727224 -0.045805 1.211677
 29 2.683750 -0.427338 0.044205 -0.005738 0.043239 -0.157060
 30 1.438885 -0.000001 0.000000 0.000000 -0.000000 0.732589
 31 1.485305 0.000001 0.000000 0.000000 -0.000000 1.168627
time 29
  0 0.235347 -0.235347 3.532833 -0.000000 -0.000000 -1.571254
  1 0.000000 0.000000 0.000000 -1.570795 -1.570796 0.000000
  2 -0.000005 0.000007 3.713255 -6.281131 3.115177 6.261712
  3 18.045721 0.000000 0.000000 0.000000 -0.000000 -0.121501
  4 17.597597 0.000000 0.000000 -0.002613 0.026036 0.099967
  5 3.793090 6.407221 0.000000 0.000000 -0.000000 1.570796
  6 0.000005 -0.000003 -3.713255 6.280565 -3.123995 6.258640
  7 18.045725 0.000000 0.000000 0.000000 -0.000000 -0.127551
  8 17.597597 0.000000 0.000000 0.002950 -0.017289 0.103055
  9 3.793090 6.407221 0.000000 0.000000 -0.000000 1.570796
 10 0.935740 0.000000 0.000000 0.000000 -0.000000 0.000000
 11 0.935741 0.000000 0.000000 0.000000 -0.000000 0.000000
 12 1.293670 0.684478 -0.000001 -0.000004 -0.000001 0.245016
 13 5.309685 -0.003834 0.000000 -0.268380 0.033042 0.118714
 14 4.826790 -0.004591 0.000000 -0.265611 0.051114 0.184973
 15 5.792767 -0.005304 0.000000 -0.139495 0.002984 0.020870
 16 6.662317 -0.001453 0.000000 0.000000 -0.000001 0.471000
 17 2.046985 -0.000002 0.000000 0.690490 0.110400 0.027476
 18 -3.112024 1.517254 4.341911 1.135028 -1.115675 1.577495
 19 4.827230 0.000000 0.000001 -0.455150 0.219432 -0.657996
 20 11.139763 0.000000 0.000000 0.000000 -0.000000 -1.503555
 21 10.314597 0.000001 0.000000 -1.397609 -0.399857 -0.103020
 22 2.975834 -0.386307 -0.044143 -0.015658 -0.040759 0.349085
 23 1.438886 0.000000 0.000000 0.000000 -0.000000 0.767545
 24 1.485303 0.000000 0.000000 0.000000 -0.000000 0.531981
 25 -2.869898 1.399663 -4.140396 -0.000013 1.366838 2.669783
 26 4.972048 0.000000 0.000001 0.722403 -0.944859 -1.426963
 27 11.585355 0.000000 0.000000 0.000000 -0.000000 -2.010974
 28 10.127057 0.000000 0.000001 1.727224 -0.047294 1.211520
 29 2.683750 -0.427338 0.044205 -0.005738 0.043239 -0.157060
 30 1.438885 -0.000001 0.000000 0.000000 -0.000000 0.732589
 31 1.485305 0.000001 0.000000 0.000000 -0.000000 1.168627
time 30
  0 0.235347 -0.235347 3.532833 -0.000000 -0.000000 -1.571254
  1 0.000000 0.000000 0.000000 -1.570795 -1.570796 0.000000
  2 -0.000005 0.000007 3.713255 -6.281131 3.115177 6.261712
  3 18.045721 0.000000 0.000000 0.000000 -0.000000 -0.121501
  4 17.597597 0.000000 0.000000 -0.002613 0.026036 0.099967
  5 3.793090 6.407221 0.000000 0.000000 -0.000000 1.570796
  6 0.000005 -0.000003 -3.713255 6.280565 -3.123995 6.258640
  7 18.045725 0.000000 0.000000 0.000000 -0.000000 -0.127551
  8 17.597597 0.000000 0.000000 0.002950 -0.017289 0.103055
  9 3.793090 6.407221 0.000000 0.000000 -0.000000 1.570796
 10 0.935740 0.000000 0.000000 0.000000 -0.000000 0.000000
 11 0.935741 0.000000 0.000000 0.000000 -0.000000 0.000000
 12 1.293670 0.684478 -0.000001 -0.000004 -0.000001 0.245016
 13 5.309685 -0.003834 0.000000 -0.268429 0.032742 0.117663
 14 4.826790 -0.004591 0.000000 -0.265611 0.051114 0.184973
 15 5.792767 -0.005304 0.000000 -0.139511 0.002529 0.017319
 16 6.662317 -0.001453 0.000000 0.000000 -0.000001 0.471000
 17 2.046985 -0.000002 0.000000 0.690318 0.110040 0.032286
 18 -3.112024 1.517254 4.341911 1.141931 -1.117252 1.569728
 19 4.827230 0.000000 0.000001 -0.455561 0.226495 -0.657296
 20 11.139763 0.000000 0.000000 0.000000 -0.000000 -1.503555
 21 10.314597 0.000001 0.000000 -1.397609 -0.399857 -0.103020
 22 2.975834 -0.386307 -0.044143 -0.015658 -0.040759 0.349085
 23 1.438886 0.000000 0.000000 0.000000 -0.000000 0.767545
 24 1.485303 0.000000 0.000000 0.000000 -0.000000 0.531981
 25 -2.869898 1.399663 -4.140396 -0.000013 1.370795 2.669783
 26 4.972048 0.000000 0.000001 0.727354 -0.949766 -1.430059
 27 11.585355 0.000000 0.000000 0.000000 -0.000000 -2.010974
 28 10.127057 0.000000 0.000001 1.727224 -0.048377 1.211324
 29 2.683750 -0.427338 0.044205 -0.005738 0.043239 -0.157060
 30 1.438885 -0.000001 0.000000 0.000000 -0.000000 0.732589
 31 1.485305 0.000001 0.000000 0.000000 -0.000000 1.168627
end
