version 1
nodes
  0 "Bip01"  -1
  1 "Bip01 Pelvis"   0
  2 "Bip01 L Leg"   1
  3 "Bip01 L Leg1"   2
  4 "Bip01 L Foot"   3
  5 "Bip01 L Toe0"   4
  6 "Bip01 R Leg"   1
  7 "Bip01 R Leg1"   6
  8 "Bip01 R Foot"   7
  9 "Bip01 R Toe0"   8
 10 "Bip01 R Toe01"   9
 11 "Bip01 R Toe02"  10
 12 "Bip01 Spine"   1
 13 "Bip01 Spine1"  12
 14 "Bip01 Spine2"  13
 15 "Bip01 Spine3"  14
 16 "Bip01 Neck"  15
 17 "Bip01 Head"  16
 18 "Bip01 L Arm"  16
 19 "Bip01 L Arm1"  18
 20 "Bip01 L Arm2"  19
 21 "Bip01 L Hand"  20
 22 "Bip01 L Finger1"  21
 23 "Bip01 L Finger11"  22
 24 "Bip01 L Finger12"  23
 25 "Bip01 R Arm"  16
 26 "Bip01 R Arm1"  25
 27 "Bip01 R Arm2"  26
 28 "Bip01 R Hand"  27
 29 "Bip01 R Finger1"  28
 30 "Bip01 R Finger11"  29
 31 "Bip01 R Finger12"  30
end
skeleton
time 0
  0 0.235347 -0.235347 3.446893 -0.000000 -0.000000 -1.571254
  1 0.000000 0.000000 0.000000 -1.570795 -1.570796 0.000000
  2 -0.000005 0.000007 3.713255 -6.281131 3.115177 6.261712
  3 18.045721 0.000000 0.000000 0.000000 -0.000000 -0.121501
  4 17.597597 0.000000 0.000000 -0.002613 0.026036 0.099967
  5 3.793090 6.407221 0.000000 0.000000 -0.000000 1.570796
  6 0.000005 -0.000003 -3.713255 6.280565 -3.123995 6.258640
  7 18.045725 0.000000 0.000000 0.000000 -0.000000 -0.127551
  8 17.597597 0.000000 0.000000 0.002950 -0.017289 0.103055
  9 3.793090 6.407221 0.000000 0.000000 -0.000000 1.570796
 10 0.935740 0.000000 0.000000 0.000000 -0.000000 0.000000
 11 0.935741 0.000000 0.000000 0.000000 -0.000000 0.000000
 12 1.293670 0.684478 -0.000001 -0.000004 -0.000001 0.061869
 13 5.309685 -0.003834 0.000000 -0.153876 0.031280 0.198166
 14 4.826790 -0.004591 0.000000 -0.285742 0.034755 0.117020
 15 5.792767 -0.005304 0.000000 -0.155262 0.023166 0.146464
 16 6.662317 -0.001453 0.000000 -0.000144 -0.183150 0.296580
 17 2.046985 -0.000002 0.000000 0.482141 -0.189261 0.016869
 18 -2.487005 0.958643 4.873177 1.539900 -1.199908 1.371073
 19 4.827230 0.000000 0.000001 -0.140617 0.759141 -0.889463
 20 11.139763 0.000000 0.000000 0.000000 -0.000000 -1.805529
 21 10.314597 0.000001 0.000000 -1.656915 -0.276267 -0.099909
 22 2.975834 -0.386307 -0.044143 -0.021458 -0.037954 0.497456
 23 1.438886 0.000000 0.000000 0.000000 -0.000000 0.889650
 24 1.485303 0.000000 0.000000 0.000000 -0.000000 1.116298
 25 -3.768363 0.884022 -3.515377 0.144372 1.191883 2.983001
 26 4.972048 0.000000 0.000001 -0.166790 -1.014923 -0.243893
 27 11.585355 0.000000 0.000000 0.000000 -0.000000 -1.968440
 28 10.127057 0.000000 0.000001 1.569752 -0.000000 -0.069778
 29 2.683750 -0.427338 0.044205 -0.005738 0.043239 -0.157060
 30 1.438885 -0.000001 0.000000 0.000000 -0.000000 0.732589
 31 1.485305 0.000001 0.000000 0.000000 -0.000000 1.168627
time 1
  0 0.235347 -0.235347 3.446893 -0.000000 -0.000000 -1.571254
  1 0.000000 0.000000 0.000000 -1.570795 -1.570796 0.000000
  2 -0.000005 0.000007 3.713255 -6.281131 3.115177 6.261712
  3 18.045721 0.000000 0.000000 0.000000 -0.000000 -0.121501
  4 17.597597 0.000000 0.000000 -0.002613 0.026036 0.099967
  5 3.793090 6.407221 0.000000 0.000000 -0.000000 1.570796
  6 0.000005 -0.000003 -3.713255 6.280565 -3.123995 6.258640
  7 18.045725 0.000000 0.000000 0.000000 -0.000000 -0.127551
  8 17.597597 0.000000 0.000000 0.002950 -0.017289 0.103055
  9 3.793090 6.407221 0.000000 0.000000 -0.000000 1.570796
 10 0.935740 0.000000 0.000000 0.000000 -0.000000 0.000000
 11 0.935741 0.000000 0.000000 0.000000 -0.000000 0.000000
 12 1.293670 0.684478 -0.000001 -0.000004 -0.000001 0.061869
 13 5.309685 -0.003834 0.000000 -0.153876 0.031280 0.198166
 14 4.826790 -0.004591 0.000000 -0.285742 0.035115 0.118145
 15 5.792767 -0.005304 0.000000 -0.155262 0.023166 0.146464
 16 6.662317 -0.001453 0.000000 -0.000144 -0.183150 0.296580
 17 2.046985 -0.000002 0.000000 0.482012 -0.189103 0.015835
 18 -2.487005 0.958643 4.873177 1.532422 -1.199831 1.378743
 19 4.827230 0.000000 0.000001 -0.137739 0.755907 -0.887713
 20 11.139763 0.000000 0.000000 0.000000 -0.000000 -1.805529
 21 10.314597 0.000001 0.000000 -1.658982 -0.343486 -0.093687
 22 2.975834 -0.386307 -0.044143 -0.021458 -0.037954 0.497456
 23 1.438886 0.000000 0.000000 0.000000 -0.000000 0.717264
 24 1.485303 0.000000 0.000000 0.000000 -0.000000 0.869096
 25 -3.768363 0.884022 -3.515377 0.142263 1.186117 2.980700
 26 4.972048 0.000000 0.000001 -0.167254 -1.009292 -0.243761
 27 11.585355 0.000000 0.000000 0.000000 -0.000000 -1.968440
 28 10.127057 0.000000 0.000001 1.569752 -0.000000 -0.069778
 29 2.683750 -0.427338 0.044205 -0.005738 0.043239 -0.157060
 30 1.438885 -0.000001 0.000000 0.000000 -0.000000 0.732589
 31 1.485305 0.000001 0.000000 0.000000 -0.000000 1.168627
time 2
  0 0.235347 -0.235347 3.446893 -0.000000 -0.000000 -1.571254
  1 0.000000 0.000000 0.000000 -1.570795 -1.570796 0.000000
  2 -0.000005 0.000007 3.713255 -6.281131 3.115177 6.261712
  3 18.045721 0.000000 0.000000 0.000000 -0.000000 -0.121501
  4 17.597597 0.000000 0.000000 -0.002613 0.026036 0.099967
  5 3.793090 6.407221 0.000000 0.000000 -0.000000 1.570796
  6 0.000005 -0.000003 -3.713255 6.280565 -3.123995 6.258640
  7 18.045725 0.000000 0.000000 0.000000 -0.000000 -0.127551
  8 17.597597 0.000000 0.000000 0.002950 -0.017289 0.103055
  9 3.793090 6.407221 0.000000 0.000000 -0.000000 1.570796
 10 0.935740 0.000000 0.000000 0.000000 -0.000000 0.000000
 11 0.935741 0.000000 0.000000 0.000000 -0.000000 0.000000
 12 1.293670 0.684478 -0.000001 -0.000004 -0.000001 0.061869
 13 5.309685 -0.003834 0.000000 -0.153876 0.031280 0.198166
 14 4.826790 -0.004591 0.000000 -0.285676 0.035486 0.119556
 15 5.792767 -0.005304 0.000000 -0.155262 0.023166 0.146464
 16 6.662317 -0.001453 0.000000 -0.000144 -0.183150 0.296580
 17 2.046985 -0.000002 0.000000 0.481667 -0.188901 0.014397
 18 -2.487005 0.958643 4.873177 1.519671 -1.199600 1.391878
 19 4.827230 0.000000 0.000001 -0.133040 0.751652 -0.884650
 20 11.139763 0.000000 0.000000 0.000000 -0.000000 -1.805529
 21 10.314597 0.000001 0.000000 -1.662128 -0.432031 -0.085007
 22 2.975834 -0.386307 -0.044143 -0.021458 -0.037954 0.497456
 23 1.438886 0.000000 0.000000 0.000000 -0.000000 0.501242
 24 1.485303 0.000000 0.000000 0.000000 -0.000000 0.553757
 25 -3.768363 0.884022 -3.515377 0.139387 1.178288 2.977728
 26 4.972048 0.000000 0.000001 -0.168337 -1.001409 -0.243366
 27 11.585355 0.000000 0.000000 0.000000 -0.000000 -1.968440
 28 10.127057 0.000000 0.000001 1.569752 -0.000000 -0.069778
 29 2.683750 -0.427338 0.044205 -0.005738 0.043239 -0.157060
 30 1.438885 -0.000001 0.000000 0.000000 -0.000000 0.732589
 31 1.485305 0.000001 0.000000 0.000000 -0.000000 1.168627
time 3
  0 0.235347 -0.235347 3.446893 -0.000000 -0.000000 -1.571254
  1 0.000000 0.000000 0.000000 -1.570795 -1.570796 0.000000
  2 -0.000005 0.000007 3.713255 -6.281131 3.115177 6.261712
  3 18.045721 0.000000 0.000000 0.000000 -0.000000 -0.121501
  4 17.597597 0.000000 0.000000 -0.002613 0.026036 0.099967
  5 3.793090 6.407221 0.000000 0.000000 -0.000000 1.570796
  6 0.000005 -0.000003 -3.713255 6.280565 -3.123995 6.258640
  7 18.045725 0.000000 0.000000 0.000000 -0.000000 -0.127551
  8 17.597597 0.000000 0.000000 0.002950 -0.017289 0.103055
  9 3.793090 6.407221 0.000000 0.000000 -0.000000 1.570796
 10 0.935740 0.000000 0.000000 0.000000 -0.000000 0.000000
 11 0.935741 0.000000 0.000000 0.000000 -0.000000 0.000000
 12 1.293670 0.684478 -0.000001 -0.000004 -0.000001 0.061869
 13 5.309685 -0.003834 0.000000 -0.153876 0.031280 0.198166
 14 4.826790 -0.004591 0.000000 -0.285627 0.036038 0.121298
 15 5.792767 -0.005304 0.000000 -0.155262 0.023166 0.146464
 16 6.662317 -0.001453 0.000000 -0.000144 -0.183150 0.296580
 17 2.046985 -0.000002 0.000000 0.481667 -0.188630 0.012644
 18 -2.487005 0.958643 4.873177 1.502318 -1.199177 1.411245
 19 4.827230 0.000000 0.000001 -0.126168 0.745610 -0.880362
 20 11.139763 0.000000 0.000000 0.000000 -0.000000 -1.805529
 21 10.314597 0.000001 0.000000 -1.664285 -0.476032 -0.080418
 22 2.975834 -0.386307 -0.044143 -0.021458 -0.037954 0.497456
 23 1.438886 0.000000 0.000000 0.000000 -0.000000 0.444824
 24 1.485303 0.000000 0.000000 0.000000 -0.000000 0.444784
 25 -3.768363 0.884022 -3.515377 0.136319 1.168678 2.974564
 26 4.972048 0.000000 0.000001 -0.169265 -0.991917 -0.242839
 27 11.585355 0.000000 0.000000 0.000000 -0.000000 -1.968440
 28 10.127057 0.000000 0.000001 1.569752 -0.000000 -0.069778
 29 2.683750 -0.427338 0.044205 -0.005738 0.043239 -0.157060
 30 1.438885 -0.000001 0.000000 0.000000 -0.000000 0.732589
 31 1.485305 0.000001 0.000000 0.000000 -0.000000 1.168627
time 4
  0 0.235347 -0.235347 3.446893 -0.000000 -0.000000 -1.571254
  1 0.000000 0.000000 0.000000 -1.570795 -1.570796 0.000000
  2 -0.000005 0.000007 3.713255 -6.281131 3.115177 6.261712
  3 18.045721 0.000000 0.000000 0.000000 -0.000000 -0.121501
  4 17.597597 0.000000 0.000000 -0.002613 0.026036 0.099967
  5 3.793090 6.407221 0.000000 0.000000 -0.000000 1.570796
  6 0.000005 -0.000003 -3.713255 6.280565 -3.123995 6.258640
  7 18.045725 0.000000 0.000000 0.000000 -0.000000 -0.127551
  8 17.597597 0.000000 0.000000 0.002950 -0.017289 0.103055
  9 3.793090 6.407221 0.000000 0.000000 -0.000000 1.570796
 10 0.935740 0.000000 0.000000 0.000000 -0.000000 0.000000
 11 0.935741 0.000000 0.000000 0.000000 -0.000000 0.000000
 12 1.293670 0.684478 -0.000001 -0.000004 -0.000001 0.061869
 13 5.309685 -0.003834 0.000000 -0.153876 0.031280 0.198166
 14 4.826790 -0.004591 0.000000 -0.285545 0.036625 0.123260
 15 5.792767 -0.005304 0.000000 -0.155262 0.023166 0.146464
 16 6.662317 -0.001453 0.000000 -0.000144 -0.183150 0.296580
 17 2.046985 -0.000002 0.000000 0.481409 -0.188338 0.010666
 18 -2.487005 0.958643 4.873177 1.480363 -1.198523 1.434447
 19 4.827230 0.000000 0.000001 -0.117886 0.738121 -0.875199
 20 11.139763 0.000000 0.000000 0.000000 -0.000000 -1.805529
 21 10.314597 0.000001 0.000000 -1.664195 -0.474837 -0.080527
 22 2.975834 -0.386307 -0.044143 -0.024574 -0.036061 0.581829
 23 1.438886 0.000000 0.000000 0.000000 -0.000000 0.561342
 24 1.485303 0.000000 0.000000 0.000000 -0.000000 0.570624
 25 -3.768363 0.884022 -3.515377 0.132580 1.157768 2.970825
 26 4.972048 0.000000 0.000001 -0.170580 -0.980977 -0.242312
 27 11.585355 0.000000 0.000000 0.000000 -0.000000 -1.968440
 28 10.127057 0.000000 0.000001 1.569752 -0.000000 -0.069778
 29 2.683750 -0.427338 0.044205 -0.005738 0.043239 -0.157060
 30 1.438885 -0.000001 0.000000 0.000000 -0.000000 0.732589
 31 1.485305 0.000001 0.000000 0.000000 -0.000000 1.168627
time 5
  0 0.235347 -0.235347 3.446893 -0.000000 -0.000000 -1.571254
  1 0.000000 0.000000 0.000000 -1.570795 -1.570796 0.000000
  2 -0.000005 0.000007 3.713255 -6.281131 3.115177 6.261712
  3 18.045721 0.000000 0.000000 0.000000 -0.000000 -0.121501
  4 17.597597 0.000000 0.000000 -0.002613 0.026036 0.099967
  5 3.793090 6.407221 0.000000 0.000000 -0.000000 1.570796
  6 0.000005 -0.000003 -3.713255 6.280565 -3.123995 6.258640
  7 18.045725 0.000000 0.000000 0.000000 -0.000000 -0.127551
  8 17.597597 0.000000 0.000000 0.002950 -0.017289 0.103055
  9 3.793090 6.407221 0.000000 0.000000 -0.000000 1.570796
 10 0.935740 0.000000 0.000000 0.000000 -0.000000 0.000000
 11 0.935741 0.000000 0.000000 0.000000 -0.000000 0.000000
 12 1.293670 0.684478 -0.000001 -0.000004 -0.000001 0.061869
 13 5.309685 -0.003834 0.000000 -0.153876 0.031280 0.198166
 14 4.826790 -0.004591 0.000000 -0.285430 0.037212 0.125465
 15 5.792767 -0.005304 0.000000 -0.155262 0.023166 0.146464
 16 6.662317 -0.001453 0.000000 -0.000144 -0.183150 0.296580
 17 2.046985 -0.000002 0.000000 0.481107 -0.188023 0.008419
 18 -2.487005 0.958643 4.873177 1.456778 -1.197523 1.459950
 19 4.827230 0.000000 0.000001 -0.108958 0.729611 -0.869423
 20 11.139763 0.000000 0.000000 0.000000 -0.000000 -1.805529
 21 10.314597 0.000001 0.000000 -1.663386 -0.456575 -0.082456
 22 2.975834 -0.386307 -0.044143 -0.028469 -0.033053 0.694833
 23 1.438886 0.000000 0.000000 0.000000 -0.000000 0.750827
 24 1.485303 0.000000 0.000000 0.000000 -0.000000 0.795574
 25 -3.768363 0.884022 -3.515377 0.129416 1.145869 2.966894
 26 4.972048 0.000000 0.000001 -0.171818 -0.969152 -0.241785
 27 11.585355 0.000000 0.000000 0.000000 -0.000000 -1.968440
 28 10.127057 0.000000 0.000001 1.569752 -0.000000 -0.069778
 29 2.683750 -0.427338 0.044205 -0.005738 0.043239 -0.157060
 30 1.438885 -0.000001 0.000000 0.000000 -0.000000 0.732589
 31 1.485305 0.000001 0.000000 0.000000 -0.000000 1.168627
time 6
  0 0.235347 -0.235347 3.446893 -0.000000 -0.000000 -1.571254
  1 0.000000 0.000000 0.000000 -1.570795 -1.570796 0.000000
  2 -0.000005 0.000007 3.713255 -6.281131 3.115177 6.261712
  3 18.045721 0.000000 0.000000 0.000000 -0.000000 -0.121501
  4 17.597597 0.000000 0.000000 -0.002613 0.026036 0.099967
  5 3.793090 6.407221 0.000000 0.000000 -0.000000 1.570796
  6 0.000005 -0.000003 -3.713255 6.280565 -3.123995 6.258640
  7 18.045725 0.000000 0.000000 0.000000 -0.000000 -0.127551
  8 17.597597 0.000000 0.000000 0.002950 -0.017289 0.103055
  9 3.793090 6.407221 0.000000 0.000000 -0.000000 1.570796
 10 0.935740 0.000000 0.000000 0.000000 -0.000000 0.000000
 11 0.935741 0.000000 0.000000 0.000000 -0.000000 0.000000
 12 1.293670 0.684478 -0.000001 -0.000004 -0.000001 0.061869
 13 5.309685 -0.003834 0.000000 -0.153876 0.031280 0.198166
 14 4.826790 -0.004591 0.000000 -0.285364 0.037883 0.127736
 15 5.792767 -0.005304 0.000000 -0.155262 0.023166 0.146464
 16 6.662317 -0.001453 0.000000 -0.000144 -0.183150 0.296580
 17 2.046985 -0.000002 0.000000 0.480892 -0.187685 0.005991
 18 -2.487005 0.958643 4.873177 1.433385 -1.196408 1.485453
 19 4.827230 0.000000 0.000001 -0.100089 0.721356 -0.864085
 20 11.139763 0.000000 0.000000 0.000000 -0.000000 -1.805529
 21 10.314597 0.000001 0.000000 -1.662128 -0.432140 -0.084976
 22 2.975834 -0.386307 -0.044143 -0.031681 -0.029985 0.796642
 23 1.438886 0.000000 0.000000 0.000000 -0.000000 0.946195
 24 1.485303 0.000000 0.000000 0.000000 -0.000000 1.024145
 25 -3.768363 0.884022 -3.515377 0.125773 1.133263 2.962963
 26 4.972048 0.000000 0.000001 -0.173133 -0.956764 -0.241324
 27 11.585355 0.000000 0.000000 0.000000 -0.000000 -1.968440
 28 10.127057 0.000000 0.000001 1.569752 -0.000000 -0.069778
 29 2.683750 -0.427338 0.044205 -0.005738 0.043239 -0.157060
 30 1.438885 -0.000001 0.000000 0.000000 -0.000000 0.732589
 31 1.485305 0.000001 0.000000 0.000000 -0.000000 1.168627
time 7
  0 0.235347 -0.235347 3.446893 -0.000000 -0.000000 -1.571254
  1 0.000000 0.000000 0.000000 -1.570795 -1.570796 0.000000
  2 -0.000005 0.000007 3.713255 -6.281131 3.115177 6.261712
  3 18.045721 0.000000 0.000000 0.000000 -0.000000 -0.121501
  4 17.597597 0.000000 0.000000 -0.002613 0.026036 0.099967
  5 3.793090 6.407221 0.000000 0.000000 -0.000000 1.570796
  6 0.000005 -0.000003 -3.713255 6.280565 -3.123995 6.258640
  7 18.045725 0.000000 0.000000 0.000000 -0.000000 -0.127551
  8 17.597597 0.000000 0.000000 0.002950 -0.017289 0.103055
  9 3.793090 6.407221 0.000000 0.000000 -0.000000 1.570796
 10 0.935740 0.000000 0.000000 0.000000 -0.000000 0.000000
 11 0.935741 0.000000 0.000000 0.000000 -0.000000 0.000000
 12 1.293670 0.684478 -0.000001 -0.000004 -0.000001 0.061869
 13 5.309685 -0.003834 0.000000 -0.153876 0.031280 0.198166
 14 4.826790 -0.004591 0.000000 -0.285282 0.038566 0.130051
 15 5.792767 -0.005304 0.000000 -0.155262 0.023166 0.146464
 16 6.662317 -0.001453 0.000000 -0.000144 -0.183150 0.296580
 17 2.046985 -0.000002 0.000000 0.480590 -0.187347 0.003879
 18 -2.487005 0.958643 4.873177 1.410855 -1.195100 1.508847
 19 4.827230 0.000000 0.000001 -0.091866 0.713612 -0.859097
 20 11.139763 0.000000 0.000000 0.000000 -0.000000 -1.805529
 21 10.314597 0.000001 0.000000 -1.661229 -0.406922 -0.087527
 22 2.975834 -0.386307 -0.044143 -0.033695 -0.027707 0.864867
 23 1.438886 0.000000 0.000000 0.000000 -0.000000 1.112571
 24 1.485303 0.000000 0.000000 0.000000 -0.000000 1.204686
 25 -3.768363 0.884022 -3.515377 0.122513 1.120516 2.959320
 26 4.972048 0.000000 0.000001 -0.174448 -0.943974 -0.241126
 27 11.585355 0.000000 0.000000 0.000000 -0.000000 -1.968440
 28 10.127057 0.000000 0.000001 1.569752 -0.000000 -0.069778
 29 2.683750 -0.427338 0.044205 -0.005738 0.043239 -0.157060
 30 1.438885 -0.000001 0.000000 0.000000 -0.000000 0.732589
 31 1.485305 0.000001 0.000000 0.000000 -0.000000 1.168627
time 8
  0 0.235347 -0.235347 3.446893 -0.000000 -0.000000 -1.571254
  1 0.000000 0.000000 0.000000 -1.570795 -1.570796 0.000000
  2 -0.000005 0.000007 3.713255 -6.281131 3.115177 6.261712
  3 18.045721 0.000000 0.000000 0.000000 -0.000000 -0.121501
  4 17.597597 0.000000 0.000000 -0.002613 0.026036 0.099967
  5 3.793090 6.407221 0.000000 0.000000 -0.000000 1.570796
  6 0.000005 -0.000003 -3.713255 6.280565 -3.123995 6.258640
  7 18.045725 0.000000 0.000000 0.000000 -0.000000 -0.127551
  8 17.597597 0.000000 0.000000 0.002950 -0.017289 0.103055
  9 3.793090 6.407221 0.000000 0.000000 -0.000000 1.570796
 10 0.935740 0.000000 0.000000 0.000000 -0.000000 0.000000
 11 0.935741 0.000000 0.000000 0.000000 -0.000000 0.000000
 12 1.293670 0.684478 -0.000001 -0.000004 -0.000001 0.061869
 13 5.309685 -0.003834 0.000000 -0.153876 0.031280 0.198166
 14 4.826790 -0.004591 0.000000 -0.285200 0.039274 0.132366
 15 5.792767 -0.005304 0.000000 -0.155262 0.023166 0.146464
 16 6.662317 -0.001453 0.000000 -0.000144 -0.183150 0.296580
 17 2.046985 -0.000002 0.000000 0.480159 -0.187010 0.001542
 18 -2.487005 0.958643 4.873177 1.391201 -1.193754 1.530419
 19 4.827230 0.000000 0.000001 -0.084700 0.706038 -0.854984
 20 11.139763 0.000000 0.000000 0.000000 -0.000000 -1.805529
 21 10.314597 0.000001 0.000000 -1.660420 -0.385074 -0.089689
 22 2.975834 -0.386307 -0.044143 -0.033862 -0.027492 0.872693
 23 1.438886 0.000000 0.000000 0.000000 -0.000000 1.214318
 24 1.485303 0.000000 0.000000 0.000000 -0.000000 1.282592
 25 -3.768363 0.884022 -3.515377 0.118966 1.107769 2.955773
 26 4.972048 0.000000 0.000001 -0.175763 -0.931345 -0.240797
 27 11.585355 0.000000 0.000000 0.000000 -0.000000 -1.968440
 28 10.127057 0.000000 0.000001 1.569752 -0.000000 -0.069778
 29 2.683750 -0.427338 0.044205 -0.005738 0.043239 -0.157060
 30 1.438885 -0.000001 0.000000 0.000000 -0.000000 0.732589
 31 1.485305 0.000001 0.000000 0.000000 -0.000000 1.168627
time 9
  0 0.235347 -0.235347 3.446893 -0.000000 -0.000000 -1.571254
  1 0.000000 0.000000 0.000000 -1.570795 -1.570796 0.000000
  2 -0.000005 0.000007 3.713255 -6.281131 3.115177 6.261712
  3 18.045721 0.000000 0.000000 0.000000 -0.000000 -0.121501
  4 17.597597 0.000000 0.000000 -0.002613 0.026036 0.099967
  5 3.793090 6.407221 0.000000 0.000000 -0.000000 1.570796
  6 0.000005 -0.000003 -3.713255 6.280565 -3.123995 6.258640
  7 18.045725 0.000000 0.000000 0.000000 -0.000000 -0.127551
  8 17.597597 0.000000 0.000000 0.002950 -0.017289 0.103055
  9 3.793090 6.407221 0.000000 0.000000 -0.000000 1.570796
 10 0.935740 0.000000 0.000000 0.000000 -0.000000 0.000000
 11 0.935741 0.000000 0.000000 0.000000 -0.000000 0.000000
 12 1.293670 0.684478 -0.000001 -0.000004 -0.000001 0.061869
 13 5.309685 -0.003834 0.000000 -0.153876 0.031280 0.198166
 14 4.826790 -0.004591 0.000000 -0.285118 0.039933 0.134571
 15 5.792767 -0.005304 0.000000 -0.155262 0.023166 0.146464
 16 6.662317 -0.001453 0.000000 -0.000144 -0.183150 0.296580
 17 2.046985 -0.000002 0.000000 0.480073 -0.186672 -0.000841
 18 -2.487005 0.958643 4.873177 1.370684 -1.192177 1.552758
 19 4.827230 0.000000 0.000001 -0.077123 0.698379 -0.850608
 20 11.139763 0.000000 0.000000 0.000000 -0.000000 -1.805529
 21 10.314597 0.000001 0.000000 -1.659701 -0.366204 -0.091509
 22 2.975834 -0.386307 -0.044143 -0.031034 -0.030656 0.775243
 23 1.438886 0.000000 0.000000 0.000000 -0.000000 1.216519
 24 1.485303 0.000000 0.000000 0.000000 -0.000000 1.193251
 25 -3.768363 0.884022 -3.515377 0.116569 1.095587 2.952609
 26 4.972048 0.000000 0.000001 -0.176846 -0.919359 -0.240270
 27 11.585355 0.000000 0.000000 0.000000 -0.000000 -1.968440
 28 10.127057 0.000000 0.000001 1.569752 -0.000000 -0.069778
 29 2.683750 -0.427338 0.044205 -0.005738 0.043239 -0.157060
 30 1.438885 -0.000001 0.000000 0.000000 -0.000000 0.732589
 31 1.485305 0.000001 0.000000 0.000000 -0.000000 1.168627
time 10
  0 0.235347 -0.235347 3.446893 -0.000000 -0.000000 -1.571254
  1 0.000000 0.000000 0.000000 -1.570795 -1.570796 0.000000
  2 -0.000005 0.000007 3.713255 -6.281131 3.115177 6.261712
  3 18.045721 0.000000 0.000000 0.000000 -0.000000 -0.121501
  4 17.597597 0.000000 0.000000 -0.002613 0.026036 0.099967
  5 3.793090 6.407221 0.000000 0.000000 -0.000000 1.570796
  6 0.000005 -0.000003 -3.713255 6.280565 -3.123995 6.258640
  7 18.045725 0.000000 0.000000 0.000000 -0.000000 -0.127551
  8 17.597597 0.000000 0.000000 0.002950 -0.017289 0.103055
  9 3.793090 6.407221 0.000000 0.000000 -0.000000 1.570796
 10 0.935740 0.000000 0.000000 0.000000 -0.000000 0.000000
 11 0.935741 0.000000 0.000000 0.000000 -0.000000 0.000000
 12 1.293670 0.684478 -0.000001 -0.000004 -0.000001 0.061869
 13 5.309685 -0.003834 0.000000 -0.153876 0.031280 0.198166
 14 4.826790 -0.004591 0.000000 -0.285036 0.040532 0.136555
 15 5.792767 -0.005304 0.000000 -0.155262 0.023166 0.146464
 16 6.662317 -0.001453 0.000000 -0.000144 -0.183150 0.296580
 17 2.046985 -0.000002 0.000000 0.479642 -0.186379 -0.002728
 18 -2.487005 0.958643 4.873177 1.348921 -1.190292 1.575960
 19 4.827230 0.000000 0.000001 -0.069135 0.690209 -0.845795
 20 11.139763 0.000000 0.000000 0.000000 -0.000000 -1.805529
 21 10.314597 0.000001 0.000000 -1.659072 -0.346660 -0.093376
 22 2.975834 -0.386307 -0.044143 -0.024934 -0.035797 0.590514
 23 1.438886 0.000000 0.000000 0.000000 -0.000000 1.144991
 24 1.485303 0.000000 0.000000 0.000000 -0.000000 0.975305
 25 -3.768363 0.884022 -3.515377 0.113693 1.084253 2.949733
 26 4.972048 0.000000 0.000001 -0.178161 -0.908017 -0.240270
 27 11.585355 0.000000 0.000000 0.000000 -0.000000 -1.968440
 28 10.127057 0.000000 0.000001 1.569752 -0.000000 -0.069778
 29 2.683750 -0.427338 0.044205 -0.005738 0.043239 -0.157060
 30 1.438885 -0.000001 0.000000 0.000000 -0.000000 0.732589
 31 1.485305 0.000001 0.000000 0.000000 -0.000000 1.168627
time 11
  0 0.235347 -0.235347 3.446893 -0.000000 -0.000000 -1.571254
  1 0.000000 0.000000 0.000000 -1.570795 -1.570796 0.000000
  2 -0.000005 0.000007 3.713255 -6.281131 3.115177 6.261712
  3 18.045721 0.000000 0.000000 0.000000 -0.000000 -0.121501
  4 17.597597 0.000000 0.000000 -0.002613 0.026036 0.099967
  5 3.793090 6.407221 0.000000 0.000000 -0.000000 1.570796
  6 0.000005 -0.000003 -3.713255 6.280565 -3.123995 6.258640
  7 18.045725 0.000000 0.000000 0.000000 -0.000000 -0.127551
  8 17.597597 0.000000 0.000000 0.002950 -0.017289 0.103055
  9 3.793090 6.407221 0.000000 0.000000 -0.000000 1.570796
 10 0.935740 0.000000 0.000000 0.000000 -0.000000 0.000000
 11 0.935741 0.000000 0.000000 0.000000 -0.000000 0.000000
 12 1.293670 0.684478 -0.000001 -0.000004 -0.000001 0.061869
 13 5.309685 -0.003834 0.000000 -0.153876 0.031280 0.198166
 14 4.826790 -0.004591 0.000000 -0.284921 0.041023 0.138385
 15 5.792767 -0.005304 0.000000 -0.155262 0.023166 0.146464
 16 6.662317 -0.001453 0.000000 -0.000144 -0.183150 0.296580
 17 2.046985 -0.000002 0.000000 0.479556 -0.186109 -0.004526
 18 -2.487005 0.958643 4.873177 1.330513 -1.188600 1.596094
 19 4.827230 0.000000 0.000001 -0.062380 0.683401 -0.842032
 20 11.139763 0.000000 0.000000 0.000000 -0.000000 -1.805529
 21 10.314597 0.000001 0.000000 -1.658353 -0.327420 -0.095180
 22 2.975834 -0.386307 -0.044143 -0.016964 -0.040171 0.382636
 23 1.438886 0.000000 0.000000 0.000000 -0.000000 1.048450
 24 1.485303 0.000000 0.000000 0.000000 -0.000000 0.720718
 25 -3.768363 0.884022 -3.515377 0.111871 1.074163 2.947336
 26 4.972048 0.000000 0.000001 -0.179089 -0.897962 -0.240138
 27 11.585355 0.000000 0.000000 0.000000 -0.000000 -1.968440
 28 10.127057 0.000000 0.000001 1.569752 -0.000000 -0.069778
 29 2.683750 -0.427338 0.044205 -0.005738 0.043239 -0.157060
 30 1.438885 -0.000001 0.000000 0.000000 -0.000000 0.732589
 31 1.485305 0.000001 0.000000 0.000000 -0.000000 1.168627
time 12
  0 0.235347 -0.235347 3.446893 -0.000000 -0.000000 -1.571254
  1 0.000000 0.000000 0.000000 -1.570795 -1.570796 0.000000
  2 -0.000005 0.000007 3.713255 -6.281131 3.115177 6.261712
  3 18.045721 0.000000 0.000000 0.000000 -0.000000 -0.121501
  4 17.597597 0.000000 0.000000 -0.002613 0.026036 0.099967
  5 3.793090 6.407221 0.000000 0.000000 -0.000000 1.570796
  6 0.000005 -0.000003 -3.713255 6.280565 -3.123995 6.258640
  7 18.045725 0.000000 0.000000 0.000000 -0.000000 -0.127551
  8 17.597597 0.000000 0.000000 0.002950 -0.017289 0.103055
  9 3.793090 6.407221 0.000000 0.000000 -0.000000 1.570796
 10 0.935740 0.000000 0.000000 0.000000 -0.000000 0.000000
 11 0.935741 0.000000 0.000000 0.000000 -0.000000 0.000000
 12 1.293670 0.684478 -0.000001 -0.000004 -0.000001 0.061869
 13 5.309685 -0.003834 0.000000 -0.153876 0.031280 0.198166
 14 4.826790 -0.004591 0.000000 -0.284888 0.041527 0.139995
 15 5.792767 -0.005304 0.000000 -0.155262 0.023166 0.146464
 16 6.662317 -0.001453 0.000000 -0.000144 -0.183150 0.296580
 17 2.046985 -0.000002 0.000000 0.479427 -0.185884 -0.006189
 18 -2.487005 0.958643 4.873177 1.319296 -1.187446 1.607791
 19 4.827230 0.000000 0.000001 -0.058386 0.678976 -0.839757
 20 11.139763 0.000000 0.000000 0.000000 -0.000000 -1.805529
 21 10.314597 0.000001 0.000000 -1.657724 -0.309442 -0.096860
 22 2.975834 -0.386307 -0.044143 -0.010133 -0.042448 0.216235
 23 1.438886 0.000000 0.000000 0.000000 -0.000000 0.976245
 24 1.485303 0.000000 0.000000 0.000000 -0.000000 0.521070
 25 -3.768363 0.884022 -3.515377 0.109954 1.065627 2.945323
 26 4.972048 0.000000 0.000001 -0.179940 -0.889596 -0.239743
 27 11.585355 0.000000 0.000000 0.000000 -0.000000 -1.968440
 28 10.127057 0.000000 0.000001 1.569752 -0.000000 -0.069778
 29 2.683750 -0.427338 0.044205 -0.005738 0.043239 -0.157060
 30 1.438885 -0.000001 0.000000 0.000000 -0.000000 0.732589
 31 1.485305 0.000001 0.000000 0.000000 -0.000000 1.168627
time 13
  0 0.235347 -0.235347 3.446893 -0.000000 -0.000000 -1.571254
  1 0.000000 0.000000 0.000000 -1.570795 -1.570796 0.000000
  2 -0.000005 0.000007 3.713255 -6.281131 3.115177 6.261712
  3 18.045721 0.000000 0.000000 0.000000 -0.000000 -0.121501
  4 17.597597 0.000000 0.000000 -0.002613 0.026036 0.099967
  5 3.793090 6.407221 0.000000 0.000000 -0.000000 1.570796
  6 0.000005 -0.000003 -3.713255 6.280565 -3.123995 6.258640
  7 18.045725 0.000000 0.000000 0.000000 -0.000000 -0.127551
  8 17.597597 0.000000 0.000000 0.002950 -0.017289 0.103055
  9 3.793090 6.407221 0.000000 0.000000 -0.000000 1.570796
 10 0.935740 0.000000 0.000000 0.000000 -0.000000 0.000000
 11 0.935741 0.000000 0.000000 0.000000 -0.000000 0.000000
 12 1.293670 0.684478 -0.000001 -0.000004 -0.000001 0.061869
 13 5.309685 -0.003834 0.000000 -0.153876 0.031280 0.198166
 14 4.826790 -0.004591 0.000000 -0.284855 0.041814 0.141119
 15 5.792767 -0.005304 0.000000 -0.155262 0.023166 0.146464
 16 6.662317 -0.001453 0.000000 -0.000144 -0.183150 0.296580
 17 2.046985 -0.000002 0.000000 0.479082 -0.185704 -0.007268
 18 -2.487005 0.958643 4.873177 1.317091 -1.187177 1.610092
 19 4.827230 0.000000 0.000001 -0.057740 0.677274 -0.839757
 20 11.139763 0.000000 0.000000 0.000000 -0.000000 -1.805529
 21 10.314597 0.000001 0.000000 -1.657544 -0.293550 -0.098338
 22 2.975834 -0.386307 -0.044143 -0.006610 -0.043168 0.133942
 23 1.438886 0.000000 0.000000 0.000000 -0.000000 0.961347
 24 1.485303 0.000000 0.000000 0.000000 -0.000000 0.437732
 25 -3.768363 0.884022 -3.515377 0.108899 1.059098 2.943789
 26 4.972048 0.000000 0.000001 -0.180559 -0.883080 -0.239743
 27 11.585355 0.000000 0.000000 0.000000 -0.000000 -1.968440
 28 10.127057 0.000000 0.000001 1.569752 -0.000000 -0.069778
 29 2.683750 -0.427338 0.044205 -0.005738 0.043239 -0.157060
 30 1.438885 -0.000001 0.000000 0.000000 -0.000000 0.732589
 31 1.485305 0.000001 0.000000 0.000000 -0.000000 1.168627
time 14
  0 0.235347 -0.235347 3.446893 -0.000000 -0.000000 -1.571254
  1 0.000000 0.000000 0.000000 -1.570795 -1.570796 0.000000
  2 -0.000005 0.000007 3.713255 -6.281131 3.115177 6.261712
  3 18.045721 0.000000 0.000000 0.000000 -0.000000 -0.121501
  4 17.597597 0.000000 0.000000 -0.002613 0.026036 0.099967
  5 3.793090 6.407221 0.000000 0.000000 -0.000000 1.570796
  6 0.000005 -0.000003 -3.713255 6.280565 -3.123995 6.258640
  7 18.045725 0.000000 0.000000 0.000000 -0.000000 -0.127551
  8 17.597597 0.000000 0.000000 0.002950 -0.017289 0.103055
  9 3.793090 6.407221 0.000000 0.000000 -0.000000 1.570796
 10 0.935740 0.000000 0.000000 0.000000 -0.000000 0.000000
 11 0.935741 0.000000 0.000000 0.000000 -0.000000 0.000000
 12 1.293670 0.684478 -0.000001 -0.000004 -0.000001 0.061869
 13 5.309685 -0.003834 0.000000 -0.153876 0.031280 0.198166
 14 4.826790 -0.004591 0.000000 -0.284806 0.042090 0.141935
 15 5.792767 -0.005304 0.000000 -0.155262 0.023166 0.146464
 16 6.662317 -0.001453 0.000000 -0.000144 -0.183150 0.296580
 17 2.046985 -0.000002 0.000000 0.479039 -0.185591 -0.008032
 18 -2.487005 0.958643 4.873177 1.323227 -1.187869 1.603285
 19 4.827230 0.000000 0.000001 -0.060618 0.678125 -0.841682
 20 11.139763 0.000000 0.000000 0.000000 -0.000000 -1.805529
 21 10.314597 0.000001 0.000000 -1.656915 -0.280028 -0.099598
 22 2.975834 -0.386307 -0.044143 -0.006622 -0.043168 0.134206
 23 1.438886 0.000000 0.000000 0.000000 -0.000000 1.007184
 24 1.485303 0.000000 0.000000 0.000000 -0.000000 0.468275
 25 -3.768363 0.884022 -3.515377 0.107653 1.054915 2.943022
 26 4.972048 0.000000 0.000001 -0.181023 -0.879058 -0.239743
 27 11.585355 0.000000 0.000000 0.000000 -0.000000 -1.968440
 28 10.127057 0.000000 0.000001 1.569752 -0.000000 -0.069778
 29 2.683750 -0.427338 0.044205 -0.005738 0.043239 -0.157060
 30 1.438885 -0.000001 0.000000 0.000000 -0.000000 0.732589
 31 1.485305 0.000001 0.000000 0.000000 -0.000000 1.168627
time 15
  0 0.235347 -0.235347 3.446893 -0.000000 -0.000000 -1.571254
  1 0.000000 0.000000 0.000000 -1.570795 -1.570796 0.000000
  2 -0.000005 0.000007 3.713255 -6.281131 3.115177 6.261712
  3 18.045721 0.000000 0.000000 0.000000 -0.000000 -0.121501
  4 17.597597 0.000000 0.000000 -0.002613 0.026036 0.099967
  5 3.793090 6.407221 0.000000 0.000000 -0.000000 1.570796
  6 0.000005 -0.000003 -3.713255 6.280565 -3.123995 6.258640
  7 18.045725 0.000000 0.000000 0.000000 -0.000000 -0.127551
  8 17.597597 0.000000 0.000000 0.002950 -0.017289 0.103055
  9 3.793090 6.407221 0.000000 0.000000 -0.000000 1.570796
 10 0.935740 0.000000 0.000000 0.000000 -0.000000 0.000000
 11 0.935741 0.000000 0.000000 0.000000 -0.000000 0.000000
 12 1.293670 0.684478 -0.000001 -0.000004 -0.000001 0.061869
 13 5.309685 -0.003834 0.000000 -0.153876 0.031280 0.198166
 14 4.826790 -0.004591 0.000000 -0.284806 0.042174 0.142222
 15 5.792767 -0.005304 0.000000 -0.155262 0.023166 0.146464
 16 6.662317 -0.001453 0.000000 -0.000144 -0.183150 0.296580
 17 2.046985 -0.000002 0.000000 0.479039 -0.185569 -0.008482
 18 -2.487005 0.958643 4.873177 1.335307 -1.189023 1.590629
 19 4.827230 0.000000 0.000001 -0.065317 0.681018 -0.844745
 20 11.139763 0.000000 0.000000 0.000000 -0.000000 -1.805529
 21 10.314597 0.000001 0.000000 -1.656915 -0.268071 -0.100671
 22 2.975834 -0.386307 -0.044143 -0.008491 -0.042784 0.178886
 23 1.438886 0.000000 0.000000 0.000000 -0.000000 1.086330
 24 1.485303 0.000000 0.000000 0.000000 -0.000000 0.559093
 25 -3.768363 0.884022 -3.515377 0.107653 1.053417 2.942255
 26 4.972048 0.000000 0.000001 -0.181178 -0.877530 -0.239743
 27 11.585355 0.000000 0.000000 0.000000 -0.000000 -1.968440
 28 10.127057 0.000000 0.000001 1.569752 -0.000000 -0.069778
 29 2.683750 -0.427338 0.044205 -0.005738 0.043239 -0.157060
 30 1.438885 -0.000001 0.000000 0.000000 -0.000000 0.732589
 31 1.485305 0.000001 0.000000 0.000000 -0.000000 1.168627
time 16
  0 0.235347 -0.235347 3.446893 -0.000000 -0.000000 -1.571254
  1 0.000000 0.000000 0.000000 -1.570795 -1.570796 0.000000
  2 -0.000005 0.000007 3.713255 -6.281131 3.115177 6.261712
  3 18.045721 0.000000 0.000000 0.000000 -0.000000 -0.121501
  4 17.597597 0.000000 0.000000 -0.002613 0.026036 0.099967
  5 3.793090 6.407221 0.000000 0.000000 -0.000000 1.570796
  6 0.000005 -0.000003 -3.713255 6.280565 -3.123995 6.258640
  7 18.045725 0.000000 0.000000 0.000000 -0.000000 -0.127551
  8 17.597597 0.000000 0.000000 0.002950 -0.017289 0.103055
  9 3.793090 6.407221 0.000000 0.000000 -0.000000 1.570796
 10 0.935740 0.000000 0.000000 0.000000 -0.000000 0.000000
 11 0.935741 0.000000 0.000000 0.000000 -0.000000 0.000000
 12 1.293670 0.684478 -0.000001 -0.000004 -0.000001 0.061869
 13 5.309685 -0.003834 0.000000 -0.153876 0.031280 0.198166
 14 4.826790 -0.004591 0.000000 -0.284806 0.042090 0.141935
 15 5.792767 -0.005304 0.000000 -0.155262 0.023166 0.146464
 16 6.662317 -0.001453 0.000000 -0.000144 -0.183150 0.296580
 17 2.046985 -0.000002 0.000000 0.479039 -0.185591 -0.008032
 18 -2.487005 0.958643 4.873177 1.350359 -1.190446 1.574426
 19 4.827230 0.000000 0.000001 -0.071308 0.685699 -0.848508
 20 11.139763 0.000000 0.000000 0.000000 -0.000000 -1.805529
 21 10.314597 0.000001 0.000000 -1.656645 -0.257049 -0.101667
 22 2.975834 -0.386307 -0.044143 -0.011296 -0.042185 0.244205
 23 1.438886 0.000000 0.000000 0.000000 -0.000000 1.177919
 24 1.485303 0.000000 0.000000 0.000000 -0.000000 0.677405
 25 -3.768363 0.884022 -3.515377 0.107653 1.054915 2.943022
 26 4.972048 0.000000 0.000001 -0.181023 -0.879058 -0.239743
 27 11.585355 0.000000 0.000000 0.000000 -0.000000 -1.968440
 28 10.127057 0.000000 0.000001 1.569752 -0.000000 -0.069778
 29 2.683750 -0.427338 0.044205 -0.005738 0.043239 -0.157060
 30 1.438885 -0.000001 0.000000 0.000000 -0.000000 0.732589
 31 1.485305 0.000001 0.000000 0.000000 -0.000000 1.168627
time 17
  0 0.235347 -0.235347 3.446893 -0.000000 -0.000000 -1.571254
  1 0.000000 0.000000 0.000000 -1.570795 -1.570796 0.000000
  2 -0.000005 0.000007 3.713255 -6.281131 3.115177 6.261712
  3 18.045721 0.000000 0.000000 0.000000 -0.000000 -0.121501
  4 17.597597 0.000000 0.000000 -0.002613 0.026036 0.099967
  5 3.793090 6.407221 0.000000 0.000000 -0.000000 1.570796
  6 0.000005 -0.000003 -3.713255 6.280565 -3.123995 6.258640
  7 18.045725 0.000000 0.000000 0.000000 -0.000000 -0.127551
  8 17.597597 0.000000 0.000000 0.002950 -0.017289 0.103055
  9 3.793090 6.407221 0.000000 0.000000 -0.000000 1.570796
 10 0.935740 0.000000 0.000000 0.000000 -0.000000 0.000000
 11 0.935741 0.000000 0.000000 0.000000 -0.000000 0.000000
 12 1.293670 0.684478 -0.000001 -0.000004 -0.000001 0.061869
 13 5.309685 -0.003834 0.000000 -0.153876 0.031280 0.198166
 14 4.826790 -0.004591 0.000000 -0.284855 0.041814 0.141119
 15 5.792767 -0.005304 0.000000 -0.155262 0.023166 0.146464
 16 6.662317 -0.001453 0.000000 -0.000144 -0.183150 0.296580
 17 2.046985 -0.000002 0.000000 0.479082 -0.185704 -0.007268
 18 -2.487005 0.958643 4.873177 1.367041 -1.191869 1.556689
 19 4.827230 0.000000 0.000001 -0.077593 0.690805 -0.852271
 20 11.139763 0.000000 0.000000 0.000000 -0.000000 -1.805529
 21 10.314597 0.000001 0.000000 -1.656196 -0.246310 -0.102631
 22 2.975834 -0.386307 -0.044143 -0.014352 -0.041190 0.317086
 23 1.438886 0.000000 0.000000 0.000000 -0.000000 1.270228
 24 1.485303 0.000000 0.000000 0.000000 -0.000000 0.804961
 25 -3.768363 0.884022 -3.515377 0.108899 1.059098 2.943789
 26 4.972048 0.000000 0.000001 -0.180559 -0.883080 -0.239743
 27 11.585355 0.000000 0.000000 0.000000 -0.000000 -1.968440
 28 10.127057 0.000000 0.000001 1.569752 -0.000000 -0.069778
 29 2.683750 -0.427338 0.044205 -0.005738 0.043239 -0.157060
 30 1.438885 -0.000001 0.000000 0.000000 -0.000000 0.732589
 31 1.485305 0.000001 0.000000 0.000000 -0.000000 1.168627
time 18
  0 0.235347 -0.235347 3.446893 -0.000000 -0.000000 -1.571254
  1 0.000000 0.000000 0.000000 -1.570795 -1.570796 0.000000
  2 -0.000005 0.000007 3.713255 -6.281131 3.115177 6.261712
  3 18.045721 0.000000 0.000000 0.000000 -0.000000 -0.121501
  4 17.597597 0.000000 0.000000 -0.002613 0.026036 0.099967
  5 3.793090 6.407221 0.000000 0.000000 -0.000000 1.570796
  6 0.000005 -0.000003 -3.713255 6.280565 -3.123995 6.258640
  7 18.045725 0.000000 0.000000 0.000000 -0.000000 -0.127551
  8 17.597597 0.000000 0.000000 0.002950 -0.017289 0.103055
  9 3.793090 6.407221 0.000000 0.000000 -0.000000 1.570796
 10 0.935740 0.000000 0.000000 0.000000 -0.000000 0.000000
 11 0.935741 0.000000 0.000000 0.000000 -0.000000 0.000000
 12 1.293670 0.684478 -0.000001 -0.000004 -0.000001 0.061869
 13 5.309685 -0.003834 0.000000 -0.153876 0.031280 0.198166
 14 4.826790 -0.004591 0.000000 -0.284888 0.041527 0.139995
 15 5.792767 -0.005304 0.000000 -0.155262 0.023166 0.146464
 16 6.662317 -0.001453 0.000000 -0.000144 -0.183150 0.296580
 17 2.046985 -0.000002 0.000000 0.479427 -0.185884 -0.006189
 18 -2.487005 0.958643 4.873177 1.384490 -1.193254 1.537322
 19 4.827230 0.000000 0.000001 -0.084289 0.696762 -0.856384
 20 11.139763 0.000000 0.000000 0.000000 -0.000000 -1.805529
 21 10.314597 0.000001 0.000000 -1.656196 -0.235288 -0.103611
 22 2.975834 -0.386307 -0.044143 -0.017228 -0.040123 0.387920
 23 1.438886 0.000000 0.000000 0.000000 -0.000000 1.354072
 24 1.485303 0.000000 0.000000 0.000000 -0.000000 0.928466
 25 -3.768363 0.884022 -3.515377 0.109954 1.065627 2.945323
 26 4.972048 0.000000 0.000001 -0.179940 -0.889596 -0.239743
 27 11.585355 0.000000 0.000000 0.000000 -0.000000 -1.968440
 28 10.127057 0.000000 0.000001 1.569752 -0.000000 -0.069778
 29 2.683750 -0.427338 0.044205 -0.005738 0.043239 -0.157060
 30 1.438885 -0.000001 0.000000 0.000000 -0.000000 0.732589
 31 1.485305 0.000001 0.000000 0.000000 -0.000000 1.168627
time 19
  0 0.235347 -0.235347 3.446893 -0.000000 -0.000000 -1.571254
  1 0.000000 0.000000 0.000000 -1.570795 -1.570796 0.000000
  2 -0.000005 0.000007 3.713255 -6.281131 3.115177 6.261712
  3 18.045721 0.000000 0.000000 0.000000 -0.000000 -0.121501
  4 17.597597 0.000000 0.000000 -0.002613 0.026036 0.099967
  5 3.793090 6.407221 0.000000 0.000000 -0.000000 1.570796
  6 0.000005 -0.000003 -3.713255 6.280565 -3.123995 6.258640
  7 18.045725 0.000000 0.000000 0.000000 -0.000000 -0.127551
  8 17.597597 0.000000 0.000000 0.002950 -0.017289 0.103055
  9 3.793090 6.407221 0.000000 0.000000 -0.000000 1.570796
 10 0.935740 0.000000 0.000000 0.000000 -0.000000 0.000000
 11 0.935741 0.000000 0.000000 0.000000 -0.000000 0.000000
 12 1.293670 0.684478 -0.000001 -0.000004 -0.000001 0.061869
 13 5.309685 -0.003834 0.000000 -0.153876 0.031280 0.198166
 14 4.826790 -0.004591 0.000000 -0.284921 0.041023 0.138385
 15 5.792767 -0.005304 0.000000 -0.155262 0.023166 0.146464
 16 6.662317 -0.001453 0.000000 -0.000144 -0.183150 0.296580
 17 2.046985 -0.000002 0.000000 0.479556 -0.186109 -0.004526
 18 -2.487005 0.958643 4.873177 1.402514 -1.194523 1.518147
 19 4.827230 0.000000 0.000001 -0.090926 0.702719 -0.860322
 20 11.139763 0.000000 0.000000 0.000000 -0.000000 -1.805529
 21 10.314597 0.000001 0.000000 -1.655926 -0.223331 -0.104669
 22 2.975834 -0.386307 -0.044143 -0.019397 -0.039093 0.444091
 23 1.438886 0.000000 0.000000 0.000000 -0.000000 1.416373
 24 1.485303 0.000000 0.000000 0.000000 -0.000000 1.030578
 25 -3.768363 0.884022 -3.515377 0.111871 1.074163 2.947336
 26 4.972048 0.000000 0.000001 -0.179089 -0.897962 -0.240138
 27 11.585355 0.000000 0.000000 0.000000 -0.000000 -1.968440
 28 10.127057 0.000000 0.000001 1.569752 -0.000000 -0.069778
 29 2.683750 -0.427338 0.044205 -0.005738 0.043239 -0.157060
 30 1.438885 -0.000001 0.000000 0.000000 -0.000000 0.732589
 31 1.485305 0.000001 0.000000 0.000000 -0.000000 1.168627
time 20
  0 0.235347 -0.235347 3.446893 -0.000000 -0.000000 -1.571254
  1 0.000000 0.000000 0.000000 -1.570795 -1.570796 0.000000
  2 -0.000005 0.000007 3.713255 -6.281131 3.115177 6.261712
  3 18.045721 0.000000 0.000000 0.000000 -0.000000 -0.121501
  4 17.597597 0.000000 0.000000 -0.002613 0.026036 0.099967
  5 3.793090 6.407221 0.000000 0.000000 -0.000000 1.570796
  6 0.000005 -0.000003 -3.713255 6.280565 -3.123995 6.258640
  7 18.045725 0.000000 0.000000 0.000000 -0.000000 -0.127551
  8 17.597597 0.000000 0.000000 0.002950 -0.017289 0.103055
  9 3.793090 6.407221 0.000000 0.000000 -0.000000 1.570796
 10 0.935740 0.000000 0.000000 0.000000 -0.000000 0.000000
 11 0.935741 0.000000 0.000000 0.000000 -0.000000 0.000000
 12 1.293670 0.684478 -0.000001 -0.000004 -0.000001 0.061869
 13 5.309685 -0.003834 0.000000 -0.153876 0.031280 0.198166
 14 4.826790 -0.004591 0.000000 -0.285036 0.040532 0.136555
 15 5.792767 -0.005304 0.000000 -0.155262 0.023166 0.146464
 16 6.662317 -0.001453 0.000000 -0.000144 -0.183150 0.296580
 17 2.046985 -0.000002 0.000000 0.479642 -0.186379 -0.002728
 18 -2.487005 0.958643 4.873177 1.418429 -1.195523 1.500985
 19 4.827230 0.000000 0.000001 -0.096976 0.708761 -0.863735
 20 11.139763 0.000000 0.000000 0.000000 -0.000000 -1.805529
 21 10.314597 0.000001 0.000000 -1.655387 -0.209787 -0.105851
 22 2.975834 -0.386307 -0.044143 -0.020248 -0.038637 0.464565
 23 1.438886 0.000000 0.000000 0.000000 -0.000000 1.433599
 24 1.485303 0.000000 0.000000 0.000000 -0.000000 1.080466
 25 -3.768363 0.884022 -3.515377 0.113693 1.084253 2.949733
 26 4.972048 0.000000 0.000001 -0.178161 -0.908017 -0.240270
 27 11.585355 0.000000 0.000000 0.000000 -0.000000 -1.968440
 28 10.127057 0.000000 0.000001 1.569752 -0.000000 -0.069778
 29 2.683750 -0.427338 0.044205 -0.005738 0.043239 -0.157060
 30 1.438885 -0.000001 0.000000 0.000000 -0.000000 0.732589
 31 1.485305 0.000001 0.000000 0.000000 -0.000000 1.168627
time 21
  0 0.235347 -0.235347 3.446893 -0.000000 -0.000000 -1.571254
  1 0.000000 0.000000 0.000000 -1.570795 -1.570796 0.000000
  2 -0.000005 0.000007 3.713255 -6.281131 3.115177 6.261712
  3 18.045721 0.000000 0.000000 0.000000 -0.000000 -0.121501
  4 17.597597 0.000000 0.000000 -0.002613 0.026036 0.099967
  5 3.793090 6.407221 0.000000 0.000000 -0.000000 1.570796
  6 0.000005 -0.000003 -3.713255 6.280565 -3.123995 6.258640
  7 18.045725 0.000000 0.000000 0.000000 -0.000000 -0.127551
  8 17.597597 0.000000 0.000000 0.002950 -0.017289 0.103055
  9 3.793090 6.407221 0.000000 0.000000 -0.000000 1.570796
 10 0.935740 0.000000 0.000000 0.000000 -0.000000 0.000000
 11 0.935741 0.000000 0.000000 0.000000 -0.000000 0.000000
 12 1.293670 0.684478 -0.000001 -0.000004 -0.000001 0.061869
 13 5.309685 -0.003834 0.000000 -0.153876 0.031280 0.198166
 14 4.826790 -0.004591 0.000000 -0.285118 0.039933 0.134571
 15 5.792767 -0.005304 0.000000 -0.155262 0.023166 0.146464
 16 6.662317 -0.001453 0.000000 -0.000144 -0.183150 0.296580
 17 2.046985 -0.000002 0.000000 0.480073 -0.186672 -0.000841
 18 -2.487005 0.958643 4.873177 1.433481 -1.196408 1.484878
 19 4.827230 0.000000 0.000001 -0.102262 0.714548 -0.866798
 20 11.139763 0.000000 0.000000 0.000000 -0.000000 -1.805529
 21 10.314597 0.000001 0.000000 -1.655297 -0.190635 -0.107531
 22 2.975834 -0.386307 -0.044143 -0.018510 -0.039476 0.421372
 23 1.438886 0.000000 0.000000 0.000000 -0.000000 1.369986
 24 1.485303 0.000000 0.000000 0.000000 -0.000000 1.038726
 25 -3.768363 0.884022 -3.515377 0.116569 1.095587 2.952609
 26 4.972048 0.000000 0.000001 -0.176846 -0.919359 -0.240270
 27 11.585355 0.000000 0.000000 0.000000 -0.000000 -1.968440
 28 10.127057 0.000000 0.000001 1.569752 -0.000000 -0.069778
 29 2.683750 -0.427338 0.044205 -0.005738 0.043239 -0.157060
 30 1.438885 -0.000001 0.000000 0.000000 -0.000000 0.732589
 31 1.485305 0.000001 0.000000 0.000000 -0.000000 1.168627
time 22
  0 0.235347 -0.235347 3.446893 -0.000000 -0.000000 -1.571254
  1 0.000000 0.000000 0.000000 -1.570795 -1.570796 0.000000
  2 -0.000005 0.000007 3.713255 -6.281131 3.115177 6.261712
  3 18.045721 0.000000 0.000000 0.000000 -0.000000 -0.121501
  4 17.597597 0.000000 0.000000 -0.002613 0.026036 0.099967
  5 3.793090 6.407221 0.000000 0.000000 -0.000000 1.570796
  6 0.000005 -0.000003 -3.713255 6.280565 -3.123995 6.258640
  7 18.045725 0.000000 0.000000 0.000000 -0.000000 -0.127551
  8 17.597597 0.000000 0.000000 0.002950 -0.017289 0.103055
  9 3.793090 6.407221 0.000000 0.000000 -0.000000 1.570796
 10 0.935740 0.000000 0.000000 0.000000 -0.000000 0.000000
 11 0.935741 0.000000 0.000000 0.000000 -0.000000 0.000000
 12 1.293670 0.684478 -0.000001 -0.000004 -0.000001 0.061869
 13 5.309685 -0.003834 0.000000 -0.153876 0.031280 0.198166
 14 4.826790 -0.004591 0.000000 -0.285200 0.039274 0.132366
 15 5.792767 -0.005304 0.000000 -0.155262 0.023166 0.146464
 16 6.662317 -0.001453 0.000000 -0.000144 -0.183150 0.296580
 17 2.046985 -0.000002 0.000000 0.480159 -0.187010 0.001542
 18 -2.487005 0.958643 4.873177 1.447958 -1.197177 1.469250
 19 4.827230 0.000000 0.000001 -0.107431 0.720590 -0.869773
 20 11.139763 0.000000 0.000000 0.000000 -0.000000 -1.805529
 21 10.314597 0.000001 0.000000 -1.654578 -0.164917 -0.109771
 22 2.975834 -0.386307 -0.044143 -0.014364 -0.041190 0.317515
 23 1.438886 0.000000 0.000000 0.000000 -0.000000 1.223883
 24 1.485303 0.000000 0.000000 0.000000 -0.000000 0.909645
 25 -3.768363 0.884022 -3.515377 0.118966 1.107769 2.955773
 26 4.972048 0.000000 0.000001 -0.175763 -0.931345 -0.240797
 27 11.585355 0.000000 0.000000 0.000000 -0.000000 -1.968440
 28 10.127057 0.000000 0.000001 1.569752 -0.000000 -0.069778
 29 2.683750 -0.427338 0.044205 -0.005738 0.043239 -0.157060
 30 1.438885 -0.000001 0.000000 0.000000 -0.000000 0.732589
 31 1.485305 0.000001 0.000000 0.000000 -0.000000 1.168627
time 23
  0 0.235347 -0.235347 3.446893 -0.000000 -0.000000 -1.571254
  1 0.000000 0.000000 0.000000 -1.570795 -1.570796 0.000000
  2 -0.000005 0.000007 3.713255 -6.281131 3.115177 6.261712
  3 18.045721 0.000000 0.000000 0.000000 -0.000000 -0.121501
  4 17.597597 0.000000 0.000000 -0.002613 0.026036 0.099967
  5 3.793090 6.407221 0.000000 0.000000 -0.000000 1.570796
  6 0.000005 -0.000003 -3.713255 6.280565 -3.123995 6.258640
  7 18.045725 0.000000 0.000000 0.000000 -0.000000 -0.127551
  8 17.597597 0.000000 0.000000 0.002950 -0.017289 0.103055
  9 3.793090 6.407221 0.000000 0.000000 -0.000000 1.570796
 10 0.935740 0.000000 0.000000 0.000000 -0.000000 0.000000
 11 0.935741 0.000000 0.000000 0.000000 -0.000000 0.000000
 12 1.293670 0.684478 -0.000001 -0.000004 -0.000001 0.061869
 13 5.309685 -0.003834 0.000000 -0.153876 0.031280 0.198166
 14 4.826790 -0.004591 0.000000 -0.285282 0.038566 0.130051
 15 5.792767 -0.005304 0.000000 -0.155262 0.023166 0.146464
 16 6.662317 -0.001453 0.000000 -0.000144 -0.183150 0.296580
 17 2.046985 -0.000002 0.000000 0.480590 -0.187347 0.003879
 18 -2.487005 0.958643 4.873177 1.462243 -1.197831 1.453814
 19 4.827230 0.000000 0.000001 -0.112541 0.726462 -0.872836
 20 11.139763 0.000000 0.000000 0.000000 -0.000000 -1.805529
 21 10.314597 0.000001 0.000000 -1.654578 -0.139003 -0.111980
 22 2.975834 -0.386307 -0.044143 -0.008827 -0.042724 0.185755
 23 1.438886 0.000000 0.000000 0.000000 -0.000000 1.032663
 24 1.485303 0.000000 0.000000 0.000000 -0.000000 0.736776
 25 -3.768363 0.884022 -3.515377 0.122513 1.120516 2.959320
 26 4.972048 0.000000 0.000001 -0.174448 -0.943974 -0.241126
 27 11.585355 0.000000 0.000000 0.000000 -0.000000 -1.968440
 28 10.127057 0.000000 0.000001 1.569752 -0.000000 -0.069778
 29 2.683750 -0.427338 0.044205 -0.005738 0.043239 -0.157060
 30 1.438885 -0.000001 0.000000 0.000000 -0.000000 0.732589
 31 1.485305 0.000001 0.000000 0.000000 -0.000000 1.168627
time 24
  0 0.235347 -0.235347 3.446893 -0.000000 -0.000000 -1.571254
  1 0.000000 0.000000 0.000000 -1.570795 -1.570796 0.000000
  2 -0.000005 0.000007 3.713255 -6.281131 3.115177 6.261712
  3 18.045721 0.000000 0.000000 0.000000 -0.000000 -0.121501
  4 17.597597 0.000000 0.000000 -0.002613 0.026036 0.099967
  5 3.793090 6.407221 0.000000 0.000000 -0.000000 1.570796
  6 0.000005 -0.000003 -3.713255 6.280565 -3.123995 6.258640
  7 18.045725 0.000000 0.000000 0.000000 -0.000000 -0.127551
  8 17.597597 0.000000 0.000000 0.002950 -0.017289 0.103055
  9 3.793090 6.407221 0.000000 0.000000 -0.000000 1.570796
 10 0.935740 0.000000 0.000000 0.000000 -0.000000 0.000000
 11 0.935741 0.000000 0.000000 0.000000 -0.000000 0.000000
 12 1.293670 0.684478 -0.000001 -0.000004 -0.000001 0.061869
 13 5.309685 -0.003834 0.000000 -0.153876 0.031280 0.198166
 14 4.826790 -0.004591 0.000000 -0.285364 0.037883 0.127736
 15 5.792767 -0.005304 0.000000 -0.155262 0.023166 0.146464
 16 6.662317 -0.001453 0.000000 -0.000144 -0.183150 0.296580
 17 2.046985 -0.000002 0.000000 0.480892 -0.187685 0.005991
 18 -2.487005 0.958643 4.873177 1.475857 -1.198331 1.439241
 19 4.827230 0.000000 0.000001 -0.117416 0.732249 -0.875549
 20 11.139763 0.000000 0.000000 0.000000 -0.000000 -1.805529
 21 10.314597 0.000001 0.000000 -1.654398 -0.120959 -0.113520
 22 2.975834 -0.386307 -0.044143 -0.004009 -0.043443 0.073940
 23 1.438886 0.000000 0.000000 0.000000 -0.000000 0.854013
 24 1.485303 0.000000 0.000000 0.000000 -0.000000 0.586777
 25 -3.768363 0.884022 -3.515377 0.125773 1.133263 2.962963
 26 4.972048 0.000000 0.000001 -0.173133 -0.956764 -0.241324
 27 11.585355 0.000000 0.000000 0.000000 -0.000000 -1.968440
 28 10.127057 0.000000 0.000001 1.569752 -0.000000 -0.069778
 29 2.683750 -0.427338 0.044205 -0.005738 0.043239 -0.157060
 30 1.438885 -0.000001 0.000000 0.000000 -0.000000 0.732589
 31 1.485305 0.000001 0.000000 0.000000 -0.000000 1.168627
time 25
  0 0.235347 -0.235347 3.446893 -0.000000 -0.000000 -1.571254
  1 0.000000 0.000000 0.000000 -1.570795 -1.570796 0.000000
  2 -0.000005 0.000007 3.713255 -6.281131 3.115177 6.261712
  3 18.045721 0.000000 0.000000 0.000000 -0.000000 -0.121501
  4 17.597597 0.000000 0.000000 -0.002613 0.026036 0.099967
  5 3.793090 6.407221 0.000000 0.000000 -0.000000 1.570796
  6 0.000005 -0.000003 -3.713255 6.280565 -3.123995 6.258640
  7 18.045725 0.000000 0.000000 0.000000 -0.000000 -0.127551
  8 17.597597 0.000000 0.000000 0.002950 -0.017289 0.103055
  9 3.793090 6.407221 0.000000 0.000000 -0.000000 1.570796
 10 0.935740 0.000000 0.000000 0.000000 -0.000000 0.000000
 11 0.935741 0.000000 0.000000 0.000000 -0.000000 0.000000
 12 1.293670 0.684478 -0.000001 -0.000004 -0.000001 0.061869
 13 5.309685 -0.003834 0.000000 -0.153876 0.031280 0.198166
 14 4.826790 -0.004591 0.000000 -0.285430 0.037212 0.125465
 15 5.792767 -0.005304 0.000000 -0.155262 0.023166 0.146464
 16 6.662317 -0.001453 0.000000 -0.000144 -0.183150 0.296580
 17 2.046985 -0.000002 0.000000 0.481107 -0.188023 0.008419
 18 -2.487005 0.958643 4.873177 1.488608 -1.198754 1.425914
 19 4.827230 0.000000 0.000001 -0.121880 0.738036 -0.878174
 20 11.139763 0.000000 0.000000 0.000000 -0.000000 -1.805529
 21 10.314597 0.000001 0.000000 -1.654398 -0.118220 -0.113769
 22 2.975834 -0.386307 -0.044143 -0.002067 -0.043575 0.030383
 23 1.438886 0.000000 0.000000 0.000000 -0.000000 0.747399
 24 1.485303 0.000000 0.000000 0.000000 -0.000000 0.527216
 25 -3.768363 0.884022 -3.515377 0.129416 1.145869 2.966894
 26 4.972048 0.000000 0.000001 -0.171818 -0.969152 -0.241785
 27 11.585355 0.000000 0.000000 0.000000 -0.000000 -1.968440
 28 10.127057 0.000000 0.000001 1.569752 -0.000000 -0.069778
 29 2.683750 -0.427338 0.044205 -0.005738 0.043239 -0.157060
 30 1.438885 -0.000001 0.000000 0.000000 -0.000000 0.732589
 31 1.485305 0.000001 0.000000 0.000000 -0.000000 1.168627
time 26
  0 0.235347 -0.235347 3.446893 -0.000000 -0.000000 -1.571254
  1 0.000000 0.000000 0.000000 -1.570795 -1.570796 0.000000
  2 -0.000005 0.000007 3.713255 -6.281131 3.115177 6.261712
  3 18.045721 0.000000 0.000000 0.000000 -0.000000 -0.121501
  4 17.597597 0.000000 0.000000 -0.002613 0.026036 0.099967
  5 3.793090 6.407221 0.000000 0.000000 -0.000000 1.570796
  6 0.000005 -0.000003 -3.713255 6.280565 -3.123995 6.258640
  7 18.045725 0.000000 0.000000 0.000000 -0.000000 -0.127551
  8 17.597597 0.000000 0.000000 0.002950 -0.017289 0.103055
  9 3.793090 6.407221 0.000000 0.000000 -0.000000 1.570796
 10 0.935740 0.000000 0.000000 0.000000 -0.000000 0.000000
 11 0.935741 0.000000 0.000000 0.000000 -0.000000 0.000000
 12 1.293670 0.684478 -0.000001 -0.000004 -0.000001 0.061869
 13 5.309685 -0.003834 0.000000 -0.153876 0.031280 0.198166
 14 4.826790 -0.004591 0.000000 -0.285545 0.036625 0.123260
 15 5.792767 -0.005304 0.000000 -0.155262 0.023166 0.146464
 16 6.662317 -0.001453 0.000000 -0.000144 -0.183150 0.296580
 17 2.046985 -0.000002 0.000000 0.481409 -0.188338 0.010666
 18 -2.487005 0.958643 4.873177 1.500784 -1.199177 1.412779
 19 4.827230 0.000000 0.000001 -0.126168 0.743227 -0.880712
 20 11.139763 0.000000 0.000000 0.000000 -0.000000 -1.805529
 21 10.314597 0.000001 0.000000 -1.654578 -0.136394 -0.112229
 22 2.975834 -0.386307 -0.044143 -0.003997 -0.043443 0.073610
 23 1.438886 0.000000 0.000000 0.000000 -0.000000 0.725094
 24 1.485303 0.000000 0.000000 0.000000 -0.000000 0.581345
 25 -3.768363 0.884022 -3.515377 0.132580 1.157768 2.970825
 26 4.972048 0.000000 0.000001 -0.170580 -0.980977 -0.242312
 27 11.585355 0.000000 0.000000 0.000000 -0.000000 -1.968440
 28 10.127057 0.000000 0.000001 1.569752 -0.000000 -0.069778
 29 2.683750 -0.427338 0.044205 -0.005738 0.043239 -0.157060
 30 1.438885 -0.000001 0.000000 0.000000 -0.000000 0.732589
 31 1.485305 0.000001 0.000000 0.000000 -0.000000 1.168627
time 27
  0 0.235347 -0.235347 3.446893 -0.000000 -0.000000 -1.571254
  1 0.000000 0.000000 0.000000 -1.570795 -1.570796 0.000000
  2 -0.000005 0.000007 3.713255 -6.281131 3.115177 6.261712
  3 18.045721 0.000000 0.000000 0.000000 -0.000000 -0.121501
  4 17.597597 0.000000 0.000000 -0.002613 0.026036 0.099967
  5 3.793090 6.407221 0.000000 0.000000 -0.000000 1.570796
  6 0.000005 -0.000003 -3.713255 6.280565 -3.123995 6.258640
  7 18.045725 0.000000 0.000000 0.000000 -0.000000 -0.127551
  8 17.597597 0.000000 0.000000 0.002950 -0.017289 0.103055
  9 3.793090 6.407221 0.000000 0.000000 -0.000000 1.570796
 10 0.935740 0.000000 0.000000 0.000000 -0.000000 0.000000
 11 0.935741 0.000000 0.000000 0.000000 -0.000000 0.000000
 12 1.293670 0.684478 -0.000001 -0.000004 -0.000001 0.061869
 13 5.309685 -0.003834 0.000000 -0.153876 0.031280 0.198166
 14 4.826790 -0.004591 0.000000 -0.285627 0.036038 0.121298
 15 5.792767 -0.005304 0.000000 -0.155262 0.023166 0.146464
 16 6.662317 -0.001453 0.000000 -0.000144 -0.183150 0.296580
 17 2.046985 -0.000002 0.000000 0.481667 -0.188630 0.012644
 18 -2.487005 0.958643 4.873177 1.512864 -1.199408 1.399644
 19 4.827230 0.000000 0.000001 -0.130632 0.748248 -0.883250
 20 11.139763 0.000000 0.000000 0.000000 -0.000000 -1.805529
 21 10.314597 0.000001 0.000000 -1.654667 -0.171069 -0.109242
 22 2.975834 -0.386307 -0.044143 -0.008311 -0.042820 0.174659
 23 1.438886 0.000000 0.000000 0.000000 -0.000000 0.751504
 24 1.485303 0.000000 0.000000 0.000000 -0.000000 0.708901
 25 -3.768363 0.884022 -3.515377 0.136319 1.168678 2.974564
 26 4.972048 0.000000 0.000001 -0.169265 -0.991917 -0.242839
 27 11.585355 0.000000 0.000000 0.000000 -0.000000 -1.968440
 28 10.127057 0.000000 0.000001 1.569752 -0.000000 -0.069778
 29 2.683750 -0.427338 0.044205 -0.005738 0.043239 -0.157060
 30 1.438885 -0.000001 0.000000 0.000000 -0.000000 0.732589
 31 1.485305 0.000001 0.000000 0.000000 -0.000000 1.168627
time 28
  0 0.235347 -0.235347 3.446893 -0.000000 -0.000000 -1.571254
  1 0.000000 0.000000 0.000000 -1.570795 -1.570796 0.000000
  2 -0.000005 0.000007 3.713255 -6.281131 3.115177 6.261712
  3 18.045721 0.000000 0.000000 0.000000 -0.000000 -0.121501
  4 17.597597 0.000000 0.000000 -0.002613 0.026036 0.099967
  5 3.793090 6.407221 0.000000 0.000000 -0.000000 1.570796
  6 0.000005 -0.000003 -3.713255 6.280565 -3.123995 6.258640
  7 18.045725 0.000000 0.000000 0.000000 -0.000000 -0.127551
  8 17.597597 0.000000 0.000000 0.002950 -0.017289 0.103055
  9 3.793090 6.407221 0.000000 0.000000 -0.000000 1.570796
 10 0.935740 0.000000 0.000000 0.000000 -0.000000 0.000000
 11 0.935741 0.000000 0.000000 0.000000 -0.000000 0.000000
 12 1.293670 0.684478 -0.000001 -0.000004 -0.000001 0.061869
 13 5.309685 -0.003834 0.000000 -0.153876 0.031280 0.198166
 14 4.826790 -0.004591 0.000000 -0.285676 0.035486 0.119556
 15 5.792767 -0.005304 0.000000 -0.155262 0.023166 0.146464
 16 6.662317 -0.001453 0.000000 -0.000144 -0.183150 0.296580
 17 2.046985 -0.000002 0.000000 0.481667 -0.188901 0.014397
 18 -2.487005 0.958643 4.873177 1.523985 -1.199677 1.388043
 19 4.827230 0.000000 0.000001 -0.134626 0.752418 -0.885875
 20 11.139763 0.000000 0.000000 0.000000 -0.000000 -1.805529
 21 10.314597 0.000001 0.000000 -1.655387 -0.212461 -0.105618
 22 2.975834 -0.386307 -0.044143 -0.013632 -0.041466 0.301070
 23 1.438886 0.000000 0.000000 0.000000 -0.000000 0.803224
 24 1.485303 0.000000 0.000000 0.000000 -0.000000 0.868238
 25 -3.768363 0.884022 -3.515377 0.139387 1.178288 2.977728
 26 4.972048 0.000000 0.000001 -0.168337 -1.001409 -0.243366
 27 11.585355 0.000000 0.000000 0.000000 -0.000000 -1.968440
 28 10.127057 0.000000 0.000001 1.569752 -0.000000 -0.069778
 29 2.683750 -0.427338 0.044205 -0.005738 0.043239 -0.157060
 30 1.438885 -0.000001 0.000000 0.000000 -0.000000 0.732589
 31 1.485305 0.000001 0.000000 0.000000 -0.000000 1.168627
time 29
  0 0.235347 -0.235347 3.446893 -0.000000 -0.000000 -1.571254
  1 0.000000 0.000000 0.000000 -1.570795 -1.570796 0.000000
  2 -0.000005 0.000007 3.713255 -6.281131 3.115177 6.261712
  3 18.045721 0.000000 0.000000 0.000000 -0.000000 -0.121501
  4 17.597597 0.000000 0.000000 -0.002613 0.026036 0.099967
  5 3.793090 6.407221 0.000000 0.000000 -0.000000 1.570796
  6 0.000005 -0.000003 -3.713255 6.280565 -3.123995 6.258640
  7 18.045725 0.000000 0.000000 0.000000 -0.000000 -0.127551
  8 17.597597 0.000000 0.000000 0.002950 -0.017289 0.103055
  9 3.793090 6.407221 0.000000 0.000000 -0.000000 1.570796
 10 0.935740 0.000000 0.000000 0.000000 -0.000000 0.000000
 11 0.935741 0.000000 0.000000 0.000000 -0.000000 0.000000
 12 1.293670 0.684478 -0.000001 -0.000004 -0.000001 0.061869
 13 5.309685 -0.003834 0.000000 -0.153876 0.031280 0.198166
 14 4.826790 -0.004591 0.000000 -0.285742 0.035115 0.118145
 15 5.792767 -0.005304 0.000000 -0.155262 0.023166 0.146464
 16 6.662317 -0.001453 0.000000 -0.000144 -0.183150 0.296580
 17 2.046985 -0.000002 0.000000 0.482012 -0.189103 0.015835
 18 -2.487005 0.958643 4.873177 1.533189 -1.199831 1.377976
 19 4.827230 0.000000 0.000001 -0.138150 0.756077 -0.887888
 20 11.139763 0.000000 0.000000 0.000000 -0.000000 -1.805529
 21 10.314597 0.000001 0.000000 -1.656196 -0.250788 -0.102227
 22 2.975834 -0.386307 -0.044143 -0.018438 -0.039512 0.419489
 23 1.438886 0.000000 0.000000 0.000000 -0.000000 0.857018
 24 1.485303 0.000000 0.000000 0.000000 -0.000000 1.017903
 25 -3.768363 0.884022 -3.515377 0.142263 1.186117 2.980700
 26 4.972048 0.000000 0.000001 -0.167254 -1.009292 -0.243761
 27 11.585355 0.000000 0.000000 0.000000 -0.000000 -1.968440
 28 10.127057 0.000000 0.000001 1.569752 -0.000000 -0.069778
 29 2.683750 -0.427338 0.044205 -0.005738 0.043239 -0.157060
 30 1.438885 -0.000001 0.000000 0.000000 -0.000000 0.732589
 31 1.485305 0.000001 0.000000 0.000000 -0.000000 1.168627
time 30
  0 0.235347 -0.235347 3.446893 -0.000000 -0.000000 -1.571254
  1 0.000000 0.000000 0.000000 -1.570795 -1.570796 0.000000
  2 -0.000005 0.000007 3.713255 -6.281131 3.115177 6.261712
  3 18.045721 0.000000 0.000000 0.000000 -0.000000 -0.121501
  4 17.597597 0.000000 0.000000 -0.002613 0.026036 0.099967
  5 3.793090 6.407221 0.000000 0.000000 -0.000000 1.570796
  6 0.000005 -0.000003 -3.713255 6.280565 -3.123995 6.258640
  7 18.045725 0.000000 0.000000 0.000000 -0.000000 -0.127551
  8 17.597597 0.000000 0.000000 0.002950 -0.017289 0.103055
  9 3.793090 6.407221 0.000000 0.000000 -0.000000 1.570796
 10 0.935740 0.000000 0.000000 0.000000 -0.000000 0.000000
 11 0.935741 0.000000 0.000000 0.000000 -0.000000 0.000000
 12 1.293670 0.684478 -0.000001 -0.000004 -0.000001 0.061869
 13 5.309685 -0.003834 0.000000 -0.153876 0.031280 0.198166
 14 4.826790 -0.004591 0.000000 -0.285742 0.034755 0.117020
 15 5.792767 -0.005304 0.000000 -0.155262 0.023166 0.146464
 16 6.662317 -0.001453 0.000000 -0.000144 -0.183150 0.296580
 17 2.046985 -0.000002 0.000000 0.482141 -0.189261 0.016869
 18 -2.487005 0.958643 4.873177 1.539900 -1.199908 1.371073
 19 4.827230 0.000000 0.000001 -0.140617 0.759141 -0.889463
 20 11.139763 0.000000 0.000000 0.000000 -0.000000 -1.805529
 21 10.314597 0.000001 0.000000 -1.656915 -0.276267 -0.099909
 22 2.975834 -0.386307 -0.044143 -0.021458 -0.037954 0.497456
 23 1.438886 0.000000 0.000000 0.000000 -0.000000 0.889650
 24 1.485303 0.000000 0.000000 0.000000 -0.000000 1.116298
 25 -3.768363 0.884022 -3.515377 0.144372 1.191883 2.983001
 26 4.972048 0.000000 0.000001 -0.166790 -1.014923 -0.243893
 27 11.585355 0.000000 0.000000 0.000000 -0.000000 -1.968440
 28 10.127057 0.000000 0.000001 1.569752 -0.000000 -0.069778
 29 2.683750 -0.427338 0.044205 -0.005738 0.043239 -0.157060
 30 1.438885 -0.000001 0.000000 0.000000 -0.000000 0.732589
 31 1.485305 0.000001 0.000000 0.000000 -0.000000 1.168627
end
