version 1
nodes
  0 "Bip01"  -1
  1 "Bip01 Pelvis"   0
  2 "Bip01 L Leg"   1
  3 "Bip01 L Leg1"   2
  4 "Bip01 L Foot"   3
  5 "Bip01 L Toe0"   4
  6 "Bip01 R Leg"   1
  7 "Bip01 R Leg1"   6
  8 "Bip01 R Foot"   7
  9 "Bip01 R Toe0"   8
 10 "Bip01 R Toe01"   9
 11 "Bip01 R Toe02"  10
 12 "Bip01 Spine"   1
 13 "Bip01 Spine1"  12
 14 "Bip01 Spine2"  13
 15 "Bip01 Spine3"  14
 16 "Bip01 Neck"  15
 17 "Bip01 Head"  16
 18 "Bip01 L Arm"  16
 19 "Bip01 L Arm1"  18
 20 "Bip01 L Arm2"  19
 21 "Bip01 L Hand"  20
 22 "Bip01 L Finger1"  21
 23 "Bip01 L Finger11"  22
 24 "Bip01 L Finger12"  23
 25 "Bip01 R Arm"  16
 26 "Bip01 R Arm1"  25
 27 "Bip01 R Arm2"  26
 28 "Bip01 R Hand"  27
 29 "Bip01 R Finger1"  28
 30 "Bip01 R Finger11"  29
 31 "Bip01 R Finger12"  30
end
skeleton
time 0
  0 0.235347 -0.235347 3.532833 -0.000000 -0.000000 -1.571254
  1 0.000000 0.000000 0.000000 -1.570795 -1.570796 0.000000
  2 -0.000005 0.000007 3.713255 -6.281131 3.115177 6.261712
  3 18.045721 0.000000 0.000000 0.000000 -0.000000 -0.121501
  4 17.597597 0.000000 0.000000 -0.002613 0.026036 0.099967
  5 3.793090 6.407221 0.000000 0.000000 -0.000000 1.570796
  6 0.000005 -0.000003 -3.713255 6.280565 -3.123995 6.258640
  7 18.045725 0.000000 0.000000 0.000000 -0.000000 -0.127551
  8 17.597597 0.000000 0.000000 0.002950 -0.017289 0.103055
  9 3.793090 6.407221 0.000000 0.000000 -0.000000 1.570796
 10 0.935740 0.000000 0.000000 0.000000 -0.000000 0.000000
 11 0.935741 0.000000 0.000000 0.000000 -0.000000 0.000000
 12 1.293670 0.684478 -0.000001 -0.000004 -0.000001 0.035686
 13 5.309685 -0.003834 0.000000 0.000000 -0.000000 -0.104652
 14 4.826790 -0.004591 0.000000 -0.173330 -0.019499 -0.111620
 15 5.792767 -0.005304 0.000000 -0.138908 -0.013159 -0.094966
 16 6.662317 -0.001453 0.000000 0.000000 -0.000001 0.095957
 17 2.046985 -0.000002 0.000000 0.305286 0.072377 -0.162518
 18 -3.447972 0.282841 4.341911 -0.257721 -1.364220 3.297319
 19 4.827230 0.000000 0.000001 1.043743 1.133499 0.782964
 20 11.139763 0.000000 0.000000 0.000000 -0.000000 -0.395663
 21 10.314597 0.000001 0.000000 -1.642354 0.083241 -0.332944
 22 2.975834 -0.386307 -0.044143 -0.023088 -0.037007 0.541079
 23 1.438886 0.000000 0.000000 0.000000 -0.000000 1.700833
 24 1.485303 0.000000 0.000000 0.000000 -0.000000 1.229654
 25 -3.182408 0.251190 -4.140396 0.672346 1.317206 3.701570
 26 4.972048 0.000000 0.000001 0.881831 -1.070910 -1.336586
 27 11.585355 0.000000 0.000000 0.000000 -0.000000 -1.918841
 28 10.127057 0.000000 0.000001 1.537200 -0.015052 -0.019687
 29 2.683750 -0.427338 0.044205 -0.005738 0.043239 -0.157060
 30 1.438885 -0.000001 0.000000 0.000000 -0.000000 0.732589
 31 1.485305 0.000001 0.000000 0.000000 -0.000000 1.168627
time 1
  0 0.235347 -0.235347 3.532833 -0.000000 -0.000000 -1.571254
  1 0.000000 0.000000 0.000000 -1.570795 -1.570796 0.000000
  2 -0.000005 0.000007 3.713255 -6.281131 3.115177 6.261712
  3 18.045721 0.000000 0.000000 0.000000 -0.000000 -0.121501
  4 17.597597 0.000000 0.000000 -0.002613 0.026036 0.099967
  5 3.793090 6.407221 0.000000 0.000000 -0.000000 1.570796
  6 0.000005 -0.000003 -3.713255 6.280565 -3.123995 6.258640
  7 18.045725 0.000000 0.000000 0.000000 -0.000000 -0.127551
  8 17.597597 0.000000 0.000000 0.002950 -0.017289 0.103055
  9 3.793090 6.407221 0.000000 0.000000 -0.000000 1.570796
 10 0.935740 0.000000 0.000000 0.000000 -0.000000 0.000000
 11 0.935741 0.000000 0.000000 0.000000 -0.000000 0.000000
 12 1.293670 0.684478 -0.000001 -0.000004 -0.000001 0.035686
 13 5.309685 -0.003834 0.000000 0.000000 -0.000000 -0.104652
 14 4.826790 -0.004591 0.000000 -0.266087 -0.048454 -0.176663
 15 5.792767 -0.005304 0.000000 -0.138908 -0.013159 -0.094966
 16 6.662317 -0.001453 0.000000 0.000000 -0.000001 0.095957
 17 2.046985 -0.000002 0.000000 0.399034 0.088293 -0.084309
 18 -3.447972 0.282841 4.341911 -0.257721 -1.364220 3.297319
 19 4.827230 0.000000 0.000001 1.088265 1.084481 0.929195
 20 11.139763 0.000000 0.000000 0.000000 -0.000000 -0.395663
 21 10.314597 0.000001 0.000000 -1.642354 0.083241 -0.332944
 22 2.975834 -0.386307 -0.044143 -0.023088 -0.037007 0.541079
 23 1.438886 0.000000 0.000000 0.000000 -0.000000 1.700833
 24 1.485303 0.000000 0.000000 0.000000 -0.000000 1.229654
 25 -3.182408 0.251190 -4.140396 1.092654 1.155620 4.100594
 26 4.972048 0.000000 0.000001 -0.612817 -1.260590 -0.061492
 27 11.585355 0.000000 0.000000 0.000000 -0.000000 -2.304303
 28 10.127057 0.000000 0.000001 1.537200 -0.015052 -0.019687
 29 2.683750 -0.427338 0.044205 -0.005738 0.043239 -0.157060
 30 1.438885 -0.000001 0.000000 0.000000 -0.000000 0.732589
 31 1.485305 0.000001 0.000000 0.000000 -0.000000 1.168627
time 2
  0 0.235347 -0.235347 3.532833 -0.000000 -0.000000 -1.571254
  1 0.000000 0.000000 0.000000 -1.570795 -1.570796 0.000000
  2 -0.000005 0.000007 3.713255 -6.281131 3.115177 6.261712
  3 18.045721 0.000000 0.000000 0.000000 -0.000000 -0.121501
  4 17.597597 0.000000 0.000000 -0.002613 0.026036 0.099967
  5 3.793090 6.407221 0.000000 0.000000 -0.000000 1.570796
  6 0.000005 -0.000003 -3.713255 6.280565 -3.123995 6.258640
  7 18.045725 0.000000 0.000000 0.000000 -0.000000 -0.127551
  8 17.597597 0.000000 0.000000 0.002950 -0.017289 0.103055
  9 3.793090 6.407221 0.000000 0.000000 -0.000000 1.570796
 10 0.935740 0.000000 0.000000 0.000000 -0.000000 0.000000
 11 0.935741 0.000000 0.000000 0.000000 -0.000000 0.000000
 12 1.293670 0.684478 -0.000001 -0.000004 -0.000001 0.035686
 13 5.309685 -0.003834 0.000000 0.000000 -0.000000 -0.104652
 14 4.826790 -0.004591 0.000000 -0.237237 -0.021440 -0.089572
 15 5.792767 -0.005304 0.000000 -0.138908 -0.013159 -0.094966
 16 6.662317 -0.001453 0.000000 0.000000 -0.000001 0.095957
 17 2.046985 -0.000002 0.000000 0.366291 0.092390 -0.177890
 18 -3.447972 0.282841 4.341911 -0.257721 -1.364220 3.297319
 19 4.827230 0.000000 0.000001 0.963274 1.146179 0.766687
 20 11.139763 0.000000 0.000000 0.000000 -0.000000 -0.395663
 21 10.314597 0.000001 0.000000 -1.642354 0.083241 -0.332944
 22 2.975834 -0.386307 -0.044143 -0.023088 -0.037007 0.541079
 23 1.438886 0.000000 0.000000 0.000000 -0.000000 1.700833
 24 1.485303 0.000000 0.000000 0.000000 -0.000000 1.229654
 25 -3.182408 0.251190 -4.140396 0.981537 1.220910 3.997434
 26 4.972048 0.000000 0.000001 0.317838 -1.270565 -0.913421
 27 11.585355 0.000000 0.000000 0.000000 -0.000000 -2.162011
 28 10.127057 0.000000 0.000001 1.537200 -0.015052 -0.019687
 29 2.683750 -0.427338 0.044205 -0.005738 0.043239 -0.157060
 30 1.438885 -0.000001 0.000000 0.000000 -0.000000 0.732589
 31 1.485305 0.000001 0.000000 0.000000 -0.000000 1.168627
time 3
  0 0.235347 -0.235347 3.532833 -0.000000 -0.000000 -1.571254
  1 0.000000 0.000000 0.000000 -1.570795 -1.570796 0.000000
  2 -0.000005 0.000007 3.713255 -6.281131 3.115177 6.261712
  3 18.045721 0.000000 0.000000 0.000000 -0.000000 -0.121501
  4 17.597597 0.000000 0.000000 -0.002613 0.026036 0.099967
  5 3.793090 6.407221 0.000000 0.000000 -0.000000 1.570796
  6 0.000005 -0.000003 -3.713255 6.280565 -3.123995 6.258640
  7 18.045725 0.000000 0.000000 0.000000 -0.000000 -0.127551
  8 17.597597 0.000000 0.000000 0.002950 -0.017289 0.103055
  9 3.793090 6.407221 0.000000 0.000000 -0.000000 1.570796
 10 0.935740 0.000000 0.000000 0.000000 -0.000000 0.000000
 11 0.935741 0.000000 0.000000 0.000000 -0.000000 0.000000
 12 1.293670 0.684478 -0.000001 -0.000004 -0.000001 0.035686
 13 5.309685 -0.003834 0.000000 0.000000 -0.000000 -0.104652
 14 4.826790 -0.004591 0.000000 -0.191819 -0.000923 -0.005568
 15 5.792767 -0.005304 0.000000 -0.138908 -0.013159 -0.094966
 16 6.662317 -0.001453 0.000000 0.000000 -0.000001 0.095957
 17 2.046985 -0.000002 0.000000 0.318857 0.091715 -0.268145
 18 -3.447972 0.282841 4.341911 -0.257721 -1.364220 3.297319
 19 4.827230 0.000000 0.000001 0.811147 1.191878 0.563486
 20 11.139763 0.000000 0.000000 0.000000 -0.000000 -0.395663
 21 10.314597 0.000001 0.000000 -1.642354 0.083241 -0.332944
 22 2.975834 -0.386307 -0.044143 -0.023088 -0.037007 0.541079
 23 1.438886 0.000000 0.000000 0.000000 -0.000000 1.700833
 24 1.485303 0.000000 0.000000 0.000000 -0.000000 1.229654
 25 -3.182408 0.251190 -4.140396 0.781929 1.292475 3.807222
 26 4.972048 0.000000 0.000001 0.896142 -1.055626 -1.394356
 27 11.585355 0.000000 0.000000 0.000000 -0.000000 -1.988518
 28 10.127057 0.000000 0.000001 1.537200 -0.015052 -0.019687
 29 2.683750 -0.427338 0.044205 -0.005738 0.043239 -0.157060
 30 1.438885 -0.000001 0.000000 0.000000 -0.000000 0.732589
 31 1.485305 0.000001 0.000000 0.000000 -0.000000 1.168627
end
