version 1
nodes
  0 "Bip01"  -1
  1 "Bip01 Pelvis"   0
  2 "Bip01 Spine"   1
  3 "Bip01 Spine1"   2
  4 "Bip01 Neck"   3
  5 "Bip01 Head"   4
  6 "Dummy04"   5
  7 "Bone09"   6
  8 "Bone10"   7
  9 "Dummy05"   5
 10 "Bone05"   9
 11 "Bone06"  10
 12 "Dummy06"   5
 13 "Bone01"  12
 14 "Bone02"  13
 15 "Dummy10"   3
 16 "Bone13"  15
 17 "Dummy09"   3
 18 "Bone15"  17
 19 "Dummy07"   3
 20 "Dummy08"   3
end
skeleton
time 0
  0 -8.496743 8.496743 -12.718008 1.570795 1.570106 0.000000
  1 0.001814 0.000000 -0.000085 -1.570795 -1.570796 0.000000
  2 0.626065 -0.004666 0.000001 -0.000004 -0.000001 0.000796
  3 5.859708 -0.004660 0.000000 0.000000 0.000000 -0.052333
  4 5.859976 -0.000897 0.000000 0.000000 0.000000 0.026167
  5 1.126914 0.000000 0.000000 -0.000001 0.000000 -0.149075
  6 2.207103 1.730000 5.187450 1.746039 -1.570796 0.000000
  7 0.817491 0.000003 0.000000 0.000000 0.000000 0.000000
  8 1.226238 -5.313696 -0.000001 0.000000 0.000000 0.000000
  9 2.226118 1.733433 -4.950249 1.746039 -1.570796 0.000000
 10 -0.898442 -0.185046 0.000000 0.000000 0.000000 0.000000
 11 -1.430611 -4.904950 -0.000001 0.000000 0.000000 0.000000
 12 4.222802 -2.892897 0.162014 -0.000004 -0.000001 -2.966351
 13 -0.188322 -0.077080 0.169980 0.000000 0.000000 0.000000
 14 -3.545664 -0.154159 0.000000 0.000000 0.000000 0.000000
 15 3.272834 -0.112140 5.546793 -0.000003 -0.000001 -3.089259
 16 -0.113934 0.090332 0.049409 -1.570796 -1.570796 0.000000
 17 3.072873 -0.199780 -5.376825 -0.000003 -0.000001 -3.089259
 18 -0.113820 0.013252 0.039072 -1.570796 -1.570796 0.000000
 19 0.551429 -3.435105 -4.560713 -0.000003 -0.000001 -3.089259
 20 0.526536 -3.436426 5.037215 -0.000003 -0.000001 -3.089259
end
