version 1
nodes
  0 "Bip01"  -1
  1 "Bip01 Pelvis"   0
  2 "Bip01 L Leg"   1
  3 "Bip01 L Leg1"   2
  4 "Bip01 L Foot"   3
  5 "Bip01 L Toe0"   4
  6 "Bip01 R Leg"   1
  7 "Bip01 R Leg1"   6
  8 "Bip01 R Foot"   7
  9 "Bip01 R Toe0"   8
 10 "Bip01 R Toe01"   9
 11 "Bip01 R Toe02"  10
 12 "Bip01 Spine"   1
 13 "Bip01 Spine1"  12
 14 "Bip01 Spine2"  13
 15 "Bip01 Spine3"  14
 16 "Bip01 Neck"  15
 17 "Bip01 Head"  16
 18 "Bip01 L Arm"  16
 19 "Bip01 L Arm1"  18
 20 "Bip01 L Arm2"  19
 21 "Bip01 L Hand"  20
 22 "Bip01 L Finger1"  21
 23 "Bip01 L Finger11"  22
 24 "Bip01 L Finger12"  23
 25 "Bip01 R Arm"  16
 26 "Bip01 R Arm1"  25
 27 "Bip01 R Arm2"  26
 28 "Bip01 R Hand"  27
 29 "Bip01 R Finger1"  28
 30 "Bip01 R Finger11"  29
 31 "Bip01 R Finger12"  30
end
skeleton
time 0
  0 0.235347 -0.235347 -11.756696 -0.000000 0.270322 -1.571254
  1 0.000000 0.000000 0.000000 -1.570795 -1.570796 0.000000
  2 -0.000005 0.000007 3.713255 -3.389770 -0.209750 1.567109
  3 18.045721 0.000000 0.000000 0.000000 -0.000000 -1.744563
  4 17.597597 0.000000 0.000000 -0.164903 0.191688 0.413694
  5 3.793090 6.407221 0.000000 0.000000 -0.000000 1.570796
  6 0.000005 -0.000003 -3.713255 0.311943 2.936853 5.354742
  7 18.045725 0.000000 0.000000 0.000000 -0.000000 -1.993292
  8 17.597597 0.000000 0.000000 0.131015 -0.129891 1.055680
  9 3.793090 6.407221 0.000000 0.000000 -0.000000 1.570796
 10 0.935740 0.000000 0.000000 0.000000 -0.000000 0.000000
 11 0.935741 0.000000 0.000000 0.000000 -0.000000 0.000000
 12 1.293670 0.684478 -0.000001 -0.000004 -0.000001 0.279871
 13 5.309685 -0.003834 0.000000 -0.034867 -0.000875 -0.026159
 14 4.826790 -0.004591 0.000000 -0.148191 -0.005034 -0.034517
 15 5.792767 -0.005304 0.000000 0.000000 0.000000 -0.200607
 16 6.662317 -0.001453 0.000000 0.000000 -0.000001 0.078555
 17 2.046985 -0.000002 0.000000 0.157813 0.093291 -0.368378
 18 -3.447972 0.216433 4.341911 1.808249 -0.756089 1.152188
 19 4.827230 0.000000 0.000001 -0.221967 -0.510477 -0.632968
 20 11.139763 0.000000 0.000000 0.000000 -0.000000 -0.678295
 21 10.314597 0.000001 0.000000 -3.512769 0.127916 0.246261
 22 2.975834 -0.386307 -0.044143 -0.012063 -0.041921 0.261905
 23 1.438886 0.000000 0.000000 0.000000 -0.000000 0.924779
 24 1.485303 0.000000 0.000000 0.000000 -0.000000 0.540939
 25 -3.186314 0.196501 -4.140396 -1.908273 1.059663 1.108681
 26 4.972048 0.000000 0.000001 0.489952 0.496563 -0.993522
 27 11.585355 0.000000 0.000000 0.000000 -0.000000 -0.760704
 28 10.127057 0.000000 0.000001 2.926734 0.300331 0.653225
 29 2.683750 -0.427338 0.044205 0.001045 0.043611 0.000046
 30 1.438885 -0.000001 0.000000 0.000000 -0.000000 0.767689
 31 1.485305 0.000001 0.000000 0.000000 -0.000000 1.221538
time 1
  0 0.235347 -0.235347 -11.756696 -0.000000 0.270322 -1.571254
  1 0.000000 0.000000 0.000000 -1.570795 -1.570796 0.000000
  2 -0.000005 0.000007 3.713255 -3.389770 -0.209750 1.567109
  3 18.045721 0.000000 0.000000 0.000000 -0.000000 -1.744563
  4 17.597597 0.000000 0.000000 -0.164903 0.191688 0.413694
  5 3.793090 6.407221 0.000000 0.000000 -0.000000 1.570796
  6 0.000005 -0.000003 -3.713255 0.311943 2.936853 5.354742
  7 18.045725 0.000000 0.000000 0.000000 -0.000000 -1.993292
  8 17.597597 0.000000 0.000000 0.131015 -0.129891 1.055680
  9 3.793090 6.407221 0.000000 0.000000 -0.000000 1.570796
 10 0.935740 0.000000 0.000000 0.000000 -0.000000 0.000000
 11 0.935741 0.000000 0.000000 0.000000 -0.000000 0.000000
 12 1.293670 0.684478 -0.000001 -0.000004 -0.000001 0.279871
 13 5.309685 -0.003834 0.000000 -0.067175 -0.001702 -0.026123
 14 4.826790 -0.004591 0.000000 -0.211507 -0.012128 -0.057536
 15 5.792767 -0.005304 0.000000 -0.067293 -0.006040 -0.090938
 16 6.662317 -0.001453 0.000000 0.000000 -0.000001 0.078555
 17 2.046985 -0.000002 0.000000 0.302787 0.171138 -0.434226
 18 -3.447972 0.216433 4.341911 2.012746 -0.893054 0.945671
 19 4.827230 0.000000 0.000001 -0.431538 -0.412526 -0.707440
 20 11.139763 0.000000 0.000000 0.000000 -0.000000 -1.015589
 21 10.314597 0.000001 0.000000 -3.527869 0.064762 0.087565
 22 2.975834 -0.386307 -0.044143 -0.012063 -0.041921 0.261905
 23 1.438886 0.000000 0.000000 0.000000 -0.000000 0.924779
 24 1.485303 0.000000 0.000000 0.000000 -0.000000 0.540939
 25 -3.186314 0.196501 -4.140396 -2.012583 1.160764 1.015684
 26 4.972048 0.000000 0.000001 0.725884 0.296989 -0.814744
 27 11.585355 0.000000 0.000000 0.000000 -0.000000 -1.480211
 28 10.127057 0.000000 0.000001 2.943169 0.186739 0.744110
 29 2.683750 -0.427338 0.044205 0.001045 0.043611 0.000046
 30 1.438885 -0.000001 0.000000 0.000000 -0.000000 0.767689
 31 1.485305 0.000001 0.000000 0.000000 -0.000000 1.221538
time 2
  0 0.235347 -0.235347 -11.756696 -0.000000 0.270322 -1.571254
  1 0.000000 0.000000 0.000000 -1.570795 -1.570796 0.000000
  2 -0.000005 0.000007 3.713255 -3.389770 -0.209750 1.567109
  3 18.045721 0.000000 0.000000 0.000000 -0.000000 -1.744563
  4 17.597597 0.000000 0.000000 -0.164903 0.191688 0.413694
  5 3.793090 6.407221 0.000000 0.000000 -0.000000 1.570796
  6 0.000005 -0.000003 -3.713255 0.311943 2.936853 5.354742
  7 18.045725 0.000000 0.000000 0.000000 -0.000000 -1.993292
  8 17.597597 0.000000 0.000000 0.131015 -0.129891 1.055680
  9 3.793090 6.407221 0.000000 0.000000 -0.000000 1.570796
 10 0.935740 0.000000 0.000000 0.000000 -0.000000 0.000000
 11 0.935741 0.000000 0.000000 0.000000 -0.000000 0.000000
 12 1.293670 0.684478 -0.000001 -0.000004 -0.000001 0.279871
 13 5.309685 -0.003834 0.000000 -0.113341 -0.002816 -0.026014
 14 4.826790 -0.004591 0.000000 -0.286809 -0.024497 -0.083685
 15 5.792767 -0.005304 0.000000 -0.148104 0.006556 0.043107
 16 6.662317 -0.001453 0.000000 0.000000 -0.000001 0.078555
 17 2.046985 -0.000002 0.000000 0.489767 0.258666 -0.499311
 18 -3.447972 0.216433 4.341911 2.278219 -0.980864 0.691983
 19 4.827230 0.000000 0.000001 -0.586308 -0.299342 -0.773161
 20 11.139763 0.000000 0.000000 0.000000 -0.000000 -1.435017
 21 10.314597 0.000001 0.000000 -3.533172 0.000000 -0.069778
 22 2.975834 -0.386307 -0.044143 -0.012063 -0.041921 0.261905
 23 1.438886 0.000000 0.000000 0.000000 -0.000000 0.924779
 24 1.485303 0.000000 0.000000 0.000000 -0.000000 0.540939
 25 -3.186314 0.196501 -4.140396 -2.158310 1.247309 0.879161
 26 4.972048 0.000000 0.000001 0.890727 0.105057 -0.798737
 27 11.585355 0.000000 0.000000 0.000000 -0.000000 -2.108494
 28 10.127057 0.000000 0.000001 2.948329 0.119358 0.816834
 29 2.683750 -0.427338 0.044205 0.001045 0.043611 0.000046
 30 1.438885 -0.000001 0.000000 0.000000 -0.000000 0.767689
 31 1.485305 0.000001 0.000000 0.000000 -0.000000 1.221538
time 3
  0 0.235347 -0.235347 -11.756696 -0.000000 0.270322 -1.571254
  1 0.000000 0.000000 0.000000 -1.570795 -1.570796 0.000000
  2 -0.000005 0.000007 3.713255 -3.389770 -0.209750 1.567109
  3 18.045721 0.000000 0.000000 0.000000 -0.000000 -1.744563
  4 17.597597 0.000000 0.000000 -0.164903 0.191688 0.413694
  5 3.793090 6.407221 0.000000 0.000000 -0.000000 1.570796
  6 0.000005 -0.000003 -3.713255 0.311943 2.936853 5.354742
  7 18.045725 0.000000 0.000000 0.000000 -0.000000 -1.993292
  8 17.597597 0.000000 0.000000 0.131015 -0.129891 1.055680
  9 3.793090 6.407221 0.000000 0.000000 -0.000000 1.570796
 10 0.935740 0.000000 0.000000 0.000000 -0.000000 0.000000
 11 0.935741 0.000000 0.000000 0.000000 -0.000000 0.000000
 12 1.293670 0.684478 -0.000001 -0.000004 -0.000001 0.279871
 13 5.309685 -0.003834 0.000000 -0.163572 -0.004123 -0.025851
 14 4.826790 -0.004591 0.000000 -0.267811 -0.020949 -0.077225
 15 5.792767 -0.005304 0.000000 -0.127738 0.005657 0.043211
 16 6.662317 -0.001453 0.000000 0.000000 -0.000001 0.078555
 17 2.046985 -0.000002 0.000000 0.497823 0.266951 -0.503491
 18 -3.447972 0.216433 4.341911 2.189824 -0.959017 0.775491
 19 4.827230 0.000000 0.000001 -0.648040 -0.428270 -0.562434
 20 11.139763 0.000000 0.000000 0.000000 -0.000000 -1.297941
 21 10.314597 0.000001 0.000000 -3.533172 0.000000 -0.069778
 22 2.975834 -0.386307 -0.044143 -0.012063 -0.041921 0.261905
 23 1.438886 0.000000 0.000000 0.000000 -0.000000 0.924779
 24 1.485303 0.000000 0.000000 0.000000 -0.000000 0.540939
 25 -3.186314 0.196501 -4.140396 -2.119961 1.228796 0.915305
 26 4.972048 0.000000 0.000001 0.991520 0.291841 -0.833847
 27 11.585355 0.000000 0.000000 0.000000 -0.000000 -1.842448
 28 10.127057 0.000000 0.000001 2.940430 0.321176 0.763174
 29 2.683750 -0.427338 0.044205 0.001045 0.043611 0.000046
 30 1.438885 -0.000001 0.000000 0.000000 -0.000000 0.767689
 31 1.485305 0.000001 0.000000 0.000000 -0.000000 1.221538
time 4
  0 0.235347 -0.235347 -11.756696 -0.000000 0.270322 -1.571254
  1 0.000000 0.000000 0.000000 -1.570795 -1.570796 0.000000
  2 -0.000005 0.000007 3.713255 -3.389770 -0.209750 1.567109
  3 18.045721 0.000000 0.000000 0.000000 -0.000000 -1.744563
  4 17.597597 0.000000 0.000000 -0.164903 0.191688 0.413694
  5 3.793090 6.407221 0.000000 0.000000 -0.000000 1.570796
  6 0.000005 -0.000003 -3.713255 0.311943 2.936853 5.354742
  7 18.045725 0.000000 0.000000 0.000000 -0.000000 -1.993292
  8 17.597597 0.000000 0.000000 0.131015 -0.129891 1.055680
  9 3.793090 6.407221 0.000000 0.000000 -0.000000 1.570796
 10 0.935740 0.000000 0.000000 0.000000 -0.000000 0.000000
 11 0.935741 0.000000 0.000000 0.000000 -0.000000 0.000000
 12 1.293670 0.684478 -0.000001 -0.000004 -0.000001 0.279871
 13 5.309685 -0.003834 0.000000 -0.129428 -0.003272 -0.025960
 14 4.826790 -0.004591 0.000000 -0.090130 -0.005825 -0.065650
 15 5.792767 -0.005304 0.000000 -0.087577 0.003835 0.043439
 16 6.662317 -0.001453 0.000000 0.000000 -0.000001 0.078555
 17 2.046985 -0.000002 0.000000 0.268105 0.151868 -0.567451
 18 -3.447972 0.216433 4.341911 2.059916 -0.914247 0.899555
 19 4.827230 0.000000 0.000001 -0.784661 -0.626044 -0.517803
 20 11.139763 0.000000 0.000000 0.000000 -0.000000 -1.035772
 21 10.314597 0.000001 0.000000 -3.533172 0.000000 -0.069778
 22 2.975834 -0.386307 -0.044143 -0.012063 -0.041921 0.261905
 23 1.438886 0.000000 0.000000 0.000000 -0.000000 0.924779
 24 1.485303 0.000000 0.000000 0.000000 -0.000000 0.540939
 25 -3.186314 0.196501 -4.140396 -2.035305 1.177751 0.994496
 26 4.972048 0.000000 0.000001 0.968855 0.553676 -0.682472
 27 11.585355 0.000000 0.000000 0.000000 -0.000000 -1.381222
 28 10.127057 0.000000 0.000001 2.917306 0.494542 0.685468
 29 2.683750 -0.427338 0.044205 0.001045 0.043611 0.000046
 30 1.438885 -0.000001 0.000000 0.000000 -0.000000 0.767689
 31 1.485305 0.000001 0.000000 0.000000 -0.000000 1.221538
time 5
  0 0.235347 -0.235347 -11.756696 -0.000000 0.270322 -1.571254
  1 0.000000 0.000000 0.000000 -1.570795 -1.570796 0.000000
  2 -0.000005 0.000007 3.713255 -3.389770 -0.209750 1.567109
  3 18.045721 0.000000 0.000000 0.000000 -0.000000 -1.744563
  4 17.597597 0.000000 0.000000 -0.164903 0.191688 0.413694
  5 3.793090 6.407221 0.000000 0.000000 -0.000000 1.570796
  6 0.000005 -0.000003 -3.713255 0.311943 2.936853 5.354742
  7 18.045725 0.000000 0.000000 0.000000 -0.000000 -1.993292
  8 17.597597 0.000000 0.000000 0.131015 -0.129891 1.055680
  9 3.793090 6.407221 0.000000 0.000000 -0.000000 1.570796
 10 0.935740 0.000000 0.000000 0.000000 -0.000000 0.000000
 11 0.935741 0.000000 0.000000 0.000000 -0.000000 0.000000
 12 1.293670 0.684478 -0.000001 -0.000004 -0.000001 0.279871
 13 5.309685 -0.003834 0.000000 -0.089811 -0.002217 -0.026086
 14 4.826790 -0.004591 0.000000 0.030476 0.001582 -0.052928
 15 5.792767 -0.005304 0.000000 -0.050890 0.002205 0.043543
 16 6.662317 -0.001453 0.000000 0.000000 -0.000001 0.078555
 17 2.046985 -0.000002 0.000000 0.095041 0.055493 -0.599139
 18 -3.447972 0.216433 4.341911 1.940362 -0.854399 1.016907
 19 4.827230 0.000000 0.000001 -0.390070 -0.693018 -1.004103
 20 11.139763 0.000000 0.000000 0.000000 -0.000000 -0.457894
 21 10.314597 0.000001 0.000000 -3.533172 0.000000 -0.069778
 22 2.975834 -0.386307 -0.044143 -0.012063 -0.041921 0.261905
 23 1.438886 0.000000 0.000000 0.000000 -0.000000 0.924779
 24 1.485303 0.000000 0.000000 0.000000 -0.000000 0.540939
 25 -3.186314 0.196501 -4.140396 -1.980082 1.133998 1.045117
 26 4.972048 0.000000 0.000001 0.814223 0.651573 -0.622067
 27 11.585355 0.000000 0.000000 0.000000 -0.000000 -1.122172
 28 10.127057 0.000000 0.000001 2.915204 0.457535 0.663816
 29 2.683750 -0.427338 0.044205 0.001045 0.043611 0.000046
 30 1.438885 -0.000001 0.000000 0.000000 -0.000000 0.767689
 31 1.485305 0.000001 0.000000 0.000000 -0.000000 1.221538
time 6
  0 0.235347 -0.235347 -11.756696 -0.000000 0.270322 -1.571254
  1 0.000000 0.000000 0.000000 -1.570795 -1.570796 0.000000
  2 -0.000005 0.000007 3.713255 -3.389770 -0.209750 1.567109
  3 18.045721 0.000000 0.000000 0.000000 -0.000000 -1.744563
  4 17.597597 0.000000 0.000000 -0.164903 0.191688 0.413694
  5 3.793090 6.407221 0.000000 0.000000 -0.000000 1.570796
  6 0.000005 -0.000003 -3.713255 0.311943 2.936853 5.354742
  7 18.045725 0.000000 0.000000 0.000000 -0.000000 -1.993292
  8 17.597597 0.000000 0.000000 0.131015 -0.129891 1.055680
  9 3.793090 6.407221 0.000000 0.000000 -0.000000 1.570796
 10 0.935740 0.000000 0.000000 0.000000 -0.000000 0.000000
 11 0.935741 0.000000 0.000000 0.000000 -0.000000 0.000000
 12 1.293670 0.684478 -0.000001 -0.000004 -0.000001 0.279871
 13 5.309685 -0.003834 0.000000 -0.057736 -0.001414 -0.026141
 14 4.826790 -0.004591 0.000000 -0.040131 -0.001654 -0.042168
 15 5.792767 -0.005304 0.000000 -0.020594 -0.001594 -0.078439
 16 6.662317 -0.001453 0.000000 0.000000 -0.000001 0.078555
 17 2.046985 -0.000002 0.000000 0.101805 0.060558 -0.487310
 18 -3.447972 0.216433 4.341911 1.857432 -0.797821 1.101086
 19 4.827230 0.000000 0.000001 -0.232422 -0.613619 -0.948358
 20 11.139763 0.000000 0.000000 0.000000 -0.000000 -0.313319
 21 10.314597 0.000001 0.000000 -3.526970 0.071436 0.104007
 22 2.975834 -0.386307 -0.044143 -0.012063 -0.041921 0.261905
 23 1.438886 0.000000 0.000000 0.000000 -0.000000 0.924779
 24 1.485303 0.000000 0.000000 0.000000 -0.000000 0.540939
 25 -3.186314 0.196501 -4.140396 -1.935501 1.090669 1.085096
 26 4.972048 0.000000 0.000001 0.599177 0.592449 -0.817313
 27 11.585355 0.000000 0.000000 0.000000 -0.000000 -0.909013
 28 10.127057 0.000000 0.000001 2.921638 0.367387 0.657265
 29 2.683750 -0.427338 0.044205 0.001045 0.043611 0.000046
 30 1.438885 -0.000001 0.000000 0.000000 -0.000000 0.767689
 31 1.485305 0.000001 0.000000 0.000000 -0.000000 1.221538
time 7
  0 0.235347 -0.235347 -11.756696 -0.000000 0.270322 -1.571254
  1 0.000000 0.000000 0.000000 -1.570795 -1.570796 0.000000
  2 -0.000005 0.000007 3.713255 -3.389770 -0.209750 1.567109
  3 18.045721 0.000000 0.000000 0.000000 -0.000000 -1.744563
  4 17.597597 0.000000 0.000000 -0.164903 0.191688 0.413694
  5 3.793090 6.407221 0.000000 0.000000 -0.000000 1.570796
  6 0.000005 -0.000003 -3.713255 0.311943 2.936853 5.354742
  7 18.045725 0.000000 0.000000 0.000000 -0.000000 -1.993292
  8 17.597597 0.000000 0.000000 0.131015 -0.129891 1.055680
  9 3.793090 6.407221 0.000000 0.000000 -0.000000 1.570796
 10 0.935740 0.000000 0.000000 0.000000 -0.000000 0.000000
 11 0.935741 0.000000 0.000000 0.000000 -0.000000 0.000000
 12 1.293670 0.684478 -0.000001 -0.000004 -0.000001 0.279871
 13 5.309685 -0.003834 0.000000 -0.034867 -0.000875 -0.026159
 14 4.826790 -0.004591 0.000000 -0.148191 -0.005034 -0.034517
 15 5.792767 -0.005304 0.000000 0.000000 0.000000 -0.200607
 16 6.662317 -0.001453 0.000000 0.000000 -0.000001 0.078555
 17 2.046985 -0.000002 0.000000 0.157813 0.093291 -0.368378
 18 -3.447972 0.216433 4.341911 1.808249 -0.756089 1.152188
 19 4.827230 0.000000 0.000001 -0.221967 -0.510477 -0.632968
 20 11.139763 0.000000 0.000000 0.000000 -0.000000 -0.678295
 21 10.314597 0.000001 0.000000 -3.512769 0.127916 0.246261
 22 2.975834 -0.386307 -0.044143 -0.012063 -0.041921 0.261905
 23 1.438886 0.000000 0.000000 0.000000 -0.000000 0.924779
 24 1.485303 0.000000 0.000000 0.000000 -0.000000 0.540939
 25 -3.186314 0.196501 -4.140396 -1.908273 1.059663 1.108681
 26 4.972048 0.000000 0.000001 0.489952 0.496563 -0.993522
 27 11.585355 0.000000 0.000000 0.000000 -0.000000 -0.760704
 28 10.127057 0.000000 0.000001 2.926734 0.300331 0.653225
 29 2.683750 -0.427338 0.044205 0.001045 0.043611 0.000046
 30 1.438885 -0.000001 0.000000 0.000000 -0.000000 0.767689
 31 1.485305 0.000001 0.000000 0.000000 -0.000000 1.221538
end
