version 1
nodes
  0 "Bip01"  -1
  1 "Bip01 Pelvis"   0
  2 "Bip01 L Leg"   1
  3 "Bip01 L Leg1"   2
  4 "Bip01 L Foot"   3
  5 "Bip01 L Toe0"   4
  6 "Bip01 R Leg"   1
  7 "Bip01 R Leg1"   6
  8 "Bip01 R Foot"   7
  9 "Bip01 R Toe0"   8
 10 "Bip01 R Toe01"   9
 11 "Bip01 R Toe02"  10
 12 "Bip01 Spine"   1
 13 "Bip01 Spine1"  12
 14 "Bip01 Spine2"  13
 15 "Bip01 Spine3"  14
 16 "Bip01 Neck"  15
 17 "Bip01 Head"  16
 18 "Bip01 L Arm"  16
 19 "Bip01 L Arm1"  18
 20 "Bip01 L Arm2"  19
 21 "Bip01 L Hand"  20
 22 "Bip01 L Finger1"  21
 23 "Bip01 L Finger11"  22
 24 "Bip01 L Finger12"  23
 25 "Bip01 R Arm"  16
 26 "Bip01 R Arm1"  25
 27 "Bip01 R Arm2"  26
 28 "Bip01 R Hand"  27
 29 "Bip01 R Finger1"  28
 30 "Bip01 R Finger11"  29
 31 "Bip01 R Finger12"  30
end
skeleton
time 0
  0 0.235347 -0.235347 -14.663034 -0.045585 0.257873 -1.742273
  1 0.000000 0.000000 0.000000 -1.570795 -1.570796 0.000000
  2 -0.000005 0.000007 3.713255 -3.368582 -0.221254 1.331540
  3 18.045721 0.000000 0.000000 0.000000 -0.000000 -1.349056
  4 17.597597 0.000000 0.000000 -0.205032 0.225938 -0.216505
  5 3.793090 6.407221 0.000000 0.000000 -0.000000 1.570796
  6 0.000005 -0.000003 -3.713255 6.216042 2.542639 5.445438
  7 18.045725 0.000000 0.000000 0.000000 -0.000000 -2.074575
  8 17.597597 0.000000 0.000000 -0.092072 0.087818 0.559914
  9 3.793090 6.407221 0.000000 0.000000 -0.000000 1.570796
 10 0.935740 0.000000 0.000000 0.000000 -0.000000 0.000000
 11 0.935741 0.000000 0.000000 0.000000 -0.000000 0.000000
 12 1.293670 0.684478 -0.000001 -0.000004 -0.000001 0.358403
 13 5.309685 -0.003834 0.000000 -0.033165 0.010750 0.313760
 14 4.826790 -0.004591 0.000000 -0.148257 -0.002457 -0.017342
 15 5.792767 -0.005304 0.000000 0.000000 -0.000000 0.122068
 16 6.662317 -0.001453 0.000000 0.000000 -0.000001 0.078555
 17 2.046985 -0.000002 0.000000 0.153591 0.097568 -0.805225
 18 -3.447972 0.216433 4.341911 -0.041815 -1.370643 3.103266
 19 4.827230 0.000000 0.000001 -0.640522 -0.848242 -1.368762
 20 11.139763 0.000000 0.000000 0.000000 -0.000000 -1.194573
 21 10.314597 0.000001 0.000000 -2.411013 -0.017413 0.376988
 22 2.975834 -0.386307 -0.044143 -0.037734 -0.021799 1.029782
 23 1.438886 0.000000 0.000000 0.000000 -0.000000 0.593339
 24 1.485303 0.000000 0.000000 0.000000 -0.000000 1.665926
 25 -3.186314 0.196501 -4.140396 -0.000013 1.370795 3.062192
 26 4.972048 0.000000 0.000001 0.838358 0.345495 -1.658439
 27 11.585355 0.000000 0.000000 0.000000 -0.000000 -1.263415
 28 10.127057 0.000000 0.000001 2.054079 0.471964 0.165104
 29 2.683750 -0.427338 0.044205 0.001045 0.043611 0.000046
 30 1.438885 -0.000001 0.000000 0.000000 -0.000000 0.767689
 31 1.485305 0.000001 0.000000 0.000000 -0.000000 1.221538
time 1
  0 0.235347 -0.235347 -14.663034 -0.045585 0.257873 -1.742273
  1 0.000000 0.000000 0.000000 -1.570795 -1.570796 0.000000
  2 -0.000005 0.000007 3.713255 -3.368582 -0.221254 1.331540
  3 18.045721 0.000000 0.000000 0.000000 -0.000000 -1.349056
  4 17.597597 0.000000 0.000000 -0.205032 0.225938 -0.216505
  5 3.793090 6.407221 0.000000 0.000000 -0.000000 1.570796
  6 0.000005 -0.000003 -3.713255 6.216042 2.542639 5.445438
  7 18.045725 0.000000 0.000000 0.000000 -0.000000 -2.074575
  8 17.597597 0.000000 0.000000 -0.092072 0.087818 0.559914
  9 3.793090 6.407221 0.000000 0.000000 -0.000000 1.570796
 10 0.935740 0.000000 0.000000 0.000000 -0.000000 0.000000
 11 0.935741 0.000000 0.000000 0.000000 -0.000000 0.000000
 12 1.293670 0.684478 -0.000001 -0.000004 -0.000001 0.358403
 13 5.309685 -0.003834 0.000000 -0.033165 0.010750 0.313760
 14 4.826790 -0.004591 0.000000 -0.148257 -0.002133 -0.015534
 15 5.792767 -0.005304 0.000000 0.000000 -0.000000 0.122068
 16 6.662317 -0.001453 0.000000 0.000000 -0.000001 0.078555
 17 2.046985 -0.000002 0.000000 0.153591 0.097568 -0.806978
 18 -3.447972 0.216433 4.341911 -0.014395 -1.370797 3.076229
 19 4.827230 0.000000 0.000001 -0.641403 -0.850965 -1.363074
 20 11.139763 0.000000 0.000000 0.000000 -0.000000 -1.194573
 21 10.314597 0.000001 0.000000 -2.411013 -0.017413 0.376988
 22 2.975834 -0.386307 -0.044143 -0.037734 -0.021799 1.029782
 23 1.438886 0.000000 0.000000 0.000000 -0.000000 0.593339
 24 1.485303 0.000000 0.000000 0.000000 -0.000000 1.665926
 25 -3.186314 0.196501 -4.140396 -0.034815 1.370710 3.027965
 26 4.972048 0.000000 0.000001 0.838126 0.348632 -1.652181
 27 11.585355 0.000000 0.000000 0.000000 -0.000000 -1.263415
 28 10.127057 0.000000 0.000001 2.054079 0.471964 0.165104
 29 2.683750 -0.427338 0.044205 0.001045 0.043611 0.000046
 30 1.438885 -0.000001 0.000000 0.000000 -0.000000 0.767689
 31 1.485305 0.000001 0.000000 0.000000 -0.000000 1.221538
time 2
  0 0.235347 -0.235347 -14.663034 -0.045585 0.257873 -1.742273
  1 0.000000 0.000000 0.000000 -1.570795 -1.570796 0.000000
  2 -0.000005 0.000007 3.713255 -3.368582 -0.221254 1.331540
  3 18.045721 0.000000 0.000000 0.000000 -0.000000 -1.349056
  4 17.597597 0.000000 0.000000 -0.205032 0.225938 -0.216505
  5 3.793090 6.407221 0.000000 0.000000 -0.000000 1.570796
  6 0.000005 -0.000003 -3.713255 6.216042 2.542639 5.445438
  7 18.045725 0.000000 0.000000 0.000000 -0.000000 -2.074575
  8 17.597597 0.000000 0.000000 -0.092072 0.087818 0.559914
  9 3.793090 6.407221 0.000000 0.000000 -0.000000 1.570796
 10 0.935740 0.000000 0.000000 0.000000 -0.000000 0.000000
 11 0.935741 0.000000 0.000000 0.000000 -0.000000 0.000000
 12 1.293670 0.684478 -0.000001 -0.000004 -0.000001 0.358403
 13 5.309685 -0.003834 0.000000 -0.033165 0.010750 0.313760
 14 4.826790 -0.004591 0.000000 -0.148257 -0.001822 -0.013020
 15 5.792767 -0.005304 0.000000 0.000000 -0.000000 0.122068
 16 6.662317 -0.001453 0.000000 0.000000 -0.000001 0.078555
 17 2.046985 -0.000002 0.000000 0.153591 0.097568 -0.809495
 18 -3.447972 0.216433 4.341911 0.022996 -1.370797 3.039604
 19 4.827230 0.000000 0.000001 -0.642695 -0.854880 -1.355373
 20 11.139763 0.000000 0.000000 0.000000 -0.000000 -1.194573
 21 10.314597 0.000001 0.000000 -2.411013 -0.017413 0.376988
 22 2.975834 -0.386307 -0.044143 -0.037734 -0.021799 1.029782
 23 1.438886 0.000000 0.000000 0.000000 -0.000000 0.593339
 24 1.485303 0.000000 0.000000 0.000000 -0.000000 1.665926
 25 -3.186314 0.196501 -4.140396 -0.081985 1.370173 2.981467
 26 4.972048 0.000000 0.000001 0.837739 0.352976 -1.643420
 27 11.585355 0.000000 0.000000 0.000000 -0.000000 -1.263415
 28 10.127057 0.000000 0.000001 2.054079 0.471964 0.165104
 29 2.683750 -0.427338 0.044205 0.001045 0.043611 0.000046
 30 1.438885 -0.000001 0.000000 0.000000 -0.000000 0.767689
 31 1.485305 0.000001 0.000000 0.000000 -0.000000 1.221538
time 3
  0 0.235347 -0.235347 -14.663034 -0.045585 0.257873 -1.742273
  1 0.000000 0.000000 0.000000 -1.570795 -1.570796 0.000000
  2 -0.000005 0.000007 3.713255 -3.368582 -0.221254 1.331540
  3 18.045721 0.000000 0.000000 0.000000 -0.000000 -1.349056
  4 17.597597 0.000000 0.000000 -0.205032 0.225938 -0.216505
  5 3.793090 6.407221 0.000000 0.000000 -0.000000 1.570796
  6 0.000005 -0.000003 -3.713255 6.216042 2.542639 5.445438
  7 18.045725 0.000000 0.000000 0.000000 -0.000000 -2.074575
  8 17.597597 0.000000 0.000000 -0.092072 0.087818 0.559914
  9 3.793090 6.407221 0.000000 0.000000 -0.000000 1.570796
 10 0.935740 0.000000 0.000000 0.000000 -0.000000 0.000000
 11 0.935741 0.000000 0.000000 0.000000 -0.000000 0.000000
 12 1.293670 0.684478 -0.000001 -0.000004 -0.000001 0.358403
 13 5.309685 -0.003834 0.000000 -0.033165 0.010750 0.313760
 14 4.826790 -0.004591 0.000000 -0.148257 -0.001318 -0.010088
 15 5.792767 -0.005304 0.000000 0.000000 -0.000000 0.122068
 16 6.662317 -0.001453 0.000000 0.000000 -0.000001 0.078555
 17 2.046985 -0.000002 0.000000 0.153591 0.097568 -0.812551
 18 -3.447972 0.216433 4.341911 0.068344 -1.370412 2.995022
 19 4.827230 0.000000 0.000001 -0.644222 -0.859390 -1.345834
 20 11.139763 0.000000 0.000000 0.000000 -0.000000 -1.194573
 21 10.314597 0.000001 0.000000 -2.411013 -0.017413 0.376988
 22 2.975834 -0.386307 -0.044143 -0.037734 -0.021799 1.029782
 23 1.438886 0.000000 0.000000 0.000000 -0.000000 0.593339
 24 1.485303 0.000000 0.000000 0.000000 -0.000000 1.665926
 25 -3.186314 0.196501 -4.140396 -0.139221 1.368901 2.925573
 26 4.972048 0.000000 0.000001 0.837275 0.358124 -1.633144
 27 11.585355 0.000000 0.000000 0.000000 -0.000000 -1.263415
 28 10.127057 0.000000 0.000001 2.054079 0.471964 0.165104
 29 2.683750 -0.427338 0.044205 0.001045 0.043611 0.000046
 30 1.438885 -0.000001 0.000000 0.000000 -0.000000 0.767689
 31 1.485305 0.000001 0.000000 0.000000 -0.000000 1.221538
time 4
  0 0.235347 -0.235347 -14.663034 -0.045585 0.257873 -1.742273
  1 0.000000 0.000000 0.000000 -1.570795 -1.570796 0.000000
  2 -0.000005 0.000007 3.713255 -3.368582 -0.221254 1.331540
  3 18.045721 0.000000 0.000000 0.000000 -0.000000 -1.349056
  4 17.597597 0.000000 0.000000 -0.205032 0.225938 -0.216505
  5 3.793090 6.407221 0.000000 0.000000 -0.000000 1.570796
  6 0.000005 -0.000003 -3.713255 6.216042 2.542639 5.445438
  7 18.045725 0.000000 0.000000 0.000000 -0.000000 -2.074575
  8 17.597597 0.000000 0.000000 -0.092072 0.087818 0.559914
  9 3.793090 6.407221 0.000000 0.000000 -0.000000 1.570796
 10 0.935740 0.000000 0.000000 0.000000 -0.000000 0.000000
 11 0.935741 0.000000 0.000000 0.000000 -0.000000 0.000000
 12 1.293670 0.684478 -0.000001 -0.000004 -0.000001 0.358403
 13 5.309685 -0.003834 0.000000 -0.033165 0.010750 0.313760
 14 4.826790 -0.004591 0.000000 -0.148273 -0.000863 -0.006626
 15 5.792767 -0.005304 0.000000 0.000000 -0.000000 0.122068
 16 6.662317 -0.001453 0.000000 0.000000 -0.000001 0.078555
 17 2.046985 -0.000002 0.000000 0.153591 0.097568 -0.816012
 18 -3.447972 0.216433 4.341911 0.120211 -1.369412 2.944399
 19 4.827230 0.000000 0.000001 -0.646043 -0.864496 -1.335070
 20 11.139763 0.000000 0.000000 0.000000 -0.000000 -1.194573
 21 10.314597 0.000001 0.000000 -2.411013 -0.017413 0.376988
 22 2.975834 -0.386307 -0.044143 -0.037734 -0.021799 1.029782
 23 1.438886 0.000000 0.000000 0.000000 -0.000000 0.593339
 24 1.485303 0.000000 0.000000 0.000000 -0.000000 1.665926
 25 -3.186314 0.196501 -4.140396 -0.203360 1.366725 2.862872
 26 4.972048 0.000000 0.000001 0.836656 0.364077 -1.621155
 27 11.585355 0.000000 0.000000 0.000000 -0.000000 -1.263415
 28 10.127057 0.000000 0.000001 2.054079 0.471964 0.165104
 29 2.683750 -0.427338 0.044205 0.001045 0.043611 0.000046
 30 1.438885 -0.000001 0.000000 0.000000 -0.000000 0.767689
 31 1.485305 0.000001 0.000000 0.000000 -0.000000 1.221538
time 5
  0 0.235347 -0.235347 -14.663034 -0.045585 0.257873 -1.742273
  1 0.000000 0.000000 0.000000 -1.570795 -1.570796 0.000000
  2 -0.000005 0.000007 3.713255 -3.368582 -0.221254 1.331540
  3 18.045721 0.000000 0.000000 0.000000 -0.000000 -1.349056
  4 17.597597 0.000000 0.000000 -0.205032 0.225938 -0.216505
  5 3.793090 6.407221 0.000000 0.000000 -0.000000 1.570796
  6 0.000005 -0.000003 -3.713255 6.216042 2.542639 5.445438
  7 18.045725 0.000000 0.000000 0.000000 -0.000000 -2.074575
  8 17.597597 0.000000 0.000000 -0.092072 0.087818 0.559914
  9 3.793090 6.407221 0.000000 0.000000 -0.000000 1.570796
 10 0.935740 0.000000 0.000000 0.000000 -0.000000 0.000000
 11 0.935741 0.000000 0.000000 0.000000 -0.000000 0.000000
 12 1.293670 0.684478 -0.000001 -0.000004 -0.000001 0.358403
 13 5.309685 -0.003834 0.000000 -0.033165 0.010750 0.313760
 14 4.826790 -0.004591 0.000000 -0.148273 -0.000312 -0.002900
 15 5.792767 -0.005304 0.000000 0.000000 -0.000000 0.122068
 16 6.662317 -0.001453 0.000000 0.000000 -0.000001 0.078555
 17 2.046985 -0.000002 0.000000 0.153591 0.097568 -0.819743
 18 -3.447972 0.216433 4.341911 0.175626 -1.367797 2.889846
 19 4.827230 0.000000 0.000001 -0.648099 -0.870368 -1.323256
 20 11.139763 0.000000 0.000000 0.000000 -0.000000 -1.194573
 21 10.314597 0.000001 0.000000 -2.411013 -0.017413 0.376988
 22 2.975834 -0.386307 -0.044143 -0.037734 -0.021799 1.029782
 23 1.438886 0.000000 0.000000 0.000000 -0.000000 0.593339
 24 1.485303 0.000000 0.000000 0.000000 -0.000000 1.665926
 25 -3.186314 0.196501 -4.140396 -0.271430 1.363418 2.796336
 26 4.972048 0.000000 0.000001 0.836269 0.370673 -1.607783
 27 11.585355 0.000000 0.000000 0.000000 -0.000000 -1.263415
 28 10.127057 0.000000 0.000001 2.054079 0.471964 0.165104
 29 2.683750 -0.427338 0.044205 0.001045 0.043611 0.000046
 30 1.438885 -0.000001 0.000000 0.000000 -0.000000 0.767689
 31 1.485305 0.000001 0.000000 0.000000 -0.000000 1.221538
time 6
  0 0.235347 -0.235347 -14.663034 -0.045585 0.257873 -1.742273
  1 0.000000 0.000000 0.000000 -1.570795 -1.570796 0.000000
  2 -0.000005 0.000007 3.713255 -3.368582 -0.221254 1.331540
  3 18.045721 0.000000 0.000000 0.000000 -0.000000 -1.349056
  4 17.597597 0.000000 0.000000 -0.205032 0.225938 -0.216505
  5 3.793090 6.407221 0.000000 0.000000 -0.000000 1.570796
  6 0.000005 -0.000003 -3.713255 6.216042 2.542639 5.445438
  7 18.045725 0.000000 0.000000 0.000000 -0.000000 -2.074575
  8 17.597597 0.000000 0.000000 -0.092072 0.087818 0.559914
  9 3.793090 6.407221 0.000000 0.000000 -0.000000 1.570796
 10 0.935740 0.000000 0.000000 0.000000 -0.000000 0.000000
 11 0.935741 0.000000 0.000000 0.000000 -0.000000 0.000000
 12 1.293670 0.684478 -0.000001 -0.000004 -0.000001 0.358403
 13 5.309685 -0.003834 0.000000 -0.033165 0.010750 0.313760
 14 4.826790 -0.004591 0.000000 -0.148273 0.000264 0.000936
 15 5.792767 -0.005304 0.000000 0.000000 -0.000000 0.122068
 16 6.662317 -0.001453 0.000000 0.000000 -0.000001 0.078555
 17 2.046985 -0.000002 0.000000 0.153591 0.097568 -0.823518
 18 -3.447972 0.216433 4.341911 0.233054 -1.365489 2.833854
 19 4.827230 0.000000 0.000001 -0.650272 -0.876325 -1.310742
 20 11.139763 0.000000 0.000000 0.000000 -0.000000 -1.194573
 21 10.314597 0.000001 0.000000 -2.411013 -0.017413 0.376988
 22 2.975834 -0.386307 -0.044143 -0.037734 -0.021799 1.029782
 23 1.438886 0.000000 0.000000 0.000000 -0.000000 0.593339
 24 1.485303 0.000000 0.000000 0.000000 -0.000000 1.665926
 25 -3.186314 0.196501 -4.140396 -0.340459 1.359037 2.728841
 26 4.972048 0.000000 0.000001 0.835805 0.377591 -1.594279
 27 11.585355 0.000000 0.000000 0.000000 -0.000000 -1.263415
 28 10.127057 0.000000 0.000001 2.054079 0.471964 0.165104
 29 2.683750 -0.427338 0.044205 0.001045 0.043611 0.000046
 30 1.438885 -0.000001 0.000000 0.000000 -0.000000 0.767689
 31 1.485305 0.000001 0.000000 0.000000 -0.000000 1.221538
time 7
  0 0.235347 -0.235347 -14.663034 -0.045585 0.257873 -1.742273
  1 0.000000 0.000000 0.000000 -1.570795 -1.570796 0.000000
  2 -0.000005 0.000007 3.713255 -3.368582 -0.221254 1.331540
  3 18.045721 0.000000 0.000000 0.000000 -0.000000 -1.349056
  4 17.597597 0.000000 0.000000 -0.205032 0.225938 -0.216505
  5 3.793090 6.407221 0.000000 0.000000 -0.000000 1.570796
  6 0.000005 -0.000003 -3.713255 6.216042 2.542639 5.445438
  7 18.045725 0.000000 0.000000 0.000000 -0.000000 -2.074575
  8 17.597597 0.000000 0.000000 -0.092072 0.087818 0.559914
  9 3.793090 6.407221 0.000000 0.000000 -0.000000 1.570796
 10 0.935740 0.000000 0.000000 0.000000 -0.000000 0.000000
 11 0.935741 0.000000 0.000000 0.000000 -0.000000 0.000000
 12 1.293670 0.684478 -0.000001 -0.000004 -0.000001 0.358403
 13 5.309685 -0.003834 0.000000 -0.033165 0.010750 0.313760
 14 4.826790 -0.004591 0.000000 -0.148273 0.000863 0.004971
 15 5.792767 -0.005304 0.000000 0.000000 -0.000000 0.122068
 16 6.662317 -0.001453 0.000000 0.000000 -0.000001 0.078555
 17 2.046985 -0.000002 0.000000 0.153591 0.097568 -0.827564
 18 -3.447972 0.216433 4.341911 0.290098 -1.362335 2.777671
 19 4.827230 0.000000 0.000001 -0.652504 -0.882878 -1.297878
 20 11.139763 0.000000 0.000000 0.000000 -0.000000 -1.194573
 21 10.314597 0.000001 0.000000 -2.411013 -0.017413 0.376988
 22 2.975834 -0.386307 -0.044143 -0.037734 -0.021799 1.029782
 23 1.438886 0.000000 0.000000 0.000000 -0.000000 0.593339
 24 1.485303 0.000000 0.000000 0.000000 -0.000000 1.665926
 25 -3.186314 0.196501 -4.140396 -0.407666 1.353497 2.663455
 26 4.972048 0.000000 0.000001 0.835341 0.384509 -1.580248
 27 11.585355 0.000000 0.000000 0.000000 -0.000000 -1.263415
 28 10.127057 0.000000 0.000001 2.054079 0.471964 0.165104
 29 2.683750 -0.427338 0.044205 0.001045 0.043611 0.000046
 30 1.438885 -0.000001 0.000000 0.000000 -0.000000 0.767689
 31 1.485305 0.000001 0.000000 0.000000 -0.000000 1.221538
time 8
  0 0.235347 -0.235347 -14.663034 -0.045585 0.257873 -1.742273
  1 0.000000 0.000000 0.000000 -1.570795 -1.570796 0.000000
  2 -0.000005 0.000007 3.713255 -3.368582 -0.221254 1.331540
  3 18.045721 0.000000 0.000000 0.000000 -0.000000 -1.349056
  4 17.597597 0.000000 0.000000 -0.205032 0.225938 -0.216505
  5 3.793090 6.407221 0.000000 0.000000 -0.000000 1.570796
  6 0.000005 -0.000003 -3.713255 6.216042 2.542639 5.445438
  7 18.045725 0.000000 0.000000 0.000000 -0.000000 -2.074575
  8 17.597597 0.000000 0.000000 -0.092072 0.087818 0.559914
  9 3.793090 6.407221 0.000000 0.000000 -0.000000 1.570796
 10 0.935740 0.000000 0.000000 0.000000 -0.000000 0.000000
 11 0.935741 0.000000 0.000000 0.000000 -0.000000 0.000000
 12 1.293670 0.684478 -0.000001 -0.000004 -0.000001 0.358403
 13 5.309685 -0.003834 0.000000 -0.033165 0.010750 0.313760
 14 4.826790 -0.004591 0.000000 -0.148257 0.001402 0.008940
 15 5.792767 -0.005304 0.000000 0.000000 -0.000000 0.122068
 16 6.662317 -0.001453 0.000000 0.000000 -0.000001 0.078555
 17 2.046985 -0.000002 0.000000 0.153591 0.097568 -0.831744
 18 -3.447972 0.216433 4.341911 0.344746 -1.358681 2.724364
 19 4.827230 0.000000 0.000001 -0.654912 -0.889005 -1.285101
 20 11.139763 0.000000 0.000000 0.000000 -0.000000 -1.194573
 21 10.314597 0.000001 0.000000 -2.411013 -0.017413 0.376988
 22 2.975834 -0.386307 -0.044143 -0.037734 -0.021799 1.029782
 23 1.438886 0.000000 0.000000 0.000000 -0.000000 0.593339
 24 1.485303 0.000000 0.000000 0.000000 -0.000000 1.665926
 25 -3.186314 0.196501 -4.140396 -0.470559 1.347166 2.601713
 26 4.972048 0.000000 0.000001 0.834877 0.391427 -1.566349
 27 11.585355 0.000000 0.000000 0.000000 -0.000000 -1.263415
 28 10.127057 0.000000 0.000001 2.054079 0.471964 0.165104
 29 2.683750 -0.427338 0.044205 0.001045 0.043611 0.000046
 30 1.438885 -0.000001 0.000000 0.000000 -0.000000 0.767689
 31 1.485305 0.000001 0.000000 0.000000 -0.000000 1.221538
time 9
  0 0.235347 -0.235347 -14.663034 -0.045585 0.257873 -1.742273
  1 0.000000 0.000000 0.000000 -1.570795 -1.570796 0.000000
  2 -0.000005 0.000007 3.713255 -3.368582 -0.221254 1.331540
  3 18.045721 0.000000 0.000000 0.000000 -0.000000 -1.349056
  4 17.597597 0.000000 0.000000 -0.205032 0.225938 -0.216505
  5 3.793090 6.407221 0.000000 0.000000 -0.000000 1.570796
  6 0.000005 -0.000003 -3.713255 6.216042 2.542639 5.445438
  7 18.045725 0.000000 0.000000 0.000000 -0.000000 -2.074575
  8 17.597597 0.000000 0.000000 -0.092072 0.087818 0.559914
  9 3.793090 6.407221 0.000000 0.000000 -0.000000 1.570796
 10 0.935740 0.000000 0.000000 0.000000 -0.000000 0.000000
 11 0.935741 0.000000 0.000000 0.000000 -0.000000 0.000000
 12 1.293670 0.684478 -0.000001 -0.000004 -0.000001 0.358403
 13 5.309685 -0.003834 0.000000 -0.033165 0.010750 0.313760
 14 4.826790 -0.004591 0.000000 -0.148257 0.001965 0.012732
 15 5.792767 -0.005304 0.000000 0.000000 -0.000000 0.122068
 16 6.662317 -0.001453 0.000000 0.000000 -0.000001 0.078555
 17 2.046985 -0.000002 0.000000 0.153591 0.097568 -0.835384
 18 -3.447972 0.216433 4.341911 0.395367 -1.354604 2.674796
 19 4.827230 0.000000 0.000001 -0.657203 -0.894877 -1.272412
 20 11.139763 0.000000 0.000000 0.000000 -0.000000 -1.194573
 21 10.314597 0.000001 0.000000 -2.411013 -0.017413 0.376988
 22 2.975834 -0.386307 -0.044143 -0.037734 -0.021799 1.029782
 23 1.438886 0.000000 0.000000 0.000000 -0.000000 0.593339
 24 1.485303 0.000000 0.000000 0.000000 -0.000000 1.665926
 25 -3.186314 0.196501 -4.140396 -0.527891 1.340326 2.546394
 26 4.972048 0.000000 0.000001 0.834490 0.398023 -1.552977
 27 11.585355 0.000000 0.000000 0.000000 -0.000000 -1.263415
 28 10.127057 0.000000 0.000001 2.054079 0.471964 0.165104
 29 2.683750 -0.427338 0.044205 0.001045 0.043611 0.000046
 30 1.438885 -0.000001 0.000000 0.000000 -0.000000 0.767689
 31 1.485305 0.000001 0.000000 0.000000 -0.000000 1.221538
time 10
  0 0.235347 -0.235347 -14.663034 -0.045585 0.257873 -1.742273
  1 0.000000 0.000000 0.000000 -1.570795 -1.570796 0.000000
  2 -0.000005 0.000007 3.713255 -3.368582 -0.221254 1.331540
  3 18.045721 0.000000 0.000000 0.000000 -0.000000 -1.349056
  4 17.597597 0.000000 0.000000 -0.205032 0.225938 -0.216505
  5 3.793090 6.407221 0.000000 0.000000 -0.000000 1.570796
  6 0.000005 -0.000003 -3.713255 6.216042 2.542639 5.445438
  7 18.045725 0.000000 0.000000 0.000000 -0.000000 -2.074575
  8 17.597597 0.000000 0.000000 -0.092072 0.087818 0.559914
  9 3.793090 6.407221 0.000000 0.000000 -0.000000 1.570796
 10 0.935740 0.000000 0.000000 0.000000 -0.000000 0.000000
 11 0.935741 0.000000 0.000000 0.000000 -0.000000 0.000000
 12 1.293670 0.684478 -0.000001 -0.000004 -0.000001 0.358403
 13 5.309685 -0.003834 0.000000 -0.033165 0.010750 0.313760
 14 4.826790 -0.004591 0.000000 -0.148224 0.002541 0.016282
 15 5.792767 -0.005304 0.000000 0.000000 -0.000000 0.122068
 16 6.662317 -0.001453 0.000000 0.000000 -0.000001 0.078555
 17 2.046985 -0.000002 0.000000 0.153591 0.097568 -0.838980
 18 -3.447972 0.216433 4.341911 0.440715 -1.350373 2.630980
 19 4.827230 0.000000 0.000001 -0.659435 -0.899983 -1.260948
 20 11.139763 0.000000 0.000000 0.000000 -0.000000 -1.194573
 21 10.314597 0.000001 0.000000 -2.411013 -0.017413 0.376988
 22 2.975834 -0.386307 -0.044143 -0.037734 -0.021799 1.029782
 23 1.438886 0.000000 0.000000 0.000000 -0.000000 0.593339
 24 1.485303 0.000000 0.000000 0.000000 -0.000000 1.665926
 25 -3.186314 0.196501 -4.140396 -0.577841 1.333373 2.497211
 26 4.972048 0.000000 0.000001 0.834026 0.404217 -1.540461
 27 11.585355 0.000000 0.000000 0.000000 -0.000000 -1.263415
 28 10.127057 0.000000 0.000001 2.054079 0.471964 0.165104
 29 2.683750 -0.427338 0.044205 0.001045 0.043611 0.000046
 30 1.438885 -0.000001 0.000000 0.000000 -0.000000 0.767689
 31 1.485305 0.000001 0.000000 0.000000 -0.000000 1.221538
time 11
  0 0.235347 -0.235347 -14.663034 -0.045585 0.257873 -1.742273
  1 0.000000 0.000000 0.000000 -1.570795 -1.570796 0.000000
  2 -0.000005 0.000007 3.713255 -3.368582 -0.221254 1.331540
  3 18.045721 0.000000 0.000000 0.000000 -0.000000 -1.349056
  4 17.597597 0.000000 0.000000 -0.205032 0.225938 -0.216505
  5 3.793090 6.407221 0.000000 0.000000 -0.000000 1.570796
  6 0.000005 -0.000003 -3.713255 6.216042 2.542639 5.445438
  7 18.045725 0.000000 0.000000 0.000000 -0.000000 -2.074575
  8 17.597597 0.000000 0.000000 -0.092072 0.087818 0.559914
  9 3.793090 6.407221 0.000000 0.000000 -0.000000 1.570796
 10 0.935740 0.000000 0.000000 0.000000 -0.000000 0.000000
 11 0.935741 0.000000 0.000000 0.000000 -0.000000 0.000000
 12 1.293670 0.684478 -0.000001 -0.000004 -0.000001 0.358403
 13 5.309685 -0.003834 0.000000 -0.033165 0.010750 0.313760
 14 4.826790 -0.004591 0.000000 -0.148224 0.002972 0.019413
 15 5.792767 -0.005304 0.000000 0.000000 -0.000000 0.122068
 16 6.662317 -0.001453 0.000000 0.000000 -0.000001 0.078555
 17 2.046985 -0.000002 0.000000 0.153591 0.097568 -0.842172
 18 -3.447972 0.216433 4.341911 0.479352 -1.346220 2.593109
 19 4.827230 0.000000 0.000001 -0.661432 -0.905004 -1.250972
 20 11.139763 0.000000 0.000000 0.000000 -0.000000 -1.194573
 21 10.314597 0.000001 0.000000 -2.411013 -0.017413 0.376988
 22 2.975834 -0.386307 -0.044143 -0.037734 -0.021799 1.029782
 23 1.438886 0.000000 0.000000 0.000000 -0.000000 0.593339
 24 1.485303 0.000000 0.000000 0.000000 -0.000000 1.665926
 25 -3.186314 0.196501 -4.140396 -0.620217 1.326703 2.456465
 26 4.972048 0.000000 0.000001 0.833871 0.409687 -1.529263
 27 11.585355 0.000000 0.000000 0.000000 -0.000000 -1.263415
 28 10.127057 0.000000 0.000001 2.054079 0.471964 0.165104
 29 2.683750 -0.427338 0.044205 0.001045 0.043611 0.000046
 30 1.438885 -0.000001 0.000000 0.000000 -0.000000 0.767689
 31 1.485305 0.000001 0.000000 0.000000 -0.000000 1.221538
time 12
  0 0.235347 -0.235347 -14.663034 -0.045585 0.257873 -1.742273
  1 0.000000 0.000000 0.000000 -1.570795 -1.570796 0.000000
  2 -0.000005 0.000007 3.713255 -3.368582 -0.221254 1.331540
  3 18.045721 0.000000 0.000000 0.000000 -0.000000 -1.349056
  4 17.597597 0.000000 0.000000 -0.205032 0.225938 -0.216505
  5 3.793090 6.407221 0.000000 0.000000 -0.000000 1.570796
  6 0.000005 -0.000003 -3.713255 6.216042 2.542639 5.445438
  7 18.045725 0.000000 0.000000 0.000000 -0.000000 -2.074575
  8 17.597597 0.000000 0.000000 -0.092072 0.087818 0.559914
  9 3.793090 6.407221 0.000000 0.000000 -0.000000 1.570796
 10 0.935740 0.000000 0.000000 0.000000 -0.000000 0.000000
 11 0.935741 0.000000 0.000000 0.000000 -0.000000 0.000000
 12 1.293670 0.684478 -0.000001 -0.000004 -0.000001 0.358403
 13 5.309685 -0.003834 0.000000 -0.033165 0.010750 0.313760
 14 4.826790 -0.004591 0.000000 -0.148224 0.003416 0.021992
 15 5.792767 -0.005304 0.000000 0.000000 -0.000000 0.122068
 16 6.662317 -0.001453 0.000000 0.000000 -0.000001 0.078555
 17 2.046985 -0.000002 0.000000 0.153591 0.097568 -0.844823
 18 -3.447972 0.216433 4.341911 0.511086 -1.342450 2.562237
 19 4.827230 0.000000 0.000001 -0.663194 -0.909259 -1.242221
 20 11.139763 0.000000 0.000000 0.000000 -0.000000 -1.194573
 21 10.314597 0.000001 0.000000 -2.411013 -0.017413 0.376988
 22 2.975834 -0.386307 -0.044143 -0.037734 -0.021799 1.029782
 23 1.438886 0.000000 0.000000 0.000000 -0.000000 0.593339
 24 1.485303 0.000000 0.000000 0.000000 -0.000000 1.665926
 25 -3.186314 0.196501 -4.140396 -0.653964 1.320739 2.423485
 26 4.972048 0.000000 0.000001 0.833794 0.414272 -1.519975
 27 11.585355 0.000000 0.000000 0.000000 -0.000000 -1.263415
 28 10.127057 0.000000 0.000001 2.054079 0.471964 0.165104
 29 2.683750 -0.427338 0.044205 0.001045 0.043611 0.000046
 30 1.438885 -0.000001 0.000000 0.000000 -0.000000 0.767689
 31 1.485305 0.000001 0.000000 0.000000 -0.000000 1.221538
time 13
  0 0.235347 -0.235347 -14.663034 -0.045585 0.257873 -1.742273
  1 0.000000 0.000000 0.000000 -1.570795 -1.570796 0.000000
  2 -0.000005 0.000007 3.713255 -3.368582 -0.221254 1.331540
  3 18.045721 0.000000 0.000000 0.000000 -0.000000 -1.349056
  4 17.597597 0.000000 0.000000 -0.205032 0.225938 -0.216505
  5 3.793090 6.407221 0.000000 0.000000 -0.000000 1.570796
  6 0.000005 -0.000003 -3.713255 6.216042 2.542639 5.445438
  7 18.045725 0.000000 0.000000 0.000000 -0.000000 -2.074575
  8 17.597597 0.000000 0.000000 -0.092072 0.087818 0.559914
  9 3.793090 6.407221 0.000000 0.000000 -0.000000 1.570796
 10 0.935740 0.000000 0.000000 0.000000 -0.000000 0.000000
 11 0.935741 0.000000 0.000000 0.000000 -0.000000 0.000000
 12 1.293670 0.684478 -0.000001 -0.000004 -0.000001 0.358403
 13 5.309685 -0.003834 0.000000 -0.033165 0.010750 0.313760
 14 4.826790 -0.004591 0.000000 -0.148224 0.003667 0.024087
 15 5.792767 -0.005304 0.000000 0.000000 -0.000000 0.122068
 16 6.662317 -0.001453 0.000000 0.000000 -0.000001 0.078555
 17 2.046985 -0.000002 0.000000 0.153591 0.097568 -0.847071
 18 -3.447972 0.216433 4.341911 0.534479 -1.339450 2.539610
 19 4.827230 0.000000 0.000001 -0.664545 -0.912323 -1.235570
 20 11.139763 0.000000 0.000000 0.000000 -0.000000 -1.194573
 21 10.314597 0.000001 0.000000 -2.411013 -0.017413 0.376988
 22 2.975834 -0.386307 -0.044143 -0.037734 -0.021799 1.029782
 23 1.438886 0.000000 0.000000 0.000000 -0.000000 0.593339
 24 1.485303 0.000000 0.000000 0.000000 -0.000000 1.665926
 25 -3.186314 0.196501 -4.140396 -0.678891 1.316019 2.399804
 26 4.972048 0.000000 0.000001 0.833639 0.417892 -1.512729
 27 11.585355 0.000000 0.000000 0.000000 -0.000000 -1.263415
 28 10.127057 0.000000 0.000001 2.054079 0.471964 0.165104
 29 2.683750 -0.427338 0.044205 0.001045 0.043611 0.000046
 30 1.438885 -0.000001 0.000000 0.000000 -0.000000 0.767689
 31 1.485305 0.000001 0.000000 0.000000 -0.000000 1.221538
time 14
  0 0.235347 -0.235347 -14.663034 -0.045585 0.257873 -1.742273
  1 0.000000 0.000000 0.000000 -1.570795 -1.570796 0.000000
  2 -0.000005 0.000007 3.713255 -3.368582 -0.221254 1.331540
  3 18.045721 0.000000 0.000000 0.000000 -0.000000 -1.349056
  4 17.597597 0.000000 0.000000 -0.205032 0.225938 -0.216505
  5 3.793090 6.407221 0.000000 0.000000 -0.000000 1.570796
  6 0.000005 -0.000003 -3.713255 6.216042 2.542639 5.445438
  7 18.045725 0.000000 0.000000 0.000000 -0.000000 -2.074575
  8 17.597597 0.000000 0.000000 -0.092072 0.087818 0.559914
  9 3.793090 6.407221 0.000000 0.000000 -0.000000 1.570796
 10 0.935740 0.000000 0.000000 0.000000 -0.000000 0.000000
 11 0.935741 0.000000 0.000000 0.000000 -0.000000 0.000000
 12 1.293670 0.684478 -0.000001 -0.000004 -0.000001 0.358403
 13 5.309685 -0.003834 0.000000 -0.033165 0.010750 0.313760
 14 4.826790 -0.004591 0.000000 -0.148224 0.003907 0.025388
 15 5.792767 -0.005304 0.000000 0.000000 -0.000000 0.122068
 16 6.662317 -0.001453 0.000000 0.000000 -0.000001 0.078555
 17 2.046985 -0.000002 0.000000 0.153591 0.097568 -0.848195
 18 -3.447972 0.216433 4.341911 0.549627 -1.337450 2.524941
 19 4.827230 0.000000 0.000001 -0.665426 -0.914280 -1.231282
 20 11.139763 0.000000 0.000000 0.000000 -0.000000 -1.194573
 21 10.314597 0.000001 0.000000 -2.411013 -0.017413 0.376988
 22 2.975834 -0.386307 -0.044143 -0.037734 -0.021799 1.029782
 23 1.438886 0.000000 0.000000 0.000000 -0.000000 0.593339
 24 1.485303 0.000000 0.000000 0.000000 -0.000000 1.665926
 25 -3.186314 0.196501 -4.140396 -0.694231 1.312910 2.384656
 26 4.972048 0.000000 0.000001 0.833562 0.420144 -1.508052
 27 11.585355 0.000000 0.000000 0.000000 -0.000000 -1.263415
 28 10.127057 0.000000 0.000001 2.054079 0.471964 0.165104
 29 2.683750 -0.427338 0.044205 0.001045 0.043611 0.000046
 30 1.438885 -0.000001 0.000000 0.000000 -0.000000 0.767689
 31 1.485305 0.000001 0.000000 0.000000 -0.000000 1.221538
time 15
  0 0.235347 -0.235347 -14.663034 -0.045585 0.257873 -1.742273
  1 0.000000 0.000000 0.000000 -1.570795 -1.570796 0.000000
  2 -0.000005 0.000007 3.713255 -3.368582 -0.221254 1.331540
  3 18.045721 0.000000 0.000000 0.000000 -0.000000 -1.349056
  4 17.597597 0.000000 0.000000 -0.205032 0.225938 -0.216505
  5 3.793090 6.407221 0.000000 0.000000 -0.000000 1.570796
  6 0.000005 -0.000003 -3.713255 6.216042 2.542639 5.445438
  7 18.045725 0.000000 0.000000 0.000000 -0.000000 -2.074575
  8 17.597597 0.000000 0.000000 -0.092072 0.087818 0.559914
  9 3.793090 6.407221 0.000000 0.000000 -0.000000 1.570796
 10 0.935740 0.000000 0.000000 0.000000 -0.000000 0.000000
 11 0.935741 0.000000 0.000000 0.000000 -0.000000 0.000000
 12 1.293670 0.684478 -0.000001 -0.000004 -0.000001 0.358403
 13 5.309685 -0.003834 0.000000 -0.033165 0.010750 0.313760
 14 4.826790 -0.004591 0.000000 -0.148224 0.003979 0.025851
 15 5.792767 -0.005304 0.000000 0.000000 -0.000000 0.122068
 16 6.662317 -0.001453 0.000000 0.000000 -0.000001 0.078555
 17 2.046985 -0.000002 0.000000 0.153591 0.097568 -0.848824
 18 -3.447972 0.216433 4.341911 0.554804 -1.336719 2.520243
 19 4.827230 0.000000 0.000001 -0.665661 -0.915046 -1.229619
 20 11.139763 0.000000 0.000000 0.000000 -0.000000 -1.194573
 21 10.314597 0.000001 0.000000 -2.411013 -0.017413 0.376988
 22 2.975834 -0.386307 -0.044143 -0.037734 -0.021799 1.029782
 23 1.438886 0.000000 0.000000 0.000000 -0.000000 0.593339
 24 1.485303 0.000000 0.000000 0.000000 -0.000000 1.665926
 25 -3.186314 0.196501 -4.140396 -0.699600 1.311779 2.379287
 26 4.972048 0.000000 0.000001 0.833562 0.421029 -1.506537
 27 11.585355 0.000000 0.000000 0.000000 -0.000000 -1.263415
 28 10.127057 0.000000 0.000001 2.054079 0.471964 0.165104
 29 2.683750 -0.427338 0.044205 0.001045 0.043611 0.000046
 30 1.438885 -0.000001 0.000000 0.000000 -0.000000 0.767689
 31 1.485305 0.000001 0.000000 0.000000 -0.000000 1.221538
time 16
  0 0.235347 -0.235347 -14.663034 -0.045585 0.257873 -1.742273
  1 0.000000 0.000000 0.000000 -1.570795 -1.570796 0.000000
  2 -0.000005 0.000007 3.713255 -3.368582 -0.221254 1.331540
  3 18.045721 0.000000 0.000000 0.000000 -0.000000 -1.349056
  4 17.597597 0.000000 0.000000 -0.205032 0.225938 -0.216505
  5 3.793090 6.407221 0.000000 0.000000 -0.000000 1.570796
  6 0.000005 -0.000003 -3.713255 6.216042 2.542639 5.445438
  7 18.045725 0.000000 0.000000 0.000000 -0.000000 -2.074575
  8 17.597597 0.000000 0.000000 -0.092072 0.087818 0.559914
  9 3.793090 6.407221 0.000000 0.000000 -0.000000 1.570796
 10 0.935740 0.000000 0.000000 0.000000 -0.000000 0.000000
 11 0.935741 0.000000 0.000000 0.000000 -0.000000 0.000000
 12 1.293670 0.684478 -0.000001 -0.000004 -0.000001 0.358403
 13 5.309685 -0.003834 0.000000 -0.033165 0.010750 0.313760
 14 4.826790 -0.004591 0.000000 -0.148224 0.003907 0.025388
 15 5.792767 -0.005304 0.000000 0.000000 -0.000000 0.122068
 16 6.662317 -0.001453 0.000000 0.000000 -0.000001 0.078555
 17 2.046985 -0.000002 0.000000 0.153591 0.097568 -0.848195
 18 -3.447972 0.216433 4.341911 0.549627 -1.337450 2.524941
 19 4.827230 0.000000 0.000001 -0.665426 -0.914280 -1.231282
 20 11.139763 0.000000 0.000000 0.000000 -0.000000 -1.194573
 21 10.314597 0.000001 0.000000 -2.411013 -0.017413 0.376988
 22 2.975834 -0.386307 -0.044143 -0.037734 -0.021799 1.029782
 23 1.438886 0.000000 0.000000 0.000000 -0.000000 0.593339
 24 1.485303 0.000000 0.000000 0.000000 -0.000000 1.665926
 25 -3.186314 0.196501 -4.140396 -0.694231 1.312910 2.384656
 26 4.972048 0.000000 0.000001 0.833562 0.420144 -1.508052
 27 11.585355 0.000000 0.000000 0.000000 -0.000000 -1.263415
 28 10.127057 0.000000 0.000001 2.054079 0.471964 0.165104
 29 2.683750 -0.427338 0.044205 0.001045 0.043611 0.000046
 30 1.438885 -0.000001 0.000000 0.000000 -0.000000 0.767689
 31 1.485305 0.000001 0.000000 0.000000 -0.000000 1.221538
time 17
  0 0.235347 -0.235347 -14.663034 -0.045585 0.257873 -1.742273
  1 0.000000 0.000000 0.000000 -1.570795 -1.570796 0.000000
  2 -0.000005 0.000007 3.713255 -3.368582 -0.221254 1.331540
  3 18.045721 0.000000 0.000000 0.000000 -0.000000 -1.349056
  4 17.597597 0.000000 0.000000 -0.205032 0.225938 -0.216505
  5 3.793090 6.407221 0.000000 0.000000 -0.000000 1.570796
  6 0.000005 -0.000003 -3.713255 6.216042 2.542639 5.445438
  7 18.045725 0.000000 0.000000 0.000000 -0.000000 -2.074575
  8 17.597597 0.000000 0.000000 -0.092072 0.087818 0.559914
  9 3.793090 6.407221 0.000000 0.000000 -0.000000 1.570796
 10 0.935740 0.000000 0.000000 0.000000 -0.000000 0.000000
 11 0.935741 0.000000 0.000000 0.000000 -0.000000 0.000000
 12 1.293670 0.684478 -0.000001 -0.000004 -0.000001 0.358403
 13 5.309685 -0.003834 0.000000 -0.033165 0.010750 0.313760
 14 4.826790 -0.004591 0.000000 -0.148224 0.003667 0.024087
 15 5.792767 -0.005304 0.000000 0.000000 -0.000000 0.122068
 16 6.662317 -0.001453 0.000000 0.000000 -0.000001 0.078555
 17 2.046985 -0.000002 0.000000 0.153591 0.097568 -0.847071
 18 -3.447972 0.216433 4.341911 0.534479 -1.339450 2.539610
 19 4.827230 0.000000 0.000001 -0.664545 -0.912323 -1.235570
 20 11.139763 0.000000 0.000000 0.000000 -0.000000 -1.194573
 21 10.314597 0.000001 0.000000 -2.411013 -0.017413 0.376988
 22 2.975834 -0.386307 -0.044143 -0.037734 -0.021799 1.029782
 23 1.438886 0.000000 0.000000 0.000000 -0.000000 0.593339
 24 1.485303 0.000000 0.000000 0.000000 -0.000000 1.665926
 25 -3.186314 0.196501 -4.140396 -0.678891 1.316019 2.399804
 26 4.972048 0.000000 0.000001 0.833639 0.417892 -1.512729
 27 11.585355 0.000000 0.000000 0.000000 -0.000000 -1.263415
 28 10.127057 0.000000 0.000001 2.054079 0.471964 0.165104
 29 2.683750 -0.427338 0.044205 0.001045 0.043611 0.000046
 30 1.438885 -0.000001 0.000000 0.000000 -0.000000 0.767689
 31 1.485305 0.000001 0.000000 0.000000 -0.000000 1.221538
time 18
  0 0.235347 -0.235347 -14.663034 -0.045585 0.257873 -1.742273
  1 0.000000 0.000000 0.000000 -1.570795 -1.570796 0.000000
  2 -0.000005 0.000007 3.713255 -3.368582 -0.221254 1.331540
  3 18.045721 0.000000 0.000000 0.000000 -0.000000 -1.349056
  4 17.597597 0.000000 0.000000 -0.205032 0.225938 -0.216505
  5 3.793090 6.407221 0.000000 0.000000 -0.000000 1.570796
  6 0.000005 -0.000003 -3.713255 6.216042 2.542639 5.445438
  7 18.045725 0.000000 0.000000 0.000000 -0.000000 -2.074575
  8 17.597597 0.000000 0.000000 -0.092072 0.087818 0.559914
  9 3.793090 6.407221 0.000000 0.000000 -0.000000 1.570796
 10 0.935740 0.000000 0.000000 0.000000 -0.000000 0.000000
 11 0.935741 0.000000 0.000000 0.000000 -0.000000 0.000000
 12 1.293670 0.684478 -0.000001 -0.000004 -0.000001 0.358403
 13 5.309685 -0.003834 0.000000 -0.033165 0.010750 0.313760
 14 4.826790 -0.004591 0.000000 -0.148224 0.003416 0.021992
 15 5.792767 -0.005304 0.000000 0.000000 -0.000000 0.122068
 16 6.662317 -0.001453 0.000000 0.000000 -0.000001 0.078555
 17 2.046985 -0.000002 0.000000 0.153591 0.097568 -0.844823
 18 -3.447972 0.216433 4.341911 0.511086 -1.342450 2.562237
 19 4.827230 0.000000 0.000001 -0.663194 -0.909259 -1.242221
 20 11.139763 0.000000 0.000000 0.000000 -0.000000 -1.194573
 21 10.314597 0.000001 0.000000 -2.411013 -0.017413 0.376988
 22 2.975834 -0.386307 -0.044143 -0.037734 -0.021799 1.029782
 23 1.438886 0.000000 0.000000 0.000000 -0.000000 0.593339
 24 1.485303 0.000000 0.000000 0.000000 -0.000000 1.665926
 25 -3.186314 0.196501 -4.140396 -0.653964 1.320739 2.423485
 26 4.972048 0.000000 0.000001 0.833794 0.414272 -1.519975
 27 11.585355 0.000000 0.000000 0.000000 -0.000000 -1.263415
 28 10.127057 0.000000 0.000001 2.054079 0.471964 0.165104
 29 2.683750 -0.427338 0.044205 0.001045 0.043611 0.000046
 30 1.438885 -0.000001 0.000000 0.000000 -0.000000 0.767689
 31 1.485305 0.000001 0.000000 0.000000 -0.000000 1.221538
time 19
  0 0.235347 -0.235347 -14.663034 -0.045585 0.257873 -1.742273
  1 0.000000 0.000000 0.000000 -1.570795 -1.570796 0.000000
  2 -0.000005 0.000007 3.713255 -3.368582 -0.221254 1.331540
  3 18.045721 0.000000 0.000000 0.000000 -0.000000 -1.349056
  4 17.597597 0.000000 0.000000 -0.205032 0.225938 -0.216505
  5 3.793090 6.407221 0.000000 0.000000 -0.000000 1.570796
  6 0.000005 -0.000003 -3.713255 6.216042 2.542639 5.445438
  7 18.045725 0.000000 0.000000 0.000000 -0.000000 -2.074575
  8 17.597597 0.000000 0.000000 -0.092072 0.087818 0.559914
  9 3.793090 6.407221 0.000000 0.000000 -0.000000 1.570796
 10 0.935740 0.000000 0.000000 0.000000 -0.000000 0.000000
 11 0.935741 0.000000 0.000000 0.000000 -0.000000 0.000000
 12 1.293670 0.684478 -0.000001 -0.000004 -0.000001 0.358403
 13 5.309685 -0.003834 0.000000 -0.033165 0.010750 0.313760
 14 4.826790 -0.004591 0.000000 -0.148224 0.002972 0.019413
 15 5.792767 -0.005304 0.000000 0.000000 -0.000000 0.122068
 16 6.662317 -0.001453 0.000000 0.000000 -0.000001 0.078555
 17 2.046985 -0.000002 0.000000 0.153591 0.097568 -0.842172
 18 -3.447972 0.216433 4.341911 0.479352 -1.346220 2.593109
 19 4.827230 0.000000 0.000001 -0.661432 -0.905004 -1.250972
 20 11.139763 0.000000 0.000000 0.000000 -0.000000 -1.194573
 21 10.314597 0.000001 0.000000 -2.411013 -0.017413 0.376988
 22 2.975834 -0.386307 -0.044143 -0.037734 -0.021799 1.029782
 23 1.438886 0.000000 0.000000 0.000000 -0.000000 0.593339
 24 1.485303 0.000000 0.000000 0.000000 -0.000000 1.665926
 25 -3.186314 0.196501 -4.140396 -0.620217 1.326703 2.456465
 26 4.972048 0.000000 0.000001 0.833871 0.409687 -1.529263
 27 11.585355 0.000000 0.000000 0.000000 -0.000000 -1.263415
 28 10.127057 0.000000 0.000001 2.054079 0.471964 0.165104
 29 2.683750 -0.427338 0.044205 0.001045 0.043611 0.000046
 30 1.438885 -0.000001 0.000000 0.000000 -0.000000 0.767689
 31 1.485305 0.000001 0.000000 0.000000 -0.000000 1.221538
time 20
  0 0.235347 -0.235347 -14.663034 -0.045585 0.257873 -1.742273
  1 0.000000 0.000000 0.000000 -1.570795 -1.570796 0.000000
  2 -0.000005 0.000007 3.713255 -3.368582 -0.221254 1.331540
  3 18.045721 0.000000 0.000000 0.000000 -0.000000 -1.349056
  4 17.597597 0.000000 0.000000 -0.205032 0.225938 -0.216505
  5 3.793090 6.407221 0.000000 0.000000 -0.000000 1.570796
  6 0.000005 -0.000003 -3.713255 6.216042 2.542639 5.445438
  7 18.045725 0.000000 0.000000 0.000000 -0.000000 -2.074575
  8 17.597597 0.000000 0.000000 -0.092072 0.087818 0.559914
  9 3.793090 6.407221 0.000000 0.000000 -0.000000 1.570796
 10 0.935740 0.000000 0.000000 0.000000 -0.000000 0.000000
 11 0.935741 0.000000 0.000000 0.000000 -0.000000 0.000000
 12 1.293670 0.684478 -0.000001 -0.000004 -0.000001 0.358403
 13 5.309685 -0.003834 0.000000 -0.033165 0.010750 0.313760
 14 4.826790 -0.004591 0.000000 -0.148224 0.002541 0.016282
 15 5.792767 -0.005304 0.000000 0.000000 -0.000000 0.122068
 16 6.662317 -0.001453 0.000000 0.000000 -0.000001 0.078555
 17 2.046985 -0.000002 0.000000 0.153591 0.097568 -0.838980
 18 -3.447972 0.216433 4.341911 0.440715 -1.350373 2.630980
 19 4.827230 0.000000 0.000001 -0.659435 -0.899983 -1.260948
 20 11.139763 0.000000 0.000000 0.000000 -0.000000 -1.194573
 21 10.314597 0.000001 0.000000 -2.411013 -0.017413 0.376988
 22 2.975834 -0.386307 -0.044143 -0.037734 -0.021799 1.029782
 23 1.438886 0.000000 0.000000 0.000000 -0.000000 0.593339
 24 1.485303 0.000000 0.000000 0.000000 -0.000000 1.665926
 25 -3.186314 0.196501 -4.140396 -0.577841 1.333373 2.497211
 26 4.972048 0.000000 0.000001 0.834026 0.404217 -1.540461
 27 11.585355 0.000000 0.000000 0.000000 -0.000000 -1.263415
 28 10.127057 0.000000 0.000001 2.054079 0.471964 0.165104
 29 2.683750 -0.427338 0.044205 0.001045 0.043611 0.000046
 30 1.438885 -0.000001 0.000000 0.000000 -0.000000 0.767689
 31 1.485305 0.000001 0.000000 0.000000 -0.000000 1.221538
time 21
  0 0.235347 -0.235347 -14.663034 -0.045585 0.257873 -1.742273
  1 0.000000 0.000000 0.000000 -1.570795 -1.570796 0.000000
  2 -0.000005 0.000007 3.713255 -3.368582 -0.221254 1.331540
  3 18.045721 0.000000 0.000000 0.000000 -0.000000 -1.349056
  4 17.597597 0.000000 0.000000 -0.205032 0.225938 -0.216505
  5 3.793090 6.407221 0.000000 0.000000 -0.000000 1.570796
  6 0.000005 -0.000003 -3.713255 6.216042 2.542639 5.445438
  7 18.045725 0.000000 0.000000 0.000000 -0.000000 -2.074575
  8 17.597597 0.000000 0.000000 -0.092072 0.087818 0.559914
  9 3.793090 6.407221 0.000000 0.000000 -0.000000 1.570796
 10 0.935740 0.000000 0.000000 0.000000 -0.000000 0.000000
 11 0.935741 0.000000 0.000000 0.000000 -0.000000 0.000000
 12 1.293670 0.684478 -0.000001 -0.000004 -0.000001 0.358403
 13 5.309685 -0.003834 0.000000 -0.033165 0.010750 0.313760
 14 4.826790 -0.004591 0.000000 -0.148257 0.001965 0.012732
 15 5.792767 -0.005304 0.000000 0.000000 -0.000000 0.122068
 16 6.662317 -0.001453 0.000000 0.000000 -0.000001 0.078555
 17 2.046985 -0.000002 0.000000 0.153591 0.097568 -0.835384
 18 -3.447972 0.216433 4.341911 0.395367 -1.354604 2.674796
 19 4.827230 0.000000 0.000001 -0.657203 -0.894877 -1.272412
 20 11.139763 0.000000 0.000000 0.000000 -0.000000 -1.194573
 21 10.314597 0.000001 0.000000 -2.411013 -0.017413 0.376988
 22 2.975834 -0.386307 -0.044143 -0.037734 -0.021799 1.029782
 23 1.438886 0.000000 0.000000 0.000000 -0.000000 0.593339
 24 1.485303 0.000000 0.000000 0.000000 -0.000000 1.665926
 25 -3.186314 0.196501 -4.140396 -0.527891 1.340326 2.546394
 26 4.972048 0.000000 0.000001 0.834490 0.398023 -1.552977
 27 11.585355 0.000000 0.000000 0.000000 -0.000000 -1.263415
 28 10.127057 0.000000 0.000001 2.054079 0.471964 0.165104
 29 2.683750 -0.427338 0.044205 0.001045 0.043611 0.000046
 30 1.438885 -0.000001 0.000000 0.000000 -0.000000 0.767689
 31 1.485305 0.000001 0.000000 0.000000 -0.000000 1.221538
time 22
  0 0.235347 -0.235347 -14.663034 -0.045585 0.257873 -1.742273
  1 0.000000 0.000000 0.000000 -1.570795 -1.570796 0.000000
  2 -0.000005 0.000007 3.713255 -3.368582 -0.221254 1.331540
  3 18.045721 0.000000 0.000000 0.000000 -0.000000 -1.349056
  4 17.597597 0.000000 0.000000 -0.205032 0.225938 -0.216505
  5 3.793090 6.407221 0.000000 0.000000 -0.000000 1.570796
  6 0.000005 -0.000003 -3.713255 6.216042 2.542639 5.445438
  7 18.045725 0.000000 0.000000 0.000000 -0.000000 -2.074575
  8 17.597597 0.000000 0.000000 -0.092072 0.087818 0.559914
  9 3.793090 6.407221 0.000000 0.000000 -0.000000 1.570796
 10 0.935740 0.000000 0.000000 0.000000 -0.000000 0.000000
 11 0.935741 0.000000 0.000000 0.000000 -0.000000 0.000000
 12 1.293670 0.684478 -0.000001 -0.000004 -0.000001 0.358403
 13 5.309685 -0.003834 0.000000 -0.033165 0.010750 0.313760
 14 4.826790 -0.004591 0.000000 -0.148257 0.001402 0.008940
 15 5.792767 -0.005304 0.000000 0.000000 -0.000000 0.122068
 16 6.662317 -0.001453 0.000000 0.000000 -0.000001 0.078555
 17 2.046985 -0.000002 0.000000 0.153591 0.097568 -0.831744
 18 -3.447972 0.216433 4.341911 0.344746 -1.358681 2.724364
 19 4.827230 0.000000 0.000001 -0.654912 -0.889005 -1.285101
 20 11.139763 0.000000 0.000000 0.000000 -0.000000 -1.194573
 21 10.314597 0.000001 0.000000 -2.411013 -0.017413 0.376988
 22 2.975834 -0.386307 -0.044143 -0.037734 -0.021799 1.029782
 23 1.438886 0.000000 0.000000 0.000000 -0.000000 0.593339
 24 1.485303 0.000000 0.000000 0.000000 -0.000000 1.665926
 25 -3.186314 0.196501 -4.140396 -0.470559 1.347166 2.601713
 26 4.972048 0.000000 0.000001 0.834877 0.391427 -1.566349
 27 11.585355 0.000000 0.000000 0.000000 -0.000000 -1.263415
 28 10.127057 0.000000 0.000001 2.054079 0.471964 0.165104
 29 2.683750 -0.427338 0.044205 0.001045 0.043611 0.000046
 30 1.438885 -0.000001 0.000000 0.000000 -0.000000 0.767689
 31 1.485305 0.000001 0.000000 0.000000 -0.000000 1.221538
time 23
  0 0.235347 -0.235347 -14.663034 -0.045585 0.257873 -1.742273
  1 0.000000 0.000000 0.000000 -1.570795 -1.570796 0.000000
  2 -0.000005 0.000007 3.713255 -3.368582 -0.221254 1.331540
  3 18.045721 0.000000 0.000000 0.000000 -0.000000 -1.349056
  4 17.597597 0.000000 0.000000 -0.205032 0.225938 -0.216505
  5 3.793090 6.407221 0.000000 0.000000 -0.000000 1.570796
  6 0.000005 -0.000003 -3.713255 6.216042 2.542639 5.445438
  7 18.045725 0.000000 0.000000 0.000000 -0.000000 -2.074575
  8 17.597597 0.000000 0.000000 -0.092072 0.087818 0.559914
  9 3.793090 6.407221 0.000000 0.000000 -0.000000 1.570796
 10 0.935740 0.000000 0.000000 0.000000 -0.000000 0.000000
 11 0.935741 0.000000 0.000000 0.000000 -0.000000 0.000000
 12 1.293670 0.684478 -0.000001 -0.000004 -0.000001 0.358403
 13 5.309685 -0.003834 0.000000 -0.033165 0.010750 0.313760
 14 4.826790 -0.004591 0.000000 -0.148273 0.000863 0.004971
 15 5.792767 -0.005304 0.000000 0.000000 -0.000000 0.122068
 16 6.662317 -0.001453 0.000000 0.000000 -0.000001 0.078555
 17 2.046985 -0.000002 0.000000 0.153591 0.097568 -0.827564
 18 -3.447972 0.216433 4.341911 0.290098 -1.362335 2.777671
 19 4.827230 0.000000 0.000001 -0.652504 -0.882878 -1.297878
 20 11.139763 0.000000 0.000000 0.000000 -0.000000 -1.194573
 21 10.314597 0.000001 0.000000 -2.411013 -0.017413 0.376988
 22 2.975834 -0.386307 -0.044143 -0.037734 -0.021799 1.029782
 23 1.438886 0.000000 0.000000 0.000000 -0.000000 0.593339
 24 1.485303 0.000000 0.000000 0.000000 -0.000000 1.665926
 25 -3.186314 0.196501 -4.140396 -0.407666 1.353497 2.663455
 26 4.972048 0.000000 0.000001 0.835341 0.384509 -1.580248
 27 11.585355 0.000000 0.000000 0.000000 -0.000000 -1.263415
 28 10.127057 0.000000 0.000001 2.054079 0.471964 0.165104
 29 2.683750 -0.427338 0.044205 0.001045 0.043611 0.000046
 30 1.438885 -0.000001 0.000000 0.000000 -0.000000 0.767689
 31 1.485305 0.000001 0.000000 0.000000 -0.000000 1.221538
time 24
  0 0.235347 -0.235347 -14.663034 -0.045585 0.257873 -1.742273
  1 0.000000 0.000000 0.000000 -1.570795 -1.570796 0.000000
  2 -0.000005 0.000007 3.713255 -3.368582 -0.221254 1.331540
  3 18.045721 0.000000 0.000000 0.000000 -0.000000 -1.349056
  4 17.597597 0.000000 0.000000 -0.205032 0.225938 -0.216505
  5 3.793090 6.407221 0.000000 0.000000 -0.000000 1.570796
  6 0.000005 -0.000003 -3.713255 6.216042 2.542639 5.445438
  7 18.045725 0.000000 0.000000 0.000000 -0.000000 -2.074575
  8 17.597597 0.000000 0.000000 -0.092072 0.087818 0.559914
  9 3.793090 6.407221 0.000000 0.000000 -0.000000 1.570796
 10 0.935740 0.000000 0.000000 0.000000 -0.000000 0.000000
 11 0.935741 0.000000 0.000000 0.000000 -0.000000 0.000000
 12 1.293670 0.684478 -0.000001 -0.000004 -0.000001 0.358403
 13 5.309685 -0.003834 0.000000 -0.033165 0.010750 0.313760
 14 4.826790 -0.004591 0.000000 -0.148273 0.000264 0.000936
 15 5.792767 -0.005304 0.000000 0.000000 -0.000000 0.122068
 16 6.662317 -0.001453 0.000000 0.000000 -0.000001 0.078555
 17 2.046985 -0.000002 0.000000 0.153591 0.097568 -0.823518
 18 -3.447972 0.216433 4.341911 0.233054 -1.365489 2.833854
 19 4.827230 0.000000 0.000001 -0.650272 -0.876325 -1.310742
 20 11.139763 0.000000 0.000000 0.000000 -0.000000 -1.194573
 21 10.314597 0.000001 0.000000 -2.411013 -0.017413 0.376988
 22 2.975834 -0.386307 -0.044143 -0.037734 -0.021799 1.029782
 23 1.438886 0.000000 0.000000 0.000000 -0.000000 0.593339
 24 1.485303 0.000000 0.000000 0.000000 -0.000000 1.665926
 25 -3.186314 0.196501 -4.140396 -0.340459 1.359037 2.728841
 26 4.972048 0.000000 0.000001 0.835805 0.377591 -1.594279
 27 11.585355 0.000000 0.000000 0.000000 -0.000000 -1.263415
 28 10.127057 0.000000 0.000001 2.054079 0.471964 0.165104
 29 2.683750 -0.427338 0.044205 0.001045 0.043611 0.000046
 30 1.438885 -0.000001 0.000000 0.000000 -0.000000 0.767689
 31 1.485305 0.000001 0.000000 0.000000 -0.000000 1.221538
time 25
  0 0.235347 -0.235347 -14.663034 -0.045585 0.257873 -1.742273
  1 0.000000 0.000000 0.000000 -1.570795 -1.570796 0.000000
  2 -0.000005 0.000007 3.713255 -3.368582 -0.221254 1.331540
  3 18.045721 0.000000 0.000000 0.000000 -0.000000 -1.349056
  4 17.597597 0.000000 0.000000 -0.205032 0.225938 -0.216505
  5 3.793090 6.407221 0.000000 0.000000 -0.000000 1.570796
  6 0.000005 -0.000003 -3.713255 6.216042 2.542639 5.445438
  7 18.045725 0.000000 0.000000 0.000000 -0.000000 -2.074575
  8 17.597597 0.000000 0.000000 -0.092072 0.087818 0.559914
  9 3.793090 6.407221 0.000000 0.000000 -0.000000 1.570796
 10 0.935740 0.000000 0.000000 0.000000 -0.000000 0.000000
 11 0.935741 0.000000 0.000000 0.000000 -0.000000 0.000000
 12 1.293670 0.684478 -0.000001 -0.000004 -0.000001 0.358403
 13 5.309685 -0.003834 0.000000 -0.033165 0.010750 0.313760
 14 4.826790 -0.004591 0.000000 -0.148273 -0.000312 -0.002900
 15 5.792767 -0.005304 0.000000 0.000000 -0.000000 0.122068
 16 6.662317 -0.001453 0.000000 0.000000 -0.000001 0.078555
 17 2.046985 -0.000002 0.000000 0.153591 0.097568 -0.819743
 18 -3.447972 0.216433 4.341911 0.175626 -1.367797 2.889846
 19 4.827230 0.000000 0.000001 -0.648099 -0.870368 -1.323256
 20 11.139763 0.000000 0.000000 0.000000 -0.000000 -1.194573
 21 10.314597 0.000001 0.000000 -2.411013 -0.017413 0.376988
 22 2.975834 -0.386307 -0.044143 -0.037734 -0.021799 1.029782
 23 1.438886 0.000000 0.000000 0.000000 -0.000000 0.593339
 24 1.485303 0.000000 0.000000 0.000000 -0.000000 1.665926
 25 -3.186314 0.196501 -4.140396 -0.271430 1.363418 2.796336
 26 4.972048 0.000000 0.000001 0.836269 0.370673 -1.607783
 27 11.585355 0.000000 0.000000 0.000000 -0.000000 -1.263415
 28 10.127057 0.000000 0.000001 2.054079 0.471964 0.165104
 29 2.683750 -0.427338 0.044205 0.001045 0.043611 0.000046
 30 1.438885 -0.000001 0.000000 0.000000 -0.000000 0.767689
 31 1.485305 0.000001 0.000000 0.000000 -0.000000 1.221538
time 26
  0 0.235347 -0.235347 -14.663034 -0.045585 0.257873 -1.742273
  1 0.000000 0.000000 0.000000 -1.570795 -1.570796 0.000000
  2 -0.000005 0.000007 3.713255 -3.368582 -0.221254 1.331540
  3 18.045721 0.000000 0.000000 0.000000 -0.000000 -1.349056
  4 17.597597 0.000000 0.000000 -0.205032 0.225938 -0.216505
  5 3.793090 6.407221 0.000000 0.000000 -0.000000 1.570796
  6 0.000005 -0.000003 -3.713255 6.216042 2.542639 5.445438
  7 18.045725 0.000000 0.000000 0.000000 -0.000000 -2.074575
  8 17.597597 0.000000 0.000000 -0.092072 0.087818 0.559914
  9 3.793090 6.407221 0.000000 0.000000 -0.000000 1.570796
 10 0.935740 0.000000 0.000000 0.000000 -0.000000 0.000000
 11 0.935741 0.000000 0.000000 0.000000 -0.000000 0.000000
 12 1.293670 0.684478 -0.000001 -0.000004 -0.000001 0.358403
 13 5.309685 -0.003834 0.000000 -0.033165 0.010750 0.313760
 14 4.826790 -0.004591 0.000000 -0.148273 -0.000863 -0.006626
 15 5.792767 -0.005304 0.000000 0.000000 -0.000000 0.122068
 16 6.662317 -0.001453 0.000000 0.000000 -0.000001 0.078555
 17 2.046985 -0.000002 0.000000 0.153591 0.097568 -0.816012
 18 -3.447972 0.216433 4.341911 0.120211 -1.369412 2.944399
 19 4.827230 0.000000 0.000001 -0.646043 -0.864496 -1.335070
 20 11.139763 0.000000 0.000000 0.000000 -0.000000 -1.194573
 21 10.314597 0.000001 0.000000 -2.411013 -0.017413 0.376988
 22 2.975834 -0.386307 -0.044143 -0.037734 -0.021799 1.029782
 23 1.438886 0.000000 0.000000 0.000000 -0.000000 0.593339
 24 1.485303 0.000000 0.000000 0.000000 -0.000000 1.665926
 25 -3.186314 0.196501 -4.140396 -0.203360 1.366725 2.862872
 26 4.972048 0.000000 0.000001 0.836656 0.364077 -1.621155
 27 11.585355 0.000000 0.000000 0.000000 -0.000000 -1.263415
 28 10.127057 0.000000 0.000001 2.054079 0.471964 0.165104
 29 2.683750 -0.427338 0.044205 0.001045 0.043611 0.000046
 30 1.438885 -0.000001 0.000000 0.000000 -0.000000 0.767689
 31 1.485305 0.000001 0.000000 0.000000 -0.000000 1.221538
time 27
  0 0.235347 -0.235347 -14.663034 -0.045585 0.257873 -1.742273
  1 0.000000 0.000000 0.000000 -1.570795 -1.570796 0.000000
  2 -0.000005 0.000007 3.713255 -3.368582 -0.221254 1.331540
  3 18.045721 0.000000 0.000000 0.000000 -0.000000 -1.349056
  4 17.597597 0.000000 0.000000 -0.205032 0.225938 -0.216505
  5 3.793090 6.407221 0.000000 0.000000 -0.000000 1.570796
  6 0.000005 -0.000003 -3.713255 6.216042 2.542639 5.445438
  7 18.045725 0.000000 0.000000 0.000000 -0.000000 -2.074575
  8 17.597597 0.000000 0.000000 -0.092072 0.087818 0.559914
  9 3.793090 6.407221 0.000000 0.000000 -0.000000 1.570796
 10 0.935740 0.000000 0.000000 0.000000 -0.000000 0.000000
 11 0.935741 0.000000 0.000000 0.000000 -0.000000 0.000000
 12 1.293670 0.684478 -0.000001 -0.000004 -0.000001 0.358403
 13 5.309685 -0.003834 0.000000 -0.033165 0.010750 0.313760
 14 4.826790 -0.004591 0.000000 -0.148257 -0.001318 -0.010088
 15 5.792767 -0.005304 0.000000 0.000000 -0.000000 0.122068
 16 6.662317 -0.001453 0.000000 0.000000 -0.000001 0.078555
 17 2.046985 -0.000002 0.000000 0.153591 0.097568 -0.812551
 18 -3.447972 0.216433 4.341911 0.068344 -1.370412 2.995022
 19 4.827230 0.000000 0.000001 -0.644222 -0.859390 -1.345834
 20 11.139763 0.000000 0.000000 0.000000 -0.000000 -1.194573
 21 10.314597 0.000001 0.000000 -2.411013 -0.017413 0.376988
 22 2.975834 -0.386307 -0.044143 -0.037734 -0.021799 1.029782
 23 1.438886 0.000000 0.000000 0.000000 -0.000000 0.593339
 24 1.485303 0.000000 0.000000 0.000000 -0.000000 1.665926
 25 -3.186314 0.196501 -4.140396 -0.139221 1.368901 2.925573
 26 4.972048 0.000000 0.000001 0.837275 0.358124 -1.633144
 27 11.585355 0.000000 0.000000 0.000000 -0.000000 -1.263415
 28 10.127057 0.000000 0.000001 2.054079 0.471964 0.165104
 29 2.683750 -0.427338 0.044205 0.001045 0.043611 0.000046
 30 1.438885 -0.000001 0.000000 0.000000 -0.000000 0.767689
 31 1.485305 0.000001 0.000000 0.000000 -0.000000 1.221538
time 28
  0 0.235347 -0.235347 -14.663034 -0.045585 0.257873 -1.742273
  1 0.000000 0.000000 0.000000 -1.570795 -1.570796 0.000000
  2 -0.000005 0.000007 3.713255 -3.368582 -0.221254 1.331540
  3 18.045721 0.000000 0.000000 0.000000 -0.000000 -1.349056
  4 17.597597 0.000000 0.000000 -0.205032 0.225938 -0.216505
  5 3.793090 6.407221 0.000000 0.000000 -0.000000 1.570796
  6 0.000005 -0.000003 -3.713255 6.216042 2.542639 5.445438
  7 18.045725 0.000000 0.000000 0.000000 -0.000000 -2.074575
  8 17.597597 0.000000 0.000000 -0.092072 0.087818 0.559914
  9 3.793090 6.407221 0.000000 0.000000 -0.000000 1.570796
 10 0.935740 0.000000 0.000000 0.000000 -0.000000 0.000000
 11 0.935741 0.000000 0.000000 0.000000 -0.000000 0.000000
 12 1.293670 0.684478 -0.000001 -0.000004 -0.000001 0.358403
 13 5.309685 -0.003834 0.000000 -0.033165 0.010750 0.313760
 14 4.826790 -0.004591 0.000000 -0.148257 -0.001822 -0.013020
 15 5.792767 -0.005304 0.000000 0.000000 -0.000000 0.122068
 16 6.662317 -0.001453 0.000000 0.000000 -0.000001 0.078555
 17 2.046985 -0.000002 0.000000 0.153591 0.097568 -0.809495
 18 -3.447972 0.216433 4.341911 0.022996 -1.370797 3.039604
 19 4.827230 0.000000 0.000001 -0.642695 -0.854880 -1.355373
 20 11.139763 0.000000 0.000000 0.000000 -0.000000 -1.194573
 21 10.314597 0.000001 0.000000 -2.411013 -0.017413 0.376988
 22 2.975834 -0.386307 -0.044143 -0.037734 -0.021799 1.029782
 23 1.438886 0.000000 0.000000 0.000000 -0.000000 0.593339
 24 1.485303 0.000000 0.000000 0.000000 -0.000000 1.665926
 25 -3.186314 0.196501 -4.140396 -0.081985 1.370173 2.981467
 26 4.972048 0.000000 0.000001 0.837739 0.352976 -1.643420
 27 11.585355 0.000000 0.000000 0.000000 -0.000000 -1.263415
 28 10.127057 0.000000 0.000001 2.054079 0.471964 0.165104
 29 2.683750 -0.427338 0.044205 0.001045 0.043611 0.000046
 30 1.438885 -0.000001 0.000000 0.000000 -0.000000 0.767689
 31 1.485305 0.000001 0.000000 0.000000 -0.000000 1.221538
time 29
  0 0.235347 -0.235347 -14.663034 -0.045585 0.257873 -1.742273
  1 0.000000 0.000000 0.000000 -1.570795 -1.570796 0.000000
  2 -0.000005 0.000007 3.713255 -3.368582 -0.221254 1.331540
  3 18.045721 0.000000 0.000000 0.000000 -0.000000 -1.349056
  4 17.597597 0.000000 0.000000 -0.205032 0.225938 -0.216505
  5 3.793090 6.407221 0.000000 0.000000 -0.000000 1.570796
  6 0.000005 -0.000003 -3.713255 6.216042 2.542639 5.445438
  7 18.045725 0.000000 0.000000 0.000000 -0.000000 -2.074575
  8 17.597597 0.000000 0.000000 -0.092072 0.087818 0.559914
  9 3.793090 6.407221 0.000000 0.000000 -0.000000 1.570796
 10 0.935740 0.000000 0.000000 0.000000 -0.000000 0.000000
 11 0.935741 0.000000 0.000000 0.000000 -0.000000 0.000000
 12 1.293670 0.684478 -0.000001 -0.000004 -0.000001 0.358403
 13 5.309685 -0.003834 0.000000 -0.033165 0.010750 0.313760
 14 4.826790 -0.004591 0.000000 -0.148257 -0.002133 -0.015534
 15 5.792767 -0.005304 0.000000 0.000000 -0.000000 0.122068
 16 6.662317 -0.001453 0.000000 0.000000 -0.000001 0.078555
 17 2.046985 -0.000002 0.000000 0.153591 0.097568 -0.806978
 18 -3.447972 0.216433 4.341911 -0.014395 -1.370797 3.076229
 19 4.827230 0.000000 0.000001 -0.641403 -0.850965 -1.363074
 20 11.139763 0.000000 0.000000 0.000000 -0.000000 -1.194573
 21 10.314597 0.000001 0.000000 -2.411013 -0.017413 0.376988
 22 2.975834 -0.386307 -0.044143 -0.037734 -0.021799 1.029782
 23 1.438886 0.000000 0.000000 0.000000 -0.000000 0.593339
 24 1.485303 0.000000 0.000000 0.000000 -0.000000 1.665926
 25 -3.186314 0.196501 -4.140396 -0.034815 1.370710 3.027965
 26 4.972048 0.000000 0.000001 0.838126 0.348632 -1.652181
 27 11.585355 0.000000 0.000000 0.000000 -0.000000 -1.263415
 28 10.127057 0.000000 0.000001 2.054079 0.471964 0.165104
 29 2.683750 -0.427338 0.044205 0.001045 0.043611 0.000046
 30 1.438885 -0.000001 0.000000 0.000000 -0.000000 0.767689
 31 1.485305 0.000001 0.000000 0.000000 -0.000000 1.221538
time 30
  0 0.235347 -0.235347 -14.663034 -0.045585 0.257873 -1.742273
  1 0.000000 0.000000 0.000000 -1.570795 -1.570796 0.000000
  2 -0.000005 0.000007 3.713255 -3.368582 -0.221254 1.331540
  3 18.045721 0.000000 0.000000 0.000000 -0.000000 -1.349056
  4 17.597597 0.000000 0.000000 -0.205032 0.225938 -0.216505
  5 3.793090 6.407221 0.000000 0.000000 -0.000000 1.570796
  6 0.000005 -0.000003 -3.713255 6.216042 2.542639 5.445438
  7 18.045725 0.000000 0.000000 0.000000 -0.000000 -2.074575
  8 17.597597 0.000000 0.000000 -0.092072 0.087818 0.559914
  9 3.793090 6.407221 0.000000 0.000000 -0.000000 1.570796
 10 0.935740 0.000000 0.000000 0.000000 -0.000000 0.000000
 11 0.935741 0.000000 0.000000 0.000000 -0.000000 0.000000
 12 1.293670 0.684478 -0.000001 -0.000004 -0.000001 0.358403
 13 5.309685 -0.003834 0.000000 -0.033165 0.010750 0.313760
 14 4.826790 -0.004591 0.000000 -0.148257 -0.002457 -0.017342
 15 5.792767 -0.005304 0.000000 0.000000 -0.000000 0.122068
 16 6.662317 -0.001453 0.000000 0.000000 -0.000001 0.078555
 17 2.046985 -0.000002 0.000000 0.153591 0.097568 -0.805225
 18 -3.447972 0.216433 4.341911 -0.041815 -1.370643 3.103266
 19 4.827230 0.000000 0.000001 -0.640522 -0.848242 -1.368762
 20 11.139763 0.000000 0.000000 0.000000 -0.000000 -1.194573
 21 10.314597 0.000001 0.000000 -2.411013 -0.017413 0.376988
 22 2.975834 -0.386307 -0.044143 -0.037734 -0.021799 1.029782
 23 1.438886 0.000000 0.000000 0.000000 -0.000000 0.593339
 24 1.485303 0.000000 0.000000 0.000000 -0.000000 1.665926
 25 -3.186314 0.196501 -4.140396 -0.000013 1.370795 3.062192
 26 4.972048 0.000000 0.000001 0.838358 0.345495 -1.658439
 27 11.585355 0.000000 0.000000 0.000000 -0.000000 -1.263415
 28 10.127057 0.000000 0.000001 2.054079 0.471964 0.165104
 29 2.683750 -0.427338 0.044205 0.001045 0.043611 0.000046
 30 1.438885 -0.000001 0.000000 0.000000 -0.000000 0.767689
 31 1.485305 0.000001 0.000000 0.000000 -0.000000 1.221538
end
