version 1
nodes
  0 "Bip01"  -1
  1 "Bip01 Pelvis"   0
  2 "Bip01 L Leg"   1
  3 "Bip01 L Leg1"   2
  4 "Bip01 L Foot"   3
  5 "Bip01 L Toe0"   4
  6 "Bip01 R Leg"   1
  7 "Bip01 R Leg1"   6
  8 "Bip01 R Foot"   7
  9 "Bip01 R Toe0"   8
 10 "Bip01 R Toe01"   9
 11 "Bip01 R Toe02"  10
 12 "Bip01 Spine"   1
 13 "Bip01 Spine1"  12
 14 "Bip01 Spine2"  13
 15 "Bip01 Spine3"  14
 16 "Bip01 Neck"  15
 17 "Bip01 Head"  16
 18 "Bip01 L Arm"  16
 19 "Bip01 L Arm1"  18
 20 "Bip01 L Arm2"  19
 21 "Bip01 L Hand"  20
 22 "Bip01 L Finger1"  21
 23 "Bip01 L Finger11"  22
 24 "Bip01 L Finger12"  23
 25 "Bip01 R Arm"  16
 26 "Bip01 R Arm1"  25
 27 "Bip01 R Arm2"  26
 28 "Bip01 R Hand"  27
 29 "Bip01 R Finger1"  28
 30 "Bip01 R Finger11"  29
 31 "Bip01 R Finger12"  30
end
skeleton
time 0
  0 0.235347 -0.235347 2.884376 -0.000000 -0.000000 -1.571254
  1 0.675802 -0.007813 0.000000 -1.570795 -1.570796 0.000000
  2 -0.000005 0.000007 3.713255 -0.055471 -3.106622 6.073123
  3 18.045721 0.000000 0.000000 0.000000 -0.000000 -0.234885
  4 17.597597 0.000000 0.000000 -0.095546 -0.022601 0.023285
  5 3.793090 6.407221 0.000000 0.000000 -0.000000 1.570796
  6 0.000005 -0.000003 -3.713255 0.258062 3.090914 0.080726
  7 18.045725 0.000000 0.000000 0.000000 -0.000000 -0.127551
  8 17.597597 0.000000 0.000000 -0.018139 0.069140 0.192751
  9 3.793090 6.407221 0.000000 0.000000 -0.000000 1.570796
 10 0.935740 0.000000 0.000000 0.000000 -0.000000 0.000000
 11 0.935741 0.000000 0.000000 0.000000 -0.000000 0.000000
 12 1.293670 0.684478 -0.000001 -0.069768 0.000610 0.009520
 13 5.309685 -0.003834 0.000000 0.000000 -0.000000 -0.069778
 14 4.826790 -0.004591 0.000000 -0.078488 0.000060 -0.000056
 15 5.792767 -0.005304 0.000000 0.000000 -0.000000 0.017444
 16 6.662317 -0.001453 0.000000 0.000000 -0.000001 0.471000
 17 2.046985 -0.000002 0.000000 0.158459 -0.045250 -0.152224
 18 -3.112024 1.517254 4.341911 -0.000014 -1.370797 2.669810
 19 4.827230 0.000000 0.000001 0.662133 1.105671 0.695365
 20 11.139763 0.000000 0.000000 0.000000 -0.000000 -0.723146
 21 10.314597 0.000001 0.000000 -1.570000 -0.000000 -0.069778
 22 2.975834 -0.386307 -0.044143 -0.000797 -0.043611 0.000035
 23 1.438886 0.000000 0.000000 0.000000 -0.000000 0.793659
 24 1.485303 0.000000 0.000000 0.000000 -0.000000 1.465135
 25 -2.869898 1.399663 -4.140396 -0.000013 1.370795 2.669783
 26 4.972048 0.000000 0.000001 0.059241 -1.186182 -0.219059
 27 11.585355 0.000000 0.000000 0.000000 -0.000000 -1.438517
 28 10.127057 0.000000 0.000001 1.761432 0.007905 -0.061501
 29 2.683750 -0.427338 0.044205 0.001045 0.043611 0.000046
 30 1.438885 -0.000001 0.000000 0.000000 -0.000000 1.072747
 31 1.485305 0.000001 0.000000 0.000000 -0.000000 1.090144
time 1
  0 0.243160 -0.243160 2.876563 -0.000000 -0.000000 -1.571254
  1 0.671896 -0.007813 0.000000 -1.570795 -1.570796 0.000000
  2 -0.000005 0.000007 3.713255 -0.055376 -3.106238 6.069959
  3 18.045721 0.000000 0.000000 0.000000 -0.000000 -0.240598
  4 17.597597 0.000000 0.000000 -0.095546 -0.022528 0.025893
  5 3.793090 6.407221 0.000000 0.000000 -0.000000 1.570796
  6 0.000005 -0.000003 -3.713255 0.257871 3.089381 0.075070
  7 18.045725 0.000000 0.000000 0.000000 -0.000000 -0.139215
  8 17.597597 0.000000 0.000000 -0.018106 0.069179 0.198486
  9 3.793090 6.407221 0.000000 0.000000 -0.000000 1.570796
 10 0.935740 0.000000 0.000000 0.000000 -0.000000 0.000000
 11 0.935741 0.000000 0.000000 0.000000 -0.000000 0.000000
 12 1.293670 0.684478 -0.000001 -0.069768 0.000610 0.009520
 13 5.309685 -0.003834 0.000000 0.000000 -0.000000 -0.069778
 14 4.826790 -0.004591 0.000000 -0.078488 0.000180 0.001620
 15 5.792767 -0.005304 0.000000 0.000000 -0.000000 0.019749
 16 6.662317 -0.001453 0.000000 0.000000 -0.000001 0.471000
 17 2.046985 -0.000002 0.000000 0.158502 -0.045047 -0.157483
 18 -3.112024 1.517254 4.341911 -0.000014 -1.367797 2.669810
 19 4.827230 0.000000 0.000001 0.651208 1.105671 0.684689
 20 11.139763 0.000000 0.000000 0.000000 -0.000000 -0.723146
 21 10.314597 0.000001 0.000000 -1.570000 -0.000000 -0.069778
 22 2.975834 -0.386307 -0.044143 -0.000797 -0.043611 0.000035
 23 1.438886 0.000000 0.000000 0.000000 -0.000000 0.793659
 24 1.485303 0.000000 0.000000 0.000000 -0.000000 1.465135
 25 -2.869898 1.399663 -4.140396 -0.000013 1.368025 2.669783
 26 4.972048 0.000000 0.000001 0.067673 -1.182562 -0.227688
 27 11.585355 0.000000 0.000000 0.000000 -0.000000 -1.438517
 28 10.127057 0.000000 0.000001 1.761432 0.007905 -0.061501
 29 2.683750 -0.427338 0.044205 0.001045 0.043611 0.000046
 30 1.438885 -0.000001 0.000000 0.000000 -0.000000 1.072747
 31 1.485305 0.000001 0.000000 0.000000 -0.000000 1.090144
time 2
  0 0.243160 -0.243160 2.853125 -0.000000 -0.000000 -1.571254
  1 0.652364 -0.007813 0.000000 -1.570795 -1.570796 0.000000
  2 -0.000005 0.000007 3.713255 -0.055376 -3.106238 6.065836
  3 18.045721 0.000000 0.000000 0.000000 -0.000000 -0.247870
  4 17.597597 0.000000 0.000000 -0.095546 -0.022309 0.029050
  5 3.793090 6.407221 0.000000 0.000000 -0.000000 1.570796
  6 0.000005 -0.000003 -3.713255 0.257295 3.087271 0.067591
  7 18.045725 0.000000 0.000000 0.000000 -0.000000 -0.153776
  8 17.597597 0.000000 0.000000 -0.018073 0.069278 0.205457
  9 3.793090 6.407221 0.000000 0.000000 -0.000000 1.570796
 10 0.935740 0.000000 0.000000 0.000000 -0.000000 0.000000
 11 0.935741 0.000000 0.000000 0.000000 -0.000000 0.000000
 12 1.293670 0.684478 -0.000001 -0.069768 0.000610 0.009520
 13 5.309685 -0.003834 0.000000 0.000000 -0.000000 -0.069778
 14 4.826790 -0.004591 0.000000 -0.078488 0.000407 0.005015
 15 5.792767 -0.005304 0.000000 0.000000 -0.000000 0.024732
 16 6.662317 -0.001453 0.000000 0.000000 -0.000001 0.471000
 17 2.046985 -0.000002 0.000000 0.158804 -0.044574 -0.168675
 18 -3.112024 1.517254 4.341911 -0.000014 -1.361258 2.669810
 19 4.827230 0.000000 0.000001 0.627596 1.105671 0.661936
 20 11.139763 0.000000 0.000000 0.000000 -0.000000 -0.723146
 21 10.314597 0.000001 0.000000 -1.570000 -0.000000 -0.069778
 22 2.975834 -0.386307 -0.044143 -0.000797 -0.043611 0.000035
 23 1.438886 0.000000 0.000000 0.000000 -0.000000 0.793659
 24 1.485303 0.000000 0.000000 0.000000 -0.000000 1.465135
 25 -2.869898 1.399663 -4.140396 -0.000013 1.361920 2.669783
 26 4.972048 0.000000 0.000001 0.085000 -1.174679 -0.245408
 27 11.585355 0.000000 0.000000 0.000000 -0.000000 -1.438517
 28 10.127057 0.000000 0.000001 1.761432 0.007905 -0.061501
 29 2.683750 -0.427338 0.044205 0.001045 0.043611 0.000046
 30 1.438885 -0.000001 0.000000 0.000000 -0.000000 1.072747
 31 1.485305 0.000001 0.000000 0.000000 -0.000000 1.090144
time 3
  0 0.254879 -0.254879 2.833593 -0.000000 -0.000000 -1.571254
  1 0.632832 -0.007813 0.000000 -1.570795 -1.570796 0.000000
  2 -0.000005 0.000007 3.713255 -0.054992 -3.106238 6.061138
  3 18.045721 0.000000 0.000000 0.000000 -0.000000 -0.256329
  4 17.597597 0.000000 0.000000 -0.095546 -0.021968 0.032893
  5 3.793090 6.407221 0.000000 0.000000 -0.000000 1.570796
  6 0.000005 -0.000003 -3.713255 0.257104 3.084970 0.059921
  7 18.045725 0.000000 0.000000 0.000000 -0.000000 -0.169207
  8 17.597597 0.000000 0.000000 -0.018007 0.069475 0.212806
  9 3.793090 6.407221 0.000000 0.000000 -0.000000 1.570796
 10 0.935740 0.000000 0.000000 0.000000 -0.000000 0.000000
 11 0.935741 0.000000 0.000000 0.000000 -0.000000 0.000000
 12 1.293670 0.684478 -0.000001 -0.069768 0.000610 0.009520
 13 5.309685 -0.003834 0.000000 0.000000 -0.000000 -0.069778
 14 4.826790 -0.004591 0.000000 -0.078488 0.000683 0.008609
 15 5.792767 -0.005304 0.000000 0.000000 -0.000000 0.029798
 16 6.662317 -0.001453 0.000000 0.000000 -0.000001 0.471000
 17 2.046985 -0.000002 0.000000 0.158933 -0.044079 -0.180452
 18 -3.112024 1.517254 4.341911 -0.000014 -1.354604 2.669810
 19 4.827230 0.000000 0.000001 0.603808 1.105671 0.638833
 20 11.139763 0.000000 0.000000 0.000000 -0.000000 -0.723146
 21 10.314597 0.000001 0.000000 -1.570000 -0.000000 -0.069778
 22 2.975834 -0.386307 -0.044143 -0.000797 -0.043611 0.000035
 23 1.438886 0.000000 0.000000 0.000000 -0.000000 0.793659
 24 1.485303 0.000000 0.000000 0.000000 -0.000000 1.465135
 25 -2.869898 1.399663 -4.140396 -0.000013 1.355730 2.669783
 26 4.972048 0.000000 0.000001 0.101941 -1.166715 -0.262798
 27 11.585355 0.000000 0.000000 0.000000 -0.000000 -1.438517
 28 10.127057 0.000000 0.000001 1.761432 0.007905 -0.061501
 29 2.683750 -0.427338 0.044205 0.001045 0.043611 0.000046
 30 1.438885 -0.000001 0.000000 0.000000 -0.000000 1.072747
 31 1.485305 0.000001 0.000000 0.000000 -0.000000 1.090144
time 4
  0 0.262692 -0.262692 2.810155 -0.000000 -0.000000 -1.571254
  1 0.621113 -0.007813 0.000000 -1.570795 -1.570796 0.000000
  2 -0.000005 0.000007 3.713255 -0.054896 -3.106622 6.055961
  3 18.045721 0.000000 0.000000 0.000000 -0.000000 -0.265828
  4 17.597597 0.000000 0.000000 -0.095622 -0.021603 0.037148
  5 3.793090 6.407221 0.000000 0.000000 -0.000000 1.570796
  6 0.000005 -0.000003 -3.713255 0.256528 3.082766 0.051772
  7 18.045725 0.000000 0.000000 0.000000 -0.000000 -0.185145
  8 17.597597 0.000000 0.000000 -0.017974 0.069751 0.220395
  9 3.793090 6.407221 0.000000 0.000000 -0.000000 1.570796
 10 0.935740 0.000000 0.000000 0.000000 -0.000000 0.000000
 11 0.935741 0.000000 0.000000 0.000000 -0.000000 0.000000
 12 1.293670 0.684478 -0.000001 -0.069768 0.000610 0.009520
 13 5.309685 -0.003834 0.000000 0.000000 -0.000000 -0.069778
 14 4.826790 -0.004591 0.000000 -0.078488 0.001007 0.012115
 15 5.792767 -0.005304 0.000000 0.000000 -0.000000 0.034802
 16 6.662317 -0.001453 0.000000 0.000000 -0.000001 0.471000
 17 2.046985 -0.000002 0.000000 0.158976 -0.043606 -0.191778
 18 -3.112024 1.517254 4.341911 -0.000014 -1.348027 2.669810
 19 4.827230 0.000000 0.000001 0.580196 1.105075 0.615730
 20 11.139763 0.000000 0.000000 0.000000 -0.000000 -0.723146
 21 10.314597 0.000001 0.000000 -1.570000 -0.000000 -0.069778
 22 2.975834 -0.386307 -0.044143 -0.000797 -0.043611 0.000035
 23 1.438886 0.000000 0.000000 0.000000 -0.000000 0.793659
 24 1.485303 0.000000 0.000000 0.000000 -0.000000 1.465135
 25 -2.869898 1.399663 -4.140396 -0.000013 1.349625 2.669783
 26 4.972048 0.000000 0.000001 0.117876 -1.158510 -0.279464
 27 11.585355 0.000000 0.000000 0.000000 -0.000000 -1.438517
 28 10.127057 0.000000 0.000001 1.761432 0.007905 -0.061501
 29 2.683750 -0.427338 0.044205 0.001045 0.043611 0.000046
 30 1.438885 -0.000001 0.000000 0.000000 -0.000000 1.072747
 31 1.485305 0.000001 0.000000 0.000000 -0.000000 1.090144
time 5
  0 0.274411 -0.274411 2.790623 -0.000000 -0.000000 -1.571254
  1 0.601581 -0.007813 0.000000 -1.570795 -1.570796 0.000000
  2 -0.000005 0.000007 3.713255 -0.054704 -3.106814 6.050400
  3 18.045721 0.000000 0.000000 0.000000 -0.000000 -0.275993
  4 17.597597 0.000000 0.000000 -0.095622 -0.021116 0.041769
  5 3.793090 6.407221 0.000000 0.000000 -0.000000 1.570796
  6 0.000005 -0.000003 -3.713255 0.255857 3.080465 0.044006
  7 18.045725 0.000000 0.000000 0.000000 -0.000000 -0.201010
  8 17.597597 0.000000 0.000000 -0.017908 0.070067 0.227881
  9 3.793090 6.407221 0.000000 0.000000 -0.000000 1.570796
 10 0.935740 0.000000 0.000000 0.000000 -0.000000 0.000000
 11 0.935741 0.000000 0.000000 0.000000 -0.000000 0.000000
 12 1.293670 0.684478 -0.000001 -0.069768 0.000610 0.009520
 13 5.309685 -0.003834 0.000000 0.000000 -0.000000 -0.069778
 14 4.826790 -0.004591 0.000000 -0.078488 0.001234 0.015532
 15 5.792767 -0.005304 0.000000 0.000000 -0.000000 0.039806
 16 6.662317 -0.001453 0.000000 0.000000 -0.000001 0.471000
 17 2.046985 -0.000002 0.000000 0.159019 -0.043134 -0.203420
 18 -3.112024 1.517254 4.341911 -0.000014 -1.341450 2.669810
 19 4.827230 0.000000 0.000001 0.556760 1.104735 0.592977
 20 11.139763 0.000000 0.000000 0.000000 -0.000000 -0.723146
 21 10.314597 0.000001 0.000000 -1.570000 -0.000000 -0.069778
 22 2.975834 -0.386307 -0.044143 -0.000797 -0.043611 0.000035
 23 1.438886 0.000000 0.000000 0.000000 -0.000000 0.793659
 24 1.485303 0.000000 0.000000 0.000000 -0.000000 1.465135
 25 -2.869898 1.399663 -4.140396 -0.000013 1.343548 2.669783
 26 4.972048 0.000000 0.000001 0.133347 -1.150305 -0.295405
 27 11.585355 0.000000 0.000000 0.000000 -0.000000 -1.438517
 28 10.127057 0.000000 0.000001 1.761432 0.007905 -0.061501
 29 2.683750 -0.427338 0.044205 0.001045 0.043611 0.000046
 30 1.438885 -0.000001 0.000000 0.000000 -0.000000 1.072747
 31 1.485305 0.000001 0.000000 0.000000 -0.000000 1.090144
time 6
  0 0.286130 -0.286130 2.759372 -0.000000 -0.000000 -1.571254
  1 0.582049 0.000000 0.000000 -1.570795 -1.570796 0.000000
  2 -0.000005 0.000007 3.713255 -0.054704 -3.106910 6.044743
  3 18.045721 0.000000 0.000000 0.000000 -0.000000 -0.286530
  4 17.597597 0.000000 0.000000 -0.095622 -0.020678 0.046619
  5 3.793090 6.407221 0.000000 0.000000 -0.000000 1.570796
  6 0.000005 -0.000003 -3.713255 0.255282 3.078068 0.035953
  7 18.045725 0.000000 0.000000 0.000000 -0.000000 -0.216658
  8 17.597597 0.000000 0.000000 -0.017842 0.070481 0.235436
  9 3.793090 6.407221 0.000000 0.000000 -0.000000 1.570796
 10 0.935740 0.000000 0.000000 0.000000 -0.000000 0.000000
 11 0.935741 0.000000 0.000000 0.000000 -0.000000 0.000000
 12 1.293670 0.684478 -0.000001 -0.069768 0.000610 0.009520
 13 5.309685 -0.003834 0.000000 0.000000 -0.000000 -0.069778
 14 4.826790 -0.004591 0.000000 -0.078455 0.001558 0.019038
 15 5.792767 -0.005304 0.000000 0.000000 -0.000000 0.044706
 16 6.662317 -0.001453 0.000000 0.000000 -0.000001 0.471000
 17 2.046985 -0.000002 0.000000 0.159321 -0.042661 -0.214747
 18 -3.112024 1.517254 4.341911 -0.000014 -1.334988 2.669810
 19 4.827230 0.000000 0.000001 0.533618 1.103799 0.570399
 20 11.139763 0.000000 0.000000 0.000000 -0.000000 -0.723146
 21 10.314597 0.000001 0.000000 -1.570000 -0.000000 -0.069778
 22 2.975834 -0.386307 -0.044143 -0.000797 -0.043611 0.000035
 23 1.438886 0.000000 0.000000 0.000000 -0.000000 0.793659
 24 1.485303 0.000000 0.000000 0.000000 -0.000000 1.465135
 25 -2.869898 1.399663 -4.140396 -0.000013 1.337528 2.669783
 26 4.972048 0.000000 0.000001 0.147967 -1.142261 -0.310490
 27 11.585355 0.000000 0.000000 0.000000 -0.000000 -1.438517
 28 10.127057 0.000000 0.000001 1.761432 0.007905 -0.061501
 29 2.683750 -0.427338 0.044205 0.001045 0.043611 0.000046
 30 1.438885 -0.000001 0.000000 0.000000 -0.000000 1.072747
 31 1.485305 0.000001 0.000000 0.000000 -0.000000 1.090144
time 7
  0 0.305662 -0.305662 2.728121 -0.000000 -0.000000 -1.571254
  1 0.570330 0.000000 0.000000 -1.570795 -1.570796 0.000000
  2 -0.000005 0.000007 3.713255 -0.054704 -3.106910 6.038799
  3 18.045721 0.000000 0.000000 0.000000 -0.000000 -0.297216
  4 17.597597 0.000000 0.000000 -0.095698 -0.020118 0.051469
  5 3.793090 6.407221 0.000000 0.000000 -0.000000 1.570796
  6 0.000005 -0.000003 -3.713255 0.254899 3.075480 0.028379
  7 18.045725 0.000000 0.000000 0.000000 -0.000000 -0.231944
  8 17.597597 0.000000 0.000000 -0.017776 0.070915 0.242647
  9 3.793090 6.407221 0.000000 0.000000 -0.000000 1.570796
 10 0.935740 0.000000 0.000000 0.000000 -0.000000 0.000000
 11 0.935741 0.000000 0.000000 0.000000 -0.000000 0.000000
 12 1.293670 0.684478 -0.000001 -0.069768 0.000610 0.009520
 13 5.309685 -0.003834 0.000000 0.000000 -0.000000 -0.069778
 14 4.826790 -0.004591 0.000000 -0.078455 0.001822 0.022389
 15 5.792767 -0.005304 0.000000 0.000000 -0.000000 0.049606
 16 6.662317 -0.001453 0.000000 0.000000 -0.000001 0.471000
 17 2.046985 -0.000002 0.000000 0.159450 -0.042211 -0.225939
 18 -3.112024 1.517254 4.341911 -0.000014 -1.328642 2.669810
 19 4.827230 0.000000 0.000001 0.511063 1.102267 0.548259
 20 11.139763 0.000000 0.000000 0.000000 -0.000000 -0.723146
 21 10.314597 0.000001 0.000000 -1.570000 -0.000000 -0.069778
 22 2.975834 -0.386307 -0.044143 -0.000797 -0.043611 0.000035
 23 1.438886 0.000000 0.000000 0.000000 -0.000000 0.793659
 24 1.485303 0.000000 0.000000 0.000000 -0.000000 1.465135
 25 -2.869898 1.399663 -4.140396 -0.000013 1.331649 2.669783
 26 4.972048 0.000000 0.000001 0.161736 -1.134056 -0.324982
 27 11.585355 0.000000 0.000000 0.000000 -0.000000 -1.438517
 28 10.127057 0.000000 0.000001 1.761432 0.007905 -0.061501
 29 2.683750 -0.427338 0.044205 0.001045 0.043611 0.000046
 30 1.438885 -0.000001 0.000000 0.000000 -0.000000 1.072747
 31 1.485305 0.000001 0.000000 0.000000 -0.000000 1.090144
time 8
  0 0.329100 -0.329100 2.696870 -0.000000 -0.000000 -1.571254
  1 0.546892 0.000000 0.000000 -1.570795 -1.570796 0.000000
  2 -0.000005 0.000007 3.713255 -0.054609 -3.107485 6.032855
  3 18.045721 0.000000 0.000000 0.000000 -0.000000 -0.308050
  4 17.597597 0.000000 0.000000 -0.095774 -0.019485 0.056410
  5 3.793090 6.407221 0.000000 0.000000 -0.000000 1.570796
  6 0.000005 -0.000003 -3.713255 0.254227 3.073083 0.021188
  7 18.045725 0.000000 0.000000 0.000000 -0.000000 -0.246578
  8 17.597597 0.000000 0.000000 -0.017710 0.071408 0.249618
  9 3.793090 6.407221 0.000000 0.000000 -0.000000 1.570796
 10 0.935740 0.000000 0.000000 0.000000 -0.000000 0.000000
 11 0.935741 0.000000 0.000000 0.000000 -0.000000 0.000000
 12 1.293670 0.684478 -0.000001 -0.069768 0.000610 0.009520
 13 5.309685 -0.003834 0.000000 0.000000 -0.000000 -0.069778
 14 4.826790 -0.004591 0.000000 -0.078455 0.002037 0.025807
 15 5.792767 -0.005304 0.000000 0.000000 -0.000000 0.054423
 16 6.662317 -0.001453 0.000000 0.000000 -0.000001 0.471000
 17 2.046985 -0.000002 0.000000 0.159493 -0.041738 -0.236951
 18 -3.112024 1.517254 4.341911 -0.000014 -1.322257 2.669810
 19 4.827230 0.000000 0.000001 0.488802 1.101246 0.526381
 20 11.139763 0.000000 0.000000 0.000000 -0.000000 -0.723146
 21 10.314597 0.000001 0.000000 -1.570000 -0.000000 -0.069778
 22 2.975834 -0.386307 -0.044143 -0.000797 -0.043611 0.000035
 23 1.438886 0.000000 0.000000 0.000000 -0.000000 0.793659
 24 1.485303 0.000000 0.000000 0.000000 -0.000000 1.465135
 25 -2.869898 1.399663 -4.140396 -0.000013 1.325770 2.669783
 26 4.972048 0.000000 0.000001 0.174964 -1.125851 -0.338881
 27 11.585355 0.000000 0.000000 0.000000 -0.000000 -1.438517
 28 10.127057 0.000000 0.000001 1.761432 0.007905 -0.061501
 29 2.683750 -0.427338 0.044205 0.001045 0.043611 0.000046
 30 1.438885 -0.000001 0.000000 0.000000 -0.000000 1.072747
 31 1.485305 0.000001 0.000000 0.000000 -0.000000 1.090144
time 9
  0 0.340819 -0.340819 2.673432 -0.000000 -0.000000 -1.571254
  1 0.539079 0.000000 0.000000 -1.570795 -1.570796 0.000000
  2 -0.000005 0.000007 3.713255 -0.054609 -3.107677 6.027294
  3 18.045721 0.000000 0.000000 0.000000 -0.000000 -0.318587
  4 17.597597 0.000000 0.000000 -0.095850 -0.018901 0.061260
  5 3.793090 6.407221 0.000000 0.000000 -0.000000 1.570796
  6 0.000005 -0.000003 -3.713255 0.253652 3.070878 0.013902
  7 18.045725 0.000000 0.000000 0.000000 -0.000000 -0.260415
  8 17.597597 0.000000 0.000000 -0.017644 0.071980 0.256177
  9 3.793090 6.407221 0.000000 0.000000 -0.000000 1.570796
 10 0.935740 0.000000 0.000000 0.000000 -0.000000 0.000000
 11 0.935741 0.000000 0.000000 0.000000 -0.000000 0.000000
 12 1.293670 0.684478 -0.000001 -0.069768 0.000610 0.009520
 13 5.309685 -0.003834 0.000000 0.000000 -0.000000 -0.069778
 14 4.826790 -0.004591 0.000000 -0.078455 0.002349 0.029114
 15 5.792767 -0.005304 0.000000 0.000000 -0.000000 0.059136
 16 6.662317 -0.001453 0.000000 0.000000 -0.000001 0.471000
 17 2.046985 -0.000002 0.000000 0.159493 -0.041288 -0.247648
 18 -3.112024 1.517254 4.341911 -0.000014 -1.316103 2.669810
 19 4.827230 0.000000 0.000001 0.467011 1.099714 0.505116
 20 11.139763 0.000000 0.000000 0.000000 -0.000000 -0.723146
 21 10.314597 0.000001 0.000000 -1.570000 -0.000000 -0.069778
 22 2.975834 -0.386307 -0.044143 -0.000797 -0.043611 0.000035
 23 1.438886 0.000000 0.000000 0.000000 -0.000000 0.793659
 24 1.485303 0.000000 0.000000 0.000000 -0.000000 1.465135
 25 -2.869898 1.399663 -4.140396 -0.000013 1.319976 2.669783
 26 4.972048 0.000000 0.000001 0.187263 -1.117807 -0.351858
 27 11.585355 0.000000 0.000000 0.000000 -0.000000 -1.438517
 28 10.127057 0.000000 0.000001 1.761432 0.007905 -0.061501
 29 2.683750 -0.427338 0.044205 0.001045 0.043611 0.000046
 30 1.438885 -0.000001 0.000000 0.000000 -0.000000 1.072747
 31 1.485305 0.000001 0.000000 0.000000 -0.000000 1.090144
time 10
  0 0.368164 -0.368164 2.642181 -0.000000 -0.000000 -1.571254
  1 0.515641 0.000000 0.000000 -1.570795 -1.570796 0.000000
  2 -0.000005 0.000007 3.713255 -0.054225 -3.108156 6.021733
  3 18.045721 0.000000 0.000000 0.000000 -0.000000 -0.328678
  4 17.597597 0.000000 0.000000 -0.095901 -0.018219 0.066018
  5 3.793090 6.407221 0.000000 0.000000 -0.000000 1.570796
  6 0.000005 -0.000003 -3.713255 0.253269 3.068193 0.007479
  7 18.045725 0.000000 0.000000 0.000000 -0.000000 -0.273817
  8 17.597597 0.000000 0.000000 -0.017545 0.072552 0.262427
  9 3.793090 6.407221 0.000000 0.000000 -0.000000 1.570796
 10 0.935740 0.000000 0.000000 0.000000 -0.000000 0.000000
 11 0.935741 0.000000 0.000000 0.000000 -0.000000 0.000000
 12 1.293670 0.684478 -0.000001 -0.069768 0.000610 0.009520
 13 5.309685 -0.003834 0.000000 0.000000 -0.000000 -0.069778
 14 4.826790 -0.004591 0.000000 -0.078455 0.002601 0.032355
 15 5.792767 -0.005304 0.000000 0.000000 -0.000000 0.063787
 16 6.662317 -0.001453 0.000000 0.000000 -0.000001 0.471000
 17 2.046985 -0.000002 0.000000 0.159795 -0.040837 -0.258436
 18 -3.112024 1.517254 4.341911 -0.000014 -1.310026 2.669810
 19 4.827230 0.000000 0.000001 0.446042 1.098012 0.484288
 20 11.139763 0.000000 0.000000 0.000000 -0.000000 -0.723146
 21 10.314597 0.000001 0.000000 -1.570000 -0.000000 -0.069778
 22 2.975834 -0.386307 -0.044143 -0.000797 -0.043611 0.000035
 23 1.438886 0.000000 0.000000 0.000000 -0.000000 0.793659
 24 1.485303 0.000000 0.000000 0.000000 -0.000000 1.465135
 25 -2.869898 1.399663 -4.140396 -0.000013 1.314323 2.669783
 26 4.972048 0.000000 0.000001 0.199021 -1.109924 -0.364571
 27 11.585355 0.000000 0.000000 0.000000 -0.000000 -1.438517
 28 10.127057 0.000000 0.000001 1.761432 0.007905 -0.061501
 29 2.683750 -0.427338 0.044205 0.001045 0.043611 0.000046
 30 1.438885 -0.000001 0.000000 0.000000 -0.000000 1.072747
 31 1.485305 0.000001 0.000000 0.000000 -0.000000 1.090144
time 11
  0 0.375977 -0.375977 2.610930 -0.000000 -0.000000 -1.571254
  1 0.507828 0.000000 0.000000 -1.570795 -1.570796 0.000000
  2 -0.000005 0.000007 3.713255 -0.054129 -3.108252 6.016364
  3 18.045721 0.000000 0.000000 0.000000 -0.000000 -0.338473
  4 17.597597 0.000000 0.000000 -0.095977 -0.017562 0.070456
  5 3.793090 6.407221 0.000000 0.000000 -0.000000 1.570796
  6 0.000005 -0.000003 -3.713255 0.252694 3.066276 0.000863
  7 18.045725 0.000000 0.000000 0.000000 -0.000000 -0.285988
  8 17.597597 0.000000 0.000000 -0.017479 0.073124 0.268196
  9 3.793090 6.407221 0.000000 0.000000 -0.000000 1.570796
 10 0.935740 0.000000 0.000000 0.000000 -0.000000 0.000000
 11 0.935741 0.000000 0.000000 0.000000 -0.000000 0.000000
 12 1.293670 0.684478 -0.000001 -0.069768 0.000610 0.009520
 13 5.309685 -0.003834 0.000000 0.000000 -0.000000 -0.069778
 14 4.826790 -0.004591 0.000000 -0.078439 0.002804 0.035508
 15 5.792767 -0.005304 0.000000 0.000000 -0.000000 0.068334
 16 6.662317 -0.001453 0.000000 0.000000 -0.000001 0.471000
 17 2.046985 -0.000002 0.000000 0.159881 -0.040410 -0.268819
 18 -3.112024 1.517254 4.341911 -0.000014 -1.304103 2.669810
 19 4.827230 0.000000 0.000001 0.425602 1.095799 0.464248
 20 11.139763 0.000000 0.000000 0.000000 -0.000000 -0.723146
 21 10.314597 0.000001 0.000000 -1.570000 -0.000000 -0.069778
 22 2.975834 -0.386307 -0.044143 -0.000797 -0.043611 0.000035
 23 1.438886 0.000000 0.000000 0.000000 -0.000000 0.793659
 24 1.485303 0.000000 0.000000 0.000000 -0.000000 1.465135
 25 -2.869898 1.399663 -4.140396 -0.000013 1.308840 2.669783
 26 4.972048 0.000000 0.000001 0.209928 -1.101960 -0.376099
 27 11.585355 0.000000 0.000000 0.000000 -0.000000 -1.438517
 28 10.127057 0.000000 0.000001 1.761432 0.007905 -0.061501
 29 2.683750 -0.427338 0.044205 0.001045 0.043611 0.000046
 30 1.438885 -0.000001 0.000000 0.000000 -0.000000 1.072747
 31 1.485305 0.000001 0.000000 0.000000 -0.000000 1.090144
time 12
  0 0.399415 -0.399415 2.579679 -0.000000 -0.000000 -1.571254
  1 0.492203 0.007813 0.000000 -1.570795 -1.570796 0.000000
  2 -0.000005 0.000007 3.713255 -0.054129 -3.108923 6.011090
  3 18.045721 0.000000 0.000000 0.000000 -0.000000 -0.347600
  4 17.597597 0.000000 0.000000 -0.096053 -0.016856 0.074574
  5 3.793090 6.407221 0.000000 0.000000 -0.000000 1.570796
  6 0.000005 -0.000003 -3.713255 0.252022 3.064167 -0.004602
  7 18.045725 0.000000 0.000000 0.000000 -0.000000 -0.297579
  8 17.597597 0.000000 0.000000 -0.017413 0.073775 0.273519
  9 3.793090 6.407221 0.000000 0.000000 -0.000000 1.570796
 10 0.935740 0.000000 0.000000 0.000000 -0.000000 0.000000
 11 0.935741 0.000000 0.000000 0.000000 -0.000000 0.000000
 12 1.293670 0.684478 -0.000001 -0.069768 0.000610 0.009520
 13 5.309685 -0.003834 0.000000 0.000000 -0.000000 -0.069778
 14 4.826790 -0.004591 0.000000 -0.078439 0.003044 0.038551
 15 5.792767 -0.005304 0.000000 0.000000 -0.000000 0.072715
 16 6.662317 -0.001453 0.000000 0.000000 -0.000001 0.471000
 17 2.046985 -0.000002 0.000000 0.160010 -0.040004 -0.278662
 18 -3.112024 1.517254 4.341911 -0.000014 -1.298372 2.669810
 19 4.827230 0.000000 0.000001 0.405984 1.093757 0.444908
 20 11.139763 0.000000 0.000000 0.000000 -0.000000 -0.723146
 21 10.314597 0.000001 0.000000 -1.570000 -0.000000 -0.069778
 22 2.975834 -0.386307 -0.044143 -0.000797 -0.043611 0.000035
 23 1.438886 0.000000 0.000000 0.000000 -0.000000 0.793659
 24 1.485303 0.000000 0.000000 0.000000 -0.000000 1.465135
 25 -2.869898 1.399663 -4.140396 -0.000013 1.303498 2.669783
 26 4.972048 0.000000 0.000001 0.220139 -1.094479 -0.387429
 27 11.585355 0.000000 0.000000 0.000000 -0.000000 -1.438517
 28 10.127057 0.000000 0.000001 1.761432 0.007905 -0.061501
 29 2.683750 -0.427338 0.044205 0.001045 0.043611 0.000046
 30 1.438885 -0.000001 0.000000 0.000000 -0.000000 1.072747
 31 1.485305 0.000001 0.000000 0.000000 -0.000000 1.090144
time 13
  0 0.418947 -0.418947 2.556241 -0.000000 -0.000000 -1.571254
  1 0.472671 0.007813 0.000000 -1.570795 -1.570796 0.000000
  2 -0.000005 0.000007 3.713255 -0.054033 -3.109114 6.006680
  3 18.045721 0.000000 0.000000 0.000000 -0.000000 -0.356059
  4 17.597597 0.000000 0.000000 -0.096129 -0.016150 0.078417
  5 3.793090 6.407221 0.000000 0.000000 -0.000000 1.570796
  6 0.000005 -0.000003 -3.713255 0.251543 3.062154 -0.009971
  7 18.045725 0.000000 0.000000 0.000000 -0.000000 -0.308011
  8 17.597597 0.000000 0.000000 -0.017347 0.074406 0.278292
  9 3.793090 6.407221 0.000000 0.000000 -0.000000 1.570796
 10 0.935740 0.000000 0.000000 0.000000 -0.000000 0.000000
 11 0.935741 0.000000 0.000000 0.000000 -0.000000 0.000000
 12 1.293670 0.684478 -0.000001 -0.069768 0.000610 0.009520
 13 5.309685 -0.003834 0.000000 0.000000 -0.000000 -0.069778
 14 4.826790 -0.004591 0.000000 -0.078406 0.003320 0.041483
 15 5.792767 -0.005304 0.000000 0.000000 -0.000000 0.076888
 16 6.662317 -0.001453 0.000000 0.000000 -0.000001 0.471000
 17 2.046985 -0.000002 0.000000 0.160010 -0.039599 -0.288416
 18 -3.112024 1.517254 4.341911 -0.000014 -1.292872 2.669810
 19 4.827230 0.000000 0.000001 0.387482 1.092055 0.426356
 20 11.139763 0.000000 0.000000 0.000000 -0.000000 -0.723146
 21 10.314597 0.000001 0.000000 -1.570000 -0.000000 -0.069778
 22 2.975834 -0.386307 -0.044143 -0.000797 -0.043611 0.000035
 23 1.438886 0.000000 0.000000 0.000000 -0.000000 0.793659
 24 1.485303 0.000000 0.000000 0.000000 -0.000000 1.465135
 25 -2.869898 1.399663 -4.140396 -0.000013 1.298382 2.669783
 26 4.972048 0.000000 0.000001 0.229731 -1.087159 -0.397771
 27 11.585355 0.000000 0.000000 0.000000 -0.000000 -1.438517
 28 10.127057 0.000000 0.000001 1.761432 0.007905 -0.061501
 29 2.683750 -0.427338 0.044205 0.001045 0.043611 0.000046
 30 1.438885 -0.000001 0.000000 0.000000 -0.000000 1.072747
 31 1.485305 0.000001 0.000000 0.000000 -0.000000 1.090144
time 14
  0 0.438479 -0.438479 2.524990 -0.000000 -0.000000 -1.571254
  1 0.464858 0.007813 0.000000 -1.570795 -1.570796 0.000000
  2 -0.000005 0.000007 3.713255 -0.054033 -3.109786 6.002366
  3 18.045721 0.000000 0.000000 0.000000 -0.000000 -0.363703
  4 17.597597 0.000000 0.000000 -0.096205 -0.015444 0.081940
  5 3.793090 6.407221 0.000000 0.000000 -0.000000 1.570796
  6 0.000005 -0.000003 -3.713255 0.251255 3.060045 -0.014572
  7 18.045725 0.000000 0.000000 0.000000 -0.000000 -0.317284
  8 17.597597 0.000000 0.000000 -0.017298 0.075037 0.282550
  9 3.793090 6.407221 0.000000 0.000000 -0.000000 1.570796
 10 0.935740 0.000000 0.000000 0.000000 -0.000000 0.000000
 11 0.935741 0.000000 0.000000 0.000000 -0.000000 0.000000
 12 1.293670 0.684478 -0.000001 -0.069768 0.000610 0.009520
 13 5.309685 -0.003834 0.000000 0.000000 -0.000000 -0.069778
 14 4.826790 -0.004591 0.000000 -0.078406 0.003500 0.044239
 15 5.792767 -0.005304 0.000000 0.000000 -0.000000 0.080854
 16 6.662317 -0.001453 0.000000 0.000000 -0.000001 0.471000
 17 2.046985 -0.000002 0.000000 0.160010 -0.039216 -0.297406
 18 -3.112024 1.517254 4.341911 -0.000014 -1.287641 2.669810
 19 4.827230 0.000000 0.000001 0.370096 1.089587 0.409116
 20 11.139763 0.000000 0.000000 0.000000 -0.000000 -0.723146
 21 10.314597 0.000001 0.000000 -1.570000 -0.000000 -0.069778
 22 2.975834 -0.386307 -0.044143 -0.000797 -0.043611 0.000035
 23 1.438886 0.000000 0.000000 0.000000 -0.000000 0.793659
 24 1.485303 0.000000 0.000000 0.000000 -0.000000 1.465135
 25 -2.869898 1.399663 -4.140396 -0.000013 1.293549 2.669783
 26 4.972048 0.000000 0.000001 0.238472 -1.080241 -0.407125
 27 11.585355 0.000000 0.000000 0.000000 -0.000000 -1.438517
 28 10.127057 0.000000 0.000001 1.761432 0.007905 -0.061501
 29 2.683750 -0.427338 0.044205 0.001045 0.043611 0.000046
 30 1.438885 -0.000001 0.000000 0.000000 -0.000000 1.072747
 31 1.485305 0.000001 0.000000 0.000000 -0.000000 1.090144
time 15
  0 0.469730 -0.469730 2.505458 -0.000000 -0.000000 -1.571254
  1 0.453139 0.007813 0.000000 -1.570795 -1.570796 0.000000
  2 -0.000005 0.000007 3.713255 -0.054033 -3.110361 5.998530
  3 18.045721 0.000000 0.000000 0.000000 -0.000000 -0.370381
  4 17.597597 0.000000 0.000000 -0.096281 -0.014738 0.084914
  5 3.793090 6.407221 0.000000 0.000000 -0.000000 1.570796
  6 0.000005 -0.000003 -3.713255 0.250584 3.058607 -0.019079
  7 18.045725 0.000000 0.000000 0.000000 -0.000000 -0.325253
  8 17.597597 0.000000 0.000000 -0.017232 0.075629 0.286259
  9 3.793090 6.407221 0.000000 0.000000 -0.000000 1.570796
 10 0.935740 0.000000 0.000000 0.000000 -0.000000 0.000000
 11 0.935741 0.000000 0.000000 0.000000 -0.000000 0.000000
 12 1.293670 0.684478 -0.000001 -0.069768 0.000610 0.009520
 13 5.309685 -0.003834 0.000000 0.000000 -0.000000 -0.069778
 14 4.826790 -0.004591 0.000000 -0.078406 0.003691 0.046819
 15 5.792767 -0.005304 0.000000 0.000000 -0.000000 0.084529
 16 6.662317 -0.001453 0.000000 0.000000 -0.000001 0.471000
 17 2.046985 -0.000002 0.000000 0.160096 -0.038856 -0.305991
 18 -3.112024 1.517254 4.341911 -0.000014 -1.282833 2.669810
 19 4.827230 0.000000 0.000001 0.354061 1.087800 0.393189
 20 11.139763 0.000000 0.000000 0.000000 -0.000000 -0.723146
 21 10.314597 0.000001 0.000000 -1.570000 -0.000000 -0.069778
 22 2.975834 -0.386307 -0.044143 -0.000797 -0.043611 0.000035
 23 1.438886 0.000000 0.000000 0.000000 -0.000000 0.793659
 24 1.485303 0.000000 0.000000 0.000000 -0.000000 1.465135
 25 -2.869898 1.399663 -4.140396 -0.000013 1.289055 2.669783
 26 4.972048 0.000000 0.000001 0.246362 -1.073645 -0.415886
 27 11.585355 0.000000 0.000000 0.000000 -0.000000 -1.438517
 28 10.127057 0.000000 0.000001 1.761432 0.007905 -0.061501
 29 2.683750 -0.427338 0.044205 0.001045 0.043611 0.000046
 30 1.438885 -0.000001 0.000000 0.000000 -0.000000 1.072747
 31 1.485305 0.000001 0.000000 0.000000 -0.000000 1.090144
time 16
  0 0.481449 -0.481449 2.482020 -0.000000 -0.000000 -1.571254
  1 0.441420 0.007813 0.000000 -1.570795 -1.570796 0.000000
  2 -0.000005 0.000007 3.713255 -0.054033 -3.110553 5.995462
  3 18.045721 0.000000 0.000000 0.000000 -0.000000 -0.376095
  4 17.597597 0.000000 0.000000 -0.096408 -0.014081 0.087476
  5 3.793090 6.407221 0.000000 0.000000 -0.000000 1.570796
  6 0.000005 -0.000003 -3.713255 0.250393 3.057073 -0.022626
  7 18.045725 0.000000 0.000000 0.000000 -0.000000 -0.332280
  8 17.597597 0.000000 0.000000 -0.017166 0.076260 0.289315
  9 3.793090 6.407221 0.000000 0.000000 -0.000000 1.570796
 10 0.935740 0.000000 0.000000 0.000000 -0.000000 0.000000
 11 0.935741 0.000000 0.000000 0.000000 -0.000000 0.000000
 12 1.293670 0.684478 -0.000001 -0.069768 0.000610 0.009520
 13 5.309685 -0.003834 0.000000 0.000000 -0.000000 -0.069778
 14 4.826790 -0.004591 0.000000 -0.078373 0.003919 0.049178
 15 5.792767 -0.005304 0.000000 0.000000 -0.000000 0.087913
 16 6.662317 -0.001453 0.000000 0.000000 -0.000001 0.471000
 17 2.046985 -0.000002 0.000000 0.160355 -0.038541 -0.313722
 18 -3.112024 1.517254 4.341911 -0.000014 -1.278410 2.669810
 19 4.827230 0.000000 0.000001 0.339612 1.085417 0.378662
 20 11.139763 0.000000 0.000000 0.000000 -0.000000 -0.723146
 21 10.314597 0.000001 0.000000 -1.570000 -0.000000 -0.069778
 22 2.975834 -0.386307 -0.044143 -0.000797 -0.043611 0.000035
 23 1.438886 0.000000 0.000000 0.000000 -0.000000 0.793659
 24 1.485303 0.000000 0.000000 0.000000 -0.000000 1.465135
 25 -2.869898 1.399663 -4.140396 -0.000013 1.284985 2.669783
 26 4.972048 0.000000 0.000001 0.253324 -1.067612 -0.423659
 27 11.585355 0.000000 0.000000 0.000000 -0.000000 -1.438517
 28 10.127057 0.000000 0.000001 1.761432 0.007905 -0.061501
 29 2.683750 -0.427338 0.044205 0.001045 0.043611 0.000046
 30 1.438885 -0.000001 0.000000 0.000000 -0.000000 1.072747
 31 1.485305 0.000001 0.000000 0.000000 -0.000000 1.090144
time 17
  0 0.512700 -0.512700 2.466394 -0.000000 -0.000000 -1.571254
  1 0.429701 0.007813 0.000000 -1.570795 -1.570796 0.000000
  2 -0.000005 0.000007 3.713255 -0.054129 -3.111320 5.992970
  3 18.045721 0.000000 0.000000 0.000000 -0.000000 -0.380695
  4 17.597597 0.000000 0.000000 -0.096484 -0.013375 0.089535
  5 3.793090 6.407221 0.000000 0.000000 -0.000000 1.570796
  6 0.000005 -0.000003 -3.713255 0.249913 3.055539 6.257393
  7 18.045725 0.000000 0.000000 0.000000 -0.000000 -0.337858
  8 17.597597 0.000000 0.000000 -0.017133 0.076832 0.291719
  9 3.793090 6.407221 0.000000 0.000000 -0.000000 1.570796
 10 0.935740 0.000000 0.000000 0.000000 -0.000000 0.000000
 11 0.935741 0.000000 0.000000 0.000000 -0.000000 0.000000
 12 1.293670 0.684478 -0.000001 -0.069768 0.000610 0.009520
 13 5.309685 -0.003834 0.000000 0.000000 -0.000000 -0.069778
 14 4.826790 -0.004591 0.000000 -0.078373 0.004099 0.051250
 15 5.792767 -0.005304 0.000000 0.000000 -0.000000 0.091007
 16 6.662317 -0.001453 0.000000 0.000000 -0.000001 0.471000
 17 2.046985 -0.000002 0.000000 0.160398 -0.038248 -0.320599
 18 -3.112024 1.517254 4.341911 -0.000014 -1.274333 2.669810
 19 4.827230 0.000000 0.000001 0.326455 1.083630 0.365623
 20 11.139763 0.000000 0.000000 0.000000 -0.000000 -0.723146
 21 10.314597 0.000001 0.000000 -1.570000 -0.000000 -0.069778
 22 2.975834 -0.386307 -0.044143 -0.000797 -0.043611 0.000035
 23 1.438886 0.000000 0.000000 0.000000 -0.000000 0.793659
 24 1.485303 0.000000 0.000000 0.000000 -0.000000 1.465135
 25 -2.869898 1.399663 -4.140396 -0.000013 1.281254 2.669783
 26 4.972048 0.000000 0.000001 0.259590 -1.062142 -0.430378
 27 11.585355 0.000000 0.000000 0.000000 -0.000000 -1.438517
 28 10.127057 0.000000 0.000001 1.761432 0.007905 -0.061501
 29 2.683750 -0.427338 0.044205 0.001045 0.043611 0.000046
 30 1.438885 -0.000001 0.000000 0.000000 -0.000000 1.072747
 31 1.485305 0.000001 0.000000 0.000000 -0.000000 1.090144
time 18
  0 0.532232 -0.532232 2.454675 -0.000000 -0.000000 -1.571254
  1 0.421888 0.007813 0.000000 -1.570795 -1.570796 0.000000
  2 -0.000005 0.000007 3.713255 -0.054129 -3.111895 5.991052
  3 18.045721 0.000000 0.000000 0.000000 -0.000000 -0.384109
  4 17.597597 0.000000 0.000000 -0.096560 -0.012791 0.090862
  5 3.793090 6.407221 0.000000 0.000000 -0.000000 1.570796
  6 0.000005 -0.000003 -3.713255 0.249721 3.054292 6.255380
  7 18.045725 0.000000 0.000000 0.000000 -0.000000 -0.341915
  8 17.597597 0.000000 0.000000 -0.017067 0.077404 0.293436
  9 3.793090 6.407221 0.000000 0.000000 -0.000000 1.570796
 10 0.935740 0.000000 0.000000 0.000000 -0.000000 0.000000
 11 0.935741 0.000000 0.000000 0.000000 -0.000000 0.000000
 12 1.293670 0.684478 -0.000001 -0.069768 0.000610 0.009520
 13 5.309685 -0.003834 0.000000 0.000000 -0.000000 -0.069778
 14 4.826790 -0.004591 0.000000 -0.078373 0.004267 0.053632
 15 5.792767 -0.005304 0.000000 0.000000 -0.000000 0.094308
 16 6.662317 -0.001453 0.000000 0.000000 -0.000001 0.471000
 17 2.046985 -0.000002 0.000000 0.160484 -0.037933 -0.328330
 18 -3.112024 1.517254 4.341911 -0.000014 -1.270025 2.669810
 19 4.827230 0.000000 0.000001 0.312593 1.081332 0.351621
 20 11.139763 0.000000 0.000000 0.000000 -0.000000 -0.723146
 21 10.314597 0.000001 0.000000 -1.570000 -0.000000 -0.069778
 22 2.975834 -0.386307 -0.044143 -0.000797 -0.043611 0.000035
 23 1.438886 0.000000 0.000000 0.000000 -0.000000 0.793659
 24 1.485303 0.000000 0.000000 0.000000 -0.000000 1.465135
 25 -2.869898 1.399663 -4.140396 -0.000013 1.277184 2.669783
 26 4.972048 0.000000 0.000001 0.265933 -1.056109 -0.437624
 27 11.585355 0.000000 0.000000 0.000000 -0.000000 -1.438517
 28 10.127057 0.000000 0.000001 1.761432 0.007905 -0.061501
 29 2.683750 -0.427338 0.044205 0.001045 0.043611 0.000046
 30 1.438885 -0.000001 0.000000 0.000000 -0.000000 1.072747
 31 1.485305 0.000001 0.000000 0.000000 -0.000000 1.090144
time 19
  0 0.547857 -0.547857 2.450769 -0.000000 -0.000000 -1.571254
  1 0.398450 0.019532 0.000000 -1.570795 -1.570796 0.000000
  2 -0.000005 0.000007 3.713255 -0.054225 -3.112470 5.989614
  3 18.045721 0.000000 0.000000 0.000000 -0.000000 -0.385964
  4 17.597597 0.000000 0.000000 -0.096636 -0.012158 0.091365
  5 3.793090 6.407221 0.000000 0.000000 -0.000000 1.570796
  6 0.000005 -0.000003 -3.713255 0.249626 3.053430 6.253463
  7 18.045725 0.000000 0.000000 0.000000 -0.000000 -0.344958
  8 17.597597 0.000000 0.000000 -0.017034 0.077838 0.294363
  9 3.793090 6.407221 0.000000 0.000000 -0.000000 1.570796
 10 0.935740 0.000000 0.000000 0.000000 -0.000000 0.000000
 11 0.935741 0.000000 0.000000 0.000000 -0.000000 0.000000
 12 1.293670 0.684478 -0.000001 -0.069768 0.000610 0.009520
 13 5.309685 -0.003834 0.000000 0.000000 -0.000000 -0.069778
 14 4.826790 -0.004591 0.000000 -0.078324 0.004506 0.057159
 15 5.792767 -0.005304 0.000000 0.000000 -0.000000 0.099457
 16 6.662317 -0.001453 0.000000 0.000000 -0.000001 0.471000
 17 2.046985 -0.000002 0.000000 0.160527 -0.037438 -0.340151
 18 -3.112024 1.517254 4.341911 -0.000014 -1.263294 2.669810
 19 4.827230 0.000000 0.000001 0.291037 1.077758 0.330006
 20 11.139763 0.000000 0.000000 0.000000 -0.000000 -0.723146
 21 10.314597 0.000001 0.000000 -1.570000 -0.000000 -0.069778
 22 2.975834 -0.386307 -0.044143 -0.000797 -0.043611 0.000035
 23 1.438886 0.000000 0.000000 0.000000 -0.000000 0.793659
 24 1.485303 0.000000 0.000000 0.000000 -0.000000 1.465135
 25 -2.869898 1.399663 -4.140396 -0.000013 1.270966 2.669783
 26 4.972048 0.000000 0.000001 0.275757 -1.046858 -0.448954
 27 11.585355 0.000000 0.000000 0.000000 -0.000000 -1.438517
 28 10.127057 0.000000 0.000001 1.761432 0.007905 -0.061501
 29 2.683750 -0.427338 0.044205 0.001045 0.043611 0.000046
 30 1.438885 -0.000001 0.000000 0.000000 -0.000000 1.072747
 31 1.485305 0.000001 0.000000 0.000000 -0.000000 1.090144
time 20
  0 0.567389 -0.567389 2.450769 -0.000000 -0.000000 -1.571254
  1 0.386731 0.019532 0.000000 -1.570795 -1.570796 0.000000
  2 -0.000005 0.000007 3.713255 -0.054225 -3.112757 5.988943
  3 18.045721 0.000000 0.000000 0.000000 -0.000000 -0.386335
  4 17.597597 0.000000 0.000000 -0.096712 -0.011525 0.091045
  5 3.793090 6.407221 0.000000 0.000000 -0.000000 1.570796
  6 0.000005 -0.000003 -3.713255 0.249242 3.052663 6.252312
  7 18.045725 0.000000 0.000000 0.000000 -0.000000 -0.346262
  8 17.597597 0.000000 0.000000 -0.017034 0.078331 0.294363
  9 3.793090 6.407221 0.000000 0.000000 -0.000000 1.570796
 10 0.935740 0.000000 0.000000 0.000000 -0.000000 0.000000
 11 0.935741 0.000000 0.000000 0.000000 -0.000000 0.000000
 12 1.293670 0.684478 -0.000001 -0.069768 0.000610 0.009520
 13 5.309685 -0.003834 0.000000 0.000000 -0.000000 -0.069778
 14 4.826790 -0.004591 0.000000 -0.078324 0.004842 0.060775
 15 5.792767 -0.005304 0.000000 0.000000 -0.000000 0.104648
 16 6.662317 -0.001453 0.000000 0.000000 -0.000001 0.471000
 17 2.046985 -0.000002 0.000000 0.160570 -0.036943 -0.352062
 18 -3.112024 1.517254 4.341911 -0.000014 -1.256294 2.669810
 19 4.827230 0.000000 0.000001 0.269657 1.073758 0.308478
 20 11.139763 0.000000 0.000000 0.000000 -0.000000 -0.723146
 21 10.314597 0.000001 0.000000 -1.570000 -0.000000 -0.069778
 22 2.975834 -0.386307 -0.044143 -0.000797 -0.043611 0.000035
 23 1.438886 0.000000 0.000000 0.000000 -0.000000 0.793659
 24 1.485303 0.000000 0.000000 0.000000 -0.000000 1.465135
 25 -2.869898 1.399663 -4.140396 -0.000013 1.264465 2.669783
 26 4.972048 0.000000 0.000001 0.285194 -1.037366 -0.459691
 27 11.585355 0.000000 0.000000 0.000000 -0.000000 -1.438517
 28 10.127057 0.000000 0.000001 1.761432 0.007905 -0.061501
 29 2.683750 -0.427338 0.044205 0.001045 0.043611 0.000046
 30 1.438885 -0.000001 0.000000 0.000000 -0.000000 1.072747
 31 1.485305 0.000001 0.000000 0.000000 -0.000000 1.090144
time 21
  0 0.547857 -0.547857 2.450769 -0.000000 -0.000000 -1.571254
  1 0.367199 0.027345 0.000000 -1.570795 -1.570796 0.000000
  2 -0.000005 0.000007 3.713255 -0.054129 -3.112662 5.989135
  3 18.045721 0.000000 0.000000 0.000000 -0.000000 -0.384851
  4 17.597597 0.000000 0.000000 -0.096712 -0.011939 0.089718
  5 3.793090 6.407221 0.000000 0.000000 -0.000000 1.570796
  6 0.000005 -0.000003 -3.713255 0.249530 3.053238 6.251353
  7 18.045725 0.000000 0.000000 0.000000 -0.000000 -0.346479
  8 17.597597 0.000000 0.000000 -0.017133 0.077759 0.294054
  9 3.793090 6.407221 0.000000 0.000000 -0.000000 1.570796
 10 0.935740 0.000000 0.000000 0.000000 -0.000000 0.000000
 11 0.935741 0.000000 0.000000 0.000000 -0.000000 0.000000
 12 1.293670 0.684478 -0.000001 -0.069768 0.000610 0.009520
 13 5.309685 -0.003834 0.000000 0.000000 -0.000000 -0.069778
 14 4.826790 -0.004591 0.000000 -0.078324 0.005117 0.065053
 15 5.792767 -0.005304 0.000000 0.000000 -0.000000 0.110669
 16 6.662317 -0.001453 0.000000 0.000000 -0.000001 0.471000
 17 2.046985 -0.000002 0.000000 0.160872 -0.036357 -0.365861
 18 -3.112024 1.517254 4.341911 -0.000014 -1.245178 2.669810
 19 4.827230 0.000000 0.000001 0.243578 1.065929 0.282400
 20 11.139763 0.000000 0.000000 0.000000 -0.000000 -0.723146
 21 10.314597 0.000001 0.000000 -1.570000 -0.000000 -0.069778
 22 2.975834 -0.386307 -0.044143 -0.000797 -0.043611 0.000035
 23 1.438886 0.000000 0.000000 0.000000 -0.000000 0.793659
 24 1.485303 0.000000 0.000000 0.000000 -0.000000 1.465135
 25 -2.869898 1.399663 -4.140396 -0.000013 1.254177 2.669783
 26 4.972048 0.000000 0.000001 0.293239 -1.023852 -0.469638
 27 11.585355 0.000000 0.000000 0.000000 -0.000000 -1.438517
 28 10.127057 0.000000 0.000001 1.761432 0.007905 -0.061501
 29 2.683750 -0.427338 0.044205 0.001045 0.043611 0.000046
 30 1.438885 -0.000001 0.000000 0.000000 -0.000000 1.072747
 31 1.485305 0.000001 0.000000 0.000000 -0.000000 1.090144
time 22
  0 0.532232 -0.532232 2.454675 -0.000000 -0.000000 -1.571254
  1 0.390637 0.019532 0.000000 -1.570795 -1.570796 0.000000
  2 -0.000005 0.000007 3.713255 -0.054129 -3.111895 5.990669
  3 18.045721 0.000000 0.000000 0.000000 -0.000000 -0.383218
  4 17.597597 0.000000 0.000000 -0.096636 -0.012596 0.089718
  5 3.793090 6.407221 0.000000 0.000000 -0.000000 1.570796
  6 0.000005 -0.000003 -3.713255 0.249721 3.054197 6.254038
  7 18.045725 0.000000 0.000000 0.000000 -0.000000 -0.343074
  8 17.597597 0.000000 0.000000 -0.017133 0.077325 0.293230
  9 3.793090 6.407221 0.000000 0.000000 -0.000000 1.570796
 10 0.935740 0.000000 0.000000 0.000000 -0.000000 0.000000
 11 0.935741 0.000000 0.000000 0.000000 -0.000000 0.000000
 12 1.293670 0.684478 -0.000001 -0.069768 0.000610 0.009520
 13 5.309685 -0.003834 0.000000 0.000000 -0.000000 -0.069778
 14 4.826790 -0.004591 0.000000 -0.078324 0.004734 0.059364
 15 5.792767 -0.005304 0.000000 0.000000 -0.000000 0.102613
 16 6.662317 -0.001453 0.000000 0.000000 -0.000001 0.471000
 17 2.046985 -0.000002 0.000000 0.160527 -0.037123 -0.347253
 18 -3.112024 1.517254 4.341911 -0.000014 -1.248717 2.669810
 19 4.827230 0.000000 0.000001 0.271419 1.065929 0.311191
 20 11.139763 0.000000 0.000000 0.000000 -0.000000 -0.723146
 21 10.314597 0.000001 0.000000 -1.570000 -0.000000 -0.069778
 22 2.975834 -0.386307 -0.044143 -0.000797 -0.043611 0.000035
 23 1.438886 0.000000 0.000000 0.000000 -0.000000 0.793659
 24 1.485303 0.000000 0.000000 0.000000 -0.000000 1.465135
 25 -2.869898 1.399663 -4.140396 -0.000013 1.257484 2.669783
 26 4.972048 0.000000 0.000001 0.273359 -1.032459 -0.448427
 27 11.585355 0.000000 0.000000 0.000000 -0.000000 -1.438517
 28 10.127057 0.000000 0.000001 1.761432 0.007905 -0.061501
 29 2.683750 -0.427338 0.044205 0.001045 0.043611 0.000046
 30 1.438885 -0.000001 0.000000 0.000000 -0.000000 1.072747
 31 1.485305 0.000001 0.000000 0.000000 -0.000000 1.090144
time 23
  0 0.512700 -0.512700 2.466394 -0.000000 -0.000000 -1.571254
  1 0.410169 0.019532 0.000000 -1.570795 -1.570796 0.000000
  2 -0.000005 0.000007 3.713255 -0.054033 -3.111320 5.992586
  3 18.045721 0.000000 0.000000 0.000000 -0.000000 -0.380102
  4 17.597597 0.000000 0.000000 -0.096509 -0.013302 0.088666
  5 3.793090 6.407221 0.000000 0.000000 -0.000000 1.570796
  6 0.000005 -0.000003 -3.713255 0.249913 3.055539 6.256627
  7 18.045725 0.000000 0.000000 0.000000 -0.000000 -0.338655
  8 17.597597 0.000000 0.000000 -0.017166 0.076773 0.291616
  9 3.793090 6.407221 0.000000 0.000000 -0.000000 1.570796
 10 0.935740 0.000000 0.000000 0.000000 -0.000000 0.000000
 11 0.935741 0.000000 0.000000 0.000000 -0.000000 0.000000
 12 1.293670 0.684478 -0.000001 -0.069768 0.000610 0.009520
 13 5.309685 -0.003834 0.000000 0.000000 -0.000000 -0.069778
 14 4.826790 -0.004591 0.000000 -0.078373 0.004362 0.055285
 15 5.792767 -0.005304 0.000000 0.000000 -0.000000 0.096779
 16 6.662317 -0.001453 0.000000 0.000000 -0.000001 0.471000
 17 2.046985 -0.000002 0.000000 0.160527 -0.037686 -0.334038
 18 -3.112024 1.517254 4.341911 -0.000014 -1.253717 2.669810
 19 4.827230 0.000000 0.000001 0.293034 1.067546 0.333244
 20 11.139763 0.000000 0.000000 0.000000 -0.000000 -0.716699
 21 10.314597 0.000001 0.000000 -1.570000 -0.000000 -0.069778
 22 2.975834 -0.386307 -0.044143 -0.000797 -0.043611 0.000035
 23 1.438886 0.000000 0.000000 0.000000 -0.000000 0.793659
 24 1.485303 0.000000 0.000000 0.000000 -0.000000 1.465135
 25 -2.869898 1.399663 -4.140396 -0.000013 1.262091 2.669783
 26 4.972048 0.000000 0.000001 0.260518 -1.040825 -0.434396
 27 11.585355 0.000000 0.000000 0.000000 -0.000000 -1.432570
 28 10.127057 0.000000 0.000001 1.761432 0.007905 -0.061501
 29 2.683750 -0.427338 0.044205 0.001045 0.043611 0.000046
 30 1.438885 -0.000001 0.000000 0.000000 -0.000000 1.072747
 31 1.485305 0.000001 0.000000 0.000000 -0.000000 1.090144
time 24
  0 0.481449 -0.481449 2.482020 -0.000000 -0.000000 -1.571254
  1 0.433607 0.007813 0.000000 -1.570795 -1.570796 0.000000
  2 -0.000005 0.000007 3.713255 -0.054033 -3.110648 5.995367
  3 18.045721 0.000000 0.000000 0.000000 -0.000000 -0.375872
  4 17.597597 0.000000 0.000000 -0.096433 -0.014008 0.087156
  5 3.793090 6.407221 0.000000 0.000000 -0.000000 1.570796
  6 0.000005 -0.000003 -3.713255 0.250393 3.056977 -0.022818
  7 18.045725 0.000000 0.000000 0.000000 -0.000000 -0.332570
  8 17.597597 0.000000 0.000000 -0.017199 0.076240 0.289315
  9 3.793090 6.407221 0.000000 0.000000 -0.000000 1.570796
 10 0.935740 0.000000 0.000000 0.000000 -0.000000 0.000000
 11 0.935741 0.000000 0.000000 0.000000 -0.000000 0.000000
 12 1.293670 0.684478 -0.000001 -0.069768 0.000610 0.009520
 13 5.309685 -0.003834 0.000000 0.000000 -0.000000 -0.069778
 14 4.826790 -0.004591 0.000000 -0.078373 0.004039 0.050633
 15 5.792767 -0.005304 0.000000 0.000000 -0.000000 0.090031
 16 6.662317 -0.001453 0.000000 0.000000 -0.000001 0.471000
 17 2.046985 -0.000002 0.000000 0.160398 -0.038338 -0.318576
 18 -3.112024 1.517254 4.341911 -0.000014 -1.260217 2.669810
 19 4.827230 0.000000 0.000001 0.319054 1.070099 0.359497
 20 11.139763 0.000000 0.000000 0.000000 -0.000000 -0.708920
 21 10.314597 0.000001 0.000000 -1.570000 -0.000000 -0.069778
 22 2.975834 -0.386307 -0.044143 -0.000797 -0.043611 0.000035
 23 1.438886 0.000000 0.000000 0.000000 -0.000000 0.793659
 24 1.485303 0.000000 0.000000 0.000000 -0.000000 1.465135
 25 -2.869898 1.399663 -4.140396 -0.000013 1.268111 2.669783
 26 4.972048 0.000000 0.000001 0.245666 -1.050719 -0.417994
 27 11.585355 0.000000 0.000000 0.000000 -0.000000 -1.425924
 28 10.127057 0.000000 0.000001 1.761432 0.007905 -0.061501
 29 2.683750 -0.427338 0.044205 0.001045 0.043611 0.000046
 30 1.438885 -0.000001 0.000000 0.000000 -0.000000 1.072747
 31 1.485305 0.000001 0.000000 0.000000 -0.000000 1.090144
time 25
  0 0.469730 -0.469730 2.505458 -0.000000 -0.000000 -1.571254
  1 0.453139 0.007813 0.000000 -1.570795 -1.570796 0.000000
  2 -0.000005 0.000007 3.713255 -0.054033 -3.110361 5.998626
  3 18.045721 0.000000 0.000000 0.000000 -0.000000 -0.370529
  4 17.597597 0.000000 0.000000 -0.096332 -0.014787 0.085097
  5 3.793090 6.407221 0.000000 0.000000 -0.000000 1.570796
  6 0.000005 -0.000003 -3.713255 0.250680 3.058607 -0.018887
  7 18.045725 0.000000 0.000000 0.000000 -0.000000 -0.325253
  8 17.597597 0.000000 0.000000 -0.017265 0.075629 0.286259
  9 3.793090 6.407221 0.000000 0.000000 -0.000000 1.570796
 10 0.935740 0.000000 0.000000 0.000000 -0.000000 0.000000
 11 0.935741 0.000000 0.000000 0.000000 -0.000000 0.000000
 12 1.293670 0.684478 -0.000001 -0.069768 0.000610 0.009520
 13 5.309685 -0.003834 0.000000 0.000000 -0.000000 -0.069778
 14 4.826790 -0.004591 0.000000 -0.078406 0.003631 0.046069
 15 5.792767 -0.005304 0.000000 0.000000 -0.000000 0.083470
 16 6.662317 -0.001453 0.000000 0.000000 -0.000001 0.471000
 17 2.046985 -0.000002 0.000000 0.160053 -0.038969 -0.303429
 18 -3.112024 1.517254 4.341911 -0.000014 -1.266602 2.669810
 19 4.827230 0.000000 0.000001 0.344487 1.071801 0.385138
 20 11.139763 0.000000 0.000000 0.000000 -0.000000 -0.701211
 21 10.314597 0.000001 0.000000 -1.570000 -0.000000 -0.069778
 22 2.975834 -0.386307 -0.044143 -0.000797 -0.043611 0.000035
 23 1.438886 0.000000 0.000000 0.000000 -0.000000 0.793659
 24 1.485303 0.000000 0.000000 0.000000 -0.000000 1.465135
 25 -2.869898 1.399663 -4.140396 -0.000013 1.274075 2.669783
 26 4.972048 0.000000 0.000001 0.230659 -1.060372 -0.401460
 27 11.585355 0.000000 0.000000 0.000000 -0.000000 -1.419418
 28 10.127057 0.000000 0.000001 1.761432 0.007905 -0.061501
 29 2.683750 -0.427338 0.044205 0.001045 0.043611 0.000046
 30 1.438885 -0.000001 0.000000 0.000000 -0.000000 1.072747
 31 1.485305 0.000001 0.000000 0.000000 -0.000000 1.090144
time 26
  0 0.438479 -0.438479 2.524990 -0.000000 -0.000000 -1.571254
  1 0.472671 0.007813 0.000000 -1.570795 -1.570796 0.000000
  2 -0.000005 0.000007 3.713255 -0.054033 -3.109786 6.002461
  3 18.045721 0.000000 0.000000 0.000000 -0.000000 -0.363925
  4 17.597597 0.000000 0.000000 -0.096205 -0.015517 0.082352
  5 3.793090 6.407221 0.000000 0.000000 -0.000000 1.570796
  6 0.000005 -0.000003 -3.713255 0.251255 3.060140 -0.014285
  7 18.045725 0.000000 0.000000 0.000000 -0.000000 -0.316632
  8 17.597597 0.000000 0.000000 -0.017314 0.075057 0.282619
  9 3.793090 6.407221 0.000000 0.000000 -0.000000 1.570796
 10 0.935740 0.000000 0.000000 0.000000 -0.000000 0.000000
 11 0.935741 0.000000 0.000000 0.000000 -0.000000 0.000000
 12 1.293670 0.684478 -0.000001 -0.069768 0.000610 0.009520
 13 5.309685 -0.003834 0.000000 0.000000 -0.000000 -0.069778
 14 4.826790 -0.004591 0.000000 -0.078406 0.003344 0.041770
 15 5.792767 -0.005304 0.000000 0.000000 -0.000000 0.077262
 16 6.662317 -0.001453 0.000000 0.000000 -0.000001 0.471000
 17 2.046985 -0.000002 0.000000 0.160010 -0.039554 -0.289360
 18 -3.112024 1.517254 4.341911 -0.000014 -1.272679 2.669810
 19 4.827230 0.000000 0.000001 0.368804 1.073503 0.409641
 20 11.139763 0.000000 0.000000 0.000000 -0.000000 -0.694133
 21 10.314597 0.000001 0.000000 -1.570000 -0.000000 -0.069778
 22 2.975834 -0.386307 -0.044143 -0.000797 -0.043611 0.000035
 23 1.438886 0.000000 0.000000 0.000000 -0.000000 0.793659
 24 1.485303 0.000000 0.000000 0.000000 -0.000000 1.465135
 25 -2.869898 1.399663 -4.140396 -0.000013 1.279643 2.669783
 26 4.972048 0.000000 0.000001 0.215962 -1.069462 -0.385453
 27 11.585355 0.000000 0.000000 0.000000 -0.000000 -1.413542
 28 10.127057 0.000000 0.000001 1.761432 0.007905 -0.061501
 29 2.683750 -0.427338 0.044205 0.001045 0.043611 0.000046
 30 1.438885 -0.000001 0.000000 0.000000 -0.000000 1.072747
 31 1.485305 0.000001 0.000000 0.000000 -0.000000 1.090144
time 27
  0 0.418947 -0.418947 2.556241 -0.000000 -0.000000 -1.571254
  1 0.496109 0.007813 0.000000 -1.570795 -1.570796 0.000000
  2 -0.000005 0.000007 3.713255 -0.054033 -3.109019 6.006968
  3 18.045721 0.000000 0.000000 0.000000 -0.000000 -0.356505
  4 17.597597 0.000000 0.000000 -0.096129 -0.016272 0.079195
  5 3.793090 6.407221 0.000000 0.000000 -0.000000 1.570796
  6 0.000005 -0.000003 -3.713255 0.251543 3.062346 -0.009204
  7 18.045725 0.000000 0.000000 0.000000 -0.000000 -0.307069
  8 17.597597 0.000000 0.000000 -0.017380 0.074465 0.278395
  9 3.793090 6.407221 0.000000 0.000000 -0.000000 1.570796
 10 0.935740 0.000000 0.000000 0.000000 -0.000000 0.000000
 11 0.935741 0.000000 0.000000 0.000000 -0.000000 0.000000
 12 1.293670 0.684478 -0.000001 -0.069768 0.000610 0.009520
 13 5.309685 -0.003834 0.000000 0.000000 -0.000000 -0.069778
 14 4.826790 -0.004591 0.000000 -0.078439 0.002972 0.037735
 15 5.792767 -0.005304 0.000000 0.000000 -0.000000 0.071490
 16 6.662317 -0.001453 0.000000 0.000000 -0.000001 0.471000
 17 2.046985 -0.000002 0.000000 0.159967 -0.040117 -0.275921
 18 -3.112024 1.517254 4.341911 -0.000014 -1.278256 2.669810
 19 4.827230 0.000000 0.000001 0.391476 1.075120 0.432569
 20 11.139763 0.000000 0.000000 0.000000 -0.000000 -0.687195
 21 10.314597 0.000001 0.000000 -1.570000 -0.000000 -0.069778
 22 2.975834 -0.386307 -0.044143 -0.000797 -0.043611 0.000035
 23 1.438886 0.000000 0.000000 0.000000 -0.000000 0.793659
 24 1.485303 0.000000 0.000000 0.000000 -0.000000 1.465135
 25 -2.869898 1.399663 -4.140396 -0.000013 1.284872 2.669783
 26 4.972048 0.000000 0.000001 0.201651 -1.077828 -0.370368
 27 11.585355 0.000000 0.000000 0.000000 -0.000000 -1.407736
 28 10.127057 0.000000 0.000001 1.761432 0.007905 -0.061501
 29 2.683750 -0.427338 0.044205 0.001045 0.043611 0.000046
 30 1.438885 -0.000001 0.000000 0.000000 -0.000000 1.072747
 31 1.485305 0.000001 0.000000 0.000000 -0.000000 1.090144
time 28
  0 0.399415 -0.399415 2.579679 -0.000000 -0.000000 -1.571254
  1 0.515641 0.000000 0.000000 -1.570795 -1.570796 0.000000
  2 -0.000005 0.000007 3.713255 -0.054033 -3.108827 6.011762
  3 18.045721 0.000000 0.000000 0.000000 -0.000000 -0.348268
  4 17.597597 0.000000 0.000000 -0.096053 -0.017002 0.075535
  5 3.793090 6.407221 0.000000 0.000000 -0.000000 1.570796
  6 0.000005 -0.000003 -3.713255 0.252118 3.064359 -0.003739
  7 18.045725 0.000000 0.000000 0.000000 -0.000000 -0.296420
  8 17.597597 0.000000 0.000000 -0.017446 0.073834 0.273553
  9 3.793090 6.407221 0.000000 0.000000 -0.000000 1.570796
 10 0.935740 0.000000 0.000000 0.000000 -0.000000 0.000000
 11 0.935741 0.000000 0.000000 0.000000 -0.000000 0.000000
 12 1.293670 0.684478 -0.000001 -0.069768 0.000610 0.009520
 13 5.309685 -0.003834 0.000000 0.000000 -0.000000 -0.069778
 14 4.826790 -0.004591 0.000000 -0.078439 0.002721 0.034053
 15 5.792767 -0.005304 0.000000 0.000000 -0.000000 0.066237
 16 6.662317 -0.001453 0.000000 0.000000 -0.000001 0.471000
 17 2.046985 -0.000002 0.000000 0.159838 -0.040612 -0.263920
 18 -3.112024 1.517254 4.341911 -0.000014 -1.283410 2.669810
 19 4.827230 0.000000 0.000001 0.412445 1.076056 0.453484
 20 11.139763 0.000000 0.000000 0.000000 -0.000000 -0.681028
 21 10.314597 0.000001 0.000000 -1.570000 -0.000000 -0.069778
 22 2.975834 -0.386307 -0.044143 -0.000797 -0.043611 0.000035
 23 1.438886 0.000000 0.000000 0.000000 -0.000000 0.793659
 24 1.485303 0.000000 0.000000 0.000000 -0.000000 1.465135
 25 -2.869898 1.399663 -4.140396 -0.000013 1.289592 2.669783
 26 4.972048 0.000000 0.000001 0.188114 -1.085309 -0.355942
 27 11.585355 0.000000 0.000000 0.000000 -0.000000 -1.402559
 28 10.127057 0.000000 0.000001 1.761432 0.007905 -0.061501
 29 2.683750 -0.427338 0.044205 0.001045 0.043611 0.000046
 30 1.438885 -0.000001 0.000000 0.000000 -0.000000 1.072747
 31 1.485305 0.000001 0.000000 0.000000 -0.000000 1.090144
time 29
  0 0.375977 -0.375977 2.610930 -0.000000 -0.000000 -1.571254
  1 0.527360 0.000000 0.000000 -1.570795 -1.570796 0.000000
  2 -0.000005 0.000007 3.713255 -0.054129 -3.108252 6.016459
  3 18.045721 0.000000 0.000000 0.000000 -0.000000 -0.339141
  4 17.597597 0.000000 0.000000 -0.096002 -0.017708 0.071417
  5 3.793090 6.407221 0.000000 0.000000 -0.000000 1.570796
  6 0.000005 -0.000003 -3.713255 0.252789 3.066564 0.002301
  7 18.045725 0.000000 0.000000 0.000000 -0.000000 -0.284901
  8 17.597597 0.000000 0.000000 -0.017512 0.073203 0.268265
  9 3.793090 6.407221 0.000000 0.000000 -0.000000 1.570796
 10 0.935740 0.000000 0.000000 0.000000 -0.000000 0.000000
 11 0.935741 0.000000 0.000000 0.000000 -0.000000 0.000000
 12 1.293670 0.684478 -0.000001 -0.069768 0.000610 0.009520
 13 5.309685 -0.003834 0.000000 0.000000 -0.000000 -0.069778
 14 4.826790 -0.004591 0.000000 -0.078455 0.002469 0.030613
 15 5.792767 -0.005304 0.000000 0.000000 -0.000000 0.061420
 16 6.662317 -0.001453 0.000000 0.000000 -0.000001 0.471000
 17 2.046985 -0.000002 0.000000 0.159536 -0.041085 -0.252772
 18 -3.112024 1.517254 4.341911 -0.000014 -1.288064 2.669810
 19 4.827230 0.000000 0.000001 0.431769 1.076396 0.472824
 20 11.139763 0.000000 0.000000 0.000000 -0.000000 -0.675772
 21 10.314597 0.000001 0.000000 -1.570000 -0.000000 -0.069778
 22 2.975834 -0.386307 -0.044143 -0.000797 -0.043611 0.000035
 23 1.438886 0.000000 0.000000 0.000000 -0.000000 0.793659
 24 1.485303 0.000000 0.000000 0.000000 -0.000000 1.465135
 25 -2.869898 1.399663 -4.140396 -0.000013 1.293973 2.669783
 26 4.972048 0.000000 0.000001 0.175273 -1.092066 -0.342372
 27 11.585355 0.000000 0.000000 0.000000 -0.000000 -1.397732
 28 10.127057 0.000000 0.000001 1.761432 0.007905 -0.061501
 29 2.683750 -0.427338 0.044205 0.001045 0.043611 0.000046
 30 1.438885 -0.000001 0.000000 0.000000 -0.000000 1.072747
 31 1.485305 0.000001 0.000000 0.000000 -0.000000 1.090144
time 30
  0 0.368164 -0.368164 2.642181 -0.000000 -0.000000 -1.571254
  1 0.546892 0.000000 0.000000 -1.570795 -1.570796 0.000000
  2 -0.000005 0.000007 3.713255 -0.054225 -3.107677 6.021829
  3 18.045721 0.000000 0.000000 0.000000 -0.000000 -0.329569
  4 17.597597 0.000000 0.000000 -0.095926 -0.018341 0.067162
  5 3.793090 6.407221 0.000000 0.000000 -0.000000 1.570796
  6 0.000005 -0.000003 -3.713255 0.253365 3.068769 0.008533
  7 18.045725 0.000000 0.000000 0.000000 -0.000000 -0.272368
  8 17.597597 0.000000 0.000000 -0.017578 0.072631 0.262427
  9 3.793090 6.407221 0.000000 0.000000 -0.000000 1.570796
 10 0.935740 0.000000 0.000000 0.000000 -0.000000 0.000000
 11 0.935741 0.000000 0.000000 0.000000 -0.000000 0.000000
 12 1.293670 0.684478 -0.000001 -0.069768 0.000610 0.009520
 13 5.309685 -0.003834 0.000000 0.000000 -0.000000 -0.069778
 14 4.826790 -0.004591 0.000000 -0.078455 0.002145 0.027174
 15 5.792767 -0.005304 0.000000 0.000000 -0.000000 0.056395
 16 6.662317 -0.001453 0.000000 0.000000 -0.000001 0.471000
 17 2.046985 -0.000002 0.000000 0.159493 -0.041558 -0.241401
 18 -3.112024 1.517254 4.341911 -0.000014 -1.292987 2.669810
 19 4.827230 0.000000 0.000001 0.451857 1.076907 0.492952
 20 11.139763 0.000000 0.000000 0.000000 -0.000000 -0.669675
 21 10.314597 0.000001 0.000000 -1.570000 -0.000000 -0.069778
 22 2.975834 -0.386307 -0.044143 -0.000797 -0.043611 0.000035
 23 1.438886 0.000000 0.000000 0.000000 -0.000000 0.793659
 24 1.485303 0.000000 0.000000 0.000000 -0.000000 1.465135
 25 -2.869898 1.399663 -4.140396 -0.000013 1.298580 2.669783
 26 4.972048 0.000000 0.000001 0.161504 -1.099225 -0.327551
 27 11.585355 0.000000 0.000000 0.000000 -0.000000 -1.392765
 28 10.127057 0.000000 0.000001 1.761432 0.007905 -0.061501
 29 2.683750 -0.427338 0.044205 0.001045 0.043611 0.000046
 30 1.438885 -0.000001 0.000000 0.000000 -0.000000 1.072747
 31 1.485305 0.000001 0.000000 0.000000 -0.000000 1.090144
time 31
  0 0.340819 -0.340819 2.673432 -0.000000 -0.000000 -1.571254
  1 0.570330 0.000000 0.000000 -1.570795 -1.570796 0.000000
  2 -0.000005 0.000007 3.713255 -0.054225 -3.107581 6.027677
  3 18.045721 0.000000 0.000000 0.000000 -0.000000 -0.319551
  4 17.597597 0.000000 0.000000 -0.095850 -0.019071 0.062724
  5 3.793090 6.407221 0.000000 0.000000 -0.000000 1.570796
  6 0.000005 -0.000003 -3.713255 0.253748 3.070974 0.015915
  7 18.045725 0.000000 0.000000 0.000000 -0.000000 -0.258676
  8 17.597597 0.000000 0.000000 -0.017644 0.072059 0.256177
  9 3.793090 6.407221 0.000000 0.000000 -0.000000 1.570796
 10 0.935740 0.000000 0.000000 0.000000 -0.000000 0.000000
 11 0.935741 0.000000 0.000000 0.000000 -0.000000 0.000000
 12 1.293670 0.684478 -0.000001 -0.069768 0.000610 0.009520
 13 5.309685 -0.003834 0.000000 0.000000 -0.000000 -0.069778
 14 4.826790 -0.004591 0.000000 -0.078455 0.001810 0.022257
 15 5.792767 -0.005304 0.000000 0.000000 -0.000000 0.049336
 16 6.662317 -0.001453 0.000000 0.000000 -0.000001 0.471000
 17 2.046985 -0.000002 0.000000 0.159407 -0.042233 -0.225220
 18 -3.112024 1.517254 4.341911 -0.000014 -1.300064 2.669810
 19 4.827230 0.000000 0.000001 0.480344 1.077673 0.521218
 20 11.139763 0.000000 0.000000 0.000000 -0.000000 -0.662247
 21 10.314597 0.000001 0.000000 -1.570000 -0.000000 -0.069778
 22 2.975834 -0.386307 -0.044143 -0.000797 -0.043611 0.000035
 23 1.438886 0.000000 0.000000 0.000000 -0.000000 0.793659
 24 1.485303 0.000000 0.000000 0.000000 -0.000000 1.465135
 25 -2.869898 1.399663 -4.140396 -0.000013 1.305109 2.669783
 26 4.972048 0.000000 0.000001 0.141856 -1.109039 -0.306933
 27 11.585355 0.000000 0.000000 0.000000 -0.000000 -1.386189
 28 10.127057 0.000000 0.000001 1.761432 0.007905 -0.061501
 29 2.683750 -0.427338 0.044205 0.001045 0.043611 0.000046
 30 1.438885 -0.000001 0.000000 0.000000 -0.000000 1.072747
 31 1.485305 0.000001 0.000000 0.000000 -0.000000 1.090144
time 32
  0 0.329100 -0.329100 2.696870 -0.000000 -0.000000 -1.571254
  1 0.582049 0.000000 0.000000 -1.570795 -1.570796 0.000000
  2 -0.000005 0.000007 3.713255 -0.054609 -3.107005 6.033430
  3 18.045721 0.000000 0.000000 0.000000 -0.000000 -0.309088
  4 17.597597 0.000000 0.000000 -0.095774 -0.019704 0.057874
  5 3.793090 6.407221 0.000000 0.000000 -0.000000 1.570796
  6 0.000005 -0.000003 -3.713255 0.254323 3.073275 0.022818
  7 18.045725 0.000000 0.000000 0.000000 -0.000000 -0.244622
  8 17.597597 0.000000 0.000000 -0.017743 0.071546 0.249515
  9 3.793090 6.407221 0.000000 0.000000 -0.000000 1.570796
 10 0.935740 0.000000 0.000000 0.000000 -0.000000 0.000000
 11 0.935741 0.000000 0.000000 0.000000 -0.000000 0.000000
 12 1.293670 0.684478 -0.000001 -0.069768 0.000610 0.009520
 13 5.309685 -0.003834 0.000000 0.000000 -0.000000 -0.069778
 14 4.826790 -0.004591 0.000000 -0.078455 0.001570 0.019126
 15 5.792767 -0.005304 0.000000 0.000000 -0.000000 0.044955
 16 6.662317 -0.001453 0.000000 0.000000 -0.000001 0.471000
 17 2.046985 -0.000002 0.000000 0.159321 -0.042638 -0.215016
 18 -3.112024 1.517254 4.341911 -0.000014 -1.306949 2.669810
 19 4.827230 0.000000 0.000001 0.500902 1.079800 0.541258
 20 11.139763 0.000000 0.000000 0.000000 -0.000000 -0.663438
 21 10.314597 0.000001 0.000000 -1.570000 -0.000000 -0.069778
 22 2.975834 -0.386307 -0.044143 -0.000797 -0.043611 0.000035
 23 1.438886 0.000000 0.000000 0.000000 -0.000000 0.793659
 24 1.485303 0.000000 0.000000 0.000000 -0.000000 1.465135
 25 -2.869898 1.399663 -4.140396 -0.000013 1.311440 2.669783
 26 4.972048 0.000000 0.000001 0.130485 -1.117244 -0.294878
 27 11.585355 0.000000 0.000000 0.000000 -0.000000 -1.387028
 28 10.127057 0.000000 0.000001 1.761432 0.007905 -0.061501
 29 2.683750 -0.427338 0.044205 0.001045 0.043611 0.000046
 30 1.438885 -0.000001 0.000000 0.000000 -0.000000 1.072747
 31 1.485305 0.000001 0.000000 0.000000 -0.000000 1.090144
time 33
  0 0.305662 -0.305662 2.728121 -0.000000 -0.000000 -1.571254
  1 0.601581 0.000000 0.000000 -1.570795 -1.570796 0.000000
  2 -0.000005 0.000007 3.713255 -0.054704 -3.106910 6.038990
  3 18.045721 0.000000 0.000000 0.000000 -0.000000 -0.298255
  4 17.597597 0.000000 0.000000 -0.095698 -0.020264 0.052887
  5 3.793090 6.407221 0.000000 0.000000 -0.000000 1.570796
  6 0.000005 -0.000003 -3.713255 0.254994 3.075959 0.030296
  7 18.045725 0.000000 0.000000 0.000000 -0.000000 -0.229843
  8 17.597597 0.000000 0.000000 -0.017809 0.071033 0.242510
  9 3.793090 6.407221 0.000000 0.000000 -0.000000 1.570796
 10 0.935740 0.000000 0.000000 0.000000 -0.000000 0.000000
 11 0.935741 0.000000 0.000000 0.000000 -0.000000 0.000000
 12 1.293670 0.684478 -0.000001 -0.069768 0.000610 0.009520
 13 5.309685 -0.003834 0.000000 0.000000 -0.000000 -0.069778
 14 4.826790 -0.004591 0.000000 -0.078488 0.001282 0.016083
 15 5.792767 -0.005304 0.000000 0.000000 -0.000000 0.040574
 16 6.662317 -0.001453 0.000000 0.000000 -0.000001 0.471000
 17 2.046985 -0.000002 0.000000 0.159019 -0.043066 -0.205218
 18 -3.112024 1.517254 4.341911 -0.000014 -1.316757 2.669810
 19 4.827230 0.000000 0.000001 0.524866 1.084481 0.564361
 20 11.139763 0.000000 0.000000 0.000000 -0.000000 -0.672198
 21 10.314597 0.000001 0.000000 -1.570000 -0.000000 -0.069778
 22 2.975834 -0.386307 -0.044143 -0.000797 -0.043611 0.000035
 23 1.438886 0.000000 0.000000 0.000000 -0.000000 0.793659
 24 1.485303 0.000000 0.000000 0.000000 -0.000000 1.465135
 25 -2.869898 1.399663 -4.140396 -0.000013 1.320626 2.669783
 26 4.972048 0.000000 0.000001 0.120738 -1.128023 -0.284207
 27 11.585355 0.000000 0.000000 0.000000 -0.000000 -1.394794
 28 10.127057 0.000000 0.000001 1.761432 0.007905 -0.061501
 29 2.683750 -0.427338 0.044205 0.001045 0.043611 0.000046
 30 1.438885 -0.000001 0.000000 0.000000 -0.000000 1.072747
 31 1.485305 0.000001 0.000000 0.000000 -0.000000 1.090144
time 34
  0 0.286130 -0.286130 2.759372 -0.000000 -0.000000 -1.571254
  1 0.613300 -0.007813 0.000000 -1.570795 -1.570796 0.000000
  2 -0.000005 0.000007 3.713255 -0.054704 -3.106814 6.045031
  3 18.045721 0.000000 0.000000 0.000000 -0.000000 -0.287495
  4 17.597597 0.000000 0.000000 -0.095698 -0.020848 0.047900
  5 3.793090 6.407221 0.000000 0.000000 -0.000000 1.570796
  6 0.000005 -0.000003 -3.713255 0.255666 3.078356 0.037871
  7 18.045725 0.000000 0.000000 0.000000 -0.000000 -0.214702
  8 17.597597 0.000000 0.000000 -0.017875 0.070560 0.235230
  9 3.793090 6.407221 0.000000 0.000000 -0.000000 1.570796
 10 0.935740 0.000000 0.000000 0.000000 -0.000000 0.000000
 11 0.935741 0.000000 0.000000 0.000000 -0.000000 0.000000
 12 1.293670 0.684478 -0.000001 -0.069768 0.000610 0.009520
 13 5.309685 -0.003834 0.000000 0.000000 -0.000000 -0.069778
 14 4.826790 -0.004591 0.000000 -0.078488 0.001103 0.013195
 15 5.792767 -0.005304 0.000000 0.000000 -0.000000 0.036442
 16 6.662317 -0.001453 0.000000 0.000000 -0.000001 0.471000
 17 2.046985 -0.000002 0.000000 0.158976 -0.043449 -0.195689
 18 -3.112024 1.517254 4.341911 -0.000014 -1.326411 2.669810
 19 4.827230 0.000000 0.000001 0.548537 1.088736 0.587114
 20 11.139763 0.000000 0.000000 0.000000 -0.000000 -0.681168
 21 10.314597 0.000001 0.000000 -1.570000 -0.000000 -0.069778
 22 2.975834 -0.386307 -0.044143 -0.000797 -0.043611 0.000035
 23 1.438886 0.000000 0.000000 0.000000 -0.000000 0.793659
 24 1.485303 0.000000 0.000000 0.000000 -0.000000 1.465135
 25 -2.869898 1.399663 -4.140396 -0.000013 1.329614 2.669783
 26 4.972048 0.000000 0.000001 0.110914 -1.138561 -0.273338
 27 11.585355 0.000000 0.000000 0.000000 -0.000000 -1.402629
 28 10.127057 0.000000 0.000001 1.761432 0.007905 -0.061501
 29 2.683750 -0.427338 0.044205 0.001045 0.043611 0.000046
 30 1.438885 -0.000001 0.000000 0.000000 -0.000000 1.072747
 31 1.485305 0.000001 0.000000 0.000000 -0.000000 1.090144
time 35
  0 0.274411 -0.274411 2.790623 -0.000000 -0.000000 -1.571254
  1 0.621113 -0.007813 0.000000 -1.570795 -1.570796 0.000000
  2 -0.000005 0.000007 3.713255 -0.054704 -3.106622 6.050496
  3 18.045721 0.000000 0.000000 0.000000 -0.000000 -0.276810
  4 17.597597 0.000000 0.000000 -0.095622 -0.021262 0.042913
  5 3.793090 6.407221 0.000000 0.000000 -0.000000 1.570796
  6 0.000005 -0.000003 -3.713255 0.255953 3.080657 0.045540
  7 18.045725 0.000000 0.000000 0.000000 -0.000000 -0.199199
  8 17.597597 0.000000 0.000000 -0.017941 0.070126 0.227675
  9 3.793090 6.407221 0.000000 0.000000 -0.000000 1.570796
 10 0.935740 0.000000 0.000000 0.000000 -0.000000 0.000000
 11 0.935741 0.000000 0.000000 0.000000 -0.000000 0.000000
 12 1.293670 0.684478 -0.000001 -0.069768 0.000610 0.009520
 13 5.309685 -0.003834 0.000000 0.000000 -0.000000 -0.069778
 14 4.826790 -0.004591 0.000000 -0.078488 0.000887 0.010461
 15 5.792767 -0.005304 0.000000 0.000000 -0.000000 0.032435
 16 6.662317 -0.001453 0.000000 0.000000 -0.000001 0.471000
 17 2.046985 -0.000002 0.000000 0.158976 -0.043831 -0.186565
 18 -3.112024 1.517254 4.341911 -0.000014 -1.335642 2.669810
 19 4.827230 0.000000 0.000001 0.571444 1.092906 0.608904
 20 11.139763 0.000000 0.000000 0.000000 -0.000000 -0.689788
 21 10.314597 0.000001 0.000000 -1.570000 -0.000000 -0.069778
 22 2.975834 -0.386307 -0.044143 -0.000797 -0.043611 0.000035
 23 1.438886 0.000000 0.000000 0.000000 -0.000000 0.793659
 24 1.485303 0.000000 0.000000 0.000000 -0.000000 1.465135
 25 -2.869898 1.399663 -4.140396 -0.000013 1.338178 2.669783
 26 4.972048 0.000000 0.000001 0.101090 -1.148455 -0.262996
 27 11.585355 0.000000 0.000000 0.000000 -0.000000 -1.409764
 28 10.127057 0.000000 0.000001 1.761432 0.007905 -0.061501
 29 2.683750 -0.427338 0.044205 0.001045 0.043611 0.000046
 30 1.438885 -0.000001 0.000000 0.000000 -0.000000 1.072747
 31 1.485305 0.000001 0.000000 0.000000 -0.000000 1.090144
time 36
  0 0.262692 -0.262692 2.810155 -0.000000 -0.000000 -1.571254
  1 0.640645 -0.007813 0.000000 -1.570795 -1.570796 0.000000
  2 -0.000005 0.000007 3.713255 -0.054800 -3.106238 6.055961
  3 18.045721 0.000000 0.000000 0.000000 -0.000000 -0.266570
  4 17.597597 0.000000 0.000000 -0.095622 -0.021700 0.038063
  5 3.793090 6.407221 0.000000 0.000000 -0.000000 1.570796
  6 0.000005 -0.000003 -3.713255 0.256528 3.083245 0.053210
  7 18.045725 0.000000 0.000000 0.000000 -0.000000 -0.183406
  8 17.597597 0.000000 0.000000 -0.017974 0.069771 0.220120
  9 3.793090 6.407221 0.000000 0.000000 -0.000000 1.570796
 10 0.935740 0.000000 0.000000 0.000000 -0.000000 0.000000
 11 0.935741 0.000000 0.000000 0.000000 -0.000000 0.000000
 12 1.293670 0.684478 -0.000001 -0.069768 0.000610 0.009520
 13 5.309685 -0.003834 0.000000 0.000000 -0.000000 -0.069778
 14 4.826790 -0.004591 0.000000 -0.078488 0.000635 0.007859
 15 5.792767 -0.005304 0.000000 0.000000 -0.000000 0.028760
 16 6.662317 -0.001453 0.000000 0.000000 -0.000001 0.471000
 17 2.046985 -0.000002 0.000000 0.158890 -0.044169 -0.178024
 18 -3.112024 1.517254 4.341911 -0.000014 -1.344181 2.669810
 19 4.827230 0.000000 0.000001 0.593118 1.096310 0.629557
 20 11.139763 0.000000 0.000000 0.000000 -0.000000 -0.697777
 21 10.314597 0.000001 0.000000 -1.570000 -0.000000 -0.069778
 22 2.975834 -0.386307 -0.044143 -0.000797 -0.043611 0.000035
 23 1.438886 0.000000 0.000000 0.000000 -0.000000 0.793659
 24 1.485303 0.000000 0.000000 0.000000 -0.000000 1.465135
 25 -2.869898 1.399663 -4.140396 -0.000013 1.346092 2.669783
 26 4.972048 0.000000 0.000001 0.091730 -1.157786 -0.253115
 27 11.585355 0.000000 0.000000 0.000000 -0.000000 -1.416900
 28 10.127057 0.000000 0.000001 1.761432 0.007905 -0.061501
 29 2.683750 -0.427338 0.044205 0.001045 0.043611 0.000046
 30 1.438885 -0.000001 0.000000 0.000000 -0.000000 1.072747
 31 1.485305 0.000001 0.000000 0.000000 -0.000000 1.090144
time 37
  0 0.254879 -0.254879 2.833593 -0.000000 -0.000000 -1.571254
  1 0.652364 -0.007813 0.000000 -1.570795 -1.570796 0.000000
  2 -0.000005 0.000007 3.713255 -0.054992 -3.106238 6.061330
  3 18.045721 0.000000 0.000000 0.000000 -0.000000 -0.256849
  4 17.597597 0.000000 0.000000 -0.095546 -0.022041 0.033625
  5 3.793090 6.407221 0.000000 0.000000 -0.000000 1.570796
  6 0.000005 -0.000003 -3.713255 0.257104 3.085546 0.060784
  7 18.045725 0.000000 0.000000 0.000000 -0.000000 -0.167903
  8 17.597597 0.000000 0.000000 -0.018040 0.069495 0.212531
  9 3.793090 6.407221 0.000000 0.000000 -0.000000 1.570796
 10 0.935740 0.000000 0.000000 0.000000 -0.000000 0.000000
 11 0.935741 0.000000 0.000000 0.000000 -0.000000 0.000000
 12 1.293670 0.684478 -0.000001 -0.069768 0.000610 0.009520
 13 5.309685 -0.003834 0.000000 0.000000 -0.000000 -0.069778
 14 4.826790 -0.004591 0.000000 -0.078488 0.000443 0.005522
 15 5.792767 -0.005304 0.000000 0.000000 -0.000000 0.025438
 16 6.662317 -0.001453 0.000000 0.000000 -0.000001 0.471000
 17 2.046985 -0.000002 0.000000 0.158804 -0.044507 -0.170293
 18 -3.112024 1.517254 4.341911 -0.000014 -1.352027 2.669810
 19 4.827230 0.000000 0.000001 0.613147 1.099118 0.648722
 20 11.139763 0.000000 0.000000 0.000000 -0.000000 -0.705416
 21 10.314597 0.000001 0.000000 -1.570000 -0.000000 -0.069778
 22 2.975834 -0.386307 -0.044143 -0.000797 -0.043611 0.000035
 23 1.438886 0.000000 0.000000 0.000000 -0.000000 0.793659
 24 1.485303 0.000000 0.000000 0.000000 -0.000000 1.465135
 25 -2.869898 1.399663 -4.140396 -0.000013 1.353356 2.669783
 26 4.972048 0.000000 0.000001 0.082525 -1.166152 -0.243366
 27 11.585355 0.000000 0.000000 0.000000 -0.000000 -1.422916
 28 10.127057 0.000000 0.000001 1.761432 0.007905 -0.061501
 29 2.683750 -0.427338 0.044205 0.001045 0.043611 0.000046
 30 1.438885 -0.000001 0.000000 0.000000 -0.000000 1.072747
 31 1.485305 0.000001 0.000000 0.000000 -0.000000 1.090144
time 38
  0 0.243160 -0.243160 2.853125 -0.000000 -0.000000 -1.571254
  1 0.656270 -0.007813 0.000000 -1.570795 -1.570796 0.000000
  2 -0.000005 0.000007 3.713255 -0.055376 -3.106238 6.066028
  3 18.045721 0.000000 0.000000 0.000000 -0.000000 -0.248167
  4 17.597597 0.000000 0.000000 -0.095546 -0.022333 0.029416
  5 3.793090 6.407221 0.000000 0.000000 -0.000000 1.570796
  6 0.000005 -0.000003 -3.713255 0.257295 3.087655 0.068262
  7 18.045725 0.000000 0.000000 0.000000 -0.000000 -0.153052
  8 17.597597 0.000000 0.000000 -0.018073 0.069278 0.205251
  9 3.793090 6.407221 0.000000 0.000000 -0.000000 1.570796
 10 0.935740 0.000000 0.000000 0.000000 -0.000000 0.000000
 11 0.935741 0.000000 0.000000 0.000000 -0.000000 0.000000
 12 1.293670 0.684478 -0.000001 -0.069768 0.000610 0.009520
 13 5.309685 -0.003834 0.000000 0.000000 -0.000000 -0.069778
 14 4.826790 -0.004591 0.000000 -0.078488 0.000324 0.003428
 15 5.792767 -0.005304 0.000000 0.000000 -0.000000 0.022365
 16 6.662317 -0.001453 0.000000 0.000000 -0.000001 0.471000
 17 2.046985 -0.000002 0.000000 0.158545 -0.044799 -0.163372
 18 -3.112024 1.517254 4.341911 -0.000014 -1.359181 2.669810
 19 4.827230 0.000000 0.000001 0.631649 1.101671 0.666399
 20 11.139763 0.000000 0.000000 0.000000 -0.000000 -0.711863
 21 10.314597 0.000001 0.000000 -1.570000 -0.000000 -0.069778
 22 2.975834 -0.386307 -0.044143 -0.000797 -0.043611 0.000035
 23 1.438886 0.000000 0.000000 0.000000 -0.000000 0.793659
 24 1.485303 0.000000 0.000000 0.000000 -0.000000 1.465135
 25 -2.869898 1.399663 -4.140396 -0.000013 1.359998 2.669783
 26 4.972048 0.000000 0.000001 0.073861 -1.173794 -0.234078
 27 11.585355 0.000000 0.000000 0.000000 -0.000000 -1.428793
 28 10.127057 0.000000 0.000001 1.761432 0.007905 -0.061501
 29 2.683750 -0.427338 0.044205 0.001045 0.043611 0.000046
 30 1.438885 -0.000001 0.000000 0.000000 -0.000000 1.072747
 31 1.485305 0.000001 0.000000 0.000000 -0.000000 1.090144
time 39
  0 0.243160 -0.243160 2.876563 -0.000000 -0.000000 -1.571254
  1 0.671896 -0.007813 0.000000 -1.570795 -1.570796 0.000000
  2 -0.000005 0.000007 3.713255 -0.055376 -3.106238 6.069959
  3 18.045721 0.000000 0.000000 0.000000 -0.000000 -0.240747
  4 17.597597 0.000000 0.000000 -0.095546 -0.022528 0.026076
  5 3.793090 6.407221 0.000000 0.000000 -0.000000 1.570796
  6 0.000005 -0.000003 -3.713255 0.257871 3.089381 0.075165
  7 18.045725 0.000000 0.000000 0.000000 -0.000000 -0.139215
  8 17.597597 0.000000 0.000000 -0.018106 0.069179 0.198486
  9 3.793090 6.407221 0.000000 0.000000 -0.000000 1.570796
 10 0.935740 0.000000 0.000000 0.000000 -0.000000 0.000000
 11 0.935741 0.000000 0.000000 0.000000 -0.000000 0.000000
 12 1.293670 0.684478 -0.000001 -0.069768 0.000610 0.009520
 13 5.309685 -0.003834 0.000000 0.000000 -0.000000 -0.069778
 14 4.826790 -0.004591 0.000000 -0.078488 0.000168 0.001333
 15 5.792767 -0.005304 0.000000 0.000000 -0.000000 0.019458
 16 6.662317 -0.001453 0.000000 0.000000 -0.000001 0.471000
 17 2.046985 -0.000002 0.000000 0.158459 -0.045070 -0.156764
 18 -3.112024 1.517254 4.341911 -0.000014 -1.365989 2.669810
 19 4.827230 0.000000 0.000001 0.649446 1.103884 0.683376
 20 11.139763 0.000000 0.000000 0.000000 -0.000000 -0.718521
 21 10.314597 0.000001 0.000000 -1.570000 -0.000000 -0.069778
 22 2.975834 -0.386307 -0.044143 -0.000797 -0.043611 0.000035
 23 1.438886 0.000000 0.000000 0.000000 -0.000000 0.793659
 24 1.485303 0.000000 0.000000 0.000000 -0.000000 1.465135
 25 -2.869898 1.399663 -4.140396 -0.000013 1.366301 2.669783
 26 4.972048 0.000000 0.000001 0.065352 -1.181114 -0.225251
 27 11.585355 0.000000 0.000000 0.000000 -0.000000 -1.434179
 28 10.127057 0.000000 0.000001 1.761432 0.007905 -0.061501
 29 2.683750 -0.427338 0.044205 0.001045 0.043611 0.000046
 30 1.438885 -0.000001 0.000000 0.000000 -0.000000 1.072747
 31 1.485305 0.000001 0.000000 0.000000 -0.000000 1.090144
time 40
  0 0.235347 -0.235347 2.884376 -0.000000 -0.000000 -1.571254
  1 0.675802 -0.007813 0.000000 -1.570795 -1.570796 0.000000
  2 -0.000005 0.000007 3.713255 -0.055471 -3.106622 6.073123
  3 18.045721 0.000000 0.000000 0.000000 -0.000000 -0.234885
  4 17.597597 0.000000 0.000000 -0.095546 -0.022601 0.023285
  5 3.793090 6.407221 0.000000 0.000000 -0.000000 1.570796
  6 0.000005 -0.000003 -3.713255 0.258062 3.090914 0.080726
  7 18.045725 0.000000 0.000000 0.000000 -0.000000 -0.127551
  8 17.597597 0.000000 0.000000 -0.018139 0.069140 0.192751
  9 3.793090 6.407221 0.000000 0.000000 -0.000000 1.570796
 10 0.935740 0.000000 0.000000 0.000000 -0.000000 0.000000
 11 0.935741 0.000000 0.000000 0.000000 -0.000000 0.000000
 12 1.293670 0.684478 -0.000001 -0.069768 0.000610 0.009520
 13 5.309685 -0.003834 0.000000 0.000000 -0.000000 -0.069778
 14 4.826790 -0.004591 0.000000 -0.078488 0.000060 -0.000056
 15 5.792767 -0.005304 0.000000 0.000000 -0.000000 0.017444
 16 6.662317 -0.001453 0.000000 0.000000 -0.000001 0.471000
 17 2.046985 -0.000002 0.000000 0.158459 -0.045250 -0.152224
 18 -3.112024 1.517254 4.341911 -0.000014 -1.370797 2.669810
 19 4.827230 0.000000 0.000001 0.662133 1.105671 0.695365
 20 11.139763 0.000000 0.000000 0.000000 -0.000000 -0.723146
 21 10.314597 0.000001 0.000000 -1.570000 -0.000000 -0.069778
 22 2.975834 -0.386307 -0.044143 -0.000797 -0.043611 0.000035
 23 1.438886 0.000000 0.000000 0.000000 -0.000000 0.793659
 24 1.485303 0.000000 0.000000 0.000000 -0.000000 1.465135
 25 -2.869898 1.399663 -4.140396 -0.000013 1.370795 2.669783
 26 4.972048 0.000000 0.000001 0.059241 -1.186182 -0.219059
 27 11.585355 0.000000 0.000000 0.000000 -0.000000 -1.438517
 28 10.127057 0.000000 0.000001 1.761432 0.007905 -0.061501
 29 2.683750 -0.427338 0.044205 0.001045 0.043611 0.000046
 30 1.438885 -0.000001 0.000000 0.000000 -0.000000 1.072747
 31 1.485305 0.000001 0.000000 0.000000 -0.000000 1.090144
end
