version 1
nodes
  0 "Bip01"  -1
  1 "Bip01 Pelvis"   0
  2 "Bip01 L Leg"   1
  3 "Bip01 L Leg1"   2
  4 "Bip01 L Foot"   3
  5 "Bip01 L Toe0"   4
  6 "Bip01 R Leg"   1
  7 "Bip01 R Leg1"   6
  8 "Bip01 R Foot"   7
  9 "Bip01 R Toe0"   8
 10 "Bip01 R Toe01"   9
 11 "Bip01 R Toe02"  10
 12 "Bip01 Spine"   1
 13 "Bip01 Spine1"  12
 14 "Bip01 Spine2"  13
 15 "Bip01 Spine3"  14
 16 "Bip01 Neck"  15
 17 "Bip01 Head"  16
 18 "Bip01 L Arm"  16
 19 "Bip01 L Arm1"  18
 20 "Bip01 L Arm2"  19
 21 "Bip01 L Hand"  20
 22 "Bip01 L Finger1"  21
 23 "Bip01 L Finger11"  22
 24 "Bip01 L Finger12"  23
 25 "Bip01 R Arm"  16
 26 "Bip01 R Arm1"  25
 27 "Bip01 R Arm2"  26
 28 "Bip01 R Hand"  27
 29 "Bip01 R Finger1"  28
 30 "Bip01 R Finger11"  29
 31 "Bip01 R Finger12"  30
end
skeleton
time 0
  0 -0.190447 0.190447 2.833593 -0.000000 0.000000 -1.571254
  1 0.000000 0.000000 0.000000 -1.570795 -1.570796 0.000000
  2 -0.000005 0.000007 3.713255 -6.278830 -3.100295 6.137073
  3 18.045721 0.000000 0.000000 0.000000 -0.000000 -0.339735
  4 17.597597 0.000000 0.000000 0.001570 -0.041150 0.193669
  5 3.793090 6.407221 0.000000 0.000000 -0.000000 1.570796
  6 0.000005 -0.000003 -3.713255 -0.001372 3.114978 6.135058
  7 18.045725 0.000000 0.000000 0.000000 -0.000000 -0.343074
  8 17.597597 0.000000 0.000000 -0.002574 0.026320 0.195258
  9 3.793090 6.407221 0.000000 0.000000 -0.000000 1.570796
 10 0.935740 0.000000 0.000000 0.000000 -0.000000 0.000000
 11 0.935741 0.000000 0.000000 0.000000 -0.000000 0.000000
 12 1.293670 0.684478 -0.000001 -0.000004 -0.000001 0.114185
 13 5.309685 -0.003834 0.000000 0.000000 -0.000000 -0.069778
 14 4.826790 -0.004591 0.000000 0.000000 -0.000000 -0.095944
 15 5.792767 -0.005304 0.000000 0.000000 -0.000000 0.017444
 16 6.662317 -0.001453 0.000000 0.000000 -0.000001 0.471000
 17 2.046985 -0.000002 0.000000 0.000000 -0.000000 -0.262256
 18 -3.112024 1.517254 4.341911 -0.000014 -1.370797 2.669810
 19 4.827230 0.000000 0.000001 0.083286 1.147285 0.083049
 20 11.139763 0.000000 0.000000 0.000000 -0.000000 -0.200000
 21 10.314597 0.000001 0.000000 -1.570000 -0.226744 -0.000012
 22 2.975834 -0.386307 -0.044143 -0.019829 -0.038853 0.453833
 23 1.438886 0.000000 0.000000 0.000000 -0.000000 0.924525
 24 1.485303 0.000000 0.000000 0.000000 -0.000000 1.552332
 25 -2.869898 1.399663 -4.140396 -0.000013 1.370795 2.669783
 26 4.972048 0.000000 0.000001 -0.083401 -1.147329 0.083164
 27 11.585355 0.000000 0.000000 0.000000 -0.000000 -0.871586
 28 10.127057 0.000000 0.000001 1.569752 -0.000000 -0.000035
 29 2.683750 -0.427338 0.044205 -0.009154 0.042652 -0.235638
 30 1.438885 -0.000001 0.000000 0.000000 -0.000000 0.470982
 31 1.485305 0.000001 0.000000 0.000000 -0.000000 1.508828
time 1
  0 -0.190447 0.190447 5.521175 -0.000000 0.055932 -1.571254
  1 0.539079 0.000000 0.000000 -1.570795 -1.570796 0.000000
  2 -0.000005 0.000007 3.713255 -6.271544 -3.102116 5.957112
  3 18.045721 0.000000 0.000000 0.000000 -0.000000 -0.730492
  4 17.597597 0.000000 0.000000 0.017667 -0.037085 -0.001284
  5 3.793090 6.407221 0.000000 0.000000 -0.000000 1.570796
  6 0.000005 -0.000003 -3.713255 0.000545 3.114978 6.207827
  7 18.045725 0.000000 0.000000 0.000000 -0.000000 -0.225424
  8 17.597597 0.000000 0.000000 -0.010439 0.024249 -0.158753
  9 3.793090 6.407221 0.000000 0.000000 -0.000000 1.570796
 10 0.935740 0.000000 0.000000 0.000000 -0.000000 0.000000
 11 0.935741 0.000000 0.000000 0.000000 -0.000000 0.000000
 12 1.293670 0.684478 -0.000001 -0.000004 -0.000001 0.114185
 13 5.309685 -0.003834 0.000000 0.000000 -0.000000 -0.119137
 14 4.826790 -0.004591 0.000000 0.000000 -0.000000 -0.157856
 15 5.792767 -0.005304 0.000000 0.000000 -0.000000 -0.040526
 16 6.662317 -0.001453 0.000000 0.000000 -0.000001 0.471000
 17 2.046985 -0.000002 0.000000 0.000000 -0.000000 -0.153483
 18 -3.112024 1.517254 4.341911 -0.000014 -1.370797 2.669810
 19 4.827230 0.000000 0.000001 -0.588599 0.782884 -0.690375
 20 11.139763 0.000000 0.000000 0.000000 -0.000000 -0.581655
 21 10.314597 0.000001 0.000000 -1.570000 -0.226744 -0.000012
 22 2.975834 -0.386307 -0.044143 -0.019829 -0.038853 0.453833
 23 1.438886 0.000000 0.000000 0.000000 -0.000000 0.924525
 24 1.485303 0.000000 0.000000 0.000000 -0.000000 1.552332
 25 -2.869898 1.399663 -4.140396 -0.000013 1.370795 2.669783
 26 4.972048 0.000000 0.000001 0.609233 -0.800387 -0.660273
 27 11.585355 0.000000 0.000000 0.000000 -0.000000 -1.021644
 28 10.127057 0.000000 0.000001 1.569752 -0.000000 -0.000035
 29 2.683750 -0.427338 0.044205 -0.009154 0.042652 -0.235638
 30 1.438885 -0.000001 0.000000 0.000000 -0.000000 0.470982
 31 1.485305 0.000001 0.000000 0.000000 -0.000000 1.508828
time 2
  0 -0.190447 0.190447 8.962687 -0.000000 0.121823 -1.571254
  1 1.058626 0.000000 0.000000 -1.570795 -1.570796 0.000000
  2 -0.000005 0.000007 3.713255 -6.264065 -3.105184 5.764400
  3 18.045721 0.000000 0.000000 0.000000 -0.000000 -1.133790
  4 17.597597 0.000000 0.000000 0.031001 -0.026812 -0.202505
  5 3.793090 6.407221 0.000000 0.000000 -0.000000 1.570796
  6 0.000005 -0.000003 -3.713255 0.002367 3.115073 -0.006903
  7 18.045725 0.000000 0.000000 0.000000 -0.000000 -0.112627
  8 17.597597 0.000000 0.000000 -0.017413 0.019772 -0.517434
  9 3.793090 6.407221 0.000000 0.000000 -0.000000 1.570796
 10 0.935740 0.000000 0.000000 0.000000 -0.000000 0.000000
 11 0.935741 0.000000 0.000000 0.000000 -0.000000 0.000000
 12 1.293670 0.684478 -0.000001 -0.000004 -0.000001 0.114185
 13 5.309685 -0.003834 0.000000 0.000000 -0.000000 -0.166921
 14 4.826790 -0.004591 0.000000 0.000000 -0.000000 -0.217981
 15 5.792767 -0.005304 0.000000 0.000000 -0.000000 -0.097229
 16 6.662317 -0.001453 0.000000 0.000000 -0.000001 0.471000
 17 2.046985 -0.000002 0.000000 0.000000 -0.000000 -0.048575
 18 -3.112024 1.517254 4.341911 -0.000014 -1.370797 2.669810
 19 4.827230 0.000000 0.000001 -0.769507 0.302235 -1.029481
 20 11.139763 0.000000 0.000000 0.000000 -0.000000 -0.964501
 21 10.314597 0.000001 0.000000 -1.570000 -0.226744 -0.000012
 22 2.975834 -0.386307 -0.044143 -0.019829 -0.038853 0.453833
 23 1.438886 0.000000 0.000000 0.000000 -0.000000 0.924525
 24 1.485303 0.000000 0.000000 0.000000 -0.000000 1.552332
 25 -2.869898 1.399663 -4.140396 -0.000013 1.370795 2.669783
 26 4.972048 0.000000 0.000001 0.821340 -0.327072 -0.971191
 27 11.585355 0.000000 0.000000 0.000000 -0.000000 -1.168833
 28 10.127057 0.000000 0.000001 1.569752 -0.000000 -0.000035
 29 2.683750 -0.427338 0.044205 -0.009154 0.042652 -0.235638
 30 1.438885 -0.000001 0.000000 0.000000 -0.000000 0.470982
 31 1.485305 0.000001 0.000000 0.000000 -0.000000 1.508828
time 3
  0 -0.190447 0.190447 12.212786 -0.000000 0.185224 -1.571254
  1 1.289102 0.000000 0.000000 -1.570795 -1.570796 0.000000
  2 -0.000005 0.000007 3.713255 -6.257738 -3.109114 5.578207
  3 18.045721 0.000000 0.000000 0.000000 -0.000000 -1.447525
  4 17.597597 0.000000 0.000000 0.037212 -0.017002 -0.359437
  5 3.793090 6.407221 0.000000 0.000000 -0.000000 1.570796
  6 0.000005 -0.000003 -3.713255 0.002846 3.115457 0.011505
  7 18.045725 0.000000 0.000000 0.000000 -0.000000 -0.067494
  8 17.597597 0.000000 0.000000 -0.021238 0.015531 -0.761660
  9 3.793090 6.407221 0.000000 0.000000 -0.000000 1.570796
 10 0.935740 0.000000 0.000000 0.000000 -0.000000 0.000000
 11 0.935741 0.000000 0.000000 0.000000 -0.000000 0.000000
 12 1.293670 0.684478 -0.000001 -0.000004 -0.000001 0.114185
 13 5.309685 -0.003834 0.000000 0.000000 -0.000000 -0.187744
 14 4.826790 -0.004591 0.000000 0.000000 -0.000000 -0.245696
 15 5.792767 -0.005304 0.000000 0.000000 -0.000000 -0.124740
 16 6.662317 -0.001453 0.000000 0.000000 -0.000001 0.471000
 17 2.046985 -0.000002 0.000000 0.000000 -0.000000 -0.006055
 18 -3.112024 1.517254 4.341911 -0.000014 -1.370797 2.669810
 19 4.827230 0.000000 0.000001 -0.818728 -0.147267 -1.262786
 20 11.139763 0.000000 0.000000 0.000000 -0.000000 -1.272432
 21 10.314597 0.000001 0.000000 -1.570000 -0.226744 -0.000012
 22 2.975834 -0.386307 -0.044143 -0.019829 -0.038853 0.453833
 23 1.438886 0.000000 0.000000 0.000000 -0.000000 0.924525
 24 1.485303 0.000000 0.000000 0.000000 -0.000000 1.552332
 25 -2.869898 1.399663 -4.140396 -0.000013 1.370795 2.669783
 26 4.972048 0.000000 0.000001 0.891578 0.022605 -1.139100
 27 11.585355 0.000000 0.000000 0.000000 -0.000000 -1.241798
 28 10.127057 0.000000 0.000001 1.569752 -0.000000 -0.000035
 29 2.683750 -0.427338 0.044205 -0.009166 0.042652 -0.235638
 30 1.438885 -0.000001 0.000000 0.000000 -0.000000 0.470982
 31 1.485305 0.000001 0.000000 0.000000 -0.000000 1.508828
time 4
  0 -0.190447 0.190447 14.962870 -0.000000 0.240889 -1.571254
  1 1.191443 0.000000 0.000000 -1.570795 -1.570796 0.000000
  2 -0.000005 0.000007 3.713255 -6.251889 -3.114963 5.381852
  3 18.045721 0.000000 0.000000 0.000000 -0.000000 -1.680079
  4 17.597597 0.000000 0.000000 0.039316 -0.011111 -0.476747
  5 3.793090 6.407221 0.000000 0.000000 -0.000000 1.570796
  6 0.000005 -0.000003 -3.713255 0.001984 3.115073 6.252696
  7 18.045725 0.000000 0.000000 0.000000 -0.000000 -0.103282
  8 17.597597 0.000000 0.000000 -0.022920 0.012849 -0.886726
  9 3.793090 6.407221 0.000000 0.000000 -0.000000 1.570796
 10 0.935740 0.000000 0.000000 0.000000 -0.000000 0.000000
 11 0.935741 0.000000 0.000000 0.000000 -0.000000 0.000000
 12 1.293670 0.684478 -0.000001 -0.000004 -0.000001 0.114185
 13 5.309685 -0.003834 0.000000 0.000000 -0.000000 -0.176862
 14 4.826790 -0.004591 0.000000 0.000000 -0.000000 -0.235223
 15 5.792767 -0.005304 0.000000 0.000000 -0.000000 -0.118428
 16 6.662317 -0.001453 0.000000 0.000000 -0.000001 0.471000
 17 2.046985 -0.000002 0.000000 0.000000 -0.000000 -0.037113
 18 -3.112024 1.517254 4.341911 -0.000014 -1.370797 2.669810
 19 4.827230 0.000000 0.000001 -0.844513 -0.282322 -1.343734
 20 11.139763 0.000000 0.000000 0.000000 -0.000000 -1.298992
 21 10.314597 0.000001 0.000000 -1.570000 -0.226744 -0.000012
 22 2.975834 -0.386307 -0.044143 -0.019829 -0.038853 0.453833
 23 1.438886 0.000000 0.000000 0.000000 -0.000000 0.924525
 24 1.485303 0.000000 0.000000 0.000000 -0.000000 1.552332
 25 -2.869898 1.399663 -4.140396 -0.000013 1.370795 2.669783
 26 4.972048 0.000000 0.000001 0.933040 0.238267 -1.232705
 27 11.585355 0.000000 0.000000 0.000000 -0.000000 -1.229206
 28 10.127057 0.000000 0.000001 1.569752 -0.000000 -0.000035
 29 2.683750 -0.427338 0.044205 -0.009154 0.042652 -0.235638
 30 1.438885 -0.000001 0.000000 0.000000 -0.000000 0.470982
 31 1.485305 0.000001 0.000000 0.000000 -0.000000 1.508828
time 5
  0 -0.190447 0.190447 17.087934 -0.000000 0.288728 -1.571254
  1 0.640645 0.000000 0.000000 -1.570795 -1.570796 0.000000
  2 -0.000005 0.000007 3.713255 -6.246425 3.158798 5.115794
  3 18.045721 0.000000 0.000000 0.000000 -0.000000 -1.869374
  4 17.597597 0.000000 0.000000 0.039392 -0.009967 -0.583351
  5 3.793090 6.407221 0.000000 0.000000 -0.000000 1.570796
  6 0.000005 -0.000003 -3.713255 -0.000893 3.115073 6.147139
  7 18.045725 0.000000 0.000000 0.000000 -0.000000 -0.227670
  8 17.597597 0.000000 0.000000 -0.023135 0.012494 -0.884082
  9 3.793090 6.407221 0.000000 0.000000 -0.000000 1.570796
 10 0.935740 0.000000 0.000000 0.000000 -0.000000 0.000000
 11 0.935741 0.000000 0.000000 0.000000 -0.000000 0.000000
 12 1.293670 0.684478 -0.000001 -0.000004 -0.000001 0.114185
 13 5.309685 -0.003834 0.000000 0.000000 -0.000000 -0.122233
 14 4.826790 -0.004591 0.000000 0.000000 -0.000000 -0.173069
 15 5.792767 -0.005304 0.000000 0.000000 -0.000000 -0.067455
 16 6.662317 -0.001453 0.000000 0.000000 -0.000001 0.471000
 17 2.046985 -0.000002 0.000000 0.000000 -0.000000 -0.165080
 18 -3.112024 1.517254 4.341911 -0.000014 -1.370797 2.669810
 19 4.827230 0.000000 0.000001 -0.949475 -0.167521 -1.316868
 20 11.139763 0.000000 0.000000 0.000000 -0.000000 -1.061982
 21 10.314597 0.000001 0.000000 -1.570000 -0.226744 -0.000012
 22 2.975834 -0.386307 -0.044143 -0.019829 -0.038853 0.453833
 23 1.438886 0.000000 0.000000 0.000000 -0.000000 0.924525
 24 1.485303 0.000000 0.000000 0.000000 -0.000000 1.552332
 25 -2.869898 1.399663 -4.140396 -0.000013 1.370795 2.669783
 26 4.972048 0.000000 0.000001 1.013102 0.310825 -1.267354
 27 11.585355 0.000000 0.000000 0.000000 -0.000000 -1.094189
 28 10.127057 0.000000 0.000001 1.569752 -0.000000 -0.000035
 29 2.683750 -0.427338 0.044205 -0.009154 0.042652 -0.235638
 30 1.438885 -0.000001 0.000000 0.000000 -0.000000 0.470982
 31 1.485305 0.000001 0.000000 0.000000 -0.000000 1.508828
time 6
  0 -0.190447 0.190447 18.681732 -0.000000 0.331411 -1.571254
  1 -0.230476 0.000000 0.000000 -1.570795 -1.570796 0.000000
  2 -0.000005 0.000007 3.713255 -6.243165 3.145952 4.797100
  3 18.045721 0.000000 0.000000 0.000000 -0.000000 -2.037446
  4 17.597597 0.000000 0.000000 0.038505 -0.011963 -0.688994
  5 3.793090 6.407221 0.000000 0.000000 -0.000000 1.570796
  6 0.000005 -0.000003 -3.713255 6.278552 3.115649 6.011861
  7 18.045725 0.000000 0.000000 0.000000 -0.000000 -0.397263
  8 17.597597 0.000000 0.000000 -0.022558 0.013460 -0.807538
  9 3.793090 6.407221 0.000000 0.000000 -0.000000 1.570796
 10 0.935740 0.000000 0.000000 0.000000 -0.000000 0.000000
 11 0.935741 0.000000 0.000000 0.000000 -0.000000 0.000000
 12 1.293670 0.684478 -0.000001 -0.000004 -0.000001 0.114185
 13 5.309685 -0.003834 0.000000 0.000000 -0.000000 -0.038707
 14 4.826790 -0.004591 0.000000 0.000000 -0.000000 -0.076762
 15 5.792767 -0.005304 0.000000 0.000000 -0.000000 0.012772
 16 6.662317 -0.001453 0.000000 0.000000 -0.000001 0.471000
 17 2.046985 -0.000002 0.000000 0.000000 -0.000000 -0.355523
 18 -3.112024 1.517254 4.341911 -0.000014 -1.370797 2.669810
 19 4.827230 0.000000 0.000001 -1.068651 -0.115950 -1.334195
 20 11.139763 0.000000 0.000000 0.000000 -0.000000 -0.813689
 21 10.314597 0.000001 0.000000 -1.570000 -0.226744 -0.000012
 22 2.975834 -0.386307 -0.044143 -0.019829 -0.038853 0.453833
 23 1.438886 0.000000 0.000000 0.000000 -0.000000 0.924525
 24 1.485303 0.000000 0.000000 0.000000 -0.000000 1.552332
 25 -2.869898 1.399663 -4.140396 -0.000013 1.370795 2.669783
 26 4.972048 0.000000 0.000001 1.119542 0.286934 -1.295218
 27 11.585355 0.000000 0.000000 0.000000 -0.000000 -0.876553
 28 10.127057 0.000000 0.000001 1.569752 -0.000000 -0.000035
 29 2.683750 -0.427338 0.044205 -0.009154 0.042652 -0.235638
 30 1.438885 -0.000001 0.000000 0.000000 -0.000000 0.470982
 31 1.485305 0.000001 0.000000 0.000000 -0.000000 1.508828
time 7
  0 -0.190447 0.190447 19.888802 -0.000000 0.369914 -1.571254
  1 -1.183630 0.000000 0.000000 -1.570795 -1.570796 0.000000
  2 -0.000005 0.000007 3.713255 -3.102148 0.008256 1.349277
  3 18.045721 0.000000 0.000000 0.000000 -0.000000 -2.168341
  4 17.597597 0.000000 0.000000 0.037009 -0.015712 -0.772859
  5 3.793090 6.407221 0.000000 0.000000 -0.000000 1.570796
  6 0.000005 -0.000003 -3.713255 6.274621 3.116512 5.859230
  7 18.045725 0.000000 0.000000 0.000000 -0.000000 -0.588879
  8 17.597597 0.000000 0.000000 -0.021552 0.015038 -0.697822
  9 3.793090 6.407221 0.000000 0.000000 -0.000000 1.570796
 10 0.935740 0.000000 0.000000 0.000000 -0.000000 0.000000
 11 0.935741 0.000000 0.000000 0.000000 -0.000000 0.000000
 12 1.293670 0.684478 -0.000001 -0.000004 -0.000001 0.114185
 13 5.309685 -0.003834 0.000000 0.000000 -0.000000 0.052461
 14 4.826790 -0.004591 0.000000 0.000000 -0.000000 0.028982
 15 5.792767 -0.005304 0.000000 0.000000 -0.000000 0.101679
 16 6.662317 -0.001453 0.000000 0.000000 -0.000001 0.471000
 17 2.046985 -0.000002 0.000000 0.000000 -0.000000 -0.565563
 18 -3.112024 1.517254 4.341911 -0.000014 -1.370797 2.669810
 19 4.827230 0.000000 0.000001 -1.175375 -0.109057 -1.392740
 20 11.139763 0.000000 0.000000 0.000000 -0.000000 -0.581795
 21 10.314597 0.000001 0.000000 -1.570000 -0.226744 -0.000012
 22 2.975834 -0.386307 -0.044143 -0.019829 -0.038853 0.453833
 23 1.438886 0.000000 0.000000 0.000000 -0.000000 0.924525
 24 1.485303 0.000000 0.000000 0.000000 -0.000000 1.552332
 25 -2.869898 1.399663 -4.140396 -0.000013 1.370795 2.669783
 26 4.972048 0.000000 0.000001 1.203704 0.221294 -1.344095
 27 11.585355 0.000000 0.000000 0.000000 -0.000000 -0.640309
 28 10.127057 0.000000 0.000001 1.569752 -0.000000 -0.000035
 29 2.683750 -0.427338 0.044205 -0.009154 0.042652 -0.235638
 30 1.438885 -0.000001 0.000000 0.000000 -0.000000 0.470982
 31 1.485305 0.000001 0.000000 0.000000 -0.000000 1.508828
time 8
  0 -0.190447 0.190447 20.779453 -0.000000 0.406194 -1.571254
  1 -2.019593 0.000000 0.000000 -1.570795 -1.570796 0.000000
  2 -0.000005 0.000007 3.713255 -3.105600 0.017747 1.100286
  3 18.045721 0.000000 0.000000 0.000000 -0.000000 -2.252563
  4 17.597597 0.000000 0.000000 0.034956 -0.020045 -0.821357
  5 3.793090 6.407221 0.000000 0.000000 -0.000000 1.570796
  6 0.000005 -0.000003 -3.713255 6.270786 3.118429 5.692985
  7 18.045725 0.000000 0.000000 0.000000 -0.000000 -0.793825
  8 17.597597 0.000000 0.000000 -0.020266 0.016774 -0.576121
  9 3.793090 6.407221 0.000000 0.000000 -0.000000 1.570796
 10 0.935740 0.000000 0.000000 0.000000 -0.000000 0.000000
 11 0.935741 0.000000 0.000000 0.000000 -0.000000 0.000000
 12 1.293670 0.684478 -0.000001 -0.000004 -0.000001 0.114185
 13 5.309685 -0.003834 0.000000 0.000000 -0.000000 0.136024
 14 4.826790 -0.004591 0.000000 0.000000 -0.000000 0.126148
 15 5.792767 -0.005304 0.000000 0.000000 -0.000000 0.184481
 16 6.662317 -0.001453 0.000000 0.000000 -0.000001 0.471000
 17 2.046985 -0.000002 0.000000 0.000000 -0.000000 -0.764862
 18 -3.112024 1.517254 4.341911 -0.000014 -1.370797 2.669810
 19 4.827230 0.000000 0.000001 -1.251321 -0.117652 -1.470625
 20 11.139763 0.000000 0.000000 0.000000 -0.000000 -0.376461
 21 10.314597 0.000001 0.000000 -1.570000 -0.226744 -0.000012
 22 2.975834 -0.386307 -0.044143 -0.019829 -0.038853 0.453833
 23 1.438886 0.000000 0.000000 0.000000 -0.000000 0.924525
 24 1.485303 0.000000 0.000000 0.000000 -0.000000 1.552332
 25 -2.869898 1.399663 -4.140396 -0.000013 1.370795 2.669783
 26 4.972048 0.000000 0.000001 1.246868 0.152919 -1.398308
 27 11.585355 0.000000 0.000000 0.000000 -0.000000 -0.431138
 28 10.127057 0.000000 0.000001 1.569752 -0.000000 -0.000035
 29 2.683750 -0.427338 0.044205 -0.009154 0.042652 -0.235638
 30 1.438885 -0.000001 0.000000 0.000000 -0.000000 0.470982
 31 1.485305 0.000001 0.000000 0.000000 -0.000000 1.508828
time 9
  0 -0.190447 0.190447 21.365408 -0.000000 0.440429 -1.571254
  1 -2.632893 0.000000 0.000000 -1.570795 -1.570796 0.000000
  2 -0.000005 0.000007 3.713255 -3.108668 0.023595 0.935761
  3 18.045721 0.000000 0.000000 0.000000 -0.000000 -2.285732
  4 17.597597 0.000000 0.000000 0.032522 -0.024183 -0.827305
  5 3.793090 6.407221 0.000000 0.000000 -0.000000 1.570796
  6 0.000005 -0.000003 -3.713255 6.266663 3.120826 5.512262
  7 18.045725 0.000000 0.000000 0.000000 -0.000000 -1.008986
  8 17.597597 0.000000 0.000000 -0.018782 0.018391 -0.458335
  9 3.793090 6.407221 0.000000 0.000000 -0.000000 1.570796
 10 0.935740 0.000000 0.000000 0.000000 -0.000000 0.000000
 11 0.935741 0.000000 0.000000 0.000000 -0.000000 0.000000
 12 1.293670 0.684478 -0.000001 -0.000004 -0.000001 0.114185
 13 5.309685 -0.003834 0.000000 0.000000 -0.000000 0.201860
 14 4.826790 -0.004591 0.000000 0.000000 -0.000000 0.203141
 15 5.792767 -0.005304 0.000000 0.000000 -0.000000 0.251399
 16 6.662317 -0.001453 0.000000 0.000000 -0.000001 0.471000
 17 2.046985 -0.000002 0.000000 0.000000 -0.000000 -0.932112
 18 -3.112024 1.517254 4.341911 -0.000014 -1.370797 2.669810
 19 4.827230 0.000000 0.000001 -1.286504 -0.130417 -1.534683
 20 11.139763 0.000000 0.000000 0.000000 -0.000000 -0.219903
 21 10.314597 0.000001 0.000000 -1.570000 -0.226744 -0.000012
 22 2.975834 -0.386307 -0.044143 -0.019829 -0.038853 0.453833
 23 1.438886 0.000000 0.000000 0.000000 -0.000000 0.924525
 24 1.485303 0.000000 0.000000 0.000000 -0.000000 1.552332
 25 -2.869898 1.399663 -4.140396 -0.000013 1.370795 2.669783
 26 4.972048 0.000000 0.000001 1.253443 0.105781 -1.428807
 27 11.585355 0.000000 0.000000 0.000000 -0.000000 -0.278632
 28 10.127057 0.000000 0.000001 1.569752 -0.000000 -0.000035
 29 2.683750 -0.427338 0.044205 -0.009154 0.042652 -0.235638
 30 1.438885 -0.000001 0.000000 0.000000 -0.000000 0.470982
 31 1.485305 0.000001 0.000000 0.000000 -0.000000 1.508828
time 10
  0 -0.190447 0.190447 21.400566 -0.000000 0.470929 -1.571254
  1 -3.003998 0.000000 0.000000 -1.570795 -1.570796 0.000000
  2 -0.000005 0.000007 3.713255 -3.109530 0.025225 0.870469
  3 18.045721 0.000000 0.000000 0.000000 -0.000000 -2.268145
  4 17.597597 0.000000 0.000000 0.029987 -0.027737 -0.788415
  5 3.793090 6.407221 0.000000 0.000000 -0.000000 1.570796
  6 0.000005 -0.000003 -3.713255 6.263116 -3.158508 5.316201
  7 18.045725 0.000000 0.000000 0.000000 -0.000000 -1.228638
  8 17.597597 0.000000 0.000000 -0.017479 0.019614 -0.366132
  9 3.793090 6.407221 0.000000 0.000000 -0.000000 1.570796
 10 0.935740 0.000000 0.000000 0.000000 -0.000000 0.000000
 11 0.935741 0.000000 0.000000 0.000000 -0.000000 0.000000
 12 1.293670 0.684478 -0.000001 -0.000004 -0.000001 0.114185
 13 5.309685 -0.003834 0.000000 0.000000 -0.000000 0.244176
 14 4.826790 -0.004591 0.000000 0.000000 -0.000000 0.252926
 15 5.792767 -0.005304 0.000000 0.000000 -0.000000 0.296517
 16 6.662317 -0.001453 0.000000 0.000000 -0.000001 0.471000
 17 2.046985 -0.000002 0.000000 0.000000 -0.000000 -1.055089
 18 -3.112024 1.517254 4.341911 -0.000014 -1.370797 2.669810
 19 4.827230 0.000000 0.000001 -1.231292 -0.193647 -1.453998
 20 11.139763 0.000000 0.000000 0.000000 -0.000000 -0.200000
 21 10.314597 0.000001 0.000000 -1.570000 -0.226744 -0.000012
 22 2.975834 -0.386307 -0.044143 -0.019829 -0.038853 0.453833
 23 1.438886 0.000000 0.000000 0.000000 -0.000000 0.924525
 24 1.485303 0.000000 0.000000 0.000000 -0.000000 1.552332
 25 -2.869898 1.399663 -4.140396 -0.000013 1.370795 2.669783
 26 4.972048 0.000000 0.000001 1.236193 0.094841 -1.418992
 27 11.585355 0.000000 0.000000 0.000000 -0.000000 -0.200000
 28 10.127057 0.000000 0.000001 1.569752 -0.000000 -0.000035
 29 2.683750 -0.427338 0.044205 -0.009154 0.042652 -0.235638
 30 1.438885 -0.000001 0.000000 0.000000 -0.000000 0.470982
 31 1.485305 0.000001 0.000000 0.000000 -0.000000 1.508828
time 11
  0 -0.190447 0.190447 20.525539 -0.000000 0.491470 -1.571254
  1 -3.246193 0.000000 0.000000 -1.570795 -1.570796 0.000000
  2 -0.000005 0.000007 3.713255 -3.107996 0.023787 0.901150
  3 18.045721 0.000000 0.000000 0.000000 -0.000000 -2.195129
  4 17.597597 0.000000 0.000000 0.027275 -0.031048 -0.706426
  5 3.793090 6.407221 0.000000 0.000000 -0.000000 1.570796
  6 0.000005 -0.000003 -3.713255 6.259377 -3.152659 5.063478
  7 18.045725 0.000000 0.000000 0.000000 -0.000000 -1.492699
  8 17.597597 0.000000 0.000000 -0.016490 0.020344 -0.311188
  9 3.793090 6.407221 0.000000 0.000000 -0.000000 1.570796
 10 0.935740 0.000000 0.000000 0.000000 -0.000000 0.000000
 11 0.935741 0.000000 0.000000 0.000000 -0.000000 0.000000
 12 1.293670 0.684478 -0.000001 -0.000004 -0.000001 0.123326
 13 5.309685 -0.003834 0.000000 0.000000 -0.000000 0.265469
 14 4.826790 -0.004591 0.000000 0.000000 -0.000000 0.278524
 15 5.792767 -0.005304 0.000000 0.000000 -0.000000 0.322408
 16 6.662317 -0.001453 0.000000 0.000000 -0.000001 0.471000
 17 2.046985 -0.000002 0.000000 0.000000 -0.000000 -1.148310
 18 -3.112024 1.517254 4.341911 -0.000014 -1.370797 2.669810
 19 4.827230 0.000000 0.000001 -1.177842 -0.293385 -1.326319
 20 11.139763 0.000000 0.000000 0.000000 -0.000000 -0.254382
 21 10.314597 0.000001 0.000000 -1.570000 -0.226744 -0.000012
 22 2.975834 -0.386307 -0.044143 -0.019829 -0.038853 0.453833
 23 1.438886 0.000000 0.000000 0.000000 -0.000000 0.924525
 24 1.485303 0.000000 0.000000 0.000000 -0.000000 1.552332
 25 -2.869898 1.399663 -4.140396 -0.000013 1.370795 2.669783
 26 4.972048 0.000000 0.000001 1.207340 0.118973 -1.369127
 27 11.585355 0.000000 0.000000 0.000000 -0.000000 -0.186918
 28 10.127057 0.000000 0.000001 1.569752 -0.000000 -0.000035
 29 2.683750 -0.427338 0.044205 -0.009154 0.042652 -0.235638
 30 1.438885 -0.000001 0.000000 0.000000 -0.000000 0.470982
 31 1.485305 0.000001 0.000000 0.000000 -0.000000 1.508828
time 12
  0 -0.190447 0.190447 19.080183 -0.000000 0.503919 -1.571254
  1 -3.425886 0.000000 0.000000 -1.570795 -1.570796 0.000000
  2 -0.000005 0.000007 3.713255 -3.104928 0.020623 0.981302
  3 18.045721 0.000000 0.000000 0.000000 -0.000000 -2.090798
  4 17.597597 0.000000 0.000000 0.024182 -0.034188 -0.604489
  5 3.793090 6.407221 0.000000 0.000000 -0.000000 1.570796
  6 0.000005 -0.000003 -3.713255 6.257172 -3.144607 4.743739
  7 18.045725 0.000000 0.000000 0.000000 -0.000000 -1.816889
  8 17.597597 0.000000 0.000000 -0.015616 0.020758 -0.275200
  9 3.793090 6.407221 0.000000 0.000000 -0.000000 1.570796
 10 0.935740 0.000000 0.000000 0.000000 -0.000000 0.000000
 11 0.935741 0.000000 0.000000 0.000000 -0.000000 0.000000
 12 1.293670 0.684478 -0.000001 -0.000004 -0.000001 0.133605
 13 5.309685 -0.003834 0.000000 0.000000 -0.000000 0.275989
 14 4.826790 -0.004591 0.000000 0.000000 -0.000000 0.291753
 15 5.792767 -0.005304 0.000000 0.000000 -0.000000 0.338250
 16 6.662317 -0.001453 0.000000 0.000000 -0.000001 0.471000
 17 2.046985 -0.000002 0.000000 0.000000 -0.000000 -1.221620
 18 -3.112024 1.517254 4.341911 -0.000014 -1.370797 2.669810
 19 4.827230 0.000000 0.000001 -1.139487 -0.372784 -1.189539
 20 11.139763 0.000000 0.000000 0.000000 -0.000000 -0.312408
 21 10.314597 0.000001 0.000000 -1.570000 -0.226744 -0.000012
 22 2.975834 -0.386307 -0.044143 -0.019829 -0.038853 0.453833
 23 1.438886 0.000000 0.000000 0.000000 -0.000000 0.924525
 24 1.485303 0.000000 0.000000 0.000000 -0.000000 1.552332
 25 -2.869898 1.399663 -4.140396 -0.000013 1.370795 2.669783
 26 4.972048 0.000000 0.000001 1.177094 0.150667 -1.297853
 27 11.585355 0.000000 0.000000 0.000000 -0.000000 -0.205037
 28 10.127057 0.000000 0.000001 1.569752 -0.000000 -0.000035
 29 2.683750 -0.427338 0.044205 -0.009154 0.042652 -0.235638
 30 1.438885 -0.000001 0.000000 0.000000 -0.000000 0.470982
 31 1.485305 0.000001 0.000000 0.000000 -0.000000 1.508828
time 13
  0 -0.190447 0.190447 17.212938 -0.000000 0.511566 -1.571254
  1 -3.543077 0.000000 0.000000 -1.570795 -1.570796 0.000000
  2 -0.000005 0.000007 3.713255 -3.102148 0.016213 1.081685
  3 18.045721 0.000000 0.000000 0.000000 -0.000000 -1.976301
  4 17.597597 0.000000 0.000000 0.020912 -0.037085 -0.496924
  5 3.793090 6.407221 0.000000 0.000000 -0.000000 1.570796
  6 0.000005 -0.000003 -3.713255 3.116251 -0.005947 1.270807
  7 18.045725 0.000000 0.000000 0.000000 -0.000000 -2.144484
  8 17.597597 0.000000 0.000000 -0.014676 0.021330 -0.245702
  9 3.793090 6.407221 0.000000 0.000000 -0.000000 1.570796
 10 0.935740 0.000000 0.000000 0.000000 -0.000000 0.000000
 11 0.935741 0.000000 0.000000 0.000000 -0.000000 0.000000
 12 1.293670 0.684478 -0.000001 -0.000004 -0.000001 0.144051
 13 5.309685 -0.003834 0.000000 0.000000 -0.000000 0.280914
 14 4.826790 -0.004591 0.000000 0.000000 -0.000000 0.298522
 15 5.792767 -0.005304 0.000000 0.000000 -0.000000 0.348673
 16 6.662317 -0.001453 0.000000 0.000000 -0.000001 0.471000
 17 2.046985 -0.000002 0.000000 0.000000 -0.000000 -1.281985
 18 -3.112024 1.517254 4.341911 -0.000014 -1.370797 2.669810
 19 4.827230 0.000000 0.000001 -1.112292 -0.437801 -1.050046
 20 11.139763 0.000000 0.000000 0.000000 -0.000000 -0.369313
 21 10.314597 0.000001 0.000000 -1.570000 -0.226744 -0.000012
 22 2.975834 -0.386307 -0.044143 -0.019829 -0.038853 0.453833
 23 1.438886 0.000000 0.000000 0.000000 -0.000000 0.924525
 24 1.485303 0.000000 0.000000 0.000000 -0.000000 1.552332
 25 -2.869898 1.399663 -4.140396 -0.000013 1.370795 2.669783
 26 4.972048 0.000000 0.000001 1.150484 0.186302 -1.219728
 27 11.585355 0.000000 0.000000 0.000000 -0.000000 -0.237427
 28 10.127057 0.000000 0.000001 1.569752 -0.000000 -0.000035
 29 2.683750 -0.427338 0.044205 -0.009154 0.042652 -0.235638
 30 1.438885 -0.000001 0.000000 0.000000 -0.000000 0.470982
 31 1.485305 0.000001 0.000000 0.000000 -0.000000 1.508828
time 14
  0 -0.190447 0.190447 14.966776 -0.000000 0.515212 -1.571254
  1 -3.656362 0.000000 0.000000 -1.570795 -1.570796 0.000000
  2 -0.000005 0.000007 3.713255 -3.099751 0.011228 1.195491
  3 18.045721 0.000000 0.000000 0.000000 -0.000000 -1.854162
  4 17.597597 0.000000 0.000000 0.017236 -0.039811 -0.383869
  5 3.793090 6.407221 0.000000 0.000000 -0.000000 1.570796
  6 0.000005 -0.000003 -3.713255 3.118840 -0.012657 0.997183
  7 18.045725 0.000000 0.000000 0.000000 -0.000000 -2.403474
  8 17.597597 0.000000 0.000000 -0.013571 0.022178 -0.207413
  9 3.793090 6.407221 0.000000 0.000000 -0.000000 1.570796
 10 0.935740 0.000000 0.000000 0.000000 -0.000000 0.000000
 11 0.935741 0.000000 0.000000 0.000000 -0.000000 0.000000
 12 1.293670 0.684478 -0.000001 -0.000004 -0.000001 0.154782
 13 5.309685 -0.003834 0.000000 0.000000 -0.000000 0.282671
 14 4.826790 -0.004591 0.000000 0.000000 -0.000000 0.301609
 15 5.792767 -0.005304 0.000000 0.000000 -0.000000 0.356106
 16 6.662317 -0.001453 0.000000 0.000000 -0.000001 0.471000
 17 2.046985 -0.000002 0.000000 0.000000 -0.000000 -1.336057
 18 -3.112024 1.517254 4.341911 -0.000014 -1.370797 2.669810
 19 4.827230 0.000000 0.000001 -1.094495 -0.493712 -0.911516
 20 11.139763 0.000000 0.000000 0.000000 -0.000000 -0.423625
 21 10.314597 0.000001 0.000000 -1.570000 -0.226744 -0.000012
 22 2.975834 -0.386307 -0.044143 -0.019829 -0.038853 0.453833
 23 1.438886 0.000000 0.000000 0.000000 -0.000000 0.924525
 24 1.485303 0.000000 0.000000 0.000000 -0.000000 1.552332
 25 -2.869898 1.399663 -4.140396 -0.000013 1.370795 2.669783
 26 4.972048 0.000000 0.000001 1.127123 0.225879 -1.135609
 27 11.585355 0.000000 0.000000 0.000000 -0.000000 -0.278632
 28 10.127057 0.000000 0.000001 1.569752 -0.000000 -0.000035
 29 2.683750 -0.427338 0.044205 -0.009154 0.042652 -0.235638
 30 1.438885 -0.000001 0.000000 0.000000 -0.000000 0.470982
 31 1.485305 0.000001 0.000000 0.000000 -0.000000 1.508828
time 15
  0 -0.190447 0.190447 12.212786 -0.000000 0.516368 -1.571254
  1 -3.742302 0.000000 0.000000 -1.570795 -1.570796 0.000000
  2 -0.000005 0.000007 3.713255 -3.097450 0.005284 1.327417
  3 18.045721 0.000000 0.000000 0.000000 -0.000000 -1.718443
  4 17.597597 0.000000 0.000000 0.012876 -0.042489 -0.258186
  5 3.793090 6.407221 0.000000 0.000000 -0.000000 1.570796
  6 0.000005 -0.000003 -3.713255 3.119894 -0.014958 0.870630
  7 18.045725 0.000000 0.000000 0.000000 -0.000000 -2.501419
  8 17.597597 0.000000 0.000000 -0.011890 0.023460 -0.140244
  9 3.793090 6.407221 0.000000 0.000000 -0.000000 1.570796
 10 0.935740 0.000000 0.000000 0.000000 -0.000000 0.000000
 11 0.935741 0.000000 0.000000 0.000000 -0.000000 0.000000
 12 1.293670 0.684478 -0.000001 -0.000004 -0.000001 0.166501
 13 5.309685 -0.003834 0.000000 0.000000 -0.000000 0.282146
 14 4.826790 -0.004591 0.000000 0.000000 -0.000000 0.302182
 15 5.792767 -0.005304 0.000000 0.000000 -0.000000 0.361878
 16 6.662317 -0.001453 0.000000 0.000000 -0.000001 0.471000
 17 2.046985 -0.000002 0.000000 0.000000 -0.000000 -1.388915
 18 -3.112024 1.517254 4.341911 -0.000014 -1.370797 2.669810
 19 4.827230 0.000000 0.000001 -1.085332 -0.544007 -0.775436
 20 11.139763 0.000000 0.000000 0.000000 -0.000000 -0.474783
 21 10.314597 0.000001 0.000000 -1.570000 -0.226744 -0.000012
 22 2.975834 -0.386307 -0.044143 -0.019829 -0.038853 0.453833
 23 1.438886 0.000000 0.000000 0.000000 -0.000000 0.924525
 24 1.485303 0.000000 0.000000 0.000000 -0.000000 1.552332
 25 -2.869898 1.399663 -4.140396 -0.000013 1.370795 2.669783
 26 4.972048 0.000000 0.000001 1.106392 0.271811 -1.041477
 27 11.585355 0.000000 0.000000 0.000000 -0.000000 -0.330260
 28 10.127057 0.000000 0.000001 1.569752 -0.000000 -0.000035
 29 2.683750 -0.427338 0.044205 -0.009154 0.042652 -0.235638
 30 1.438885 -0.000001 0.000000 0.000000 -0.000000 0.470982
 31 1.485305 0.000001 0.000000 0.000000 -0.000000 1.508828
time 16
  0 -0.190447 0.190447 8.837683 -0.000000 0.514945 -1.571254
  1 -3.847774 0.000000 0.000000 -1.570795 -1.570796 0.000000
  2 -0.000005 0.000007 3.713255 -3.096012 -0.002577 1.484559
  3 18.045721 0.000000 0.000000 0.000000 -0.000000 -1.561056
  4 17.597597 0.000000 0.000000 0.007299 -0.045142 -0.111045
  5 3.793090 6.407221 0.000000 0.000000 -0.000000 1.570796
  6 0.000005 -0.000003 -3.713255 3.117497 -0.012178 0.973503
  7 18.045725 0.000000 0.000000 0.000000 -0.000000 -2.346460
  8 17.597597 0.000000 0.000000 -0.009152 0.025255 -0.037808
  9 3.793090 6.407221 0.000000 0.000000 -0.000000 1.570796
 10 0.935740 0.000000 0.000000 0.000000 -0.000000 0.000000
 11 0.935741 0.000000 0.000000 0.000000 -0.000000 0.000000
 12 1.293670 0.684478 -0.000001 -0.000004 -0.000001 0.180078
 13 5.309685 -0.003834 0.000000 0.000000 -0.000000 0.279502
 14 4.826790 -0.004591 0.000000 0.000000 -0.000000 0.300440
 15 5.792767 -0.005304 0.000000 0.000000 -0.000000 0.366508
 16 6.662317 -0.001453 0.000000 0.000000 -0.000001 0.471000
 17 2.046985 -0.000002 0.000000 0.000000 -0.000000 -1.445055
 18 -3.112024 1.517254 4.341911 -0.000014 -1.370797 2.669810
 19 4.827230 0.000000 0.000001 -1.083511 -0.588004 -0.644607
 20 11.139763 0.000000 0.000000 0.000000 -0.000000 -0.522858
 21 10.314597 0.000001 0.000000 -1.570000 -0.226744 -0.000012
 22 2.975834 -0.386307 -0.044143 -0.019829 -0.038853 0.453833
 23 1.438886 0.000000 0.000000 0.000000 -0.000000 0.924525
 24 1.485303 0.000000 0.000000 0.000000 -0.000000 1.552332
 25 -2.869898 1.399663 -4.140396 -0.000013 1.370795 2.669783
 26 4.972048 0.000000 0.000001 1.088523 0.327798 -0.929955
 27 11.585355 0.000000 0.000000 0.000000 -0.000000 -0.394340
 28 10.127057 0.000000 0.000001 1.569752 -0.000000 -0.000035
 29 2.683750 -0.427338 0.044205 -0.009154 0.042652 -0.235638
 30 1.438885 -0.000001 0.000000 0.000000 -0.000000 0.470982
 31 1.485305 0.000001 0.000000 0.000000 -0.000000 1.508828
time 17
  0 -0.190447 0.190447 4.778965 -0.000000 0.510410 -1.571254
  1 -3.945433 0.000000 0.000000 -1.570795 -1.570796 0.000000
  2 -0.000005 0.000007 3.713255 -6.237317 3.153238 4.812632
  3 18.045721 0.000000 0.000000 0.000000 -0.000000 -1.379331
  4 17.597597 0.000000 0.000000 -0.000078 -0.047406 0.063639
  5 3.793090 6.407221 0.000000 0.000000 -0.000000 1.570796
  6 0.000005 -0.000003 -3.713255 3.113950 -0.004604 1.241566
  7 18.045725 0.000000 0.000000 0.000000 -0.000000 -2.002710
  8 17.597597 0.000000 0.000000 -0.004964 0.027464 0.090246
  9 3.793090 6.407221 0.000000 0.000000 -0.000000 1.570796
 10 0.935740 0.000000 0.000000 0.000000 -0.000000 0.000000
 11 0.935741 0.000000 0.000000 0.000000 -0.000000 0.000000
 12 1.293670 0.684478 -0.000001 -0.000004 -0.000001 0.196032
 13 5.309685 -0.003834 0.000000 0.000000 -0.000000 0.274686
 14 4.826790 -0.004591 0.000000 0.000000 -0.000000 0.296405
 15 5.792767 -0.005304 0.000000 0.000000 -0.000000 0.370266
 16 6.662317 -0.001453 0.000000 0.000000 -0.000001 0.471000
 17 2.046985 -0.000002 0.000000 0.000000 -0.000000 -1.505689
 18 -3.112024 1.517254 4.341911 -0.000014 -1.370797 2.669810
 19 4.827230 0.000000 0.000001 -1.087388 -0.626044 -0.521041
 20 11.139763 0.000000 0.000000 0.000000 -0.000000 -0.566518
 21 10.314597 0.000001 0.000000 -1.570000 -0.226744 -0.000012
 22 2.975834 -0.386307 -0.044143 -0.019829 -0.038853 0.453833
 23 1.438886 0.000000 0.000000 0.000000 -0.000000 0.924525
 24 1.485303 0.000000 0.000000 0.000000 -0.000000 1.552332
 25 -2.869898 1.399663 -4.140396 -0.000013 1.370795 2.669783
 26 4.972048 0.000000 0.000001 1.076301 0.395690 -0.796168
 27 11.585355 0.000000 0.000000 0.000000 -0.000000 -0.474301
 28 10.127057 0.000000 0.000001 1.569752 -0.000000 -0.000035
 29 2.683750 -0.427338 0.044205 -0.009154 0.042652 -0.235638
 30 1.438885 -0.000001 0.000000 0.000000 -0.000000 0.470982
 31 1.485305 0.000001 0.000000 0.000000 -0.000000 1.508828
time 18
  0 -0.190447 0.190447 0.325704 -0.000000 0.504719 -1.571254
  1 -4.050905 0.000000 0.000000 -1.570795 -1.570796 0.000000
  2 -0.000005 0.000007 3.713255 -6.238659 3.163400 5.013877
  3 18.045721 0.000000 0.000000 0.000000 -0.000000 -1.188776
  4 17.597597 0.000000 0.000000 -0.009103 -0.048696 0.259370
  5 3.793090 6.407221 0.000000 0.000000 -0.000000 1.570796
  6 0.000005 -0.000003 -3.713255 6.254200 -3.149400 4.786881
  7 18.045725 0.000000 0.000000 0.000000 -0.000000 -1.503566
  8 17.597597 0.000000 0.000000 0.001680 0.029831 0.254941
  9 3.793090 6.407221 0.000000 0.000000 -0.000000 1.570796
 10 0.935740 0.000000 0.000000 0.000000 -0.000000 0.000000
 11 0.935741 0.000000 0.000000 0.000000 -0.000000 0.000000
 12 1.293670 0.684478 -0.000001 -0.000004 -0.000001 0.213811
 13 5.309685 -0.003834 0.000000 0.000000 -0.000000 0.268728
 14 4.826790 -0.004591 0.000000 0.000000 -0.000000 0.291312
 15 5.792767 -0.005304 0.000000 0.000000 -0.000000 0.373879
 16 6.662317 -0.001453 0.000000 0.000000 -0.000001 0.471000
 17 2.046985 -0.000002 0.000000 0.000000 -0.000000 -1.569965
 18 -3.112024 1.517254 4.341911 -0.000014 -1.370797 2.669810
 19 4.827230 0.000000 0.000001 -1.097197 -0.659148 -0.403951
 20 11.139763 0.000000 0.000000 0.000000 -0.000000 -0.606393
 21 10.314597 0.000001 0.000000 -1.570000 -0.226744 -0.000012
 22 2.975834 -0.386307 -0.044143 -0.019829 -0.038853 0.453833
 23 1.438886 0.000000 0.000000 0.000000 -0.000000 0.924525
 24 1.485303 0.000000 0.000000 0.000000 -0.000000 1.552332
 25 -2.869898 1.399663 -4.140396 -0.000013 1.370795 2.669783
 26 4.972048 0.000000 0.000001 1.074986 0.471385 -0.643607
 27 11.585355 0.000000 0.000000 0.000000 -0.000000 -0.564196
 28 10.127057 0.000000 0.000001 1.569752 -0.000000 -0.000035
 29 2.683750 -0.427338 0.044205 -0.009154 0.042652 -0.235638
 30 1.438885 -0.000001 0.000000 0.000000 -0.000000 0.470982
 31 1.485305 0.000001 0.000000 0.000000 -0.000000 1.508828
time 19
  0 -0.190447 0.190447 -3.600197 -0.000000 0.502851 -1.571254
  1 -4.168096 0.000000 0.000000 -1.570795 -1.570796 0.000000
  2 -0.000005 0.000007 3.713255 -6.240385 -3.111895 5.167951
  3 18.045721 0.000000 0.000000 0.000000 -0.000000 -1.050089
  4 17.597597 0.000000 0.000000 -0.017899 -0.048696 0.439407
  5 3.793090 6.407221 0.000000 0.000000 -0.000000 1.570796
  6 0.000005 -0.000003 -3.713255 6.257076 3.122072 5.167213
  7 18.045725 0.000000 0.000000 0.000000 -0.000000 -1.051511
  8 17.597597 0.000000 0.000000 0.010089 0.031014 0.439381
  9 3.793090 6.407221 0.000000 0.000000 -0.000000 1.570796
 10 0.935740 0.000000 0.000000 0.000000 -0.000000 0.000000
 11 0.935741 0.000000 0.000000 0.000000 -0.000000 0.000000
 12 1.293670 0.684478 -0.000001 -0.000004 -0.000001 0.230100
 13 5.309685 -0.003834 0.000000 0.000000 -0.000000 0.266012
 14 4.826790 -0.004591 0.000000 0.000000 -0.000000 0.289857
 15 5.792767 -0.005304 0.000000 0.000000 -0.000000 0.379921
 16 6.662317 -0.001453 0.000000 0.000000 -0.000001 0.471000
 17 2.046985 -0.000002 0.000000 0.000000 -0.000000 -1.630644
 18 -3.112024 1.517254 4.341911 -0.000014 -1.370797 2.669810
 19 4.827230 0.000000 0.000001 -1.116345 -0.689529 -0.284498
 20 11.139763 0.000000 0.000000 0.000000 -0.000000 -0.649422
 21 10.314597 0.000001 0.000000 -1.570000 -0.226744 -0.000012
 22 2.975834 -0.386307 -0.044143 -0.019829 -0.038853 0.453833
 23 1.438886 0.000000 0.000000 0.000000 -0.000000 0.924525
 24 1.485303 0.000000 0.000000 0.000000 -0.000000 1.552332
 25 -2.869898 1.399663 -4.140396 -0.000013 1.370795 2.669783
 26 4.972048 0.000000 0.000001 1.087672 0.532842 -0.501125
 27 11.585355 0.000000 0.000000 0.000000 -0.000000 -0.640169
 28 10.127057 0.000000 0.000001 1.569752 -0.000000 -0.000035
 29 2.683750 -0.427338 0.044205 -0.009154 0.042652 -0.235638
 30 1.438885 -0.000001 0.000000 0.000000 -0.000000 0.470982
 31 1.485305 0.000001 0.000000 0.000000 -0.000000 1.508828
time 20
  0 -0.190447 0.190447 -9.037863 -0.000000 0.511833 -1.571254
  1 -4.293100 0.000000 0.000000 -1.570795 -1.570796 0.000000
  2 -0.000005 0.000007 3.713255 -6.225716 3.164838 4.894319
  3 18.045721 0.000000 0.000000 0.000000 -0.000000 -1.543544
  4 17.597597 0.000000 0.000000 -0.018609 -0.059139 0.668171
  5 3.793090 6.407221 0.000000 0.000000 -0.000000 1.570796
  6 0.000005 -0.000003 -3.713255 6.247105 -3.157453 4.893397
  7 18.045725 0.000000 0.000000 0.000000 -0.000000 -1.544932
  8 17.597597 0.000000 0.000000 0.010634 0.037602 0.667879
  9 3.793090 6.407221 0.000000 0.000000 -0.000000 1.570796
 10 0.935740 0.000000 0.000000 0.000000 -0.000000 0.000000
 11 0.935741 0.000000 0.000000 0.000000 -0.000000 0.000000
 12 1.293670 0.684478 -0.000001 -0.000004 -0.000001 0.246188
 13 5.309685 -0.003834 0.000000 0.000000 -0.000000 0.265306
 14 4.826790 -0.004591 0.000000 0.000000 -0.000000 0.290915
 15 5.792767 -0.005304 0.000000 0.000000 -0.000000 0.388496
 16 6.662317 -0.001453 0.000000 0.000000 -0.000001 0.471000
 17 2.046985 -0.000002 0.000000 0.000000 -0.000000 -1.596843
 18 -3.112024 1.517254 4.341911 -0.000014 -1.370797 2.669810
 19 4.827230 0.000000 0.000001 -1.104950 -0.702294 -0.192349
 20 11.139763 0.000000 0.000000 0.000000 -0.000000 -0.718941
 21 10.314597 0.000001 0.000000 -1.570000 -0.226744 -0.000012
 22 2.975834 -0.386307 -0.044143 -0.019829 -0.038853 0.453833
 23 1.438886 0.000000 0.000000 0.000000 -0.000000 0.924525
 24 1.485303 0.000000 0.000000 0.000000 -0.000000 1.552332
 25 -2.869898 1.399663 -4.140396 -0.000013 1.370795 2.669783
 26 4.972048 0.000000 0.000001 1.077848 0.552148 -0.435450
 27 11.585355 0.000000 0.000000 0.000000 -0.000000 -0.707397
 28 10.127057 0.000000 0.000001 1.569752 -0.000000 -0.000035
 29 2.683750 -0.427338 0.044205 -0.009154 0.042652 -0.235638
 30 1.438885 -0.000001 0.000000 0.000000 -0.000000 0.470982
 31 1.485305 0.000001 0.000000 0.000000 -0.000000 1.508828
time 21
  0 -0.190447 0.190447 -14.475529 -0.000000 0.459191 -1.571254
  1 -4.558733 0.000000 0.000000 -1.570795 -1.570796 0.000000
  2 -0.000005 0.000007 3.713255 -3.066195 -0.017437 1.564137
  3 18.045721 0.000000 0.000000 0.000000 -0.000000 -1.941129
  4 17.597597 0.000000 0.000000 -0.017088 -0.075668 0.824417
  5 3.793090 6.407221 0.000000 0.000000 -0.000000 1.570796
  6 0.000005 -0.000003 -3.713255 3.094104 0.012269 1.563126
  7 18.045725 0.000000 0.000000 0.000000 -0.000000 -1.942798
  8 17.597597 0.000000 0.000000 0.009578 0.048134 0.824023
  9 3.793090 6.407221 0.000000 0.000000 -0.000000 1.570796
 10 0.935740 0.000000 0.000000 0.000000 -0.000000 0.000000
 11 0.935741 0.000000 0.000000 0.000000 -0.000000 0.000000
 12 1.293670 0.684478 -0.000001 -0.000004 -0.000001 0.288593
 13 5.309685 -0.003834 0.000000 0.000000 -0.000000 0.254515
 14 4.826790 -0.004591 0.000000 0.000000 -0.000000 0.280354
 15 5.792767 -0.005304 0.000000 0.000000 -0.000000 0.395763
 16 6.662317 -0.001453 0.000000 0.000000 -0.000001 0.471000
 17 2.046985 -0.000002 0.000000 0.000000 -0.000000 -1.422986
 18 -3.112024 1.517254 4.341911 -0.000014 -1.370797 2.669810
 19 4.827230 0.000000 0.000001 -0.800637 -0.464012 -0.561471
 20 11.139763 0.000000 0.000000 0.000000 -0.000000 -0.822309
 21 10.314597 0.000001 0.000000 -1.570000 -0.226744 -0.000012
 22 2.975834 -0.386307 -0.044143 -0.019829 -0.038853 0.453833
 23 1.438886 0.000000 0.000000 0.000000 -0.000000 0.924525
 24 1.485303 0.000000 0.000000 0.000000 -0.000000 1.552332
 25 -2.869898 1.399663 -4.140396 -0.000013 1.370795 2.669783
 26 4.972048 0.000000 0.000001 0.875952 0.362790 -0.744326
 27 11.585355 0.000000 0.000000 0.000000 -0.000000 -0.807506
 28 10.127057 0.000000 0.000001 1.569752 -0.000000 -0.348867
 29 2.683750 -0.427338 0.044205 -0.009154 0.042652 -0.235638
 30 1.438885 -0.000001 0.000000 0.000000 -0.000000 0.470982
 31 1.485305 0.000001 0.000000 0.000000 -0.000000 1.508828
time 22
  0 -0.190447 0.190447 -22.444523 -0.000000 0.318606 -1.571254
  1 -5.945494 0.000000 0.000000 -1.570795 -1.570796 0.000000
  2 -0.000005 0.000007 3.713255 -3.017779 0.001546 1.257331
  3 18.045721 0.000000 0.000000 0.000000 -0.000000 -2.410246
  4 17.597597 0.000000 0.000000 -0.001827 -0.123769 0.844731
  5 3.793090 6.407221 0.000000 0.000000 -0.000000 1.570796
  6 0.000005 -0.000003 -3.713255 3.062945 0.000381 1.254221
  7 18.045725 0.000000 0.000000 0.000000 -0.000000 -2.412964
  8 17.597597 0.000000 0.000000 -0.000282 0.078627 0.844146
  9 3.793090 6.407221 0.000000 0.000000 -0.000000 1.570796
 10 0.935740 0.000000 0.000000 0.000000 -0.000000 0.000000
 11 0.935741 0.000000 0.000000 0.000000 -0.000000 0.000000
 12 1.293670 0.684478 -0.000001 -0.000004 -0.000001 0.490891
 13 5.309685 -0.003834 0.000000 0.000000 -0.000000 0.247036
 14 4.826790 -0.004591 0.000000 0.000000 -0.000000 0.276804
 15 5.792767 -0.005304 0.000000 0.000000 -0.000000 0.466211
 16 6.662317 -0.001453 0.000000 0.000000 -0.000001 0.471000
 17 2.046985 -0.000002 0.000000 0.000000 -0.000000 -1.471754
 18 -3.112024 1.517254 4.341911 -0.000014 -1.370797 2.669810
 19 4.827230 0.000000 0.000001 -0.785248 -0.329808 -0.841332
 20 11.139763 0.000000 0.000000 0.000000 -0.000000 -0.916777
 21 10.314597 0.000001 0.000000 -1.570000 -0.226744 -0.000012
 22 2.975834 -0.386307 -0.044143 -0.019829 -0.038853 0.453833
 23 1.438886 0.000000 0.000000 0.000000 -0.000000 0.924525
 24 1.485303 0.000000 0.000000 0.000000 -0.000000 1.552332
 25 -2.869898 1.399663 -4.140396 -0.000013 1.370795 2.669783
 26 4.972048 0.000000 0.000001 1.008925 0.366088 -0.967173
 27 11.585355 0.000000 0.000000 0.000000 -0.000000 -1.333022
 28 10.127057 0.000000 0.000001 1.569752 -0.000000 -0.279085
 29 2.683750 -0.427338 0.044205 -0.009154 0.042652 -0.235638
 30 1.438885 -0.000001 0.000000 0.000000 -0.000000 0.470982
 31 1.485305 0.000001 0.000000 0.000000 -0.000000 1.508828
time 23
  0 -0.190447 0.190447 -23.159388 -0.000000 0.185490 -1.571254
  1 -6.410352 0.000000 0.000000 -1.570795 -1.570796 0.000000
  2 -0.000005 0.000007 3.713255 -3.004261 0.013337 1.268261
  3 18.045721 0.000000 0.000000 0.000000 -0.000000 -2.468496
  4 17.597597 0.000000 0.000000 0.003091 -0.137839 0.779991
  5 3.793090 6.407221 0.000000 0.000000 -0.000000 1.570796
  6 0.000005 -0.000003 -3.713255 3.054508 -0.007480 1.264000
  7 18.045725 0.000000 0.000000 0.000000 -0.000000 -2.471427
  8 17.597597 0.000000 0.000000 -0.003513 0.087463 0.779209
  9 3.793090 6.407221 0.000000 0.000000 -0.000000 1.570796
 10 0.935740 0.000000 0.000000 0.000000 -0.000000 0.000000
 11 0.935741 0.000000 0.000000 0.000000 -0.000000 0.000000
 12 1.293670 0.684478 -0.000001 -0.000004 -0.000001 0.592392
 13 5.309685 -0.003834 0.000000 0.000000 -0.000000 0.208234
 14 4.826790 -0.004591 0.000000 0.000000 -0.000000 0.234780
 15 5.792767 -0.005304 0.000000 0.000000 -0.000000 0.467706
 16 6.662317 -0.001453 0.000000 0.000000 -0.000001 0.471000
 17 2.046985 -0.000002 0.000000 0.000000 -0.000000 -1.618688
 18 -3.112024 1.517254 4.341911 -0.000014 -1.370797 2.669810
 19 4.827230 0.000000 0.000001 -0.751005 -0.097398 -1.065273
 20 11.139763 0.000000 0.000000 0.000000 -0.000000 -0.897715
 21 10.314597 0.000001 0.000000 -1.570000 -0.226744 -0.000012
 22 2.975834 -0.386307 -0.044143 -0.019829 -0.038853 0.453833
 23 1.438886 0.000000 0.000000 0.000000 -0.000000 0.924525
 24 1.485303 0.000000 0.000000 0.000000 -0.000000 1.552332
 25 -2.869898 1.399663 -4.140396 -0.000013 1.370795 2.669783
 26 4.972048 0.000000 0.000001 1.047293 0.329970 -1.012164
 27 11.585355 0.000000 0.000000 0.000000 -0.000000 -1.315043
 28 10.127057 0.000000 0.000001 1.569752 -0.000000 -0.247783
 29 2.683750 -0.427338 0.044205 -0.009154 0.042652 -0.235638
 30 1.438885 -0.000001 0.000000 0.000000 -0.000000 0.470982
 31 1.485305 0.000001 0.000000 0.000000 -0.000000 1.508828
time 24
  0 -0.190447 0.190447 -20.729626 -0.000000 0.185490 -1.571254
  1 -6.410352 0.000000 0.000000 -1.570795 -1.570796 0.000000
  2 -0.000005 0.000007 3.713255 -3.029763 -0.004974 1.406707
  3 18.045721 0.000000 0.000000 0.000000 -0.000000 -2.338565
  4 17.597597 0.000000 0.000000 0.002584 -0.112109 0.789782
  5 3.793090 6.407221 0.000000 0.000000 -0.000000 1.570796
  6 0.000005 -0.000003 -3.713255 3.070615 0.004311 1.404359
  7 18.045725 0.000000 0.000000 0.000000 -0.000000 -2.340954
  8 17.597597 0.000000 0.000000 -0.003250 0.071033 0.789614
  9 3.793090 6.407221 0.000000 0.000000 -0.000000 1.570796
 10 0.935740 0.000000 0.000000 0.000000 -0.000000 0.000000
 11 0.935741 0.000000 0.000000 0.000000 -0.000000 0.000000
 12 1.293670 0.684478 -0.000001 -0.000004 -0.000001 0.592392
 13 5.309685 -0.003834 0.000000 0.000000 -0.000000 0.208234
 14 4.826790 -0.004591 0.000000 0.000000 -0.000000 0.234780
 15 5.792767 -0.005304 0.000000 0.000000 -0.000000 0.467706
 16 6.662317 -0.001453 0.000000 0.000000 -0.000001 0.471000
 17 2.046985 -0.000002 0.000000 0.000000 -0.000000 -1.618688
 18 -3.112024 1.517254 4.341911 -0.000014 -1.370797 2.669810
 19 4.827230 0.000000 0.000001 -0.751005 -0.097398 -1.065273
 20 11.139763 0.000000 0.000000 0.000000 -0.000000 -0.897715
 21 10.314597 0.000001 0.000000 -1.570000 -0.226744 -0.000012
 22 2.975834 -0.386307 -0.044143 -0.019829 -0.038853 0.453833
 23 1.438886 0.000000 0.000000 0.000000 -0.000000 0.924525
 24 1.485303 0.000000 0.000000 0.000000 -0.000000 1.552332
 25 -2.869898 1.399663 -4.140396 -0.000013 1.370795 2.669783
 26 4.972048 0.000000 0.000001 1.082412 0.273420 -1.057023
 27 11.585355 0.000000 0.000000 0.000000 -0.000000 -1.269781
 28 10.127057 0.000000 0.000001 1.569752 -0.000000 -0.212990
 29 2.683750 -0.427338 0.044205 -0.009154 0.042652 -0.235638
 30 1.438885 -0.000001 0.000000 0.000000 -0.000000 0.470982
 31 1.485305 0.000001 0.000000 0.000000 -0.000000 1.508828
time 25
  0 -0.190447 0.190447 -17.963917 -0.000000 0.171885 -1.571254
  1 -5.879086 0.000000 0.000000 -1.570795 -1.570796 0.000000
  2 -0.000005 0.000007 3.713255 -6.188517 3.154580 4.718672
  3 18.045721 0.000000 0.000000 0.000000 -0.000000 -2.199581
  4 17.597597 0.000000 0.000000 -0.003830 -0.095361 0.808678
  5 3.793090 6.407221 0.000000 0.000000 -0.000000 1.570796
  6 0.000005 -0.000003 -3.713255 6.223328 -3.151222 4.717181
  7 18.045725 0.000000 0.000000 0.000000 -0.000000 -2.201643
  8 17.597597 0.000000 0.000000 0.000807 0.060422 0.808501
  9 3.793090 6.407221 0.000000 0.000000 -0.000000 1.570796
 10 0.935740 0.000000 0.000000 0.000000 -0.000000 0.000000
 11 0.935741 0.000000 0.000000 0.000000 -0.000000 0.000000
 12 1.293670 0.684478 -0.000001 -0.000004 -0.000001 0.535037
 13 5.309685 -0.003834 0.000000 0.000000 -0.000000 0.174863
 14 4.826790 -0.004591 0.000000 0.000000 -0.000000 0.195093
 15 5.792767 -0.005304 0.000000 0.000000 -0.000000 0.413702
 16 6.662317 -0.001453 0.000000 0.000000 -0.000001 0.471000
 17 2.046985 -0.000002 0.000000 0.000000 -0.000000 -1.455752
 18 -3.112024 1.517254 4.341911 -0.000014 -1.370797 2.669810
 19 4.827230 0.000000 0.000001 -0.736497 0.084462 -1.056522
 20 11.139763 0.000000 0.000000 0.000000 -0.000000 -0.813689
 21 10.314597 0.000001 0.000000 -1.570000 -0.226744 -0.000012
 22 2.975834 -0.386307 -0.044143 -0.019829 -0.038853 0.453833
 23 1.438886 0.000000 0.000000 0.000000 -0.000000 0.924525
 24 1.485303 0.000000 0.000000 0.000000 -0.000000 1.552332
 25 -2.869898 1.399663 -4.140396 -0.000013 1.370795 2.669783
 26 4.972048 0.000000 0.000001 1.035148 0.061297 -1.074084
 27 11.585355 0.000000 0.000000 0.000000 -0.000000 -1.215494
 28 10.127057 0.000000 0.000001 1.569752 -0.000000 -0.179374
 29 2.683750 -0.427338 0.044205 -0.009154 0.042652 -0.235638
 30 1.438885 -0.000001 0.000000 0.000000 -0.000000 0.470982
 31 1.485305 0.000001 0.000000 0.000000 -0.000000 1.508828
time 26
  0 -0.190447 0.190447 -15.209927 -0.000000 0.156057 -1.571254
  1 -5.234535 0.000000 0.000000 -1.570795 -1.570796 0.000000
  2 -0.000005 0.000007 3.713255 -6.202227 3.160236 4.879362
  3 18.045721 0.000000 0.000000 0.000000 -0.000000 -2.052806
  4 17.597597 0.000000 0.000000 -0.008013 -0.082630 0.806802
  5 3.793090 6.407221 0.000000 0.000000 -0.000000 1.570796
  6 0.000005 -0.000003 -3.713255 6.232149 -3.154865 4.877962
  7 18.045725 0.000000 0.000000 0.000000 -0.000000 -2.054508
  8 17.597597 0.000000 0.000000 0.003379 0.052375 0.806578
  9 3.793090 6.407221 0.000000 0.000000 -0.000000 1.570796
 10 0.935740 0.000000 0.000000 0.000000 -0.000000 0.000000
 11 0.935741 0.000000 0.000000 0.000000 -0.000000 0.000000
 12 1.293670 0.684478 -0.000001 -0.000004 -0.000001 0.475138
 13 5.309685 -0.003834 0.000000 0.000000 -0.000000 0.140043
 14 4.826790 -0.004591 0.000000 0.000000 -0.000000 0.153709
 15 5.792767 -0.005304 0.000000 0.000000 -0.000000 0.357310
 16 6.662317 -0.001453 0.000000 0.000000 -0.000001 0.471000
 17 2.046985 -0.000002 0.000000 0.000000 -0.000000 -1.286075
 18 -3.112024 1.517254 4.341911 -0.000014 -1.370797 2.669810
 19 4.827230 0.000000 0.000001 -0.722283 0.273471 -1.029831
 20 11.139763 0.000000 0.000000 0.000000 -0.000000 -0.726580
 21 10.314597 0.000001 0.000000 -1.570000 -0.226744 -0.000012
 22 2.975834 -0.386307 -0.044143 -0.019829 -0.038853 0.453833
 23 1.438886 0.000000 0.000000 0.000000 -0.000000 0.924525
 24 1.485303 0.000000 0.000000 0.000000 -0.000000 1.552332
 25 -2.869898 1.399663 -4.140396 -0.000013 1.370795 2.669783
 26 4.972048 0.000000 0.000001 0.989509 -0.153722 -1.063149
 27 11.585355 0.000000 0.000000 0.000000 -0.000000 -1.161207
 28 10.127057 0.000000 0.000001 1.569752 -0.000000 -0.149249
 29 2.683750 -0.427338 0.044205 -0.009154 0.042652 -0.235638
 30 1.438885 -0.000001 0.000000 0.000000 -0.000000 0.470982
 31 1.485305 0.000001 0.000000 0.000000 -0.000000 1.508828
time 27
  0 -0.190447 0.190447 -12.530157 -0.000000 0.138807 -1.571254
  1 -4.515763 0.000000 0.000000 -1.570795 -1.570796 0.000000
  2 -0.000005 0.000007 3.713255 -6.213540 3.164646 5.031135
  3 18.045721 0.000000 0.000000 0.000000 -0.000000 -1.898981
  4 17.597597 0.000000 0.000000 -0.010117 -0.072625 0.787769
  5 3.793090 6.407221 0.000000 0.000000 -0.000000 1.570796
  6 0.000005 -0.000003 -3.713255 6.239627 -3.157741 5.030401
  7 18.045725 0.000000 0.000000 0.000000 -0.000000 -1.900563
  8 17.597597 0.000000 0.000000 0.004665 0.046083 0.787691
  9 3.793090 6.407221 0.000000 0.000000 -0.000000 1.570796
 10 0.935740 0.000000 0.000000 0.000000 -0.000000 0.000000
 11 0.935741 0.000000 0.000000 0.000000 -0.000000 0.000000
 12 1.293670 0.684478 -0.000001 -0.000004 -0.000001 0.416645
 13 5.309685 -0.003834 0.000000 0.000000 -0.000000 0.106039
 14 4.826790 -0.004591 0.000000 0.000000 -0.000000 0.113206
 15 5.792767 -0.005304 0.000000 0.000000 -0.000000 0.302206
 16 6.662317 -0.001453 0.000000 0.000000 -0.000001 0.471000
 17 2.046985 -0.000002 0.000000 0.000000 -0.000000 -1.119993
 18 -3.112024 1.517254 4.341911 -0.000014 -1.370797 2.669810
 19 4.827230 0.000000 0.000001 -0.702665 0.454310 -0.983800
 20 11.139763 0.000000 0.000000 0.000000 -0.000000 -0.641293
 21 10.314597 0.000001 0.000000 -1.570000 -0.226744 -0.000012
 22 2.975834 -0.386307 -0.044143 -0.019829 -0.038853 0.453833
 23 1.438886 0.000000 0.000000 0.000000 -0.000000 0.924525
 24 1.485303 0.000000 0.000000 0.000000 -0.000000 1.552332
 25 -2.869898 1.399663 -4.140396 -0.000013 1.370795 2.669783
 26 4.972048 0.000000 0.000001 0.938919 -0.357479 -1.026985
 27 11.585355 0.000000 0.000000 0.000000 -0.000000 -1.111258
 28 10.127057 0.000000 0.000001 1.569752 -0.000000 -0.122654
 29 2.683750 -0.427338 0.044205 -0.009154 0.042652 -0.235638
 30 1.438885 -0.000001 0.000000 0.000000 -0.000000 0.470982
 31 1.485305 0.000001 0.000000 0.000000 -0.000000 1.508828
time 28
  0 -0.190447 0.190447 -9.944140 -0.000000 0.120311 -1.571254
  1 -3.765740 0.000000 0.000000 -1.570795 -1.570796 0.000000
  2 -0.000005 0.000007 3.713255 -6.223415 -3.114291 5.177730
  3 18.045721 0.000000 0.000000 0.000000 -0.000000 -1.738552
  4 17.597597 0.000000 0.000000 -0.010573 -0.064738 0.755010
  5 3.793090 6.407221 0.000000 0.000000 -0.000000 1.570796
  6 0.000005 -0.000003 -3.713255 6.245955 3.123031 5.177184
  7 18.045725 0.000000 0.000000 0.000000 -0.000000 -1.740098
  8 17.597597 0.000000 0.000000 0.004995 0.041093 0.754965
  9 3.793090 6.407221 0.000000 0.000000 -0.000000 1.570796
 10 0.935740 0.000000 0.000000 0.000000 -0.000000 0.000000
 11 0.935741 0.000000 0.000000 0.000000 -0.000000 0.000000
 12 1.293670 0.684478 -0.000001 -0.000004 -0.000001 0.360211
 13 5.309685 -0.003834 0.000000 0.000000 -0.000000 0.073247
 14 4.826790 -0.004591 0.000000 0.000000 -0.000000 0.074225
 15 5.792767 -0.005304 0.000000 0.000000 -0.000000 0.249074
 16 6.662317 -0.001453 0.000000 0.000000 -0.000001 0.471000
 17 2.046985 -0.000002 0.000000 0.000000 -0.000000 -0.960024
 18 -3.112024 1.517254 4.341911 -0.000014 -1.370797 2.669810
 19 4.827230 0.000000 0.000001 -0.670125 0.624171 -0.915629
 20 11.139763 0.000000 0.000000 0.000000 -0.000000 -0.558949
 21 10.314597 0.000001 0.000000 -1.570000 -0.226744 -0.000012
 22 2.975834 -0.386307 -0.044143 -0.019829 -0.038853 0.453833
 23 1.438886 0.000000 0.000000 0.000000 -0.000000 0.924525
 24 1.485303 0.000000 0.000000 0.000000 -0.000000 1.552332
 25 -2.869898 1.399663 -4.140396 -0.000013 1.370795 2.669783
 26 4.972048 0.000000 0.000001 0.874637 -0.546274 -0.964933
 27 11.585355 0.000000 0.000000 0.000000 -0.000000 -1.066626
 28 10.127057 0.000000 0.000001 1.569752 -0.000000 -0.099668
 29 2.683750 -0.427338 0.044205 -0.009154 0.042652 -0.235638
 30 1.438885 -0.000001 0.000000 0.000000 -0.000000 0.470982
 31 1.485305 0.000001 0.000000 0.000000 -0.000000 1.508828
time 29
  0 -0.190447 0.190447 -7.506566 -0.000000 0.100037 -1.571254
  1 -3.000092 0.000000 0.000000 -1.570795 -1.570796 0.000000
  2 -0.000005 0.000007 3.713255 -6.232427 -3.111032 5.320970
  3 18.045721 0.000000 0.000000 0.000000 -0.000000 -1.571593
  4 17.597597 0.000000 0.000000 -0.009838 -0.058409 0.710721
  5 3.793090 6.407221 0.000000 0.000000 -0.000000 1.570796
  6 0.000005 -0.000003 -3.713255 6.251707 3.120826 5.320035
  7 18.045725 0.000000 0.000000 0.000000 -0.000000 -1.573113
  8 17.597597 0.000000 0.000000 0.004533 0.037168 0.710701
  9 3.793090 6.407221 0.000000 0.000000 -0.000000 1.570796
 10 0.935740 0.000000 0.000000 0.000000 -0.000000 0.000000
 11 0.935741 0.000000 0.000000 0.000000 -0.000000 0.000000
 12 1.293670 0.684478 -0.000001 -0.000004 -0.000001 0.306439
 13 5.309685 -0.003834 0.000000 0.000000 -0.000000 0.041977
 14 4.826790 -0.004591 0.000000 0.000000 -0.000000 0.036963
 15 5.792767 -0.005304 0.000000 0.000000 -0.000000 0.198475
 16 6.662317 -0.001453 0.000000 0.000000 -0.000001 0.471000
 17 2.046985 -0.000002 0.000000 0.000000 -0.000000 -0.807697
 18 -3.112024 1.517254 4.341911 -0.000014 -1.370797 2.669810
 19 4.827230 0.000000 0.000001 -0.615559 0.778629 -0.818929
 20 11.139763 0.000000 0.000000 0.000000 -0.000000 -0.480530
 21 10.314597 0.000001 0.000000 -1.570000 -0.226744 -0.000012
 22 2.975834 -0.386307 -0.044143 -0.019829 -0.038853 0.453833
 23 1.438886 0.000000 0.000000 0.000000 -0.000000 0.924525
 24 1.485303 0.000000 0.000000 0.000000 -0.000000 1.552332
 25 -2.869898 1.399663 -4.140396 -0.000013 1.370795 2.669783
 26 4.972048 0.000000 0.000001 0.787381 -0.716889 -0.872119
 27 11.585355 0.000000 0.000000 0.000000 -0.000000 -1.026331
 28 10.127057 0.000000 0.000001 1.569752 -0.000000 -0.079310
 29 2.683750 -0.427338 0.044205 -0.009154 0.042652 -0.235638
 30 1.438885 -0.000001 0.000000 0.000000 -0.000000 0.470982
 31 1.485305 0.000001 0.000000 0.000000 -0.000000 1.508828
time 30
  0 -0.190447 0.190447 -5.240872 -0.000000 0.078696 -1.571254
  1 -2.242256 0.000000 0.000000 -1.570795 -1.570796 0.000000
  2 -0.000005 0.000007 3.713255 -6.240768 -3.107677 5.461046
  3 18.045721 0.000000 0.000000 0.000000 -0.000000 -1.398698
  4 17.597597 0.000000 0.000000 -0.008241 -0.053443 0.656367
  5 3.793090 6.407221 0.000000 0.000000 -0.000000 1.570796
  6 0.000005 -0.000003 -3.713255 6.257172 3.118621 5.460491
  7 18.045725 0.000000 0.000000 0.000000 -0.000000 -1.400115
  8 17.597597 0.000000 0.000000 0.003544 0.034091 0.656547
  9 3.793090 6.407221 0.000000 0.000000 -0.000000 1.570796
 10 0.935740 0.000000 0.000000 0.000000 -0.000000 0.000000
 11 0.935741 0.000000 0.000000 0.000000 -0.000000 0.000000
 12 1.293670 0.684478 -0.000001 -0.000004 -0.000001 0.256082
 13 5.309685 -0.003834 0.000000 0.000000 -0.000000 0.012717
 14 4.826790 -0.004591 0.000000 0.000000 -0.000000 0.002215
 15 5.792767 -0.005304 0.000000 0.000000 -0.000000 0.151032
 16 6.662317 -0.001453 0.000000 0.000000 -0.000001 0.471000
 17 2.046985 -0.000002 0.000000 0.000000 -0.000000 -0.664898
 18 -3.112024 1.517254 4.341911 -0.000014 -1.370797 2.669810
 19 4.827230 0.000000 0.000001 -0.528453 0.912152 -0.686262
 20 11.139763 0.000000 0.000000 0.000000 -0.000000 -0.407016
 21 10.314597 0.000001 0.000000 -1.570000 -0.226744 -0.000012
 22 2.975834 -0.386307 -0.044143 -0.019829 -0.038853 0.453833
 23 1.438886 0.000000 0.000000 0.000000 -0.000000 0.924525
 24 1.485303 0.000000 0.000000 0.000000 -0.000000 1.552332
 25 -2.869898 1.399663 -4.140396 -0.000013 1.370795 2.669783
 26 4.972048 0.000000 0.000001 0.667404 -0.865142 -0.741362
 27 11.585355 0.000000 0.000000 0.000000 -0.000000 -0.989393
 28 10.127057 0.000000 0.000001 1.569752 -0.000000 -0.061109
 29 2.683750 -0.427338 0.044205 -0.009154 0.042652 -0.235638
 30 1.438885 -0.000001 0.000000 0.000000 -0.000000 0.470982
 31 1.485305 0.000001 0.000000 0.000000 -0.000000 1.508828
time 31
  0 -0.190447 0.190447 -3.186122 -0.000000 0.056110 -1.571254
  1 -1.523484 0.000000 0.000000 -1.570795 -1.570796 0.000000
  2 -0.000005 0.000007 3.713255 -6.248821 -3.104705 5.597958
  3 18.045721 0.000000 0.000000 0.000000 -0.000000 -1.221277
  4 17.597597 0.000000 0.000000 -0.006010 -0.049621 0.593594
  5 3.793090 6.407221 0.000000 0.000000 -0.000000 1.570796
  6 0.000005 -0.000003 -3.713255 6.262540 3.117087 5.597302
  7 18.045725 0.000000 0.000000 0.000000 -0.000000 -1.222698
  8 17.597597 0.000000 0.000000 0.002175 0.031665 0.593945
  9 3.793090 6.407221 0.000000 0.000000 -0.000000 1.570796
 10 0.935740 0.000000 0.000000 0.000000 -0.000000 0.000000
 11 0.935741 0.000000 0.000000 0.000000 -0.000000 0.000000
 12 1.293670 0.684478 -0.000001 -0.000004 -0.000001 0.210128
 13 5.309685 -0.003834 0.000000 0.000000 -0.000000 -0.014009
 14 4.826790 -0.004591 0.000000 0.000000 -0.000000 -0.029645
 15 5.792767 -0.005304 0.000000 0.000000 -0.000000 0.107783
 16 6.662317 -0.001453 0.000000 0.000000 -0.000001 0.471000
 17 2.046985 -0.000002 0.000000 0.000000 -0.000000 -0.534550
 18 -3.112024 1.517254 4.341911 -0.000014 -1.370797 2.669810
 19 4.827230 0.000000 0.000001 -0.400290 1.018698 -0.511415
 20 11.139763 0.000000 0.000000 0.000000 -0.000000 -0.339669
 21 10.314597 0.000001 0.000000 -1.570000 -0.226744 -0.000012
 22 2.975834 -0.386307 -0.044143 -0.019829 -0.038853 0.453833
 23 1.438886 0.000000 0.000000 0.000000 -0.000000 0.924525
 24 1.485303 0.000000 0.000000 0.000000 -0.000000 1.552332
 25 -2.869898 1.399663 -4.140396 -0.000013 1.370795 2.669783
 26 4.972048 0.000000 0.000001 0.506506 -0.985401 -0.565746
 27 11.585355 0.000000 0.000000 0.000000 -0.000000 -0.955324
 28 10.127057 0.000000 0.000001 1.569752 -0.000000 -0.044085
 29 2.683750 -0.427338 0.044205 -0.009154 0.042652 -0.235638
 30 1.438885 -0.000001 0.000000 0.000000 -0.000000 0.470982
 31 1.485305 0.000001 0.000000 0.000000 -0.000000 1.508828
time 32
  0 -0.190447 0.190447 -1.420443 -0.000000 0.033435 -1.571254
  1 -0.886746 0.000000 0.000000 -1.570795 -1.570796 0.000000
  2 -0.000005 0.000007 3.713255 -6.256875 -3.102404 5.730268
  3 18.045721 0.000000 0.000000 0.000000 -0.000000 -1.043262
  4 17.597597 0.000000 0.000000 -0.003323 -0.046773 0.524782
  5 3.793090 6.407221 0.000000 0.000000 -0.000000 1.570796
  6 0.000005 -0.000003 -3.713255 6.267910 3.115745 5.729896
  7 18.045725 0.000000 0.000000 0.000000 -0.000000 -1.044701
  8 17.597597 0.000000 0.000000 0.000526 0.029870 0.525334
  9 3.793090 6.407221 0.000000 0.000000 -0.000000 1.570796
 10 0.935740 0.000000 0.000000 0.000000 -0.000000 0.000000
 11 0.935741 0.000000 0.000000 0.000000 -0.000000 0.000000
 12 1.293670 0.684478 -0.000001 -0.000004 -0.000001 0.169866
 13 5.309685 -0.003834 0.000000 0.000000 -0.000000 -0.037385
 14 4.826790 -0.004591 0.000000 0.000000 -0.000000 -0.057470
 15 5.792767 -0.005304 0.000000 0.000000 -0.000000 0.069912
 16 6.662317 -0.001453 0.000000 0.000000 -0.000001 0.471000
 17 2.046985 -0.000002 0.000000 0.000000 -0.000000 -0.420293
 18 -3.112024 1.517254 4.341911 -0.000014 -1.370797 2.669810
 19 4.827230 0.000000 0.000001 -0.233949 1.092395 -0.300863
 20 11.139763 0.000000 0.000000 0.000000 -0.000000 -0.281293
 21 10.314597 0.000001 0.000000 -1.570000 -0.226744 -0.000012
 22 2.975834 -0.386307 -0.044143 -0.019829 -0.038853 0.453833
 23 1.438886 0.000000 0.000000 0.000000 -0.000000 0.924525
 24 1.485303 0.000000 0.000000 0.000000 -0.000000 1.552332
 25 -2.869898 1.399663 -4.140396 -0.000013 1.370795 2.669783
 26 4.972048 0.000000 0.000001 0.306467 -1.071875 -0.347181
 27 11.585355 0.000000 0.000000 0.000000 -0.000000 -0.923914
 28 10.127057 0.000000 0.000001 1.569752 -0.000000 -0.028081
 29 2.683750 -0.427338 0.044205 -0.009154 0.042652 -0.235638
 30 1.438885 -0.000001 0.000000 0.000000 -0.000000 0.470982
 31 1.485305 0.000001 0.000000 0.000000 -0.000000 1.508828
time 33
  0 -0.190447 0.190447 0.009288 -0.000000 0.010760 -1.571254
  1 -0.359386 0.000000 0.000000 -1.570795 -1.570796 0.000000
  2 -0.000005 0.000007 3.713255 -6.264449 -3.100870 5.854236
  3 18.045721 0.000000 0.000000 0.000000 -0.000000 -0.871702
  4 17.597597 0.000000 0.000000 -0.000661 -0.044704 0.454094
  5 3.793090 6.407221 0.000000 0.000000 -0.000000 1.570796
  6 0.000005 -0.000003 -3.713255 6.272703 3.114978 5.853285
  7 18.045725 0.000000 0.000000 0.000000 -0.000000 -0.873297
  8 17.597597 0.000000 0.000000 -0.001189 0.028529 0.454662
  9 3.793090 6.407221 0.000000 0.000000 -0.000000 1.570796
 10 0.935740 0.000000 0.000000 0.000000 -0.000000 0.000000
 11 0.935741 0.000000 0.000000 0.000000 -0.000000 0.000000
 12 1.293670 0.684478 -0.000001 -0.000004 -0.000001 0.136836
 13 5.309685 -0.003834 0.000000 0.000000 -0.000000 -0.056632
 14 4.826790 -0.004591 0.000000 0.000000 -0.000000 -0.080334
 15 5.792767 -0.005304 0.000000 0.000000 -0.000000 0.038747
 16 6.662317 -0.001453 0.000000 0.000000 -0.000001 0.471000
 17 2.046985 -0.000002 0.000000 0.000000 -0.000000 -0.326622
 18 -3.112024 1.517254 4.341911 -0.000014 -1.370797 2.669810
 19 4.827230 0.000000 0.000001 -0.055743 1.132903 -0.084010
 20 11.139763 0.000000 0.000000 0.000000 -0.000000 -0.233078
 21 10.314597 0.000001 0.000000 -1.570000 -0.226744 -0.000012
 22 2.975834 -0.386307 -0.044143 -0.019829 -0.038853 0.453833
 23 1.438886 0.000000 0.000000 0.000000 -0.000000 0.924525
 24 1.485303 0.000000 0.000000 0.000000 -0.000000 1.552332
 25 -2.869898 1.399663 -4.140396 -0.000013 1.370795 2.669783
 26 4.972048 0.000000 0.000001 0.091034 -1.123438 -0.111489
 27 11.585355 0.000000 0.000000 0.000000 -0.000000 -0.895022
 28 10.127057 0.000000 0.000001 1.569752 -0.000000 -0.013097
 29 2.683750 -0.427338 0.044205 -0.009154 0.042652 -0.235638
 30 1.438885 -0.000001 0.000000 0.000000 -0.000000 0.470982
 31 1.485305 0.000001 0.000000 0.000000 -0.000000 1.508828
end
