version 1
nodes
  0 "Bip01"  -1
  1 "Bip01 Pelvis"   0
  2 "Bip01 L Leg"   1
  3 "Bip01 L Leg1"   2
  4 "Bip01 L Foot"   3
  5 "Bip01 L Toe0"   4
  6 "Bip01 R Leg"   1
  7 "Bip01 R Leg1"   6
  8 "Bip01 R Foot"   7
  9 "Bip01 R Toe0"   8
 10 "Bip01 R Toe01"   9
 11 "Bip01 R Toe02"  10
 12 "Bip01 Spine"   1
 13 "Bip01 Spine1"  12
 14 "Bip01 Spine2"  13
 15 "Bip01 Spine3"  14
 16 "Bip01 Neck"  15
 17 "Bip01 Head"  16
 18 "Bip01 L Arm"  16
 19 "Bip01 L Arm1"  18
 20 "Bip01 L Arm2"  19
 21 "Bip01 L Hand"  20
 22 "Bip01 L Finger1"  21
 23 "Bip01 L Finger11"  22
 24 "Bip01 L Finger12"  23
 25 "Bip01 R Arm"  16
 26 "Bip01 R Arm1"  25
 27 "Bip01 R Arm2"  26
 28 "Bip01 R Hand"  27
 29 "Bip01 R Finger1"  28
 30 "Bip01 R Finger11"  29
 31 "Bip01 R Finger12"  30
end
skeleton
time 0
  0 0.235347 -0.235347 3.532833 -0.000000 -0.000000 -1.571254
  1 0.000000 0.000000 0.000000 -1.570795 -1.570796 0.000000
  2 -0.000005 0.000007 3.713255 -6.281131 3.115177 6.261712
  3 18.045721 0.000000 0.000000 0.000000 -0.000000 -0.121501
  4 17.597597 0.000000 0.000000 -0.002613 0.026036 0.099967
  5 3.793090 6.407221 0.000000 0.000000 -0.000000 1.570796
  6 0.000005 -0.000003 -3.713255 6.280565 -3.123995 6.258640
  7 18.045725 0.000000 0.000000 0.000000 -0.000000 -0.127551
  8 17.597597 0.000000 0.000000 0.002950 -0.017289 0.103055
  9 3.793090 6.407221 0.000000 0.000000 -0.000000 1.570796
 10 0.935740 0.000000 0.000000 0.000000 -0.000000 0.000000
 11 0.935741 0.000000 0.000000 0.000000 -0.000000 0.000000
 12 1.293670 0.684478 -0.000001 -0.000004 -0.000001 0.245016
 13 5.309685 -0.003834 0.000000 -0.268429 0.032742 0.117663
 14 4.826790 -0.004591 0.000000 -0.265611 0.051114 0.184973
 15 5.792767 -0.005304 0.000000 -0.139511 0.002529 0.017319
 16 6.662317 -0.001453 0.000000 0.000000 -0.000001 0.471000
 17 2.046985 -0.000002 0.000000 0.690318 0.110040 0.032286
 18 -3.112024 1.517254 4.341911 1.141931 -1.117252 1.569728
 19 4.827230 0.000000 0.000001 -0.455561 0.226495 -0.657296
 20 11.139763 0.000000 0.000000 0.000000 -0.000000 -1.503555
 21 10.314597 0.000001 0.000000 -1.397609 -0.399857 -0.103020
 22 2.975834 -0.386307 -0.044143 -0.015658 -0.040759 0.349085
 23 1.438886 0.000000 0.000000 0.000000 -0.000000 0.767545
 24 1.485303 0.000000 0.000000 0.000000 -0.000000 0.531981
 25 -2.869898 1.399663 -4.140396 -0.000013 1.370795 2.669783
 26 4.972048 0.000000 0.000001 0.727354 -0.949766 -1.430059
 27 11.585355 0.000000 0.000000 0.000000 -0.000000 -2.010974
 28 10.127057 0.000000 0.000001 1.727224 -0.048377 1.211324
 29 2.683750 -0.427338 0.044205 -0.005738 0.043239 -0.157060
 30 1.438885 -0.000001 0.000000 0.000000 -0.000000 0.732589
 31 1.485305 0.000001 0.000000 0.000000 -0.000000 1.168627
time 1
  0 0.235347 -0.235347 3.532833 -0.000000 -0.000000 -1.571254
  1 0.000000 0.000000 0.000000 -1.570795 -1.570796 0.000000
  2 -0.000005 0.000007 3.713255 -6.281131 3.115177 6.261712
  3 18.045721 0.000000 0.000000 0.000000 -0.000000 -0.121501
  4 17.597597 0.000000 0.000000 -0.002613 0.026036 0.099967
  5 3.793090 6.407221 0.000000 0.000000 -0.000000 1.570796
  6 0.000005 -0.000003 -3.713255 6.280565 -3.123995 6.258640
  7 18.045725 0.000000 0.000000 0.000000 -0.000000 -0.127551
  8 17.597597 0.000000 0.000000 0.002950 -0.017289 0.103055
  9 3.793090 6.407221 0.000000 0.000000 -0.000000 1.570796
 10 0.935740 0.000000 0.000000 0.000000 -0.000000 0.000000
 11 0.935741 0.000000 0.000000 0.000000 -0.000000 0.000000
 12 1.293670 0.684478 -0.000001 -0.000004 -0.000001 0.245016
 13 5.309685 -0.003834 0.000000 -0.326936 0.039597 0.115545
 14 4.826790 -0.004591 0.000000 -0.265611 0.051114 0.184973
 15 5.792767 -0.005304 0.000000 -0.194444 0.003500 0.017153
 16 6.662317 -0.001453 0.000000 0.000000 -0.000001 0.471000
 17 2.046985 -0.000002 0.000000 0.606866 -0.042638 0.002890
 18 -3.112024 1.517254 4.341911 0.821523 -1.281487 1.869341
 19 4.827230 0.000000 0.000001 -0.576147 0.043699 -0.764672
 20 11.139763 0.000000 0.000000 0.000000 -0.000000 -1.464030
 21 10.314597 0.000001 0.000000 -1.453784 -0.157025 -0.077525
 22 2.975834 -0.386307 -0.044143 -0.007353 -0.043048 0.151279
 23 1.438886 0.000000 0.000000 0.000000 -0.000000 0.589530
 24 1.485303 0.000000 0.000000 0.000000 -0.000000 0.531981
 25 -2.869898 1.399663 -4.140396 -0.000013 1.370795 2.669783
 26 4.972048 0.000000 0.000001 0.655414 -0.953627 -1.373803
 27 11.585355 0.000000 0.000000 0.000000 -0.000000 -2.262539
 28 10.127057 0.000000 0.000001 1.637977 -0.020818 1.209794
 29 2.683750 -0.427338 0.044205 -0.005738 0.043239 -0.157060
 30 1.438885 -0.000001 0.000000 0.000000 -0.000000 0.732589
 31 1.485305 0.000001 0.000000 0.000000 -0.000000 1.168627
time 2
  0 0.235347 -0.235347 3.532833 -0.000000 -0.000000 -1.571254
  1 0.000000 0.000000 0.000000 -1.570795 -1.570796 0.000000
  2 -0.000005 0.000007 3.713255 -6.281131 3.115177 6.261712
  3 18.045721 0.000000 0.000000 0.000000 -0.000000 -0.121501
  4 17.597597 0.000000 0.000000 -0.002613 0.026036 0.099967
  5 3.793090 6.407221 0.000000 0.000000 -0.000000 1.570796
  6 0.000005 -0.000003 -3.713255 6.280565 -3.123995 6.258640
  7 18.045725 0.000000 0.000000 0.000000 -0.000000 -0.127551
  8 17.597597 0.000000 0.000000 0.002950 -0.017289 0.103055
  9 3.793090 6.407221 0.000000 0.000000 -0.000000 1.570796
 10 0.935740 0.000000 0.000000 0.000000 -0.000000 0.000000
 11 0.935741 0.000000 0.000000 0.000000 -0.000000 0.000000
 12 1.293670 0.684478 -0.000001 -0.000004 -0.000001 0.245016
 13 5.309685 -0.003834 0.000000 -0.398481 0.047842 0.112412
 14 4.826790 -0.004591 0.000000 -0.265611 0.051114 0.184973
 15 5.792767 -0.005304 0.000000 -0.261591 0.004710 0.016883
 16 6.662317 -0.001453 0.000000 0.000000 -0.000001 0.471000
 17 2.046985 -0.000002 0.000000 0.641074 -0.162224 -0.027629
 18 -3.112024 1.517254 4.341911 0.451069 -1.349258 2.228684
 19 4.827230 0.000000 0.000001 -0.693326 -0.080974 -0.723017
 20 11.139763 0.000000 0.000000 0.000000 -0.000000 -1.443006
 21 10.314597 0.000001 0.000000 -1.491534 0.026066 -0.067740
 22 2.975834 -0.386307 -0.044143 -0.000797 -0.043611 0.000035
 23 1.438886 0.000000 0.000000 0.000000 -0.000000 0.453458
 24 1.485303 0.000000 0.000000 0.000000 -0.000000 0.531981
 25 -2.869898 1.399663 -4.140396 -0.000013 1.370795 2.669783
 26 4.972048 0.000000 0.000001 0.628185 -0.939791 -1.432101
 27 11.585355 0.000000 0.000000 0.000000 -0.000000 -2.378107
 28 10.127057 0.000000 0.000001 1.569752 0.000000 1.177394
 29 2.683750 -0.427338 0.044205 -0.005738 0.043239 -0.157060
 30 1.438885 -0.000001 0.000000 0.000000 -0.000000 0.732589
 31 1.485305 0.000001 0.000000 0.000000 -0.000000 1.168627
time 3
  0 0.235347 -0.235347 3.532833 -0.000000 -0.000000 -1.571254
  1 0.000000 0.000000 0.000000 -1.570795 -1.570796 0.000000
  2 -0.000005 0.000007 3.713255 -6.281131 3.115177 6.261712
  3 18.045721 0.000000 0.000000 0.000000 -0.000000 -0.121501
  4 17.597597 0.000000 0.000000 -0.002613 0.026036 0.099967
  5 3.793090 6.407221 0.000000 0.000000 -0.000000 1.570796
  6 0.000005 -0.000003 -3.713255 6.280565 -3.123995 6.258640
  7 18.045725 0.000000 0.000000 0.000000 -0.000000 -0.127551
  8 17.597597 0.000000 0.000000 0.002950 -0.017289 0.103055
  9 3.793090 6.407221 0.000000 0.000000 -0.000000 1.570796
 10 0.935740 0.000000 0.000000 0.000000 -0.000000 0.000000
 11 0.935741 0.000000 0.000000 0.000000 -0.000000 0.000000
 12 1.293670 0.684478 -0.000001 -0.000004 -0.000001 0.009520
 13 5.309685 -0.003834 0.000000 -0.393768 0.047303 0.112630
 14 4.826790 -0.004591 0.000000 -0.265611 0.051114 0.184973
 15 5.792767 -0.005304 0.000000 -0.257156 0.004590 0.016883
 16 6.662317 -0.001453 0.000000 0.000000 -0.000001 0.471000
 17 2.046985 -0.000002 0.000000 0.512816 -0.288630 0.147622
 18 -3.112024 1.517254 4.341911 0.621819 -1.326411 2.062435
 19 4.827230 0.000000 0.000001 -0.753237 0.163095 -0.665347
 20 11.139763 0.000000 0.000000 0.000000 -0.000000 -1.455270
 21 10.314597 0.000001 0.000000 -1.499803 0.061110 -0.066931
 22 2.975834 -0.386307 -0.044143 -0.000797 -0.043611 0.000035
 23 1.438886 0.000000 0.000000 0.000000 -0.000000 0.453458
 24 1.485303 0.000000 0.000000 0.000000 -0.000000 0.531981
 25 -2.869898 1.399663 -4.140396 -0.000013 1.370795 2.669783
 26 4.972048 0.000000 0.000001 0.357521 -0.986608 -1.172827
 27 11.585355 0.000000 0.000000 0.000000 -0.000000 -2.260720
 28 10.127057 0.000000 0.000001 1.554272 0.003817 1.114751
 29 2.683750 -0.427338 0.044205 -0.005738 0.043239 -0.157060
 30 1.438885 -0.000001 0.000000 0.000000 -0.000000 0.732589
 31 1.485305 0.000001 0.000000 0.000000 -0.000000 1.168627
time 4
  0 0.235347 -0.235347 3.532833 -0.000000 -0.000000 -1.571254
  1 0.000000 0.000000 0.000000 -1.570795 -1.570796 0.000000
  2 -0.000005 0.000007 3.713255 -6.281131 3.115177 6.261712
  3 18.045721 0.000000 0.000000 0.000000 -0.000000 -0.121501
  4 17.597597 0.000000 0.000000 -0.002613 0.026036 0.099967
  5 3.793090 6.407221 0.000000 0.000000 -0.000000 1.570796
  6 0.000005 -0.000003 -3.713255 6.280565 -3.123995 6.258640
  7 18.045725 0.000000 0.000000 0.000000 -0.000000 -0.127551
  8 17.597597 0.000000 0.000000 0.002950 -0.017289 0.103055
  9 3.793090 6.407221 0.000000 0.000000 -0.000000 1.570796
 10 0.935740 0.000000 0.000000 0.000000 -0.000000 0.000000
 11 0.935741 0.000000 0.000000 0.000000 -0.000000 0.000000
 12 1.293670 0.684478 -0.000001 -0.000004 -0.000001 0.020569
 13 5.309685 -0.003834 0.000000 -0.381048 0.045901 0.113227
 14 4.826790 -0.004591 0.000000 -0.265611 0.051114 0.184973
 15 5.792767 -0.005304 0.000000 -0.245204 0.004374 0.016904
 16 6.662317 -0.001453 0.000000 0.000000 -0.000001 0.471000
 17 2.046985 -0.000002 0.000000 0.525784 -0.256145 0.145914
 18 -3.112024 1.517254 4.341911 0.859009 -1.269948 1.833579
 19 4.827230 0.000000 0.000001 -0.764984 0.194923 -0.561471
 20 11.139763 0.000000 0.000000 0.000000 -0.000000 -1.475944
 21 10.314597 0.000001 0.000000 -1.502230 0.065328 -0.067180
 22 2.975834 -0.386307 -0.044143 -0.000797 -0.043611 0.000035
 23 1.438886 0.000000 0.000000 0.000000 -0.000000 0.453458
 24 1.485303 0.000000 0.000000 0.000000 -0.000000 0.531981
 25 -2.869898 1.399663 -4.140396 -0.000013 1.370795 2.669783
 26 4.972048 0.000000 0.000001 0.509059 -0.954190 -1.343832
 27 11.585355 0.000000 0.000000 0.000000 -0.000000 -2.081420
 28 10.127057 0.000000 0.000001 1.549558 0.004359 1.040772
 29 2.683750 -0.427338 0.044205 -0.005738 0.043239 -0.157060
 30 1.438885 -0.000001 0.000000 0.000000 -0.000000 0.732589
 31 1.485305 0.000001 0.000000 0.000000 -0.000000 1.168627
time 5
  0 0.235347 -0.235347 3.532833 -0.000000 -0.000000 -1.571254
  1 0.000000 0.000000 0.000000 -1.570795 -1.570796 0.000000
  2 -0.000005 0.000007 3.713255 -6.281131 3.115177 6.261712
  3 18.045721 0.000000 0.000000 0.000000 -0.000000 -0.121501
  4 17.597597 0.000000 0.000000 -0.002613 0.026036 0.099967
  5 3.793090 6.407221 0.000000 0.000000 -0.000000 1.570796
  6 0.000005 -0.000003 -3.713255 6.280565 -3.123995 6.258640
  7 18.045725 0.000000 0.000000 0.000000 -0.000000 -0.127551
  8 17.597597 0.000000 0.000000 0.002950 -0.017289 0.103055
  9 3.793090 6.407221 0.000000 0.000000 -0.000000 1.570796
 10 0.935740 0.000000 0.000000 0.000000 -0.000000 0.000000
 11 0.935741 0.000000 0.000000 0.000000 -0.000000 0.000000
 12 1.293670 0.684478 -0.000001 -0.000004 -0.000001 0.044810
 13 5.309685 -0.003834 0.000000 -0.365647 0.044091 0.113915
 14 4.826790 -0.004591 0.000000 -0.265611 0.051114 0.184973
 15 5.792767 -0.005304 0.000000 -0.230757 0.004171 0.016966
 16 6.662317 -0.001453 0.000000 0.000000 -0.000001 0.471000
 17 2.046985 -0.000002 0.000000 0.547929 -0.211030 0.134901
 18 -3.112024 1.517254 4.341911 1.013269 -1.204908 1.688135
 19 4.827230 0.000000 0.000001 -0.764749 0.217815 -0.473785
 20 11.139763 0.000000 0.000000 0.000000 -0.000000 -1.495286
 21 10.314597 0.000001 0.000000 -1.501241 0.052458 -0.067849
 22 2.975834 -0.386307 -0.044143 -0.000797 -0.043611 0.000035
 23 1.438886 0.000000 0.000000 0.000000 -0.000000 0.453458
 24 1.485303 0.000000 0.000000 0.000000 -0.000000 0.531981
 25 -2.869898 1.399663 -4.140396 -0.000013 1.370795 2.669783
 26 4.972048 0.000000 0.000001 0.641645 -0.908419 -1.489476
 27 11.585355 0.000000 0.000000 0.000000 -0.000000 -1.919890
 28 10.127057 0.000000 0.000001 1.551915 0.003303 0.981228
 29 2.683750 -0.427338 0.044205 -0.005738 0.043239 -0.157060
 30 1.438885 -0.000001 0.000000 0.000000 -0.000000 0.732589
 31 1.485305 0.000001 0.000000 0.000000 -0.000000 1.168627
time 6
  0 0.235347 -0.235347 3.532833 -0.000000 -0.000000 -1.571254
  1 0.000000 0.000000 0.000000 -1.570795 -1.570796 0.000000
  2 -0.000005 0.000007 3.713255 -6.281131 3.115177 6.261712
  3 18.045721 0.000000 0.000000 0.000000 -0.000000 -0.121501
  4 17.597597 0.000000 0.000000 -0.002613 0.026036 0.099967
  5 3.793090 6.407221 0.000000 0.000000 -0.000000 1.570796
  6 0.000005 -0.000003 -3.713255 6.280565 -3.123995 6.258640
  7 18.045725 0.000000 0.000000 0.000000 -0.000000 -0.127551
  8 17.597597 0.000000 0.000000 0.002950 -0.017289 0.103055
  9 3.793090 6.407221 0.000000 0.000000 -0.000000 1.570796
 10 0.935740 0.000000 0.000000 0.000000 -0.000000 0.000000
 11 0.935741 0.000000 0.000000 0.000000 -0.000000 0.000000
 12 1.293670 0.684478 -0.000001 -0.000004 -0.000001 0.073454
 13 5.309685 -0.003834 0.000000 -0.350197 0.042354 0.114585
 14 4.826790 -0.004591 0.000000 -0.265611 0.051114 0.184973
 15 5.792767 -0.005304 0.000000 -0.216261 0.003907 0.017070
 16 6.662317 -0.001453 0.000000 0.000000 -0.000001 0.471000
 17 2.046985 -0.000002 0.000000 0.572400 -0.163327 0.120338
 18 -3.112024 1.517254 4.341911 1.099459 -1.150945 1.608366
 19 4.827230 0.000000 0.000001 -0.755469 0.229644 -0.417165
 20 11.139763 0.000000 0.000000 0.000000 -0.000000 -1.509652
 21 10.314597 0.000001 0.000000 -1.497466 0.029675 -0.068689
 22 2.975834 -0.386307 -0.044143 -0.000797 -0.043611 0.000035
 23 1.438886 0.000000 0.000000 0.000000 -0.000000 0.453458
 24 1.485303 0.000000 0.000000 0.000000 -0.000000 0.531981
 25 -2.869898 1.399663 -4.140396 -0.000013 1.370795 2.669783
 26 4.972048 0.000000 0.000001 0.732614 -0.863855 -1.583937
 27 11.585355 0.000000 0.000000 0.000000 -0.000000 -1.803692
 28 10.127057 0.000000 0.000001 1.558986 0.001787 0.944395
 29 2.683750 -0.427338 0.044205 -0.005738 0.043239 -0.157060
 30 1.438885 -0.000001 0.000000 0.000000 -0.000000 0.732589
 31 1.485305 0.000001 0.000000 0.000000 -0.000000 1.168627
time 7
  0 0.235347 -0.235347 3.532833 -0.000000 -0.000000 -1.571254
  1 0.000000 0.000000 0.000000 -1.570795 -1.570796 0.000000
  2 -0.000005 0.000007 3.713255 -6.281131 3.115177 6.261712
  3 18.045721 0.000000 0.000000 0.000000 -0.000000 -0.121501
  4 17.597597 0.000000 0.000000 -0.002613 0.026036 0.099967
  5 3.793090 6.407221 0.000000 0.000000 -0.000000 1.570796
  6 0.000005 -0.000003 -3.713255 6.280565 -3.123995 6.258640
  7 18.045725 0.000000 0.000000 0.000000 -0.000000 -0.127551
  8 17.597597 0.000000 0.000000 0.002950 -0.017289 0.103055
  9 3.793090 6.407221 0.000000 0.000000 -0.000000 1.570796
 10 0.935740 0.000000 0.000000 0.000000 -0.000000 0.000000
 11 0.935741 0.000000 0.000000 0.000000 -0.000000 0.000000
 12 1.293670 0.684478 -0.000001 -0.000004 -0.000001 0.101947
 13 5.309685 -0.003834 0.000000 -0.335934 0.040700 0.115183
 14 4.826790 -0.004591 0.000000 -0.265611 0.051114 0.184973
 15 5.792767 -0.005304 0.000000 -0.202891 0.003619 0.017070
 16 6.662317 -0.001453 0.000000 0.000000 -0.000001 0.471000
 17 2.046985 -0.000002 0.000000 0.595880 -0.117987 0.105416
 18 -3.112024 1.517254 4.341911 1.141931 -1.117252 1.569728
 19 4.827230 0.000000 0.000001 -0.738024 0.230410 -0.397125
 20 11.139763 0.000000 0.000000 0.000000 -0.000000 -1.517571
 21 10.314597 0.000001 0.000000 -1.491534 0.000000 -0.069778
 22 2.975834 -0.386307 -0.044143 -0.000797 -0.043611 0.000035
 23 1.438886 0.000000 0.000000 0.000000 -0.000000 0.453458
 24 1.485303 0.000000 0.000000 0.000000 -0.000000 0.531981
 25 -2.869898 1.399663 -4.140396 -0.000013 1.370795 2.669783
 26 4.972048 0.000000 0.000001 0.785370 -0.833609 -1.628796
 27 11.585355 0.000000 0.000000 0.000000 -0.000000 -1.744018
 28 10.127057 0.000000 0.000001 1.569752 0.000000 0.933255
 29 2.683750 -0.427338 0.044205 -0.005738 0.043239 -0.157060
 30 1.438885 -0.000001 0.000000 0.000000 -0.000000 0.732589
 31 1.485305 0.000001 0.000000 0.000000 -0.000000 1.168627
time 8
  0 0.235347 -0.235347 3.532833 -0.000000 -0.000000 -1.571254
  1 0.000000 0.000000 0.000000 -1.570795 -1.570796 0.000000
  2 -0.000005 0.000007 3.713255 -6.281131 3.115177 6.261712
  3 18.045721 0.000000 0.000000 0.000000 -0.000000 -0.121501
  4 17.597597 0.000000 0.000000 -0.002613 0.026036 0.099967
  5 3.793090 6.407221 0.000000 0.000000 -0.000000 1.570796
  6 0.000005 -0.000003 -3.713255 6.280565 -3.123995 6.258640
  7 18.045725 0.000000 0.000000 0.000000 -0.000000 -0.127551
  8 17.597597 0.000000 0.000000 0.002950 -0.017289 0.103055
  9 3.793090 6.407221 0.000000 0.000000 -0.000000 1.570796
 10 0.935740 0.000000 0.000000 0.000000 -0.000000 0.000000
 11 0.935741 0.000000 0.000000 0.000000 -0.000000 0.000000
 12 1.293670 0.684478 -0.000001 -0.000004 -0.000001 0.128147
 13 5.309685 -0.003834 0.000000 -0.323312 0.039226 0.115672
 14 4.826790 -0.004591 0.000000 -0.265611 0.051114 0.184973
 15 5.792767 -0.005304 0.000000 -0.191053 0.003464 0.017153
 16 6.662317 -0.001453 0.000000 0.000000 -0.000001 0.471000
 17 2.046985 -0.000002 0.000000 0.617120 -0.077015 0.091077
 18 -3.112024 1.517254 4.341911 1.141931 -1.117252 1.569728
 19 4.827230 0.000000 0.000001 -0.706424 0.226155 -0.426354
 20 11.139763 0.000000 0.000000 0.000000 -0.000000 -1.521846
 21 10.314597 0.000001 0.000000 -1.481647 -0.048001 -0.071754
 22 2.975834 -0.386307 -0.044143 -0.002559 -0.043551 0.040587
 23 1.438886 0.000000 0.000000 0.000000 -0.000000 0.490026
 24 1.485303 0.000000 0.000000 0.000000 -0.000000 0.531981
 25 -2.869898 1.399663 -4.140396 -0.000013 1.370795 2.669783
 26 4.972048 0.000000 0.000001 0.807184 -0.825404 -1.634659
 27 11.585355 0.000000 0.000000 0.000000 -0.000000 -1.738771
 28 10.127057 0.000000 0.000001 1.588608 -0.003086 0.950122
 29 2.683750 -0.427338 0.044205 -0.005738 0.043239 -0.157060
 30 1.438885 -0.000001 0.000000 0.000000 -0.000000 0.732589
 31 1.485305 0.000001 0.000000 0.000000 -0.000000 1.168627
time 9
  0 0.235347 -0.235347 3.532833 -0.000000 -0.000000 -1.571254
  1 0.000000 0.000000 0.000000 -1.570795 -1.570796 0.000000
  2 -0.000005 0.000007 3.713255 -6.281131 3.115177 6.261712
  3 18.045721 0.000000 0.000000 0.000000 -0.000000 -0.121501
  4 17.597597 0.000000 0.000000 -0.002613 0.026036 0.099967
  5 3.793090 6.407221 0.000000 0.000000 -0.000000 1.570796
  6 0.000005 -0.000003 -3.713255 6.280565 -3.123995 6.258640
  7 18.045725 0.000000 0.000000 0.000000 -0.000000 -0.127551
  8 17.597597 0.000000 0.000000 0.002950 -0.017289 0.103055
  9 3.793090 6.407221 0.000000 0.000000 -0.000000 1.570796
 10 0.935740 0.000000 0.000000 0.000000 -0.000000 0.000000
 11 0.935741 0.000000 0.000000 0.000000 -0.000000 0.000000
 12 1.293670 0.684478 -0.000001 -0.000004 -0.000001 0.151501
 13 5.309685 -0.003834 0.000000 -0.312343 0.037883 0.116106
 14 4.826790 -0.004591 0.000000 -0.265611 0.051114 0.184973
 15 5.792767 -0.005304 0.000000 -0.180731 0.003272 0.017153
 16 6.662317 -0.001453 0.000000 0.000000 -0.000001 0.471000
 17 2.046985 -0.000002 0.000000 0.635516 -0.040702 0.078537
 18 -3.112024 1.517254 4.341911 1.141931 -1.117252 1.569728
 19 4.827230 0.000000 0.000001 -0.666953 0.221985 -0.465034
 20 11.139763 0.000000 0.000000 0.000000 -0.000000 -1.524439
 21 10.314597 0.000001 0.000000 -1.466637 -0.116242 -0.075347
 22 2.975834 -0.386307 -0.044143 -0.005075 -0.043323 0.099499
 23 1.438886 0.000000 0.000000 0.000000 -0.000000 0.543058
 24 1.485303 0.000000 0.000000 0.000000 -0.000000 0.531981
 25 -2.869898 1.399663 -4.140396 -0.000013 1.370795 2.669783
 26 4.972048 0.000000 0.000001 0.808963 -0.835942 -1.618125
 27 11.585355 0.000000 0.000000 0.000000 -0.000000 -1.768153
 28 10.127057 0.000000 0.000001 1.616000 -0.008690 0.987739
 29 2.683750 -0.427338 0.044205 -0.005738 0.043239 -0.157060
 30 1.438885 -0.000001 0.000000 0.000000 -0.000000 0.732589
 31 1.485305 0.000001 0.000000 0.000000 -0.000000 1.168627
time 10
  0 0.235347 -0.235347 3.532833 -0.000000 -0.000000 -1.571254
  1 0.000000 0.000000 0.000000 -1.570795 -1.570796 0.000000
  2 -0.000005 0.000007 3.713255 -6.281131 3.115177 6.261712
  3 18.045721 0.000000 0.000000 0.000000 -0.000000 -0.121501
  4 17.597597 0.000000 0.000000 -0.002613 0.026036 0.099967
  5 3.793090 6.407221 0.000000 0.000000 -0.000000 1.570796
  6 0.000005 -0.000003 -3.713255 6.280565 -3.123995 6.258640
  7 18.045725 0.000000 0.000000 0.000000 -0.000000 -0.127551
  8 17.597597 0.000000 0.000000 0.002950 -0.017289 0.103055
  9 3.793090 6.407221 0.000000 0.000000 -0.000000 1.570796
 10 0.935740 0.000000 0.000000 0.000000 -0.000000 0.000000
 11 0.935741 0.000000 0.000000 0.000000 -0.000000 0.000000
 12 1.293670 0.684478 -0.000001 -0.000004 -0.000001 0.172126
 13 5.309685 -0.003834 0.000000 -0.302757 0.036805 0.116468
 14 4.826790 -0.004591 0.000000 -0.265611 0.051114 0.184973
 15 5.792767 -0.005304 0.000000 -0.171747 0.003116 0.017236
 16 6.662317 -0.001453 0.000000 0.000000 -0.000001 0.471000
 17 2.046985 -0.000002 0.000000 0.651586 -0.008555 0.067390
 18 -3.112024 1.517254 4.341911 1.141931 -1.117252 1.569728
 19 4.827230 0.000000 0.000001 -0.623782 0.219602 -0.507039
 20 11.139763 0.000000 0.000000 0.000000 -0.000000 -1.525280
 21 10.314597 0.000001 0.000000 -1.450009 -0.191396 -0.080589
 22 2.975834 -0.386307 -0.044143 -0.007952 -0.042940 0.165281
 23 1.438886 0.000000 0.000000 0.000000 -0.000000 0.602100
 24 1.485303 0.000000 0.000000 0.000000 -0.000000 0.531981
 25 -2.869898 1.399663 -4.140396 -0.000013 1.370795 2.669783
 26 4.972048 0.000000 0.000001 0.798288 -0.857500 -1.587626
 27 11.585355 0.000000 0.000000 0.000000 -0.000000 -1.816843
 28 10.127057 0.000000 0.000001 1.646322 -0.016270 1.035712
 29 2.683750 -0.427338 0.044205 -0.005738 0.043239 -0.157060
 30 1.438885 -0.000001 0.000000 0.000000 -0.000000 0.732589
 31 1.485305 0.000001 0.000000 0.000000 -0.000000 1.168627
time 11
  0 0.235347 -0.235347 3.532833 -0.000000 -0.000000 -1.571254
  1 0.000000 0.000000 0.000000 -1.570795 -1.570796 0.000000
  2 -0.000005 0.000007 3.713255 -6.281131 3.115177 6.261712
  3 18.045721 0.000000 0.000000 0.000000 -0.000000 -0.121501
  4 17.597597 0.000000 0.000000 -0.002613 0.026036 0.099967
  5 3.793090 6.407221 0.000000 0.000000 -0.000000 1.570796
  6 0.000005 -0.000003 -3.713255 6.280565 -3.123995 6.258640
  7 18.045725 0.000000 0.000000 0.000000 -0.000000 -0.127551
  8 17.597597 0.000000 0.000000 0.002950 -0.017289 0.103055
  9 3.793090 6.407221 0.000000 0.000000 -0.000000 1.570796
 10 0.935740 0.000000 0.000000 0.000000 -0.000000 0.000000
 11 0.935741 0.000000 0.000000 0.000000 -0.000000 0.000000
 12 1.293670 0.684478 -0.000001 -0.000004 -0.000001 0.190407
 13 5.309685 -0.003834 0.000000 -0.294322 0.035810 0.116776
 14 4.826790 -0.004591 0.000000 -0.265611 0.051114 0.184973
 15 5.792767 -0.005304 0.000000 -0.163823 0.002924 0.017236
 16 6.662317 -0.001453 0.000000 0.000000 -0.000001 0.471000
 17 2.046985 -0.000002 0.000000 0.665373 0.020103 0.057546
 18 -3.112024 1.517254 4.341911 1.141931 -1.117252 1.569728
 19 4.827230 0.000000 0.000001 -0.580611 0.219347 -0.548257
 20 11.139763 0.000000 0.000000 0.000000 -0.000000 -1.524299
 21 10.314597 0.000001 0.000000 -1.432752 -0.262810 -0.086827
 22 2.975834 -0.386307 -0.044143 -0.010576 -0.042353 0.228024
 23 1.438886 0.000000 0.000000 0.000000 -0.000000 0.658518
 24 1.485303 0.000000 0.000000 0.000000 -0.000000 0.531981
 25 -2.869898 1.399663 -4.140396 -0.000013 1.370795 2.669783
 26 4.972048 0.000000 0.000001 0.780651 -0.883241 -1.549947
 27 11.585355 0.000000 0.000000 0.000000 -0.000000 -1.872529
 28 10.127057 0.000000 0.000001 1.674606 -0.024987 1.085685
 29 2.683750 -0.427338 0.044205 -0.005738 0.043239 -0.157060
 30 1.438885 -0.000001 0.000000 0.000000 -0.000000 0.732589
 31 1.485305 0.000001 0.000000 0.000000 -0.000000 1.168627
time 12
  0 0.235347 -0.235347 3.532833 -0.000000 -0.000000 -1.571254
  1 0.000000 0.000000 0.000000 -1.570795 -1.570796 0.000000
  2 -0.000005 0.000007 3.713255 -6.281131 3.115177 6.261712
  3 18.045721 0.000000 0.000000 0.000000 -0.000000 -0.121501
  4 17.597597 0.000000 0.000000 -0.002613 0.026036 0.099967
  5 3.793090 6.407221 0.000000 0.000000 -0.000000 1.570796
  6 0.000005 -0.000003 -3.713255 6.280565 -3.123995 6.258640
  7 18.045725 0.000000 0.000000 0.000000 -0.000000 -0.127551
  8 17.597597 0.000000 0.000000 0.002950 -0.017289 0.103055
  9 3.793090 6.407221 0.000000 0.000000 -0.000000 1.570796
 10 0.935740 0.000000 0.000000 0.000000 -0.000000 0.000000
 11 0.935741 0.000000 0.000000 0.000000 -0.000000 0.000000
 12 1.293670 0.684478 -0.000001 -0.000004 -0.000001 0.206830
 13 5.309685 -0.003834 0.000000 -0.286756 0.034875 0.117030
 14 4.826790 -0.004591 0.000000 -0.265611 0.051114 0.184973
 15 5.792767 -0.005304 0.000000 -0.156713 0.002792 0.017236
 16 6.662317 -0.001453 0.000000 0.000000 -0.000001 0.471000
 17 2.046985 -0.000002 0.000000 0.676488 0.046128 0.049276
 18 -3.112024 1.517254 4.341911 1.141931 -1.117252 1.569728
 19 4.827230 0.000000 0.000001 -0.540494 0.220198 -0.585274
 20 11.139763 0.000000 0.000000 0.000000 -0.000000 -1.521075
 21 10.314597 0.000001 0.000000 -1.417922 -0.322725 -0.093189
 22 2.975834 -0.386307 -0.044143 -0.012842 -0.041693 0.280728
 23 1.438886 0.000000 0.000000 0.000000 -0.000000 0.706048
 24 1.485303 0.000000 0.000000 0.000000 -0.000000 0.531981
 25 -2.869898 1.399663 -4.140396 -0.000013 1.370795 2.669783
 26 4.972048 0.000000 0.000001 0.761158 -0.908017 -1.511214
 27 11.585355 0.000000 0.000000 0.000000 -0.000000 -1.924787
 28 10.127057 0.000000 0.000001 1.698112 -0.033758 1.131422
 29 2.683750 -0.427338 0.044205 -0.005738 0.043239 -0.157060
 30 1.438885 -0.000001 0.000000 0.000000 -0.000000 0.732589
 31 1.485305 0.000001 0.000000 0.000000 -0.000000 1.168627
time 13
  0 0.235347 -0.235347 3.532833 -0.000000 -0.000000 -1.571254
  1 0.000000 0.000000 0.000000 -1.570795 -1.570796 0.000000
  2 -0.000005 0.000007 3.713255 -6.281131 3.115177 6.261712
  3 18.045721 0.000000 0.000000 0.000000 -0.000000 -0.121501
  4 17.597597 0.000000 0.000000 -0.002613 0.026036 0.099967
  5 3.793090 6.407221 0.000000 0.000000 -0.000000 1.570796
  6 0.000005 -0.000003 -3.713255 6.280565 -3.123995 6.258640
  7 18.045725 0.000000 0.000000 0.000000 -0.000000 -0.127551
  8 17.597597 0.000000 0.000000 0.002950 -0.017289 0.103055
  9 3.793090 6.407221 0.000000 0.000000 -0.000000 1.570796
 10 0.935740 0.000000 0.000000 0.000000 -0.000000 0.000000
 11 0.935741 0.000000 0.000000 0.000000 -0.000000 0.000000
 12 1.293670 0.684478 -0.000001 -0.000004 -0.000001 0.221562
 13 5.309685 -0.003834 0.000000 -0.279888 0.034060 0.117265
 14 4.826790 -0.004591 0.000000 -0.265611 0.051114 0.184973
 15 5.792767 -0.005304 0.000000 -0.150256 0.002721 0.017257
 16 6.662317 -0.001453 0.000000 0.000000 -0.000001 0.471000
 17 2.046985 -0.000002 0.000000 0.684889 0.069923 0.041950
 18 -3.112024 1.517254 4.341911 1.141931 -1.117252 1.569728
 19 4.827230 0.000000 0.000001 -0.505487 0.221900 -0.616778
 20 11.139763 0.000000 0.000000 0.000000 -0.000000 -1.516660
 21 10.314597 0.000001 0.000000 -1.406597 -0.366399 -0.098509
 22 2.975834 -0.386307 -0.044143 -0.014400 -0.041166 0.319497
 23 1.438886 0.000000 0.000000 0.000000 -0.000000 0.740796
 24 1.485303 0.000000 0.000000 0.000000 -0.000000 0.531981
 25 -2.869898 1.399663 -4.140396 -0.000013 1.370795 2.669783
 26 4.972048 0.000000 0.000001 0.744140 -0.928127 -1.476038
 27 11.585355 0.000000 0.000000 0.000000 -0.000000 -1.967321
 28 10.127057 0.000000 0.000001 1.714802 -0.041230 1.168686
 29 2.683750 -0.427338 0.044205 -0.005738 0.043239 -0.157060
 30 1.438885 -0.000001 0.000000 0.000000 -0.000000 0.732589
 31 1.485305 0.000001 0.000000 0.000000 -0.000000 1.168627
time 14
  0 0.235347 -0.235347 3.532833 -0.000000 -0.000000 -1.571254
  1 0.000000 0.000000 0.000000 -1.570795 -1.570796 0.000000
  2 -0.000005 0.000007 3.713255 -6.281131 3.115177 6.261712
  3 18.045721 0.000000 0.000000 0.000000 -0.000000 -0.121501
  4 17.597597 0.000000 0.000000 -0.002613 0.026036 0.099967
  5 3.793090 6.407221 0.000000 0.000000 -0.000000 1.570796
  6 0.000005 -0.000003 -3.713255 6.280565 -3.123995 6.258640
  7 18.045725 0.000000 0.000000 0.000000 -0.000000 -0.127551
  8 17.597597 0.000000 0.000000 0.002950 -0.017289 0.103055
  9 3.793090 6.407221 0.000000 0.000000 -0.000000 1.570796
 10 0.935740 0.000000 0.000000 0.000000 -0.000000 0.000000
 11 0.935741 0.000000 0.000000 0.000000 -0.000000 0.000000
 12 1.293670 0.684478 -0.000001 -0.000004 -0.000001 0.234553
 13 5.309685 -0.003834 0.000000 -0.273681 0.033329 0.117482
 14 4.826790 -0.004591 0.000000 -0.265611 0.051114 0.184973
 15 5.792767 -0.005304 0.000000 -0.144451 0.002625 0.017257
 16 6.662317 -0.001453 0.000000 0.000000 -0.000001 0.471000
 17 2.046985 -0.000002 0.000000 0.689973 0.091490 0.035971
 18 -3.112024 1.517254 4.341911 1.141931 -1.117252 1.569728
 19 4.827230 0.000000 0.000001 -0.476941 0.223687 -0.640844
 20 11.139763 0.000000 0.000000 0.000000 -0.000000 -1.510563
 21 10.314597 0.000001 0.000000 -1.399766 -0.391878 -0.101900
 22 2.975834 -0.386307 -0.044143 -0.015322 -0.040879 0.341985
 23 1.438886 0.000000 0.000000 0.000000 -0.000000 0.761154
 24 1.485303 0.000000 0.000000 0.000000 -0.000000 0.531981
 25 -2.869898 1.399663 -4.140396 -0.000013 1.370795 2.669783
 26 4.972048 0.000000 0.000001 0.732614 -0.941963 -1.448701
 27 11.585355 0.000000 0.000000 0.000000 -0.000000 -1.996353
 28 10.127057 0.000000 0.000001 1.724421 -0.046184 1.195516
 29 2.683750 -0.427338 0.044205 -0.005738 0.043239 -0.157060
 30 1.438885 -0.000001 0.000000 0.000000 -0.000000 0.732589
 31 1.485305 0.000001 0.000000 0.000000 -0.000000 1.168627
time 15
  0 0.235347 -0.235347 3.532833 -0.000000 -0.000000 -1.571254
  1 0.000000 0.000000 0.000000 -1.570795 -1.570796 0.000000
  2 -0.000005 0.000007 3.713255 -6.281131 3.115177 6.261712
  3 18.045721 0.000000 0.000000 0.000000 -0.000000 -0.121501
  4 17.597597 0.000000 0.000000 -0.002613 0.026036 0.099967
  5 3.793090 6.407221 0.000000 0.000000 -0.000000 1.570796
  6 0.000005 -0.000003 -3.713255 6.280565 -3.123995 6.258640
  7 18.045725 0.000000 0.000000 0.000000 -0.000000 -0.127551
  8 17.597597 0.000000 0.000000 0.002950 -0.017289 0.103055
  9 3.793090 6.407221 0.000000 0.000000 -0.000000 1.570796
 10 0.935740 0.000000 0.000000 0.000000 -0.000000 0.000000
 11 0.935741 0.000000 0.000000 0.000000 -0.000000 0.000000
 12 1.293670 0.684478 -0.000001 -0.000004 -0.000001 0.245016
 13 5.309685 -0.003834 0.000000 -0.268429 0.032742 0.117663
 14 4.826790 -0.004591 0.000000 -0.265611 0.051114 0.184973
 15 5.792767 -0.005304 0.000000 -0.139511 0.002529 0.017319
 16 6.662317 -0.001453 0.000000 0.000000 -0.000001 0.471000
 17 2.046985 -0.000002 0.000000 0.690318 0.110040 0.032286
 18 -3.112024 1.517254 4.341911 1.141931 -1.117252 1.569728
 19 4.827230 0.000000 0.000001 -0.455561 0.226495 -0.657296
 20 11.139763 0.000000 0.000000 0.000000 -0.000000 -1.503555
 21 10.314597 0.000001 0.000000 -1.397609 -0.399857 -0.103020
 22 2.975834 -0.386307 -0.044143 -0.015658 -0.040759 0.349085
 23 1.438886 0.000000 0.000000 0.000000 -0.000000 0.767545
 24 1.485303 0.000000 0.000000 0.000000 -0.000000 0.531981
 25 -2.869898 1.399663 -4.140396 -0.000013 1.370795 2.669783
 26 4.972048 0.000000 0.000001 0.727354 -0.949766 -1.430059
 27 11.585355 0.000000 0.000000 0.000000 -0.000000 -2.010974
 28 10.127057 0.000000 0.000001 1.727224 -0.048377 1.211324
 29 2.683750 -0.427338 0.044205 -0.005738 0.043239 -0.157060
 30 1.438885 -0.000001 0.000000 0.000000 -0.000000 0.732589
 31 1.485305 0.000001 0.000000 0.000000 -0.000000 1.168627
end
