version 1
nodes
  0 "Bip01"  -1
  1 "Bip01 Pelvis"   0
  2 "Bip01 L Leg"   1
  3 "Bip01 L Leg1"   2
  4 "Bip01 L Foot"   3
  5 "Bip01 L Toe0"   4
  6 "Bip01 R Leg"   1
  7 "Bip01 R Leg1"   6
  8 "Bip01 R Foot"   7
  9 "Bip01 R Toe0"   8
 10 "Bip01 R Toe01"   9
 11 "Bip01 R Toe02"  10
 12 "Bip01 Spine"   1
 13 "Bip01 Spine1"  12
 14 "Bip01 Spine2"  13
 15 "Bip01 Spine3"  14
 16 "Bip01 Neck"  15
 17 "Bip01 Head"  16
 18 "Bip01 L Arm"  16
 19 "Bip01 L Arm1"  18
 20 "Bip01 L Arm2"  19
 21 "Bip01 L Hand"  20
 22 "Bip01 L Finger1"  21
 23 "Bip01 L Finger11"  22
 24 "Bip01 L Finger12"  23
 25 "Bip01 R Arm"  16
 26 "Bip01 R Arm1"  25
 27 "Bip01 R Arm2"  26
 28 "Bip01 R Hand"  27
 29 "Bip01 R Finger1"  28
 30 "Bip01 R Finger11"  29
 31 "Bip01 R Finger12"  30
end
skeleton
time 0
  0 0.235347 -0.235347 3.532833 -0.000000 -0.000000 -1.571254
  1 0.000000 0.000000 0.000000 -1.570795 -1.570796 0.000000
  2 -0.000005 0.000007 3.713255 -6.281131 3.115177 6.261712
  3 18.045721 0.000000 0.000000 0.000000 -0.000000 -0.121501
  4 17.597597 0.000000 0.000000 -0.002613 0.026036 0.099967
  5 3.793090 6.407221 0.000000 0.000000 -0.000000 1.570796
  6 0.000005 -0.000003 -3.713255 6.280565 -3.123995 6.258640
  7 18.045725 0.000000 0.000000 0.000000 -0.000000 -0.127551
  8 17.597597 0.000000 0.000000 0.002950 -0.017289 0.103055
  9 3.793090 6.407221 0.000000 0.000000 -0.000000 1.570796
 10 0.935740 0.000000 0.000000 0.000000 -0.000000 0.000000
 11 0.935741 0.000000 0.000000 0.000000 -0.000000 0.000000
 12 1.293670 0.684478 -0.000001 -0.000004 -0.000001 0.061869
 13 5.309685 -0.003834 0.000000 0.000000 -0.000000 -0.104652
 14 4.826790 -0.004591 0.000000 -0.171015 -0.034456 -0.197653
 15 5.792767 -0.005304 0.000000 -0.139478 -0.003500 -0.025909
 16 6.662317 -0.001453 0.000000 0.000000 -0.000001 0.235544
 17 2.046985 -0.000002 0.000000 0.304467 0.070846 -0.318891
 18 -3.373751 0.755512 4.341911 2.083213 -1.208562 0.792845
 19 4.827230 0.000000 0.000001 -0.364755 0.228112 -1.069211
 20 11.139763 0.000000 0.000000 0.000000 -0.000000 -1.203894
 21 10.314597 0.000001 0.000000 -3.878403 0.130307 -0.281129
 22 2.975834 -0.386307 -0.044143 -0.000797 -0.043611 0.000035
 23 1.438886 0.000000 0.000000 0.000000 -0.000000 0.872170
 24 1.485303 0.000000 0.000000 0.000000 -0.000000 0.906977
 25 -3.112093 0.692610 -4.140396 0.672346 1.317206 3.562266
 26 4.972048 0.000000 0.000001 -0.253814 -1.300328 -0.479980
 27 11.585355 0.000000 0.000000 0.000000 -0.000000 -1.839579
 28 10.127057 0.000000 0.000001 1.550450 0.339422 -0.326744
 29 2.683750 -0.427338 0.044205 -0.005738 0.043239 -0.157060
 30 1.438885 -0.000001 0.000000 0.000000 -0.000000 0.732589
 31 1.485305 0.000001 0.000000 0.000000 -0.000000 1.168627
time 1
  0 0.235347 -0.235347 3.532833 -0.000000 -0.000000 -1.571254
  1 0.000000 0.000000 0.000000 -1.570795 -1.570796 0.000000
  2 -0.000005 0.000007 3.713255 -6.281131 3.115177 6.261712
  3 18.045721 0.000000 0.000000 0.000000 -0.000000 -0.121501
  4 17.597597 0.000000 0.000000 -0.002613 0.026036 0.099967
  5 3.793090 6.407221 0.000000 0.000000 -0.000000 1.570796
  6 0.000005 -0.000003 -3.713255 6.280565 -3.123995 6.258640
  7 18.045725 0.000000 0.000000 0.000000 -0.000000 -0.127551
  8 17.597597 0.000000 0.000000 0.002950 -0.017289 0.103055
  9 3.793090 6.407221 0.000000 0.000000 -0.000000 1.570796
 10 0.935740 0.000000 0.000000 0.000000 -0.000000 0.000000
 11 0.935741 0.000000 0.000000 0.000000 -0.000000 0.000000
 12 1.293670 0.684478 -0.000001 -0.000004 -0.000001 0.061869
 13 5.309685 -0.003834 0.000000 0.000000 -0.000000 -0.104652
 14 4.826790 -0.004591 0.000000 -0.171048 -0.034264 -0.196506
 15 5.792767 -0.005304 0.000000 -0.139495 -0.003320 -0.024435
 16 6.662317 -0.001453 0.000000 0.000000 -0.000001 0.235544
 17 2.046985 -0.000002 0.000000 0.304467 0.070981 -0.321453
 18 -3.373751 0.755512 4.341911 2.076502 -1.209985 0.800323
 19 4.827230 0.000000 0.000001 -0.362464 0.224453 -1.068161
 20 11.139763 0.000000 0.000000 0.000000 -0.000000 -1.203894
 21 10.314597 0.000001 0.000000 -3.878403 0.130307 -0.281129
 22 2.975834 -0.386307 -0.044143 -0.000797 -0.043611 0.000035
 23 1.438886 0.000000 0.000000 0.000000 -0.000000 0.872170
 24 1.485303 0.000000 0.000000 0.000000 -0.000000 0.906977
 25 -3.112093 0.692610 -4.140396 0.668415 1.315821 3.557760
 26 4.972048 0.000000 0.000001 -0.247935 -1.298156 -0.486172
 27 11.585355 0.000000 0.000000 0.000000 -0.000000 -1.839579
 28 10.127057 0.000000 0.000001 1.550450 0.339422 -0.326744
 29 2.683750 -0.427338 0.044205 -0.005738 0.043239 -0.157060
 30 1.438885 -0.000001 0.000000 0.000000 -0.000000 0.732589
 31 1.485305 0.000001 0.000000 0.000000 -0.000000 1.168627
time 2
  0 0.235347 -0.235347 3.532833 -0.000000 -0.000000 -1.571254
  1 0.000000 0.000000 0.000000 -1.570795 -1.570796 0.000000
  2 -0.000005 0.000007 3.713255 -6.281131 3.115177 6.261712
  3 18.045721 0.000000 0.000000 0.000000 -0.000000 -0.121501
  4 17.597597 0.000000 0.000000 -0.002613 0.026036 0.099967
  5 3.793090 6.407221 0.000000 0.000000 -0.000000 1.570796
  6 0.000005 -0.000003 -3.713255 6.280565 -3.123995 6.258640
  7 18.045725 0.000000 0.000000 0.000000 -0.000000 -0.127551
  8 17.597597 0.000000 0.000000 0.002950 -0.017289 0.103055
  9 3.793090 6.407221 0.000000 0.000000 -0.000000 1.570796
 10 0.935740 0.000000 0.000000 0.000000 -0.000000 0.000000
 11 0.935741 0.000000 0.000000 0.000000 -0.000000 0.000000
 12 1.293670 0.684478 -0.000001 -0.000004 -0.000001 0.061869
 13 5.309685 -0.003834 0.000000 0.000000 -0.000000 -0.104652
 14 4.826790 -0.004591 0.000000 -0.171097 -0.033964 -0.195029
 15 5.792767 -0.005304 0.000000 -0.139495 -0.002996 -0.022504
 16 6.662317 -0.001453 0.000000 0.000000 -0.000001 0.235544
 17 2.046985 -0.000002 0.000000 0.304467 0.071206 -0.324914
 18 -3.373751 0.755512 4.341911 2.067298 -1.211908 0.810295
 19 4.827230 0.000000 0.000001 -0.359175 0.218836 -1.066936
 20 11.139763 0.000000 0.000000 0.000000 -0.000000 -1.203894
 21 10.314597 0.000001 0.000000 -3.878403 0.130307 -0.281129
 22 2.975834 -0.386307 -0.044143 -0.000797 -0.043611 0.000035
 23 1.438886 0.000000 0.000000 0.000000 -0.000000 0.872170
 24 1.485303 0.000000 0.000000 0.000000 -0.000000 0.906977
 25 -3.112093 0.692610 -4.140396 0.662471 1.313871 3.551720
 26 4.972048 0.000000 0.000001 -0.240122 -1.295019 -0.494340
 27 11.585355 0.000000 0.000000 0.000000 -0.000000 -1.839579
 28 10.127057 0.000000 0.000001 1.550450 0.339422 -0.326744
 29 2.683750 -0.427338 0.044205 -0.005738 0.043239 -0.157060
 30 1.438885 -0.000001 0.000000 0.000000 -0.000000 0.732589
 31 1.485305 0.000001 0.000000 0.000000 -0.000000 1.168627
time 3
  0 0.235347 -0.235347 3.532833 -0.000000 -0.000000 -1.571254
  1 0.000000 0.000000 0.000000 -1.570795 -1.570796 0.000000
  2 -0.000005 0.000007 3.713255 -6.281131 3.115177 6.261712
  3 18.045721 0.000000 0.000000 0.000000 -0.000000 -0.121501
  4 17.597597 0.000000 0.000000 -0.002613 0.026036 0.099967
  5 3.793090 6.407221 0.000000 0.000000 -0.000000 1.570796
  6 0.000005 -0.000003 -3.713255 6.280565 -3.123995 6.258640
  7 18.045725 0.000000 0.000000 0.000000 -0.000000 -0.127551
  8 17.597597 0.000000 0.000000 0.002950 -0.017289 0.103055
  9 3.793090 6.407221 0.000000 0.000000 -0.000000 1.570796
 10 0.935740 0.000000 0.000000 0.000000 -0.000000 0.000000
 11 0.935741 0.000000 0.000000 0.000000 -0.000000 0.000000
 12 1.293670 0.684478 -0.000001 -0.000004 -0.000001 0.061869
 13 5.309685 -0.003834 0.000000 0.000000 -0.000000 -0.104652
 14 4.826790 -0.004591 0.000000 -0.171179 -0.033701 -0.193243
 15 5.792767 -0.005304 0.000000 -0.139511 -0.002709 -0.020116
 16 6.662317 -0.001453 0.000000 0.000000 -0.000001 0.235544
 17 2.046985 -0.000002 0.000000 0.304467 0.071454 -0.329094
 18 -3.373751 0.755512 4.341911 2.055889 -1.214139 0.822087
 19 4.827230 0.000000 0.000001 -0.355533 0.212624 -1.065448
 20 11.139763 0.000000 0.000000 0.000000 -0.000000 -1.203894
 21 10.314597 0.000001 0.000000 -3.878403 0.130307 -0.281129
 22 2.975834 -0.386307 -0.044143 -0.000797 -0.043611 0.000035
 23 1.438886 0.000000 0.000000 0.000000 -0.000000 0.872170
 24 1.485303 0.000000 0.000000 0.000000 -0.000000 0.906977
 25 -3.112093 0.692610 -4.140396 0.655472 1.311440 3.544434
 26 4.972048 0.000000 0.000001 -0.230917 -1.291158 -0.503760
 27 11.585355 0.000000 0.000000 0.000000 -0.000000 -1.839579
 28 10.127057 0.000000 0.000001 1.550450 0.339422 -0.326744
 29 2.683750 -0.427338 0.044205 -0.005738 0.043239 -0.157060
 30 1.438885 -0.000001 0.000000 0.000000 -0.000000 0.732589
 31 1.485305 0.000001 0.000000 0.000000 -0.000000 1.168627
time 4
  0 0.235347 -0.235347 3.532833 -0.000000 -0.000000 -1.571254
  1 0.000000 0.000000 0.000000 -1.570795 -1.570796 0.000000
  2 -0.000005 0.000007 3.713255 -6.281131 3.115177 6.261712
  3 18.045721 0.000000 0.000000 0.000000 -0.000000 -0.121501
  4 17.597597 0.000000 0.000000 -0.002613 0.026036 0.099967
  5 3.793090 6.407221 0.000000 0.000000 -0.000000 1.570796
  6 0.000005 -0.000003 -3.713255 6.280565 -3.123995 6.258640
  7 18.045725 0.000000 0.000000 0.000000 -0.000000 -0.127551
  8 17.597597 0.000000 0.000000 0.002950 -0.017289 0.103055
  9 3.793090 6.407221 0.000000 0.000000 -0.000000 1.570796
 10 0.935740 0.000000 0.000000 0.000000 -0.000000 0.000000
 11 0.935741 0.000000 0.000000 0.000000 -0.000000 0.000000
 12 1.293670 0.684478 -0.000001 -0.000004 -0.000001 0.061869
 13 5.309685 -0.003834 0.000000 0.000000 -0.000000 -0.104652
 14 4.826790 -0.004591 0.000000 -0.171245 -0.033305 -0.191259
 15 5.792767 -0.005304 0.000000 -0.139511 -0.002277 -0.017334
 16 6.662317 -0.001453 0.000000 0.000000 -0.000001 0.235544
 17 2.046985 -0.000002 0.000000 0.304424 0.071724 -0.333723
 18 -3.373751 0.755512 4.341911 2.042467 -1.216716 0.836181
 19 4.827230 0.000000 0.000001 -0.351128 0.205050 -1.063873
 20 11.139763 0.000000 0.000000 0.000000 -0.000000 -1.203894
 21 10.314597 0.000001 0.000000 -3.878403 0.130307 -0.281129
 22 2.975834 -0.386307 -0.044143 -0.000797 -0.043611 0.000035
 23 1.438886 0.000000 0.000000 0.000000 -0.000000 0.872170
 24 1.485303 0.000000 0.000000 0.000000 -0.000000 0.906977
 25 -3.112093 0.692610 -4.140396 0.647323 1.308755 3.536093
 26 4.972048 0.000000 0.000001 -0.220706 -1.286814 -0.514563
 27 11.585355 0.000000 0.000000 0.000000 -0.000000 -1.839579
 28 10.127057 0.000000 0.000001 1.550450 0.339422 -0.326744
 29 2.683750 -0.427338 0.044205 -0.005738 0.043239 -0.157060
 30 1.438885 -0.000001 0.000000 0.000000 -0.000000 0.732589
 31 1.485305 0.000001 0.000000 0.000000 -0.000000 1.168627
time 5
  0 0.235347 -0.235347 3.532833 -0.000000 -0.000000 -1.571254
  1 0.000000 0.000000 0.000000 -1.570795 -1.570796 0.000000
  2 -0.000005 0.000007 3.713255 -6.281131 3.115177 6.261712
  3 18.045721 0.000000 0.000000 0.000000 -0.000000 -0.121501
  4 17.597597 0.000000 0.000000 -0.002613 0.026036 0.099967
  5 3.793090 6.407221 0.000000 0.000000 -0.000000 1.570796
  6 0.000005 -0.000003 -3.713255 6.280565 -3.123995 6.258640
  7 18.045725 0.000000 0.000000 0.000000 -0.000000 -0.127551
  8 17.597597 0.000000 0.000000 0.002950 -0.017289 0.103055
  9 3.793090 6.407221 0.000000 0.000000 -0.000000 1.570796
 10 0.935740 0.000000 0.000000 0.000000 -0.000000 0.000000
 11 0.935741 0.000000 0.000000 0.000000 -0.000000 0.000000
 12 1.293670 0.684478 -0.000001 -0.000004 -0.000001 0.061869
 13 5.309685 -0.003834 0.000000 0.000000 -0.000000 -0.104652
 14 4.826790 -0.004591 0.000000 -0.171327 -0.032970 -0.189054
 15 5.792767 -0.005304 0.000000 -0.139511 -0.001906 -0.014365
 16 6.662317 -0.001453 0.000000 0.000000 -0.000001 0.235544
 17 2.046985 -0.000002 0.000000 0.304381 0.072039 -0.339162
 18 -3.373751 0.755512 4.341911 2.028086 -1.219447 0.852096
 19 4.827230 0.000000 0.000001 -0.346488 0.196965 -1.061772
 20 11.139763 0.000000 0.000000 0.000000 -0.000000 -1.203894
 21 10.314597 0.000001 0.000000 -3.878403 0.130307 -0.281129
 22 2.975834 -0.386307 -0.044143 -0.000797 -0.043611 0.000035
 23 1.438886 0.000000 0.000000 0.000000 -0.000000 0.872170
 24 1.485303 0.000000 0.000000 0.000000 -0.000000 0.906977
 25 -3.112093 0.692610 -4.140396 0.639078 1.305674 3.527656
 26 4.972048 0.000000 0.000001 -0.209954 -1.282068 -0.525959
 27 11.585355 0.000000 0.000000 0.000000 -0.000000 -1.839579
 28 10.127057 0.000000 0.000001 1.550450 0.339422 -0.326744
 29 2.683750 -0.427338 0.044205 -0.005738 0.043239 -0.157060
 30 1.438885 -0.000001 0.000000 0.000000 -0.000000 0.732589
 31 1.485305 0.000001 0.000000 0.000000 -0.000000 1.168627
time 6
  0 0.235347 -0.235347 3.532833 -0.000000 -0.000000 -1.571254
  1 0.000000 0.000000 0.000000 -1.570795 -1.570796 0.000000
  2 -0.000005 0.000007 3.713255 -6.281131 3.115177 6.261712
  3 18.045721 0.000000 0.000000 0.000000 -0.000000 -0.121501
  4 17.597597 0.000000 0.000000 -0.002613 0.026036 0.099967
  5 3.793090 6.407221 0.000000 0.000000 -0.000000 1.570796
  6 0.000005 -0.000003 -3.713255 6.280565 -3.123995 6.258640
  7 18.045725 0.000000 0.000000 0.000000 -0.000000 -0.127551
  8 17.597597 0.000000 0.000000 0.002950 -0.017289 0.103055
  9 3.793090 6.407221 0.000000 0.000000 -0.000000 1.570796
 10 0.935740 0.000000 0.000000 0.000000 -0.000000 0.000000
 11 0.935741 0.000000 0.000000 0.000000 -0.000000 0.000000
 12 1.293670 0.684478 -0.000001 -0.000004 -0.000001 0.061869
 13 5.309685 -0.003834 0.000000 0.000000 -0.000000 -0.104652
 14 4.826790 -0.004591 0.000000 -0.171360 -0.032514 -0.186695
 15 5.792767 -0.005304 0.000000 -0.139527 -0.001414 -0.011271
 16 6.662317 -0.001453 0.000000 0.000000 -0.000001 0.235544
 17 2.046985 -0.000002 0.000000 0.304338 0.072377 -0.344691
 18 -3.373751 0.755512 4.341911 2.012267 -1.222139 0.868299
 19 4.827230 0.000000 0.000001 -0.341554 0.188455 -1.060460
 20 11.139763 0.000000 0.000000 0.000000 -0.000000 -1.203894
 21 10.314597 0.000001 0.000000 -3.878403 0.130307 -0.281129
 22 2.975834 -0.386307 -0.044143 -0.000797 -0.043611 0.000035
 23 1.438886 0.000000 0.000000 0.000000 -0.000000 0.872170
 24 1.485303 0.000000 0.000000 0.000000 -0.000000 0.906977
 25 -3.112093 0.692610 -4.140396 0.630737 1.302537 3.518644
 26 4.972048 0.000000 0.000001 -0.199047 -1.276920 -0.537816
 27 11.585355 0.000000 0.000000 0.000000 -0.000000 -1.839579
 28 10.127057 0.000000 0.000001 1.550450 0.339422 -0.326744
 29 2.683750 -0.427338 0.044205 -0.005738 0.043239 -0.157060
 30 1.438885 -0.000001 0.000000 0.000000 -0.000000 0.732589
 31 1.485305 0.000001 0.000000 0.000000 -0.000000 1.168627
time 7
  0 0.235347 -0.235347 3.532833 -0.000000 -0.000000 -1.571254
  1 0.000000 0.000000 0.000000 -1.570795 -1.570796 0.000000
  2 -0.000005 0.000007 3.713255 -6.281131 3.115177 6.261712
  3 18.045721 0.000000 0.000000 0.000000 -0.000000 -0.121501
  4 17.597597 0.000000 0.000000 -0.002613 0.026036 0.099967
  5 3.793090 6.407221 0.000000 0.000000 -0.000000 1.570796
  6 0.000005 -0.000003 -3.713255 6.280565 -3.123995 6.258640
  7 18.045725 0.000000 0.000000 0.000000 -0.000000 -0.127551
  8 17.597597 0.000000 0.000000 0.002950 -0.017289 0.103055
  9 3.793090 6.407221 0.000000 0.000000 -0.000000 1.570796
 10 0.935740 0.000000 0.000000 0.000000 -0.000000 0.000000
 11 0.935741 0.000000 0.000000 0.000000 -0.000000 0.000000
 12 1.293670 0.684478 -0.000001 -0.000004 -0.000001 0.061869
 13 5.309685 -0.003834 0.000000 0.000000 -0.000000 -0.104652
 14 4.826790 -0.004591 0.000000 -0.171475 -0.032143 -0.184314
 15 5.792767 -0.005304 0.000000 -0.139527 -0.001019 -0.008053
 16 6.662317 -0.001453 0.000000 0.000000 -0.000001 0.235544
 17 2.046985 -0.000002 0.000000 0.304295 0.072715 -0.350309
 18 -3.373751 0.755512 4.341911 1.996352 -1.224870 0.885557
 19 4.827230 0.000000 0.000001 -0.336679 0.179775 -1.058710
 20 11.139763 0.000000 0.000000 0.000000 -0.000000 -1.203894
 21 10.314597 0.000001 0.000000 -3.878403 0.130307 -0.281129
 22 2.975834 -0.386307 -0.044143 -0.000797 -0.043611 0.000035
 23 1.438886 0.000000 0.000000 0.000000 -0.000000 0.872170
 24 1.485303 0.000000 0.000000 0.000000 -0.000000 0.906977
 25 -3.112093 0.692610 -4.140396 0.622204 1.299230 3.509632
 26 4.972048 0.000000 0.000001 -0.188217 -1.271852 -0.549212
 27 11.585355 0.000000 0.000000 0.000000 -0.000000 -1.839579
 28 10.127057 0.000000 0.000001 1.550450 0.339422 -0.326744
 29 2.683750 -0.427338 0.044205 -0.005738 0.043239 -0.157060
 30 1.438885 -0.000001 0.000000 0.000000 -0.000000 0.732589
 31 1.485305 0.000001 0.000000 0.000000 -0.000000 1.168627
time 8
  0 0.235347 -0.235347 3.532833 -0.000000 -0.000000 -1.571254
  1 0.000000 0.000000 0.000000 -1.570795 -1.570796 0.000000
  2 -0.000005 0.000007 3.713255 -6.281131 3.115177 6.261712
  3 18.045721 0.000000 0.000000 0.000000 -0.000000 -0.121501
  4 17.597597 0.000000 0.000000 -0.002613 0.026036 0.099967
  5 3.793090 6.407221 0.000000 0.000000 -0.000000 1.570796
  6 0.000005 -0.000003 -3.713255 6.280565 -3.123995 6.258640
  7 18.045725 0.000000 0.000000 0.000000 -0.000000 -0.127551
  8 17.597597 0.000000 0.000000 0.002950 -0.017289 0.103055
  9 3.793090 6.407221 0.000000 0.000000 -0.000000 1.570796
 10 0.935740 0.000000 0.000000 0.000000 -0.000000 0.000000
 11 0.935741 0.000000 0.000000 0.000000 -0.000000 0.000000
 12 1.293670 0.684478 -0.000001 -0.000004 -0.000001 0.061869
 13 5.309685 -0.003834 0.000000 0.000000 -0.000000 -0.104652
 14 4.826790 -0.004591 0.000000 -0.171557 -0.031687 -0.181888
 15 5.792767 -0.005304 0.000000 -0.139527 -0.000527 -0.004897
 16 6.662317 -0.001453 0.000000 0.000000 -0.000001 0.235544
 17 2.046985 -0.000002 0.000000 0.304252 0.073030 -0.355838
 18 -3.373751 0.755512 4.341911 1.979766 -1.227447 0.903102
 19 4.827230 0.000000 0.000001 -0.331745 0.171265 -1.057047
 20 11.139763 0.000000 0.000000 0.000000 -0.000000 -1.203894
 21 10.314597 0.000001 0.000000 -3.878403 0.130307 -0.281129
 22 2.975834 -0.386307 -0.044143 -0.000797 -0.043611 0.000035
 23 1.438886 0.000000 0.000000 0.000000 -0.000000 0.872170
 24 1.485303 0.000000 0.000000 0.000000 -0.000000 0.906977
 25 -3.112093 0.692610 -4.140396 0.613959 1.296008 3.501291
 26 4.972048 0.000000 0.000001 -0.177929 -1.266784 -0.560081
 27 11.585355 0.000000 0.000000 0.000000 -0.000000 -1.839579
 28 10.127057 0.000000 0.000001 1.550450 0.339422 -0.326744
 29 2.683750 -0.427338 0.044205 -0.005738 0.043239 -0.157060
 30 1.438885 -0.000001 0.000000 0.000000 -0.000000 0.732589
 31 1.485305 0.000001 0.000000 0.000000 -0.000000 1.168627
time 9
  0 0.235347 -0.235347 3.532833 -0.000000 -0.000000 -1.571254
  1 0.000000 0.000000 0.000000 -1.570795 -1.570796 0.000000
  2 -0.000005 0.000007 3.713255 -6.281131 3.115177 6.261712
  3 18.045721 0.000000 0.000000 0.000000 -0.000000 -0.121501
  4 17.597597 0.000000 0.000000 -0.002613 0.026036 0.099967
  5 3.793090 6.407221 0.000000 0.000000 -0.000000 1.570796
  6 0.000005 -0.000003 -3.713255 6.280565 -3.123995 6.258640
  7 18.045725 0.000000 0.000000 0.000000 -0.000000 -0.127551
  8 17.597597 0.000000 0.000000 0.002950 -0.017289 0.103055
  9 3.793090 6.407221 0.000000 0.000000 -0.000000 1.570796
 10 0.935740 0.000000 0.000000 0.000000 -0.000000 0.000000
 11 0.935741 0.000000 0.000000 0.000000 -0.000000 0.000000
 12 1.293670 0.684478 -0.000001 -0.000004 -0.000001 0.061869
 13 5.309685 -0.003834 0.000000 0.000000 -0.000000 -0.104652
 14 4.826790 -0.004591 0.000000 -0.171606 -0.031340 -0.179617
 15 5.792767 -0.005304 0.000000 -0.139527 -0.000144 -0.001845
 16 6.662317 -0.001453 0.000000 0.000000 -0.000001 0.235544
 17 2.046985 -0.000002 0.000000 0.304036 0.073345 -0.361051
 18 -3.373751 0.755512 4.341911 1.963947 -1.229870 0.919689
 19 4.827230 0.000000 0.000001 -0.327046 0.162840 -1.055647
 20 11.139763 0.000000 0.000000 0.000000 -0.000000 -1.203894
 21 10.314597 0.000001 0.000000 -3.878403 0.130307 -0.281129
 22 2.975834 -0.386307 -0.044143 -0.000797 -0.043611 0.000035
 23 1.438886 0.000000 0.000000 0.000000 -0.000000 0.872170
 24 1.485303 0.000000 0.000000 0.000000 -0.000000 0.906977
 25 -3.112093 0.692610 -4.140396 0.605810 1.292899 3.493046
 26 4.972048 0.000000 0.000001 -0.168569 -1.261877 -0.570423
 27 11.585355 0.000000 0.000000 0.000000 -0.000000 -1.839579
 28 10.127057 0.000000 0.000001 1.550450 0.339422 -0.326744
 29 2.683750 -0.427338 0.044205 -0.005738 0.043239 -0.157060
 30 1.438885 -0.000001 0.000000 0.000000 -0.000000 0.732589
 31 1.485305 0.000001 0.000000 0.000000 -0.000000 1.168627
time 10
  0 0.235347 -0.235347 3.532833 -0.000000 -0.000000 -1.571254
  1 0.000000 0.000000 0.000000 -1.570795 -1.570796 0.000000
  2 -0.000005 0.000007 3.713255 -6.281131 3.115177 6.261712
  3 18.045721 0.000000 0.000000 0.000000 -0.000000 -0.121501
  4 17.597597 0.000000 0.000000 -0.002613 0.026036 0.099967
  5 3.793090 6.407221 0.000000 0.000000 -0.000000 1.570796
  6 0.000005 -0.000003 -3.713255 6.280565 -3.123995 6.258640
  7 18.045725 0.000000 0.000000 0.000000 -0.000000 -0.127551
  8 17.597597 0.000000 0.000000 0.002950 -0.017289 0.103055
  9 3.793090 6.407221 0.000000 0.000000 -0.000000 1.570796
 10 0.935740 0.000000 0.000000 0.000000 -0.000000 0.000000
 11 0.935741 0.000000 0.000000 0.000000 -0.000000 0.000000
 12 1.293670 0.684478 -0.000001 -0.000004 -0.000001 0.061869
 13 5.309685 -0.003834 0.000000 0.000000 -0.000000 -0.104652
 14 4.826790 -0.004591 0.000000 -0.171688 -0.030932 -0.177589
 15 5.792767 -0.005304 0.000000 -0.139527 0.000240 0.000958
 16 6.662317 -0.001453 0.000000 0.000000 -0.000001 0.235544
 17 2.046985 -0.000002 0.000000 0.303993 0.073660 -0.366176
 18 -3.373751 0.755512 4.341911 1.949278 -1.232024 0.935604
 19 4.827230 0.000000 0.000001 -0.322641 0.155181 -1.054334
 20 11.139763 0.000000 0.000000 0.000000 -0.000000 -1.203894
 21 10.314597 0.000001 0.000000 -3.878403 0.130307 -0.281129
 22 2.975834 -0.386307 -0.044143 -0.000797 -0.043611 0.000035
 23 1.438886 0.000000 0.000000 0.000000 -0.000000 0.872170
 24 1.485303 0.000000 0.000000 0.000000 -0.000000 0.906977
 25 -3.112093 0.692610 -4.140396 0.599003 1.289903 3.485951
 26 4.972048 0.000000 0.000001 -0.160060 -1.257131 -0.579711
 27 11.585355 0.000000 0.000000 0.000000 -0.000000 -1.839579
 28 10.127057 0.000000 0.000001 1.550450 0.339422 -0.326744
 29 2.683750 -0.427338 0.044205 -0.005738 0.043239 -0.157060
 30 1.438885 -0.000001 0.000000 0.000000 -0.000000 0.732589
 31 1.485305 0.000001 0.000000 0.000000 -0.000000 1.168627
time 11
  0 0.235347 -0.235347 3.532833 -0.000000 -0.000000 -1.571254
  1 0.000000 0.000000 0.000000 -1.570795 -1.570796 0.000000
  2 -0.000005 0.000007 3.713255 -6.281131 3.115177 6.261712
  3 18.045721 0.000000 0.000000 0.000000 -0.000000 -0.121501
  4 17.597597 0.000000 0.000000 -0.002613 0.026036 0.099967
  5 3.793090 6.407221 0.000000 0.000000 -0.000000 1.570796
  6 0.000005 -0.000003 -3.713255 6.280565 -3.123995 6.258640
  7 18.045725 0.000000 0.000000 0.000000 -0.000000 -0.127551
  8 17.597597 0.000000 0.000000 0.002950 -0.017289 0.103055
  9 3.793090 6.407221 0.000000 0.000000 -0.000000 1.570796
 10 0.935740 0.000000 0.000000 0.000000 -0.000000 0.000000
 11 0.935741 0.000000 0.000000 0.000000 -0.000000 0.000000
 12 1.293670 0.684478 -0.000001 -0.000004 -0.000001 0.061869
 13 5.309685 -0.003834 0.000000 0.000000 -0.000000 -0.104652
 14 4.826790 -0.004591 0.000000 -0.171754 -0.030657 -0.175693
 15 5.792767 -0.005304 0.000000 -0.139527 0.000539 0.003491
 16 6.662317 -0.001453 0.000000 0.000000 -0.000001 0.235544
 17 2.046985 -0.000002 0.000000 0.303993 0.073908 -0.370446
 18 -3.373751 0.755512 4.341911 1.935760 -1.233832 0.949794
 19 4.827230 0.000000 0.000001 -0.318823 0.148458 -1.053284
 20 11.139763 0.000000 0.000000 0.000000 -0.000000 -1.203894
 21 10.314597 0.000001 0.000000 -3.878403 0.130307 -0.281129
 22 2.975834 -0.386307 -0.044143 -0.000797 -0.043611 0.000035
 23 1.438886 0.000000 0.000000 0.000000 -0.000000 0.872170
 24 1.485303 0.000000 0.000000 0.000000 -0.000000 0.906977
 25 -3.112093 0.692610 -4.140396 0.592963 1.287274 3.479432
 26 4.972048 0.000000 0.000001 -0.152634 -1.252948 -0.587813
 27 11.585355 0.000000 0.000000 0.000000 -0.000000 -1.839579
 28 10.127057 0.000000 0.000001 1.550450 0.339422 -0.326744
 29 2.683750 -0.427338 0.044205 -0.005738 0.043239 -0.157060
 30 1.438885 -0.000001 0.000000 0.000000 -0.000000 0.732589
 31 1.485305 0.000001 0.000000 0.000000 -0.000000 1.168627
time 12
  0 0.235347 -0.235347 3.532833 -0.000000 -0.000000 -1.571254
  1 0.000000 0.000000 0.000000 -1.570795 -1.570796 0.000000
  2 -0.000005 0.000007 3.713255 -6.281131 3.115177 6.261712
  3 18.045721 0.000000 0.000000 0.000000 -0.000000 -0.121501
  4 17.597597 0.000000 0.000000 -0.002613 0.026036 0.099967
  5 3.793090 6.407221 0.000000 0.000000 -0.000000 1.570796
  6 0.000005 -0.000003 -3.713255 6.280565 -3.123995 6.258640
  7 18.045725 0.000000 0.000000 0.000000 -0.000000 -0.127551
  8 17.597597 0.000000 0.000000 0.002950 -0.017289 0.103055
  9 3.793090 6.407221 0.000000 0.000000 -0.000000 1.570796
 10 0.935740 0.000000 0.000000 0.000000 -0.000000 0.000000
 11 0.935741 0.000000 0.000000 0.000000 -0.000000 0.000000
 12 1.293670 0.684478 -0.000001 -0.000004 -0.000001 0.061869
 13 5.309685 -0.003834 0.000000 0.000000 -0.000000 -0.104652
 14 4.826790 -0.004591 0.000000 -0.171803 -0.030381 -0.174061
 15 5.792767 -0.005304 0.000000 -0.139527 0.000887 0.005609
 16 6.662317 -0.001453 0.000000 0.000000 -0.000001 0.235544
 17 2.046985 -0.000002 0.000000 0.303950 0.074133 -0.374356
 18 -3.373751 0.755512 4.341911 1.924351 -1.235332 0.961970
 19 4.827230 0.000000 0.000001 -0.315651 0.142501 -1.052409
 20 11.139763 0.000000 0.000000 0.000000 -0.000000 -1.203894
 21 10.314597 0.000001 0.000000 -3.878403 0.130307 -0.281129
 22 2.975834 -0.386307 -0.044143 -0.000797 -0.043611 0.000035
 23 1.438886 0.000000 0.000000 0.000000 -0.000000 0.872170
 24 1.485303 0.000000 0.000000 0.000000 -0.000000 0.906977
 25 -3.112093 0.692610 -4.140396 0.587690 1.285098 3.474159
 26 4.972048 0.000000 0.000001 -0.146523 -1.249489 -0.594466
 27 11.585355 0.000000 0.000000 0.000000 -0.000000 -1.839579
 28 10.127057 0.000000 0.000001 1.550450 0.339422 -0.326744
 29 2.683750 -0.427338 0.044205 -0.005738 0.043239 -0.157060
 30 1.438885 -0.000001 0.000000 0.000000 -0.000000 0.732589
 31 1.485305 0.000001 0.000000 0.000000 -0.000000 1.168627
time 13
  0 0.235347 -0.235347 3.532833 -0.000000 -0.000000 -1.571254
  1 0.000000 0.000000 0.000000 -1.570795 -1.570796 0.000000
  2 -0.000005 0.000007 3.713255 -6.281131 3.115177 6.261712
  3 18.045721 0.000000 0.000000 0.000000 -0.000000 -0.121501
  4 17.597597 0.000000 0.000000 -0.002613 0.026036 0.099967
  5 3.793090 6.407221 0.000000 0.000000 -0.000000 1.570796
  6 0.000005 -0.000003 -3.713255 6.280565 -3.123995 6.258640
  7 18.045725 0.000000 0.000000 0.000000 -0.000000 -0.127551
  8 17.597597 0.000000 0.000000 0.002950 -0.017289 0.103055
  9 3.793090 6.407221 0.000000 0.000000 -0.000000 1.570796
 10 0.935740 0.000000 0.000000 0.000000 -0.000000 0.000000
 11 0.935741 0.000000 0.000000 0.000000 -0.000000 0.000000
 12 1.293670 0.684478 -0.000001 -0.000004 -0.000001 0.061869
 13 5.309685 -0.003834 0.000000 0.000000 -0.000000 -0.104652
 14 4.826790 -0.004591 0.000000 -0.171836 -0.030117 -0.172826
 15 5.792767 -0.005304 0.000000 -0.139527 0.001115 0.007249
 16 6.662317 -0.001453 0.000000 0.000000 -0.000001 0.235544
 17 2.046985 -0.000002 0.000000 0.303950 0.074313 -0.377233
 18 -3.373751 0.755512 4.341911 1.915435 -1.236524 0.971366
 19 4.827230 0.000000 0.000001 -0.313067 0.138331 -1.051709
 20 11.139763 0.000000 0.000000 0.000000 -0.000000 -1.203894
 21 10.314597 0.000001 0.000000 -3.878403 0.130307 -0.281129
 22 2.975834 -0.386307 -0.044143 -0.000797 -0.043611 0.000035
 23 1.438886 0.000000 0.000000 0.000000 -0.000000 0.872170
 24 1.485303 0.000000 0.000000 0.000000 -0.000000 0.906977
 25 -3.112093 0.692610 -4.140396 0.583855 1.283374 3.470228
 26 4.972048 0.000000 0.000001 -0.141959 -1.246754 -0.599275
 27 11.585355 0.000000 0.000000 0.000000 -0.000000 -1.839579
 28 10.127057 0.000000 0.000001 1.550450 0.339422 -0.326744
 29 2.683750 -0.427338 0.044205 -0.005738 0.043239 -0.157060
 30 1.438885 -0.000001 0.000000 0.000000 -0.000000 0.732589
 31 1.485305 0.000001 0.000000 0.000000 -0.000000 1.168627
time 14
  0 0.235347 -0.235347 3.532833 -0.000000 -0.000000 -1.571254
  1 0.000000 0.000000 0.000000 -1.570795 -1.570796 0.000000
  2 -0.000005 0.000007 3.713255 -6.281131 3.115177 6.261712
  3 18.045721 0.000000 0.000000 0.000000 -0.000000 -0.121501
  4 17.597597 0.000000 0.000000 -0.002613 0.026036 0.099967
  5 3.793090 6.407221 0.000000 0.000000 -0.000000 1.570796
  6 0.000005 -0.000003 -3.713255 6.280565 -3.123995 6.258640
  7 18.045725 0.000000 0.000000 0.000000 -0.000000 -0.127551
  8 17.597597 0.000000 0.000000 0.002950 -0.017289 0.103055
  9 3.793090 6.407221 0.000000 0.000000 -0.000000 1.570796
 10 0.935740 0.000000 0.000000 0.000000 -0.000000 0.000000
 11 0.935741 0.000000 0.000000 0.000000 -0.000000 0.000000
 12 1.293670 0.684478 -0.000001 -0.000004 -0.000001 0.061869
 13 5.309685 -0.003834 0.000000 0.000000 -0.000000 -0.104652
 14 4.826790 -0.004591 0.000000 -0.171836 -0.029985 -0.172121
 15 5.792767 -0.005304 0.000000 -0.139527 0.001222 0.008308
 16 6.662317 -0.001453 0.000000 0.000000 -0.000001 0.235544
 17 2.046985 -0.000002 0.000000 0.303950 0.074403 -0.379031
 18 -3.373751 0.755512 4.341911 1.909491 -1.237178 0.977406
 19 4.827230 0.000000 0.000001 -0.311481 0.135182 -1.051184
 20 11.139763 0.000000 0.000000 0.000000 -0.000000 -1.203894
 21 10.314597 0.000001 0.000000 -3.878403 0.130307 -0.281129
 22 2.975834 -0.386307 -0.044143 -0.000797 -0.043611 0.000035
 23 1.438886 0.000000 0.000000 0.000000 -0.000000 0.872170
 24 1.485303 0.000000 0.000000 0.000000 -0.000000 0.906977
 25 -3.112093 0.692610 -4.140396 0.581554 1.282215 3.467256
 26 4.972048 0.000000 0.000001 -0.139174 -1.245145 -0.602437
 27 11.585355 0.000000 0.000000 0.000000 -0.000000 -1.839579
 28 10.127057 0.000000 0.000001 1.550450 0.339422 -0.326744
 29 2.683750 -0.427338 0.044205 -0.005738 0.043239 -0.157060
 30 1.438885 -0.000001 0.000000 0.000000 -0.000000 0.732589
 31 1.485305 0.000001 0.000000 0.000000 -0.000000 1.168627
time 15
  0 0.235347 -0.235347 3.532833 -0.000000 -0.000000 -1.571254
  1 0.000000 0.000000 0.000000 -1.570795 -1.570796 0.000000
  2 -0.000005 0.000007 3.713255 -6.281131 3.115177 6.261712
  3 18.045721 0.000000 0.000000 0.000000 -0.000000 -0.121501
  4 17.597597 0.000000 0.000000 -0.002613 0.026036 0.099967
  5 3.793090 6.407221 0.000000 0.000000 -0.000000 1.570796
  6 0.000005 -0.000003 -3.713255 6.280565 -3.123995 6.258640
  7 18.045725 0.000000 0.000000 0.000000 -0.000000 -0.127551
  8 17.597597 0.000000 0.000000 0.002950 -0.017289 0.103055
  9 3.793090 6.407221 0.000000 0.000000 -0.000000 1.570796
 10 0.935740 0.000000 0.000000 0.000000 -0.000000 0.000000
 11 0.935741 0.000000 0.000000 0.000000 -0.000000 0.000000
 12 1.293670 0.684478 -0.000001 -0.000004 -0.000001 0.061869
 13 5.309685 -0.003834 0.000000 0.000000 -0.000000 -0.104652
 14 4.826790 -0.004591 0.000000 -0.171869 -0.029938 -0.171790
 15 5.792767 -0.005304 0.000000 -0.139527 0.001270 0.008661
 16 6.662317 -0.001453 0.000000 0.000000 -0.000001 0.235544
 17 2.046985 -0.000002 0.000000 0.303950 0.074448 -0.379705
 18 -3.373751 0.755512 4.341911 1.907286 -1.237409 0.979707
 19 4.827230 0.000000 0.000001 -0.311070 0.134161 -1.051184
 20 11.139763 0.000000 0.000000 0.000000 -0.000000 -1.203894
 21 10.314597 0.000001 0.000000 -3.878403 0.130307 -0.281129
 22 2.975834 -0.386307 -0.044143 -0.000797 -0.043611 0.000035
 23 1.438886 0.000000 0.000000 0.000000 -0.000000 0.872170
 24 1.485303 0.000000 0.000000 0.000000 -0.000000 0.906977
 25 -3.112093 0.692610 -4.140396 0.580691 1.281876 3.466681
 26 4.972048 0.000000 0.000001 -0.138091 -1.244421 -0.603425
 27 11.585355 0.000000 0.000000 0.000000 -0.000000 -1.839579
 28 10.127057 0.000000 0.000001 1.550450 0.339422 -0.326744
 29 2.683750 -0.427338 0.044205 -0.005738 0.043239 -0.157060
 30 1.438885 -0.000001 0.000000 0.000000 -0.000000 0.732589
 31 1.485305 0.000001 0.000000 0.000000 -0.000000 1.168627
time 16
  0 0.235347 -0.235347 3.532833 -0.000000 -0.000000 -1.571254
  1 0.000000 0.000000 0.000000 -1.570795 -1.570796 0.000000
  2 -0.000005 0.000007 3.713255 -6.281131 3.115177 6.261712
  3 18.045721 0.000000 0.000000 0.000000 -0.000000 -0.121501
  4 17.597597 0.000000 0.000000 -0.002613 0.026036 0.099967
  5 3.793090 6.407221 0.000000 0.000000 -0.000000 1.570796
  6 0.000005 -0.000003 -3.713255 6.280565 -3.123995 6.258640
  7 18.045725 0.000000 0.000000 0.000000 -0.000000 -0.127551
  8 17.597597 0.000000 0.000000 0.002950 -0.017289 0.103055
  9 3.793090 6.407221 0.000000 0.000000 -0.000000 1.570796
 10 0.935740 0.000000 0.000000 0.000000 -0.000000 0.000000
 11 0.935741 0.000000 0.000000 0.000000 -0.000000 0.000000
 12 1.293670 0.684478 -0.000001 -0.000004 -0.000001 0.061869
 13 5.309685 -0.003834 0.000000 0.000000 -0.000000 -0.104652
 14 4.826790 -0.004591 0.000000 -0.171836 -0.029985 -0.172121
 15 5.792767 -0.005304 0.000000 -0.139527 0.001222 0.008308
 16 6.662317 -0.001453 0.000000 0.000000 -0.000001 0.235544
 17 2.046985 -0.000002 0.000000 0.303950 0.074403 -0.379031
 18 -3.373751 0.755512 4.341911 1.909491 -1.237178 0.977406
 19 4.827230 0.000000 0.000001 -0.311481 0.135182 -1.051184
 20 11.139763 0.000000 0.000000 0.000000 -0.000000 -1.203894
 21 10.314597 0.000001 0.000000 -3.878403 0.130307 -0.281129
 22 2.975834 -0.386307 -0.044143 -0.000797 -0.043611 0.000035
 23 1.438886 0.000000 0.000000 0.000000 -0.000000 0.872170
 24 1.485303 0.000000 0.000000 0.000000 -0.000000 0.906977
 25 -3.112093 0.692610 -4.140396 0.581554 1.282215 3.467256
 26 4.972048 0.000000 0.000001 -0.139174 -1.245145 -0.602437
 27 11.585355 0.000000 0.000000 0.000000 -0.000000 -1.839579
 28 10.127057 0.000000 0.000001 1.550450 0.339422 -0.326744
 29 2.683750 -0.427338 0.044205 -0.005738 0.043239 -0.157060
 30 1.438885 -0.000001 0.000000 0.000000 -0.000000 0.732589
 31 1.485305 0.000001 0.000000 0.000000 -0.000000 1.168627
time 17
  0 0.235347 -0.235347 3.532833 -0.000000 -0.000000 -1.571254
  1 0.000000 0.000000 0.000000 -1.570795 -1.570796 0.000000
  2 -0.000005 0.000007 3.713255 -6.281131 3.115177 6.261712
  3 18.045721 0.000000 0.000000 0.000000 -0.000000 -0.121501
  4 17.597597 0.000000 0.000000 -0.002613 0.026036 0.099967
  5 3.793090 6.407221 0.000000 0.000000 -0.000000 1.570796
  6 0.000005 -0.000003 -3.713255 6.280565 -3.123995 6.258640
  7 18.045725 0.000000 0.000000 0.000000 -0.000000 -0.127551
  8 17.597597 0.000000 0.000000 0.002950 -0.017289 0.103055
  9 3.793090 6.407221 0.000000 0.000000 -0.000000 1.570796
 10 0.935740 0.000000 0.000000 0.000000 -0.000000 0.000000
 11 0.935741 0.000000 0.000000 0.000000 -0.000000 0.000000
 12 1.293670 0.684478 -0.000001 -0.000004 -0.000001 0.061869
 13 5.309685 -0.003834 0.000000 0.000000 -0.000000 -0.104652
 14 4.826790 -0.004591 0.000000 -0.171836 -0.030117 -0.172826
 15 5.792767 -0.005304 0.000000 -0.139527 0.001115 0.007249
 16 6.662317 -0.001453 0.000000 0.000000 -0.000001 0.235544
 17 2.046985 -0.000002 0.000000 0.303950 0.074313 -0.377233
 18 -3.373751 0.755512 4.341911 1.915435 -1.236524 0.971366
 19 4.827230 0.000000 0.000001 -0.313067 0.138331 -1.051709
 20 11.139763 0.000000 0.000000 0.000000 -0.000000 -1.203894
 21 10.314597 0.000001 0.000000 -3.878403 0.130307 -0.281129
 22 2.975834 -0.386307 -0.044143 -0.000797 -0.043611 0.000035
 23 1.438886 0.000000 0.000000 0.000000 -0.000000 0.872170
 24 1.485303 0.000000 0.000000 0.000000 -0.000000 0.906977
 25 -3.112093 0.692610 -4.140396 0.583855 1.283374 3.470228
 26 4.972048 0.000000 0.000001 -0.141959 -1.246754 -0.599275
 27 11.585355 0.000000 0.000000 0.000000 -0.000000 -1.839579
 28 10.127057 0.000000 0.000001 1.550450 0.339422 -0.326744
 29 2.683750 -0.427338 0.044205 -0.005738 0.043239 -0.157060
 30 1.438885 -0.000001 0.000000 0.000000 -0.000000 0.732589
 31 1.485305 0.000001 0.000000 0.000000 -0.000000 1.168627
time 18
  0 0.235347 -0.235347 3.532833 -0.000000 -0.000000 -1.571254
  1 0.000000 0.000000 0.000000 -1.570795 -1.570796 0.000000
  2 -0.000005 0.000007 3.713255 -6.281131 3.115177 6.261712
  3 18.045721 0.000000 0.000000 0.000000 -0.000000 -0.121501
  4 17.597597 0.000000 0.000000 -0.002613 0.026036 0.099967
  5 3.793090 6.407221 0.000000 0.000000 -0.000000 1.570796
  6 0.000005 -0.000003 -3.713255 6.280565 -3.123995 6.258640
  7 18.045725 0.000000 0.000000 0.000000 -0.000000 -0.127551
  8 17.597597 0.000000 0.000000 0.002950 -0.017289 0.103055
  9 3.793090 6.407221 0.000000 0.000000 -0.000000 1.570796
 10 0.935740 0.000000 0.000000 0.000000 -0.000000 0.000000
 11 0.935741 0.000000 0.000000 0.000000 -0.000000 0.000000
 12 1.293670 0.684478 -0.000001 -0.000004 -0.000001 0.061869
 13 5.309685 -0.003834 0.000000 0.000000 -0.000000 -0.104652
 14 4.826790 -0.004591 0.000000 -0.171803 -0.030381 -0.174061
 15 5.792767 -0.005304 0.000000 -0.139527 0.000887 0.005609
 16 6.662317 -0.001453 0.000000 0.000000 -0.000001 0.235544
 17 2.046985 -0.000002 0.000000 0.303950 0.074133 -0.374356
 18 -3.373751 0.755512 4.341911 1.924351 -1.235332 0.961970
 19 4.827230 0.000000 0.000001 -0.315651 0.142501 -1.052409
 20 11.139763 0.000000 0.000000 0.000000 -0.000000 -1.203894
 21 10.314597 0.000001 0.000000 -3.878403 0.130307 -0.281129
 22 2.975834 -0.386307 -0.044143 -0.000797 -0.043611 0.000035
 23 1.438886 0.000000 0.000000 0.000000 -0.000000 0.872170
 24 1.485303 0.000000 0.000000 0.000000 -0.000000 0.906977
 25 -3.112093 0.692610 -4.140396 0.587690 1.285098 3.474159
 26 4.972048 0.000000 0.000001 -0.146523 -1.249489 -0.594466
 27 11.585355 0.000000 0.000000 0.000000 -0.000000 -1.839579
 28 10.127057 0.000000 0.000001 1.550450 0.339422 -0.326744
 29 2.683750 -0.427338 0.044205 -0.005738 0.043239 -0.157060
 30 1.438885 -0.000001 0.000000 0.000000 -0.000000 0.732589
 31 1.485305 0.000001 0.000000 0.000000 -0.000000 1.168627
time 19
  0 0.235347 -0.235347 3.532833 -0.000000 -0.000000 -1.571254
  1 0.000000 0.000000 0.000000 -1.570795 -1.570796 0.000000
  2 -0.000005 0.000007 3.713255 -6.281131 3.115177 6.261712
  3 18.045721 0.000000 0.000000 0.000000 -0.000000 -0.121501
  4 17.597597 0.000000 0.000000 -0.002613 0.026036 0.099967
  5 3.793090 6.407221 0.000000 0.000000 -0.000000 1.570796
  6 0.000005 -0.000003 -3.713255 6.280565 -3.123995 6.258640
  7 18.045725 0.000000 0.000000 0.000000 -0.000000 -0.127551
  8 17.597597 0.000000 0.000000 0.002950 -0.017289 0.103055
  9 3.793090 6.407221 0.000000 0.000000 -0.000000 1.570796
 10 0.935740 0.000000 0.000000 0.000000 -0.000000 0.000000
 11 0.935741 0.000000 0.000000 0.000000 -0.000000 0.000000
 12 1.293670 0.684478 -0.000001 -0.000004 -0.000001 0.061869
 13 5.309685 -0.003834 0.000000 0.000000 -0.000000 -0.104652
 14 4.826790 -0.004591 0.000000 -0.171754 -0.030657 -0.175693
 15 5.792767 -0.005304 0.000000 -0.139527 0.000539 0.003491
 16 6.662317 -0.001453 0.000000 0.000000 -0.000001 0.235544
 17 2.046985 -0.000002 0.000000 0.303993 0.073908 -0.370446
 18 -3.373751 0.755512 4.341911 1.935760 -1.233832 0.949794
 19 4.827230 0.000000 0.000001 -0.318823 0.148458 -1.053284
 20 11.139763 0.000000 0.000000 0.000000 -0.000000 -1.203894
 21 10.314597 0.000001 0.000000 -3.878403 0.130307 -0.281129
 22 2.975834 -0.386307 -0.044143 -0.000797 -0.043611 0.000035
 23 1.438886 0.000000 0.000000 0.000000 -0.000000 0.872170
 24 1.485303 0.000000 0.000000 0.000000 -0.000000 0.906977
 25 -3.112093 0.692610 -4.140396 0.592963 1.287274 3.479432
 26 4.972048 0.000000 0.000001 -0.152634 -1.252948 -0.587813
 27 11.585355 0.000000 0.000000 0.000000 -0.000000 -1.839579
 28 10.127057 0.000000 0.000001 1.550450 0.339422 -0.326744
 29 2.683750 -0.427338 0.044205 -0.005738 0.043239 -0.157060
 30 1.438885 -0.000001 0.000000 0.000000 -0.000000 0.732589
 31 1.485305 0.000001 0.000000 0.000000 -0.000000 1.168627
time 20
  0 0.235347 -0.235347 3.532833 -0.000000 -0.000000 -1.571254
  1 0.000000 0.000000 0.000000 -1.570795 -1.570796 0.000000
  2 -0.000005 0.000007 3.713255 -6.281131 3.115177 6.261712
  3 18.045721 0.000000 0.000000 0.000000 -0.000000 -0.121501
  4 17.597597 0.000000 0.000000 -0.002613 0.026036 0.099967
  5 3.793090 6.407221 0.000000 0.000000 -0.000000 1.570796
  6 0.000005 -0.000003 -3.713255 6.280565 -3.123995 6.258640
  7 18.045725 0.000000 0.000000 0.000000 -0.000000 -0.127551
  8 17.597597 0.000000 0.000000 0.002950 -0.017289 0.103055
  9 3.793090 6.407221 0.000000 0.000000 -0.000000 1.570796
 10 0.935740 0.000000 0.000000 0.000000 -0.000000 0.000000
 11 0.935741 0.000000 0.000000 0.000000 -0.000000 0.000000
 12 1.293670 0.684478 -0.000001 -0.000004 -0.000001 0.061869
 13 5.309685 -0.003834 0.000000 0.000000 -0.000000 -0.104652
 14 4.826790 -0.004591 0.000000 -0.171688 -0.030932 -0.177589
 15 5.792767 -0.005304 0.000000 -0.139527 0.000240 0.000958
 16 6.662317 -0.001453 0.000000 0.000000 -0.000001 0.235544
 17 2.046985 -0.000002 0.000000 0.303993 0.073660 -0.366176
 18 -3.373751 0.755512 4.341911 1.949278 -1.232024 0.935604
 19 4.827230 0.000000 0.000001 -0.322641 0.155181 -1.054334
 20 11.139763 0.000000 0.000000 0.000000 -0.000000 -1.203894
 21 10.314597 0.000001 0.000000 -3.878403 0.130307 -0.281129
 22 2.975834 -0.386307 -0.044143 -0.000797 -0.043611 0.000035
 23 1.438886 0.000000 0.000000 0.000000 -0.000000 0.872170
 24 1.485303 0.000000 0.000000 0.000000 -0.000000 0.906977
 25 -3.112093 0.692610 -4.140396 0.599003 1.289903 3.485951
 26 4.972048 0.000000 0.000001 -0.160060 -1.257131 -0.579711
 27 11.585355 0.000000 0.000000 0.000000 -0.000000 -1.839579
 28 10.127057 0.000000 0.000001 1.550450 0.339422 -0.326744
 29 2.683750 -0.427338 0.044205 -0.005738 0.043239 -0.157060
 30 1.438885 -0.000001 0.000000 0.000000 -0.000000 0.732589
 31 1.485305 0.000001 0.000000 0.000000 -0.000000 1.168627
time 21
  0 0.235347 -0.235347 3.532833 -0.000000 -0.000000 -1.571254
  1 0.000000 0.000000 0.000000 -1.570795 -1.570796 0.000000
  2 -0.000005 0.000007 3.713255 -6.281131 3.115177 6.261712
  3 18.045721 0.000000 0.000000 0.000000 -0.000000 -0.121501
  4 17.597597 0.000000 0.000000 -0.002613 0.026036 0.099967
  5 3.793090 6.407221 0.000000 0.000000 -0.000000 1.570796
  6 0.000005 -0.000003 -3.713255 6.280565 -3.123995 6.258640
  7 18.045725 0.000000 0.000000 0.000000 -0.000000 -0.127551
  8 17.597597 0.000000 0.000000 0.002950 -0.017289 0.103055
  9 3.793090 6.407221 0.000000 0.000000 -0.000000 1.570796
 10 0.935740 0.000000 0.000000 0.000000 -0.000000 0.000000
 11 0.935741 0.000000 0.000000 0.000000 -0.000000 0.000000
 12 1.293670 0.684478 -0.000001 -0.000004 -0.000001 0.061869
 13 5.309685 -0.003834 0.000000 0.000000 -0.000000 -0.104652
 14 4.826790 -0.004591 0.000000 -0.171606 -0.031340 -0.179617
 15 5.792767 -0.005304 0.000000 -0.139527 -0.000144 -0.001845
 16 6.662317 -0.001453 0.000000 0.000000 -0.000001 0.235544
 17 2.046985 -0.000002 0.000000 0.304036 0.073345 -0.361051
 18 -3.373751 0.755512 4.341911 1.963947 -1.229870 0.919689
 19 4.827230 0.000000 0.000001 -0.327046 0.162840 -1.055647
 20 11.139763 0.000000 0.000000 0.000000 -0.000000 -1.203894
 21 10.314597 0.000001 0.000000 -3.878403 0.130307 -0.281129
 22 2.975834 -0.386307 -0.044143 -0.000797 -0.043611 0.000035
 23 1.438886 0.000000 0.000000 0.000000 -0.000000 0.872170
 24 1.485303 0.000000 0.000000 0.000000 -0.000000 0.906977
 25 -3.112093 0.692610 -4.140396 0.605810 1.292899 3.493046
 26 4.972048 0.000000 0.000001 -0.168569 -1.261877 -0.570423
 27 11.585355 0.000000 0.000000 0.000000 -0.000000 -1.839579
 28 10.127057 0.000000 0.000001 1.550450 0.339422 -0.326744
 29 2.683750 -0.427338 0.044205 -0.005738 0.043239 -0.157060
 30 1.438885 -0.000001 0.000000 0.000000 -0.000000 0.732589
 31 1.485305 0.000001 0.000000 0.000000 -0.000000 1.168627
time 22
  0 0.235347 -0.235347 3.532833 -0.000000 -0.000000 -1.571254
  1 0.000000 0.000000 0.000000 -1.570795 -1.570796 0.000000
  2 -0.000005 0.000007 3.713255 -6.281131 3.115177 6.261712
  3 18.045721 0.000000 0.000000 0.000000 -0.000000 -0.121501
  4 17.597597 0.000000 0.000000 -0.002613 0.026036 0.099967
  5 3.793090 6.407221 0.000000 0.000000 -0.000000 1.570796
  6 0.000005 -0.000003 -3.713255 6.280565 -3.123995 6.258640
  7 18.045725 0.000000 0.000000 0.000000 -0.000000 -0.127551
  8 17.597597 0.000000 0.000000 0.002950 -0.017289 0.103055
  9 3.793090 6.407221 0.000000 0.000000 -0.000000 1.570796
 10 0.935740 0.000000 0.000000 0.000000 -0.000000 0.000000
 11 0.935741 0.000000 0.000000 0.000000 -0.000000 0.000000
 12 1.293670 0.684478 -0.000001 -0.000004 -0.000001 0.061869
 13 5.309685 -0.003834 0.000000 0.000000 -0.000000 -0.104652
 14 4.826790 -0.004591 0.000000 -0.171557 -0.031687 -0.181888
 15 5.792767 -0.005304 0.000000 -0.139527 -0.000527 -0.004897
 16 6.662317 -0.001453 0.000000 0.000000 -0.000001 0.235544
 17 2.046985 -0.000002 0.000000 0.304252 0.073030 -0.355838
 18 -3.373751 0.755512 4.341911 1.979766 -1.227447 0.903102
 19 4.827230 0.000000 0.000001 -0.331745 0.171265 -1.057047
 20 11.139763 0.000000 0.000000 0.000000 -0.000000 -1.203894
 21 10.314597 0.000001 0.000000 -3.878403 0.130307 -0.281129
 22 2.975834 -0.386307 -0.044143 -0.000797 -0.043611 0.000035
 23 1.438886 0.000000 0.000000 0.000000 -0.000000 0.872170
 24 1.485303 0.000000 0.000000 0.000000 -0.000000 0.906977
 25 -3.112093 0.692610 -4.140396 0.613959 1.296008 3.501291
 26 4.972048 0.000000 0.000001 -0.177929 -1.266784 -0.560081
 27 11.585355 0.000000 0.000000 0.000000 -0.000000 -1.839579
 28 10.127057 0.000000 0.000001 1.550450 0.339422 -0.326744
 29 2.683750 -0.427338 0.044205 -0.005738 0.043239 -0.157060
 30 1.438885 -0.000001 0.000000 0.000000 -0.000000 0.732589
 31 1.485305 0.000001 0.000000 0.000000 -0.000000 1.168627
time 23
  0 0.235347 -0.235347 3.532833 -0.000000 -0.000000 -1.571254
  1 0.000000 0.000000 0.000000 -1.570795 -1.570796 0.000000
  2 -0.000005 0.000007 3.713255 -6.281131 3.115177 6.261712
  3 18.045721 0.000000 0.000000 0.000000 -0.000000 -0.121501
  4 17.597597 0.000000 0.000000 -0.002613 0.026036 0.099967
  5 3.793090 6.407221 0.000000 0.000000 -0.000000 1.570796
  6 0.000005 -0.000003 -3.713255 6.280565 -3.123995 6.258640
  7 18.045725 0.000000 0.000000 0.000000 -0.000000 -0.127551
  8 17.597597 0.000000 0.000000 0.002950 -0.017289 0.103055
  9 3.793090 6.407221 0.000000 0.000000 -0.000000 1.570796
 10 0.935740 0.000000 0.000000 0.000000 -0.000000 0.000000
 11 0.935741 0.000000 0.000000 0.000000 -0.000000 0.000000
 12 1.293670 0.684478 -0.000001 -0.000004 -0.000001 0.061869
 13 5.309685 -0.003834 0.000000 0.000000 -0.000000 -0.104652
 14 4.826790 -0.004591 0.000000 -0.171475 -0.032143 -0.184314
 15 5.792767 -0.005304 0.000000 -0.139527 -0.001019 -0.008053
 16 6.662317 -0.001453 0.000000 0.000000 -0.000001 0.235544
 17 2.046985 -0.000002 0.000000 0.304295 0.072715 -0.350309
 18 -3.373751 0.755512 4.341911 1.996352 -1.224870 0.885557
 19 4.827230 0.000000 0.000001 -0.336679 0.179775 -1.058710
 20 11.139763 0.000000 0.000000 0.000000 -0.000000 -1.203894
 21 10.314597 0.000001 0.000000 -3.878403 0.130307 -0.281129
 22 2.975834 -0.386307 -0.044143 -0.000797 -0.043611 0.000035
 23 1.438886 0.000000 0.000000 0.000000 -0.000000 0.872170
 24 1.485303 0.000000 0.000000 0.000000 -0.000000 0.906977
 25 -3.112093 0.692610 -4.140396 0.622204 1.299230 3.509632
 26 4.972048 0.000000 0.000001 -0.188217 -1.271852 -0.549212
 27 11.585355 0.000000 0.000000 0.000000 -0.000000 -1.839579
 28 10.127057 0.000000 0.000001 1.550450 0.339422 -0.326744
 29 2.683750 -0.427338 0.044205 -0.005738 0.043239 -0.157060
 30 1.438885 -0.000001 0.000000 0.000000 -0.000000 0.732589
 31 1.485305 0.000001 0.000000 0.000000 -0.000000 1.168627
time 24
  0 0.235347 -0.235347 3.532833 -0.000000 -0.000000 -1.571254
  1 0.000000 0.000000 0.000000 -1.570795 -1.570796 0.000000
  2 -0.000005 0.000007 3.713255 -6.281131 3.115177 6.261712
  3 18.045721 0.000000 0.000000 0.000000 -0.000000 -0.121501
  4 17.597597 0.000000 0.000000 -0.002613 0.026036 0.099967
  5 3.793090 6.407221 0.000000 0.000000 -0.000000 1.570796
  6 0.000005 -0.000003 -3.713255 6.280565 -3.123995 6.258640
  7 18.045725 0.000000 0.000000 0.000000 -0.000000 -0.127551
  8 17.597597 0.000000 0.000000 0.002950 -0.017289 0.103055
  9 3.793090 6.407221 0.000000 0.000000 -0.000000 1.570796
 10 0.935740 0.000000 0.000000 0.000000 -0.000000 0.000000
 11 0.935741 0.000000 0.000000 0.000000 -0.000000 0.000000
 12 1.293670 0.684478 -0.000001 -0.000004 -0.000001 0.061869
 13 5.309685 -0.003834 0.000000 0.000000 -0.000000 -0.104652
 14 4.826790 -0.004591 0.000000 -0.171360 -0.032514 -0.186695
 15 5.792767 -0.005304 0.000000 -0.139527 -0.001414 -0.011271
 16 6.662317 -0.001453 0.000000 0.000000 -0.000001 0.235544
 17 2.046985 -0.000002 0.000000 0.304338 0.072377 -0.344691
 18 -3.373751 0.755512 4.341911 2.012267 -1.222139 0.868299
 19 4.827230 0.000000 0.000001 -0.341554 0.188455 -1.060460
 20 11.139763 0.000000 0.000000 0.000000 -0.000000 -1.203894
 21 10.314597 0.000001 0.000000 -3.878403 0.130307 -0.281129
 22 2.975834 -0.386307 -0.044143 -0.000797 -0.043611 0.000035
 23 1.438886 0.000000 0.000000 0.000000 -0.000000 0.872170
 24 1.485303 0.000000 0.000000 0.000000 -0.000000 0.906977
 25 -3.112093 0.692610 -4.140396 0.630737 1.302537 3.518644
 26 4.972048 0.000000 0.000001 -0.199047 -1.276920 -0.537816
 27 11.585355 0.000000 0.000000 0.000000 -0.000000 -1.839579
 28 10.127057 0.000000 0.000001 1.550450 0.339422 -0.326744
 29 2.683750 -0.427338 0.044205 -0.005738 0.043239 -0.157060
 30 1.438885 -0.000001 0.000000 0.000000 -0.000000 0.732589
 31 1.485305 0.000001 0.000000 0.000000 -0.000000 1.168627
time 25
  0 0.235347 -0.235347 3.532833 -0.000000 -0.000000 -1.571254
  1 0.000000 0.000000 0.000000 -1.570795 -1.570796 0.000000
  2 -0.000005 0.000007 3.713255 -6.281131 3.115177 6.261712
  3 18.045721 0.000000 0.000000 0.000000 -0.000000 -0.121501
  4 17.597597 0.000000 0.000000 -0.002613 0.026036 0.099967
  5 3.793090 6.407221 0.000000 0.000000 -0.000000 1.570796
  6 0.000005 -0.000003 -3.713255 6.280565 -3.123995 6.258640
  7 18.045725 0.000000 0.000000 0.000000 -0.000000 -0.127551
  8 17.597597 0.000000 0.000000 0.002950 -0.017289 0.103055
  9 3.793090 6.407221 0.000000 0.000000 -0.000000 1.570796
 10 0.935740 0.000000 0.000000 0.000000 -0.000000 0.000000
 11 0.935741 0.000000 0.000000 0.000000 -0.000000 0.000000
 12 1.293670 0.684478 -0.000001 -0.000004 -0.000001 0.061869
 13 5.309685 -0.003834 0.000000 0.000000 -0.000000 -0.104652
 14 4.826790 -0.004591 0.000000 -0.171327 -0.032970 -0.189054
 15 5.792767 -0.005304 0.000000 -0.139511 -0.001906 -0.014365
 16 6.662317 -0.001453 0.000000 0.000000 -0.000001 0.235544
 17 2.046985 -0.000002 0.000000 0.304381 0.072039 -0.339162
 18 -3.373751 0.755512 4.341911 2.028086 -1.219447 0.852096
 19 4.827230 0.000000 0.000001 -0.346488 0.196965 -1.061772
 20 11.139763 0.000000 0.000000 0.000000 -0.000000 -1.203894
 21 10.314597 0.000001 0.000000 -3.878403 0.130307 -0.281129
 22 2.975834 -0.386307 -0.044143 -0.000797 -0.043611 0.000035
 23 1.438886 0.000000 0.000000 0.000000 -0.000000 0.872170
 24 1.485303 0.000000 0.000000 0.000000 -0.000000 0.906977
 25 -3.112093 0.692610 -4.140396 0.639078 1.305674 3.527656
 26 4.972048 0.000000 0.000001 -0.209954 -1.282068 -0.525959
 27 11.585355 0.000000 0.000000 0.000000 -0.000000 -1.839579
 28 10.127057 0.000000 0.000001 1.550450 0.339422 -0.326744
 29 2.683750 -0.427338 0.044205 -0.005738 0.043239 -0.157060
 30 1.438885 -0.000001 0.000000 0.000000 -0.000000 0.732589
 31 1.485305 0.000001 0.000000 0.000000 -0.000000 1.168627
time 26
  0 0.235347 -0.235347 3.532833 -0.000000 -0.000000 -1.571254
  1 0.000000 0.000000 0.000000 -1.570795 -1.570796 0.000000
  2 -0.000005 0.000007 3.713255 -6.281131 3.115177 6.261712
  3 18.045721 0.000000 0.000000 0.000000 -0.000000 -0.121501
  4 17.597597 0.000000 0.000000 -0.002613 0.026036 0.099967
  5 3.793090 6.407221 0.000000 0.000000 -0.000000 1.570796
  6 0.000005 -0.000003 -3.713255 6.280565 -3.123995 6.258640
  7 18.045725 0.000000 0.000000 0.000000 -0.000000 -0.127551
  8 17.597597 0.000000 0.000000 0.002950 -0.017289 0.103055
  9 3.793090 6.407221 0.000000 0.000000 -0.000000 1.570796
 10 0.935740 0.000000 0.000000 0.000000 -0.000000 0.000000
 11 0.935741 0.000000 0.000000 0.000000 -0.000000 0.000000
 12 1.293670 0.684478 -0.000001 -0.000004 -0.000001 0.061869
 13 5.309685 -0.003834 0.000000 0.000000 -0.000000 -0.104652
 14 4.826790 -0.004591 0.000000 -0.171245 -0.033305 -0.191259
 15 5.792767 -0.005304 0.000000 -0.139511 -0.002277 -0.017334
 16 6.662317 -0.001453 0.000000 0.000000 -0.000001 0.235544
 17 2.046985 -0.000002 0.000000 0.304424 0.071724 -0.333723
 18 -3.373751 0.755512 4.341911 2.042467 -1.216716 0.836181
 19 4.827230 0.000000 0.000001 -0.351128 0.205050 -1.063873
 20 11.139763 0.000000 0.000000 0.000000 -0.000000 -1.203894
 21 10.314597 0.000001 0.000000 -3.878403 0.130307 -0.281129
 22 2.975834 -0.386307 -0.044143 -0.000797 -0.043611 0.000035
 23 1.438886 0.000000 0.000000 0.000000 -0.000000 0.872170
 24 1.485303 0.000000 0.000000 0.000000 -0.000000 0.906977
 25 -3.112093 0.692610 -4.140396 0.647323 1.308755 3.536093
 26 4.972048 0.000000 0.000001 -0.220706 -1.286814 -0.514563
 27 11.585355 0.000000 0.000000 0.000000 -0.000000 -1.839579
 28 10.127057 0.000000 0.000001 1.550450 0.339422 -0.326744
 29 2.683750 -0.427338 0.044205 -0.005738 0.043239 -0.157060
 30 1.438885 -0.000001 0.000000 0.000000 -0.000000 0.732589
 31 1.485305 0.000001 0.000000 0.000000 -0.000000 1.168627
time 27
  0 0.235347 -0.235347 3.532833 -0.000000 -0.000000 -1.571254
  1 0.000000 0.000000 0.000000 -1.570795 -1.570796 0.000000
  2 -0.000005 0.000007 3.713255 -6.281131 3.115177 6.261712
  3 18.045721 0.000000 0.000000 0.000000 -0.000000 -0.121501
  4 17.597597 0.000000 0.000000 -0.002613 0.026036 0.099967
  5 3.793090 6.407221 0.000000 0.000000 -0.000000 1.570796
  6 0.000005 -0.000003 -3.713255 6.280565 -3.123995 6.258640
  7 18.045725 0.000000 0.000000 0.000000 -0.000000 -0.127551
  8 17.597597 0.000000 0.000000 0.002950 -0.017289 0.103055
  9 3.793090 6.407221 0.000000 0.000000 -0.000000 1.570796
 10 0.935740 0.000000 0.000000 0.000000 -0.000000 0.000000
 11 0.935741 0.000000 0.000000 0.000000 -0.000000 0.000000
 12 1.293670 0.684478 -0.000001 -0.000004 -0.000001 0.061869
 13 5.309685 -0.003834 0.000000 0.000000 -0.000000 -0.104652
 14 4.826790 -0.004591 0.000000 -0.171179 -0.033701 -0.193243
 15 5.792767 -0.005304 0.000000 -0.139511 -0.002709 -0.020116
 16 6.662317 -0.001453 0.000000 0.000000 -0.000001 0.235544
 17 2.046985 -0.000002 0.000000 0.304467 0.071454 -0.329094
 18 -3.373751 0.755512 4.341911 2.055889 -1.214139 0.822087
 19 4.827230 0.000000 0.000001 -0.355533 0.212624 -1.065448
 20 11.139763 0.000000 0.000000 0.000000 -0.000000 -1.203894
 21 10.314597 0.000001 0.000000 -3.878403 0.130307 -0.281129
 22 2.975834 -0.386307 -0.044143 -0.000797 -0.043611 0.000035
 23 1.438886 0.000000 0.000000 0.000000 -0.000000 0.872170
 24 1.485303 0.000000 0.000000 0.000000 -0.000000 0.906977
 25 -3.112093 0.692610 -4.140396 0.655472 1.311440 3.544434
 26 4.972048 0.000000 0.000001 -0.230917 -1.291158 -0.503760
 27 11.585355 0.000000 0.000000 0.000000 -0.000000 -1.839579
 28 10.127057 0.000000 0.000001 1.550450 0.339422 -0.326744
 29 2.683750 -0.427338 0.044205 -0.005738 0.043239 -0.157060
 30 1.438885 -0.000001 0.000000 0.000000 -0.000000 0.732589
 31 1.485305 0.000001 0.000000 0.000000 -0.000000 1.168627
time 28
  0 0.235347 -0.235347 3.532833 -0.000000 -0.000000 -1.571254
  1 0.000000 0.000000 0.000000 -1.570795 -1.570796 0.000000
  2 -0.000005 0.000007 3.713255 -6.281131 3.115177 6.261712
  3 18.045721 0.000000 0.000000 0.000000 -0.000000 -0.121501
  4 17.597597 0.000000 0.000000 -0.002613 0.026036 0.099967
  5 3.793090 6.407221 0.000000 0.000000 -0.000000 1.570796
  6 0.000005 -0.000003 -3.713255 6.280565 -3.123995 6.258640
  7 18.045725 0.000000 0.000000 0.000000 -0.000000 -0.127551
  8 17.597597 0.000000 0.000000 0.002950 -0.017289 0.103055
  9 3.793090 6.407221 0.000000 0.000000 -0.000000 1.570796
 10 0.935740 0.000000 0.000000 0.000000 -0.000000 0.000000
 11 0.935741 0.000000 0.000000 0.000000 -0.000000 0.000000
 12 1.293670 0.684478 -0.000001 -0.000004 -0.000001 0.061869
 13 5.309685 -0.003834 0.000000 0.000000 -0.000000 -0.104652
 14 4.826790 -0.004591 0.000000 -0.171097 -0.033964 -0.195029
 15 5.792767 -0.005304 0.000000 -0.139495 -0.002996 -0.022504
 16 6.662317 -0.001453 0.000000 0.000000 -0.000001 0.235544
 17 2.046985 -0.000002 0.000000 0.304467 0.071206 -0.324914
 18 -3.373751 0.755512 4.341911 2.067298 -1.211908 0.810295
 19 4.827230 0.000000 0.000001 -0.359175 0.218836 -1.066936
 20 11.139763 0.000000 0.000000 0.000000 -0.000000 -1.203894
 21 10.314597 0.000001 0.000000 -3.878403 0.130307 -0.281129
 22 2.975834 -0.386307 -0.044143 -0.000797 -0.043611 0.000035
 23 1.438886 0.000000 0.000000 0.000000 -0.000000 0.872170
 24 1.485303 0.000000 0.000000 0.000000 -0.000000 0.906977
 25 -3.112093 0.692610 -4.140396 0.662471 1.313871 3.551720
 26 4.972048 0.000000 0.000001 -0.240122 -1.295019 -0.494340
 27 11.585355 0.000000 0.000000 0.000000 -0.000000 -1.839579
 28 10.127057 0.000000 0.000001 1.550450 0.339422 -0.326744
 29 2.683750 -0.427338 0.044205 -0.005738 0.043239 -0.157060
 30 1.438885 -0.000001 0.000000 0.000000 -0.000000 0.732589
 31 1.485305 0.000001 0.000000 0.000000 -0.000000 1.168627
time 29
  0 0.235347 -0.235347 3.532833 -0.000000 -0.000000 -1.571254
  1 0.000000 0.000000 0.000000 -1.570795 -1.570796 0.000000
  2 -0.000005 0.000007 3.713255 -6.281131 3.115177 6.261712
  3 18.045721 0.000000 0.000000 0.000000 -0.000000 -0.121501
  4 17.597597 0.000000 0.000000 -0.002613 0.026036 0.099967
  5 3.793090 6.407221 0.000000 0.000000 -0.000000 1.570796
  6 0.000005 -0.000003 -3.713255 6.280565 -3.123995 6.258640
  7 18.045725 0.000000 0.000000 0.000000 -0.000000 -0.127551
  8 17.597597 0.000000 0.000000 0.002950 -0.017289 0.103055
  9 3.793090 6.407221 0.000000 0.000000 -0.000000 1.570796
 10 0.935740 0.000000 0.000000 0.000000 -0.000000 0.000000
 11 0.935741 0.000000 0.000000 0.000000 -0.000000 0.000000
 12 1.293670 0.684478 -0.000001 -0.000004 -0.000001 0.061869
 13 5.309685 -0.003834 0.000000 0.000000 -0.000000 -0.104652
 14 4.826790 -0.004591 0.000000 -0.171048 -0.034264 -0.196506
 15 5.792767 -0.005304 0.000000 -0.139495 -0.003320 -0.024435
 16 6.662317 -0.001453 0.000000 0.000000 -0.000001 0.235544
 17 2.046985 -0.000002 0.000000 0.304467 0.070981 -0.321453
 18 -3.373751 0.755512 4.341911 2.076502 -1.209985 0.800323
 19 4.827230 0.000000 0.000001 -0.362464 0.224453 -1.068161
 20 11.139763 0.000000 0.000000 0.000000 -0.000000 -1.203894
 21 10.314597 0.000001 0.000000 -3.878403 0.130307 -0.281129
 22 2.975834 -0.386307 -0.044143 -0.000797 -0.043611 0.000035
 23 1.438886 0.000000 0.000000 0.000000 -0.000000 0.872170
 24 1.485303 0.000000 0.000000 0.000000 -0.000000 0.906977
 25 -3.112093 0.692610 -4.140396 0.668415 1.315821 3.557760
 26 4.972048 0.000000 0.000001 -0.247935 -1.298156 -0.486172
 27 11.585355 0.000000 0.000000 0.000000 -0.000000 -1.839579
 28 10.127057 0.000000 0.000001 1.550450 0.339422 -0.326744
 29 2.683750 -0.427338 0.044205 -0.005738 0.043239 -0.157060
 30 1.438885 -0.000001 0.000000 0.000000 -0.000000 0.732589
 31 1.485305 0.000001 0.000000 0.000000 -0.000000 1.168627
time 30
  0 0.235347 -0.235347 3.532833 -0.000000 -0.000000 -1.571254
  1 0.000000 0.000000 0.000000 -1.570795 -1.570796 0.000000
  2 -0.000005 0.000007 3.713255 -6.281131 3.115177 6.261712
  3 18.045721 0.000000 0.000000 0.000000 -0.000000 -0.121501
  4 17.597597 0.000000 0.000000 -0.002613 0.026036 0.099967
  5 3.793090 6.407221 0.000000 0.000000 -0.000000 1.570796
  6 0.000005 -0.000003 -3.713255 6.280565 -3.123995 6.258640
  7 18.045725 0.000000 0.000000 0.000000 -0.000000 -0.127551
  8 17.597597 0.000000 0.000000 0.002950 -0.017289 0.103055
  9 3.793090 6.407221 0.000000 0.000000 -0.000000 1.570796
 10 0.935740 0.000000 0.000000 0.000000 -0.000000 0.000000
 11 0.935741 0.000000 0.000000 0.000000 -0.000000 0.000000
 12 1.293670 0.684478 -0.000001 -0.000004 -0.000001 0.061869
 13 5.309685 -0.003834 0.000000 0.000000 -0.000000 -0.104652
 14 4.826790 -0.004591 0.000000 -0.171015 -0.034456 -0.197653
 15 5.792767 -0.005304 0.000000 -0.139478 -0.003500 -0.025909
 16 6.662317 -0.001453 0.000000 0.000000 -0.000001 0.235544
 17 2.046985 -0.000002 0.000000 0.304467 0.070846 -0.318891
 18 -3.373751 0.755512 4.341911 2.083213 -1.208562 0.792845
 19 4.827230 0.000000 0.000001 -0.364755 0.228112 -1.069211
 20 11.139763 0.000000 0.000000 0.000000 -0.000000 -1.203894
 21 10.314597 0.000001 0.000000 -3.878403 0.130307 -0.281129
 22 2.975834 -0.386307 -0.044143 -0.000797 -0.043611 0.000035
 23 1.438886 0.000000 0.000000 0.000000 -0.000000 0.872170
 24 1.485303 0.000000 0.000000 0.000000 -0.000000 0.906977
 25 -3.112093 0.692610 -4.140396 0.672346 1.317206 3.562266
 26 4.972048 0.000000 0.000001 -0.253814 -1.300328 -0.479980
 27 11.585355 0.000000 0.000000 0.000000 -0.000000 -1.839579
 28 10.127057 0.000000 0.000001 1.550450 0.339422 -0.326744
 29 2.683750 -0.427338 0.044205 -0.005738 0.043239 -0.157060
 30 1.438885 -0.000001 0.000000 0.000000 -0.000000 0.732589
 31 1.485305 0.000001 0.000000 0.000000 -0.000000 1.168627
end
