version 1
nodes
  0 "Bip01"  -1
  1 "Bip01 Pelvis"   0
  2 "Bip01 L Leg"   1
  3 "Bip01 L Leg1"   2
  4 "Bip01 L Foot"   3
  5 "Bip01 L Toe0"   4
  6 "Bip01 R Leg"   1
  7 "Bip01 R Leg1"   6
  8 "Bip01 R Foot"   7
  9 "Bip01 R Toe0"   8
 10 "Bip01 R Toe01"   9
 11 "Bip01 R Toe02"  10
 12 "Bip01 Spine"   1
 13 "Bip01 Spine1"  12
 14 "Bip01 Spine2"  13
 15 "Bip01 Spine3"  14
 16 "Bip01 Neck"  15
 17 "Bip01 Head"  16
 18 "Bip01 L Arm"  16
 19 "Bip01 L Arm1"  18
 20 "Bip01 L Arm2"  19
 21 "Bip01 L Hand"  20
 22 "Bip01 L Finger1"  21
 23 "Bip01 L Finger11"  22
 24 "Bip01 L Finger12"  23
 25 "Bip01 R Arm"  16
 26 "Bip01 R Arm1"  25
 27 "Bip01 R Arm2"  26
 28 "Bip01 R Hand"  27
 29 "Bip01 R Finger1"  28
 30 "Bip01 R Finger11"  29
 31 "Bip01 R Finger12"  30
end
skeleton
time 0
  0 0.235347 -0.235347 3.532833 -0.000000 -0.000000 -1.571254
  1 -2.918058 0.105472 0.000000 -1.570795 -1.570796 0.000000
  2 -0.000005 0.000007 3.713255 -6.281131 3.115177 6.261712
  3 18.045721 0.000000 0.000000 0.000000 -0.000000 -0.121501
  4 17.597597 0.000000 0.000000 -0.002613 0.026036 0.099967
  5 3.793090 6.407221 0.000000 0.000000 -0.000000 1.570796
  6 0.000005 -0.000003 -3.713255 6.280565 -3.123995 6.258640
  7 18.045725 0.000000 0.000000 0.000000 -0.000000 -0.127551
  8 17.597597 0.000000 0.000000 0.002950 -0.017289 0.103055
  9 3.793090 6.407221 0.000000 0.000000 -0.000000 1.570796
 10 0.935740 0.000000 0.000000 0.000000 -0.000000 0.000000
 11 0.935741 0.000000 0.000000 0.000000 -0.000000 0.000000
 12 1.293670 0.684478 -0.000001 -0.000004 -0.000001 0.306054
 13 5.309685 -0.003834 0.000000 0.000000 -0.000000 -0.000013
 14 4.826790 -0.004591 0.000000 -0.173330 0.019775 0.111663
 15 5.792767 -0.005304 0.000000 -0.138174 0.019451 0.138180
 16 6.662317 -0.001453 0.000000 0.000000 -0.000001 0.471000
 17 2.046985 -0.000002 0.000000 0.254577 -0.184691 -0.061026
 18 -3.112024 1.517254 4.341911 1.021706 -1.200331 1.679890
 19 4.827230 0.000000 0.000001 0.094622 0.640936 -0.848333
 20 11.139763 0.000000 0.000000 0.000000 -0.000000 -1.001223
 21 10.314597 0.000001 0.000000 -4.171504 0.083241 -0.332944
 22 2.975834 -0.386307 -0.044143 -0.000797 -0.043611 0.000035
 23 1.438886 0.000000 0.000000 0.000000 -0.000000 0.872170
 24 1.485303 0.000000 0.000000 0.000000 -0.000000 0.906977
 25 -2.869898 1.399663 -4.140396 0.672346 1.317206 3.326706
 26 4.972048 0.000000 0.000001 -1.089322 -1.024254 0.318132
 27 11.585355 0.000000 0.000000 0.000000 -0.000000 -1.839579
 28 10.127057 0.000000 0.000001 1.558986 0.257098 0.061431
 29 2.683750 -0.427338 0.044205 -0.005738 0.043239 -0.157060
 30 1.438885 -0.000001 0.000000 0.000000 -0.000000 0.732589
 31 1.485305 0.000001 0.000000 0.000000 -0.000000 1.168627
time 1
  0 0.235347 -0.235347 3.532833 -0.000000 -0.000000 -1.571254
  1 -2.304758 0.050783 0.000000 -1.570795 -1.570796 0.000000
  2 -0.000005 0.000007 3.713255 -6.281131 3.115177 6.261712
  3 18.045721 0.000000 0.000000 0.000000 -0.000000 -0.121501
  4 17.597597 0.000000 0.000000 -0.002613 0.026036 0.099967
  5 3.793090 6.407221 0.000000 0.000000 -0.000000 1.570796
  6 0.000005 -0.000003 -3.713255 6.280565 -3.123995 6.258640
  7 18.045725 0.000000 0.000000 0.000000 -0.000000 -0.127551
  8 17.597597 0.000000 0.000000 0.002950 -0.017289 0.103055
  9 3.793090 6.407221 0.000000 0.000000 -0.000000 1.570796
 10 0.935740 0.000000 0.000000 0.000000 -0.000000 0.000000
 11 0.935741 0.000000 0.000000 0.000000 -0.000000 0.000000
 12 1.293670 0.684478 -0.000001 -0.000004 -0.000001 0.271149
 13 5.309685 -0.003834 0.000000 0.000000 -0.000000 -0.000013
 14 4.826790 -0.004591 0.000000 -0.244117 0.006508 0.025344
 15 5.792767 -0.005304 0.000000 -0.138989 0.012176 0.086356
 16 6.662317 -0.001453 0.000000 0.000000 -0.000001 0.471000
 17 2.046985 -0.000002 0.000000 0.296109 -0.247725 0.101146
 18 -3.112024 1.517254 4.341911 1.021706 -1.200331 1.679890
 19 4.827230 0.000000 0.000001 0.029190 0.898621 -0.936894
 20 11.139763 0.000000 0.000000 0.000000 -0.000000 -0.986506
 21 10.314597 0.000001 0.000000 -4.171504 0.083241 -0.332944
 22 2.975834 -0.386307 -0.044143 -0.000797 -0.043611 0.000035
 23 1.438886 0.000000 0.000000 0.000000 -0.000000 0.872170
 24 1.485303 0.000000 0.000000 0.000000 -0.000000 0.906977
 25 -2.869898 1.399663 -4.140396 1.167435 1.093750 3.792937
 26 4.972048 0.000000 0.000001 -1.320922 -0.247355 0.262667
 27 11.585355 0.000000 0.000000 0.000000 -0.000000 -2.349075
 28 10.127057 0.000000 0.000001 1.977382 0.257098 0.061431
 29 2.683750 -0.427338 0.044205 -0.005738 0.043239 -0.157060
 30 1.438885 -0.000001 0.000000 0.000000 -0.000000 0.732589
 31 1.485305 0.000001 0.000000 0.000000 -0.000000 1.168627
time 2
  0 0.235347 -0.235347 3.532833 -0.000000 -0.000000 -1.571254
  1 -2.312571 0.050783 0.000000 -1.570795 -1.570796 0.000000
  2 -0.000005 0.000007 3.713255 -6.281131 3.115177 6.261712
  3 18.045721 0.000000 0.000000 0.000000 -0.000000 -0.121501
  4 17.597597 0.000000 0.000000 -0.002613 0.026036 0.099967
  5 3.793090 6.407221 0.000000 0.000000 -0.000000 1.570796
  6 0.000005 -0.000003 -3.713255 6.280565 -3.123995 6.258640
  7 18.045725 0.000000 0.000000 0.000000 -0.000000 -0.127551
  8 17.597597 0.000000 0.000000 0.002950 -0.017289 0.103055
  9 3.793090 6.407221 0.000000 0.000000 -0.000000 1.570796
 10 0.935740 0.000000 0.000000 0.000000 -0.000000 0.000000
 11 0.935741 0.000000 0.000000 0.000000 -0.000000 0.000000
 12 1.293670 0.684478 -0.000001 -0.000004 -0.000001 0.263783
 13 5.309685 -0.003834 0.000000 0.000000 -0.000000 -0.000013
 14 4.826790 -0.004591 0.000000 -0.161557 0.006568 0.039499
 15 5.792767 -0.005304 0.000000 -0.082066 0.009528 0.114552
 16 6.662317 -0.001453 0.000000 0.000000 -0.000001 0.471000
 17 2.046985 -0.000002 0.000000 0.185472 -0.159725 0.089235
 18 -3.112024 1.517254 4.341911 1.021706 -1.200331 1.679890
 19 4.827230 0.000000 0.000001 -0.042175 0.696677 -1.056522
 20 11.139763 0.000000 0.000000 0.000000 -0.000000 -1.403481
 21 10.314597 0.000001 0.000000 -4.171504 0.083241 -0.332944
 22 2.975834 -0.386307 -0.044143 -0.000797 -0.043611 0.000035
 23 1.438886 0.000000 0.000000 0.000000 -0.000000 0.872170
 24 1.485303 0.000000 0.000000 0.000000 -0.000000 0.906977
 25 -2.869898 1.399663 -4.140396 1.103967 1.147310 3.735892
 26 4.972048 0.000000 0.000001 -1.133801 -0.630576 0.287172
 27 11.585355 0.000000 0.000000 0.000000 -0.000000 -2.212590
 28 10.127057 0.000000 0.000001 1.803475 0.320039 -0.240997
 29 2.683750 -0.427338 0.044205 -0.005738 0.043239 -0.157060
 30 1.438885 -0.000001 0.000000 0.000000 -0.000000 0.732589
 31 1.485305 0.000001 0.000000 0.000000 -0.000000 1.168627
time 3
  0 0.235347 -0.235347 3.532833 -0.000000 -0.000000 -1.571254
  1 -2.429762 0.039064 0.000000 -1.570795 -1.570796 0.000000
  2 -0.000005 0.000007 3.713255 -6.281131 3.115177 6.261712
  3 18.045721 0.000000 0.000000 0.000000 -0.000000 -0.121501
  4 17.597597 0.000000 0.000000 -0.002613 0.026036 0.099967
  5 3.793090 6.407221 0.000000 0.000000 -0.000000 1.570796
  6 0.000005 -0.000003 -3.713255 6.280565 -3.123995 6.258640
  7 18.045725 0.000000 0.000000 0.000000 -0.000000 -0.127551
  8 17.597597 0.000000 0.000000 0.002950 -0.017289 0.103055
  9 3.793090 6.407221 0.000000 0.000000 -0.000000 1.570796
 10 0.935740 0.000000 0.000000 0.000000 -0.000000 0.000000
 11 0.935741 0.000000 0.000000 0.000000 -0.000000 0.000000
 12 1.293670 0.684478 -0.000001 -0.000004 -0.000001 0.266428
 13 5.309685 -0.003834 0.000000 0.000000 -0.000000 -0.000013
 14 4.826790 -0.004591 0.000000 -0.104448 0.006699 0.063421
 15 5.792767 -0.005304 0.000000 -0.051803 0.007311 0.139322
 16 6.662317 -0.001453 0.000000 0.000000 -0.000001 0.471000
 17 2.046985 -0.000002 0.000000 0.119512 -0.101710 0.047119
 18 -3.112024 1.517254 4.341911 1.021706 -1.200331 1.679890
 19 4.827230 0.000000 0.000001 -0.191659 0.422142 -1.155322
 20 11.139763 0.000000 0.000000 0.000000 -0.000000 -1.295488
 21 10.314597 0.000001 0.000000 -4.171504 0.083241 -0.332944
 22 2.975834 -0.386307 -0.044143 -0.000797 -0.043611 0.000035
 23 1.438886 0.000000 0.000000 0.000000 -0.000000 0.872170
 24 1.485303 0.000000 0.000000 0.000000 -0.000000 0.906977
 25 -2.869898 1.399663 -4.140396 0.985276 1.219186 3.625830
 26 4.972048 0.000000 0.000001 -0.867314 -0.956201 0.176572
 27 11.585355 0.000000 0.000000 0.000000 -0.000000 -2.043854
 28 10.127057 0.000000 0.000001 1.625619 0.313921 -0.407862
 29 2.683750 -0.427338 0.044205 -0.005738 0.043239 -0.157060
 30 1.438885 -0.000001 0.000000 0.000000 -0.000000 0.732589
 31 1.485305 0.000001 0.000000 0.000000 -0.000000 1.168627
time 4
  0 0.235347 -0.235347 3.532833 -0.000000 -0.000000 -1.571254
  1 -2.601642 0.058596 0.000000 -1.570795 -1.570796 0.000000
  2 -0.000005 0.000007 3.713255 -6.281131 3.115177 6.261712
  3 18.045721 0.000000 0.000000 0.000000 -0.000000 -0.121501
  4 17.597597 0.000000 0.000000 -0.002613 0.026036 0.099967
  5 3.793090 6.407221 0.000000 0.000000 -0.000000 1.570796
  6 0.000005 -0.000003 -3.713255 6.280565 -3.123995 6.258640
  7 18.045725 0.000000 0.000000 0.000000 -0.000000 -0.127551
  8 17.597597 0.000000 0.000000 0.002950 -0.017289 0.103055
  9 3.793090 6.407221 0.000000 0.000000 -0.000000 1.570796
 10 0.935740 0.000000 0.000000 0.000000 -0.000000 0.000000
 11 0.935741 0.000000 0.000000 0.000000 -0.000000 0.000000
 12 1.293670 0.684478 -0.000001 -0.000004 -0.000001 0.279218
 13 5.309685 -0.003834 0.000000 0.000000 -0.000000 -0.000013
 14 4.826790 -0.004591 0.000000 -0.117075 0.009767 0.082449
 15 5.792767 -0.005304 0.000000 -0.074060 0.010451 0.139135
 16 6.662317 -0.001453 0.000000 0.000000 -0.000001 0.471000
 17 2.046985 -0.000002 0.000000 0.149627 -0.120868 0.011880
 18 -3.112024 1.517254 4.341911 1.021706 -1.200331 1.679890
 19 4.827230 0.000000 0.000001 -0.094098 0.499158 -1.070874
 20 11.139763 0.000000 0.000000 0.000000 -0.000000 -1.174320
 21 10.314597 0.000001 0.000000 -4.171504 0.083241 -0.332944
 22 2.975834 -0.386307 -0.044143 -0.000797 -0.043611 0.000035
 23 1.438886 0.000000 0.000000 0.000000 -0.000000 0.872170
 24 1.485303 0.000000 0.000000 0.000000 -0.000000 0.906977
 25 -2.869898 1.399663 -4.140396 0.860545 1.269383 3.507427
 26 4.972048 0.000000 0.000001 -0.897792 -1.029322 0.210562
 27 11.585355 0.000000 0.000000 0.000000 -0.000000 -1.940247
 28 10.127057 0.000000 0.000001 1.576441 0.287174 -0.252294
 29 2.683750 -0.427338 0.044205 -0.005738 0.043239 -0.157060
 30 1.438885 -0.000001 0.000000 0.000000 -0.000000 0.732589
 31 1.485305 0.000001 0.000000 0.000000 -0.000000 1.168627
time 5
  0 0.235347 -0.235347 3.532833 -0.000000 -0.000000 -1.571254
  1 -2.789148 0.082034 0.000000 -1.570795 -1.570796 0.000000
  2 -0.000005 0.000007 3.713255 -6.281131 3.115177 6.261712
  3 18.045721 0.000000 0.000000 0.000000 -0.000000 -0.121501
  4 17.597597 0.000000 0.000000 -0.002613 0.026036 0.099967
  5 3.793090 6.407221 0.000000 0.000000 -0.000000 1.570796
  6 0.000005 -0.000003 -3.713255 6.280565 -3.123995 6.258640
  7 18.045725 0.000000 0.000000 0.000000 -0.000000 -0.127551
  8 17.597597 0.000000 0.000000 0.002950 -0.017289 0.103055
  9 3.793090 6.407221 0.000000 0.000000 -0.000000 1.570796
 10 0.935740 0.000000 0.000000 0.000000 -0.000000 0.000000
 11 0.935741 0.000000 0.000000 0.000000 -0.000000 0.000000
 12 1.293670 0.684478 -0.000001 -0.000004 -0.000001 0.294804
 13 5.309685 -0.003834 0.000000 0.000000 -0.000000 -0.000013
 14 4.826790 -0.004591 0.000000 -0.149357 0.015161 0.099646
 15 5.792767 -0.005304 0.000000 -0.111074 0.015652 0.138678
 16 6.662317 -0.001453 0.000000 0.000000 -0.000001 0.471000
 17 2.046985 -0.000002 0.000000 0.209254 -0.158779 -0.029517
 18 -3.112024 1.517254 4.341911 1.021706 -1.200331 1.679890
 19 4.827230 0.000000 0.000001 0.013155 0.584344 -0.946783
 20 11.139763 0.000000 0.000000 0.000000 -0.000000 -1.072494
 21 10.314597 0.000001 0.000000 -4.171504 0.083241 -0.332944
 22 2.975834 -0.386307 -0.044143 -0.000797 -0.043611 0.000035
 23 1.438886 0.000000 0.000000 0.000000 -0.000000 0.872170
 24 1.485303 0.000000 0.000000 0.000000 -0.000000 0.906977
 25 -2.869898 1.399663 -4.140396 0.728240 1.305533 3.380491
 26 4.972048 0.000000 0.000001 -1.050645 -1.025461 0.321228
 27 11.585355 0.000000 0.000000 0.000000 -0.000000 -1.866513
 28 10.127057 0.000000 0.000001 1.564974 0.264326 -0.018824
 29 2.683750 -0.427338 0.044205 -0.005738 0.043239 -0.157060
 30 1.438885 -0.000001 0.000000 0.000000 -0.000000 0.732589
 31 1.485305 0.000001 0.000000 0.000000 -0.000000 1.168627
time 6
  0 0.235347 -0.235347 3.532833 -0.000000 -0.000000 -1.571254
  1 -2.918058 0.105472 0.000000 -1.570795 -1.570796 0.000000
  2 -0.000005 0.000007 3.713255 -6.281131 3.115177 6.261712
  3 18.045721 0.000000 0.000000 0.000000 -0.000000 -0.121501
  4 17.597597 0.000000 0.000000 -0.002613 0.026036 0.099967
  5 3.793090 6.407221 0.000000 0.000000 -0.000000 1.570796
  6 0.000005 -0.000003 -3.713255 6.280565 -3.123995 6.258640
  7 18.045725 0.000000 0.000000 0.000000 -0.000000 -0.127551
  8 17.597597 0.000000 0.000000 0.002950 -0.017289 0.103055
  9 3.793090 6.407221 0.000000 0.000000 -0.000000 1.570796
 10 0.935740 0.000000 0.000000 0.000000 -0.000000 0.000000
 11 0.935741 0.000000 0.000000 0.000000 -0.000000 0.000000
 12 1.293670 0.684478 -0.000001 -0.000004 -0.000001 0.306054
 13 5.309685 -0.003834 0.000000 0.000000 -0.000000 -0.000013
 14 4.826790 -0.004591 0.000000 -0.173330 0.019775 0.111663
 15 5.792767 -0.005304 0.000000 -0.138174 0.019451 0.138180
 16 6.662317 -0.001453 0.000000 0.000000 -0.000001 0.471000
 17 2.046985 -0.000002 0.000000 0.254577 -0.184691 -0.061026
 18 -3.112024 1.517254 4.341911 1.021706 -1.200331 1.679890
 19 4.827230 0.000000 0.000001 0.094622 0.640936 -0.848333
 20 11.139763 0.000000 0.000000 0.000000 -0.000000 -1.001223
 21 10.314597 0.000001 0.000000 -4.171504 0.083241 -0.332944
 22 2.975834 -0.386307 -0.044143 -0.000797 -0.043611 0.000035
 23 1.438886 0.000000 0.000000 0.000000 -0.000000 0.872170
 24 1.485303 0.000000 0.000000 0.000000 -0.000000 0.906977
 25 -2.869898 1.399663 -4.140396 0.672346 1.317206 3.326706
 26 4.972048 0.000000 0.000001 -1.089322 -1.024254 0.318132
 27 11.585355 0.000000 0.000000 0.000000 -0.000000 -1.839579
 28 10.127057 0.000000 0.000001 1.558986 0.257098 0.061431
 29 2.683750 -0.427338 0.044205 -0.005738 0.043239 -0.157060
 30 1.438885 -0.000001 0.000000 0.000000 -0.000000 0.732589
 31 1.485305 0.000001 0.000000 0.000000 -0.000000 1.168627
end
