version 1
nodes
  0 "Bip01"  -1
  1 "Bip01 Pelvis"   0
  2 "Bip01 L Leg"   1
  3 "Bip01 L Leg1"   2
  4 "Bip01 L Foot"   3
  5 "Bip01 L Toe0"   4
  6 "Bip01 R Leg"   1
  7 "Bip01 R Leg1"   6
  8 "Bip01 R Foot"   7
  9 "Bip01 R Toe0"   8
 10 "Bip01 R Toe01"   9
 11 "Bip01 R Toe02"  10
 12 "Bip01 Spine"   1
 13 "Bip01 Spine1"  12
 14 "Bip01 Spine2"  13
 15 "Bip01 Spine3"  14
 16 "Bip01 Neck"  15
 17 "Bip01 Head"  16
 18 "Bip01 L Arm"  16
 19 "Bip01 L Arm1"  18
 20 "Bip01 L Arm2"  19
 21 "Bip01 L Hand"  20
 22 "Bip01 L Finger1"  21
 23 "Bip01 L Finger11"  22
 24 "Bip01 L Finger12"  23
 25 "Bip01 R Arm"  16
 26 "Bip01 R Arm1"  25
 27 "Bip01 R Arm2"  26
 28 "Bip01 R Hand"  27
 29 "Bip01 R Finger1"  28
 30 "Bip01 R Finger11"  29
 31 "Bip01 R Finger12"  30
end
skeleton
time 0
  0 0.235347 -0.235347 3.532833 -0.000000 -0.000000 -1.571254
  1 0.000000 0.000000 0.000000 -1.570795 -1.570796 0.000000
  2 -0.000005 0.000007 3.713255 -6.281131 3.115177 6.261712
  3 18.045721 0.000000 0.000000 0.000000 -0.000000 -0.121501
  4 17.597597 0.000000 0.000000 -0.002613 0.026036 0.099967
  5 3.793090 6.407221 0.000000 0.000000 -0.000000 1.570796
  6 0.000005 -0.000003 -3.713255 6.280565 -3.123995 6.258640
  7 18.045725 0.000000 0.000000 0.000000 -0.000000 -0.127551
  8 17.597597 0.000000 0.000000 0.002950 -0.017289 0.103055
  9 3.793090 6.407221 0.000000 0.000000 -0.000000 1.570796
 10 0.935740 0.000000 0.000000 0.000000 -0.000000 0.000000
 11 0.935741 0.000000 0.000000 0.000000 -0.000000 0.000000
 12 1.293670 0.684478 -0.000001 -0.000004 -0.000001 0.035686
 13 5.309685 -0.003834 0.000000 0.000000 -0.000000 -0.104652
 14 4.826790 -0.004591 0.000000 -0.173330 -0.019499 -0.111620
 15 5.792767 -0.005304 0.000000 -0.138908 -0.013159 -0.094966
 16 6.662317 -0.001453 0.000000 0.000000 -0.000001 0.095957
 17 2.046985 -0.000002 0.000000 0.305286 0.072377 -0.162518
 18 -3.447972 0.282841 4.341911 -0.257721 -1.364220 3.297319
 19 4.827230 0.000000 0.000001 1.043743 1.133499 0.782964
 20 11.139763 0.000000 0.000000 0.000000 -0.000000 -0.395663
 21 10.314597 0.000001 0.000000 -1.642354 0.083241 -0.332944
 22 2.975834 -0.386307 -0.044143 -0.023088 -0.037007 0.541079
 23 1.438886 0.000000 0.000000 0.000000 -0.000000 1.700833
 24 1.485303 0.000000 0.000000 0.000000 -0.000000 1.229654
 25 -3.182408 0.251190 -4.140396 0.672346 1.317206 3.701570
 26 4.972048 0.000000 0.000001 0.881831 -1.070910 -1.336586
 27 11.585355 0.000000 0.000000 0.000000 -0.000000 -1.918841
 28 10.127057 0.000000 0.000001 1.537200 -0.015052 -0.019687
 29 2.683750 -0.427338 0.044205 -0.005738 0.043239 -0.157060
 30 1.438885 -0.000001 0.000000 0.000000 -0.000000 0.732589
 31 1.485305 0.000001 0.000000 0.000000 -0.000000 1.168627
time 1
  0 0.235347 -0.235347 3.532833 -0.000000 -0.000000 -1.571254
  1 0.000000 0.000000 0.000000 -1.570795 -1.570796 0.000000
  2 -0.000005 0.000007 3.713255 -6.281131 3.115177 6.261712
  3 18.045721 0.000000 0.000000 0.000000 -0.000000 -0.121501
  4 17.597597 0.000000 0.000000 -0.002613 0.026036 0.099967
  5 3.793090 6.407221 0.000000 0.000000 -0.000000 1.570796
  6 0.000005 -0.000003 -3.713255 6.280565 -3.123995 6.258640
  7 18.045725 0.000000 0.000000 0.000000 -0.000000 -0.127551
  8 17.597597 0.000000 0.000000 0.002950 -0.017289 0.103055
  9 3.793090 6.407221 0.000000 0.000000 -0.000000 1.570796
 10 0.935740 0.000000 0.000000 0.000000 -0.000000 0.000000
 11 0.935741 0.000000 0.000000 0.000000 -0.000000 0.000000
 12 1.293670 0.684478 -0.000001 -0.000004 -0.000001 0.035686
 13 5.309685 -0.003834 0.000000 0.000000 -0.000000 -0.104652
 14 4.826790 -0.004591 0.000000 -0.173363 -0.019259 -0.110540
 15 5.792767 -0.005304 0.000000 -0.138940 -0.012824 -0.092495
 16 6.662317 -0.001453 0.000000 0.000000 -0.000001 0.095957
 17 2.046985 -0.000002 0.000000 0.305070 0.072535 -0.166158
 18 -3.447972 0.282841 4.341911 -0.252544 -1.359989 3.292046
 19 4.827230 0.000000 0.000001 1.030586 1.132733 0.770275
 20 11.139763 0.000000 0.000000 0.000000 -0.000000 -0.395663
 21 10.314597 0.000001 0.000000 -1.642354 0.083241 -0.332944
 22 2.975834 -0.386307 -0.044143 -0.023088 -0.037007 0.541079
 23 1.438886 0.000000 0.000000 0.000000 -0.000000 1.700833
 24 1.485303 0.000000 0.000000 0.000000 -0.000000 1.229654
 25 -3.182408 0.251190 -4.140396 0.662375 1.313786 3.691024
 26 4.972048 0.000000 0.000001 0.876107 -1.066566 -1.332370
 27 11.585355 0.000000 0.000000 0.000000 -0.000000 -1.918841
 28 10.127057 0.000000 0.000001 1.537200 -0.015052 -0.019687
 29 2.683750 -0.427338 0.044205 -0.005738 0.043239 -0.157060
 30 1.438885 -0.000001 0.000000 0.000000 -0.000000 0.732589
 31 1.485305 0.000001 0.000000 0.000000 -0.000000 1.168627
time 2
  0 0.235347 -0.235347 3.532833 -0.000000 -0.000000 -1.571254
  1 0.000000 0.000000 0.000000 -1.570795 -1.570796 0.000000
  2 -0.000005 0.000007 3.713255 -6.281131 3.115177 6.261712
  3 18.045721 0.000000 0.000000 0.000000 -0.000000 -0.121501
  4 17.597597 0.000000 0.000000 -0.002613 0.026036 0.099967
  5 3.793090 6.407221 0.000000 0.000000 -0.000000 1.570796
  6 0.000005 -0.000003 -3.713255 6.280565 -3.123995 6.258640
  7 18.045725 0.000000 0.000000 0.000000 -0.000000 -0.127551
  8 17.597597 0.000000 0.000000 0.002950 -0.017289 0.103055
  9 3.793090 6.407221 0.000000 0.000000 -0.000000 1.570796
 10 0.935740 0.000000 0.000000 0.000000 -0.000000 0.000000
 11 0.935741 0.000000 0.000000 0.000000 -0.000000 0.000000
 12 1.293670 0.684478 -0.000001 -0.000004 -0.000001 0.035686
 13 5.309685 -0.003834 0.000000 0.000000 -0.000000 -0.104652
 14 4.826790 -0.004591 0.000000 -0.173396 -0.019044 -0.109129
 15 5.792767 -0.005304 0.000000 -0.138989 -0.012332 -0.089028
 16 6.662317 -0.001453 0.000000 0.000000 -0.000001 0.095957
 17 2.046985 -0.000002 0.000000 0.305027 0.072737 -0.171103
 18 -3.447972 0.282841 4.341911 -0.245737 -1.354181 3.285047
 19 4.827230 0.000000 0.000001 1.012730 1.131882 0.753210
 20 11.139763 0.000000 0.000000 0.000000 -0.000000 -0.395663
 21 10.314597 0.000001 0.000000 -1.642354 0.083241 -0.332944
 22 2.975834 -0.386307 -0.044143 -0.023088 -0.037007 0.541079
 23 1.438886 0.000000 0.000000 0.000000 -0.000000 1.700833
 24 1.485303 0.000000 0.000000 0.000000 -0.000000 1.229654
 25 -3.182408 0.251190 -4.140396 0.648665 1.309066 3.676739
 26 4.972048 0.000000 0.000001 0.868526 -1.060855 -1.326771
 27 11.585355 0.000000 0.000000 0.000000 -0.000000 -1.918841
 28 10.127057 0.000000 0.000001 1.537200 -0.015052 -0.019687
 29 2.683750 -0.427338 0.044205 -0.005738 0.043239 -0.157060
 30 1.438885 -0.000001 0.000000 0.000000 -0.000000 0.732589
 31 1.485305 0.000001 0.000000 0.000000 -0.000000 1.168627
time 3
  0 0.235347 -0.235347 3.532833 -0.000000 -0.000000 -1.571254
  1 0.000000 0.000000 0.000000 -1.570795 -1.570796 0.000000
  2 -0.000005 0.000007 3.713255 -6.281131 3.115177 6.261712
  3 18.045721 0.000000 0.000000 0.000000 -0.000000 -0.121501
  4 17.597597 0.000000 0.000000 -0.002613 0.026036 0.099967
  5 3.793090 6.407221 0.000000 0.000000 -0.000000 1.570796
  6 0.000005 -0.000003 -3.713255 6.280565 -3.123995 6.258640
  7 18.045725 0.000000 0.000000 0.000000 -0.000000 -0.127551
  8 17.597597 0.000000 0.000000 0.002950 -0.017289 0.103055
  9 3.793090 6.407221 0.000000 0.000000 -0.000000 1.570796
 10 0.935740 0.000000 0.000000 0.000000 -0.000000 0.000000
 11 0.935741 0.000000 0.000000 0.000000 -0.000000 0.000000
 12 1.293670 0.684478 -0.000001 -0.000004 -0.000001 0.035686
 13 5.309685 -0.003834 0.000000 0.000000 -0.000000 -0.104652
 14 4.826790 -0.004591 0.000000 -0.173445 -0.018732 -0.107343
 15 5.792767 -0.005304 0.000000 -0.139038 -0.011793 -0.084813
 16 6.662317 -0.001453 0.000000 0.000000 -0.000001 0.095957
 17 2.046985 -0.000002 0.000000 0.304984 0.072985 -0.177126
 18 -3.447972 0.282841 4.341911 -0.237588 -1.347181 3.277185
 19 4.827230 0.000000 0.000001 0.991115 1.130861 0.732295
 20 11.139763 0.000000 0.000000 0.000000 -0.000000 -0.395663
 21 10.314597 0.000001 0.000000 -1.642354 0.083241 -0.332944
 22 2.975834 -0.386307 -0.044143 -0.023088 -0.037007 0.541079
 23 1.438886 0.000000 0.000000 0.000000 -0.000000 1.700833
 24 1.485303 0.000000 0.000000 0.000000 -0.000000 1.229654
 25 -3.182408 0.251190 -4.140396 0.632271 1.303300 3.660057
 26 4.972048 0.000000 0.000001 0.859321 -1.053776 -1.320052
 27 11.585355 0.000000 0.000000 0.000000 -0.000000 -1.918841
 28 10.127057 0.000000 0.000001 1.537200 -0.015052 -0.019687
 29 2.683750 -0.427338 0.044205 -0.005738 0.043239 -0.157060
 30 1.438885 -0.000001 0.000000 0.000000 -0.000000 0.732589
 31 1.485305 0.000001 0.000000 0.000000 -0.000000 1.168627
time 4
  0 0.235347 -0.235347 3.532833 -0.000000 -0.000000 -1.571254
  1 0.000000 0.000000 0.000000 -1.570795 -1.570796 0.000000
  2 -0.000005 0.000007 3.713255 -6.281131 3.115177 6.261712
  3 18.045721 0.000000 0.000000 0.000000 -0.000000 -0.121501
  4 17.597597 0.000000 0.000000 -0.002613 0.026036 0.099967
  5 3.793090 6.407221 0.000000 0.000000 -0.000000 1.570796
  6 0.000005 -0.000003 -3.713255 6.280565 -3.123995 6.258640
  7 18.045725 0.000000 0.000000 0.000000 -0.000000 -0.127551
  8 17.597597 0.000000 0.000000 0.002950 -0.017289 0.103055
  9 3.793090 6.407221 0.000000 0.000000 -0.000000 1.570796
 10 0.935740 0.000000 0.000000 0.000000 -0.000000 0.000000
 11 0.935741 0.000000 0.000000 0.000000 -0.000000 0.000000
 12 1.293670 0.684478 -0.000001 -0.000004 -0.000001 0.035686
 13 5.309685 -0.003834 0.000000 0.000000 -0.000000 -0.104652
 14 4.826790 -0.004591 0.000000 -0.173478 -0.018336 -0.105315
 15 5.792767 -0.005304 0.000000 -0.139087 -0.011122 -0.080079
 16 6.662317 -0.001453 0.000000 0.000000 -0.000001 0.095957
 17 2.046985 -0.000002 0.000000 0.304984 0.073277 -0.184003
 18 -3.447972 0.282841 4.341911 -0.229726 -1.339065 3.268652
 19 4.827230 0.000000 0.000001 0.966622 1.129159 0.708667
 20 11.139763 0.000000 0.000000 0.000000 -0.000000 -0.395663
 21 10.314597 0.000001 0.000000 -1.642354 0.083241 -0.332944
 22 2.975834 -0.386307 -0.044143 -0.023088 -0.037007 0.541079
 23 1.438886 0.000000 0.000000 0.000000 -0.000000 1.700833
 24 1.485303 0.000000 0.000000 0.000000 -0.000000 1.229654
 25 -3.182408 0.251190 -4.140396 0.615301 1.296545 3.642320
 26 4.972048 0.000000 0.000001 0.849342 -1.045571 -1.312806
 27 11.585355 0.000000 0.000000 0.000000 -0.000000 -1.918841
 28 10.127057 0.000000 0.000001 1.537200 -0.015052 -0.019687
 29 2.683750 -0.427338 0.044205 -0.005738 0.043239 -0.157060
 30 1.438885 -0.000001 0.000000 0.000000 -0.000000 0.732589
 31 1.485305 0.000001 0.000000 0.000000 -0.000000 1.168627
time 5
  0 0.235347 -0.235347 3.532833 -0.000000 -0.000000 -1.571254
  1 0.000000 0.000000 0.000000 -1.570795 -1.570796 0.000000
  2 -0.000005 0.000007 3.713255 -6.281131 3.115177 6.261712
  3 18.045721 0.000000 0.000000 0.000000 -0.000000 -0.121501
  4 17.597597 0.000000 0.000000 -0.002613 0.026036 0.099967
  5 3.793090 6.407221 0.000000 0.000000 -0.000000 1.570796
  6 0.000005 -0.000003 -3.713255 6.280565 -3.123995 6.258640
  7 18.045725 0.000000 0.000000 0.000000 -0.000000 -0.127551
  8 17.597597 0.000000 0.000000 0.002950 -0.017289 0.103055
  9 3.793090 6.407221 0.000000 0.000000 -0.000000 1.570796
 10 0.935740 0.000000 0.000000 0.000000 -0.000000 0.000000
 11 0.935741 0.000000 0.000000 0.000000 -0.000000 0.000000
 12 1.293670 0.684478 -0.000001 -0.000004 -0.000001 0.035686
 13 5.309685 -0.003834 0.000000 0.000000 -0.000000 -0.104652
 14 4.826790 -0.004591 0.000000 -0.173511 -0.017989 -0.103088
 15 5.792767 -0.005304 0.000000 -0.139152 -0.010391 -0.074847
 16 6.662317 -0.001453 0.000000 0.000000 -0.000001 0.095957
 17 2.046985 -0.000002 0.000000 0.304984 0.073570 -0.191689
 18 -3.447972 0.282841 4.341911 -0.221385 -1.330296 3.260023
 19 4.827230 0.000000 0.000001 0.940132 1.126691 0.683026
 20 11.139763 0.000000 0.000000 0.000000 -0.000000 -0.395663
 21 10.314597 0.000001 0.000000 -1.642354 0.083241 -0.332944
 22 2.975834 -0.386307 -0.044143 -0.023088 -0.037007 0.541079
 23 1.438886 0.000000 0.000000 0.000000 -0.000000 1.700833
 24 1.485303 0.000000 0.000000 0.000000 -0.000000 1.229654
 25 -3.182408 0.251190 -4.140396 0.597277 1.289083 3.623529
 26 4.972048 0.000000 0.000001 0.838590 -1.036642 -1.305033
 27 11.585355 0.000000 0.000000 0.000000 -0.000000 -1.918841
 28 10.127057 0.000000 0.000001 1.537200 -0.015052 -0.019687
 29 2.683750 -0.427338 0.044205 -0.005738 0.043239 -0.157060
 30 1.438885 -0.000001 0.000000 0.000000 -0.000000 0.732589
 31 1.485305 0.000001 0.000000 0.000000 -0.000000 1.168627
time 6
  0 0.235347 -0.235347 3.532833 -0.000000 -0.000000 -1.571254
  1 0.000000 0.000000 0.000000 -1.570795 -1.570796 0.000000
  2 -0.000005 0.000007 3.713255 -6.281131 3.115177 6.261712
  3 18.045721 0.000000 0.000000 0.000000 -0.000000 -0.121501
  4 17.597597 0.000000 0.000000 -0.002613 0.026036 0.099967
  5 3.793090 6.407221 0.000000 0.000000 -0.000000 1.570796
  6 0.000005 -0.000003 -3.713255 6.280565 -3.123995 6.258640
  7 18.045725 0.000000 0.000000 0.000000 -0.000000 -0.127551
  8 17.597597 0.000000 0.000000 0.002950 -0.017289 0.103055
  9 3.793090 6.407221 0.000000 0.000000 -0.000000 1.570796
 10 0.935740 0.000000 0.000000 0.000000 -0.000000 0.000000
 11 0.935741 0.000000 0.000000 0.000000 -0.000000 0.000000
 12 1.293670 0.684478 -0.000001 -0.000004 -0.000001 0.035686
 13 5.309685 -0.003834 0.000000 0.000000 -0.000000 -0.104652
 14 4.826790 -0.004591 0.000000 -0.173560 -0.017533 -0.100751
 15 5.792767 -0.005304 0.000000 -0.139201 -0.009624 -0.069386
 16 6.662317 -0.001453 0.000000 0.000000 -0.000001 0.095957
 17 2.046985 -0.000002 0.000000 0.304984 0.073908 -0.199465
 18 -3.447972 0.282841 4.341911 -0.213140 -1.321065 3.251586
 19 4.827230 0.000000 0.000001 0.912526 1.124138 0.656335
 20 11.139763 0.000000 0.000000 0.000000 -0.000000 -0.395663
 21 10.314597 0.000001 0.000000 -1.642354 0.083241 -0.332944
 22 2.975834 -0.386307 -0.044143 -0.023088 -0.037007 0.541079
 23 1.438886 0.000000 0.000000 0.000000 -0.000000 1.700833
 24 1.485303 0.000000 0.000000 0.000000 -0.000000 1.229654
 25 -3.182408 0.251190 -4.140396 0.579349 1.281254 3.604834
 26 4.972048 0.000000 0.000001 0.827528 -1.027311 -1.297655
 27 11.585355 0.000000 0.000000 0.000000 -0.000000 -1.918841
 28 10.127057 0.000000 0.000001 1.537200 -0.015052 -0.019687
 29 2.683750 -0.427338 0.044205 -0.005738 0.043239 -0.157060
 30 1.438885 -0.000001 0.000000 0.000000 -0.000000 0.732589
 31 1.485305 0.000001 0.000000 0.000000 -0.000000 1.168627
time 7
  0 0.235347 -0.235347 3.532833 -0.000000 -0.000000 -1.571254
  1 0.000000 0.000000 0.000000 -1.570795 -1.570796 0.000000
  2 -0.000005 0.000007 3.713255 -6.281131 3.115177 6.261712
  3 18.045721 0.000000 0.000000 0.000000 -0.000000 -0.121501
  4 17.597597 0.000000 0.000000 -0.002613 0.026036 0.099967
  5 3.793090 6.407221 0.000000 0.000000 -0.000000 1.570796
  6 0.000005 -0.000003 -3.713255 6.280565 -3.123995 6.258640
  7 18.045725 0.000000 0.000000 0.000000 -0.000000 -0.127551
  8 17.597597 0.000000 0.000000 0.002950 -0.017289 0.103055
  9 3.793090 6.407221 0.000000 0.000000 -0.000000 1.570796
 10 0.935740 0.000000 0.000000 0.000000 -0.000000 0.000000
 11 0.935741 0.000000 0.000000 0.000000 -0.000000 0.000000
 12 1.293670 0.684478 -0.000001 -0.000004 -0.000001 0.035686
 13 5.309685 -0.003834 0.000000 0.000000 -0.000000 -0.104652
 14 4.826790 -0.004591 0.000000 -0.173593 -0.017162 -0.098281
 15 5.792767 -0.005304 0.000000 -0.139250 -0.008833 -0.063780
 16 6.662317 -0.001453 0.000000 0.000000 -0.000001 0.095957
 17 2.046985 -0.000002 0.000000 0.304941 0.074246 -0.207645
 18 -3.447972 0.282841 4.341911 -0.205087 -1.311603 3.243628
 19 4.827230 0.000000 0.000001 0.884920 1.120989 0.629382
 20 11.139763 0.000000 0.000000 0.000000 -0.000000 -0.395663
 21 10.314597 0.000001 0.000000 -1.642354 0.083241 -0.332944
 22 2.975834 -0.386307 -0.044143 -0.023088 -0.037007 0.541079
 23 1.438886 0.000000 0.000000 0.000000 -0.000000 1.700833
 24 1.485303 0.000000 0.000000 0.000000 -0.000000 1.229654
 25 -3.182408 0.251190 -4.140396 0.561996 1.273114 3.586714
 26 4.972048 0.000000 0.000001 0.816621 -1.017819 -1.290014
 27 11.585355 0.000000 0.000000 0.000000 -0.000000 -1.918841
 28 10.127057 0.000000 0.000001 1.537200 -0.015052 -0.019687
 29 2.683750 -0.427338 0.044205 -0.005738 0.043239 -0.157060
 30 1.438885 -0.000001 0.000000 0.000000 -0.000000 0.732589
 31 1.485305 0.000001 0.000000 0.000000 -0.000000 1.168627
time 8
  0 0.235347 -0.235347 3.532833 -0.000000 -0.000000 -1.571254
  1 0.000000 0.000000 0.000000 -1.570795 -1.570796 0.000000
  2 -0.000005 0.000007 3.713255 -6.281131 3.115177 6.261712
  3 18.045721 0.000000 0.000000 0.000000 -0.000000 -0.121501
  4 17.597597 0.000000 0.000000 -0.002613 0.026036 0.099967
  5 3.793090 6.407221 0.000000 0.000000 -0.000000 1.570796
  6 0.000005 -0.000003 -3.713255 6.280565 -3.123995 6.258640
  7 18.045725 0.000000 0.000000 0.000000 -0.000000 -0.127551
  8 17.597597 0.000000 0.000000 0.002950 -0.017289 0.103055
  9 3.793090 6.407221 0.000000 0.000000 -0.000000 1.570796
 10 0.935740 0.000000 0.000000 0.000000 -0.000000 0.000000
 11 0.935741 0.000000 0.000000 0.000000 -0.000000 0.000000
 12 1.293670 0.684478 -0.000001 -0.000004 -0.000001 0.035686
 13 5.309685 -0.003834 0.000000 0.000000 -0.000000 -0.104652
 14 4.826790 -0.004591 0.000000 -0.173642 -0.016719 -0.095944
 15 5.792767 -0.005304 0.000000 -0.139299 -0.008066 -0.058216
 16 6.662317 -0.001453 0.000000 0.000000 -0.000001 0.095957
 17 2.046985 -0.000002 0.000000 0.304898 0.074561 -0.215601
 18 -3.447972 0.282841 4.341911 -0.198280 -1.302141 3.236246
 19 4.827230 0.000000 0.000001 0.857960 1.117670 0.603041
 20 11.139763 0.000000 0.000000 0.000000 -0.000000 -0.395663
 21 10.314597 0.000001 0.000000 -1.642354 0.083241 -0.332944
 22 2.975834 -0.386307 -0.044143 -0.023088 -0.037007 0.541079
 23 1.438886 0.000000 0.000000 0.000000 -0.000000 1.700833
 24 1.485303 0.000000 0.000000 0.000000 -0.000000 1.229654
 25 -3.182408 0.251190 -4.140396 0.545793 1.264974 3.569840
 26 4.972048 0.000000 0.000001 0.806101 -1.008327 -1.283295
 27 11.585355 0.000000 0.000000 0.000000 -0.000000 -1.918841
 28 10.127057 0.000000 0.000001 1.537200 -0.015052 -0.019687
 29 2.683750 -0.427338 0.044205 -0.005738 0.043239 -0.157060
 30 1.438885 -0.000001 0.000000 0.000000 -0.000000 0.732589
 31 1.485305 0.000001 0.000000 0.000000 -0.000000 1.168627
time 9
  0 0.235347 -0.235347 3.532833 -0.000000 -0.000000 -1.571254
  1 0.000000 0.000000 0.000000 -1.570795 -1.570796 0.000000
  2 -0.000005 0.000007 3.713255 -6.281131 3.115177 6.261712
  3 18.045721 0.000000 0.000000 0.000000 -0.000000 -0.121501
  4 17.597597 0.000000 0.000000 -0.002613 0.026036 0.099967
  5 3.793090 6.407221 0.000000 0.000000 -0.000000 1.570796
  6 0.000005 -0.000003 -3.713255 6.280565 -3.123995 6.258640
  7 18.045725 0.000000 0.000000 0.000000 -0.000000 -0.127551
  8 17.597597 0.000000 0.000000 0.002950 -0.017289 0.103055
  9 3.793090 6.407221 0.000000 0.000000 -0.000000 1.570796
 10 0.935740 0.000000 0.000000 0.000000 -0.000000 0.000000
 11 0.935741 0.000000 0.000000 0.000000 -0.000000 0.000000
 12 1.293670 0.684478 -0.000001 -0.000004 -0.000001 0.035686
 13 5.309685 -0.003834 0.000000 0.000000 -0.000000 -0.104652
 14 4.826790 -0.004591 0.000000 -0.173675 -0.016347 -0.093761
 15 5.792767 -0.005304 0.000000 -0.139331 -0.007311 -0.052880
 16 6.662317 -0.001453 0.000000 0.000000 -0.000001 0.095957
 17 2.046985 -0.000002 0.000000 0.304855 0.074876 -0.223242
 18 -3.447972 0.282841 4.341911 -0.191952 -1.293141 3.229439
 19 4.827230 0.000000 0.000001 0.832527 1.114181 0.578100
 20 11.139763 0.000000 0.000000 0.000000 -0.000000 -0.395663
 21 10.314597 0.000001 0.000000 -1.642354 0.083241 -0.332944
 22 2.975834 -0.386307 -0.044143 -0.023088 -0.037007 0.541079
 23 1.438886 0.000000 0.000000 0.000000 -0.000000 1.700833
 24 1.485303 0.000000 0.000000 0.000000 -0.000000 1.229654
 25 -3.182408 0.251190 -4.140396 0.531029 1.257060 3.554213
 26 4.972048 0.000000 0.000001 0.796277 -0.999076 -1.276971
 27 11.585355 0.000000 0.000000 0.000000 -0.000000 -1.918841
 28 10.127057 0.000000 0.000001 1.537200 -0.015052 -0.019687
 29 2.683750 -0.427338 0.044205 -0.005738 0.043239 -0.157060
 30 1.438885 -0.000001 0.000000 0.000000 -0.000000 0.732589
 31 1.485305 0.000001 0.000000 0.000000 -0.000000 1.168627
time 10
  0 0.235347 -0.235347 3.532833 -0.000000 -0.000000 -1.571254
  1 0.000000 0.000000 0.000000 -1.570795 -1.570796 0.000000
  2 -0.000005 0.000007 3.713255 -6.281131 3.115177 6.261712
  3 18.045721 0.000000 0.000000 0.000000 -0.000000 -0.121501
  4 17.597597 0.000000 0.000000 -0.002613 0.026036 0.099967
  5 3.793090 6.407221 0.000000 0.000000 -0.000000 1.570796
  6 0.000005 -0.000003 -3.713255 6.280565 -3.123995 6.258640
  7 18.045725 0.000000 0.000000 0.000000 -0.000000 -0.127551
  8 17.597597 0.000000 0.000000 0.002950 -0.017289 0.103055
  9 3.793090 6.407221 0.000000 0.000000 -0.000000 1.570796
 10 0.935740 0.000000 0.000000 0.000000 -0.000000 0.000000
 11 0.935741 0.000000 0.000000 0.000000 -0.000000 0.000000
 12 1.293670 0.684478 -0.000001 -0.000004 -0.000001 0.035686
 13 5.309685 -0.003834 0.000000 0.000000 -0.000000 -0.104652
 14 4.826790 -0.004591 0.000000 -0.173708 -0.015940 -0.091755
 15 5.792767 -0.005304 0.000000 -0.139380 -0.006604 -0.047980
 16 6.662317 -0.001453 0.000000 0.000000 -0.000001 0.095957
 17 2.046985 -0.000002 0.000000 0.304769 0.075169 -0.230344
 18 -3.447972 0.282841 4.341911 -0.186200 -1.284756 3.223782
 19 4.827230 0.000000 0.000001 0.809150 1.110692 0.555172
 20 11.139763 0.000000 0.000000 0.000000 -0.000000 -0.395663
 21 10.314597 0.000001 0.000000 -1.642354 0.083241 -0.332944
 22 2.975834 -0.386307 -0.044143 -0.023088 -0.037007 0.541079
 23 1.438886 0.000000 0.000000 0.000000 -0.000000 1.700833
 24 1.485303 0.000000 0.000000 0.000000 -0.000000 1.229654
 25 -3.182408 0.251190 -4.140396 0.517990 1.249598 3.540599
 26 4.972048 0.000000 0.000001 0.787149 -0.990630 -1.271306
 27 11.585355 0.000000 0.000000 0.000000 -0.000000 -1.918841
 28 10.127057 0.000000 0.000001 1.537200 -0.015052 -0.019687
 29 2.683750 -0.427338 0.044205 -0.005738 0.043239 -0.157060
 30 1.438885 -0.000001 0.000000 0.000000 -0.000000 0.732589
 31 1.485305 0.000001 0.000000 0.000000 -0.000000 1.168627
time 11
  0 0.235347 -0.235347 3.532833 -0.000000 -0.000000 -1.571254
  1 0.000000 0.000000 0.000000 -1.570795 -1.570796 0.000000
  2 -0.000005 0.000007 3.713255 -6.281131 3.115177 6.261712
  3 18.045721 0.000000 0.000000 0.000000 -0.000000 -0.121501
  4 17.597597 0.000000 0.000000 -0.002613 0.026036 0.099967
  5 3.793090 6.407221 0.000000 0.000000 -0.000000 1.570796
  6 0.000005 -0.000003 -3.713255 6.280565 -3.123995 6.258640
  7 18.045725 0.000000 0.000000 0.000000 -0.000000 -0.127551
  8 17.597597 0.000000 0.000000 0.002950 -0.017289 0.103055
  9 3.793090 6.407221 0.000000 0.000000 -0.000000 1.570796
 10 0.935740 0.000000 0.000000 0.000000 -0.000000 0.000000
 11 0.935741 0.000000 0.000000 0.000000 -0.000000 0.000000
 12 1.293670 0.684478 -0.000001 -0.000004 -0.000001 0.035686
 13 5.309685 -0.003834 0.000000 0.000000 -0.000000 -0.104652
 14 4.826790 -0.004591 0.000000 -0.173708 -0.015652 -0.089770
 15 5.792767 -0.005304 0.000000 -0.139397 -0.005956 -0.043578
 16 6.662317 -0.001453 0.000000 0.000000 -0.000001 0.095957
 17 2.046985 -0.000002 0.000000 0.304553 0.075439 -0.236546
 18 -3.447972 0.282841 4.341911 -0.181694 -1.277256 3.218988
 19 4.827230 0.000000 0.000001 0.788710 1.107373 0.534957
 20 11.139763 0.000000 0.000000 0.000000 -0.000000 -0.395663
 21 10.314597 0.000001 0.000000 -1.642354 0.083241 -0.332944
 22 2.975834 -0.386307 -0.044143 -0.023088 -0.037007 0.541079
 23 1.438886 0.000000 0.000000 0.000000 -0.000000 1.700833
 24 1.485303 0.000000 0.000000 0.000000 -0.000000 1.229654
 25 -3.182408 0.251190 -4.140396 0.506773 1.242928 3.528902
 26 4.972048 0.000000 0.000001 0.779491 -0.982988 -1.266563
 27 11.585355 0.000000 0.000000 0.000000 -0.000000 -1.918841
 28 10.127057 0.000000 0.000001 1.537200 -0.015052 -0.019687
 29 2.683750 -0.427338 0.044205 -0.005738 0.043239 -0.157060
 30 1.438885 -0.000001 0.000000 0.000000 -0.000000 0.732589
 31 1.485305 0.000001 0.000000 0.000000 -0.000000 1.168627
time 12
  0 0.235347 -0.235347 3.532833 -0.000000 -0.000000 -1.571254
  1 0.000000 0.000000 0.000000 -1.570795 -1.570796 0.000000
  2 -0.000005 0.000007 3.713255 -6.281131 3.115177 6.261712
  3 18.045721 0.000000 0.000000 0.000000 -0.000000 -0.121501
  4 17.597597 0.000000 0.000000 -0.002613 0.026036 0.099967
  5 3.793090 6.407221 0.000000 0.000000 -0.000000 1.570796
  6 0.000005 -0.000003 -3.713255 6.280565 -3.123995 6.258640
  7 18.045725 0.000000 0.000000 0.000000 -0.000000 -0.127551
  8 17.597597 0.000000 0.000000 0.002950 -0.017289 0.103055
  9 3.793090 6.407221 0.000000 0.000000 -0.000000 1.570796
 10 0.935740 0.000000 0.000000 0.000000 -0.000000 0.000000
 11 0.935741 0.000000 0.000000 0.000000 -0.000000 0.000000
 12 1.293670 0.684478 -0.000001 -0.000004 -0.000001 0.035686
 13 5.309685 -0.003834 0.000000 0.000000 -0.000000 -0.104652
 14 4.826790 -0.004591 0.000000 -0.173757 -0.015328 -0.088205
 15 5.792767 -0.005304 0.000000 -0.139429 -0.005477 -0.039841
 16 6.662317 -0.001453 0.000000 0.000000 -0.000001 0.095957
 17 2.046985 -0.000002 0.000000 0.304510 0.075641 -0.242030
 18 -3.447972 0.282841 4.341911 -0.177859 -1.270948 3.214674
 19 4.827230 0.000000 0.000001 0.771735 1.104735 0.518330
 20 11.139763 0.000000 0.000000 0.000000 -0.000000 -0.395663
 21 10.314597 0.000001 0.000000 -1.642354 0.083241 -0.332944
 22 2.975834 -0.386307 -0.044143 -0.023088 -0.037007 0.541079
 23 1.438886 0.000000 0.000000 0.000000 -0.000000 1.700833
 24 1.485303 0.000000 0.000000 0.000000 -0.000000 1.229654
 25 -3.182408 0.251190 -4.140396 0.497761 1.237303 3.519315
 26 4.972048 0.000000 0.000001 0.772993 -0.976633 -1.262677
 27 11.585355 0.000000 0.000000 0.000000 -0.000000 -1.918841
 28 10.127057 0.000000 0.000001 1.537200 -0.015052 -0.019687
 29 2.683750 -0.427338 0.044205 -0.005738 0.043239 -0.157060
 30 1.438885 -0.000001 0.000000 0.000000 -0.000000 0.732589
 31 1.485305 0.000001 0.000000 0.000000 -0.000000 1.168627
time 13
  0 0.235347 -0.235347 3.532833 -0.000000 -0.000000 -1.571254
  1 0.000000 0.000000 0.000000 -1.570795 -1.570796 0.000000
  2 -0.000005 0.000007 3.713255 -6.281131 3.115177 6.261712
  3 18.045721 0.000000 0.000000 0.000000 -0.000000 -0.121501
  4 17.597597 0.000000 0.000000 -0.002613 0.026036 0.099967
  5 3.793090 6.407221 0.000000 0.000000 -0.000000 1.570796
  6 0.000005 -0.000003 -3.713255 6.280565 -3.123995 6.258640
  7 18.045725 0.000000 0.000000 0.000000 -0.000000 -0.127551
  8 17.597597 0.000000 0.000000 0.002950 -0.017289 0.103055
  9 3.793090 6.407221 0.000000 0.000000 -0.000000 1.570796
 10 0.935740 0.000000 0.000000 0.000000 -0.000000 0.000000
 11 0.935741 0.000000 0.000000 0.000000 -0.000000 0.000000
 12 1.293670 0.684478 -0.000001 -0.000004 -0.000001 0.035686
 13 5.309685 -0.003834 0.000000 0.000000 -0.000000 -0.104652
 14 4.826790 -0.004591 0.000000 -0.173790 -0.015161 -0.086992
 15 5.792767 -0.005304 0.000000 -0.139446 -0.005046 -0.037017
 16 6.662317 -0.001453 0.000000 0.000000 -0.000001 0.095957
 17 2.046985 -0.000002 0.000000 0.304510 0.075821 -0.245940
 18 -3.447972 0.282841 4.341911 -0.174887 -1.266102 3.212085
 19 4.827230 0.000000 0.000001 0.758813 1.102267 0.505641
 20 11.139763 0.000000 0.000000 0.000000 -0.000000 -0.395663
 21 10.314597 0.000001 0.000000 -1.642354 0.083241 -0.332944
 22 2.975834 -0.386307 -0.044143 -0.023088 -0.037007 0.541079
 23 1.438886 0.000000 0.000000 0.000000 -0.000000 1.700833
 24 1.485303 0.000000 0.000000 0.000000 -0.000000 1.229654
 25 -3.182408 0.251190 -4.140396 0.490954 1.232979 3.511933
 26 4.972048 0.000000 0.000001 0.767965 -0.971726 -1.259581
 27 11.585355 0.000000 0.000000 0.000000 -0.000000 -1.918841
 28 10.127057 0.000000 0.000001 1.537200 -0.015052 -0.019687
 29 2.683750 -0.427338 0.044205 -0.005738 0.043239 -0.157060
 30 1.438885 -0.000001 0.000000 0.000000 -0.000000 0.732589
 31 1.485305 0.000001 0.000000 0.000000 -0.000000 1.168627
time 14
  0 0.235347 -0.235347 3.532833 -0.000000 -0.000000 -1.571254
  1 0.000000 0.000000 0.000000 -1.570795 -1.570796 0.000000
  2 -0.000005 0.000007 3.713255 -6.281131 3.115177 6.261712
  3 18.045721 0.000000 0.000000 0.000000 -0.000000 -0.121501
  4 17.597597 0.000000 0.000000 -0.002613 0.026036 0.099967
  5 3.793090 6.407221 0.000000 0.000000 -0.000000 1.570796
  6 0.000005 -0.000003 -3.713255 6.280565 -3.123995 6.258640
  7 18.045725 0.000000 0.000000 0.000000 -0.000000 -0.127551
  8 17.597597 0.000000 0.000000 0.002950 -0.017289 0.103055
  9 3.793090 6.407221 0.000000 0.000000 -0.000000 1.570796
 10 0.935740 0.000000 0.000000 0.000000 -0.000000 0.000000
 11 0.935741 0.000000 0.000000 0.000000 -0.000000 0.000000
 12 1.293670 0.684478 -0.000001 -0.000004 -0.000001 0.035686
 13 5.309685 -0.003834 0.000000 0.000000 -0.000000 -0.104652
 14 4.826790 -0.004591 0.000000 -0.173790 -0.015029 -0.086265
 15 5.792767 -0.005304 0.000000 -0.139446 -0.004830 -0.035190
 16 6.662317 -0.001453 0.000000 0.000000 -0.000001 0.095957
 17 2.046985 -0.000002 0.000000 0.304467 0.075934 -0.248592
 18 -3.447972 0.282841 4.341911 -0.173353 -1.262948 3.210072
 19 4.827230 0.000000 0.000001 0.750590 1.100565 0.497415
 20 11.139763 0.000000 0.000000 0.000000 -0.000000 -0.395663
 21 10.314597 0.000001 0.000000 -1.642354 0.083241 -0.332944
 22 2.975834 -0.386307 -0.044143 -0.023088 -0.037007 0.541079
 23 1.438886 0.000000 0.000000 0.000000 -0.000000 1.700833
 24 1.485303 0.000000 0.000000 0.000000 -0.000000 1.229654
 25 -3.182408 0.251190 -4.140396 0.487023 1.230209 3.507810
 26 4.972048 0.000000 0.000001 0.764948 -0.968589 -1.258000
 27 11.585355 0.000000 0.000000 0.000000 -0.000000 -1.918841
 28 10.127057 0.000000 0.000001 1.537200 -0.015052 -0.019687
 29 2.683750 -0.427338 0.044205 -0.005738 0.043239 -0.157060
 30 1.438885 -0.000001 0.000000 0.000000 -0.000000 0.732589
 31 1.485305 0.000001 0.000000 0.000000 -0.000000 1.168627
time 15
  0 0.235347 -0.235347 3.532833 -0.000000 -0.000000 -1.571254
  1 0.000000 0.000000 0.000000 -1.570795 -1.570796 0.000000
  2 -0.000005 0.000007 3.713255 -6.281131 3.115177 6.261712
  3 18.045721 0.000000 0.000000 0.000000 -0.000000 -0.121501
  4 17.597597 0.000000 0.000000 -0.002613 0.026036 0.099967
  5 3.793090 6.407221 0.000000 0.000000 -0.000000 1.570796
  6 0.000005 -0.000003 -3.713255 6.280565 -3.123995 6.258640
  7 18.045725 0.000000 0.000000 0.000000 -0.000000 -0.127551
  8 17.597597 0.000000 0.000000 0.002950 -0.017289 0.103055
  9 3.793090 6.407221 0.000000 0.000000 -0.000000 1.570796
 10 0.935740 0.000000 0.000000 0.000000 -0.000000 0.000000
 11 0.935741 0.000000 0.000000 0.000000 -0.000000 0.000000
 12 1.293670 0.684478 -0.000001 -0.000004 -0.000001 0.035686
 13 5.309685 -0.003834 0.000000 0.000000 -0.000000 -0.104652
 14 4.826790 -0.004591 0.000000 -0.173790 -0.014981 -0.085934
 15 5.792767 -0.005304 0.000000 -0.139446 -0.004734 -0.034546
 16 6.662317 -0.001453 0.000000 0.000000 -0.000001 0.095957
 17 2.046985 -0.000002 0.000000 0.304467 0.075956 -0.249536
 18 -3.447972 0.282841 4.341911 -0.172586 -1.261871 3.209688
 19 4.827230 0.000000 0.000001 0.747712 1.100395 0.494702
 20 11.139763 0.000000 0.000000 0.000000 -0.000000 -0.395663
 21 10.314597 0.000001 0.000000 -1.642354 0.083241 -0.332944
 22 2.975834 -0.386307 -0.044143 -0.023088 -0.037007 0.541079
 23 1.438886 0.000000 0.000000 0.000000 -0.000000 1.700833
 24 1.485303 0.000000 0.000000 0.000000 -0.000000 1.229654
 25 -3.182408 0.251190 -4.140396 0.485489 1.229248 3.505893
 26 4.972048 0.000000 0.000001 0.763865 -0.967463 -1.257341
 27 11.585355 0.000000 0.000000 0.000000 -0.000000 -1.918841
 28 10.127057 0.000000 0.000001 1.537200 -0.015052 -0.019687
 29 2.683750 -0.427338 0.044205 -0.005738 0.043239 -0.157060
 30 1.438885 -0.000001 0.000000 0.000000 -0.000000 0.732589
 31 1.485305 0.000001 0.000000 0.000000 -0.000000 1.168627
time 16
  0 0.235347 -0.235347 3.532833 -0.000000 -0.000000 -1.571254
  1 0.000000 0.000000 0.000000 -1.570795 -1.570796 0.000000
  2 -0.000005 0.000007 3.713255 -6.281131 3.115177 6.261712
  3 18.045721 0.000000 0.000000 0.000000 -0.000000 -0.121501
  4 17.597597 0.000000 0.000000 -0.002613 0.026036 0.099967
  5 3.793090 6.407221 0.000000 0.000000 -0.000000 1.570796
  6 0.000005 -0.000003 -3.713255 6.280565 -3.123995 6.258640
  7 18.045725 0.000000 0.000000 0.000000 -0.000000 -0.127551
  8 17.597597 0.000000 0.000000 0.002950 -0.017289 0.103055
  9 3.793090 6.407221 0.000000 0.000000 -0.000000 1.570796
 10 0.935740 0.000000 0.000000 0.000000 -0.000000 0.000000
 11 0.935741 0.000000 0.000000 0.000000 -0.000000 0.000000
 12 1.293670 0.684478 -0.000001 -0.000004 -0.000001 0.035686
 13 5.309685 -0.003834 0.000000 0.000000 -0.000000 -0.104652
 14 4.826790 -0.004591 0.000000 -0.173790 -0.015029 -0.086265
 15 5.792767 -0.005304 0.000000 -0.139446 -0.004830 -0.035190
 16 6.662317 -0.001453 0.000000 0.000000 -0.000001 0.095957
 17 2.046985 -0.000002 0.000000 0.304467 0.075934 -0.248592
 18 -3.447972 0.282841 4.341911 -0.173353 -1.262948 3.210072
 19 4.827230 0.000000 0.000001 0.750590 1.100565 0.497415
 20 11.139763 0.000000 0.000000 0.000000 -0.000000 -0.395663
 21 10.314597 0.000001 0.000000 -1.642354 0.083241 -0.332944
 22 2.975834 -0.386307 -0.044143 -0.023088 -0.037007 0.541079
 23 1.438886 0.000000 0.000000 0.000000 -0.000000 1.700833
 24 1.485303 0.000000 0.000000 0.000000 -0.000000 1.229654
 25 -3.182408 0.251190 -4.140396 0.487023 1.230209 3.507810
 26 4.972048 0.000000 0.000001 0.764948 -0.968589 -1.258000
 27 11.585355 0.000000 0.000000 0.000000 -0.000000 -1.918841
 28 10.127057 0.000000 0.000001 1.537200 -0.015052 -0.019687
 29 2.683750 -0.427338 0.044205 -0.005738 0.043239 -0.157060
 30 1.438885 -0.000001 0.000000 0.000000 -0.000000 0.732589
 31 1.485305 0.000001 0.000000 0.000000 -0.000000 1.168627
time 17
  0 0.235347 -0.235347 3.532833 -0.000000 -0.000000 -1.571254
  1 0.000000 0.000000 0.000000 -1.570795 -1.570796 0.000000
  2 -0.000005 0.000007 3.713255 -6.281131 3.115177 6.261712
  3 18.045721 0.000000 0.000000 0.000000 -0.000000 -0.121501
  4 17.597597 0.000000 0.000000 -0.002613 0.026036 0.099967
  5 3.793090 6.407221 0.000000 0.000000 -0.000000 1.570796
  6 0.000005 -0.000003 -3.713255 6.280565 -3.123995 6.258640
  7 18.045725 0.000000 0.000000 0.000000 -0.000000 -0.127551
  8 17.597597 0.000000 0.000000 0.002950 -0.017289 0.103055
  9 3.793090 6.407221 0.000000 0.000000 -0.000000 1.570796
 10 0.935740 0.000000 0.000000 0.000000 -0.000000 0.000000
 11 0.935741 0.000000 0.000000 0.000000 -0.000000 0.000000
 12 1.293670 0.684478 -0.000001 -0.000004 -0.000001 0.035686
 13 5.309685 -0.003834 0.000000 0.000000 -0.000000 -0.104652
 14 4.826790 -0.004591 0.000000 -0.173790 -0.015161 -0.086992
 15 5.792767 -0.005304 0.000000 -0.139446 -0.005046 -0.037017
 16 6.662317 -0.001453 0.000000 0.000000 -0.000001 0.095957
 17 2.046985 -0.000002 0.000000 0.304510 0.075821 -0.245940
 18 -3.447972 0.282841 4.341911 -0.174887 -1.266102 3.212085
 19 4.827230 0.000000 0.000001 0.758813 1.102267 0.505641
 20 11.139763 0.000000 0.000000 0.000000 -0.000000 -0.395663
 21 10.314597 0.000001 0.000000 -1.642354 0.083241 -0.332944
 22 2.975834 -0.386307 -0.044143 -0.023088 -0.037007 0.541079
 23 1.438886 0.000000 0.000000 0.000000 -0.000000 1.700833
 24 1.485303 0.000000 0.000000 0.000000 -0.000000 1.229654
 25 -3.182408 0.251190 -4.140396 0.490954 1.232979 3.511933
 26 4.972048 0.000000 0.000001 0.767965 -0.971726 -1.259581
 27 11.585355 0.000000 0.000000 0.000000 -0.000000 -1.918841
 28 10.127057 0.000000 0.000001 1.537200 -0.015052 -0.019687
 29 2.683750 -0.427338 0.044205 -0.005738 0.043239 -0.157060
 30 1.438885 -0.000001 0.000000 0.000000 -0.000000 0.732589
 31 1.485305 0.000001 0.000000 0.000000 -0.000000 1.168627
time 18
  0 0.235347 -0.235347 3.532833 -0.000000 -0.000000 -1.571254
  1 0.000000 0.000000 0.000000 -1.570795 -1.570796 0.000000
  2 -0.000005 0.000007 3.713255 -6.281131 3.115177 6.261712
  3 18.045721 0.000000 0.000000 0.000000 -0.000000 -0.121501
  4 17.597597 0.000000 0.000000 -0.002613 0.026036 0.099967
  5 3.793090 6.407221 0.000000 0.000000 -0.000000 1.570796
  6 0.000005 -0.000003 -3.713255 6.280565 -3.123995 6.258640
  7 18.045725 0.000000 0.000000 0.000000 -0.000000 -0.127551
  8 17.597597 0.000000 0.000000 0.002950 -0.017289 0.103055
  9 3.793090 6.407221 0.000000 0.000000 -0.000000 1.570796
 10 0.935740 0.000000 0.000000 0.000000 -0.000000 0.000000
 11 0.935741 0.000000 0.000000 0.000000 -0.000000 0.000000
 12 1.293670 0.684478 -0.000001 -0.000004 -0.000001 0.035686
 13 5.309685 -0.003834 0.000000 0.000000 -0.000000 -0.104652
 14 4.826790 -0.004591 0.000000 -0.173757 -0.015328 -0.088205
 15 5.792767 -0.005304 0.000000 -0.139429 -0.005477 -0.039841
 16 6.662317 -0.001453 0.000000 0.000000 -0.000001 0.095957
 17 2.046985 -0.000002 0.000000 0.304510 0.075641 -0.242030
 18 -3.447972 0.282841 4.341911 -0.177859 -1.270948 3.214674
 19 4.827230 0.000000 0.000001 0.771735 1.104735 0.518330
 20 11.139763 0.000000 0.000000 0.000000 -0.000000 -0.395663
 21 10.314597 0.000001 0.000000 -1.642354 0.083241 -0.332944
 22 2.975834 -0.386307 -0.044143 -0.023088 -0.037007 0.541079
 23 1.438886 0.000000 0.000000 0.000000 -0.000000 1.700833
 24 1.485303 0.000000 0.000000 0.000000 -0.000000 1.229654
 25 -3.182408 0.251190 -4.140396 0.497761 1.237303 3.519315
 26 4.972048 0.000000 0.000001 0.772993 -0.976633 -1.262677
 27 11.585355 0.000000 0.000000 0.000000 -0.000000 -1.918841
 28 10.127057 0.000000 0.000001 1.537200 -0.015052 -0.019687
 29 2.683750 -0.427338 0.044205 -0.005738 0.043239 -0.157060
 30 1.438885 -0.000001 0.000000 0.000000 -0.000000 0.732589
 31 1.485305 0.000001 0.000000 0.000000 -0.000000 1.168627
time 19
  0 0.235347 -0.235347 3.532833 -0.000000 -0.000000 -1.571254
  1 0.000000 0.000000 0.000000 -1.570795 -1.570796 0.000000
  2 -0.000005 0.000007 3.713255 -6.281131 3.115177 6.261712
  3 18.045721 0.000000 0.000000 0.000000 -0.000000 -0.121501
  4 17.597597 0.000000 0.000000 -0.002613 0.026036 0.099967
  5 3.793090 6.407221 0.000000 0.000000 -0.000000 1.570796
  6 0.000005 -0.000003 -3.713255 6.280565 -3.123995 6.258640
  7 18.045725 0.000000 0.000000 0.000000 -0.000000 -0.127551
  8 17.597597 0.000000 0.000000 0.002950 -0.017289 0.103055
  9 3.793090 6.407221 0.000000 0.000000 -0.000000 1.570796
 10 0.935740 0.000000 0.000000 0.000000 -0.000000 0.000000
 11 0.935741 0.000000 0.000000 0.000000 -0.000000 0.000000
 12 1.293670 0.684478 -0.000001 -0.000004 -0.000001 0.035686
 13 5.309685 -0.003834 0.000000 0.000000 -0.000000 -0.104652
 14 4.826790 -0.004591 0.000000 -0.173708 -0.015652 -0.089770
 15 5.792767 -0.005304 0.000000 -0.139397 -0.005956 -0.043578
 16 6.662317 -0.001453 0.000000 0.000000 -0.000001 0.095957
 17 2.046985 -0.000002 0.000000 0.304553 0.075439 -0.236546
 18 -3.447972 0.282841 4.341911 -0.181694 -1.277256 3.218988
 19 4.827230 0.000000 0.000001 0.788710 1.107373 0.534957
 20 11.139763 0.000000 0.000000 0.000000 -0.000000 -0.395663
 21 10.314597 0.000001 0.000000 -1.642354 0.083241 -0.332944
 22 2.975834 -0.386307 -0.044143 -0.023088 -0.037007 0.541079
 23 1.438886 0.000000 0.000000 0.000000 -0.000000 1.700833
 24 1.485303 0.000000 0.000000 0.000000 -0.000000 1.229654
 25 -3.182408 0.251190 -4.140396 0.506773 1.242928 3.528902
 26 4.972048 0.000000 0.000001 0.779491 -0.982988 -1.266563
 27 11.585355 0.000000 0.000000 0.000000 -0.000000 -1.918841
 28 10.127057 0.000000 0.000001 1.537200 -0.015052 -0.019687
 29 2.683750 -0.427338 0.044205 -0.005738 0.043239 -0.157060
 30 1.438885 -0.000001 0.000000 0.000000 -0.000000 0.732589
 31 1.485305 0.000001 0.000000 0.000000 -0.000000 1.168627
time 20
  0 0.235347 -0.235347 3.532833 -0.000000 -0.000000 -1.571254
  1 0.000000 0.000000 0.000000 -1.570795 -1.570796 0.000000
  2 -0.000005 0.000007 3.713255 -6.281131 3.115177 6.261712
  3 18.045721 0.000000 0.000000 0.000000 -0.000000 -0.121501
  4 17.597597 0.000000 0.000000 -0.002613 0.026036 0.099967
  5 3.793090 6.407221 0.000000 0.000000 -0.000000 1.570796
  6 0.000005 -0.000003 -3.713255 6.280565 -3.123995 6.258640
  7 18.045725 0.000000 0.000000 0.000000 -0.000000 -0.127551
  8 17.597597 0.000000 0.000000 0.002950 -0.017289 0.103055
  9 3.793090 6.407221 0.000000 0.000000 -0.000000 1.570796
 10 0.935740 0.000000 0.000000 0.000000 -0.000000 0.000000
 11 0.935741 0.000000 0.000000 0.000000 -0.000000 0.000000
 12 1.293670 0.684478 -0.000001 -0.000004 -0.000001 0.035686
 13 5.309685 -0.003834 0.000000 0.000000 -0.000000 -0.104652
 14 4.826790 -0.004591 0.000000 -0.173708 -0.015940 -0.091755
 15 5.792767 -0.005304 0.000000 -0.139380 -0.006604 -0.047980
 16 6.662317 -0.001453 0.000000 0.000000 -0.000001 0.095957
 17 2.046985 -0.000002 0.000000 0.304769 0.075169 -0.230344
 18 -3.447972 0.282841 4.341911 -0.186200 -1.284756 3.223782
 19 4.827230 0.000000 0.000001 0.809150 1.110692 0.555172
 20 11.139763 0.000000 0.000000 0.000000 -0.000000 -0.395663
 21 10.314597 0.000001 0.000000 -1.642354 0.083241 -0.332944
 22 2.975834 -0.386307 -0.044143 -0.023088 -0.037007 0.541079
 23 1.438886 0.000000 0.000000 0.000000 -0.000000 1.700833
 24 1.485303 0.000000 0.000000 0.000000 -0.000000 1.229654
 25 -3.182408 0.251190 -4.140396 0.517990 1.249598 3.540599
 26 4.972048 0.000000 0.000001 0.787149 -0.990630 -1.271306
 27 11.585355 0.000000 0.000000 0.000000 -0.000000 -1.918841
 28 10.127057 0.000000 0.000001 1.537200 -0.015052 -0.019687
 29 2.683750 -0.427338 0.044205 -0.005738 0.043239 -0.157060
 30 1.438885 -0.000001 0.000000 0.000000 -0.000000 0.732589
 31 1.485305 0.000001 0.000000 0.000000 -0.000000 1.168627
time 21
  0 0.235347 -0.235347 3.532833 -0.000000 -0.000000 -1.571254
  1 0.000000 0.000000 0.000000 -1.570795 -1.570796 0.000000
  2 -0.000005 0.000007 3.713255 -6.281131 3.115177 6.261712
  3 18.045721 0.000000 0.000000 0.000000 -0.000000 -0.121501
  4 17.597597 0.000000 0.000000 -0.002613 0.026036 0.099967
  5 3.793090 6.407221 0.000000 0.000000 -0.000000 1.570796
  6 0.000005 -0.000003 -3.713255 6.280565 -3.123995 6.258640
  7 18.045725 0.000000 0.000000 0.000000 -0.000000 -0.127551
  8 17.597597 0.000000 0.000000 0.002950 -0.017289 0.103055
  9 3.793090 6.407221 0.000000 0.000000 -0.000000 1.570796
 10 0.935740 0.000000 0.000000 0.000000 -0.000000 0.000000
 11 0.935741 0.000000 0.000000 0.000000 -0.000000 0.000000
 12 1.293670 0.684478 -0.000001 -0.000004 -0.000001 0.035686
 13 5.309685 -0.003834 0.000000 0.000000 -0.000000 -0.104652
 14 4.826790 -0.004591 0.000000 -0.173675 -0.016347 -0.093761
 15 5.792767 -0.005304 0.000000 -0.139331 -0.007311 -0.052880
 16 6.662317 -0.001453 0.000000 0.000000 -0.000001 0.095957
 17 2.046985 -0.000002 0.000000 0.304855 0.074876 -0.223242
 18 -3.447972 0.282841 4.341911 -0.191952 -1.293141 3.229439
 19 4.827230 0.000000 0.000001 0.832527 1.114181 0.578100
 20 11.139763 0.000000 0.000000 0.000000 -0.000000 -0.395663
 21 10.314597 0.000001 0.000000 -1.642354 0.083241 -0.332944
 22 2.975834 -0.386307 -0.044143 -0.023088 -0.037007 0.541079
 23 1.438886 0.000000 0.000000 0.000000 -0.000000 1.700833
 24 1.485303 0.000000 0.000000 0.000000 -0.000000 1.229654
 25 -3.182408 0.251190 -4.140396 0.531029 1.257060 3.554213
 26 4.972048 0.000000 0.000001 0.796277 -0.999076 -1.276971
 27 11.585355 0.000000 0.000000 0.000000 -0.000000 -1.918841
 28 10.127057 0.000000 0.000001 1.537200 -0.015052 -0.019687
 29 2.683750 -0.427338 0.044205 -0.005738 0.043239 -0.157060
 30 1.438885 -0.000001 0.000000 0.000000 -0.000000 0.732589
 31 1.485305 0.000001 0.000000 0.000000 -0.000000 1.168627
time 22
  0 0.235347 -0.235347 3.532833 -0.000000 -0.000000 -1.571254
  1 0.000000 0.000000 0.000000 -1.570795 -1.570796 0.000000
  2 -0.000005 0.000007 3.713255 -6.281131 3.115177 6.261712
  3 18.045721 0.000000 0.000000 0.000000 -0.000000 -0.121501
  4 17.597597 0.000000 0.000000 -0.002613 0.026036 0.099967
  5 3.793090 6.407221 0.000000 0.000000 -0.000000 1.570796
  6 0.000005 -0.000003 -3.713255 6.280565 -3.123995 6.258640
  7 18.045725 0.000000 0.000000 0.000000 -0.000000 -0.127551
  8 17.597597 0.000000 0.000000 0.002950 -0.017289 0.103055
  9 3.793090 6.407221 0.000000 0.000000 -0.000000 1.570796
 10 0.935740 0.000000 0.000000 0.000000 -0.000000 0.000000
 11 0.935741 0.000000 0.000000 0.000000 -0.000000 0.000000
 12 1.293670 0.684478 -0.000001 -0.000004 -0.000001 0.035686
 13 5.309685 -0.003834 0.000000 0.000000 -0.000000 -0.104652
 14 4.826790 -0.004591 0.000000 -0.173642 -0.016719 -0.095944
 15 5.792767 -0.005304 0.000000 -0.139299 -0.008066 -0.058216
 16 6.662317 -0.001453 0.000000 0.000000 -0.000001 0.095957
 17 2.046985 -0.000002 0.000000 0.304898 0.074561 -0.215601
 18 -3.447972 0.282841 4.341911 -0.198280 -1.302141 3.236246
 19 4.827230 0.000000 0.000001 0.857960 1.117670 0.603041
 20 11.139763 0.000000 0.000000 0.000000 -0.000000 -0.395663
 21 10.314597 0.000001 0.000000 -1.642354 0.083241 -0.332944
 22 2.975834 -0.386307 -0.044143 -0.023088 -0.037007 0.541079
 23 1.438886 0.000000 0.000000 0.000000 -0.000000 1.700833
 24 1.485303 0.000000 0.000000 0.000000 -0.000000 1.229654
 25 -3.182408 0.251190 -4.140396 0.545793 1.264974 3.569840
 26 4.972048 0.000000 0.000001 0.806101 -1.008327 -1.283295
 27 11.585355 0.000000 0.000000 0.000000 -0.000000 -1.918841
 28 10.127057 0.000000 0.000001 1.537200 -0.015052 -0.019687
 29 2.683750 -0.427338 0.044205 -0.005738 0.043239 -0.157060
 30 1.438885 -0.000001 0.000000 0.000000 -0.000000 0.732589
 31 1.485305 0.000001 0.000000 0.000000 -0.000000 1.168627
time 23
  0 0.235347 -0.235347 3.532833 -0.000000 -0.000000 -1.571254
  1 0.000000 0.000000 0.000000 -1.570795 -1.570796 0.000000
  2 -0.000005 0.000007 3.713255 -6.281131 3.115177 6.261712
  3 18.045721 0.000000 0.000000 0.000000 -0.000000 -0.121501
  4 17.597597 0.000000 0.000000 -0.002613 0.026036 0.099967
  5 3.793090 6.407221 0.000000 0.000000 -0.000000 1.570796
  6 0.000005 -0.000003 -3.713255 6.280565 -3.123995 6.258640
  7 18.045725 0.000000 0.000000 0.000000 -0.000000 -0.127551
  8 17.597597 0.000000 0.000000 0.002950 -0.017289 0.103055
  9 3.793090 6.407221 0.000000 0.000000 -0.000000 1.570796
 10 0.935740 0.000000 0.000000 0.000000 -0.000000 0.000000
 11 0.935741 0.000000 0.000000 0.000000 -0.000000 0.000000
 12 1.293670 0.684478 -0.000001 -0.000004 -0.000001 0.035686
 13 5.309685 -0.003834 0.000000 0.000000 -0.000000 -0.104652
 14 4.826790 -0.004591 0.000000 -0.173593 -0.017162 -0.098281
 15 5.792767 -0.005304 0.000000 -0.139250 -0.008833 -0.063780
 16 6.662317 -0.001453 0.000000 0.000000 -0.000001 0.095957
 17 2.046985 -0.000002 0.000000 0.304941 0.074246 -0.207645
 18 -3.447972 0.282841 4.341911 -0.205087 -1.311603 3.243628
 19 4.827230 0.000000 0.000001 0.884920 1.120989 0.629382
 20 11.139763 0.000000 0.000000 0.000000 -0.000000 -0.395663
 21 10.314597 0.000001 0.000000 -1.642354 0.083241 -0.332944
 22 2.975834 -0.386307 -0.044143 -0.023088 -0.037007 0.541079
 23 1.438886 0.000000 0.000000 0.000000 -0.000000 1.700833
 24 1.485303 0.000000 0.000000 0.000000 -0.000000 1.229654
 25 -3.182408 0.251190 -4.140396 0.561996 1.273114 3.586714
 26 4.972048 0.000000 0.000001 0.816621 -1.017819 -1.290014
 27 11.585355 0.000000 0.000000 0.000000 -0.000000 -1.918841
 28 10.127057 0.000000 0.000001 1.537200 -0.015052 -0.019687
 29 2.683750 -0.427338 0.044205 -0.005738 0.043239 -0.157060
 30 1.438885 -0.000001 0.000000 0.000000 -0.000000 0.732589
 31 1.485305 0.000001 0.000000 0.000000 -0.000000 1.168627
time 24
  0 0.235347 -0.235347 3.532833 -0.000000 -0.000000 -1.571254
  1 0.000000 0.000000 0.000000 -1.570795 -1.570796 0.000000
  2 -0.000005 0.000007 3.713255 -6.281131 3.115177 6.261712
  3 18.045721 0.000000 0.000000 0.000000 -0.000000 -0.121501
  4 17.597597 0.000000 0.000000 -0.002613 0.026036 0.099967
  5 3.793090 6.407221 0.000000 0.000000 -0.000000 1.570796
  6 0.000005 -0.000003 -3.713255 6.280565 -3.123995 6.258640
  7 18.045725 0.000000 0.000000 0.000000 -0.000000 -0.127551
  8 17.597597 0.000000 0.000000 0.002950 -0.017289 0.103055
  9 3.793090 6.407221 0.000000 0.000000 -0.000000 1.570796
 10 0.935740 0.000000 0.000000 0.000000 -0.000000 0.000000
 11 0.935741 0.000000 0.000000 0.000000 -0.000000 0.000000
 12 1.293670 0.684478 -0.000001 -0.000004 -0.000001 0.035686
 13 5.309685 -0.003834 0.000000 0.000000 -0.000000 -0.104652
 14 4.826790 -0.004591 0.000000 -0.173560 -0.017533 -0.100751
 15 5.792767 -0.005304 0.000000 -0.139201 -0.009624 -0.069386
 16 6.662317 -0.001453 0.000000 0.000000 -0.000001 0.095957
 17 2.046985 -0.000002 0.000000 0.304984 0.073908 -0.199465
 18 -3.447972 0.282841 4.341911 -0.213140 -1.321065 3.251586
 19 4.827230 0.000000 0.000001 0.912526 1.124138 0.656335
 20 11.139763 0.000000 0.000000 0.000000 -0.000000 -0.395663
 21 10.314597 0.000001 0.000000 -1.642354 0.083241 -0.332944
 22 2.975834 -0.386307 -0.044143 -0.023088 -0.037007 0.541079
 23 1.438886 0.000000 0.000000 0.000000 -0.000000 1.700833
 24 1.485303 0.000000 0.000000 0.000000 -0.000000 1.229654
 25 -3.182408 0.251190 -4.140396 0.579349 1.281254 3.604834
 26 4.972048 0.000000 0.000001 0.827528 -1.027311 -1.297655
 27 11.585355 0.000000 0.000000 0.000000 -0.000000 -1.918841
 28 10.127057 0.000000 0.000001 1.537200 -0.015052 -0.019687
 29 2.683750 -0.427338 0.044205 -0.005738 0.043239 -0.157060
 30 1.438885 -0.000001 0.000000 0.000000 -0.000000 0.732589
 31 1.485305 0.000001 0.000000 0.000000 -0.000000 1.168627
time 25
  0 0.235347 -0.235347 3.532833 -0.000000 -0.000000 -1.571254
  1 0.000000 0.000000 0.000000 -1.570795 -1.570796 0.000000
  2 -0.000005 0.000007 3.713255 -6.281131 3.115177 6.261712
  3 18.045721 0.000000 0.000000 0.000000 -0.000000 -0.121501
  4 17.597597 0.000000 0.000000 -0.002613 0.026036 0.099967
  5 3.793090 6.407221 0.000000 0.000000 -0.000000 1.570796
  6 0.000005 -0.000003 -3.713255 6.280565 -3.123995 6.258640
  7 18.045725 0.000000 0.000000 0.000000 -0.000000 -0.127551
  8 17.597597 0.000000 0.000000 0.002950 -0.017289 0.103055
  9 3.793090 6.407221 0.000000 0.000000 -0.000000 1.570796
 10 0.935740 0.000000 0.000000 0.000000 -0.000000 0.000000
 11 0.935741 0.000000 0.000000 0.000000 -0.000000 0.000000
 12 1.293670 0.684478 -0.000001 -0.000004 -0.000001 0.035686
 13 5.309685 -0.003834 0.000000 0.000000 -0.000000 -0.104652
 14 4.826790 -0.004591 0.000000 -0.173511 -0.017989 -0.103088
 15 5.792767 -0.005304 0.000000 -0.139152 -0.010391 -0.074847
 16 6.662317 -0.001453 0.000000 0.000000 -0.000001 0.095957
 17 2.046985 -0.000002 0.000000 0.304984 0.073570 -0.191689
 18 -3.447972 0.282841 4.341911 -0.221385 -1.330296 3.260023
 19 4.827230 0.000000 0.000001 0.940132 1.126691 0.683026
 20 11.139763 0.000000 0.000000 0.000000 -0.000000 -0.395663
 21 10.314597 0.000001 0.000000 -1.642354 0.083241 -0.332944
 22 2.975834 -0.386307 -0.044143 -0.023088 -0.037007 0.541079
 23 1.438886 0.000000 0.000000 0.000000 -0.000000 1.700833
 24 1.485303 0.000000 0.000000 0.000000 -0.000000 1.229654
 25 -3.182408 0.251190 -4.140396 0.597277 1.289083 3.623529
 26 4.972048 0.000000 0.000001 0.838590 -1.036642 -1.305033
 27 11.585355 0.000000 0.000000 0.000000 -0.000000 -1.918841
 28 10.127057 0.000000 0.000001 1.537200 -0.015052 -0.019687
 29 2.683750 -0.427338 0.044205 -0.005738 0.043239 -0.157060
 30 1.438885 -0.000001 0.000000 0.000000 -0.000000 0.732589
 31 1.485305 0.000001 0.000000 0.000000 -0.000000 1.168627
time 26
  0 0.235347 -0.235347 3.532833 -0.000000 -0.000000 -1.571254
  1 0.000000 0.000000 0.000000 -1.570795 -1.570796 0.000000
  2 -0.000005 0.000007 3.713255 -6.281131 3.115177 6.261712
  3 18.045721 0.000000 0.000000 0.000000 -0.000000 -0.121501
  4 17.597597 0.000000 0.000000 -0.002613 0.026036 0.099967
  5 3.793090 6.407221 0.000000 0.000000 -0.000000 1.570796
  6 0.000005 -0.000003 -3.713255 6.280565 -3.123995 6.258640
  7 18.045725 0.000000 0.000000 0.000000 -0.000000 -0.127551
  8 17.597597 0.000000 0.000000 0.002950 -0.017289 0.103055
  9 3.793090 6.407221 0.000000 0.000000 -0.000000 1.570796
 10 0.935740 0.000000 0.000000 0.000000 -0.000000 0.000000
 11 0.935741 0.000000 0.000000 0.000000 -0.000000 0.000000
 12 1.293670 0.684478 -0.000001 -0.000004 -0.000001 0.035686
 13 5.309685 -0.003834 0.000000 0.000000 -0.000000 -0.104652
 14 4.826790 -0.004591 0.000000 -0.173478 -0.018336 -0.105315
 15 5.792767 -0.005304 0.000000 -0.139087 -0.011122 -0.080079
 16 6.662317 -0.001453 0.000000 0.000000 -0.000001 0.095957
 17 2.046985 -0.000002 0.000000 0.304984 0.073277 -0.184003
 18 -3.447972 0.282841 4.341911 -0.229726 -1.339065 3.268652
 19 4.827230 0.000000 0.000001 0.966622 1.129159 0.708667
 20 11.139763 0.000000 0.000000 0.000000 -0.000000 -0.395663
 21 10.314597 0.000001 0.000000 -1.642354 0.083241 -0.332944
 22 2.975834 -0.386307 -0.044143 -0.023088 -0.037007 0.541079
 23 1.438886 0.000000 0.000000 0.000000 -0.000000 1.700833
 24 1.485303 0.000000 0.000000 0.000000 -0.000000 1.229654
 25 -3.182408 0.251190 -4.140396 0.615301 1.296545 3.642320
 26 4.972048 0.000000 0.000001 0.849342 -1.045571 -1.312806
 27 11.585355 0.000000 0.000000 0.000000 -0.000000 -1.918841
 28 10.127057 0.000000 0.000001 1.537200 -0.015052 -0.019687
 29 2.683750 -0.427338 0.044205 -0.005738 0.043239 -0.157060
 30 1.438885 -0.000001 0.000000 0.000000 -0.000000 0.732589
 31 1.485305 0.000001 0.000000 0.000000 -0.000000 1.168627
time 27
  0 0.235347 -0.235347 3.532833 -0.000000 -0.000000 -1.571254
  1 0.000000 0.000000 0.000000 -1.570795 -1.570796 0.000000
  2 -0.000005 0.000007 3.713255 -6.281131 3.115177 6.261712
  3 18.045721 0.000000 0.000000 0.000000 -0.000000 -0.121501
  4 17.597597 0.000000 0.000000 -0.002613 0.026036 0.099967
  5 3.793090 6.407221 0.000000 0.000000 -0.000000 1.570796
  6 0.000005 -0.000003 -3.713255 6.280565 -3.123995 6.258640
  7 18.045725 0.000000 0.000000 0.000000 -0.000000 -0.127551
  8 17.597597 0.000000 0.000000 0.002950 -0.017289 0.103055
  9 3.793090 6.407221 0.000000 0.000000 -0.000000 1.570796
 10 0.935740 0.000000 0.000000 0.000000 -0.000000 0.000000
 11 0.935741 0.000000 0.000000 0.000000 -0.000000 0.000000
 12 1.293670 0.684478 -0.000001 -0.000004 -0.000001 0.035686
 13 5.309685 -0.003834 0.000000 0.000000 -0.000000 -0.104652
 14 4.826790 -0.004591 0.000000 -0.173445 -0.018732 -0.107343
 15 5.792767 -0.005304 0.000000 -0.139038 -0.011793 -0.084813
 16 6.662317 -0.001453 0.000000 0.000000 -0.000001 0.095957
 17 2.046985 -0.000002 0.000000 0.304984 0.072985 -0.177126
 18 -3.447972 0.282841 4.341911 -0.237588 -1.347181 3.277185
 19 4.827230 0.000000 0.000001 0.991115 1.130861 0.732295
 20 11.139763 0.000000 0.000000 0.000000 -0.000000 -0.395663
 21 10.314597 0.000001 0.000000 -1.642354 0.083241 -0.332944
 22 2.975834 -0.386307 -0.044143 -0.023088 -0.037007 0.541079
 23 1.438886 0.000000 0.000000 0.000000 -0.000000 1.700833
 24 1.485303 0.000000 0.000000 0.000000 -0.000000 1.229654
 25 -3.182408 0.251190 -4.140396 0.632271 1.303300 3.660057
 26 4.972048 0.000000 0.000001 0.859321 -1.053776 -1.320052
 27 11.585355 0.000000 0.000000 0.000000 -0.000000 -1.918841
 28 10.127057 0.000000 0.000001 1.537200 -0.015052 -0.019687
 29 2.683750 -0.427338 0.044205 -0.005738 0.043239 -0.157060
 30 1.438885 -0.000001 0.000000 0.000000 -0.000000 0.732589
 31 1.485305 0.000001 0.000000 0.000000 -0.000000 1.168627
time 28
  0 0.235347 -0.235347 3.532833 -0.000000 -0.000000 -1.571254
  1 0.000000 0.000000 0.000000 -1.570795 -1.570796 0.000000
  2 -0.000005 0.000007 3.713255 -6.281131 3.115177 6.261712
  3 18.045721 0.000000 0.000000 0.000000 -0.000000 -0.121501
  4 17.597597 0.000000 0.000000 -0.002613 0.026036 0.099967
  5 3.793090 6.407221 0.000000 0.000000 -0.000000 1.570796
  6 0.000005 -0.000003 -3.713255 6.280565 -3.123995 6.258640
  7 18.045725 0.000000 0.000000 0.000000 -0.000000 -0.127551
  8 17.597597 0.000000 0.000000 0.002950 -0.017289 0.103055
  9 3.793090 6.407221 0.000000 0.000000 -0.000000 1.570796
 10 0.935740 0.000000 0.000000 0.000000 -0.000000 0.000000
 11 0.935741 0.000000 0.000000 0.000000 -0.000000 0.000000
 12 1.293670 0.684478 -0.000001 -0.000004 -0.000001 0.035686
 13 5.309685 -0.003834 0.000000 0.000000 -0.000000 -0.104652
 14 4.826790 -0.004591 0.000000 -0.173396 -0.019044 -0.109129
 15 5.792767 -0.005304 0.000000 -0.138989 -0.012332 -0.089028
 16 6.662317 -0.001453 0.000000 0.000000 -0.000001 0.095957
 17 2.046985 -0.000002 0.000000 0.305027 0.072737 -0.171103
 18 -3.447972 0.282841 4.341911 -0.245737 -1.354181 3.285047
 19 4.827230 0.000000 0.000001 1.012730 1.131882 0.753210
 20 11.139763 0.000000 0.000000 0.000000 -0.000000 -0.395663
 21 10.314597 0.000001 0.000000 -1.642354 0.083241 -0.332944
 22 2.975834 -0.386307 -0.044143 -0.023088 -0.037007 0.541079
 23 1.438886 0.000000 0.000000 0.000000 -0.000000 1.700833
 24 1.485303 0.000000 0.000000 0.000000 -0.000000 1.229654
 25 -3.182408 0.251190 -4.140396 0.648665 1.309066 3.676739
 26 4.972048 0.000000 0.000001 0.868526 -1.060855 -1.326771
 27 11.585355 0.000000 0.000000 0.000000 -0.000000 -1.918841
 28 10.127057 0.000000 0.000001 1.537200 -0.015052 -0.019687
 29 2.683750 -0.427338 0.044205 -0.005738 0.043239 -0.157060
 30 1.438885 -0.000001 0.000000 0.000000 -0.000000 0.732589
 31 1.485305 0.000001 0.000000 0.000000 -0.000000 1.168627
time 29
  0 0.235347 -0.235347 3.532833 -0.000000 -0.000000 -1.571254
  1 0.000000 0.000000 0.000000 -1.570795 -1.570796 0.000000
  2 -0.000005 0.000007 3.713255 -6.281131 3.115177 6.261712
  3 18.045721 0.000000 0.000000 0.000000 -0.000000 -0.121501
  4 17.597597 0.000000 0.000000 -0.002613 0.026036 0.099967
  5 3.793090 6.407221 0.000000 0.000000 -0.000000 1.570796
  6 0.000005 -0.000003 -3.713255 6.280565 -3.123995 6.258640
  7 18.045725 0.000000 0.000000 0.000000 -0.000000 -0.127551
  8 17.597597 0.000000 0.000000 0.002950 -0.017289 0.103055
  9 3.793090 6.407221 0.000000 0.000000 -0.000000 1.570796
 10 0.935740 0.000000 0.000000 0.000000 -0.000000 0.000000
 11 0.935741 0.000000 0.000000 0.000000 -0.000000 0.000000
 12 1.293670 0.684478 -0.000001 -0.000004 -0.000001 0.035686
 13 5.309685 -0.003834 0.000000 0.000000 -0.000000 -0.104652
 14 4.826790 -0.004591 0.000000 -0.173363 -0.019259 -0.110540
 15 5.792767 -0.005304 0.000000 -0.138940 -0.012824 -0.092495
 16 6.662317 -0.001453 0.000000 0.000000 -0.000001 0.095957
 17 2.046985 -0.000002 0.000000 0.305070 0.072535 -0.166158
 18 -3.447972 0.282841 4.341911 -0.252544 -1.359989 3.292046
 19 4.827230 0.000000 0.000001 1.030586 1.132733 0.770275
 20 11.139763 0.000000 0.000000 0.000000 -0.000000 -0.395663
 21 10.314597 0.000001 0.000000 -1.642354 0.083241 -0.332944
 22 2.975834 -0.386307 -0.044143 -0.023088 -0.037007 0.541079
 23 1.438886 0.000000 0.000000 0.000000 -0.000000 1.700833
 24 1.485303 0.000000 0.000000 0.000000 -0.000000 1.229654
 25 -3.182408 0.251190 -4.140396 0.662375 1.313786 3.691024
 26 4.972048 0.000000 0.000001 0.876107 -1.066566 -1.332370
 27 11.585355 0.000000 0.000000 0.000000 -0.000000 -1.918841
 28 10.127057 0.000000 0.000001 1.537200 -0.015052 -0.019687
 29 2.683750 -0.427338 0.044205 -0.005738 0.043239 -0.157060
 30 1.438885 -0.000001 0.000000 0.000000 -0.000000 0.732589
 31 1.485305 0.000001 0.000000 0.000000 -0.000000 1.168627
time 30
  0 0.235347 -0.235347 3.532833 -0.000000 -0.000000 -1.571254
  1 0.000000 0.000000 0.000000 -1.570795 -1.570796 0.000000
  2 -0.000005 0.000007 3.713255 -6.281131 3.115177 6.261712
  3 18.045721 0.000000 0.000000 0.000000 -0.000000 -0.121501
  4 17.597597 0.000000 0.000000 -0.002613 0.026036 0.099967
  5 3.793090 6.407221 0.000000 0.000000 -0.000000 1.570796
  6 0.000005 -0.000003 -3.713255 6.280565 -3.123995 6.258640
  7 18.045725 0.000000 0.000000 0.000000 -0.000000 -0.127551
  8 17.597597 0.000000 0.000000 0.002950 -0.017289 0.103055
  9 3.793090 6.407221 0.000000 0.000000 -0.000000 1.570796
 10 0.935740 0.000000 0.000000 0.000000 -0.000000 0.000000
 11 0.935741 0.000000 0.000000 0.000000 -0.000000 0.000000
 12 1.293670 0.684478 -0.000001 -0.000004 -0.000001 0.035686
 13 5.309685 -0.003834 0.000000 0.000000 -0.000000 -0.104652
 14 4.826790 -0.004591 0.000000 -0.173330 -0.019499 -0.111620
 15 5.792767 -0.005304 0.000000 -0.138908 -0.013159 -0.094966
 16 6.662317 -0.001453 0.000000 0.000000 -0.000001 0.095957
 17 2.046985 -0.000002 0.000000 0.305286 0.072377 -0.162518
 18 -3.447972 0.282841 4.341911 -0.257721 -1.364220 3.297319
 19 4.827230 0.000000 0.000001 1.043743 1.133499 0.782964
 20 11.139763 0.000000 0.000000 0.000000 -0.000000 -0.395663
 21 10.314597 0.000001 0.000000 -1.642354 0.083241 -0.332944
 22 2.975834 -0.386307 -0.044143 -0.023088 -0.037007 0.541079
 23 1.438886 0.000000 0.000000 0.000000 -0.000000 1.700833
 24 1.485303 0.000000 0.000000 0.000000 -0.000000 1.229654
 25 -3.182408 0.251190 -4.140396 0.672346 1.317206 3.701570
 26 4.972048 0.000000 0.000001 0.881831 -1.070910 -1.336586
 27 11.585355 0.000000 0.000000 0.000000 -0.000000 -1.918841
 28 10.127057 0.000000 0.000001 1.537200 -0.015052 -0.019687
 29 2.683750 -0.427338 0.044205 -0.005738 0.043239 -0.157060
 30 1.438885 -0.000001 0.000000 0.000000 -0.000000 0.732589
 31 1.485305 0.000001 0.000000 0.000000 -0.000000 1.168627
end
