version 1
nodes
  0 "Bip01"  -1
  1 "Bip01 Pelvis"   0
  2 "Bip01 L Leg"   1
  3 "Bip01 L Leg1"   2
  4 "Bip01 L Foot"   3
  5 "Bip01 L Toe0"   4
  6 "Bip01 R Leg"   1
  7 "Bip01 R Leg1"   6
  8 "Bip01 R Foot"   7
  9 "Bip01 R Toe0"   8
 10 "Bip01 R Toe01"   9
 11 "Bip01 R Toe02"  10
 12 "Bip01 Spine"   1
 13 "Bip01 Spine1"  12
 14 "Bip01 Spine2"  13
 15 "Bip01 Spine3"  14
 16 "Bip01 Neck"  15
 17 "Bip01 Head"  16
 18 "Bip01 L Arm"  16
 19 "Bip01 L Arm1"  18
 20 "Bip01 L Arm2"  19
 21 "Bip01 L Hand"  20
 22 "Bip01 L Finger1"  21
 23 "Bip01 L Finger11"  22
 24 "Bip01 L Finger12"  23
 25 "Bip01 R Arm"  16
 26 "Bip01 R Arm1"  25
 27 "Bip01 R Arm2"  26
 28 "Bip01 R Hand"  27
 29 "Bip01 R Finger1"  28
 30 "Bip01 R Finger11"  29
 31 "Bip01 R Finger12"  30
end
skeleton
time 0
  0 0.235347 -0.235347 3.532833 -0.000000 -0.000000 -1.571254
  1 0.000000 0.000000 0.000000 -1.570795 -1.570796 0.000000
  2 -0.000005 0.000007 3.713255 -6.281131 3.115177 6.261712
  3 18.045721 0.000000 0.000000 0.000000 -0.000000 -0.121501
  4 17.597597 0.000000 0.000000 -0.002613 0.026036 0.099967
  5 3.793090 6.407221 0.000000 0.000000 -0.000000 1.570796
  6 0.000005 -0.000003 -3.713255 6.280565 -3.123995 6.258640
  7 18.045725 0.000000 0.000000 0.000000 -0.000000 -0.127551
  8 17.597597 0.000000 0.000000 0.002950 -0.017289 0.103055
  9 3.793090 6.407221 0.000000 0.000000 -0.000000 1.570796
 10 0.935740 0.000000 0.000000 0.000000 -0.000000 0.000000
 11 0.935741 0.000000 0.000000 0.000000 -0.000000 0.000000
 12 1.293670 0.684478 -0.000001 -0.000004 -0.000001 0.009520
 13 5.309685 -0.003834 0.000000 0.000000 0.000000 -0.261638
 14 4.826790 -0.004591 0.000000 -0.156516 -0.012080 -0.077622
 15 5.792767 -0.005304 0.000000 -0.052031 -0.005369 -0.104517
 16 6.662317 -0.001453 0.000000 0.000000 -0.000001 0.471000
 17 2.046985 -0.000002 0.000000 0.209168 0.001306 -0.314306
 18 -3.112024 1.517254 4.341911 1.374519 -0.766166 1.378743
 19 4.827230 0.000000 0.000001 -0.567806 0.390059 -0.656071
 20 11.139763 0.000000 0.000000 0.000000 -0.000000 -0.946070
 21 10.314597 0.000001 0.000000 -3.686777 0.382791 -0.380497
 22 2.975834 -0.386307 -0.044143 -0.012782 -0.041705 0.279275
 23 1.438886 0.000000 0.000000 0.000000 -0.000000 0.924525
 24 1.485303 0.000000 0.000000 0.000000 -0.000000 0.906977
 25 -2.869898 1.399663 -4.140396 0.994288 1.214777 3.634075
 26 4.972048 0.000000 0.000001 -0.375957 -1.241686 -0.720085
 27 11.585355 0.000000 0.000000 0.000000 -0.000000 -1.504976
 28 10.127057 0.000000 0.000001 1.663458 0.688482 -0.096687
 29 2.683750 -0.427338 0.044205 -0.005738 0.043239 -0.157060
 30 1.438885 -0.000001 0.000000 0.000000 -0.000000 0.732589
 31 1.485305 0.000001 0.000000 0.000000 -0.000000 1.168627
time 1
  0 0.235347 -0.235347 3.532833 -0.000000 -0.000000 -1.571254
  1 0.000000 0.000000 0.000000 -1.570795 -1.570796 0.000000
  2 -0.000005 0.000007 3.713255 -6.281131 3.115177 6.261712
  3 18.045721 0.000000 0.000000 0.000000 -0.000000 -0.121501
  4 17.597597 0.000000 0.000000 -0.002613 0.026036 0.099967
  5 3.793090 6.407221 0.000000 0.000000 -0.000000 1.570796
  6 0.000005 -0.000003 -3.713255 6.280565 -3.123995 6.258640
  7 18.045725 0.000000 0.000000 0.000000 -0.000000 -0.127551
  8 17.597597 0.000000 0.000000 0.002950 -0.017289 0.103055
  9 3.793090 6.407221 0.000000 0.000000 -0.000000 1.570796
 10 0.935740 0.000000 0.000000 0.000000 -0.000000 0.000000
 11 0.935741 0.000000 0.000000 0.000000 -0.000000 0.000000
 12 1.293670 0.684478 -0.000001 -0.000004 -0.000001 -0.042779
 13 5.309685 -0.003834 0.000000 -0.067395 -0.017977 -0.261022
 14 4.826790 -0.004591 0.000000 -0.294773 -0.032838 -0.108512
 15 5.792767 -0.005304 0.000000 -0.052031 -0.005369 -0.104517
 16 6.662317 -0.001453 0.000000 0.000000 -0.000001 0.471000
 17 2.046985 -0.000002 0.000000 0.416095 0.000248 -0.223197
 18 -3.112024 1.517254 4.341911 1.374519 -0.766166 1.378743
 19 4.827230 0.000000 0.000001 -0.120823 0.757609 0.013565
 20 11.139763 0.000000 0.000000 0.000000 -0.000000 -1.934546
 21 10.314597 0.000001 0.000000 -3.728033 0.302050 0.042330
 22 2.975834 -0.386307 -0.044143 -0.012782 -0.041705 0.279275
 23 1.438886 0.000000 0.000000 0.000000 -0.000000 0.924525
 24 1.485303 0.000000 0.000000 0.000000 -0.000000 0.906977
 25 -2.869898 1.399663 -4.140396 0.994288 1.214777 3.634075
 26 4.972048 0.000000 0.000001 -1.389149 -0.836344 0.076643
 27 11.585355 0.000000 0.000000 0.000000 -0.000000 -2.017620
 28 10.127057 0.000000 0.000001 1.656451 0.584257 -0.108376
 29 2.683750 -0.427338 0.044205 -0.005738 0.043239 -0.157060
 30 1.438885 -0.000001 0.000000 0.000000 -0.000000 0.732589
 31 1.485305 0.000001 0.000000 0.000000 -0.000000 1.168627
time 2
  0 0.235347 -0.235347 3.532833 -0.000000 -0.000000 -1.571254
  1 0.000000 0.000000 0.000000 -1.570795 -1.570796 0.000000
  2 -0.000005 0.000007 3.713255 -6.281131 3.115177 6.261712
  3 18.045721 0.000000 0.000000 0.000000 -0.000000 -0.121501
  4 17.597597 0.000000 0.000000 -0.002613 0.026036 0.099967
  5 3.793090 6.407221 0.000000 0.000000 -0.000000 1.570796
  6 0.000005 -0.000003 -3.713255 6.280565 -3.123995 6.258640
  7 18.045725 0.000000 0.000000 0.000000 -0.000000 -0.127551
  8 17.597597 0.000000 0.000000 0.002950 -0.017289 0.103055
  9 3.793090 6.407221 0.000000 0.000000 -0.000000 1.570796
 10 0.935740 0.000000 0.000000 0.000000 -0.000000 0.000000
 11 0.935741 0.000000 0.000000 0.000000 -0.000000 0.000000
 12 1.293670 0.684478 -0.000001 -0.000004 -0.000001 -0.034442
 13 5.309685 -0.003834 0.000000 -0.056683 -0.015113 -0.261203
 14 4.826790 -0.004591 0.000000 -0.170900 -0.018265 -0.106263
 15 5.792767 -0.005304 0.000000 0.027198 0.002780 -0.104600
 16 6.662317 -0.001453 0.000000 0.000000 -0.000001 0.471000
 17 2.046985 -0.000002 0.000000 0.201585 0.014318 -0.239018
 18 -3.112024 1.517254 4.341911 1.374519 -0.766166 1.378743
 19 4.827230 0.000000 0.000001 -0.331980 0.674976 -0.472297
 20 11.139763 0.000000 0.000000 0.000000 -0.000000 -1.495636
 21 10.314597 0.000001 0.000000 -3.720393 0.312246 -0.016314
 22 2.975834 -0.386307 -0.044143 -0.012782 -0.041705 0.279275
 23 1.438886 0.000000 0.000000 0.000000 -0.000000 0.924525
 24 1.485303 0.000000 0.000000 0.000000 -0.000000 0.906977
 25 -2.869898 1.399663 -4.140396 0.994288 1.214777 3.634075
 26 4.972048 0.000000 0.000001 -1.236528 -0.902386 0.153846
 27 11.585355 0.000000 0.000000 0.000000 -0.000000 -1.931223
 28 10.127057 0.000000 0.000001 1.657470 0.601853 -0.106493
 29 2.683750 -0.427338 0.044205 -0.005738 0.043239 -0.157060
 30 1.438885 -0.000001 0.000000 0.000000 -0.000000 0.732589
 31 1.485305 0.000001 0.000000 0.000000 -0.000000 1.168627
time 3
  0 0.235347 -0.235347 3.532833 -0.000000 -0.000000 -1.571254
  1 0.000000 0.000000 0.000000 -1.570795 -1.570796 0.000000
  2 -0.000005 0.000007 3.713255 -6.281131 3.115177 6.261712
  3 18.045721 0.000000 0.000000 0.000000 -0.000000 -0.121501
  4 17.597597 0.000000 0.000000 -0.002613 0.026036 0.099967
  5 3.793090 6.407221 0.000000 0.000000 -0.000000 1.570796
  6 0.000005 -0.000003 -3.713255 6.280565 -3.123995 6.258640
  7 18.045725 0.000000 0.000000 0.000000 -0.000000 -0.127551
  8 17.597597 0.000000 0.000000 0.002950 -0.017289 0.103055
  9 3.793090 6.407221 0.000000 0.000000 -0.000000 1.570796
 10 0.935740 0.000000 0.000000 0.000000 -0.000000 0.000000
 11 0.935741 0.000000 0.000000 0.000000 -0.000000 0.000000
 12 1.293670 0.684478 -0.000001 -0.000004 -0.000001 -0.020195
 13 5.309685 -0.003834 0.000000 -0.038258 -0.010211 -0.261438
 14 4.826790 -0.004591 0.000000 -0.078882 -0.007658 -0.097928
 15 5.792767 -0.005304 0.000000 0.069380 0.007227 -0.104413
 16 6.662317 -0.001453 0.000000 0.000000 -0.000001 0.471000
 17 2.046985 -0.000002 0.000000 0.048167 0.016907 -0.264998
 18 -3.112024 1.517254 4.341911 1.374519 -0.766166 1.378743
 19 4.827230 0.000000 0.000001 -0.544488 0.487499 -0.895939
 20 11.139763 0.000000 0.000000 0.000000 -0.000000 -0.926798
 21 10.314597 0.000001 0.000000 -3.706102 0.334855 -0.139295
 22 2.975834 -0.386307 -0.044143 -0.012782 -0.041705 0.279275
 23 1.438886 0.000000 0.000000 0.000000 -0.000000 0.924525
 24 1.485303 0.000000 0.000000 0.000000 -0.000000 0.906977
 25 -2.869898 1.399663 -4.140396 0.994288 1.214777 3.634075
 26 4.972048 0.000000 0.000001 -1.008409 -1.016773 0.084679
 27 11.585355 0.000000 0.000000 0.000000 -0.000000 -1.795926
 28 10.127057 0.000000 0.000001 1.659190 0.629195 -0.103512
 29 2.683750 -0.427338 0.044205 -0.005738 0.043239 -0.157060
 30 1.438885 -0.000001 0.000000 0.000000 -0.000000 0.732589
 31 1.485305 0.000001 0.000000 0.000000 -0.000000 1.168627
time 4
  0 0.235347 -0.235347 3.532833 -0.000000 -0.000000 -1.571254
  1 0.000000 0.000000 0.000000 -1.570795 -1.570796 0.000000
  2 -0.000005 0.000007 3.713255 -6.281131 3.115177 6.261712
  3 18.045721 0.000000 0.000000 0.000000 -0.000000 -0.121501
  4 17.597597 0.000000 0.000000 -0.002613 0.026036 0.099967
  5 3.793090 6.407221 0.000000 0.000000 -0.000000 1.570796
  6 0.000005 -0.000003 -3.713255 6.280565 -3.123995 6.258640
  7 18.045725 0.000000 0.000000 0.000000 -0.000000 -0.127551
  8 17.597597 0.000000 0.000000 0.002950 -0.017289 0.103055
  9 3.793090 6.407221 0.000000 0.000000 -0.000000 1.570796
 10 0.935740 0.000000 0.000000 0.000000 -0.000000 0.000000
 11 0.935741 0.000000 0.000000 0.000000 -0.000000 0.000000
 12 1.293670 0.684478 -0.000001 -0.000004 -0.000001 -0.008694
 13 5.309685 -0.003834 0.000000 -0.023457 -0.006256 -0.261565
 14 4.826790 -0.004591 0.000000 -0.088652 -0.007970 -0.090366
 15 5.792767 -0.005304 0.000000 0.038106 0.003967 -0.104579
 16 6.662317 -0.001453 0.000000 0.000000 -0.000001 0.471000
 17 2.046985 -0.000002 0.000000 0.074232 0.010311 -0.283876
 18 -3.112024 1.517254 4.341911 1.374519 -0.766166 1.378743
 19 4.827230 0.000000 0.000001 -0.558115 0.457118 -0.861897
 20 11.139763 0.000000 0.000000 0.000000 -0.000000 -0.875710
 21 10.314597 0.000001 0.000000 -3.697294 0.352899 -0.232301
 22 2.975834 -0.386307 -0.044143 -0.012782 -0.041705 0.279275
 23 1.438886 0.000000 0.000000 0.000000 -0.000000 0.924525
 24 1.485303 0.000000 0.000000 0.000000 -0.000000 0.906977
 25 -2.869898 1.399663 -4.140396 0.994288 1.214777 3.634075
 26 4.972048 0.000000 0.000001 -0.812779 -1.119255 -0.141988
 27 11.585355 0.000000 0.000000 0.000000 -0.000000 -1.677419
 28 10.127057 0.000000 0.000001 1.660910 0.653370 -0.100845
 29 2.683750 -0.427338 0.044205 -0.005738 0.043239 -0.157060
 30 1.438885 -0.000001 0.000000 0.000000 -0.000000 0.732589
 31 1.485305 0.000001 0.000000 0.000000 -0.000000 1.168627
time 5
  0 0.235347 -0.235347 3.532833 -0.000000 -0.000000 -1.571254
  1 0.000000 0.000000 0.000000 -1.570795 -1.570796 0.000000
  2 -0.000005 0.000007 3.713255 -6.281131 3.115177 6.261712
  3 18.045721 0.000000 0.000000 0.000000 -0.000000 -0.121501
  4 17.597597 0.000000 0.000000 -0.002613 0.026036 0.099967
  5 3.793090 6.407221 0.000000 0.000000 -0.000000 1.570796
  6 0.000005 -0.000003 -3.713255 6.280565 -3.123995 6.258640
  7 18.045725 0.000000 0.000000 0.000000 -0.000000 -0.127551
  8 17.597597 0.000000 0.000000 0.002950 -0.017289 0.103055
  9 3.793090 6.407221 0.000000 0.000000 -0.000000 1.570796
 10 0.935740 0.000000 0.000000 0.000000 -0.000000 0.000000
 11 0.935741 0.000000 0.000000 0.000000 -0.000000 0.000000
 12 1.293670 0.684478 -0.000001 -0.000004 -0.000001 0.002020
 13 5.309685 -0.003834 0.000000 -0.009672 -0.002577 -0.261619
 14 4.826790 -0.004591 0.000000 -0.127354 -0.010499 -0.082847
 15 5.792767 -0.005304 0.000000 -0.013941 -0.001402 -0.104600
 16 6.662317 -0.001453 0.000000 0.000000 -0.000001 0.471000
 17 2.046985 -0.000002 0.000000 0.151221 0.004165 -0.301676
 18 -3.112024 1.517254 4.341911 1.374519 -0.766166 1.378743
 19 4.827230 0.000000 0.000001 -0.562696 0.417972 -0.744632
 20 11.139763 0.000000 0.000000 0.000000 -0.000000 -0.911661
 21 10.314597 0.000001 0.000000 -3.690463 0.370291 -0.319271
 22 2.975834 -0.386307 -0.044143 -0.012782 -0.041705 0.279275
 23 1.438886 0.000000 0.000000 0.000000 -0.000000 0.924525
 24 1.485303 0.000000 0.000000 0.000000 -0.000000 0.906977
 25 -2.869898 1.399663 -4.140396 0.994288 1.214777 3.634075
 26 4.972048 0.000000 0.000001 -0.597733 -1.197685 -0.438151
 27 11.585355 0.000000 0.000000 0.000000 -0.000000 -1.579130
 28 10.127057 0.000000 0.000001 1.662375 0.673430 -0.098452
 29 2.683750 -0.427338 0.044205 -0.005738 0.043239 -0.157060
 30 1.438885 -0.000001 0.000000 0.000000 -0.000000 0.732589
 31 1.485305 0.000001 0.000000 0.000000 -0.000000 1.168627
time 6
  0 0.235347 -0.235347 3.532833 -0.000000 -0.000000 -1.571254
  1 0.000000 0.000000 0.000000 -1.570795 -1.570796 0.000000
  2 -0.000005 0.000007 3.713255 -6.281131 3.115177 6.261712
  3 18.045721 0.000000 0.000000 0.000000 -0.000000 -0.121501
  4 17.597597 0.000000 0.000000 -0.002613 0.026036 0.099967
  5 3.793090 6.407221 0.000000 0.000000 -0.000000 1.570796
  6 0.000005 -0.000003 -3.713255 6.280565 -3.123995 6.258640
  7 18.045725 0.000000 0.000000 0.000000 -0.000000 -0.127551
  8 17.597597 0.000000 0.000000 0.002950 -0.017289 0.103055
  9 3.793090 6.407221 0.000000 0.000000 -0.000000 1.570796
 10 0.935740 0.000000 0.000000 0.000000 -0.000000 0.000000
 11 0.935741 0.000000 0.000000 0.000000 -0.000000 0.000000
 12 1.293670 0.684478 -0.000001 -0.000004 -0.000001 0.009520
 13 5.309685 -0.003834 0.000000 0.000000 0.000000 -0.261638
 14 4.826790 -0.004591 0.000000 -0.156516 -0.012080 -0.077622
 15 5.792767 -0.005304 0.000000 -0.052031 -0.005369 -0.104517
 16 6.662317 -0.001453 0.000000 0.000000 -0.000001 0.471000
 17 2.046985 -0.000002 0.000000 0.209168 0.001306 -0.314306
 18 -3.112024 1.517254 4.341911 1.374519 -0.766166 1.378743
 19 4.827230 0.000000 0.000001 -0.567806 0.390059 -0.656071
 20 11.139763 0.000000 0.000000 0.000000 -0.000000 -0.946070
 21 10.314597 0.000001 0.000000 -3.686777 0.382791 -0.380497
 22 2.975834 -0.386307 -0.044143 -0.012782 -0.041705 0.279275
 23 1.438886 0.000000 0.000000 0.000000 -0.000000 0.924525
 24 1.485303 0.000000 0.000000 0.000000 -0.000000 0.906977
 25 -2.869898 1.399663 -4.140396 0.994288 1.214777 3.634075
 26 4.972048 0.000000 0.000001 -0.375957 -1.241686 -0.720085
 27 11.585355 0.000000 0.000000 0.000000 -0.000000 -1.504976
 28 10.127057 0.000000 0.000001 1.663458 0.688482 -0.096687
 29 2.683750 -0.427338 0.044205 -0.005738 0.043239 -0.157060
 30 1.438885 -0.000001 0.000000 0.000000 -0.000000 0.732589
 31 1.485305 0.000001 0.000000 0.000000 -0.000000 1.168627
end
