version 1
nodes
  0 "Hands biped"  -1
  1 "Bip01 Pelvis"   0
  2 "Bip01 Spine"   1
  3 "Bip01 Spine1"   2
  4 "Bip01 Spine2"   3
  5 "Bip01 Spine3"   4
  6 "Bip01 Neck"   5
  7 "Bip01 R Arm"   6
  8 "Bip01 R Arm1"   7
  9 "Bip01 R Arm2"   8
 10 "Bip01 R Hand"   9
 11 "Gauss Master"  10
 12 "Spinner"  11
 13 "Bip01 L Arm"   6
 14 "Bip01 L Arm1"  13
 15 "Bip01 L Arm2"  14
 16 "Bip01 L Hand"  15
 17 "Bip01 L Finger0"  16
 18 "Bip01 L Finger01"  17
 19 "Bip01 L Finger02"  18
 20 "Bip01 L Finger1"  16
 21 "Bip01 L Finger11"  20
 22 "Bip01 L Finger12"  21
 23 "Bip01 L Finger2"  16
 24 "Bip01 L Finger21"  23
 25 "Bip01 L Finger22"  24
 26 "Bip01 L Finger3"  16
 27 "Bip01 L Finger31"  26
 28 "Bip01 L Finger32"  27
 29 "Bip01 L Finger4"  16
 30 "Bip01 L Finger41"  29
 31 "Bip01 L Finger42"  30
end
skeleton
time 0
  0 2.665634 -2.665634 -24.602341 0.000000 0.000000 -1.483529
  1 0.000000 0.000000 0.000000 -1.570795 -1.570796 0.000000
  2 1.326317 -0.003921 0.000002 -0.000004 -0.000001 0.000796
  3 4.926312 -0.003923 0.000000 0.000000 0.000000 0.000000
  4 4.926314 -0.003923 0.000000 0.000000 0.000000 0.000000
  5 4.926313 -0.003923 0.000000 0.000000 0.000000 0.000000
  6 4.926317 -0.001509 0.000000 0.000000 0.000000 0.000000
  7 -0.000001 0.001514 -1.894737 -0.000014 1.370797 3.140783
  8 4.926315 0.000000 0.000000 0.614787 -1.166577 -0.602415
  9 11.368421 0.000000 0.000000 0.000000 0.000000 -1.674920
 10 11.368422 0.000003 0.000000 1.616027 0.122513 0.360435
 11 5.073513 0.334713 5.123067 1.652175 -0.023464 0.173451
 12 -1.928779 -0.976111 -0.000205 0.000000 0.000000 0.000000
 13 -0.000001 0.001503 1.894737 -0.000014 -1.370797 3.140810
 14 4.926316 0.000000 0.000002 1.373747 1.060711 -0.229879
 15 11.368423 0.000000 -0.000003 0.000000 0.000000 -0.898698
 16 11.368423 0.000000 0.000001 -1.457802 -0.390183 0.387764
 17 1.126228 0.104082 -1.358370 2.984948 0.159546 1.191772
 18 2.373627 -0.000003 0.000000 0.000000 0.000000 0.305278
 19 1.071900 0.000001 0.000001 0.000000 0.000000 0.540778
 20 3.789472 -0.000907 -1.136842 0.140342 0.070615 1.112625
 21 1.136841 -0.000002 0.000000 0.000000 0.000000 0.540778
 22 1.136843 -0.000001 0.000001 0.000000 0.000000 1.055389
 23 3.789472 -0.000304 -0.378948 0.069906 0.035750 1.108941
 24 1.326315 -0.000002 0.000000 0.000000 0.000000 0.540778
 25 1.326315 0.000001 0.000000 0.000000 0.000000 1.064111
 26 3.789473 0.000300 0.378947 -0.000356 0.000712 1.107722
 27 1.136842 0.000000 0.000000 0.000000 0.000000 0.540778
 28 1.136844 0.000003 0.000000 0.000000 0.000000 1.055389
 29 3.789472 0.000904 1.136841 -0.133209 -0.065327 1.112141
 30 0.947372 0.000000 0.000000 0.000000 0.000000 0.540778
 31 0.947369 0.000000 0.000000 0.000000 0.000000 1.055389
end
