version 1
nodes
  0 "Bip01"  -1
  1 "Bip01 Pelvis"   0
  2 "Bip01 L Leg"   1
  3 "Bip01 L Leg1"   2
  4 "Bip01 L Foot"   3
  5 "Bip01 R Leg"   1
  6 "Bip01 R Leg1"   5
  7 "Bip01 R Foot"   6
  8 "Bip01 Spine"   1
  9 "Bip01 Spine1"   8
 10 "Bip01 Spine2"   9
 11 "Bip01 Spine3"  10
 12 "Bip01 Neck"  11
 13 "Bip01 Head"  12
 14 "Bip01 L Arm"  12
 15 "Bip01 L Arm1"  14
 16 "Bip01 L Arm2"  15
 17 "Bip01 L Hand"  16
 18 "Bip01 R Arm"  12
 19 "Bip01 R Arm1"  18
 20 "Bip01 R Arm2"  19
 21 "Bip01 R Hand"  20
end
skeleton
time 0
  0 0.235347 -0.235347 -13.307525 -0.000000 0.270322 -1.570969
  1 -5.808771 0.261727 0.000000 -1.570795 -1.570796 0.000000
  2 -0.000005 0.000007 3.713255 -3.389865 -0.209941 1.567109
  3 18.045721 0.000000 0.000000 0.000000 -0.000000 -1.744711
  4 17.597597 0.000000 0.000000 -0.164903 0.191688 0.413694
  5 0.000005 -0.000003 -3.713255 0.311761 2.936853 5.354811
  6 18.045725 0.000000 0.000000 0.000000 -0.000000 -1.993292
  7 17.597597 0.000000 0.000000 0.131027 -0.129950 1.055680
  8 1.293670 0.684478 -0.000001 -0.000004 -0.000001 0.436884
  9 5.309685 -0.003834 0.000000 -0.032969 0.011361 0.331233
 10 4.826790 -0.004591 0.000000 -0.141853 0.043276 0.293451
 11 5.792767 -0.005304 0.000000 0.000000 -0.000000 0.191851
 12 6.662317 -0.001453 0.000000 0.000000 -0.000001 0.471000
 13 2.046985 -0.000002 0.000000 0.170824 -0.061937 -0.678472
 14 -3.112024 1.517254 4.341911 1.374615 -0.765707 1.378264
 15 4.827230 0.000000 0.000001 -0.191717 -0.515498 -0.765022
 16 11.139763 0.000000 0.000000 0.000000 -0.000000 -0.544933
 17 10.314597 0.000001 0.000000 -2.966115 -0.000000 -0.069778
 18 -2.869898 1.399663 -4.140396 -1.206002 1.054067 1.512882
 19 4.972048 0.000000 0.000001 0.696644 0.249931 -1.462139
 20 11.585355 0.000000 0.000000 0.000000 -0.000000 -0.532575
 21 10.127057 0.000000 0.000001 2.168806 0.289746 0.489380
time 1
  0 0.235347 -0.235347 -13.311431 -0.000000 0.270322 -1.570969
  1 -5.808771 0.261727 0.000000 -1.570795 -1.570796 0.000000
  2 -0.000005 0.000007 3.713255 -3.389865 -0.209941 1.567109
  3 18.045721 0.000000 0.000000 0.000000 -0.000000 -1.744711
  4 17.597597 0.000000 0.000000 -0.164903 0.191688 0.413694
  5 0.000005 -0.000003 -3.713255 0.311761 2.936853 5.354811
  6 18.045725 0.000000 0.000000 0.000000 -0.000000 -1.993292
  7 17.597597 0.000000 0.000000 0.131027 -0.129950 1.055680
  8 1.293670 0.684478 -0.000001 -0.000004 -0.000001 0.436884
  9 5.309685 -0.003834 0.000000 -0.032969 0.011361 0.331233
 10 4.826790 -0.004591 0.000000 -0.141771 0.043480 0.294906
 11 5.792767 -0.005304 0.000000 0.000000 -0.000000 0.191851
 12 6.662317 -0.001453 0.000000 0.000000 -0.000001 0.471000
 13 2.046985 -0.000002 0.000000 0.170910 -0.061689 -0.681439
 14 -3.112024 1.517254 4.341911 1.376340 -0.761129 1.377114
 15 4.827230 0.000000 0.000001 -0.192540 -0.517540 -0.760209
 16 11.139763 0.000000 0.000000 0.000000 -0.000000 -0.544933
 17 10.314597 0.000001 0.000000 -2.966115 -0.000000 -0.069778
 18 -2.869898 1.399663 -4.140396 -1.208494 1.051071 1.510581
 19 4.972048 0.000000 0.000001 0.696180 0.251942 -1.459372
 20 11.585355 0.000000 0.000000 0.000000 -0.000000 -0.532575
 21 10.127057 0.000000 0.000001 2.168806 0.289746 0.489380
time 2
  0 0.235347 -0.235347 -13.311431 -0.000000 0.270322 -1.570969
  1 -5.808771 0.265633 0.000000 -1.570795 -1.570796 0.000000
  2 -0.000005 0.000007 3.713255 -3.389865 -0.209941 1.567109
  3 18.045721 0.000000 0.000000 0.000000 -0.000000 -1.744711
  4 17.597597 0.000000 0.000000 -0.164903 0.191688 0.413694
  5 0.000005 -0.000003 -3.713255 0.311761 2.936853 5.354811
  6 18.045725 0.000000 0.000000 0.000000 -0.000000 -1.993292
  7 17.597597 0.000000 0.000000 0.131027 -0.129950 1.055680
  8 1.293670 0.684478 -0.000001 -0.000004 -0.000001 0.436884
  9 5.309685 -0.003834 0.000000 -0.032969 0.011361 0.331233
 10 4.826790 -0.004591 0.000000 -0.141705 0.043780 0.296868
 11 5.792767 -0.005304 0.000000 0.000000 -0.000000 0.191851
 12 6.662317 -0.001453 0.000000 0.000000 -0.000001 0.471000
 13 2.046985 -0.000002 0.000000 0.170953 -0.061396 -0.685124
 14 -3.112024 1.517254 4.341911 1.378833 -0.754937 1.375388
 15 4.827230 0.000000 0.000001 -0.193656 -0.520434 -0.753646
 16 11.139763 0.000000 0.000000 0.000000 -0.000000 -0.544933
 17 10.314597 0.000001 0.000000 -2.966115 -0.000000 -0.069778
 18 -2.869898 1.399663 -4.140396 -1.212137 1.047001 1.507513
 19 4.972048 0.000000 0.000001 0.695561 0.254677 -1.455420
 20 11.585355 0.000000 0.000000 0.000000 -0.000000 -0.532575
 21 10.127057 0.000000 0.000001 2.168806 0.289746 0.489380
time 3
  0 0.235347 -0.235347 -13.311431 -0.000000 0.270322 -1.570969
  1 -5.816584 0.265633 0.000000 -1.570795 -1.570796 0.000000
  2 -0.000005 0.000007 3.713255 -3.389865 -0.209941 1.567109
  3 18.045721 0.000000 0.000000 0.000000 -0.000000 -1.744711
  4 17.597597 0.000000 0.000000 -0.164903 0.191688 0.413694
  5 0.000005 -0.000003 -3.713255 0.311761 2.936853 5.354811
  6 18.045725 0.000000 0.000000 0.000000 -0.000000 -1.993292
  7 17.597597 0.000000 0.000000 0.131027 -0.129950 1.055680
  8 1.293670 0.684478 -0.000001 -0.000004 -0.000001 0.436884
  9 5.309685 -0.003834 0.000000 -0.032969 0.011361 0.331233
 10 4.826790 -0.004591 0.000000 -0.141574 0.044103 0.299271
 11 5.792767 -0.005304 0.000000 0.000000 -0.000000 0.191851
 12 6.662317 -0.001453 0.000000 0.000000 -0.000001 0.471000
 13 2.046985 -0.000002 0.000000 0.171082 -0.061036 -0.689574
 14 -3.112024 1.517254 4.341911 1.381709 -0.747359 1.373278
 15 4.827230 0.000000 0.000001 -0.195007 -0.523923 -0.745595
 16 11.139763 0.000000 0.000000 0.000000 -0.000000 -0.544933
 17 10.314597 0.000001 0.000000 -2.966115 -0.000000 -0.069778
 18 -2.869898 1.399663 -4.140396 -1.216452 1.041970 1.503774
 19 4.972048 0.000000 0.000001 0.694710 0.257975 -1.450743
 20 11.585355 0.000000 0.000000 0.000000 -0.000000 -0.532575
 21 10.127057 0.000000 0.000001 2.168806 0.289746 0.489380
time 4
  0 0.235347 -0.235347 -13.311431 -0.000000 0.270322 -1.570969
  1 -5.816584 0.265633 0.000000 -1.570795 -1.570796 0.000000
  2 -0.000005 0.000007 3.713255 -3.389865 -0.209941 1.567109
  3 18.045721 0.000000 0.000000 0.000000 -0.000000 -1.744711
  4 17.597597 0.000000 0.000000 -0.164903 0.191688 0.413694
  5 0.000005 -0.000003 -3.713255 0.311761 2.936853 5.354811
  6 18.045725 0.000000 0.000000 0.000000 -0.000000 -1.993292
  7 17.597597 0.000000 0.000000 0.131027 -0.129950 1.055680
  8 1.293670 0.684478 -0.000001 -0.000004 -0.000001 0.436884
  9 5.309685 -0.003834 0.000000 -0.032969 0.011361 0.331233
 10 4.826790 -0.004591 0.000000 -0.141459 0.044511 0.302005
 11 5.792767 -0.005304 0.000000 0.000000 -0.000000 0.191851
 12 6.662317 -0.001453 0.000000 0.000000 -0.000001 0.471000
 13 2.046985 -0.000002 0.000000 0.171255 -0.060654 -0.694608
 14 -3.112024 1.517254 4.341911 1.385065 -0.738743 1.371073
 15 4.827230 0.000000 0.000001 -0.196534 -0.527752 -0.736406
 16 11.139763 0.000000 0.000000 0.000000 -0.000000 -0.544933
 17 10.314597 0.000001 0.000000 -2.966115 -0.000000 -0.069778
 18 -2.869898 1.399663 -4.140396 -1.221150 1.036289 1.499748
 19 4.972048 0.000000 0.000001 0.693859 0.261756 -1.445407
 20 11.585355 0.000000 0.000000 0.000000 -0.000000 -0.532575
 21 10.127057 0.000000 0.000001 2.168806 0.289746 0.489380
time 5
  0 0.235347 -0.235347 -13.315337 -0.000000 0.270322 -1.570969
  1 -5.824397 0.273446 0.000000 -1.570795 -1.570796 0.000000
  2 -0.000005 0.000007 3.713255 -3.389865 -0.209941 1.567109
  3 18.045721 0.000000 0.000000 0.000000 -0.000000 -1.744711
  4 17.597597 0.000000 0.000000 -0.164903 0.191688 0.413694
  5 0.000005 -0.000003 -3.713255 0.311761 2.936853 5.354811
  6 18.045725 0.000000 0.000000 0.000000 -0.000000 -1.993292
  7 17.597597 0.000000 0.000000 0.131027 -0.129950 1.055680
  8 1.293670 0.684478 -0.000001 -0.000004 -0.000001 0.436884
  9 5.309685 -0.003834 0.000000 -0.032969 0.011361 0.331233
 10 4.826790 -0.004591 0.000000 -0.141344 0.044918 0.304982
 11 5.792767 -0.005304 0.000000 0.000000 -0.000000 0.191851
 12 6.662317 -0.001453 0.000000 0.000000 -0.000001 0.471000
 13 2.046985 -0.000002 0.000000 0.171427 -0.060226 -0.700092
 14 -3.112024 1.517254 4.341911 1.388612 -0.729319 1.368772
 15 4.827230 0.000000 0.000001 -0.198296 -0.532093 -0.726255
 16 11.139763 0.000000 0.000000 0.000000 -0.000000 -0.544933
 17 10.314597 0.000001 0.000000 -2.966115 -0.000000 -0.069778
 18 -2.869898 1.399663 -4.140396 -1.226423 1.030014 1.495337
 19 4.972048 0.000000 0.000001 0.692776 0.265778 -1.439478
 20 11.585355 0.000000 0.000000 0.000000 -0.000000 -0.532575
 21 10.127057 0.000000 0.000001 2.168806 0.289746 0.489380
time 6
  0 0.235347 -0.235347 -13.315337 -0.000000 0.270322 -1.570969
  1 -5.828303 0.273446 0.000000 -1.570795 -1.570796 0.000000
  2 -0.000005 0.000007 3.713255 -3.389865 -0.209941 1.567109
  3 18.045721 0.000000 0.000000 0.000000 -0.000000 -1.744711
  4 17.597597 0.000000 0.000000 -0.164903 0.191688 0.413694
  5 0.000005 -0.000003 -3.713255 0.311761 2.936853 5.354811
  6 18.045725 0.000000 0.000000 0.000000 -0.000000 -1.993292
  7 17.597597 0.000000 0.000000 0.131027 -0.129950 1.055680
  8 1.293670 0.684478 -0.000001 -0.000004 -0.000001 0.436884
  9 5.309685 -0.003834 0.000000 -0.032969 0.011361 0.331233
 10 4.826790 -0.004591 0.000000 -0.141196 0.045374 0.308113
 11 5.792767 -0.005304 0.000000 0.000000 -0.000000 0.191851
 12 6.662317 -0.001453 0.000000 0.000000 -0.000001 0.471000
 13 2.046985 -0.000002 0.000000 0.171513 -0.059775 -0.705755
 14 -3.112024 1.517254 4.341911 1.392159 -0.719395 1.366280
 15 4.827230 0.000000 0.000001 -0.200117 -0.536603 -0.715666
 16 11.139763 0.000000 0.000000 0.000000 -0.000000 -0.544933
 17 10.314597 0.000001 0.000000 -2.966115 -0.000000 -0.069778
 18 -2.869898 1.399663 -4.140396 -1.231696 1.023457 1.490831
 19 4.972048 0.000000 0.000001 0.691848 0.270041 -1.433352
 20 11.585355 0.000000 0.000000 0.000000 -0.000000 -0.532575
 21 10.127057 0.000000 0.000001 2.168806 0.289746 0.489380
time 7
  0 0.235347 -0.235347 -13.315337 -0.000000 0.270322 -1.570969
  1 -5.828303 0.273446 0.000000 -1.570795 -1.570796 0.000000
  2 -0.000005 0.000007 3.713255 -3.389865 -0.209941 1.567109
  3 18.045721 0.000000 0.000000 0.000000 -0.000000 -1.744711
  4 17.597597 0.000000 0.000000 -0.164903 0.191688 0.413694
  5 0.000005 -0.000003 -3.713255 0.311761 2.936853 5.354811
  6 18.045725 0.000000 0.000000 0.000000 -0.000000 -1.993292
  7 17.597597 0.000000 0.000000 0.131027 -0.129950 1.055680
  8 1.293670 0.684478 -0.000001 -0.000004 -0.000001 0.436884
  9 5.309685 -0.003834 0.000000 -0.032969 0.011361 0.331233
 10 4.826790 -0.004591 0.000000 -0.141032 0.045817 0.311310
 11 5.792767 -0.005304 0.000000 0.000000 -0.000000 0.191851
 12 6.662317 -0.001453 0.000000 0.000000 -0.000001 0.471000
 13 2.046985 -0.000002 0.000000 0.171729 -0.059303 -0.711733
 14 -3.112024 1.517254 4.341911 1.395802 -0.709279 1.364074
 15 4.827230 0.000000 0.000001 -0.201937 -0.541113 -0.704902
 16 11.139763 0.000000 0.000000 0.000000 -0.000000 -0.544933
 17 10.314597 0.000001 0.000000 -2.966115 -0.000000 -0.069778
 18 -2.869898 1.399663 -4.140396 -1.236969 1.016730 1.486325
 19 4.972048 0.000000 0.000001 0.690765 0.274385 -1.427094
 20 11.585355 0.000000 0.000000 0.000000 -0.000000 -0.532575
 21 10.127057 0.000000 0.000001 2.168806 0.289746 0.489380
time 8
  0 0.235347 -0.235347 -13.315337 -0.000000 0.270322 -1.570969
  1 -5.836116 0.273446 0.000000 -1.570795 -1.570796 0.000000
  2 -0.000005 0.000007 3.713255 -3.389865 -0.209941 1.567109
  3 18.045721 0.000000 0.000000 0.000000 -0.000000 -1.744711
  4 17.597597 0.000000 0.000000 -0.164903 0.191688 0.413694
  5 0.000005 -0.000003 -3.713255 0.311761 2.936853 5.354811
  6 18.045725 0.000000 0.000000 0.000000 -0.000000 -1.993292
  7 17.597597 0.000000 0.000000 0.131027 -0.129950 1.055680
  8 1.293670 0.684478 -0.000001 -0.000004 -0.000001 0.436884
  9 5.309685 -0.003834 0.000000 -0.032969 0.011361 0.331233
 10 4.826790 -0.004591 0.000000 -0.140917 0.046273 0.314485
 11 5.792767 -0.005304 0.000000 0.000000 -0.000000 0.191851
 12 6.662317 -0.001453 0.000000 0.000000 -0.000001 0.471000
 13 2.046985 -0.000002 0.000000 0.171901 -0.058830 -0.717711
 14 -3.112024 1.517254 4.341911 1.399446 -0.699278 1.361678
 15 4.827230 0.000000 0.000001 -0.203876 -0.545624 -0.694138
 16 11.139763 0.000000 0.000000 0.000000 -0.000000 -0.544933
 17 10.314597 0.000001 0.000000 -2.966115 -0.000000 -0.069778
 18 -2.869898 1.399663 -4.140396 -1.242050 1.010088 1.481915
 19 4.972048 0.000000 0.000001 0.689837 0.278729 -1.420836
 20 11.585355 0.000000 0.000000 0.000000 -0.000000 -0.532575
 21 10.127057 0.000000 0.000001 2.168806 0.289746 0.489380
time 9
  0 0.235347 -0.235347 -13.319243 -0.000000 0.270322 -1.570969
  1 -5.840022 0.273446 0.000000 -1.570795 -1.570796 0.000000
  2 -0.000005 0.000007 3.713255 -3.389865 -0.209941 1.567109
  3 18.045721 0.000000 0.000000 0.000000 -0.000000 -1.744711
  4 17.597597 0.000000 0.000000 -0.164903 0.191688 0.413694
  5 0.000005 -0.000003 -3.713255 0.311761 2.936853 5.354811
  6 18.045725 0.000000 0.000000 0.000000 -0.000000 -1.993292
  7 17.597597 0.000000 0.000000 0.131027 -0.129950 1.055680
  8 1.293670 0.684478 -0.000001 -0.000004 -0.000001 0.436884
  9 5.309685 -0.003834 0.000000 -0.032969 0.011361 0.331233
 10 4.826790 -0.004591 0.000000 -0.140753 0.046716 0.317527
 11 5.792767 -0.005304 0.000000 0.000000 -0.000000 0.191851
 12 6.662317 -0.001453 0.000000 0.000000 -0.000001 0.471000
 13 2.046985 -0.000002 0.000000 0.172030 -0.058312 -0.723734
 14 -3.112024 1.517254 4.341911 1.402705 -0.689623 1.359472
 15 4.827230 0.000000 0.000001 -0.205697 -0.549964 -0.683812
 16 11.139763 0.000000 0.000000 0.000000 -0.000000 -0.544933
 17 10.314597 0.000001 0.000000 -2.966115 -0.000000 -0.069778
 18 -2.869898 1.399663 -4.140396 -1.246844 1.003672 1.477984
 19 4.972048 0.000000 0.000001 0.688831 0.282912 -1.414974
 20 11.585355 0.000000 0.000000 0.000000 -0.000000 -0.532575
 21 10.127057 0.000000 0.000001 2.168806 0.289746 0.489380
time 10
  0 0.235347 -0.235347 -13.319243 -0.000000 0.270322 -1.570969
  1 -5.840022 0.281259 0.000000 -1.570795 -1.570796 0.000000
  2 -0.000005 0.000007 3.713255 -3.389865 -0.209941 1.567109
  3 18.045721 0.000000 0.000000 0.000000 -0.000000 -1.744711
  4 17.597597 0.000000 0.000000 -0.164903 0.191688 0.413694
  5 0.000005 -0.000003 -3.713255 0.311761 2.936853 5.354811
  6 18.045725 0.000000 0.000000 0.000000 -0.000000 -1.993292
  7 17.597597 0.000000 0.000000 0.131027 -0.129950 1.055680
  8 1.293670 0.684478 -0.000001 -0.000004 -0.000001 0.436884
  9 5.309685 -0.003834 0.000000 -0.032969 0.011361 0.331233
 10 4.826790 -0.004591 0.000000 -0.140638 0.047099 0.320350
 11 5.792767 -0.005304 0.000000 0.000000 -0.000000 0.191851
 12 6.662317 -0.001453 0.000000 0.000000 -0.000001 0.471000
 13 2.046985 -0.000002 0.000000 0.172246 -0.057794 -0.729623
 14 -3.112024 1.517254 4.341911 1.405773 -0.680661 1.357651
 15 4.827230 0.000000 0.000001 -0.207459 -0.553878 -0.674273
 16 11.139763 0.000000 0.000000 0.000000 -0.000000 -0.544933
 17 10.314597 0.000001 0.000000 -2.966115 -0.000000 -0.069778
 18 -2.869898 1.399663 -4.140396 -1.251254 0.997708 1.474245
 19 4.972048 0.000000 0.000001 0.687903 0.286773 -1.409375
 20 11.585355 0.000000 0.000000 0.000000 -0.000000 -0.532575
 21 10.127057 0.000000 0.000001 2.168806 0.289746 0.489380
time 11
  0 0.235347 -0.235347 -13.319243 -0.000000 0.270322 -1.570969
  1 -5.847835 0.281259 0.000000 -1.570795 -1.570796 0.000000
  2 -0.000005 0.000007 3.713255 -3.389865 -0.209941 1.567109
  3 18.045721 0.000000 0.000000 0.000000 -0.000000 -1.744711
  4 17.597597 0.000000 0.000000 -0.164903 0.191688 0.413694
  5 0.000005 -0.000003 -3.713255 0.311761 2.936853 5.354811
  6 18.045725 0.000000 0.000000 0.000000 -0.000000 -1.993292
  7 17.597597 0.000000 0.000000 0.131027 -0.129950 1.055680
  8 1.293670 0.684478 -0.000001 -0.000004 -0.000001 0.436884
  9 5.309685 -0.003834 0.000000 -0.032969 0.011361 0.331233
 10 4.826790 -0.004591 0.000000 -0.140523 0.047471 0.322863
 11 5.792767 -0.005304 0.000000 0.000000 -0.000000 0.191851
 12 6.662317 -0.001453 0.000000 0.000000 -0.000001 0.471000
 13 2.046985 -0.000002 0.000000 0.172418 -0.057254 -0.735241
 14 -3.112024 1.517254 4.341911 1.408554 -0.672660 1.355829
 15 4.827230 0.000000 0.000001 -0.209045 -0.557453 -0.665697
 16 11.139763 0.000000 0.000000 0.000000 -0.000000 -0.544933
 17 10.314597 0.000001 0.000000 -2.966115 -0.000000 -0.069778
 18 -2.869898 1.399663 -4.140396 -1.255089 0.992395 1.471082
 19 4.972048 0.000000 0.000001 0.687052 0.290232 -1.404368
 20 11.585355 0.000000 0.000000 0.000000 -0.000000 -0.532575
 21 10.127057 0.000000 0.000001 2.168806 0.289746 0.489380
time 12
  0 0.235347 -0.235347 -13.319243 -0.000000 0.270322 -1.570969
  1 -5.847835 0.281259 0.000000 -1.570795 -1.570796 0.000000
  2 -0.000005 0.000007 3.713255 -3.389865 -0.209941 1.567109
  3 18.045721 0.000000 0.000000 0.000000 -0.000000 -1.744711
  4 17.597597 0.000000 0.000000 -0.164903 0.191688 0.413694
  5 0.000005 -0.000003 -3.713255 0.311761 2.936853 5.354811
  6 18.045725 0.000000 0.000000 0.000000 -0.000000 -1.993292
  7 17.597597 0.000000 0.000000 0.131027 -0.129950 1.055680
  8 1.293670 0.684478 -0.000001 -0.000004 -0.000001 0.436884
  9 5.309685 -0.003834 0.000000 -0.032969 0.011361 0.331233
 10 4.826790 -0.004591 0.000000 -0.140408 0.047771 0.324980
 11 5.792767 -0.005304 0.000000 0.000000 -0.000000 0.191851
 12 6.662317 -0.001453 0.000000 0.000000 -0.000001 0.471000
 13 2.046985 -0.000002 0.000000 0.172547 -0.056714 -0.740500
 14 -3.112024 1.517254 4.341911 1.410855 -0.665967 1.354583
 15 4.827230 0.000000 0.000001 -0.210337 -0.560346 -0.658346
 16 11.139763 0.000000 0.000000 0.000000 -0.000000 -0.544933
 17 10.314597 0.000001 0.000000 -2.966115 -0.000000 -0.069778
 18 -2.869898 1.399663 -4.140396 -1.258253 0.987901 1.468301
 19 4.972048 0.000000 0.000001 0.686433 0.293128 -1.400218
 20 11.585355 0.000000 0.000000 0.000000 -0.000000 -0.532575
 21 10.127057 0.000000 0.000001 2.168806 0.289746 0.489380
time 13
  0 0.235347 -0.235347 -13.319243 -0.000000 0.270322 -1.570969
  1 -5.847835 0.285165 0.000000 -1.570795 -1.570796 0.000000
  2 -0.000005 0.000007 3.713255 -3.389865 -0.209941 1.567109
  3 18.045721 0.000000 0.000000 0.000000 -0.000000 -1.744711
  4 17.597597 0.000000 0.000000 -0.164903 0.191688 0.413694
  5 0.000005 -0.000003 -3.713255 0.311761 2.936853 5.354811
  6 18.045725 0.000000 0.000000 0.000000 -0.000000 -1.993292
  7 17.597597 0.000000 0.000000 0.131027 -0.129950 1.055680
  8 1.293670 0.684478 -0.000001 -0.000004 -0.000001 0.436884
  9 5.309685 -0.003834 0.000000 -0.032969 0.011361 0.331233
 10 4.826790 -0.004591 0.000000 -0.140326 0.047986 0.326611
 11 5.792767 -0.005304 0.000000 0.000000 -0.000000 0.191851
 12 6.662317 -0.001453 0.000000 0.000000 -0.000001 0.471000
 13 2.046985 -0.000002 0.000000 0.172719 -0.056173 -0.745264
 14 -3.112024 1.517254 4.341911 1.412389 -0.660775 1.353432
 15 4.827230 0.000000 0.000001 -0.211276 -0.562729 -0.652833
 16 11.139763 0.000000 0.000000 0.000000 -0.000000 -0.544933
 17 10.314597 0.000001 0.000000 -2.966115 -0.000000 -0.069778
 18 -2.869898 1.399663 -4.140396 -1.260553 0.984424 1.466384
 19 4.972048 0.000000 0.000001 0.685969 0.295380 -1.396991
 20 11.585355 0.000000 0.000000 0.000000 -0.000000 -0.532575
 21 10.127057 0.000000 0.000001 2.168806 0.289746 0.489380
time 14
  0 0.235347 -0.235347 -13.319243 -0.000000 0.270322 -1.570969
  1 -5.847835 0.285165 0.000000 -1.570795 -1.570796 0.000000
  2 -0.000005 0.000007 3.713255 -3.389865 -0.209941 1.567109
  3 18.045721 0.000000 0.000000 0.000000 -0.000000 -1.744711
  4 17.597597 0.000000 0.000000 -0.164903 0.191688 0.413694
  5 0.000005 -0.000003 -3.713255 0.311761 2.936853 5.354811
  6 18.045725 0.000000 0.000000 0.000000 -0.000000 -1.993292
  7 17.597597 0.000000 0.000000 0.131027 -0.129950 1.055680
  8 1.293670 0.684478 -0.000001 -0.000004 -0.000001 0.436884
  9 5.309685 -0.003834 0.000000 -0.032969 0.011361 0.331233
 10 4.826790 -0.004591 0.000000 -0.140293 0.048130 0.327670
 11 5.792767 -0.005304 0.000000 0.000000 -0.000000 0.191851
 12 6.662317 -0.001453 0.000000 0.000000 -0.000001 0.471000
 13 2.046985 -0.000002 0.000000 0.172935 -0.055633 -0.749444
 14 -3.112024 1.517254 4.341911 1.413635 -0.657467 1.352761
 15 4.827230 0.000000 0.000001 -0.211981 -0.564090 -0.649245
 16 11.139763 0.000000 0.000000 0.000000 -0.000000 -0.544933
 17 10.314597 0.000001 0.000000 -2.966115 -0.000000 -0.069778
 18 -2.869898 1.399663 -4.140396 -1.262087 0.982248 1.465137
 19 4.972048 0.000000 0.000001 0.685582 0.296828 -1.394948
 20 11.585355 0.000000 0.000000 0.000000 -0.000000 -0.532575
 21 10.127057 0.000000 0.000001 2.168806 0.289746 0.489380
time 15
  0 0.235347 -0.235347 -13.319243 -0.000000 0.270322 -1.570969
  1 -5.847835 0.285165 0.000000 -1.570795 -1.570796 0.000000
  2 -0.000005 0.000007 3.713255 -3.389865 -0.209941 1.567109
  3 18.045721 0.000000 0.000000 0.000000 -0.000000 -1.744711
  4 17.597597 0.000000 0.000000 -0.164903 0.191688 0.413694
  5 0.000005 -0.000003 -3.713255 0.311761 2.936853 5.354811
  6 18.045725 0.000000 0.000000 0.000000 -0.000000 -1.993292
  7 17.597597 0.000000 0.000000 0.131027 -0.129950 1.055680
  8 1.293670 0.684478 -0.000001 -0.000004 -0.000001 0.436884
  9 5.309685 -0.003834 0.000000 -0.032969 0.011361 0.331233
 10 4.826790 -0.004591 0.000000 -0.140260 0.048190 0.328022
 11 5.792767 -0.005304 0.000000 0.000000 -0.000000 0.191851
 12 6.662317 -0.001453 0.000000 0.000000 -0.000001 0.471000
 13 2.046985 -0.000002 0.000000 0.173064 -0.055092 -0.752905
 14 -3.112024 1.517254 4.341911 1.413923 -0.656313 1.352473
 15 4.827230 0.000000 0.000001 -0.212216 -0.564601 -0.647932
 16 11.139763 0.000000 0.000000 0.000000 -0.000000 -0.544933
 17 10.314597 0.000001 0.000000 -2.966115 -0.000000 -0.069778
 18 -2.869898 1.399663 -4.140396 -1.262663 0.981428 1.464562
 19 4.972048 0.000000 0.000001 0.685505 0.297311 -1.394290
 20 11.585355 0.000000 0.000000 0.000000 -0.000000 -0.532575
 21 10.127057 0.000000 0.000001 2.168806 0.289746 0.489380
time 16
  0 0.235347 -0.235347 -13.319243 -0.000000 0.270322 -1.570969
  1 -5.847835 0.285165 0.000000 -1.570795 -1.570796 0.000000
  2 -0.000005 0.000007 3.713255 -3.389865 -0.209941 1.567109
  3 18.045721 0.000000 0.000000 0.000000 -0.000000 -1.744711
  4 17.597597 0.000000 0.000000 -0.164903 0.191688 0.413694
  5 0.000005 -0.000003 -3.713255 0.311761 2.936853 5.354811
  6 18.045725 0.000000 0.000000 0.000000 -0.000000 -1.993292
  7 17.597597 0.000000 0.000000 0.131027 -0.129950 1.055680
  8 1.293670 0.684478 -0.000001 -0.000004 -0.000001 0.436884
  9 5.309685 -0.003834 0.000000 -0.032969 0.011361 0.331233
 10 4.826790 -0.004591 0.000000 -0.140293 0.048130 0.327670
 11 5.792767 -0.005304 0.000000 0.000000 -0.000000 0.191851
 12 6.662317 -0.001453 0.000000 0.000000 -0.000001 0.471000
 13 2.046985 -0.000002 0.000000 0.173236 -0.054575 -0.755512
 14 -3.112024 1.517254 4.341911 1.413635 -0.657467 1.352761
 15 4.827230 0.000000 0.000001 -0.211981 -0.564090 -0.649245
 16 11.139763 0.000000 0.000000 0.000000 -0.000000 -0.544933
 17 10.314597 0.000001 0.000000 -2.966115 -0.000000 -0.069778
 18 -2.869898 1.399663 -4.140396 -1.262087 0.982248 1.465137
 19 4.972048 0.000000 0.000001 0.685582 0.296828 -1.394948
 20 11.585355 0.000000 0.000000 0.000000 -0.000000 -0.532575
 21 10.127057 0.000000 0.000001 2.168806 0.289746 0.489380
time 17
  0 0.235347 -0.235347 -13.319243 -0.000000 0.270322 -1.570969
  1 -5.847835 0.285165 0.000000 -1.570795 -1.570796 0.000000
  2 -0.000005 0.000007 3.713255 -3.389865 -0.209941 1.567109
  3 18.045721 0.000000 0.000000 0.000000 -0.000000 -1.744711
  4 17.597597 0.000000 0.000000 -0.164903 0.191688 0.413694
  5 0.000005 -0.000003 -3.713255 0.311761 2.936853 5.354811
  6 18.045725 0.000000 0.000000 0.000000 -0.000000 -1.993292
  7 17.597597 0.000000 0.000000 0.131027 -0.129950 1.055680
  8 1.293670 0.684478 -0.000001 -0.000004 -0.000001 0.436884
  9 5.309685 -0.003834 0.000000 -0.032969 0.011361 0.331233
 10 4.826790 -0.004591 0.000000 -0.140326 0.047986 0.326611
 11 5.792767 -0.005304 0.000000 0.000000 -0.000000 0.191851
 12 6.662317 -0.001453 0.000000 0.000000 -0.000001 0.471000
 13 2.046985 -0.000002 0.000000 0.173452 -0.054079 -0.757220
 14 -3.112024 1.517254 4.341911 1.412389 -0.660775 1.353432
 15 4.827230 0.000000 0.000001 -0.211276 -0.562729 -0.652833
 16 11.139763 0.000000 0.000000 0.000000 -0.000000 -0.544933
 17 10.314597 0.000001 0.000000 -2.966115 -0.000000 -0.069778
 18 -2.869898 1.399663 -4.140396 -1.260553 0.984424 1.466384
 19 4.972048 0.000000 0.000001 0.685969 0.295380 -1.396991
 20 11.585355 0.000000 0.000000 0.000000 -0.000000 -0.532575
 21 10.127057 0.000000 0.000001 2.168806 0.289746 0.489380
time 18
  0 0.235347 -0.235347 -13.319243 -0.000000 0.270322 -1.570969
  1 -5.847835 0.281259 0.000000 -1.570795 -1.570796 0.000000
  2 -0.000005 0.000007 3.713255 -3.389865 -0.209941 1.567109
  3 18.045721 0.000000 0.000000 0.000000 -0.000000 -1.744711
  4 17.597597 0.000000 0.000000 -0.164903 0.191688 0.413694
  5 0.000005 -0.000003 -3.713255 0.311761 2.936853 5.354811
  6 18.045725 0.000000 0.000000 0.000000 -0.000000 -1.993292
  7 17.597597 0.000000 0.000000 0.131027 -0.129950 1.055680
  8 1.293670 0.684478 -0.000001 -0.000004 -0.000001 0.436884
  9 5.309685 -0.003834 0.000000 -0.032969 0.011361 0.331233
 10 4.826790 -0.004591 0.000000 -0.140408 0.047771 0.324980
 11 5.792767 -0.005304 0.000000 0.000000 -0.000000 0.191851
 12 6.662317 -0.001453 0.000000 0.000000 -0.000001 0.471000
 13 2.046985 -0.000002 0.000000 0.173538 -0.053652 -0.758029
 14 -3.112024 1.517254 4.341911 1.410855 -0.665967 1.354583
 15 4.827230 0.000000 0.000001 -0.210337 -0.560346 -0.658346
 16 11.139763 0.000000 0.000000 0.000000 -0.000000 -0.544933
 17 10.314597 0.000001 0.000000 -2.966115 -0.000000 -0.069778
 18 -2.869898 1.399663 -4.140396 -1.258253 0.987901 1.468301
 19 4.972048 0.000000 0.000001 0.686433 0.293128 -1.400218
 20 11.585355 0.000000 0.000000 0.000000 -0.000000 -0.532575
 21 10.127057 0.000000 0.000001 2.168806 0.289746 0.489380
time 19
  0 0.235347 -0.235347 -13.319243 -0.000000 0.270322 -1.570969
  1 -5.847835 0.281259 0.000000 -1.570795 -1.570796 0.000000
  2 -0.000005 0.000007 3.713255 -3.389865 -0.209941 1.567109
  3 18.045721 0.000000 0.000000 0.000000 -0.000000 -1.744711
  4 17.597597 0.000000 0.000000 -0.164903 0.191688 0.413694
  5 0.000005 -0.000003 -3.713255 0.311761 2.936853 5.354811
  6 18.045725 0.000000 0.000000 0.000000 -0.000000 -1.993292
  7 17.597597 0.000000 0.000000 0.131027 -0.129950 1.055680
  8 1.293670 0.684478 -0.000001 -0.000004 -0.000001 0.436884
  9 5.309685 -0.003834 0.000000 -0.032969 0.011361 0.331233
 10 4.826790 -0.004591 0.000000 -0.140523 0.047471 0.322863
 11 5.792767 -0.005304 0.000000 0.000000 -0.000000 0.191851
 12 6.662317 -0.001453 0.000000 0.000000 -0.000001 0.471000
 13 2.046985 -0.000002 0.000000 0.173624 -0.053291 -0.757940
 14 -3.112024 1.517254 4.341911 1.408554 -0.672660 1.355829
 15 4.827230 0.000000 0.000001 -0.209045 -0.557453 -0.665697
 16 11.139763 0.000000 0.000000 0.000000 -0.000000 -0.544933
 17 10.314597 0.000001 0.000000 -2.966115 -0.000000 -0.069778
 18 -2.869898 1.399663 -4.140396 -1.255089 0.992395 1.471082
 19 4.972048 0.000000 0.000001 0.687052 0.290232 -1.404368
 20 11.585355 0.000000 0.000000 0.000000 -0.000000 -0.532575
 21 10.127057 0.000000 0.000001 2.168806 0.289746 0.489380
time 20
  0 0.235347 -0.235347 -13.319243 -0.000000 0.270322 -1.570969
  1 -5.840022 0.281259 0.000000 -1.570795 -1.570796 0.000000
  2 -0.000005 0.000007 3.713255 -3.389865 -0.209941 1.567109
  3 18.045721 0.000000 0.000000 0.000000 -0.000000 -1.744711
  4 17.597597 0.000000 0.000000 -0.164903 0.191688 0.413694
  5 0.000005 -0.000003 -3.713255 0.311761 2.936853 5.354811
  6 18.045725 0.000000 0.000000 0.000000 -0.000000 -1.993292
  7 17.597597 0.000000 0.000000 0.131027 -0.129950 1.055680
  8 1.293670 0.684478 -0.000001 -0.000004 -0.000001 0.436884
  9 5.309685 -0.003834 0.000000 -0.032969 0.011361 0.331233
 10 4.826790 -0.004591 0.000000 -0.140638 0.047099 0.320350
 11 5.792767 -0.005304 0.000000 0.000000 -0.000000 0.191851
 12 6.662317 -0.001453 0.000000 0.000000 -0.000001 0.471000
 13 2.046985 -0.000002 0.000000 0.173710 -0.053044 -0.756816
 14 -3.112024 1.517254 4.341911 1.405773 -0.680661 1.357651
 15 4.827230 0.000000 0.000001 -0.207459 -0.553878 -0.674273
 16 11.139763 0.000000 0.000000 0.000000 -0.000000 -0.544933
 17 10.314597 0.000001 0.000000 -2.966115 -0.000000 -0.069778
 18 -2.869898 1.399663 -4.140396 -1.251254 0.997708 1.474245
 19 4.972048 0.000000 0.000001 0.687903 0.286773 -1.409375
 20 11.585355 0.000000 0.000000 0.000000 -0.000000 -0.532575
 21 10.127057 0.000000 0.000001 2.168806 0.289746 0.489380
time 21
  0 0.235347 -0.235347 -13.319243 -0.000000 0.270322 -1.570969
  1 -5.840022 0.273446 0.000000 -1.570795 -1.570796 0.000000
  2 -0.000005 0.000007 3.713255 -3.389865 -0.209941 1.567109
  3 18.045721 0.000000 0.000000 0.000000 -0.000000 -1.744711
  4 17.597597 0.000000 0.000000 -0.164903 0.191688 0.413694
  5 0.000005 -0.000003 -3.713255 0.311761 2.936853 5.354811
  6 18.045725 0.000000 0.000000 0.000000 -0.000000 -1.993292
  7 17.597597 0.000000 0.000000 0.131027 -0.129950 1.055680
  8 1.293670 0.684478 -0.000001 -0.000004 -0.000001 0.436884
  9 5.309685 -0.003834 0.000000 -0.032969 0.011361 0.331233
 10 4.826790 -0.004591 0.000000 -0.140753 0.046716 0.317527
 11 5.792767 -0.005304 0.000000 0.000000 -0.000000 0.191851
 12 6.662317 -0.001453 0.000000 0.000000 -0.000001 0.471000
 13 2.046985 -0.000002 0.000000 0.173753 -0.052954 -0.754479
 14 -3.112024 1.517254 4.341911 1.402705 -0.689623 1.359472
 15 4.827230 0.000000 0.000001 -0.205697 -0.549964 -0.683812
 16 11.139763 0.000000 0.000000 0.000000 -0.000000 -0.544933
 17 10.314597 0.000001 0.000000 -2.966115 -0.000000 -0.069778
 18 -2.869898 1.399663 -4.140396 -1.246844 1.003672 1.477984
 19 4.972048 0.000000 0.000001 0.688831 0.282912 -1.414974
 20 11.585355 0.000000 0.000000 0.000000 -0.000000 -0.532575
 21 10.127057 0.000000 0.000001 2.168806 0.289746 0.489380
time 22
  0 0.235347 -0.235347 -13.315337 -0.000000 0.270322 -1.570969
  1 -5.836116 0.273446 0.000000 -1.570795 -1.570796 0.000000
  2 -0.000005 0.000007 3.713255 -3.389865 -0.209941 1.567109
  3 18.045721 0.000000 0.000000 0.000000 -0.000000 -1.744711
  4 17.597597 0.000000 0.000000 -0.164903 0.191688 0.413694
  5 0.000005 -0.000003 -3.713255 0.311761 2.936853 5.354811
  6 18.045725 0.000000 0.000000 0.000000 -0.000000 -1.993292
  7 17.597597 0.000000 0.000000 0.131027 -0.129950 1.055680
  8 1.293670 0.684478 -0.000001 -0.000004 -0.000001 0.436884
  9 5.309685 -0.003834 0.000000 -0.032969 0.011361 0.331233
 10 4.826790 -0.004591 0.000000 -0.140917 0.046273 0.314485
 11 5.792767 -0.005304 0.000000 0.000000 -0.000000 0.191851
 12 6.662317 -0.001453 0.000000 0.000000 -0.000001 0.471000
 13 2.046985 -0.000002 0.000000 0.173710 -0.053089 -0.750658
 14 -3.112024 1.517254 4.341911 1.399446 -0.699278 1.361678
 15 4.827230 0.000000 0.000001 -0.203876 -0.545624 -0.694138
 16 11.139763 0.000000 0.000000 0.000000 -0.000000 -0.544933
 17 10.314597 0.000001 0.000000 -2.966115 -0.000000 -0.069778
 18 -2.869898 1.399663 -4.140396 -1.242050 1.010088 1.481915
 19 4.972048 0.000000 0.000001 0.689837 0.278729 -1.420836
 20 11.585355 0.000000 0.000000 0.000000 -0.000000 -0.532575
 21 10.127057 0.000000 0.000001 2.168806 0.289746 0.489380
time 23
  0 0.235347 -0.235347 -13.315337 -0.000000 0.270322 -1.570969
  1 -5.828303 0.273446 0.000000 -1.570795 -1.570796 0.000000
  2 -0.000005 0.000007 3.713255 -3.389865 -0.209941 1.567109
  3 18.045721 0.000000 0.000000 0.000000 -0.000000 -1.744711
  4 17.597597 0.000000 0.000000 -0.164903 0.191688 0.413694
  5 0.000005 -0.000003 -3.713255 0.311761 2.936853 5.354811
  6 18.045725 0.000000 0.000000 0.000000 -0.000000 -1.993292
  7 17.597597 0.000000 0.000000 0.131027 -0.129950 1.055680
  8 1.293670 0.684478 -0.000001 -0.000004 -0.000001 0.436884
  9 5.309685 -0.003834 0.000000 -0.032969 0.011361 0.331233
 10 4.826790 -0.004591 0.000000 -0.141032 0.045817 0.311310
 11 5.792767 -0.005304 0.000000 0.000000 -0.000000 0.191851
 12 6.662317 -0.001453 0.000000 0.000000 -0.000001 0.471000
 13 2.046985 -0.000002 0.000000 0.173581 -0.053539 -0.744905
 14 -3.112024 1.517254 4.341911 1.395802 -0.709279 1.364074
 15 4.827230 0.000000 0.000001 -0.201937 -0.541113 -0.704902
 16 11.139763 0.000000 0.000000 0.000000 -0.000000 -0.544933
 17 10.314597 0.000001 0.000000 -2.966115 -0.000000 -0.069778
 18 -2.869898 1.399663 -4.140396 -1.236969 1.016730 1.486325
 19 4.972048 0.000000 0.000001 0.690765 0.274385 -1.427094
 20 11.585355 0.000000 0.000000 0.000000 -0.000000 -0.532575
 21 10.127057 0.000000 0.000001 2.168806 0.289746 0.489380
time 24
  0 0.235347 -0.235347 -13.315337 -0.000000 0.270322 -1.570969
  1 -5.828303 0.273446 0.000000 -1.570795 -1.570796 0.000000
  2 -0.000005 0.000007 3.713255 -3.389865 -0.209941 1.567109
  3 18.045721 0.000000 0.000000 0.000000 -0.000000 -1.744711
  4 17.597597 0.000000 0.000000 -0.164903 0.191688 0.413694
  5 0.000005 -0.000003 -3.713255 0.311761 2.936853 5.354811
  6 18.045725 0.000000 0.000000 0.000000 -0.000000 -1.993292
  7 17.597597 0.000000 0.000000 0.131027 -0.129950 1.055680
  8 1.293670 0.684478 -0.000001 -0.000004 -0.000001 0.436884
  9 5.309685 -0.003834 0.000000 -0.032969 0.011361 0.331233
 10 4.826790 -0.004591 0.000000 -0.141196 0.045374 0.308113
 11 5.792767 -0.005304 0.000000 0.000000 -0.000000 0.191851
 12 6.662317 -0.001453 0.000000 0.000000 -0.000001 0.471000
 13 2.046985 -0.000002 0.000000 0.173366 -0.054372 -0.736814
 14 -3.112024 1.517254 4.341911 1.392159 -0.719395 1.366280
 15 4.827230 0.000000 0.000001 -0.200117 -0.536603 -0.715666
 16 11.139763 0.000000 0.000000 0.000000 -0.000000 -0.544933
 17 10.314597 0.000001 0.000000 -2.966115 -0.000000 -0.069778
 18 -2.869898 1.399663 -4.140396 -1.231696 1.023457 1.490831
 19 4.972048 0.000000 0.000001 0.691848 0.270041 -1.433352
 20 11.585355 0.000000 0.000000 0.000000 -0.000000 -0.532575
 21 10.127057 0.000000 0.000001 2.168806 0.289746 0.489380
time 25
  0 0.235347 -0.235347 -13.315337 -0.000000 0.270322 -1.570969
  1 -5.824397 0.273446 0.000000 -1.570795 -1.570796 0.000000
  2 -0.000005 0.000007 3.713255 -3.389865 -0.209941 1.567109
  3 18.045721 0.000000 0.000000 0.000000 -0.000000 -1.744711
  4 17.597597 0.000000 0.000000 -0.164903 0.191688 0.413694
  5 0.000005 -0.000003 -3.713255 0.311761 2.936853 5.354811
  6 18.045725 0.000000 0.000000 0.000000 -0.000000 -1.993292
  7 17.597597 0.000000 0.000000 0.131027 -0.129950 1.055680
  8 1.293670 0.684478 -0.000001 -0.000004 -0.000001 0.436884
  9 5.309685 -0.003834 0.000000 -0.032969 0.011361 0.331233
 10 4.826790 -0.004591 0.000000 -0.141344 0.044918 0.304982
 11 5.792767 -0.005304 0.000000 0.000000 -0.000000 0.191851
 12 6.662317 -0.001453 0.000000 0.000000 -0.000001 0.471000
 13 2.046985 -0.000002 0.000000 0.172978 -0.055588 -0.726791
 14 -3.112024 1.517254 4.341911 1.388612 -0.729319 1.368772
 15 4.827230 0.000000 0.000001 -0.198296 -0.532093 -0.726255
 16 11.139763 0.000000 0.000000 0.000000 -0.000000 -0.544933
 17 10.314597 0.000001 0.000000 -2.966115 -0.000000 -0.069778
 18 -2.869898 1.399663 -4.140396 -1.226423 1.030014 1.495337
 19 4.972048 0.000000 0.000001 0.692776 0.265778 -1.439478
 20 11.585355 0.000000 0.000000 0.000000 -0.000000 -0.532575
 21 10.127057 0.000000 0.000001 2.168806 0.289746 0.489380
time 26
  0 0.235347 -0.235347 -13.311431 -0.000000 0.270322 -1.570969
  1 -5.816584 0.265633 0.000000 -1.570795 -1.570796 0.000000
  2 -0.000005 0.000007 3.713255 -3.389865 -0.209941 1.567109
  3 18.045721 0.000000 0.000000 0.000000 -0.000000 -1.744711
  4 17.597597 0.000000 0.000000 -0.164903 0.191688 0.413694
  5 0.000005 -0.000003 -3.713255 0.311761 2.936853 5.354811
  6 18.045725 0.000000 0.000000 0.000000 -0.000000 -1.993292
  7 17.597597 0.000000 0.000000 0.131027 -0.129950 1.055680
  8 1.293670 0.684478 -0.000001 -0.000004 -0.000001 0.436884
  9 5.309685 -0.003834 0.000000 -0.032969 0.011361 0.331233
 10 4.826790 -0.004591 0.000000 -0.141459 0.044511 0.302005
 11 5.792767 -0.005304 0.000000 0.000000 -0.000000 0.191851
 12 6.662317 -0.001453 0.000000 0.000000 -0.000001 0.471000
 13 2.046985 -0.000002 0.000000 0.172461 -0.057051 -0.715329
 14 -3.112024 1.517254 4.341911 1.385065 -0.738743 1.371073
 15 4.827230 0.000000 0.000001 -0.196534 -0.527752 -0.736406
 16 11.139763 0.000000 0.000000 0.000000 -0.000000 -0.544933
 17 10.314597 0.000001 0.000000 -2.966115 -0.000000 -0.069778
 18 -2.869898 1.399663 -4.140396 -1.221150 1.036289 1.499748
 19 4.972048 0.000000 0.000001 0.693859 0.261756 -1.445407
 20 11.585355 0.000000 0.000000 0.000000 -0.000000 -0.532575
 21 10.127057 0.000000 0.000001 2.168806 0.289746 0.489380
time 27
  0 0.235347 -0.235347 -13.311431 -0.000000 0.270322 -1.570969
  1 -5.816584 0.265633 0.000000 -1.570795 -1.570796 0.000000
  2 -0.000005 0.000007 3.713255 -3.389865 -0.209941 1.567109
  3 18.045721 0.000000 0.000000 0.000000 -0.000000 -1.744711
  4 17.597597 0.000000 0.000000 -0.164903 0.191688 0.413694
  5 0.000005 -0.000003 -3.713255 0.311761 2.936853 5.354811
  6 18.045725 0.000000 0.000000 0.000000 -0.000000 -1.993292
  7 17.597597 0.000000 0.000000 0.131027 -0.129950 1.055680
  8 1.293670 0.684478 -0.000001 -0.000004 -0.000001 0.436884
  9 5.309685 -0.003834 0.000000 -0.032969 0.011361 0.331233
 10 4.826790 -0.004591 0.000000 -0.141574 0.044103 0.299271
 11 5.792767 -0.005304 0.000000 0.000000 -0.000000 0.191851
 12 6.662317 -0.001453 0.000000 0.000000 -0.000001 0.471000
 13 2.046985 -0.000002 0.000000 0.171944 -0.058605 -0.703688
 14 -3.112024 1.517254 4.341911 1.381709 -0.747359 1.373278
 15 4.827230 0.000000 0.000001 -0.195007 -0.523923 -0.745595
 16 11.139763 0.000000 0.000000 0.000000 -0.000000 -0.544933
 17 10.314597 0.000001 0.000000 -2.966115 -0.000000 -0.069778
 18 -2.869898 1.399663 -4.140396 -1.216452 1.041970 1.503774
 19 4.972048 0.000000 0.000001 0.694710 0.257975 -1.450743
 20 11.585355 0.000000 0.000000 0.000000 -0.000000 -0.532575
 21 10.127057 0.000000 0.000001 2.168806 0.289746 0.489380
time 28
  0 0.235347 -0.235347 -13.311431 -0.000000 0.270322 -1.570969
  1 -5.808771 0.265633 0.000000 -1.570795 -1.570796 0.000000
  2 -0.000005 0.000007 3.713255 -3.389865 -0.209941 1.567109
  3 18.045721 0.000000 0.000000 0.000000 -0.000000 -1.744711
  4 17.597597 0.000000 0.000000 -0.164903 0.191688 0.413694
  5 0.000005 -0.000003 -3.713255 0.311761 2.936853 5.354811
  6 18.045725 0.000000 0.000000 0.000000 -0.000000 -1.993292
  7 17.597597 0.000000 0.000000 0.131027 -0.129950 1.055680
  8 1.293670 0.684478 -0.000001 -0.000004 -0.000001 0.436884
  9 5.309685 -0.003834 0.000000 -0.032969 0.011361 0.331233
 10 4.826790 -0.004591 0.000000 -0.141705 0.043780 0.296868
 11 5.792767 -0.005304 0.000000 0.000000 -0.000000 0.191851
 12 6.662317 -0.001453 0.000000 0.000000 -0.000001 0.471000
 13 2.046985 -0.000002 0.000000 0.171427 -0.060046 -0.692855
 14 -3.112024 1.517254 4.341911 1.378833 -0.754937 1.375388
 15 4.827230 0.000000 0.000001 -0.193656 -0.520434 -0.753646
 16 11.139763 0.000000 0.000000 0.000000 -0.000000 -0.544933
 17 10.314597 0.000001 0.000000 -2.966115 -0.000000 -0.069778
 18 -2.869898 1.399663 -4.140396 -1.212137 1.047001 1.507513
 19 4.972048 0.000000 0.000001 0.695561 0.254677 -1.455420
 20 11.585355 0.000000 0.000000 0.000000 -0.000000 -0.532575
 21 10.127057 0.000000 0.000001 2.168806 0.289746 0.489380
time 29
  0 0.235347 -0.235347 -13.311431 -0.000000 0.270322 -1.570969
  1 -5.808771 0.261727 0.000000 -1.570795 -1.570796 0.000000
  2 -0.000005 0.000007 3.713255 -3.389865 -0.209941 1.567109
  3 18.045721 0.000000 0.000000 0.000000 -0.000000 -1.744711
  4 17.597597 0.000000 0.000000 -0.164903 0.191688 0.413694
  5 0.000005 -0.000003 -3.713255 0.311761 2.936853 5.354811
  6 18.045725 0.000000 0.000000 0.000000 -0.000000 -1.993292
  7 17.597597 0.000000 0.000000 0.131027 -0.129950 1.055680
  8 1.293670 0.684478 -0.000001 -0.000004 -0.000001 0.436884
  9 5.309685 -0.003834 0.000000 -0.032969 0.011361 0.331233
 10 4.826790 -0.004591 0.000000 -0.141771 0.043480 0.294906
 11 5.792767 -0.005304 0.000000 0.000000 -0.000000 0.191851
 12 6.662317 -0.001453 0.000000 0.000000 -0.000001 0.471000
 13 2.046985 -0.000002 0.000000 0.171039 -0.061216 -0.684180
 14 -3.112024 1.517254 4.341911 1.376340 -0.761129 1.377114
 15 4.827230 0.000000 0.000001 -0.192540 -0.517540 -0.760209
 16 11.139763 0.000000 0.000000 0.000000 -0.000000 -0.544933
 17 10.314597 0.000001 0.000000 -2.966115 -0.000000 -0.069778
 18 -2.869898 1.399663 -4.140396 -1.208494 1.051071 1.510581
 19 4.972048 0.000000 0.000001 0.696180 0.251942 -1.459372
 20 11.585355 0.000000 0.000000 0.000000 -0.000000 -0.532575
 21 10.127057 0.000000 0.000001 2.168806 0.289746 0.489380
time 30
  0 0.235347 -0.235347 -13.307525 -0.000000 0.270322 -1.570969
  1 -5.808771 0.261727 0.000000 -1.570795 -1.570796 0.000000
  2 -0.000005 0.000007 3.713255 -3.389865 -0.209941 1.567109
  3 18.045721 0.000000 0.000000 0.000000 -0.000000 -1.744711
  4 17.597597 0.000000 0.000000 -0.164903 0.191688 0.413694
  5 0.000005 -0.000003 -3.713255 0.311761 2.936853 5.354811
  6 18.045725 0.000000 0.000000 0.000000 -0.000000 -1.993292
  7 17.597597 0.000000 0.000000 0.131027 -0.129950 1.055680
  8 1.293670 0.684478 -0.000001 -0.000004 -0.000001 0.436884
  9 5.309685 -0.003834 0.000000 -0.032969 0.011361 0.331233
 10 4.826790 -0.004591 0.000000 -0.141853 0.043276 0.293451
 11 5.792767 -0.005304 0.000000 0.000000 -0.000000 0.191851
 12 6.662317 -0.001453 0.000000 0.000000 -0.000001 0.471000
 13 2.046985 -0.000002 0.000000 0.170824 -0.061937 -0.678472
 14 -3.112024 1.517254 4.341911 1.374615 -0.765707 1.378264
 15 4.827230 0.000000 0.000001 -0.191717 -0.515498 -0.765022
 16 11.139763 0.000000 0.000000 0.000000 -0.000000 -0.544933
 17 10.314597 0.000001 0.000000 -2.966115 -0.000000 -0.069778
 18 -2.869898 1.399663 -4.140396 -1.206002 1.054067 1.512882
 19 4.972048 0.000000 0.000001 0.696644 0.249931 -1.462139
 20 11.585355 0.000000 0.000000 0.000000 -0.000000 -0.532575
 21 10.127057 0.000000 0.000001 2.168806 0.289746 0.489380
end
