version 1
nodes
  0 "Bip01"  -1
  1 "Bip01 Pelvis"   0
  2 "Bip01 L Leg"   1
  3 "Bip01 L Leg1"   2
  4 "Bip01 L Foot"   3
  5 "Bip01 R Leg"   1
  6 "Bip01 R Leg1"   5
  7 "Bip01 R Foot"   6
  8 "Bip01 Spine"   1
  9 "Bip01 Spine1"   8
 10 "Bip01 Spine2"   9
 11 "Bip01 Spine3"  10
 12 "Bip01 Neck"  11
 13 "Bip01 Head"  12
 14 "Bip01 L Arm"  12
 15 "Bip01 L Arm1"  14
 16 "Bip01 L Arm2"  15
 17 "Bip01 L Hand"  16
 18 "Bip01 R Arm"  12
 19 "Bip01 R Arm1"  18
 20 "Bip01 R Arm2"  19
 21 "Bip01 R Hand"  20
end
skeleton
time 0
  0 0.235347 -0.235347 -14.510686 -0.000000 0.270322 -1.570969
  1 0.000000 0.000000 0.000000 -1.570795 -1.570796 0.000000
  2 -0.000005 0.000007 3.713255 -3.368582 -0.221254 1.331540
  3 18.045721 0.000000 0.000000 0.000000 -0.000000 -1.349168
  4 17.597597 0.000000 0.000000 -0.205032 0.225938 -0.216505
  5 0.000005 -0.000003 -3.713255 6.216136 2.542639 5.445702
  6 18.045725 0.000000 0.000000 0.000000 -0.000000 -2.074575
  7 17.597597 0.000000 0.000000 -0.092081 0.087818 0.559914
  8 1.293670 0.684478 -0.000001 -0.000004 -0.000001 0.009520
  9 5.309685 -0.003834 0.000000 -0.156851 -0.006675 -0.043086
 10 4.826790 -0.004591 0.000000 -0.060968 -0.003140 -0.052244
 11 5.792767 -0.005304 0.000000 -0.087129 -0.003715 -0.043412
 12 6.662317 -0.001453 0.000000 0.000000 -0.000001 0.296580
 13 2.046985 -0.000002 0.000000 0.289431 0.097374 -0.508839
 14 -3.322968 0.958643 4.341911 1.034649 -1.193013 1.842208
 15 4.827230 0.000000 0.000001 -0.704662 0.045486 -1.088201
 16 11.139763 0.000000 0.000000 0.000000 -0.000000 -1.630820
 17 10.314597 0.000001 0.000000 -0.172447 -0.528713 0.398563
 18 -3.065217 0.884022 -4.140396 -0.000013 1.370795 2.844080
 19 4.972048 0.000000 0.000001 0.869996 -1.152638 -1.238962
 20 11.585355 0.000000 0.000000 0.000000 -0.000000 -1.867142
 21 10.127057 0.000000 0.000001 1.569752 -0.000000 -0.069778
time 1
  0 0.235347 -0.235347 -14.510686 -0.000000 0.270322 -1.570969
  1 0.000000 0.000000 0.000000 -1.570795 -1.570796 0.000000
  2 -0.000005 0.000007 3.713255 -3.368582 -0.221254 1.331540
  3 18.045721 0.000000 0.000000 0.000000 -0.000000 -1.349168
  4 17.597597 0.000000 0.000000 -0.205032 0.225938 -0.216505
  5 0.000005 -0.000003 -3.713255 6.216136 2.542639 5.445702
  6 18.045725 0.000000 0.000000 0.000000 -0.000000 -2.074575
  7 17.597597 0.000000 0.000000 -0.092081 0.087818 0.559914
  8 1.293670 0.684478 -0.000001 -0.000004 -0.000001 0.009520
  9 5.309685 -0.003834 0.000000 -0.156851 -0.006675 -0.043086
 10 4.826790 -0.004591 0.000000 -0.060968 -0.003140 -0.052244
 11 5.792767 -0.005304 0.000000 -0.087145 -0.003583 -0.041958
 12 6.662317 -0.001453 0.000000 0.000000 -0.000001 0.296580
 13 2.046985 -0.000002 0.000000 0.289431 0.097374 -0.510323
 14 -3.322968 0.958643 4.341911 1.019692 -1.189435 1.858220
 15 4.827230 0.000000 0.000001 -0.698671 0.040976 -1.088201
 16 11.139763 0.000000 0.000000 0.000000 -0.000000 -1.630820
 17 10.314597 0.000001 0.000000 -0.172447 -0.528713 0.398563
 18 -3.065217 0.884022 -4.140396 -0.000013 1.366103 2.844080
 19 4.972048 0.000000 0.000001 0.860172 -1.149742 -1.230267
 20 11.585355 0.000000 0.000000 0.000000 -0.000000 -1.867142
 21 10.127057 0.000000 0.000001 1.569752 -0.000000 -0.069778
time 2
  0 0.235347 -0.235347 -14.510686 -0.000000 0.270322 -1.570969
  1 0.000000 0.000000 0.000000 -1.570795 -1.570796 0.000000
  2 -0.000005 0.000007 3.713255 -3.368582 -0.221254 1.331540
  3 18.045721 0.000000 0.000000 0.000000 -0.000000 -1.349168
  4 17.597597 0.000000 0.000000 -0.205032 0.225938 -0.216505
  5 0.000005 -0.000003 -3.713255 6.216136 2.542639 5.445702
  6 18.045725 0.000000 0.000000 0.000000 -0.000000 -2.074575
  7 17.597597 0.000000 0.000000 -0.092081 0.087818 0.559914
  8 1.293670 0.684478 -0.000001 -0.000004 -0.000001 0.009520
  9 5.309685 -0.003834 0.000000 -0.156851 -0.006675 -0.043086
 10 4.826790 -0.004591 0.000000 -0.060968 -0.003140 -0.052244
 11 5.792767 -0.005304 0.000000 -0.087145 -0.003428 -0.040007
 12 6.662317 -0.001453 0.000000 0.000000 -0.000001 0.296580
 13 2.046985 -0.000002 0.000000 0.289431 0.097374 -0.512300
 14 -3.322968 0.958643 4.341911 0.999942 -1.184397 1.879600
 15 4.827230 0.000000 0.000001 -0.690624 0.034593 -1.088376
 16 11.139763 0.000000 0.000000 0.000000 -0.000000 -1.630820
 17 10.314597 0.000001 0.000000 -0.172447 -0.528713 0.398563
 18 -3.065217 0.884022 -4.140396 -0.000013 1.359659 2.844080
 19 4.972048 0.000000 0.000001 0.846944 -1.145720 -1.218740
 20 11.585355 0.000000 0.000000 0.000000 -0.000000 -1.867142
 21 10.127057 0.000000 0.000001 1.569752 -0.000000 -0.069778
time 3
  0 0.235347 -0.235347 -14.510686 -0.000000 0.270322 -1.570969
  1 0.000000 0.000000 0.000000 -1.570795 -1.570796 0.000000
  2 -0.000005 0.000007 3.713255 -3.368582 -0.221254 1.331540
  3 18.045721 0.000000 0.000000 0.000000 -0.000000 -1.349168
  4 17.597597 0.000000 0.000000 -0.205032 0.225938 -0.216505
  5 0.000005 -0.000003 -3.713255 6.216136 2.542639 5.445702
  6 18.045725 0.000000 0.000000 0.000000 -0.000000 -2.074575
  7 17.597597 0.000000 0.000000 -0.092081 0.087818 0.559914
  8 1.293670 0.684478 -0.000001 -0.000004 -0.000001 0.009520
  9 5.309685 -0.003834 0.000000 -0.156851 -0.006675 -0.043086
 10 4.826790 -0.004591 0.000000 -0.060968 -0.003140 -0.052244
 11 5.792767 -0.005304 0.000000 -0.087145 -0.003212 -0.037577
 12 6.662317 -0.001453 0.000000 0.000000 -0.000001 0.296580
 13 2.046985 -0.000002 0.000000 0.289431 0.097374 -0.514728
 14 -3.322968 0.958643 4.341911 0.976645 -1.178088 1.904815
 15 4.827230 0.000000 0.000001 -0.680815 0.026934 -1.088551
 16 11.139763 0.000000 0.000000 0.000000 -0.000000 -1.630820
 17 10.314597 0.000001 0.000000 -0.172447 -0.528713 0.398563
 18 -3.065217 0.884022 -4.140396 -0.000013 1.351773 2.844080
 19 4.972048 0.000000 0.000001 0.831241 -1.140733 -1.204841
 20 11.585355 0.000000 0.000000 0.000000 -0.000000 -1.867142
 21 10.127057 0.000000 0.000001 1.569752 -0.000000 -0.069778
time 4
  0 0.235347 -0.235347 -14.510686 -0.000000 0.270322 -1.570969
  1 0.000000 0.000000 0.000000 -1.570795 -1.570796 0.000000
  2 -0.000005 0.000007 3.713255 -3.368582 -0.221254 1.331540
  3 18.045721 0.000000 0.000000 0.000000 -0.000000 -1.349168
  4 17.597597 0.000000 0.000000 -0.205032 0.225938 -0.216505
  5 0.000005 -0.000003 -3.713255 6.216136 2.542639 5.445702
  6 18.045725 0.000000 0.000000 0.000000 -0.000000 -2.074575
  7 17.597597 0.000000 0.000000 -0.092081 0.087818 0.559914
  8 1.293670 0.684478 -0.000001 -0.000004 -0.000001 0.009520
  9 5.309685 -0.003834 0.000000 -0.156851 -0.006675 -0.043086
 10 4.826790 -0.004591 0.000000 -0.060968 -0.003140 -0.052244
 11 5.792767 -0.005304 0.000000 -0.087161 -0.002960 -0.034837
 12 6.662317 -0.001453 0.000000 0.000000 -0.000001 0.296580
 13 2.046985 -0.000002 0.000000 0.289431 0.097374 -0.517469
 14 -3.322968 0.958643 4.341911 0.950855 -1.170626 1.932715
 15 4.827230 0.000000 0.000001 -0.669655 0.018254 -1.088901
 16 11.139763 0.000000 0.000000 0.000000 -0.000000 -1.630820
 17 10.314597 0.000001 0.000000 -0.172447 -0.528713 0.398563
 18 -3.065217 0.884022 -4.140396 -0.000013 1.342785 2.844080
 19 4.972048 0.000000 0.000001 0.813604 -1.134941 -1.189558
 20 11.585355 0.000000 0.000000 0.000000 -0.000000 -1.867142
 21 10.127057 0.000000 0.000001 1.569752 -0.000000 -0.069778
time 5
  0 0.235347 -0.235347 -14.510686 -0.000000 0.270322 -1.570969
  1 0.000000 0.000000 0.000000 -1.570795 -1.570796 0.000000
  2 -0.000005 0.000007 3.713255 -3.368582 -0.221254 1.331540
  3 18.045721 0.000000 0.000000 0.000000 -0.000000 -1.349168
  4 17.597597 0.000000 0.000000 -0.205032 0.225938 -0.216505
  5 0.000005 -0.000003 -3.713255 6.216136 2.542639 5.445702
  6 18.045725 0.000000 0.000000 0.000000 -0.000000 -2.074575
  7 17.597597 0.000000 0.000000 -0.092081 0.087818 0.559914
  8 1.293670 0.684478 -0.000001 -0.000004 -0.000001 0.009520
  9 5.309685 -0.003834 0.000000 -0.156851 -0.006675 -0.043086
 10 4.826790 -0.004591 0.000000 -0.060968 -0.003140 -0.052244
 11 5.792767 -0.005304 0.000000 -0.087161 -0.002709 -0.031847
 12 6.662317 -0.001453 0.000000 0.000000 -0.000001 0.296580
 13 2.046985 -0.000002 0.000000 0.289431 0.097374 -0.520526
 14 -3.322968 0.958643 4.341911 0.924107 -1.162164 1.961957
 15 4.827230 0.000000 0.000001 -0.657379 0.008723 -1.089514
 16 11.139763 0.000000 0.000000 0.000000 -0.000000 -1.630820
 17 10.314597 0.000001 0.000000 -0.172447 -0.528713 0.398563
 18 -3.065217 0.884022 -4.140396 -0.000013 1.333034 2.844080
 19 4.972048 0.000000 0.000001 0.795039 -1.128425 -1.173353
 20 11.585355 0.000000 0.000000 0.000000 -0.000000 -1.867142
 21 10.127057 0.000000 0.000001 1.569752 -0.000000 -0.069778
time 6
  0 0.235347 -0.235347 -14.510686 -0.000000 0.270322 -1.570969
  1 0.000000 0.000000 0.000000 -1.570795 -1.570796 0.000000
  2 -0.000005 0.000007 3.713255 -3.368582 -0.221254 1.331540
  3 18.045721 0.000000 0.000000 0.000000 -0.000000 -1.349168
  4 17.597597 0.000000 0.000000 -0.205032 0.225938 -0.216505
  5 0.000005 -0.000003 -3.713255 6.216136 2.542639 5.445702
  6 18.045725 0.000000 0.000000 0.000000 -0.000000 -2.074575
  7 17.597597 0.000000 0.000000 -0.092081 0.087818 0.559914
  8 1.293670 0.684478 -0.000001 -0.000004 -0.000001 0.009520
  9 5.309685 -0.003834 0.000000 -0.156851 -0.006675 -0.043086
 10 4.826790 -0.004591 0.000000 -0.060968 -0.003140 -0.052244
 11 5.792767 -0.005304 0.000000 -0.087178 -0.002433 -0.028712
 12 6.662317 -0.001453 0.000000 0.000000 -0.000001 0.296580
 13 2.046985 -0.000002 0.000000 0.289431 0.097374 -0.523627
 14 -3.322968 0.958643 4.341911 0.896975 -1.152932 1.991487
 15 4.827230 0.000000 0.000001 -0.644516 -0.001234 -1.090214
 16 11.139763 0.000000 0.000000 0.000000 -0.000000 -1.630820
 17 10.314597 0.000001 0.000000 -0.172447 -0.528713 0.398563
 18 -3.065217 0.884022 -4.140396 -0.000013 1.322774 2.844080
 19 4.972048 0.000000 0.000001 0.775855 -1.121588 -1.156885
 20 11.585355 0.000000 0.000000 0.000000 -0.000000 -1.867142
 21 10.127057 0.000000 0.000001 1.569752 -0.000000 -0.069778
time 7
  0 0.235347 -0.235347 -14.510686 -0.000000 0.270322 -1.570969
  1 0.000000 0.000000 0.000000 -1.570795 -1.570796 0.000000
  2 -0.000005 0.000007 3.713255 -3.368582 -0.221254 1.331540
  3 18.045721 0.000000 0.000000 0.000000 -0.000000 -1.349168
  4 17.597597 0.000000 0.000000 -0.205032 0.225938 -0.216505
  5 0.000005 -0.000003 -3.713255 6.216136 2.542639 5.445702
  6 18.045725 0.000000 0.000000 0.000000 -0.000000 -2.074575
  7 17.597597 0.000000 0.000000 -0.092081 0.087818 0.559914
  8 1.293670 0.684478 -0.000001 -0.000004 -0.000001 0.009520
  9 5.309685 -0.003834 0.000000 -0.156851 -0.006675 -0.043086
 10 4.826790 -0.004591 0.000000 -0.060968 -0.003140 -0.052244
 11 5.792767 -0.005304 0.000000 -0.087178 -0.002145 -0.025473
 12 6.662317 -0.001453 0.000000 0.000000 -0.000001 0.296580
 13 2.046985 -0.000002 0.000000 0.289431 0.097374 -0.526864
 14 -3.322968 0.958643 4.341911 0.870706 -1.143239 2.020442
 15 4.827230 0.000000 0.000001 -0.631359 -0.011361 -1.091089
 16 11.139763 0.000000 0.000000 0.000000 -0.000000 -1.630820
 17 10.314597 0.000001 0.000000 -0.172447 -0.528713 0.398563
 18 -3.065217 0.884022 -4.140396 -0.000013 1.312288 2.844080
 19 4.972048 0.000000 0.000001 0.756903 -1.114509 -1.140681
 20 11.585355 0.000000 0.000000 0.000000 -0.000000 -1.867142
 21 10.127057 0.000000 0.000001 1.569752 -0.000000 -0.069778
time 8
  0 0.235347 -0.235347 -14.510686 -0.000000 0.270322 -1.570969
  1 0.000000 0.000000 0.000000 -1.570795 -1.570796 0.000000
  2 -0.000005 0.000007 3.713255 -3.368582 -0.221254 1.331540
  3 18.045721 0.000000 0.000000 0.000000 -0.000000 -1.349168
  4 17.597597 0.000000 0.000000 -0.205032 0.225938 -0.216505
  5 0.000005 -0.000003 -3.713255 6.216136 2.542639 5.445702
  6 18.045725 0.000000 0.000000 0.000000 -0.000000 -2.074575
  7 17.597597 0.000000 0.000000 -0.092081 0.087818 0.559914
  8 1.293670 0.684478 -0.000001 -0.000004 -0.000001 0.009520
  9 5.309685 -0.003834 0.000000 -0.156851 -0.006675 -0.043086
 10 4.826790 -0.004591 0.000000 -0.060968 -0.003140 -0.052244
 11 5.792767 -0.005304 0.000000 -0.087194 -0.001882 -0.022317
 12 6.662317 -0.001453 0.000000 0.000000 -0.000001 0.296580
 13 2.046985 -0.000002 0.000000 0.289431 0.097374 -0.530100
 14 -3.322968 0.958643 4.341911 0.845779 -1.133315 2.047766
 15 4.827230 0.000000 0.000001 -0.618378 -0.021403 -1.092139
 16 11.139763 0.000000 0.000000 0.000000 -0.000000 -1.630820
 17 10.314597 0.000001 0.000000 -0.172447 -0.528713 0.398563
 18 -3.065217 0.884022 -4.140396 -0.000013 1.301887 2.844080
 19 4.972048 0.000000 0.000001 0.738725 -1.107350 -1.125201
 20 11.585355 0.000000 0.000000 0.000000 -0.000000 -1.867142
 21 10.127057 0.000000 0.000001 1.569752 -0.000000 -0.069778
time 9
  0 0.235347 -0.235347 -14.510686 -0.000000 0.270322 -1.570969
  1 0.000000 0.000000 0.000000 -1.570795 -1.570796 0.000000
  2 -0.000005 0.000007 3.713255 -3.368582 -0.221254 1.331540
  3 18.045721 0.000000 0.000000 0.000000 -0.000000 -1.349168
  4 17.597597 0.000000 0.000000 -0.205032 0.225938 -0.216505
  5 0.000005 -0.000003 -3.713255 6.216136 2.542639 5.445702
  6 18.045725 0.000000 0.000000 0.000000 -0.000000 -2.074575
  7 17.597597 0.000000 0.000000 -0.092081 0.087818 0.559914
  8 1.293670 0.684478 -0.000001 -0.000004 -0.000001 0.009520
  9 5.309685 -0.003834 0.000000 -0.156851 -0.006675 -0.043086
 10 4.826790 -0.004591 0.000000 -0.060968 -0.003140 -0.052244
 11 5.792767 -0.005304 0.000000 -0.087194 -0.001606 -0.019244
 12 6.662317 -0.001453 0.000000 0.000000 -0.000001 0.296580
 13 2.046985 -0.000002 0.000000 0.289431 0.097374 -0.533111
 14 -3.322968 0.958643 4.341911 0.822961 -1.123507 2.073078
 15 4.827230 0.000000 0.000001 -0.605750 -0.031019 -1.093364
 16 11.139763 0.000000 0.000000 0.000000 -0.000000 -1.630820
 17 10.314597 0.000001 0.000000 -0.172447 -0.528713 0.398563
 18 -3.065217 0.884022 -4.140396 -0.000013 1.291910 2.844080
 19 4.972048 0.000000 0.000001 0.721707 -1.100271 -1.110775
 20 11.585355 0.000000 0.000000 0.000000 -0.000000 -1.867142
 21 10.127057 0.000000 0.000001 1.569752 -0.000000 -0.069778
time 10
  0 0.235347 -0.235347 -14.510686 -0.000000 0.270322 -1.570969
  1 0.000000 0.000000 0.000000 -1.570795 -1.570796 0.000000
  2 -0.000005 0.000007 3.713255 -3.368582 -0.221254 1.331540
  3 18.045721 0.000000 0.000000 0.000000 -0.000000 -1.349168
  4 17.597597 0.000000 0.000000 -0.205032 0.225938 -0.216505
  5 0.000005 -0.000003 -3.713255 6.216136 2.542639 5.445702
  6 18.045725 0.000000 0.000000 0.000000 -0.000000 -2.074575
  7 17.597597 0.000000 0.000000 -0.092081 0.087818 0.559914
  8 1.293670 0.684478 -0.000001 -0.000004 -0.000001 0.009520
  9 5.309685 -0.003834 0.000000 -0.156851 -0.006675 -0.043086
 10 4.826790 -0.004591 0.000000 -0.060968 -0.003140 -0.052244
 11 5.792767 -0.005304 0.000000 -0.087194 -0.001342 -0.016379
 12 6.662317 -0.001453 0.000000 0.000000 -0.000001 0.296580
 13 2.046985 -0.000002 0.000000 0.289431 0.097374 -0.536033
 14 -3.322968 0.958643 4.341911 0.802732 -1.114198 2.095608
 15 4.827230 0.000000 0.000001 -0.594120 -0.039955 -1.094677
 16 11.139763 0.000000 0.000000 0.000000 -0.000000 -1.630820
 17 10.314597 0.000001 0.000000 -0.172447 -0.528713 0.398563
 18 -3.065217 0.884022 -4.140396 -0.000013 1.282639 2.844080
 19 4.972048 0.000000 0.000001 0.706236 -1.093675 -1.097864
 20 11.585355 0.000000 0.000000 0.000000 -0.000000 -1.867142
 21 10.127057 0.000000 0.000001 1.569752 -0.000000 -0.069778
time 11
  0 0.235347 -0.235347 -14.510686 -0.000000 0.270322 -1.570969
  1 0.000000 0.000000 0.000000 -1.570795 -1.570796 0.000000
  2 -0.000005 0.000007 3.713255 -3.368582 -0.221254 1.331540
  3 18.045721 0.000000 0.000000 0.000000 -0.000000 -1.349168
  4 17.597597 0.000000 0.000000 -0.205032 0.225938 -0.216505
  5 0.000005 -0.000003 -3.713255 6.216136 2.542639 5.445702
  6 18.045725 0.000000 0.000000 0.000000 -0.000000 -2.074575
  7 17.597597 0.000000 0.000000 -0.092081 0.087818 0.559914
  8 1.293670 0.684478 -0.000001 -0.000004 -0.000001 0.009520
  9 5.309685 -0.003834 0.000000 -0.156851 -0.006675 -0.043086
 10 4.826790 -0.004591 0.000000 -0.060968 -0.003140 -0.052244
 11 5.792767 -0.005304 0.000000 -0.087210 -0.001139 -0.013846
 12 6.662317 -0.001453 0.000000 0.000000 -0.000001 0.296580
 13 2.046985 -0.000002 0.000000 0.289431 0.097374 -0.538550
 14 -3.322968 0.958643 4.341911 0.785283 -1.105736 2.114975
 15 4.827230 0.000000 0.000001 -0.583724 -0.047869 -1.095902
 16 11.139763 0.000000 0.000000 0.000000 -0.000000 -1.630820
 17 10.314597 0.000001 0.000000 -0.172447 -0.528713 0.398563
 18 -3.065217 0.884022 -4.140396 -0.000013 1.274386 2.844080
 19 4.972048 0.000000 0.000001 0.692776 -1.087722 -1.086599
 20 11.585355 0.000000 0.000000 0.000000 -0.000000 -1.867142
 21 10.127057 0.000000 0.000001 1.569752 -0.000000 -0.069778
time 12
  0 0.235347 -0.235347 -14.510686 -0.000000 0.270322 -1.570969
  1 0.000000 0.000000 0.000000 -1.570795 -1.570796 0.000000
  2 -0.000005 0.000007 3.713255 -3.368582 -0.221254 1.331540
  3 18.045721 0.000000 0.000000 0.000000 -0.000000 -1.349168
  4 17.597597 0.000000 0.000000 -0.205032 0.225938 -0.216505
  5 0.000005 -0.000003 -3.713255 6.216136 2.542639 5.445702
  6 18.045725 0.000000 0.000000 0.000000 -0.000000 -2.074575
  7 17.597597 0.000000 0.000000 -0.092081 0.087818 0.559914
  8 1.293670 0.684478 -0.000001 -0.000004 -0.000001 0.009520
  9 5.309685 -0.003834 0.000000 -0.156851 -0.006675 -0.043086
 10 4.826790 -0.004591 0.000000 -0.060968 -0.003140 -0.052244
 11 5.792767 -0.005304 0.000000 -0.087210 -0.000947 -0.011728
 12 6.662317 -0.001453 0.000000 0.000000 -0.000001 0.296580
 13 2.046985 -0.000002 0.000000 0.289431 0.097374 -0.540662
 14 -3.322968 0.958643 4.341911 0.771189 -1.098505 2.130699
 15 4.827230 0.000000 0.000001 -0.574854 -0.054507 -1.097039
 16 11.139763 0.000000 0.000000 0.000000 -0.000000 -1.630820
 17 10.314597 0.000001 0.000000 -0.172447 -0.528713 0.398563
 18 -3.065217 0.884022 -4.140396 -0.000013 1.267433 2.844080
 19 4.972048 0.000000 0.000001 0.681637 -1.082574 -1.077509
 20 11.585355 0.000000 0.000000 0.000000 -0.000000 -1.867142
 21 10.127057 0.000000 0.000001 1.569752 -0.000000 -0.069778
time 13
  0 0.235347 -0.235347 -14.510686 -0.000000 0.270322 -1.570969
  1 0.000000 0.000000 0.000000 -1.570795 -1.570796 0.000000
  2 -0.000005 0.000007 3.713255 -3.368582 -0.221254 1.331540
  3 18.045721 0.000000 0.000000 0.000000 -0.000000 -1.349168
  4 17.597597 0.000000 0.000000 -0.205032 0.225938 -0.216505
  5 0.000005 -0.000003 -3.713255 6.216136 2.542639 5.445702
  6 18.045725 0.000000 0.000000 0.000000 -0.000000 -2.074575
  7 17.597597 0.000000 0.000000 -0.092081 0.087818 0.559914
  8 1.293670 0.684478 -0.000001 -0.000004 -0.000001 0.009520
  9 5.309685 -0.003834 0.000000 -0.156851 -0.006675 -0.043086
 10 4.826790 -0.004591 0.000000 -0.060968 -0.003140 -0.052244
 11 5.792767 -0.005304 0.000000 -0.087210 -0.000815 -0.010087
 12 6.662317 -0.001453 0.000000 0.000000 -0.000001 0.296580
 13 2.046985 -0.000002 0.000000 0.289431 0.097374 -0.542325
 14 -3.322968 0.958643 4.341911 0.760643 -1.092850 2.142684
 15 4.827230 0.000000 0.000001 -0.568100 -0.059613 -1.097915
 16 11.139763 0.000000 0.000000 0.000000 -0.000000 -1.630820
 17 10.314597 0.000001 0.000000 -0.172447 -0.528713 0.398563
 18 -3.065217 0.884022 -4.140396 -0.000013 1.262091 2.844080
 19 4.972048 0.000000 0.000001 0.673283 -1.078632 -1.070526
 20 11.585355 0.000000 0.000000 0.000000 -0.000000 -1.867142
 21 10.127057 0.000000 0.000001 1.569752 -0.000000 -0.069778
time 14
  0 0.235347 -0.235347 -14.510686 -0.000000 0.270322 -1.570969
  1 0.000000 0.000000 0.000000 -1.570795 -1.570796 0.000000
  2 -0.000005 0.000007 3.713255 -3.368582 -0.221254 1.331540
  3 18.045721 0.000000 0.000000 0.000000 -0.000000 -1.349168
  4 17.597597 0.000000 0.000000 -0.205032 0.225938 -0.216505
  5 0.000005 -0.000003 -3.713255 6.216136 2.542639 5.445702
  6 18.045725 0.000000 0.000000 0.000000 -0.000000 -2.074575
  7 17.597597 0.000000 0.000000 -0.092081 0.087818 0.559914
  8 1.293670 0.684478 -0.000001 -0.000004 -0.000001 0.009520
  9 5.309685 -0.003834 0.000000 -0.156851 -0.006675 -0.043086
 10 4.826790 -0.004591 0.000000 -0.060968 -0.003140 -0.052244
 11 5.792767 -0.005304 0.000000 -0.087210 -0.000707 -0.009029
 12 6.662317 -0.001453 0.000000 0.000000 -0.000001 0.296580
 13 2.046985 -0.000002 0.000000 0.289431 0.097374 -0.543359
 14 -3.322968 0.958643 4.341911 0.754124 -1.089234 2.149970
 15 4.827230 0.000000 0.000001 -0.563812 -0.062932 -1.098615
 16 11.139763 0.000000 0.000000 0.000000 -0.000000 -1.630820
 17 10.314597 0.000001 0.000000 -0.172447 -0.528713 0.398563
 18 -3.065217 0.884022 -4.140396 -0.000013 1.258671 2.844080
 19 4.972048 0.000000 0.000001 0.667868 -1.076219 -1.066245
 20 11.585355 0.000000 0.000000 0.000000 -0.000000 -1.867142
 21 10.127057 0.000000 0.000001 1.569752 -0.000000 -0.069778
time 15
  0 0.235347 -0.235347 -14.510686 -0.000000 0.270322 -1.570969
  1 0.000000 0.000000 0.000000 -1.570795 -1.570796 0.000000
  2 -0.000005 0.000007 3.713255 -3.368582 -0.221254 1.331540
  3 18.045721 0.000000 0.000000 0.000000 -0.000000 -1.349168
  4 17.597597 0.000000 0.000000 -0.205032 0.225938 -0.216505
  5 0.000005 -0.000003 -3.713255 6.216136 2.542639 5.445702
  6 18.045725 0.000000 0.000000 0.000000 -0.000000 -2.074575
  7 17.597597 0.000000 0.000000 -0.092081 0.087818 0.559914
  8 1.293670 0.684478 -0.000001 -0.000004 -0.000001 0.009520
  9 5.309685 -0.003834 0.000000 -0.156851 -0.006675 -0.043086
 10 4.826790 -0.004591 0.000000 -0.060968 -0.003140 -0.052244
 11 5.792767 -0.005304 0.000000 -0.087210 -0.000671 -0.008676
 12 6.662317 -0.001453 0.000000 0.000000 -0.000001 0.296580
 13 2.046985 -0.000002 0.000000 0.289431 0.097374 -0.543764
 14 -3.322968 0.958643 4.341911 0.751823 -1.087927 2.152655
 15 4.827230 0.000000 0.000001 -0.562285 -0.064124 -1.098790
 16 11.139763 0.000000 0.000000 0.000000 -0.000000 -1.630820
 17 10.314597 0.000001 0.000000 -0.172447 -0.528713 0.398563
 18 -3.065217 0.884022 -4.140396 -0.000013 1.257456 2.844080
 19 4.972048 0.000000 0.000001 0.666089 -1.075254 -1.064664
 20 11.585355 0.000000 0.000000 0.000000 -0.000000 -1.867142
 21 10.127057 0.000000 0.000001 1.569752 -0.000000 -0.069778
time 16
  0 0.235347 -0.235347 -14.510686 -0.000000 0.270322 -1.570969
  1 0.000000 0.000000 0.000000 -1.570795 -1.570796 0.000000
  2 -0.000005 0.000007 3.713255 -3.368582 -0.221254 1.331540
  3 18.045721 0.000000 0.000000 0.000000 -0.000000 -1.349168
  4 17.597597 0.000000 0.000000 -0.205032 0.225938 -0.216505
  5 0.000005 -0.000003 -3.713255 6.216136 2.542639 5.445702
  6 18.045725 0.000000 0.000000 0.000000 -0.000000 -2.074575
  7 17.597597 0.000000 0.000000 -0.092081 0.087818 0.559914
  8 1.293670 0.684478 -0.000001 -0.000004 -0.000001 0.009520
  9 5.309685 -0.003834 0.000000 -0.156851 -0.006675 -0.043086
 10 4.826790 -0.004591 0.000000 -0.060968 -0.003140 -0.052244
 11 5.792767 -0.005304 0.000000 -0.087210 -0.000707 -0.009029
 12 6.662317 -0.001453 0.000000 0.000000 -0.000001 0.296580
 13 2.046985 -0.000002 0.000000 0.289431 0.097374 -0.543359
 14 -3.322968 0.958643 4.341911 0.754124 -1.089234 2.149970
 15 4.827230 0.000000 0.000001 -0.563812 -0.062932 -1.098615
 16 11.139763 0.000000 0.000000 0.000000 -0.000000 -1.630820
 17 10.314597 0.000001 0.000000 -0.172447 -0.528713 0.398563
 18 -3.065217 0.884022 -4.140396 -0.000013 1.258671 2.844080
 19 4.972048 0.000000 0.000001 0.667868 -1.076219 -1.066245
 20 11.585355 0.000000 0.000000 0.000000 -0.000000 -1.867142
 21 10.127057 0.000000 0.000001 1.569752 -0.000000 -0.069778
time 17
  0 0.235347 -0.235347 -14.510686 -0.000000 0.270322 -1.570969
  1 0.000000 0.000000 0.000000 -1.570795 -1.570796 0.000000
  2 -0.000005 0.000007 3.713255 -3.368582 -0.221254 1.331540
  3 18.045721 0.000000 0.000000 0.000000 -0.000000 -1.349168
  4 17.597597 0.000000 0.000000 -0.205032 0.225938 -0.216505
  5 0.000005 -0.000003 -3.713255 6.216136 2.542639 5.445702
  6 18.045725 0.000000 0.000000 0.000000 -0.000000 -2.074575
  7 17.597597 0.000000 0.000000 -0.092081 0.087818 0.559914
  8 1.293670 0.684478 -0.000001 -0.000004 -0.000001 0.009520
  9 5.309685 -0.003834 0.000000 -0.156851 -0.006675 -0.043086
 10 4.826790 -0.004591 0.000000 -0.060968 -0.003140 -0.052244
 11 5.792767 -0.005304 0.000000 -0.087210 -0.000815 -0.010087
 12 6.662317 -0.001453 0.000000 0.000000 -0.000001 0.296580
 13 2.046985 -0.000002 0.000000 0.289431 0.097374 -0.542325
 14 -3.322968 0.958643 4.341911 0.760643 -1.092850 2.142684
 15 4.827230 0.000000 0.000001 -0.568100 -0.059613 -1.097915
 16 11.139763 0.000000 0.000000 0.000000 -0.000000 -1.630820
 17 10.314597 0.000001 0.000000 -0.172447 -0.528713 0.398563
 18 -3.065217 0.884022 -4.140396 -0.000013 1.262091 2.844080
 19 4.972048 0.000000 0.000001 0.673283 -1.078632 -1.070526
 20 11.585355 0.000000 0.000000 0.000000 -0.000000 -1.867142
 21 10.127057 0.000000 0.000001 1.569752 -0.000000 -0.069778
time 18
  0 0.235347 -0.235347 -14.510686 -0.000000 0.270322 -1.570969
  1 0.000000 0.000000 0.000000 -1.570795 -1.570796 0.000000
  2 -0.000005 0.000007 3.713255 -3.368582 -0.221254 1.331540
  3 18.045721 0.000000 0.000000 0.000000 -0.000000 -1.349168
  4 17.597597 0.000000 0.000000 -0.205032 0.225938 -0.216505
  5 0.000005 -0.000003 -3.713255 6.216136 2.542639 5.445702
  6 18.045725 0.000000 0.000000 0.000000 -0.000000 -2.074575
  7 17.597597 0.000000 0.000000 -0.092081 0.087818 0.559914
  8 1.293670 0.684478 -0.000001 -0.000004 -0.000001 0.009520
  9 5.309685 -0.003834 0.000000 -0.156851 -0.006675 -0.043086
 10 4.826790 -0.004591 0.000000 -0.060968 -0.003140 -0.052244
 11 5.792767 -0.005304 0.000000 -0.087210 -0.000947 -0.011728
 12 6.662317 -0.001453 0.000000 0.000000 -0.000001 0.296580
 13 2.046985 -0.000002 0.000000 0.289431 0.097374 -0.540662
 14 -3.322968 0.958643 4.341911 0.771189 -1.098505 2.130699
 15 4.827230 0.000000 0.000001 -0.574854 -0.054507 -1.097039
 16 11.139763 0.000000 0.000000 0.000000 -0.000000 -1.630820
 17 10.314597 0.000001 0.000000 -0.172447 -0.528713 0.398563
 18 -3.065217 0.884022 -4.140396 -0.000013 1.267433 2.844080
 19 4.972048 0.000000 0.000001 0.681637 -1.082574 -1.077509
 20 11.585355 0.000000 0.000000 0.000000 -0.000000 -1.867142
 21 10.127057 0.000000 0.000001 1.569752 -0.000000 -0.069778
time 19
  0 0.235347 -0.235347 -14.510686 -0.000000 0.270322 -1.570969
  1 0.000000 0.000000 0.000000 -1.570795 -1.570796 0.000000
  2 -0.000005 0.000007 3.713255 -3.368582 -0.221254 1.331540
  3 18.045721 0.000000 0.000000 0.000000 -0.000000 -1.349168
  4 17.597597 0.000000 0.000000 -0.205032 0.225938 -0.216505
  5 0.000005 -0.000003 -3.713255 6.216136 2.542639 5.445702
  6 18.045725 0.000000 0.000000 0.000000 -0.000000 -2.074575
  7 17.597597 0.000000 0.000000 -0.092081 0.087818 0.559914
  8 1.293670 0.684478 -0.000001 -0.000004 -0.000001 0.009520
  9 5.309685 -0.003834 0.000000 -0.156851 -0.006675 -0.043086
 10 4.826790 -0.004591 0.000000 -0.060968 -0.003140 -0.052244
 11 5.792767 -0.005304 0.000000 -0.087210 -0.001139 -0.013846
 12 6.662317 -0.001453 0.000000 0.000000 -0.000001 0.296580
 13 2.046985 -0.000002 0.000000 0.289431 0.097374 -0.538550
 14 -3.322968 0.958643 4.341911 0.785283 -1.105736 2.114975
 15 4.827230 0.000000 0.000001 -0.583724 -0.047869 -1.095902
 16 11.139763 0.000000 0.000000 0.000000 -0.000000 -1.630820
 17 10.314597 0.000001 0.000000 -0.172447 -0.528713 0.398563
 18 -3.065217 0.884022 -4.140396 -0.000013 1.274386 2.844080
 19 4.972048 0.000000 0.000001 0.692776 -1.087722 -1.086599
 20 11.585355 0.000000 0.000000 0.000000 -0.000000 -1.867142
 21 10.127057 0.000000 0.000001 1.569752 -0.000000 -0.069778
time 20
  0 0.235347 -0.235347 -14.510686 -0.000000 0.270322 -1.570969
  1 0.000000 0.000000 0.000000 -1.570795 -1.570796 0.000000
  2 -0.000005 0.000007 3.713255 -3.368582 -0.221254 1.331540
  3 18.045721 0.000000 0.000000 0.000000 -0.000000 -1.349168
  4 17.597597 0.000000 0.000000 -0.205032 0.225938 -0.216505
  5 0.000005 -0.000003 -3.713255 6.216136 2.542639 5.445702
  6 18.045725 0.000000 0.000000 0.000000 -0.000000 -2.074575
  7 17.597597 0.000000 0.000000 -0.092081 0.087818 0.559914
  8 1.293670 0.684478 -0.000001 -0.000004 -0.000001 0.009520
  9 5.309685 -0.003834 0.000000 -0.156851 -0.006675 -0.043086
 10 4.826790 -0.004591 0.000000 -0.060968 -0.003140 -0.052244
 11 5.792767 -0.005304 0.000000 -0.087194 -0.001342 -0.016379
 12 6.662317 -0.001453 0.000000 0.000000 -0.000001 0.296580
 13 2.046985 -0.000002 0.000000 0.289431 0.097374 -0.536033
 14 -3.322968 0.958643 4.341911 0.802732 -1.114198 2.095608
 15 4.827230 0.000000 0.000001 -0.594120 -0.039955 -1.094677
 16 11.139763 0.000000 0.000000 0.000000 -0.000000 -1.630820
 17 10.314597 0.000001 0.000000 -0.172447 -0.528713 0.398563
 18 -3.065217 0.884022 -4.140396 -0.000013 1.282639 2.844080
 19 4.972048 0.000000 0.000001 0.706236 -1.093675 -1.097864
 20 11.585355 0.000000 0.000000 0.000000 -0.000000 -1.867142
 21 10.127057 0.000000 0.000001 1.569752 -0.000000 -0.069778
time 21
  0 0.235347 -0.235347 -14.510686 -0.000000 0.270322 -1.570969
  1 0.000000 0.000000 0.000000 -1.570795 -1.570796 0.000000
  2 -0.000005 0.000007 3.713255 -3.368582 -0.221254 1.331540
  3 18.045721 0.000000 0.000000 0.000000 -0.000000 -1.349168
  4 17.597597 0.000000 0.000000 -0.205032 0.225938 -0.216505
  5 0.000005 -0.000003 -3.713255 6.216136 2.542639 5.445702
  6 18.045725 0.000000 0.000000 0.000000 -0.000000 -2.074575
  7 17.597597 0.000000 0.000000 -0.092081 0.087818 0.559914
  8 1.293670 0.684478 -0.000001 -0.000004 -0.000001 0.009520
  9 5.309685 -0.003834 0.000000 -0.156851 -0.006675 -0.043086
 10 4.826790 -0.004591 0.000000 -0.060968 -0.003140 -0.052244
 11 5.792767 -0.005304 0.000000 -0.087194 -0.001606 -0.019244
 12 6.662317 -0.001453 0.000000 0.000000 -0.000001 0.296580
 13 2.046985 -0.000002 0.000000 0.289431 0.097374 -0.533111
 14 -3.322968 0.958643 4.341911 0.822961 -1.123507 2.073078
 15 4.827230 0.000000 0.000001 -0.605750 -0.031019 -1.093364
 16 11.139763 0.000000 0.000000 0.000000 -0.000000 -1.630820
 17 10.314597 0.000001 0.000000 -0.172447 -0.528713 0.398563
 18 -3.065217 0.884022 -4.140396 -0.000013 1.291910 2.844080
 19 4.972048 0.000000 0.000001 0.721707 -1.100271 -1.110775
 20 11.585355 0.000000 0.000000 0.000000 -0.000000 -1.867142
 21 10.127057 0.000000 0.000001 1.569752 -0.000000 -0.069778
time 22
  0 0.235347 -0.235347 -14.510686 -0.000000 0.270322 -1.570969
  1 0.000000 0.000000 0.000000 -1.570795 -1.570796 0.000000
  2 -0.000005 0.000007 3.713255 -3.368582 -0.221254 1.331540
  3 18.045721 0.000000 0.000000 0.000000 -0.000000 -1.349168
  4 17.597597 0.000000 0.000000 -0.205032 0.225938 -0.216505
  5 0.000005 -0.000003 -3.713255 6.216136 2.542639 5.445702
  6 18.045725 0.000000 0.000000 0.000000 -0.000000 -2.074575
  7 17.597597 0.000000 0.000000 -0.092081 0.087818 0.559914
  8 1.293670 0.684478 -0.000001 -0.000004 -0.000001 0.009520
  9 5.309685 -0.003834 0.000000 -0.156851 -0.006675 -0.043086
 10 4.826790 -0.004591 0.000000 -0.060968 -0.003140 -0.052244
 11 5.792767 -0.005304 0.000000 -0.087194 -0.001882 -0.022317
 12 6.662317 -0.001453 0.000000 0.000000 -0.000001 0.296580
 13 2.046985 -0.000002 0.000000 0.289431 0.097374 -0.530100
 14 -3.322968 0.958643 4.341911 0.845779 -1.133315 2.047766
 15 4.827230 0.000000 0.000001 -0.618378 -0.021403 -1.092139
 16 11.139763 0.000000 0.000000 0.000000 -0.000000 -1.630820
 17 10.314597 0.000001 0.000000 -0.172447 -0.528713 0.398563
 18 -3.065217 0.884022 -4.140396 -0.000013 1.301887 2.844080
 19 4.972048 0.000000 0.000001 0.738725 -1.107350 -1.125201
 20 11.585355 0.000000 0.000000 0.000000 -0.000000 -1.867142
 21 10.127057 0.000000 0.000001 1.569752 -0.000000 -0.069778
time 23
  0 0.235347 -0.235347 -14.510686 -0.000000 0.270322 -1.570969
  1 0.000000 0.000000 0.000000 -1.570795 -1.570796 0.000000
  2 -0.000005 0.000007 3.713255 -3.368582 -0.221254 1.331540
  3 18.045721 0.000000 0.000000 0.000000 -0.000000 -1.349168
  4 17.597597 0.000000 0.000000 -0.205032 0.225938 -0.216505
  5 0.000005 -0.000003 -3.713255 6.216136 2.542639 5.445702
  6 18.045725 0.000000 0.000000 0.000000 -0.000000 -2.074575
  7 17.597597 0.000000 0.000000 -0.092081 0.087818 0.559914
  8 1.293670 0.684478 -0.000001 -0.000004 -0.000001 0.009520
  9 5.309685 -0.003834 0.000000 -0.156851 -0.006675 -0.043086
 10 4.826790 -0.004591 0.000000 -0.060968 -0.003140 -0.052244
 11 5.792767 -0.005304 0.000000 -0.087178 -0.002145 -0.025473
 12 6.662317 -0.001453 0.000000 0.000000 -0.000001 0.296580
 13 2.046985 -0.000002 0.000000 0.289431 0.097374 -0.526864
 14 -3.322968 0.958643 4.341911 0.870706 -1.143239 2.020442
 15 4.827230 0.000000 0.000001 -0.631359 -0.011361 -1.091089
 16 11.139763 0.000000 0.000000 0.000000 -0.000000 -1.630820
 17 10.314597 0.000001 0.000000 -0.172447 -0.528713 0.398563
 18 -3.065217 0.884022 -4.140396 -0.000013 1.312288 2.844080
 19 4.972048 0.000000 0.000001 0.756903 -1.114509 -1.140681
 20 11.585355 0.000000 0.000000 0.000000 -0.000000 -1.867142
 21 10.127057 0.000000 0.000001 1.569752 -0.000000 -0.069778
time 24
  0 0.235347 -0.235347 -14.510686 -0.000000 0.270322 -1.570969
  1 0.000000 0.000000 0.000000 -1.570795 -1.570796 0.000000
  2 -0.000005 0.000007 3.713255 -3.368582 -0.221254 1.331540
  3 18.045721 0.000000 0.000000 0.000000 -0.000000 -1.349168
  4 17.597597 0.000000 0.000000 -0.205032 0.225938 -0.216505
  5 0.000005 -0.000003 -3.713255 6.216136 2.542639 5.445702
  6 18.045725 0.000000 0.000000 0.000000 -0.000000 -2.074575
  7 17.597597 0.000000 0.000000 -0.092081 0.087818 0.559914
  8 1.293670 0.684478 -0.000001 -0.000004 -0.000001 0.009520
  9 5.309685 -0.003834 0.000000 -0.156851 -0.006675 -0.043086
 10 4.826790 -0.004591 0.000000 -0.060968 -0.003140 -0.052244
 11 5.792767 -0.005304 0.000000 -0.087178 -0.002433 -0.028712
 12 6.662317 -0.001453 0.000000 0.000000 -0.000001 0.296580
 13 2.046985 -0.000002 0.000000 0.289431 0.097374 -0.523627
 14 -3.322968 0.958643 4.341911 0.896975 -1.152932 1.991487
 15 4.827230 0.000000 0.000001 -0.644516 -0.001234 -1.090214
 16 11.139763 0.000000 0.000000 0.000000 -0.000000 -1.630820
 17 10.314597 0.000001 0.000000 -0.172447 -0.528713 0.398563
 18 -3.065217 0.884022 -4.140396 -0.000013 1.322774 2.844080
 19 4.972048 0.000000 0.000001 0.775855 -1.121588 -1.156885
 20 11.585355 0.000000 0.000000 0.000000 -0.000000 -1.867142
 21 10.127057 0.000000 0.000001 1.569752 -0.000000 -0.069778
time 25
  0 0.235347 -0.235347 -14.510686 -0.000000 0.270322 -1.570969
  1 0.000000 0.000000 0.000000 -1.570795 -1.570796 0.000000
  2 -0.000005 0.000007 3.713255 -3.368582 -0.221254 1.331540
  3 18.045721 0.000000 0.000000 0.000000 -0.000000 -1.349168
  4 17.597597 0.000000 0.000000 -0.205032 0.225938 -0.216505
  5 0.000005 -0.000003 -3.713255 6.216136 2.542639 5.445702
  6 18.045725 0.000000 0.000000 0.000000 -0.000000 -2.074575
  7 17.597597 0.000000 0.000000 -0.092081 0.087818 0.559914
  8 1.293670 0.684478 -0.000001 -0.000004 -0.000001 0.009520
  9 5.309685 -0.003834 0.000000 -0.156851 -0.006675 -0.043086
 10 4.826790 -0.004591 0.000000 -0.060968 -0.003140 -0.052244
 11 5.792767 -0.005304 0.000000 -0.087161 -0.002709 -0.031847
 12 6.662317 -0.001453 0.000000 0.000000 -0.000001 0.296580
 13 2.046985 -0.000002 0.000000 0.289431 0.097374 -0.520526
 14 -3.322968 0.958643 4.341911 0.924107 -1.162164 1.961957
 15 4.827230 0.000000 0.000001 -0.657379 0.008723 -1.089514
 16 11.139763 0.000000 0.000000 0.000000 -0.000000 -1.630820
 17 10.314597 0.000001 0.000000 -0.172447 -0.528713 0.398563
 18 -3.065217 0.884022 -4.140396 -0.000013 1.333034 2.844080
 19 4.972048 0.000000 0.000001 0.795039 -1.128425 -1.173353
 20 11.585355 0.000000 0.000000 0.000000 -0.000000 -1.867142
 21 10.127057 0.000000 0.000001 1.569752 -0.000000 -0.069778
time 26
  0 0.235347 -0.235347 -14.510686 -0.000000 0.270322 -1.570969
  1 0.000000 0.000000 0.000000 -1.570795 -1.570796 0.000000
  2 -0.000005 0.000007 3.713255 -3.368582 -0.221254 1.331540
  3 18.045721 0.000000 0.000000 0.000000 -0.000000 -1.349168
  4 17.597597 0.000000 0.000000 -0.205032 0.225938 -0.216505
  5 0.000005 -0.000003 -3.713255 6.216136 2.542639 5.445702
  6 18.045725 0.000000 0.000000 0.000000 -0.000000 -2.074575
  7 17.597597 0.000000 0.000000 -0.092081 0.087818 0.559914
  8 1.293670 0.684478 -0.000001 -0.000004 -0.000001 0.009520
  9 5.309685 -0.003834 0.000000 -0.156851 -0.006675 -0.043086
 10 4.826790 -0.004591 0.000000 -0.060968 -0.003140 -0.052244
 11 5.792767 -0.005304 0.000000 -0.087161 -0.002960 -0.034837
 12 6.662317 -0.001453 0.000000 0.000000 -0.000001 0.296580
 13 2.046985 -0.000002 0.000000 0.289431 0.097374 -0.517469
 14 -3.322968 0.958643 4.341911 0.950855 -1.170626 1.932715
 15 4.827230 0.000000 0.000001 -0.669655 0.018254 -1.088901
 16 11.139763 0.000000 0.000000 0.000000 -0.000000 -1.630820
 17 10.314597 0.000001 0.000000 -0.172447 -0.528713 0.398563
 18 -3.065217 0.884022 -4.140396 -0.000013 1.342785 2.844080
 19 4.972048 0.000000 0.000001 0.813604 -1.134941 -1.189558
 20 11.585355 0.000000 0.000000 0.000000 -0.000000 -1.867142
 21 10.127057 0.000000 0.000001 1.569752 -0.000000 -0.069778
time 27
  0 0.235347 -0.235347 -14.510686 -0.000000 0.270322 -1.570969
  1 0.000000 0.000000 0.000000 -1.570795 -1.570796 0.000000
  2 -0.000005 0.000007 3.713255 -3.368582 -0.221254 1.331540
  3 18.045721 0.000000 0.000000 0.000000 -0.000000 -1.349168
  4 17.597597 0.000000 0.000000 -0.205032 0.225938 -0.216505
  5 0.000005 -0.000003 -3.713255 6.216136 2.542639 5.445702
  6 18.045725 0.000000 0.000000 0.000000 -0.000000 -2.074575
  7 17.597597 0.000000 0.000000 -0.092081 0.087818 0.559914
  8 1.293670 0.684478 -0.000001 -0.000004 -0.000001 0.009520
  9 5.309685 -0.003834 0.000000 -0.156851 -0.006675 -0.043086
 10 4.826790 -0.004591 0.000000 -0.060968 -0.003140 -0.052244
 11 5.792767 -0.005304 0.000000 -0.087145 -0.003212 -0.037577
 12 6.662317 -0.001453 0.000000 0.000000 -0.000001 0.296580
 13 2.046985 -0.000002 0.000000 0.289431 0.097374 -0.514728
 14 -3.322968 0.958643 4.341911 0.976645 -1.178088 1.904815
 15 4.827230 0.000000 0.000001 -0.680815 0.026934 -1.088551
 16 11.139763 0.000000 0.000000 0.000000 -0.000000 -1.630820
 17 10.314597 0.000001 0.000000 -0.172447 -0.528713 0.398563
 18 -3.065217 0.884022 -4.140396 -0.000013 1.351773 2.844080
 19 4.972048 0.000000 0.000001 0.831241 -1.140733 -1.204841
 20 11.585355 0.000000 0.000000 0.000000 -0.000000 -1.867142
 21 10.127057 0.000000 0.000001 1.569752 -0.000000 -0.069778
time 28
  0 0.235347 -0.235347 -14.510686 -0.000000 0.270322 -1.570969
  1 0.000000 0.000000 0.000000 -1.570795 -1.570796 0.000000
  2 -0.000005 0.000007 3.713255 -3.368582 -0.221254 1.331540
  3 18.045721 0.000000 0.000000 0.000000 -0.000000 -1.349168
  4 17.597597 0.000000 0.000000 -0.205032 0.225938 -0.216505
  5 0.000005 -0.000003 -3.713255 6.216136 2.542639 5.445702
  6 18.045725 0.000000 0.000000 0.000000 -0.000000 -2.074575
  7 17.597597 0.000000 0.000000 -0.092081 0.087818 0.559914
  8 1.293670 0.684478 -0.000001 -0.000004 -0.000001 0.009520
  9 5.309685 -0.003834 0.000000 -0.156851 -0.006675 -0.043086
 10 4.826790 -0.004591 0.000000 -0.060968 -0.003140 -0.052244
 11 5.792767 -0.005304 0.000000 -0.087145 -0.003428 -0.040007
 12 6.662317 -0.001453 0.000000 0.000000 -0.000001 0.296580
 13 2.046985 -0.000002 0.000000 0.289431 0.097374 -0.512300
 14 -3.322968 0.958643 4.341911 0.999942 -1.184397 1.879600
 15 4.827230 0.000000 0.000001 -0.690624 0.034593 -1.088376
 16 11.139763 0.000000 0.000000 0.000000 -0.000000 -1.630820
 17 10.314597 0.000001 0.000000 -0.172447 -0.528713 0.398563
 18 -3.065217 0.884022 -4.140396 -0.000013 1.359659 2.844080
 19 4.972048 0.000000 0.000001 0.846944 -1.145720 -1.218740
 20 11.585355 0.000000 0.000000 0.000000 -0.000000 -1.867142
 21 10.127057 0.000000 0.000001 1.569752 -0.000000 -0.069778
time 29
  0 0.235347 -0.235347 -14.510686 -0.000000 0.270322 -1.570969
  1 0.000000 0.000000 0.000000 -1.570795 -1.570796 0.000000
  2 -0.000005 0.000007 3.713255 -3.368582 -0.221254 1.331540
  3 18.045721 0.000000 0.000000 0.000000 -0.000000 -1.349168
  4 17.597597 0.000000 0.000000 -0.205032 0.225938 -0.216505
  5 0.000005 -0.000003 -3.713255 6.216136 2.542639 5.445702
  6 18.045725 0.000000 0.000000 0.000000 -0.000000 -2.074575
  7 17.597597 0.000000 0.000000 -0.092081 0.087818 0.559914
  8 1.293670 0.684478 -0.000001 -0.000004 -0.000001 0.009520
  9 5.309685 -0.003834 0.000000 -0.156851 -0.006675 -0.043086
 10 4.826790 -0.004591 0.000000 -0.060968 -0.003140 -0.052244
 11 5.792767 -0.005304 0.000000 -0.087145 -0.003583 -0.041958
 12 6.662317 -0.001453 0.000000 0.000000 -0.000001 0.296580
 13 2.046985 -0.000002 0.000000 0.289431 0.097374 -0.510323
 14 -3.322968 0.958643 4.341911 1.019692 -1.189435 1.858220
 15 4.827230 0.000000 0.000001 -0.698671 0.040976 -1.088201
 16 11.139763 0.000000 0.000000 0.000000 -0.000000 -1.630820
 17 10.314597 0.000001 0.000000 -0.172447 -0.528713 0.398563
 18 -3.065217 0.884022 -4.140396 -0.000013 1.366103 2.844080
 19 4.972048 0.000000 0.000001 0.860172 -1.149742 -1.230267
 20 11.585355 0.000000 0.000000 0.000000 -0.000000 -1.867142
 21 10.127057 0.000000 0.000001 1.569752 -0.000000 -0.069778
time 30
  0 0.235347 -0.235347 -14.510686 -0.000000 0.270322 -1.570969
  1 0.000000 0.000000 0.000000 -1.570795 -1.570796 0.000000
  2 -0.000005 0.000007 3.713255 -3.368582 -0.221254 1.331540
  3 18.045721 0.000000 0.000000 0.000000 -0.000000 -1.349168
  4 17.597597 0.000000 0.000000 -0.205032 0.225938 -0.216505
  5 0.000005 -0.000003 -3.713255 6.216136 2.542639 5.445702
  6 18.045725 0.000000 0.000000 0.000000 -0.000000 -2.074575
  7 17.597597 0.000000 0.000000 -0.092081 0.087818 0.559914
  8 1.293670 0.684478 -0.000001 -0.000004 -0.000001 0.009520
  9 5.309685 -0.003834 0.000000 -0.156851 -0.006675 -0.043086
 10 4.826790 -0.004591 0.000000 -0.060968 -0.003140 -0.052244
 11 5.792767 -0.005304 0.000000 -0.087129 -0.003715 -0.043412
 12 6.662317 -0.001453 0.000000 0.000000 -0.000001 0.296580
 13 2.046985 -0.000002 0.000000 0.289431 0.097374 -0.508839
 14 -3.322968 0.958643 4.341911 1.034649 -1.193013 1.842208
 15 4.827230 0.000000 0.000001 -0.704662 0.045486 -1.088201
 16 11.139763 0.000000 0.000000 0.000000 -0.000000 -1.630820
 17 10.314597 0.000001 0.000000 -0.172447 -0.528713 0.398563
 18 -3.065217 0.884022 -4.140396 -0.000013 1.370795 2.844080
 19 4.972048 0.000000 0.000001 0.869996 -1.152638 -1.238962
 20 11.585355 0.000000 0.000000 0.000000 -0.000000 -1.867142
 21 10.127057 0.000000 0.000001 1.569752 -0.000000 -0.069778
end
