version 1
nodes
  0 "Bip01"  -1
  1 "Bip01 Pelvis"   0
  2 "Bip01 L Leg"   1
  3 "Bip01 L Leg1"   2
  4 "Bip01 L Foot"   3
  5 "Bip01 R Leg"   1
  6 "Bip01 R Leg1"   5
  7 "Bip01 R Foot"   6
  8 "Bip01 Spine"   1
  9 "Bip01 Spine1"   8
 10 "Bip01 Spine2"   9
 11 "Bip01 Spine3"  10
 12 "Bip01 Neck"  11
 13 "Bip01 Head"  12
 14 "Bip01 L Arm"  12
 15 "Bip01 L Arm1"  14
 16 "Bip01 L Arm2"  15
 17 "Bip01 L Hand"  16
 18 "Bip01 R Arm"  12
 19 "Bip01 R Arm1"  18
 20 "Bip01 R Arm2"  19
 21 "Bip01 R Hand"  20
end
skeleton
time 0
  0 -0.127945 0.127945 3.278919 -0.045585 0.257873 -1.602607
  1 0.000000 0.000000 0.000000 -1.570795 -1.570796 0.000000
  2 -0.000005 0.000007 3.713255 -3.368582 -0.221254 1.331540
  3 18.045721 0.000000 0.000000 0.000000 -0.000000 -1.349168
  4 17.597597 0.000000 0.000000 -0.205032 0.225938 -0.216505
  5 0.000005 -0.000003 -3.713255 6.216136 2.542639 5.445702
  6 18.045725 0.000000 0.000000 0.000000 -0.000000 -2.074575
  7 17.597597 0.000000 0.000000 -0.092081 0.087818 0.559914
  8 1.293670 0.684478 -0.000001 -0.000004 -0.000001 0.358403
  9 5.309685 -0.003834 0.000000 -0.031855 0.014202 0.418407
 10 4.826790 -0.004591 0.000000 -0.143265 0.038339 0.258901
 11 5.792767 -0.005304 0.000000 0.000000 -0.000000 0.122088
 12 6.662317 -0.001453 0.000000 0.000000 -0.000001 0.471000
 13 2.046985 -0.000002 0.000000 0.174184 0.048113 -1.201304
 14 -3.112024 1.517254 4.341911 -0.041815 -1.370643 2.710749
 15 4.827230 0.000000 0.000001 -0.929269 0.689358 -0.793201
 16 11.139763 0.000000 0.000000 0.000000 -0.000000 -1.026381
 17 10.314597 0.000001 0.000000 -1.626984 0.320798 -0.018694
 18 -2.869898 1.399663 -4.140396 -0.000013 1.370795 2.669783
 19 4.972048 0.000000 0.000001 0.886782 0.043761 -1.409111
 20 11.585355 0.000000 0.000000 0.000000 -0.000000 -1.370169
 21 10.127057 0.000000 0.000001 2.180527 -0.000000 -0.069778
time 1
  0 -0.127945 0.127945 3.255481 -0.045585 0.257873 -1.602607
  1 0.000000 0.000000 0.000000 -1.570795 -1.570796 0.000000
  2 -0.000005 0.000007 3.713255 -3.368486 -0.221350 1.330198
  3 18.045721 0.000000 0.000000 0.000000 -0.000000 -1.350504
  4 17.597597 0.000000 0.000000 -0.205235 0.226084 -0.216551
  5 0.000005 -0.000003 -3.713255 6.215369 2.542255 5.445510
  6 18.045725 0.000000 0.000000 0.000000 -0.000000 -2.075879
  7 17.597597 0.000000 0.000000 -0.092444 0.088488 0.560944
  8 1.293670 0.684478 -0.000001 -0.000004 -0.000001 0.358403
  9 5.309685 -0.003834 0.000000 -0.031855 0.014202 0.418407
 10 4.826790 -0.004591 0.000000 -0.143265 0.038339 0.258901
 11 5.792767 -0.005304 0.000000 0.000000 -0.000000 0.126096
 12 6.662317 -0.001453 0.000000 0.000000 -0.000001 0.471000
 13 2.046985 -0.000002 0.000000 0.174184 0.048113 -1.205304
 14 -3.112024 1.517254 4.341911 -0.010656 -1.370797 2.680261
 15 4.827230 0.000000 0.000001 -0.934027 0.685699 -0.791013
 16 11.139763 0.000000 0.000000 0.000000 -0.000000 -1.026381
 17 10.314597 0.000001 0.000000 -1.626984 0.320798 -0.018694
 18 -2.869898 1.399663 -4.140396 -0.040280 1.370682 2.630283
 19 4.972048 0.000000 0.000001 0.887555 0.049311 -1.402063
 20 11.585355 0.000000 0.000000 0.000000 -0.000000 -1.370169
 21 10.127057 0.000000 0.000001 2.180527 -0.000000 -0.069778
time 2
  0 -0.127945 0.127945 3.224230 -0.045585 0.257873 -1.602607
  1 0.000000 0.000000 0.000000 -1.570795 -1.570796 0.000000
  2 -0.000005 0.000007 3.713255 -3.368198 -0.221542 1.328280
  3 18.045721 0.000000 0.000000 0.000000 -0.000000 -1.352359
  4 17.597597 0.000000 0.000000 -0.205488 0.226279 -0.216551
  5 0.000005 -0.000003 -3.713255 6.214219 2.541680 5.445127
  6 18.045725 0.000000 0.000000 0.000000 -0.000000 -2.077545
  7 17.597597 0.000000 0.000000 -0.092922 0.089415 0.562421
  8 1.293670 0.684478 -0.000001 -0.000004 -0.000001 0.358403
  9 5.309685 -0.003834 0.000000 -0.031855 0.014202 0.418407
 10 4.826790 -0.004591 0.000000 -0.143265 0.038339 0.258901
 11 5.792767 -0.005304 0.000000 0.000000 -0.000000 0.131577
 12 6.662317 -0.001453 0.000000 0.000000 -0.000001 0.471000
 13 2.046985 -0.000002 0.000000 0.174184 0.048113 -1.210743
 14 -3.112024 1.517254 4.341911 0.031528 -1.370720 2.638746
 15 4.827230 0.000000 0.000001 -0.940371 0.680763 -0.787775
 16 11.139763 0.000000 0.000000 0.000000 -0.000000 -1.026381
 17 10.314597 0.000001 0.000000 -1.626984 0.320798 -0.018694
 18 -2.869898 1.399663 -4.140396 -0.094927 1.369947 2.576690
 19 4.972048 0.000000 0.000001 0.888793 0.056712 -1.392380
 20 11.585355 0.000000 0.000000 0.000000 -0.000000 -1.370169
 21 10.127057 0.000000 0.000001 2.180527 -0.000000 -0.069778
time 3
  0 -0.127945 0.127945 3.181260 -0.045585 0.257873 -1.602607
  1 0.000000 0.000000 0.000000 -1.570795 -1.570796 0.000000
  2 -0.000005 0.000007 3.713255 -3.368006 -0.221733 1.326075
  3 18.045721 0.000000 0.000000 0.000000 -0.000000 -1.354660
  4 17.597597 0.000000 0.000000 -0.205818 0.226498 -0.216596
  5 0.000005 -0.000003 -3.713255 6.212876 2.541105 5.444647
  6 18.045725 0.000000 0.000000 0.000000 -0.000000 -2.079646
  7 17.597597 0.000000 0.000000 -0.093516 0.090540 0.564138
  8 1.293670 0.684478 -0.000001 -0.000004 -0.000001 0.358403
  9 5.309685 -0.003834 0.000000 -0.031855 0.014202 0.418407
 10 4.826790 -0.004591 0.000000 -0.143265 0.038339 0.258901
 11 5.792767 -0.005304 0.000000 0.000000 -0.000000 0.138200
 12 6.662317 -0.001453 0.000000 0.000000 -0.000001 0.471000
 13 2.046985 -0.000002 0.000000 0.174184 0.048113 -1.217395
 14 -3.112024 1.517254 4.341911 0.083204 -1.370143 2.588315
 15 4.827230 0.000000 0.000001 -0.948006 0.674721 -0.783837
 16 11.139763 0.000000 0.000000 0.000000 -0.000000 -1.026381
 17 10.314597 0.000001 0.000000 -1.626984 0.320798 -0.018694
 18 -2.869898 1.399663 -4.140396 -0.160792 1.368251 2.512264
 19 4.972048 0.000000 0.000001 0.890340 0.065721 -1.380522
 20 11.585355 0.000000 0.000000 0.000000 -0.000000 -1.370169
 21 10.127057 0.000000 0.000001 2.180527 -0.000000 -0.069778
time 4
  0 -0.127945 0.127945 3.130477 -0.045585 0.257873 -1.602607
  1 0.000000 0.000000 0.000000 -1.570795 -1.570796 0.000000
  2 -0.000005 0.000007 3.713255 -3.367719 -0.221925 1.323390
  3 18.045721 0.000000 0.000000 0.000000 -0.000000 -1.357257
  4 17.597597 0.000000 0.000000 -0.206198 0.226790 -0.216688
  5 0.000005 -0.000003 -3.713255 6.211438 2.540338 5.444168
  6 18.045725 0.000000 0.000000 0.000000 -0.000000 -2.082036
  7 17.597597 0.000000 0.000000 -0.094192 0.091822 0.566095
  8 1.293670 0.684478 -0.000001 -0.000004 -0.000001 0.358403
  9 5.309685 -0.003834 0.000000 -0.031855 0.014202 0.418407
 10 4.826790 -0.004591 0.000000 -0.143265 0.038339 0.258901
 11 5.792767 -0.005304 0.000000 0.000000 -0.000000 0.145779
 12 6.662317 -0.001453 0.000000 0.000000 -0.000001 0.471000
 13 2.046985 -0.000002 0.000000 0.174184 0.048113 -1.224946
 14 -3.112024 1.517254 4.341911 0.141591 -1.368835 2.531077
 15 4.827230 0.000000 0.000001 -0.956817 0.667743 -0.779374
 16 11.139763 0.000000 0.000000 0.000000 -0.000000 -1.026381
 17 10.314597 0.000001 0.000000 -1.626984 0.320798 -0.018694
 18 -2.869898 1.399663 -4.140396 -0.234423 1.365340 2.440167
 19 4.972048 0.000000 0.000001 0.892042 0.076098 -1.367085
 20 11.585355 0.000000 0.000000 0.000000 -0.000000 -1.370169
 21 10.127057 0.000000 0.000001 2.180527 -0.000000 -0.069778
time 5
  0 -0.127945 0.127945 3.083601 -0.045585 0.257873 -1.602607
  1 0.000000 0.000000 0.000000 -1.570795 -1.570796 0.000000
  2 -0.000005 0.000007 3.713255 -3.367335 -0.222117 1.320610
  3 18.045721 0.000000 0.000000 0.000000 -0.000000 -1.360077
  4 17.597597 0.000000 0.000000 -0.206553 0.227082 -0.216734
  5 0.000005 -0.000003 -3.713255 6.209713 2.539571 5.443688
  6 18.045725 0.000000 0.000000 0.000000 -0.000000 -2.084645
  7 17.597597 0.000000 0.000000 -0.094967 0.093222 0.568293
  8 1.293670 0.684478 -0.000001 -0.000004 -0.000001 0.358403
  9 5.309685 -0.003834 0.000000 -0.031855 0.014202 0.418407
 10 4.826790 -0.004591 0.000000 -0.143265 0.038339 0.258901
 11 5.792767 -0.005304 0.000000 0.000000 -0.000000 0.154084
 12 6.662317 -0.001453 0.000000 0.000000 -0.000001 0.471000
 13 2.046985 -0.000002 0.000000 0.174184 0.048113 -1.233216
 14 -3.112024 1.517254 4.341911 0.204100 -1.366681 2.469908
 15 4.827230 0.000000 0.000001 -0.966156 0.659913 -0.774211
 16 11.139763 0.000000 0.000000 0.000000 -0.000000 -1.026381
 17 10.314597 0.000001 0.000000 -1.626984 0.320798 -0.018694
 18 -2.869898 1.399663 -4.140396 -0.311793 1.360959 2.364331
 19 4.972048 0.000000 0.000001 0.894053 0.087199 -1.352263
 20 11.585355 0.000000 0.000000 0.000000 -0.000000 -1.370169
 21 10.127057 0.000000 0.000001 2.180527 -0.000000 -0.069778
time 6
  0 -0.127945 0.127945 3.025005 -0.045585 0.257873 -1.602607
  1 0.000000 0.000000 0.000000 -1.570795 -1.570796 0.000000
  2 -0.000005 0.000007 3.713255 -3.367048 -0.222404 1.317542
  3 18.045721 0.000000 0.000000 0.000000 -0.000000 -1.362897
  4 17.597597 0.000000 0.000000 -0.206984 0.227423 -0.216734
  5 0.000005 -0.000003 -3.713255 6.207987 2.538708 5.443113
  6 18.045725 0.000000 0.000000 0.000000 -0.000000 -2.087398
  7 17.597597 0.000000 0.000000 -0.095742 0.094682 0.570525
  8 1.293670 0.684478 -0.000001 -0.000004 -0.000001 0.358403
  9 5.309685 -0.003834 0.000000 -0.031855 0.014202 0.418407
 10 4.826790 -0.004591 0.000000 -0.143265 0.038339 0.258901
 11 5.792767 -0.005304 0.000000 0.000000 -0.000000 0.162763
 12 6.662317 -0.001453 0.000000 0.000000 -0.000001 0.471000
 13 2.046985 -0.000002 0.000000 0.174184 0.048113 -1.241936
 14 -3.112024 1.517254 4.341911 0.268047 -1.363604 2.407206
 15 4.827230 0.000000 0.000001 -0.975906 0.651914 -0.768785
 16 11.139763 0.000000 0.000000 0.000000 -0.000000 -1.026381
 17 10.314597 0.000001 0.000000 -1.626984 0.320798 -0.018694
 18 -2.869898 1.399663 -4.140396 -0.389450 1.355108 2.288592
 19 4.972048 0.000000 0.000001 0.896142 0.099104 -1.336783
 20 11.585355 0.000000 0.000000 0.000000 -0.000000 -1.370169
 21 10.127057 0.000000 0.000001 2.180527 -0.000000 -0.069778
time 7
  0 -0.127945 0.127945 2.970316 -0.045585 0.257873 -1.602607
  1 0.000000 0.000000 0.000000 -1.570795 -1.570796 0.000000
  2 -0.000005 0.000007 3.713255 -3.366664 -0.222692 1.314474
  3 18.045721 0.000000 0.000000 0.000000 -0.000000 -1.365940
  4 17.597597 0.000000 0.000000 -0.207415 0.227715 -0.216779
  5 0.000005 -0.000003 -3.713255 6.206261 2.537941 5.442538
  6 18.045725 0.000000 0.000000 0.000000 -0.000000 -2.090223
  7 17.597597 0.000000 0.000000 -0.096550 0.096180 0.572826
  8 1.293670 0.684478 -0.000001 -0.000004 -0.000001 0.358403
  9 5.309685 -0.003834 0.000000 -0.031855 0.014202 0.418407
 10 4.826790 -0.004591 0.000000 -0.143265 0.038339 0.258901
 11 5.792767 -0.005304 0.000000 0.000000 -0.000000 0.171628
 12 6.662317 -0.001453 0.000000 0.000000 -0.000001 0.471000
 13 2.046985 -0.000002 0.000000 0.174184 0.048113 -1.250836
 14 -3.112024 1.517254 4.341911 0.331228 -1.359642 2.345366
 15 4.827230 0.000000 0.000001 -0.985774 0.643574 -0.762922
 16 11.139763 0.000000 0.000000 0.000000 -0.000000 -1.026381
 17 10.314597 0.000001 0.000000 -1.626984 0.320798 -0.018694
 18 -2.869898 1.399663 -4.140396 -0.463847 1.347901 2.215728
 19 4.972048 0.000000 0.000001 0.898230 0.111090 -1.320974
 20 11.585355 0.000000 0.000000 0.000000 -0.000000 -1.370169
 21 10.127057 0.000000 0.000001 2.180527 -0.000000 -0.069778
time 8
  0 -0.127945 0.127945 2.915627 -0.045585 0.257873 -1.602607
  1 0.000000 0.000000 0.000000 -1.570795 -1.570796 0.000000
  2 -0.000005 0.000007 3.713255 -3.366281 -0.222884 1.311502
  3 18.045721 0.000000 0.000000 0.000000 -0.000000 -1.368834
  4 17.597597 0.000000 0.000000 -0.207846 0.228056 -0.216917
  5 0.000005 -0.000003 -3.713255 6.204439 2.537078 5.442059
  6 18.045725 0.000000 0.000000 0.000000 -0.000000 -2.092976
  7 17.597597 0.000000 0.000000 -0.097325 0.097660 0.575161
  8 1.293670 0.684478 -0.000001 -0.000004 -0.000001 0.358403
  9 5.309685 -0.003834 0.000000 -0.031855 0.014202 0.418407
 10 4.826790 -0.004591 0.000000 -0.143265 0.038339 0.258901
 11 5.792767 -0.005304 0.000000 0.000000 -0.000000 0.180432
 12 6.662317 -0.001453 0.000000 0.000000 -0.000001 0.471000
 13 2.046985 -0.000002 0.000000 0.174184 0.048113 -1.259646
 14 -3.112024 1.517254 4.341911 0.391436 -1.354949 2.286594
 15 4.827230 0.000000 0.000001 -0.995348 0.635319 -0.757146
 16 11.139763 0.000000 0.000000 0.000000 -0.000000 -1.026381
 17 10.314597 0.000001 0.000000 -1.626984 0.320798 -0.018694
 18 -2.869898 1.399663 -4.140396 -0.532972 1.339676 2.148713
 19 4.972048 0.000000 0.000001 0.900396 0.122995 -1.305164
 20 11.585355 0.000000 0.000000 0.000000 -0.000000 -1.370169
 21 10.127057 0.000000 0.000001 2.180527 -0.000000 -0.069778
time 9
  0 -0.127945 0.127945 2.864844 -0.045585 0.257873 -1.602607
  1 0.000000 0.000000 0.000000 -1.570795 -1.570796 0.000000
  2 -0.000005 0.000007 3.713255 -3.365993 -0.223171 1.308625
  3 18.045721 0.000000 0.000000 0.000000 -0.000000 -1.371728
  4 17.597597 0.000000 0.000000 -0.208277 0.228348 -0.216963
  5 0.000005 -0.000003 -3.713255 6.202809 2.536311 5.441483
  6 18.045725 0.000000 0.000000 0.000000 -0.000000 -2.095584
  7 17.597597 0.000000 0.000000 -0.098100 0.099100 0.577359
  8 1.293670 0.684478 -0.000001 -0.000004 -0.000001 0.358403
  9 5.309685 -0.003834 0.000000 -0.031855 0.014202 0.418407
 10 4.826790 -0.004591 0.000000 -0.143265 0.038339 0.258901
 11 5.792767 -0.005304 0.000000 0.000000 -0.000000 0.188861
 12 6.662317 -0.001453 0.000000 0.000000 -0.000001 0.471000
 13 2.046985 -0.000002 0.000000 0.174184 0.048113 -1.268051
 14 -3.112024 1.517254 4.341911 0.446659 -1.349718 2.232711
 15 4.827230 0.000000 0.000001 -1.004511 0.627405 -0.751458
 16 11.139763 0.000000 0.000000 0.000000 -0.000000 -1.026381
 17 10.314597 0.000001 0.000000 -1.626984 0.320798 -0.018694
 18 -2.869898 1.399663 -4.140396 -0.594523 1.330801 2.088600
 19 4.972048 0.000000 0.000001 0.902562 0.134418 -1.290014
 20 11.585355 0.000000 0.000000 0.000000 -0.000000 -1.370169
 21 10.127057 0.000000 0.000001 2.180527 -0.000000 -0.069778
time 10
  0 -0.127945 0.127945 2.814061 -0.045585 0.257873 -1.602607
  1 0.000000 0.000000 0.000000 -1.570795 -1.570796 0.000000
  2 -0.000005 0.000007 3.713255 -3.365705 -0.223363 1.305941
  3 18.045721 0.000000 0.000000 0.000000 -0.000000 -1.374400
  4 17.597597 0.000000 0.000000 -0.208657 0.228640 -0.216963
  5 0.000005 -0.000003 -3.713255 6.201180 2.535544 5.441004
  6 18.045725 0.000000 0.000000 0.000000 -0.000000 -2.098047
  7 17.597597 0.000000 0.000000 -0.098809 0.100421 0.579385
  8 1.293670 0.684478 -0.000001 -0.000004 -0.000001 0.358403
  9 5.309685 -0.003834 0.000000 -0.031855 0.014202 0.418407
 10 4.826790 -0.004591 0.000000 -0.143265 0.038339 0.258901
 11 5.792767 -0.005304 0.000000 0.000000 -0.000000 0.196731
 12 6.662317 -0.001453 0.000000 0.000000 -0.000001 0.471000
 13 2.046985 -0.000002 0.000000 0.174184 0.048113 -1.275917
 14 -3.112024 1.517254 4.341911 0.495458 -1.344333 2.184965
 15 4.827230 0.000000 0.000001 -1.012910 0.619916 -0.745945
 16 11.139763 0.000000 0.000000 0.000000 -0.000000 -1.026381
 17 10.314597 0.000001 0.000000 -1.626984 0.320798 -0.018694
 18 -2.869898 1.399663 -4.140396 -0.647732 1.321898 2.037021
 19 4.972048 0.000000 0.000001 0.904651 0.145036 -1.275983
 20 11.585355 0.000000 0.000000 0.000000 -0.000000 -1.370169
 21 10.127057 0.000000 0.000001 2.180527 -0.000000 -0.069778
time 11
  0 -0.127945 0.127945 2.771091 -0.045585 0.257873 -1.602607
  1 0.000000 0.000000 0.000000 -1.570795 -1.570796 0.000000
  2 -0.000005 0.000007 3.713255 -3.365418 -0.223555 1.303544
  3 18.045721 0.000000 0.000000 0.000000 -0.000000 -1.376700
  4 17.597597 0.000000 0.000000 -0.209012 0.228859 -0.217008
  5 0.000005 -0.000003 -3.713255 6.199837 2.534873 5.440525
  6 18.045725 0.000000 0.000000 0.000000 -0.000000 -2.100293
  7 17.597597 0.000000 0.000000 -0.099419 0.101585 0.581205
  8 1.293670 0.684478 -0.000001 -0.000004 -0.000001 0.358403
  9 5.309685 -0.003834 0.000000 -0.031855 0.014202 0.418407
 10 4.826790 -0.004591 0.000000 -0.143265 0.038339 0.258901
 11 5.792767 -0.005304 0.000000 0.000000 -0.000000 0.203728
 12 6.662317 -0.001453 0.000000 0.000000 -0.000001 0.471000
 13 2.046985 -0.000002 0.000000 0.174184 0.048113 -1.282929
 14 -3.112024 1.517254 4.341911 0.537259 -1.339102 2.144409
 15 4.827230 0.000000 0.000001 -1.020311 0.613278 -0.741044
 16 11.139763 0.000000 0.000000 0.000000 -0.000000 -1.026381
 17 10.314597 0.000001 0.000000 -1.626984 0.320798 -0.018694
 18 -2.869898 1.399663 -4.140396 -0.692026 1.313334 1.994069
 19 4.972048 0.000000 0.000001 0.906430 0.154367 -1.263269
 20 11.585355 0.000000 0.000000 0.000000 -0.000000 -1.370169
 21 10.127057 0.000000 0.000001 2.180527 -0.000000 -0.069778
time 12
  0 -0.127945 0.127945 2.735934 -0.045585 0.257873 -1.602607
  1 0.000000 0.000000 0.000000 -1.570795 -1.570796 0.000000
  2 -0.000005 0.000007 3.713255 -3.365130 -0.223746 1.301531
  3 18.045721 0.000000 0.000000 0.000000 -0.000000 -1.378704
  4 17.597597 0.000000 0.000000 -0.209291 0.229078 -0.217100
  5 0.000005 -0.000003 -3.713255 6.198591 2.534298 5.440141
  6 18.045725 0.000000 0.000000 0.000000 -0.000000 -2.102104
  7 17.597597 0.000000 0.000000 -0.099980 0.102591 0.582750
  8 1.293670 0.684478 -0.000001 -0.000004 -0.000001 0.358403
  9 5.309685 -0.003834 0.000000 -0.031855 0.014202 0.418407
 10 4.826790 -0.004591 0.000000 -0.143265 0.038339 0.258901
 11 5.792767 -0.005304 0.000000 0.000000 -0.000000 0.209604
 12 6.662317 -0.001453 0.000000 0.000000 -0.000001 0.471000
 13 2.046985 -0.000002 0.000000 0.174184 0.048113 -1.288772
 14 -3.112024 1.517254 4.341911 0.570719 -1.334409 2.111812
 15 4.827230 0.000000 0.000001 -1.026537 0.607747 -0.736931
 16 11.139763 0.000000 0.000000 0.000000 -0.000000 -1.026381
 17 10.314597 0.000001 0.000000 -1.626984 0.320798 -0.018694
 18 -2.869898 1.399663 -4.140396 -0.727211 1.305844 1.960226
 19 4.972048 0.000000 0.000001 0.907977 0.162331 -1.252730
 20 11.585355 0.000000 0.000000 0.000000 -0.000000 -1.370169
 21 10.127057 0.000000 0.000001 2.180527 -0.000000 -0.069778
time 13
  0 -0.127945 0.127945 2.704683 -0.045585 0.257873 -1.602607
  1 0.000000 0.000000 0.000000 -1.570795 -1.570796 0.000000
  2 -0.000005 0.000007 3.713255 -3.365034 -0.223842 1.299901
  3 18.045721 0.000000 0.000000 0.000000 -0.000000 -1.380337
  4 17.597597 0.000000 0.000000 -0.209519 0.229249 -0.217146
  5 0.000005 -0.000003 -3.713255 6.197728 2.533915 5.439853
  6 18.045725 0.000000 0.000000 0.000000 -0.000000 -2.103553
  7 17.597597 0.000000 0.000000 -0.100392 0.103340 0.583918
  8 1.293670 0.684478 -0.000001 -0.000004 -0.000001 0.358403
  9 5.309685 -0.003834 0.000000 -0.031855 0.014202 0.418407
 10 4.826790 -0.004591 0.000000 -0.143265 0.038339 0.258901
 11 5.792767 -0.005304 0.000000 0.000000 -0.000000 0.214130
 12 6.662317 -0.001453 0.000000 0.000000 -0.000001 0.471000
 13 2.046985 -0.000002 0.000000 0.174184 0.048113 -1.293267
 14 -3.112024 1.517254 4.341911 0.595646 -1.330640 2.087555
 15 4.827230 0.000000 0.000001 -1.031236 0.603321 -0.733693
 16 11.139763 0.000000 0.000000 0.000000 -0.000000 -1.026381
 17 10.314597 0.000001 0.000000 -1.626984 0.320798 -0.018694
 18 -2.869898 1.399663 -4.140396 -0.752713 1.299852 1.935587
 19 4.972048 0.000000 0.000001 0.909060 0.168525 -1.244562
 20 11.585355 0.000000 0.000000 0.000000 -0.000000 -1.370169
 21 10.127057 0.000000 0.000001 2.180527 -0.000000 -0.069778
time 14
  0 -0.127945 0.127945 2.692964 -0.045585 0.257873 -1.602607
  1 0.000000 0.000000 0.000000 -1.570795 -1.570796 0.000000
  2 -0.000005 0.000007 3.713255 -3.364842 -0.223938 1.298942
  3 18.045721 0.000000 0.000000 0.000000 -0.000000 -1.381227
  4 17.597597 0.000000 0.000000 -0.209620 0.229346 -0.217146
  5 0.000005 -0.000003 -3.713255 6.197153 2.533627 5.439662
  6 18.045725 0.000000 0.000000 0.000000 -0.000000 -2.104495
  7 17.597597 0.000000 0.000000 -0.100656 0.103833 0.584639
  8 1.293670 0.684478 -0.000001 -0.000004 -0.000001 0.358403
  9 5.309685 -0.003834 0.000000 -0.031855 0.014202 0.418407
 10 4.826790 -0.004591 0.000000 -0.143265 0.038339 0.258901
 11 5.792767 -0.005304 0.000000 0.000000 -0.000000 0.217016
 12 6.662317 -0.001453 0.000000 0.000000 -0.000001 0.471000
 13 2.046985 -0.000002 0.000000 0.174184 0.048113 -1.296188
 14 -3.112024 1.517254 4.341911 0.611369 -1.328140 2.072502
 15 4.827230 0.000000 0.000001 -1.034349 0.600598 -0.731593
 16 11.139763 0.000000 0.000000 0.000000 -0.000000 -1.026381
 17 10.314597 0.000001 0.000000 -1.626984 0.320798 -0.018694
 18 -2.869898 1.399663 -4.140396 -0.768628 1.295923 1.920247
 19 4.972048 0.000000 0.000001 0.909911 0.172386 -1.239292
 20 11.585355 0.000000 0.000000 0.000000 -0.000000 -1.370169
 21 10.127057 0.000000 0.000001 2.180527 -0.000000 -0.069778
time 15
  0 -0.127945 0.127945 2.685151 -0.045585 0.257873 -1.602607
  1 0.000000 0.000000 0.000000 -1.570795 -1.570796 0.000000
  2 -0.000005 0.000007 3.713255 -3.364842 -0.224034 1.298558
  3 18.045721 0.000000 0.000000 0.000000 -0.000000 -1.381524
  4 17.597597 0.000000 0.000000 -0.209671 0.229395 -0.217146
  5 0.000005 -0.000003 -3.713255 6.196865 2.533531 5.439566
  6 18.045725 0.000000 0.000000 0.000000 -0.000000 -2.104712
  7 17.597597 0.000000 0.000000 -0.100722 0.104011 0.584948
  8 1.293670 0.684478 -0.000001 -0.000004 -0.000001 0.358403
  9 5.309685 -0.003834 0.000000 -0.031855 0.014202 0.418407
 10 4.826790 -0.004591 0.000000 -0.143265 0.038339 0.258901
 11 5.792767 -0.005304 0.000000 0.000000 -0.000000 0.218054
 12 6.662317 -0.001453 0.000000 0.000000 -0.000001 0.471000
 13 2.046985 -0.000002 0.000000 0.174184 0.048113 -1.297222
 14 -3.112024 1.517254 4.341911 0.616738 -1.327255 2.067133
 15 4.827230 0.000000 0.000001 -1.035406 0.599577 -0.730718
 16 11.139763 0.000000 0.000000 0.000000 -0.000000 -1.026381
 17 10.314597 0.000001 0.000000 -1.626984 0.320798 -0.018694
 18 -2.869898 1.399663 -4.140396 -0.774189 1.294538 1.914878
 19 4.972048 0.000000 0.000001 0.910143 0.173834 -1.237382
 20 11.585355 0.000000 0.000000 0.000000 -0.000000 -1.370169
 21 10.127057 0.000000 0.000001 2.180527 -0.000000 -0.069778
time 16
  0 -0.127945 0.127945 2.692964 -0.045585 0.257873 -1.602607
  1 0.000000 0.000000 0.000000 -1.570795 -1.570796 0.000000
  2 -0.000005 0.000007 3.713255 -3.364842 -0.223938 1.298942
  3 18.045721 0.000000 0.000000 0.000000 -0.000000 -1.381227
  4 17.597597 0.000000 0.000000 -0.209620 0.229346 -0.217146
  5 0.000005 -0.000003 -3.713255 6.197153 2.533627 5.439662
  6 18.045725 0.000000 0.000000 0.000000 -0.000000 -2.104495
  7 17.597597 0.000000 0.000000 -0.100656 0.103833 0.584639
  8 1.293670 0.684478 -0.000001 -0.000004 -0.000001 0.358403
  9 5.309685 -0.003834 0.000000 -0.031855 0.014202 0.418407
 10 4.826790 -0.004591 0.000000 -0.143265 0.038339 0.258901
 11 5.792767 -0.005304 0.000000 0.000000 -0.000000 0.217016
 12 6.662317 -0.001453 0.000000 0.000000 -0.000001 0.471000
 13 2.046985 -0.000002 0.000000 0.174184 0.048113 -1.296188
 14 -3.112024 1.517254 4.341911 0.611369 -1.328140 2.072502
 15 4.827230 0.000000 0.000001 -1.034349 0.600598 -0.731593
 16 11.139763 0.000000 0.000000 0.000000 -0.000000 -1.026381
 17 10.314597 0.000001 0.000000 -1.626984 0.320798 -0.018694
 18 -2.869898 1.399663 -4.140396 -0.768628 1.295923 1.920247
 19 4.972048 0.000000 0.000001 0.909911 0.172386 -1.239292
 20 11.585355 0.000000 0.000000 0.000000 -0.000000 -1.370169
 21 10.127057 0.000000 0.000001 2.180527 -0.000000 -0.069778
time 17
  0 -0.127945 0.127945 2.704683 -0.045585 0.257873 -1.602607
  1 0.000000 0.000000 0.000000 -1.570795 -1.570796 0.000000
  2 -0.000005 0.000007 3.713255 -3.365034 -0.223842 1.299901
  3 18.045721 0.000000 0.000000 0.000000 -0.000000 -1.380337
  4 17.597597 0.000000 0.000000 -0.209519 0.229249 -0.217146
  5 0.000005 -0.000003 -3.713255 6.197728 2.533915 5.439853
  6 18.045725 0.000000 0.000000 0.000000 -0.000000 -2.103553
  7 17.597597 0.000000 0.000000 -0.100392 0.103340 0.583918
  8 1.293670 0.684478 -0.000001 -0.000004 -0.000001 0.358403
  9 5.309685 -0.003834 0.000000 -0.031855 0.014202 0.418407
 10 4.826790 -0.004591 0.000000 -0.143265 0.038339 0.258901
 11 5.792767 -0.005304 0.000000 0.000000 -0.000000 0.214130
 12 6.662317 -0.001453 0.000000 0.000000 -0.000001 0.471000
 13 2.046985 -0.000002 0.000000 0.174184 0.048113 -1.293267
 14 -3.112024 1.517254 4.341911 0.595646 -1.330640 2.087555
 15 4.827230 0.000000 0.000001 -1.031236 0.603321 -0.733693
 16 11.139763 0.000000 0.000000 0.000000 -0.000000 -1.026381
 17 10.314597 0.000001 0.000000 -1.626984 0.320798 -0.018694
 18 -2.869898 1.399663 -4.140396 -0.752713 1.299852 1.935587
 19 4.972048 0.000000 0.000001 0.909060 0.168525 -1.244562
 20 11.585355 0.000000 0.000000 0.000000 -0.000000 -1.370169
 21 10.127057 0.000000 0.000001 2.180527 -0.000000 -0.069778
time 18
  0 -0.127945 0.127945 2.735934 -0.045585 0.257873 -1.602607
  1 0.000000 0.000000 0.000000 -1.570795 -1.570796 0.000000
  2 -0.000005 0.000007 3.713255 -3.365130 -0.223746 1.301531
  3 18.045721 0.000000 0.000000 0.000000 -0.000000 -1.378704
  4 17.597597 0.000000 0.000000 -0.209291 0.229078 -0.217100
  5 0.000005 -0.000003 -3.713255 6.198591 2.534298 5.440141
  6 18.045725 0.000000 0.000000 0.000000 -0.000000 -2.102104
  7 17.597597 0.000000 0.000000 -0.099980 0.102591 0.582750
  8 1.293670 0.684478 -0.000001 -0.000004 -0.000001 0.358403
  9 5.309685 -0.003834 0.000000 -0.031855 0.014202 0.418407
 10 4.826790 -0.004591 0.000000 -0.143265 0.038339 0.258901
 11 5.792767 -0.005304 0.000000 0.000000 -0.000000 0.209604
 12 6.662317 -0.001453 0.000000 0.000000 -0.000001 0.471000
 13 2.046985 -0.000002 0.000000 0.174184 0.048113 -1.288772
 14 -3.112024 1.517254 4.341911 0.570719 -1.334409 2.111812
 15 4.827230 0.000000 0.000001 -1.026537 0.607747 -0.736931
 16 11.139763 0.000000 0.000000 0.000000 -0.000000 -1.026381
 17 10.314597 0.000001 0.000000 -1.626984 0.320798 -0.018694
 18 -2.869898 1.399663 -4.140396 -0.727211 1.305844 1.960226
 19 4.972048 0.000000 0.000001 0.907977 0.162331 -1.252730
 20 11.585355 0.000000 0.000000 0.000000 -0.000000 -1.370169
 21 10.127057 0.000000 0.000001 2.180527 -0.000000 -0.069778
time 19
  0 -0.127945 0.127945 2.771091 -0.045585 0.257873 -1.602607
  1 0.000000 0.000000 0.000000 -1.570795 -1.570796 0.000000
  2 -0.000005 0.000007 3.713255 -3.365418 -0.223555 1.303544
  3 18.045721 0.000000 0.000000 0.000000 -0.000000 -1.376700
  4 17.597597 0.000000 0.000000 -0.209012 0.228859 -0.217008
  5 0.000005 -0.000003 -3.713255 6.199837 2.534873 5.440525
  6 18.045725 0.000000 0.000000 0.000000 -0.000000 -2.100293
  7 17.597597 0.000000 0.000000 -0.099419 0.101585 0.581205
  8 1.293670 0.684478 -0.000001 -0.000004 -0.000001 0.358403
  9 5.309685 -0.003834 0.000000 -0.031855 0.014202 0.418407
 10 4.826790 -0.004591 0.000000 -0.143265 0.038339 0.258901
 11 5.792767 -0.005304 0.000000 0.000000 -0.000000 0.203728
 12 6.662317 -0.001453 0.000000 0.000000 -0.000001 0.471000
 13 2.046985 -0.000002 0.000000 0.174184 0.048113 -1.282929
 14 -3.112024 1.517254 4.341911 0.537259 -1.339102 2.144409
 15 4.827230 0.000000 0.000001 -1.020311 0.613278 -0.741044
 16 11.139763 0.000000 0.000000 0.000000 -0.000000 -1.026381
 17 10.314597 0.000001 0.000000 -1.626984 0.320798 -0.018694
 18 -2.869898 1.399663 -4.140396 -0.692026 1.313334 1.994069
 19 4.972048 0.000000 0.000001 0.906430 0.154367 -1.263269
 20 11.585355 0.000000 0.000000 0.000000 -0.000000 -1.370169
 21 10.127057 0.000000 0.000001 2.180527 -0.000000 -0.069778
time 20
  0 -0.127945 0.127945 2.814061 -0.045585 0.257873 -1.602607
  1 0.000000 0.000000 0.000000 -1.570795 -1.570796 0.000000
  2 -0.000005 0.000007 3.713255 -3.365705 -0.223363 1.305941
  3 18.045721 0.000000 0.000000 0.000000 -0.000000 -1.374400
  4 17.597597 0.000000 0.000000 -0.208657 0.228640 -0.216963
  5 0.000005 -0.000003 -3.713255 6.201180 2.535544 5.441004
  6 18.045725 0.000000 0.000000 0.000000 -0.000000 -2.098047
  7 17.597597 0.000000 0.000000 -0.098809 0.100421 0.579385
  8 1.293670 0.684478 -0.000001 -0.000004 -0.000001 0.358403
  9 5.309685 -0.003834 0.000000 -0.031855 0.014202 0.418407
 10 4.826790 -0.004591 0.000000 -0.143265 0.038339 0.258901
 11 5.792767 -0.005304 0.000000 0.000000 -0.000000 0.196731
 12 6.662317 -0.001453 0.000000 0.000000 -0.000001 0.471000
 13 2.046985 -0.000002 0.000000 0.174184 0.048113 -1.275917
 14 -3.112024 1.517254 4.341911 0.495458 -1.344333 2.184965
 15 4.827230 0.000000 0.000001 -1.012910 0.619916 -0.745945
 16 11.139763 0.000000 0.000000 0.000000 -0.000000 -1.026381
 17 10.314597 0.000001 0.000000 -1.626984 0.320798 -0.018694
 18 -2.869898 1.399663 -4.140396 -0.647732 1.321898 2.037021
 19 4.972048 0.000000 0.000001 0.904651 0.145036 -1.275983
 20 11.585355 0.000000 0.000000 0.000000 -0.000000 -1.370169
 21 10.127057 0.000000 0.000001 2.180527 -0.000000 -0.069778
time 21
  0 -0.127945 0.127945 2.864844 -0.045585 0.257873 -1.602607
  1 0.000000 0.000000 0.000000 -1.570795 -1.570796 0.000000
  2 -0.000005 0.000007 3.713255 -3.365993 -0.223171 1.308625
  3 18.045721 0.000000 0.000000 0.000000 -0.000000 -1.371728
  4 17.597597 0.000000 0.000000 -0.208277 0.228348 -0.216963
  5 0.000005 -0.000003 -3.713255 6.202809 2.536311 5.441483
  6 18.045725 0.000000 0.000000 0.000000 -0.000000 -2.095584
  7 17.597597 0.000000 0.000000 -0.098100 0.099100 0.577359
  8 1.293670 0.684478 -0.000001 -0.000004 -0.000001 0.358403
  9 5.309685 -0.003834 0.000000 -0.031855 0.014202 0.418407
 10 4.826790 -0.004591 0.000000 -0.143265 0.038339 0.258901
 11 5.792767 -0.005304 0.000000 0.000000 -0.000000 0.188861
 12 6.662317 -0.001453 0.000000 0.000000 -0.000001 0.471000
 13 2.046985 -0.000002 0.000000 0.174184 0.048113 -1.268051
 14 -3.112024 1.517254 4.341911 0.446659 -1.349718 2.232711
 15 4.827230 0.000000 0.000001 -1.004511 0.627405 -0.751458
 16 11.139763 0.000000 0.000000 0.000000 -0.000000 -1.026381
 17 10.314597 0.000001 0.000000 -1.626984 0.320798 -0.018694
 18 -2.869898 1.399663 -4.140396 -0.594523 1.330801 2.088600
 19 4.972048 0.000000 0.000001 0.902562 0.134418 -1.290014
 20 11.585355 0.000000 0.000000 0.000000 -0.000000 -1.370169
 21 10.127057 0.000000 0.000001 2.180527 -0.000000 -0.069778
time 22
  0 -0.127945 0.127945 2.915627 -0.045585 0.257873 -1.602607
  1 0.000000 0.000000 0.000000 -1.570795 -1.570796 0.000000
  2 -0.000005 0.000007 3.713255 -3.366281 -0.222884 1.311502
  3 18.045721 0.000000 0.000000 0.000000 -0.000000 -1.368834
  4 17.597597 0.000000 0.000000 -0.207846 0.228056 -0.216917
  5 0.000005 -0.000003 -3.713255 6.204439 2.537078 5.442059
  6 18.045725 0.000000 0.000000 0.000000 -0.000000 -2.092976
  7 17.597597 0.000000 0.000000 -0.097325 0.097660 0.575161
  8 1.293670 0.684478 -0.000001 -0.000004 -0.000001 0.358403
  9 5.309685 -0.003834 0.000000 -0.031855 0.014202 0.418407
 10 4.826790 -0.004591 0.000000 -0.143265 0.038339 0.258901
 11 5.792767 -0.005304 0.000000 0.000000 -0.000000 0.180432
 12 6.662317 -0.001453 0.000000 0.000000 -0.000001 0.471000
 13 2.046985 -0.000002 0.000000 0.174184 0.048113 -1.259646
 14 -3.112024 1.517254 4.341911 0.391436 -1.354949 2.286594
 15 4.827230 0.000000 0.000001 -0.995348 0.635319 -0.757146
 16 11.139763 0.000000 0.000000 0.000000 -0.000000 -1.026381
 17 10.314597 0.000001 0.000000 -1.626984 0.320798 -0.018694
 18 -2.869898 1.399663 -4.140396 -0.532972 1.339676 2.148713
 19 4.972048 0.000000 0.000001 0.900396 0.122995 -1.305164
 20 11.585355 0.000000 0.000000 0.000000 -0.000000 -1.370169
 21 10.127057 0.000000 0.000001 2.180527 -0.000000 -0.069778
time 23
  0 -0.127945 0.127945 2.970316 -0.045585 0.257873 -1.602607
  1 0.000000 0.000000 0.000000 -1.570795 -1.570796 0.000000
  2 -0.000005 0.000007 3.713255 -3.366664 -0.222692 1.314474
  3 18.045721 0.000000 0.000000 0.000000 -0.000000 -1.365940
  4 17.597597 0.000000 0.000000 -0.207415 0.227715 -0.216779
  5 0.000005 -0.000003 -3.713255 6.206261 2.537941 5.442538
  6 18.045725 0.000000 0.000000 0.000000 -0.000000 -2.090223
  7 17.597597 0.000000 0.000000 -0.096550 0.096180 0.572826
  8 1.293670 0.684478 -0.000001 -0.000004 -0.000001 0.358403
  9 5.309685 -0.003834 0.000000 -0.031855 0.014202 0.418407
 10 4.826790 -0.004591 0.000000 -0.143265 0.038339 0.258901
 11 5.792767 -0.005304 0.000000 0.000000 -0.000000 0.171628
 12 6.662317 -0.001453 0.000000 0.000000 -0.000001 0.471000
 13 2.046985 -0.000002 0.000000 0.174184 0.048113 -1.250836
 14 -3.112024 1.517254 4.341911 0.331228 -1.359642 2.345366
 15 4.827230 0.000000 0.000001 -0.985774 0.643574 -0.762922
 16 11.139763 0.000000 0.000000 0.000000 -0.000000 -1.026381
 17 10.314597 0.000001 0.000000 -1.626984 0.320798 -0.018694
 18 -2.869898 1.399663 -4.140396 -0.463847 1.347901 2.215728
 19 4.972048 0.000000 0.000001 0.898230 0.111090 -1.320974
 20 11.585355 0.000000 0.000000 0.000000 -0.000000 -1.370169
 21 10.127057 0.000000 0.000001 2.180527 -0.000000 -0.069778
time 24
  0 -0.127945 0.127945 3.025005 -0.045585 0.257873 -1.602607
  1 0.000000 0.000000 0.000000 -1.570795 -1.570796 0.000000
  2 -0.000005 0.000007 3.713255 -3.367048 -0.222404 1.317542
  3 18.045721 0.000000 0.000000 0.000000 -0.000000 -1.362897
  4 17.597597 0.000000 0.000000 -0.206984 0.227423 -0.216734
  5 0.000005 -0.000003 -3.713255 6.207987 2.538708 5.443113
  6 18.045725 0.000000 0.000000 0.000000 -0.000000 -2.087398
  7 17.597597 0.000000 0.000000 -0.095742 0.094682 0.570525
  8 1.293670 0.684478 -0.000001 -0.000004 -0.000001 0.358403
  9 5.309685 -0.003834 0.000000 -0.031855 0.014202 0.418407
 10 4.826790 -0.004591 0.000000 -0.143265 0.038339 0.258901
 11 5.792767 -0.005304 0.000000 0.000000 -0.000000 0.162763
 12 6.662317 -0.001453 0.000000 0.000000 -0.000001 0.471000
 13 2.046985 -0.000002 0.000000 0.174184 0.048113 -1.241936
 14 -3.112024 1.517254 4.341911 0.268047 -1.363604 2.407206
 15 4.827230 0.000000 0.000001 -0.975906 0.651914 -0.768785
 16 11.139763 0.000000 0.000000 0.000000 -0.000000 -1.026381
 17 10.314597 0.000001 0.000000 -1.626984 0.320798 -0.018694
 18 -2.869898 1.399663 -4.140396 -0.389450 1.355108 2.288592
 19 4.972048 0.000000 0.000001 0.896142 0.099104 -1.336783
 20 11.585355 0.000000 0.000000 0.000000 -0.000000 -1.370169
 21 10.127057 0.000000 0.000001 2.180527 -0.000000 -0.069778
time 25
  0 -0.127945 0.127945 3.083601 -0.045585 0.257873 -1.602607
  1 0.000000 0.000000 0.000000 -1.570795 -1.570796 0.000000
  2 -0.000005 0.000007 3.713255 -3.367335 -0.222117 1.320610
  3 18.045721 0.000000 0.000000 0.000000 -0.000000 -1.360077
  4 17.597597 0.000000 0.000000 -0.206553 0.227082 -0.216734
  5 0.000005 -0.000003 -3.713255 6.209713 2.539571 5.443688
  6 18.045725 0.000000 0.000000 0.000000 -0.000000 -2.084645
  7 17.597597 0.000000 0.000000 -0.094967 0.093222 0.568293
  8 1.293670 0.684478 -0.000001 -0.000004 -0.000001 0.358403
  9 5.309685 -0.003834 0.000000 -0.031855 0.014202 0.418407
 10 4.826790 -0.004591 0.000000 -0.143265 0.038339 0.258901
 11 5.792767 -0.005304 0.000000 0.000000 -0.000000 0.154084
 12 6.662317 -0.001453 0.000000 0.000000 -0.000001 0.471000
 13 2.046985 -0.000002 0.000000 0.174184 0.048113 -1.233216
 14 -3.112024 1.517254 4.341911 0.204100 -1.366681 2.469908
 15 4.827230 0.000000 0.000001 -0.966156 0.659913 -0.774211
 16 11.139763 0.000000 0.000000 0.000000 -0.000000 -1.026381
 17 10.314597 0.000001 0.000000 -1.626984 0.320798 -0.018694
 18 -2.869898 1.399663 -4.140396 -0.311793 1.360959 2.364331
 19 4.972048 0.000000 0.000001 0.894053 0.087199 -1.352263
 20 11.585355 0.000000 0.000000 0.000000 -0.000000 -1.370169
 21 10.127057 0.000000 0.000001 2.180527 -0.000000 -0.069778
time 26
  0 -0.127945 0.127945 3.130477 -0.045585 0.257873 -1.602607
  1 0.000000 0.000000 0.000000 -1.570795 -1.570796 0.000000
  2 -0.000005 0.000007 3.713255 -3.367719 -0.221925 1.323390
  3 18.045721 0.000000 0.000000 0.000000 -0.000000 -1.357257
  4 17.597597 0.000000 0.000000 -0.206198 0.226790 -0.216688
  5 0.000005 -0.000003 -3.713255 6.211438 2.540338 5.444168
  6 18.045725 0.000000 0.000000 0.000000 -0.000000 -2.082036
  7 17.597597 0.000000 0.000000 -0.094192 0.091822 0.566095
  8 1.293670 0.684478 -0.000001 -0.000004 -0.000001 0.358403
  9 5.309685 -0.003834 0.000000 -0.031855 0.014202 0.418407
 10 4.826790 -0.004591 0.000000 -0.143265 0.038339 0.258901
 11 5.792767 -0.005304 0.000000 0.000000 -0.000000 0.145779
 12 6.662317 -0.001453 0.000000 0.000000 -0.000001 0.471000
 13 2.046985 -0.000002 0.000000 0.174184 0.048113 -1.224946
 14 -3.112024 1.517254 4.341911 0.141591 -1.368835 2.531077
 15 4.827230 0.000000 0.000001 -0.956817 0.667743 -0.779374
 16 11.139763 0.000000 0.000000 0.000000 -0.000000 -1.026381
 17 10.314597 0.000001 0.000000 -1.626984 0.320798 -0.018694
 18 -2.869898 1.399663 -4.140396 -0.234423 1.365340 2.440167
 19 4.972048 0.000000 0.000001 0.892042 0.076098 -1.367085
 20 11.585355 0.000000 0.000000 0.000000 -0.000000 -1.370169
 21 10.127057 0.000000 0.000001 2.180527 -0.000000 -0.069778
time 27
  0 -0.127945 0.127945 3.181260 -0.045585 0.257873 -1.602607
  1 0.000000 0.000000 0.000000 -1.570795 -1.570796 0.000000
  2 -0.000005 0.000007 3.713255 -3.368006 -0.221733 1.326075
  3 18.045721 0.000000 0.000000 0.000000 -0.000000 -1.354660
  4 17.597597 0.000000 0.000000 -0.205818 0.226498 -0.216596
  5 0.000005 -0.000003 -3.713255 6.212876 2.541105 5.444647
  6 18.045725 0.000000 0.000000 0.000000 -0.000000 -2.079646
  7 17.597597 0.000000 0.000000 -0.093516 0.090540 0.564138
  8 1.293670 0.684478 -0.000001 -0.000004 -0.000001 0.358403
  9 5.309685 -0.003834 0.000000 -0.031855 0.014202 0.418407
 10 4.826790 -0.004591 0.000000 -0.143265 0.038339 0.258901
 11 5.792767 -0.005304 0.000000 0.000000 -0.000000 0.138200
 12 6.662317 -0.001453 0.000000 0.000000 -0.000001 0.471000
 13 2.046985 -0.000002 0.000000 0.174184 0.048113 -1.217395
 14 -3.112024 1.517254 4.341911 0.083204 -1.370143 2.588315
 15 4.827230 0.000000 0.000001 -0.948006 0.674721 -0.783837
 16 11.139763 0.000000 0.000000 0.000000 -0.000000 -1.026381
 17 10.314597 0.000001 0.000000 -1.626984 0.320798 -0.018694
 18 -2.869898 1.399663 -4.140396 -0.160792 1.368251 2.512264
 19 4.972048 0.000000 0.000001 0.890340 0.065721 -1.380522
 20 11.585355 0.000000 0.000000 0.000000 -0.000000 -1.370169
 21 10.127057 0.000000 0.000001 2.180527 -0.000000 -0.069778
time 28
  0 -0.127945 0.127945 3.224230 -0.045585 0.257873 -1.602607
  1 0.000000 0.000000 0.000000 -1.570795 -1.570796 0.000000
  2 -0.000005 0.000007 3.713255 -3.368198 -0.221542 1.328280
  3 18.045721 0.000000 0.000000 0.000000 -0.000000 -1.352359
  4 17.597597 0.000000 0.000000 -0.205488 0.226279 -0.216551
  5 0.000005 -0.000003 -3.713255 6.214219 2.541680 5.445127
  6 18.045725 0.000000 0.000000 0.000000 -0.000000 -2.077545
  7 17.597597 0.000000 0.000000 -0.092922 0.089415 0.562421
  8 1.293670 0.684478 -0.000001 -0.000004 -0.000001 0.358403
  9 5.309685 -0.003834 0.000000 -0.031855 0.014202 0.418407
 10 4.826790 -0.004591 0.000000 -0.143265 0.038339 0.258901
 11 5.792767 -0.005304 0.000000 0.000000 -0.000000 0.131577
 12 6.662317 -0.001453 0.000000 0.000000 -0.000001 0.471000
 13 2.046985 -0.000002 0.000000 0.174184 0.048113 -1.210743
 14 -3.112024 1.517254 4.341911 0.031528 -1.370720 2.638746
 15 4.827230 0.000000 0.000001 -0.940371 0.680763 -0.787775
 16 11.139763 0.000000 0.000000 0.000000 -0.000000 -1.026381
 17 10.314597 0.000001 0.000000 -1.626984 0.320798 -0.018694
 18 -2.869898 1.399663 -4.140396 -0.094927 1.369947 2.576690
 19 4.972048 0.000000 0.000001 0.888793 0.056712 -1.392380
 20 11.585355 0.000000 0.000000 0.000000 -0.000000 -1.370169
 21 10.127057 0.000000 0.000001 2.180527 -0.000000 -0.069778
time 29
  0 -0.127945 0.127945 3.255481 -0.045585 0.257873 -1.602607
  1 0.000000 0.000000 0.000000 -1.570795 -1.570796 0.000000
  2 -0.000005 0.000007 3.713255 -3.368486 -0.221350 1.330198
  3 18.045721 0.000000 0.000000 0.000000 -0.000000 -1.350504
  4 17.597597 0.000000 0.000000 -0.205235 0.226084 -0.216551
  5 0.000005 -0.000003 -3.713255 6.215369 2.542255 5.445510
  6 18.045725 0.000000 0.000000 0.000000 -0.000000 -2.075879
  7 17.597597 0.000000 0.000000 -0.092444 0.088488 0.560944
  8 1.293670 0.684478 -0.000001 -0.000004 -0.000001 0.358403
  9 5.309685 -0.003834 0.000000 -0.031855 0.014202 0.418407
 10 4.826790 -0.004591 0.000000 -0.143265 0.038339 0.258901
 11 5.792767 -0.005304 0.000000 0.000000 -0.000000 0.126096
 12 6.662317 -0.001453 0.000000 0.000000 -0.000001 0.471000
 13 2.046985 -0.000002 0.000000 0.174184 0.048113 -1.205304
 14 -3.112024 1.517254 4.341911 -0.010656 -1.370797 2.680261
 15 4.827230 0.000000 0.000001 -0.934027 0.685699 -0.791013
 16 11.139763 0.000000 0.000000 0.000000 -0.000000 -1.026381
 17 10.314597 0.000001 0.000000 -1.626984 0.320798 -0.018694
 18 -2.869898 1.399663 -4.140396 -0.040280 1.370682 2.630283
 19 4.972048 0.000000 0.000001 0.887555 0.049311 -1.402063
 20 11.585355 0.000000 0.000000 0.000000 -0.000000 -1.370169
 21 10.127057 0.000000 0.000001 2.180527 -0.000000 -0.069778
time 30
  0 -0.127945 0.127945 3.278919 -0.045585 0.257873 -1.602607
  1 0.000000 0.000000 0.000000 -1.570795 -1.570796 0.000000
  2 -0.000005 0.000007 3.713255 -3.368582 -0.221254 1.331540
  3 18.045721 0.000000 0.000000 0.000000 -0.000000 -1.349168
  4 17.597597 0.000000 0.000000 -0.205032 0.225938 -0.216505
  5 0.000005 -0.000003 -3.713255 6.216136 2.542639 5.445702
  6 18.045725 0.000000 0.000000 0.000000 -0.000000 -2.074575
  7 17.597597 0.000000 0.000000 -0.092081 0.087818 0.559914
  8 1.293670 0.684478 -0.000001 -0.000004 -0.000001 0.358403
  9 5.309685 -0.003834 0.000000 -0.031855 0.014202 0.418407
 10 4.826790 -0.004591 0.000000 -0.143265 0.038339 0.258901
 11 5.792767 -0.005304 0.000000 0.000000 -0.000000 0.122088
 12 6.662317 -0.001453 0.000000 0.000000 -0.000001 0.471000
 13 2.046985 -0.000002 0.000000 0.174184 0.048113 -1.201304
 14 -3.112024 1.517254 4.341911 -0.041815 -1.370643 2.710749
 15 4.827230 0.000000 0.000001 -0.929269 0.689358 -0.793201
 16 11.139763 0.000000 0.000000 0.000000 -0.000000 -1.026381
 17 10.314597 0.000001 0.000000 -1.626984 0.320798 -0.018694
 18 -2.869898 1.399663 -4.140396 -0.000013 1.370795 2.669783
 19 4.972048 0.000000 0.000001 0.886782 0.043761 -1.409111
 20 11.585355 0.000000 0.000000 0.000000 -0.000000 -1.370169
 21 10.127057 0.000000 0.000001 2.180527 -0.000000 -0.069778
end
