version 1
nodes
  0 "Bip01"  -1
  1 "Bip01 Pelvis"   0
  2 "Bip01 L Leg"   1
  3 "Bip01 L Leg1"   2
  4 "Bip01 L Foot"   3
  5 "Bip01 R Leg"   1
  6 "Bip01 R Leg1"   5
  7 "Bip01 R Foot"   6
  8 "Bip01 Spine"   1
  9 "Bip01 Spine1"   8
 10 "Bip01 Spine2"   9
 11 "Bip01 Spine3"  10
 12 "Bip01 Neck"  11
 13 "Bip01 Head"  12
 14 "Bip01 L Arm"  12
 15 "Bip01 L Arm1"  14
 16 "Bip01 L Arm2"  15
 17 "Bip01 L Hand"  16
 18 "Bip01 R Arm"  12
 19 "Bip01 R Arm1"  18
 20 "Bip01 R Arm2"  19
 21 "Bip01 R Hand"  20
end
skeleton
time 0
  0 0.235347 -0.235347 -12.580939 -0.000000 0.270322 -1.570969
  1 -3.699332 0.589862 0.000000 -1.570795 -1.570796 0.000000
  2 -0.000005 0.000007 3.713255 -3.389865 -0.209941 1.567109
  3 18.045721 0.000000 0.000000 0.000000 -0.000000 -1.744711
  4 17.597597 0.000000 0.000000 -0.164903 0.191688 0.413694
  5 0.000005 -0.000003 -3.713255 0.311761 2.936853 5.354811
  6 18.045725 0.000000 0.000000 0.000000 -0.000000 -1.993292
  7 17.597597 0.000000 0.000000 0.131027 -0.129930 1.055680
  8 1.293670 0.684478 -0.000001 -0.000004 -0.000001 0.279887
  9 5.309685 -0.003834 0.000000 -0.206286 0.036229 0.170666
 10 4.826790 -0.004591 0.000000 -0.293180 0.045949 0.150203
 11 5.792767 -0.005304 0.000000 0.000000 0.000000 0.279097
 12 6.662317 -0.001453 0.000000 0.000000 -0.000001 0.078555
 13 2.046985 -0.000002 0.000000 0.485588 -0.141367 -0.329184
 14 -3.447972 0.216433 4.341911 1.735769 -0.581922 1.197154
 15 4.827230 0.000000 0.000001 -0.299616 0.266237 0.208628
 16 11.139763 0.000000 0.000000 0.000000 -0.000000 -1.304318
 17 10.314597 0.000001 0.000000 -4.515207 0.031525 -0.094278
 18 -3.186314 0.196501 -4.140396 -0.682918 1.249598 2.404886
 19 4.972048 0.000000 0.000001 0.277768 -0.425532 -1.388559
 20 11.585355 0.000000 0.000000 0.000000 -0.000000 -1.485248
 21 10.127057 0.000000 0.000001 2.082618 0.482928 0.607684
time 1
  0 0.235347 -0.235347 -12.479374 -0.000000 0.270322 -1.570969
  1 -3.320414 0.558611 0.000000 -1.570795 -1.570796 0.000000
  2 -0.000005 0.000007 3.713255 -3.389865 -0.209941 1.567109
  3 18.045721 0.000000 0.000000 0.000000 -0.000000 -1.744711
  4 17.597597 0.000000 0.000000 -0.164903 0.191688 0.413694
  5 0.000005 -0.000003 -3.713255 0.311761 2.936853 5.354811
  6 18.045725 0.000000 0.000000 0.000000 -0.000000 -1.993292
  7 17.597597 0.000000 0.000000 0.131027 -0.129930 1.055680
  8 1.293670 0.684478 -0.000001 -0.000004 -0.000001 0.279887
  9 5.309685 -0.003834 0.000000 -0.262932 0.029734 0.109206
 10 4.826790 -0.004591 0.000000 -0.293180 0.045949 0.150203
 11 5.792767 -0.005304 0.000000 -0.072175 0.014166 0.192765
 12 6.662317 -0.001453 0.000000 0.000000 -0.000001 0.078555
 13 2.046985 -0.000002 0.000000 0.608891 -0.182929 -0.208184
 14 -3.447972 0.216433 4.341911 1.598382 -0.110458 1.245188
 15 4.827230 0.000000 0.000001 -0.193891 0.195178 1.243973
 16 11.139763 0.000000 0.000000 0.000000 -0.000000 -2.187674
 17 10.314597 0.000001 0.000000 -4.515207 0.031525 -0.094278
 18 -3.186314 0.196501 -4.140396 0.783942 1.221306 3.814987
 19 4.972048 0.000000 0.000001 -0.546292 -0.840205 -0.932589
 20 11.585355 0.000000 0.000000 0.000000 -0.000000 -2.333265
 21 10.127057 0.000000 0.000001 1.651227 0.753480 0.291880
time 2
  0 0.235347 -0.235347 -12.479374 -0.000000 0.270322 -1.570969
  1 -3.312601 0.539079 0.000000 -1.570795 -1.570796 0.000000
  2 -0.000005 0.000007 3.713255 -3.389865 -0.209941 1.567109
  3 18.045721 0.000000 0.000000 0.000000 -0.000000 -1.744711
  4 17.597597 0.000000 0.000000 -0.164903 0.191688 0.413694
  5 0.000005 -0.000003 -3.713255 0.311761 2.936853 5.354811
  6 18.045725 0.000000 0.000000 0.000000 -0.000000 -1.993292
  7 17.597597 0.000000 0.000000 0.131027 -0.129930 1.055680
  8 1.293670 0.684478 -0.000001 -0.000004 -0.000001 0.279887
  9 5.309685 -0.003834 0.000000 -0.264903 0.029374 0.107087
 10 4.826790 -0.004591 0.000000 -0.263394 0.041395 0.151504
 11 5.792767 -0.005304 0.000000 -0.074735 0.014429 0.189734
 12 6.662317 -0.001453 0.000000 0.000000 -0.000001 0.078555
 13 2.046985 -0.000002 0.000000 0.583343 -0.177750 -0.198386
 14 -3.447972 0.216433 4.341911 1.609695 -0.155078 1.243654
 15 4.827230 0.000000 0.000001 -0.312597 0.213730 1.133534
 16 11.139763 0.000000 0.000000 0.000000 -0.000000 -2.104490
 17 10.314597 0.000001 0.000000 -4.515207 0.031525 -0.094278
 18 -3.186314 0.196501 -4.140396 0.696793 1.246207 3.732824
 19 4.972048 0.000000 0.000001 -0.459500 -0.845273 -0.967304
 20 11.585355 0.000000 0.000000 0.000000 -0.000000 -2.260860
 21 10.127057 0.000000 0.000001 1.604215 0.751856 0.185187
time 3
  0 0.235347 -0.235347 -12.487186 -0.000000 0.270322 -1.570969
  1 -3.343852 0.519547 0.000000 -1.570795 -1.570796 0.000000
  2 -0.000005 0.000007 3.713255 -3.389865 -0.209941 1.567109
  3 18.045721 0.000000 0.000000 0.000000 -0.000000 -1.744711
  4 17.597597 0.000000 0.000000 -0.164903 0.191688 0.413694
  5 0.000005 -0.000003 -3.713255 0.311761 2.936853 5.354811
  6 18.045725 0.000000 0.000000 0.000000 -0.000000 -1.993292
  7 17.597597 0.000000 0.000000 0.131027 -0.129930 1.055680
  8 1.293670 0.684478 -0.000001 -0.000004 -0.000001 0.279887
  9 5.309685 -0.003834 0.000000 -0.261916 0.029914 0.110310
 10 4.826790 -0.004591 0.000000 -0.235480 0.037092 0.152584
 11 5.792767 -0.005304 0.000000 -0.070838 0.014022 0.194343
 12 6.662317 -0.001453 0.000000 0.000000 -0.000001 0.078555
 13 2.046985 -0.000002 0.000000 0.548833 -0.169060 -0.199554
 14 -3.447972 0.216433 4.341911 1.635293 -0.253124 1.238573
 15 4.827230 0.000000 0.000001 -0.426663 0.240537 0.909680
 16 11.139763 0.000000 0.000000 0.000000 -0.000000 -1.921441
 17 10.314597 0.000001 0.000000 -4.515207 0.031525 -0.094278
 18 -3.186314 0.196501 -4.140396 0.466793 1.289479 3.513275
 19 4.972048 0.000000 0.000001 -0.266036 -0.825002 -1.071844
 20 11.585355 0.000000 0.000000 0.000000 -0.000000 -2.106675
 21 10.127057 0.000000 0.000001 1.617083 0.730686 0.130468
time 4
  0 0.235347 -0.235347 -12.502812 -0.000000 0.270322 -1.570969
  1 -3.382916 0.515641 0.000000 -1.570795 -1.570796 0.000000
  2 -0.000005 0.000007 3.713255 -3.389865 -0.209941 1.567109
  3 18.045721 0.000000 0.000000 0.000000 -0.000000 -1.744711
  4 17.597597 0.000000 0.000000 -0.164903 0.191688 0.413694
  5 0.000005 -0.000003 -3.713255 0.311761 2.936853 5.354811
  6 18.045725 0.000000 0.000000 0.000000 -0.000000 -1.993292
  7 17.597597 0.000000 0.000000 0.131027 -0.129930 1.055680
  8 1.293670 0.684478 -0.000001 -0.000004 -0.000001 0.279887
  9 5.309685 -0.003834 0.000000 -0.257227 0.030693 0.115345
 10 4.826790 -0.004591 0.000000 -0.212656 0.033569 0.153400
 11 5.792767 -0.005304 0.000000 -0.064772 0.013303 0.201485
 12 6.662317 -0.001453 0.000000 0.000000 -0.000001 0.078555
 13 2.046985 -0.000002 0.000000 0.515918 -0.160324 -0.205667
 14 -3.447972 0.216433 4.341911 1.660412 -0.344555 1.231094
 15 4.827230 0.000000 0.000001 -0.489510 0.254919 0.697903
 16 11.139763 0.000000 0.000000 0.000000 -0.000000 -1.750446
 17 10.314597 0.000001 0.000000 -4.515207 0.031525 -0.094278
 18 -3.186314 0.196501 -4.140396 0.095764 1.317178 3.155093
 19 4.972048 0.000000 0.000001 -0.050835 -0.761373 -1.189953
 20 11.585355 0.000000 0.000000 0.000000 -0.000000 -1.913524
 21 10.127057 0.000000 0.000001 1.652565 0.702992 0.089909
time 5
  0 0.235347 -0.235347 -12.514531 -0.000000 0.270322 -1.570969
  1 -3.437605 0.507828 0.000000 -1.570795 -1.570796 0.000000
  2 -0.000005 0.000007 3.713255 -3.389865 -0.209941 1.567109
  3 18.045721 0.000000 0.000000 0.000000 -0.000000 -1.744711
  4 17.597597 0.000000 0.000000 -0.164903 0.191688 0.413694
  5 0.000005 -0.000003 -3.713255 0.311761 2.936853 5.354811
  6 18.045725 0.000000 0.000000 0.000000 -0.000000 -1.993292
  7 17.597597 0.000000 0.000000 0.131027 -0.129930 1.055680
  8 1.293670 0.684478 -0.000001 -0.000004 -0.000001 0.279887
  9 5.309685 -0.003834 0.000000 -0.249649 0.031855 0.123511
 10 4.826790 -0.004591 0.000000 -0.198305 0.031328 0.153863
 11 5.792767 -0.005304 0.000000 -0.055004 0.011961 0.213092
 12 6.662317 -0.001453 0.000000 0.000000 -0.000001 0.078555
 13 2.046985 -0.000002 0.000000 0.485071 -0.151611 -0.219826
 14 -3.447972 0.216433 4.341911 1.686202 -0.432371 1.221411
 15 4.827230 0.000000 0.000001 -0.442463 0.270152 0.496102
 16 11.139763 0.000000 0.000000 0.000000 -0.000000 -1.585899
 17 10.314597 0.000001 0.000000 -4.515207 0.031525 -0.094278
 18 -3.186314 0.196501 -4.140396 -0.287537 1.307964 2.784064
 19 4.972048 0.000000 0.000001 0.122749 -0.661546 -1.275588
 20 11.585355 0.000000 0.000000 0.000000 -0.000000 -1.727089
 21 10.127057 0.000000 0.000001 1.781689 0.658920 0.200642
time 6
  0 0.235347 -0.235347 -12.545782 -0.000000 0.270322 -1.570969
  1 -3.562609 0.539079 0.000000 -1.570795 -1.570796 0.000000
  2 -0.000005 0.000007 3.713255 -3.389865 -0.209941 1.567109
  3 18.045721 0.000000 0.000000 0.000000 -0.000000 -1.744711
  4 17.597597 0.000000 0.000000 -0.164903 0.191688 0.413694
  5 0.000005 -0.000003 -3.713255 0.311761 2.936853 5.354811
  6 18.045725 0.000000 0.000000 0.000000 -0.000000 -1.993292
  7 17.597597 0.000000 0.000000 0.131027 -0.129930 1.055680
  8 1.293670 0.684478 -0.000001 -0.000004 -0.000001 0.279887
  9 5.309685 -0.003834 0.000000 -0.229314 0.034408 0.145531
 10 4.826790 -0.004591 0.000000 -0.234429 0.036937 0.152628
 11 5.792767 -0.005304 0.000000 -0.029010 0.007251 0.244070
 12 6.662317 -0.001453 0.000000 0.000000 -0.000001 0.078555
 13 2.046985 -0.000002 0.000000 0.476885 -0.145487 -0.269987
 14 -3.447972 0.216433 4.341911 1.714389 -0.520455 1.208468
 15 4.827230 0.000000 0.000001 -0.354476 0.275343 0.317142
 16 11.139763 0.000000 0.000000 0.000000 -0.000000 -1.420300
 17 10.314597 0.000001 0.000000 -4.515207 0.031525 -0.094278
 18 -3.186314 0.196501 -4.140396 -0.584743 1.270655 2.498266
 19 4.972048 0.000000 0.000001 0.242881 -0.520050 -1.347981
 20 11.585355 0.000000 0.000000 0.000000 -0.000000 -1.555065
 21 10.127057 0.000000 0.000001 1.951519 0.582362 0.395906
time 7
  0 0.235347 -0.235347 -12.580939 -0.000000 0.270322 -1.570969
  1 -3.699332 0.589862 0.000000 -1.570795 -1.570796 0.000000
  2 -0.000005 0.000007 3.713255 -3.389865 -0.209941 1.567109
  3 18.045721 0.000000 0.000000 0.000000 -0.000000 -1.744711
  4 17.597597 0.000000 0.000000 -0.164903 0.191688 0.413694
  5 0.000005 -0.000003 -3.713255 0.311761 2.936853 5.354811
  6 18.045725 0.000000 0.000000 0.000000 -0.000000 -1.993292
  7 17.597597 0.000000 0.000000 0.131027 -0.129930 1.055680
  8 1.293670 0.684478 -0.000001 -0.000004 -0.000001 0.279887
  9 5.309685 -0.003834 0.000000 -0.206286 0.036229 0.170666
 10 4.826790 -0.004591 0.000000 -0.293180 0.045949 0.150203
 11 5.792767 -0.005304 0.000000 0.000000 0.000000 0.279097
 12 6.662317 -0.001453 0.000000 0.000000 -0.000001 0.078555
 13 2.046985 -0.000002 0.000000 0.485588 -0.141367 -0.329184
 14 -3.447972 0.216433 4.341911 1.735769 -0.581922 1.197154
 15 4.827230 0.000000 0.000001 -0.299616 0.266237 0.208628
 16 11.139763 0.000000 0.000000 0.000000 -0.000000 -1.304318
 17 10.314597 0.000001 0.000000 -4.515207 0.031525 -0.094278
 18 -3.186314 0.196501 -4.140396 -0.682918 1.249598 2.404886
 19 4.972048 0.000000 0.000001 0.277768 -0.425532 -1.388559
 20 11.585355 0.000000 0.000000 0.000000 -0.000000 -1.485248
 21 10.127057 0.000000 0.000001 2.082618 0.482928 0.607684
end
