version 1
nodes
  0 "Bip01"  -1
  1 "Bip01 Pelvis"   0
  2 "Bip01 L Leg"   1
  3 "Bip01 L Leg1"   2
  4 "Bip01 L Foot"   3
  5 "Bip01 R Leg"   1
  6 "Bip01 R Leg1"   5
  7 "Bip01 R Foot"   6
  8 "Bip01 Spine"   1
  9 "Bip01 Spine1"   8
 10 "Bip01 Spine2"   9
 11 "Bip01 Spine3"  10
 12 "Bip01 Neck"  11
 13 "Bip01 Head"  12
 14 "Bip01 L Arm"  12
 15 "Bip01 L Arm1"  14
 16 "Bip01 L Arm2"  15
 17 "Bip01 L Hand"  16
 18 "Bip01 R Arm"  12
 19 "Bip01 R Arm1"  18
 20 "Bip01 R Arm2"  19
 21 "Bip01 R Hand"  20
end
skeleton
time 0
  0 0.235347 -0.235347 -14.389588 -0.045585 0.257873 -1.742273
  1 0.000000 0.000000 0.000000 -1.570795 -1.570796 0.000000
  2 -0.000005 0.000007 3.713255 -3.368582 -0.221254 1.331540
  3 18.045721 0.000000 0.000000 0.000000 -0.000000 -1.349168
  4 17.597597 0.000000 0.000000 -0.205032 0.225938 -0.216505
  5 0.000005 -0.000003 -3.713255 6.216136 2.542639 5.445702
  6 18.045725 0.000000 0.000000 0.000000 -0.000000 -2.074575
  7 17.597597 0.000000 0.000000 -0.092081 0.087818 0.559914
  8 1.293670 0.684478 -0.000001 -0.000004 -0.000001 0.271132
  9 5.309685 -0.003834 0.000000 -0.032320 0.013063 0.383494
 10 4.826790 -0.004591 0.000000 -0.143856 0.219737 0.294399
 11 5.792767 -0.005304 0.000000 0.000049 0.087260 0.113327
 12 6.662317 -0.001453 0.000000 0.000000 -0.000001 -0.314346
 13 2.046985 -0.000002 0.000000 0.265994 -0.336454 -0.171103
 14 -3.268279 -1.123452 4.341911 1.923392 -1.393568 1.526584
 15 4.827230 0.000000 0.000001 -0.589715 -0.396102 -1.347847
 16 11.139763 0.000000 0.000000 0.000000 -0.000000 -1.566066
 17 10.314597 0.000001 0.000000 -0.695013 -0.010306 0.140717
 18 -3.014434 -1.034005 -4.140396 -0.000013 1.370795 3.455176
 19 4.972048 0.000000 0.000001 0.811980 0.093795 -1.124278
 20 11.585355 0.000000 0.000000 0.000000 -0.000000 -1.988518
 21 10.127057 0.000000 0.000001 1.980376 -0.285848 1.184219
time 1
  0 0.235347 -0.235347 -14.389588 -0.045585 0.257873 -1.742273
  1 0.000000 0.000000 0.000000 -1.570795 -1.570796 0.000000
  2 -0.000005 0.000007 3.713255 -3.368582 -0.221254 1.331540
  3 18.045721 0.000000 0.000000 0.000000 -0.000000 -1.349168
  4 17.597597 0.000000 0.000000 -0.205032 0.225938 -0.216505
  5 0.000005 -0.000003 -3.713255 6.216136 2.542639 5.445702
  6 18.045725 0.000000 0.000000 0.000000 -0.000000 -2.074575
  7 17.597597 0.000000 0.000000 -0.092081 0.087818 0.559914
  8 1.293670 0.684478 -0.000001 -0.000004 -0.000001 0.271132
  9 5.309685 -0.003834 0.000000 0.025183 -0.010187 0.383585
 10 4.826790 -0.004591 0.000000 -0.050410 0.190939 0.313471
 11 5.792767 -0.005304 0.000000 0.061918 0.080021 0.118496
 12 6.662317 -0.001453 0.000000 0.000000 -0.000001 -0.314346
 13 2.046985 -0.000002 0.000000 0.045539 -0.338615 -0.138426
 14 -3.268279 -1.123452 4.341911 1.923392 -1.393568 1.526584
 15 4.827230 0.000000 0.000001 -0.715998 -0.362912 -1.355723
 16 11.139763 0.000000 0.000000 0.000000 -0.000000 -1.566066
 17 10.314597 0.000001 0.000000 -0.695013 -0.010306 0.140717
 18 -3.014434 -1.034005 -4.140396 -0.343527 1.358783 3.118469
 19 4.972048 0.000000 0.000001 0.870073 0.307366 -1.071054
 20 11.585355 0.000000 0.000000 0.000000 -0.000000 -1.434179
 21 10.127057 0.000000 0.000001 2.519423 -0.421665 0.908700
time 2
  0 0.235347 -0.235347 -14.389588 -0.045585 0.257873 -1.742273
  1 0.000000 0.000000 0.000000 -1.570795 -1.570796 0.000000
  2 -0.000005 0.000007 3.713255 -3.368582 -0.221254 1.331540
  3 18.045721 0.000000 0.000000 0.000000 -0.000000 -1.349168
  4 17.597597 0.000000 0.000000 -0.205032 0.225938 -0.216505
  5 0.000005 -0.000003 -3.713255 6.216136 2.542639 5.445702
  6 18.045725 0.000000 0.000000 0.000000 -0.000000 -2.074575
  7 17.597597 0.000000 0.000000 -0.092081 0.087818 0.559914
  8 1.293670 0.684478 -0.000001 -0.000004 -0.000001 0.271132
  9 5.309685 -0.003834 0.000000 0.102225 -0.041275 0.381593
 10 4.826790 -0.004591 0.000000 0.073004 0.149927 0.334438
 11 5.792767 -0.005304 0.000000 0.144579 0.069870 0.124705
 12 6.662317 -0.001453 0.000000 0.000000 -0.000001 -0.314346
 13 2.046985 -0.000002 0.000000 -0.246779 -0.334315 -0.105704
 14 -3.268279 -1.123452 4.341911 1.923392 -1.393568 1.526584
 15 4.827230 0.000000 0.000001 -0.867479 -0.291002 -1.382414
 16 11.139763 0.000000 0.000000 0.000000 -0.000000 -1.566066
 17 10.314597 0.000001 0.000000 -0.695013 -0.010306 0.140717
 18 -3.014434 -1.034005 -4.140396 -0.699695 1.311751 2.771984
 19 4.972048 0.000000 0.000001 0.892429 0.612398 -0.969742
 20 11.585355 0.000000 0.000000 0.000000 -0.000000 -0.698583
 21 10.127057 0.000000 0.000001 3.274229 -0.356640 0.495029
time 3
  0 0.235347 -0.235347 -14.389588 -0.045585 0.257873 -1.742273
  1 0.000000 0.000000 0.000000 -1.570795 -1.570796 0.000000
  2 -0.000005 0.000007 3.713255 -3.368582 -0.221254 1.331540
  3 18.045721 0.000000 0.000000 0.000000 -0.000000 -1.349168
  4 17.597597 0.000000 0.000000 -0.205032 0.225938 -0.216505
  5 0.000005 -0.000003 -3.713255 6.216136 2.542639 5.445702
  6 18.045725 0.000000 0.000000 0.000000 -0.000000 -2.074575
  7 17.597597 0.000000 0.000000 -0.092081 0.087818 0.559914
  8 1.293670 0.684478 -0.000001 -0.000004 -0.000001 0.271132
  9 5.309685 -0.003834 0.000000 0.145698 -0.058677 0.379420
 10 4.826790 -0.004591 0.000000 0.141771 0.125802 0.343897
 11 5.792767 -0.005304 0.000000 0.191070 0.063950 0.127819
 12 6.662317 -0.001453 0.000000 0.000000 -0.000001 -0.314346
 13 2.046985 -0.000002 0.000000 -0.409805 -0.330172 -0.093478
 14 -3.268279 -1.123452 4.341911 1.923392 -1.393568 1.526584
 15 4.827230 0.000000 0.000001 -0.942544 -0.238835 -1.405779
 16 11.139763 0.000000 0.000000 0.000000 -0.000000 -1.566066
 17 10.314597 0.000001 0.000000 -0.695013 -0.010306 0.140717
 18 -3.014434 -1.034005 -4.140396 -0.839862 1.275997 2.637378
 19 4.972048 0.000000 0.000001 0.874637 0.784542 -0.907756
 20 11.585355 0.000000 0.000000 0.000000 -0.000000 -0.317667
 21 10.127057 0.000000 0.000001 3.654657 -0.208586 0.324516
time 4
  0 0.235347 -0.235347 -14.389588 -0.045585 0.257873 -1.742273
  1 0.000000 0.000000 0.000000 -1.570795 -1.570796 0.000000
  2 -0.000005 0.000007 3.713255 -3.368582 -0.221254 1.331540
  3 18.045721 0.000000 0.000000 0.000000 -0.000000 -1.349168
  4 17.597597 0.000000 0.000000 -0.205032 0.225938 -0.216505
  5 0.000005 -0.000003 -3.713255 6.216136 2.542639 5.445702
  6 18.045725 0.000000 0.000000 0.000000 -0.000000 -2.074575
  7 17.597597 0.000000 0.000000 -0.092081 0.087818 0.559914
  8 1.293670 0.684478 -0.000001 -0.000004 -0.000001 0.271132
  9 5.309685 -0.003834 0.000000 0.145967 -0.058784 0.379402
 10 4.826790 -0.004591 0.000000 0.141196 0.122830 0.363851
 11 5.792767 -0.005304 0.000000 0.191380 0.063914 0.127840
 12 6.662317 -0.001453 0.000000 0.000000 -0.000001 -0.314346
 13 2.046985 -0.000002 0.000000 -0.404419 -0.332041 -0.114693
 14 -3.268279 -1.123452 4.341911 1.923392 -1.393568 1.526584
 15 4.827230 0.000000 0.000001 -0.947243 -0.257387 -1.398866
 16 11.139763 0.000000 0.000000 0.000000 -0.000000 -1.464941
 17 10.314597 0.000001 0.000000 -0.695013 -0.010306 0.140717
 18 -3.014434 -1.034005 -4.140396 -0.833630 1.277919 2.643226
 19 4.972048 0.000000 0.000001 0.883765 0.798056 -0.909007
 20 11.585355 0.000000 0.000000 0.000000 -0.000000 -0.407212
 21 10.127057 0.000000 0.000001 3.657078 -0.207395 0.323653
time 5
  0 0.235347 -0.235347 -14.389588 -0.045585 0.257873 -1.742273
  1 0.000000 0.000000 0.000000 -1.570795 -1.570796 0.000000
  2 -0.000005 0.000007 3.713255 -3.368582 -0.221254 1.331540
  3 18.045721 0.000000 0.000000 0.000000 -0.000000 -1.349168
  4 17.597597 0.000000 0.000000 -0.205032 0.225938 -0.216505
  5 0.000005 -0.000003 -3.713255 6.216136 2.542639 5.445702
  6 18.045725 0.000000 0.000000 0.000000 -0.000000 -2.074575
  7 17.597597 0.000000 0.000000 -0.092081 0.087818 0.559914
  8 1.293670 0.684478 -0.000001 -0.000004 -0.000001 0.271132
  9 5.309685 -0.003834 0.000000 0.126759 -0.051102 0.380470
 10 4.826790 -0.004591 0.000000 0.109916 0.131195 0.386957
 11 5.792767 -0.005304 0.000000 0.170849 0.066538 0.126469
 12 6.662317 -0.001453 0.000000 0.000000 -0.000001 -0.314346
 13 2.046985 -0.000002 0.000000 -0.324199 -0.335283 -0.148449
 14 -3.268279 -1.123452 4.341911 1.923392 -1.393568 1.526584
 15 4.827230 0.000000 0.000001 -0.920753 -0.306916 -1.378038
 16 11.139763 0.000000 0.000000 0.000000 -0.000000 -1.328285
 17 10.314597 0.000001 0.000000 -0.695013 -0.010306 0.140717
 18 -3.014434 -1.034005 -4.140396 -0.763739 1.297167 2.710242
 19 4.972048 0.000000 0.000001 0.906507 0.737725 -0.939638
 20 11.585355 0.000000 0.000000 0.000000 -0.000000 -0.711595
 21 10.127057 0.000000 0.000001 3.494447 -0.280569 0.390493
time 6
  0 0.235347 -0.235347 -14.389588 -0.045585 0.257873 -1.742273
  1 0.000000 0.000000 0.000000 -1.570795 -1.570796 0.000000
  2 -0.000005 0.000007 3.713255 -3.368582 -0.221254 1.331540
  3 18.045721 0.000000 0.000000 0.000000 -0.000000 -1.349168
  4 17.597597 0.000000 0.000000 -0.205032 0.225938 -0.216505
  5 0.000005 -0.000003 -3.713255 6.216136 2.542639 5.445702
  6 18.045725 0.000000 0.000000 0.000000 -0.000000 -2.074575
  7 17.597597 0.000000 0.000000 -0.092081 0.087818 0.559914
  8 1.293670 0.684478 -0.000001 -0.000004 -0.000001 0.271132
  9 5.309685 -0.003834 0.000000 0.101111 -0.040820 0.381647
 10 4.826790 -0.004591 0.000000 0.069309 0.145733 0.403427
 11 5.792767 -0.005304 0.000000 0.143388 0.070038 0.124601
 12 6.662317 -0.001453 0.000000 0.000000 -0.000001 -0.314346
 13 2.046985 -0.000002 0.000000 -0.221360 -0.337017 -0.179688
 14 -3.268279 -1.123452 4.341911 1.923392 -1.393568 1.526584
 15 4.827230 0.000000 0.000001 -0.879461 -0.357466 -1.356423
 16 11.139763 0.000000 0.000000 0.000000 -0.000000 -1.217489
 17 10.314597 0.000001 0.000000 -0.695013 -0.010306 0.140717
 18 -3.014434 -1.034005 -4.140396 -0.661250 1.319411 2.809183
 19 4.972048 0.000000 0.000001 0.921514 0.647551 -0.981928
 20 11.585355 0.000000 0.000000 0.000000 -0.000000 -1.053054
 21 10.127057 0.000000 0.000001 3.263909 -0.359536 0.500246
time 7
  0 0.235347 -0.235347 -14.389588 -0.045585 0.257873 -1.742273
  1 0.000000 0.000000 0.000000 -1.570795 -1.570796 0.000000
  2 -0.000005 0.000007 3.713255 -3.368582 -0.221254 1.331540
  3 18.045721 0.000000 0.000000 0.000000 -0.000000 -1.349168
  4 17.597597 0.000000 0.000000 -0.205032 0.225938 -0.216505
  5 0.000005 -0.000003 -3.713255 6.216136 2.542639 5.445702
  6 18.045725 0.000000 0.000000 0.000000 -0.000000 -2.074575
  7 17.597597 0.000000 0.000000 -0.092081 0.087818 0.559914
  8 1.293670 0.684478 -0.000001 -0.000004 -0.000001 0.271132
  9 5.309685 -0.003834 0.000000 0.077862 -0.031472 0.382480
 10 4.826790 -0.004591 0.000000 0.033152 0.160570 0.406669
 11 5.792767 -0.005304 0.000000 0.118471 0.073142 0.122836
 12 6.662317 -0.001453 0.000000 0.000000 -0.000001 -0.314346
 13 2.046985 -0.000002 0.000000 -0.131575 -0.337107 -0.197487
 14 -3.268279 -1.123452 4.341911 1.923392 -1.393568 1.526584
 15 4.827230 0.000000 0.000001 -0.836936 -0.390400 -1.342946
 16 11.139763 0.000000 0.000000 0.000000 -0.000000 -1.173619
 17 10.314597 0.000001 0.000000 -0.695013 -0.010306 0.140717
 18 -3.014434 -1.034005 -4.140396 -0.558954 1.336115 2.908315
 19 4.972048 0.000000 0.000001 0.923216 0.559307 -1.018817
 20 11.585355 0.000000 0.000000 0.000000 -0.000000 -1.311055
 21 10.127057 0.000000 0.000001 3.042608 -0.408184 0.616824
time 8
  0 0.235347 -0.235347 -14.389588 -0.045585 0.257873 -1.742273
  1 0.000000 0.000000 0.000000 -1.570795 -1.570796 0.000000
  2 -0.000005 0.000007 3.713255 -3.368582 -0.221254 1.331540
  3 18.045721 0.000000 0.000000 0.000000 -0.000000 -1.349168
  4 17.597597 0.000000 0.000000 -0.205032 0.225938 -0.216505
  5 0.000005 -0.000003 -3.713255 6.216136 2.542639 5.445702
  6 18.045725 0.000000 0.000000 0.000000 -0.000000 -2.074575
  7 17.597597 0.000000 0.000000 -0.092081 0.087818 0.559914
  8 1.293670 0.684478 -0.000001 -0.000004 -0.000001 0.271132
  9 5.309685 -0.003834 0.000000 0.056034 -0.022651 0.383078
 10 4.826790 -0.004591 0.000000 -0.000739 0.174879 0.393704
 11 5.792767 -0.005304 0.000000 0.095038 0.076018 0.121092
 12 6.662317 -0.001453 0.000000 0.000000 -0.000001 -0.314346
 13 2.046985 -0.000002 0.000000 -0.051441 -0.336746 -0.198835
 14 -3.268279 -1.123452 4.341911 1.923392 -1.393568 1.526584
 15 4.827230 0.000000 0.000001 -0.791591 -0.404356 -1.337783
 16 11.139763 0.000000 0.000000 0.000000 -0.000000 -1.210201
 17 10.314597 0.000001 0.000000 -0.695013 -0.010306 0.140717
 18 -3.014434 -1.034005 -4.140396 -0.445536 1.349823 3.019049
 19 4.972048 0.000000 0.000001 0.913160 0.467363 -1.052346
 20 11.585355 0.000000 0.000000 0.000000 -0.000000 -1.482729
 21 10.127057 0.000000 0.000001 2.826912 -0.430761 0.736265
time 9
  0 0.235347 -0.235347 -14.389588 -0.045585 0.257873 -1.742273
  1 0.000000 0.000000 0.000000 -1.570795 -1.570796 0.000000
  2 -0.000005 0.000007 3.713255 -3.368582 -0.221254 1.331540
  3 18.045721 0.000000 0.000000 0.000000 -0.000000 -1.349168
  4 17.597597 0.000000 0.000000 -0.205032 0.225938 -0.216505
  5 0.000005 -0.000003 -3.713255 6.216136 2.542639 5.445702
  6 18.045725 0.000000 0.000000 0.000000 -0.000000 -2.074575
  7 17.597597 0.000000 0.000000 -0.092081 0.087818 0.559914
  8 1.293670 0.684478 -0.000001 -0.000004 -0.000001 0.271132
  9 5.309685 -0.003834 0.000000 0.032565 -0.013171 0.383494
 10 4.826790 -0.004591 0.000000 -0.037717 0.189213 0.371259
 11 5.792767 -0.005304 0.000000 0.069860 0.079062 0.119119
 12 6.662317 -0.001453 0.000000 0.000000 -0.000001 -0.314346
 13 2.046985 -0.000002 0.000000 0.032700 -0.336476 -0.193172
 14 -3.268279 -1.123452 4.341911 1.923392 -1.393568 1.526584
 15 4.827230 0.000000 0.000001 -0.739845 -0.409462 -1.337083
 16 11.139763 0.000000 0.000000 0.000000 -0.000000 -1.288971
 17 10.314597 0.000001 0.000000 -0.695013 -0.010306 0.140717
 18 -3.014434 -1.034005 -4.140396 -0.303547 1.361496 3.157681
 19 4.972048 0.000000 0.000001 0.894285 0.365042 -1.085545
 20 11.585355 0.000000 0.000000 0.000000 -0.000000 -1.631248
 21 10.127057 0.000000 0.000001 2.592744 -0.428271 0.867827
time 10
  0 0.235347 -0.235347 -14.389588 -0.045585 0.257873 -1.742273
  1 0.000000 0.000000 0.000000 -1.570795 -1.570796 0.000000
  2 -0.000005 0.000007 3.713255 -3.368582 -0.221254 1.331540
  3 18.045721 0.000000 0.000000 0.000000 -0.000000 -1.349168
  4 17.597597 0.000000 0.000000 -0.205032 0.225938 -0.216505
  5 0.000005 -0.000003 -3.713255 6.216136 2.542639 5.445702
  6 18.045725 0.000000 0.000000 0.000000 -0.000000 -2.074575
  7 17.597597 0.000000 0.000000 -0.092081 0.087818 0.559914
  8 1.293670 0.684478 -0.000001 -0.000004 -0.000001 0.271132
  9 5.309685 -0.003834 0.000000 0.008986 -0.003619 0.383693
 10 4.826790 -0.004591 0.000000 -0.075664 0.201916 0.344514
 11 5.792767 -0.005304 0.000000 0.044518 0.082082 0.117085
 12 6.662317 -0.001453 0.000000 0.000000 -0.000001 -0.314346
 13 2.046985 -0.000002 0.000000 0.117099 -0.336431 -0.184857
 14 -3.268279 -1.123452 4.341911 1.923392 -1.393568 1.526584
 15 4.827230 0.000000 0.000001 -0.685925 -0.408186 -1.339445
 16 11.139763 0.000000 0.000000 0.000000 -0.000000 -1.385961
 17 10.314597 0.000001 0.000000 -0.695013 -0.010306 0.140717
 18 -3.014434 -1.034005 -4.140396 -0.156382 1.368421 3.301683
 19 4.972048 0.000000 0.000001 0.868990 0.262721 -1.112356
 20 11.585355 0.000000 0.000000 0.000000 -0.000000 -1.764446
 21 10.127057 0.000000 0.000001 2.361123 -0.397978 0.995074
time 11
  0 0.235347 -0.235347 -14.389588 -0.045585 0.257873 -1.742273
  1 0.000000 0.000000 0.000000 -1.570795 -1.570796 0.000000
  2 -0.000005 0.000007 3.713255 -3.368582 -0.221254 1.331540
  3 18.045721 0.000000 0.000000 0.000000 -0.000000 -1.349168
  4 17.597597 0.000000 0.000000 -0.205032 0.225938 -0.216505
  5 0.000005 -0.000003 -3.713255 6.216136 2.542639 5.445702
  6 18.045725 0.000000 0.000000 0.000000 -0.000000 -2.074575
  7 17.597597 0.000000 0.000000 -0.092081 0.087818 0.559914
  8 1.293670 0.684478 -0.000001 -0.000004 -0.000001 0.271132
  9 5.309685 -0.003834 0.000000 -0.013785 0.005585 0.383675
 10 4.826790 -0.004591 0.000000 -0.113052 0.212415 0.316623
 11 5.792767 -0.005304 0.000000 0.019992 0.084971 0.115050
 12 6.662317 -0.001453 0.000000 0.000000 -0.000001 -0.314346
 13 2.046985 -0.000002 0.000000 0.198957 -0.336499 -0.176406
 14 -3.268279 -1.123452 4.341911 1.923392 -1.393568 1.526584
 15 4.827230 0.000000 0.000001 -0.632945 -0.402399 -1.343734
 16 11.139763 0.000000 0.000000 0.000000 -0.000000 -1.487367
 17 10.314597 0.000001 0.000000 -0.695013 -0.010306 0.140717
 18 -3.014434 -1.034005 -4.140396 -0.034144 1.370710 3.421524
 19 4.972048 0.000000 0.000001 0.839054 0.166594 -1.128165
 20 11.585355 0.000000 0.000000 0.000000 -0.000000 -1.886241
 21 10.127057 0.000000 0.000001 2.146319 -0.344430 1.106043
time 12
  0 0.235347 -0.235347 -14.389588 -0.045585 0.257873 -1.742273
  1 0.000000 0.000000 0.000000 -1.570795 -1.570796 0.000000
  2 -0.000005 0.000007 3.713255 -3.368582 -0.221254 1.331540
  3 18.045721 0.000000 0.000000 0.000000 -0.000000 -1.349168
  4 17.597597 0.000000 0.000000 -0.205032 0.225938 -0.216505
  5 0.000005 -0.000003 -3.713255 6.216136 2.542639 5.445702
  6 18.045725 0.000000 0.000000 0.000000 -0.000000 -2.074575
  7 17.597597 0.000000 0.000000 -0.092081 0.087818 0.559914
  8 1.293670 0.684478 -0.000001 -0.000004 -0.000001 0.271132
  9 5.309685 -0.003834 0.000000 -0.032320 0.013063 0.383494
 10 4.826790 -0.004591 0.000000 -0.143856 0.219737 0.294399
 11 5.792767 -0.005304 0.000000 0.000049 0.087260 0.113327
 12 6.662317 -0.001453 0.000000 0.000000 -0.000001 -0.314346
 13 2.046985 -0.000002 0.000000 0.265994 -0.336454 -0.171103
 14 -3.268279 -1.123452 4.341911 1.923392 -1.393568 1.526584
 15 4.827230 0.000000 0.000001 -0.589715 -0.396102 -1.347847
 16 11.139763 0.000000 0.000000 0.000000 -0.000000 -1.566066
 17 10.314597 0.000001 0.000000 -0.695013 -0.010306 0.140717
 18 -3.014434 -1.034005 -4.140396 -0.000013 1.370795 3.455176
 19 4.972048 0.000000 0.000001 0.811980 0.093795 -1.124278
 20 11.585355 0.000000 0.000000 0.000000 -0.000000 -1.988518
 21 10.127057 0.000000 0.000001 1.980376 -0.285848 1.184219
end
