version 1
nodes
  0 "Bip01"  -1
  1 "Bip01 Pelvis"   0
  2 "Bip01 L Leg"   1
  3 "Bip01 L Leg1"   2
  4 "Bip01 L Foot"   3
  5 "Bip01 R Leg"   1
  6 "Bip01 R Leg1"   5
  7 "Bip01 R Foot"   6
  8 "Bip01 Spine"   1
  9 "Bip01 Spine1"   8
 10 "Bip01 Spine2"   9
 11 "Bip01 Spine3"  10
 12 "Bip01 Neck"  11
 13 "Bip01 Head"  12
 14 "Bip01 L Arm"  12
 15 "Bip01 L Arm1"  14
 16 "Bip01 L Arm2"  15
 17 "Bip01 L Hand"  16
 18 "Bip01 R Arm"  12
 19 "Bip01 R Arm1"  18
 20 "Bip01 R Arm2"  19
 21 "Bip01 R Hand"  20
end
skeleton
time 0
  0 0.235347 -0.235347 -11.596535 -0.000000 0.270322 -1.570969
  1 0.000000 0.000000 0.000000 -1.570795 -1.570796 0.000000
  2 -0.000005 0.000007 3.713255 -3.389865 -0.209941 1.567109
  3 18.045721 0.000000 0.000000 0.000000 -0.000000 -1.744711
  4 17.597597 0.000000 0.000000 -0.164903 0.191688 0.413694
  5 0.000005 -0.000003 -3.713255 0.311761 2.936853 5.354811
  6 18.045725 0.000000 0.000000 0.000000 -0.000000 -1.993292
  7 17.597597 0.000000 0.000000 0.131027 -0.129930 1.055680
  8 1.293670 0.684478 -0.000001 -0.000004 -0.000001 0.279887
  9 5.309685 -0.003834 0.000000 -0.209347 -0.005261 -0.025630
 10 4.826790 -0.004591 0.000000 -0.409861 -0.013579 -0.032070
 11 5.792767 -0.005304 0.000000 0.000000 0.000000 0.043584
 12 6.662317 -0.001453 0.000000 0.000000 -0.000001 0.078555
 13 2.046985 -0.000002 0.000000 0.548790 0.303245 -0.532887
 14 -3.447972 0.216433 4.341911 1.808440 -0.756052 1.151997
 15 4.827230 0.000000 0.000001 -0.340849 -0.503754 -0.009188
 16 11.139763 0.000000 0.000000 0.000000 -0.000000 -1.327024
 17 10.314597 0.000001 0.000000 -4.434763 0.060507 -0.051407
 18 -3.186314 0.196501 -4.140396 -1.122880 1.033293 2.001452
 19 4.972048 0.000000 0.000001 0.430621 -0.395045 -1.091540
 20 11.585355 0.000000 0.000000 0.000000 -0.000000 -1.873788
 21 10.127057 0.000000 0.000001 2.063125 0.632552 0.364447
time 1
  0 0.235347 -0.235347 -11.596535 -0.000000 0.270322 -1.570969
  1 0.000000 0.000000 0.000000 -1.570795 -1.570796 0.000000
  2 -0.000005 0.000007 3.713255 -3.389865 -0.209941 1.567109
  3 18.045721 0.000000 0.000000 0.000000 -0.000000 -1.744711
  4 17.597597 0.000000 0.000000 -0.164903 0.191688 0.413694
  5 0.000005 -0.000003 -3.713255 0.311761 2.936853 5.354811
  6 18.045725 0.000000 0.000000 0.000000 -0.000000 -1.993292
  7 17.597597 0.000000 0.000000 0.131027 -0.129930 1.055680
  8 1.293670 0.684478 -0.000001 -0.000004 -0.000001 0.279887
  9 5.309685 -0.003834 0.000000 -0.239892 -0.018085 -0.074595
 10 4.826790 -0.004591 0.000000 -0.491682 -0.040053 -0.075461
 11 5.792767 -0.005304 0.000000 -0.074083 0.003284 0.043481
 12 6.662317 -0.001453 0.000000 0.000000 -0.000001 0.078555
 13 2.046985 -0.000002 0.000000 0.743740 0.348386 -0.373682
 14 -3.447972 0.216433 4.341911 2.107948 -1.116621 0.906170
 15 4.827230 0.000000 0.000001 -0.372508 -0.292704 -0.415590
 16 11.139763 0.000000 0.000000 0.000000 -0.000000 -1.563053
 17 10.314597 0.000001 0.000000 -4.438269 0.122514 0.253774
 18 -3.186314 0.196501 -4.140396 -0.861242 1.193692 2.237299
 19 4.972048 0.000000 0.000001 -0.119758 -0.715361 -0.884041
 20 11.585355 0.000000 0.000000 0.000000 -0.000000 -2.197898
 21 10.127057 0.000000 0.000001 2.030191 0.655211 0.309728
time 2
  0 0.235347 -0.235347 -11.596535 -0.000000 0.270322 -1.570969
  1 0.000000 0.000000 0.000000 -1.570795 -1.570796 0.000000
  2 -0.000005 0.000007 3.713255 -3.389865 -0.209941 1.567109
  3 18.045721 0.000000 0.000000 0.000000 -0.000000 -1.744711
  4 17.597597 0.000000 0.000000 -0.164903 0.191688 0.413694
  5 0.000005 -0.000003 -3.713255 0.311761 2.936853 5.354811
  6 18.045725 0.000000 0.000000 0.000000 -0.000000 -1.993292
  7 17.597597 0.000000 0.000000 0.131027 -0.129930 1.055680
  8 1.293670 0.684478 -0.000001 -0.000004 -0.000001 0.279887
  9 5.309685 -0.003834 0.000000 -0.257080 -0.026798 -0.102373
 10 4.826790 -0.004591 0.000000 -0.538052 -0.058485 -0.098435
 11 5.792767 -0.005304 0.000000 -0.116628 0.005153 0.043294
 12 6.662317 -0.001453 0.000000 0.000000 -0.000001 0.078555
 13 2.046985 -0.000002 0.000000 0.860107 0.359103 -0.278977
 14 -3.447972 0.216433 4.341911 2.561715 -1.280597 0.481056
 15 4.827230 0.000000 0.000001 -0.406399 -0.183690 -0.648895
 16 11.139763 0.000000 0.000000 0.000000 -0.000000 -1.698447
 17 10.314597 0.000001 0.000000 -4.431708 0.157670 0.430110
 18 -3.186314 0.196501 -4.140396 -0.397983 1.297845 2.677549
 19 4.972048 0.000000 0.000001 -0.742850 -0.690987 -0.549739
 20 11.585355 0.000000 0.000000 0.000000 -0.000000 -2.492347
 21 10.127057 0.000000 0.000001 1.977828 0.685883 0.225354
time 3
  0 0.235347 -0.235347 -11.596535 -0.000000 0.270322 -1.570969
  1 0.000000 0.000000 0.000000 -1.570795 -1.570796 0.000000
  2 -0.000005 0.000007 3.713255 -3.389865 -0.209941 1.567109
  3 18.045721 0.000000 0.000000 0.000000 -0.000000 -1.744711
  4 17.597597 0.000000 0.000000 -0.164903 0.191688 0.413694
  5 0.000005 -0.000003 -3.713255 0.311761 2.936853 5.354811
  6 18.045725 0.000000 0.000000 0.000000 -0.000000 -1.993292
  7 17.597597 0.000000 0.000000 0.131027 -0.129930 1.055680
  8 1.293670 0.684478 -0.000001 -0.000004 -0.000001 0.279887
  9 5.309685 -0.003834 0.000000 -0.250641 -0.023394 -0.091925
 10 4.826790 -0.004591 0.000000 -0.520614 -0.051258 -0.089991
 11 5.792767 -0.005304 0.000000 -0.100582 0.004446 0.043377
 12 6.662317 -0.001453 0.000000 0.000000 -0.000001 0.078555
 13 2.046985 -0.000002 0.000000 0.816077 0.356401 -0.314755
 14 -3.447972 0.216433 4.341911 2.343125 -1.227054 0.688915
 15 4.827230 0.000000 0.000001 -0.392596 -0.223773 -0.560771
 16 11.139763 0.000000 0.000000 0.000000 -0.000000 -1.647429
 17 10.314597 0.000001 0.000000 -4.434943 0.144560 0.363470
 18 -3.186314 0.196501 -4.140396 -0.526165 1.280802 2.554544
 19 4.972048 0.000000 0.000001 -0.596186 -0.714315 -0.609748
 20 11.585355 0.000000 0.000000 0.000000 -0.000000 -2.427147
 21 10.127057 0.000000 0.000001 1.875140 0.730578 0.067825
time 4
  0 0.235347 -0.235347 -11.596535 -0.000000 0.270322 -1.570969
  1 0.000000 0.000000 0.000000 -1.570795 -1.570796 0.000000
  2 -0.000005 0.000007 3.713255 -3.389865 -0.209941 1.567109
  3 18.045721 0.000000 0.000000 0.000000 -0.000000 -1.744711
  4 17.597597 0.000000 0.000000 -0.164903 0.191688 0.413694
  5 0.000005 -0.000003 -3.713255 0.311761 2.936853 5.354811
  6 18.045725 0.000000 0.000000 0.000000 -0.000000 -1.993292
  7 17.597597 0.000000 0.000000 0.131027 -0.129930 1.055680
  8 1.293670 0.684478 -0.000001 -0.000004 -0.000001 0.279887
  9 5.309685 -0.003834 0.000000 -0.238912 -0.017605 -0.073019
 10 4.826790 -0.004591 0.000000 -0.489055 -0.039094 -0.074116
 11 5.792767 -0.005304 0.000000 -0.071686 0.003176 0.043481
 12 6.662317 -0.001453 0.000000 0.000000 -0.000001 0.078555
 13 2.046985 -0.000002 0.000000 0.737278 0.347463 -0.378941
 14 -3.447972 0.216433 4.341911 2.091937 -1.105851 0.920456
 15 4.827230 0.000000 0.000001 -0.370804 -0.299172 -0.402551
 16 11.139763 0.000000 0.000000 0.000000 -0.000000 -1.555344
 17 10.314597 0.000001 0.000000 -4.438449 0.120514 0.243881
 18 -3.186314 0.196501 -4.140396 -0.794322 1.217914 2.299713
 19 4.972048 0.000000 0.000001 -0.218695 -0.718498 -0.808222
 20 11.585355 0.000000 0.000000 0.000000 -0.000000 -2.254004
 21 10.127057 0.000000 0.000001 1.821885 0.747281 -0.011214
time 5
  0 0.235347 -0.235347 -11.596535 -0.000000 0.270322 -1.570969
  1 0.000000 0.000000 0.000000 -1.570795 -1.570796 0.000000
  2 -0.000005 0.000007 3.713255 -3.389865 -0.209941 1.567109
  3 18.045721 0.000000 0.000000 0.000000 -0.000000 -1.744711
  4 17.597597 0.000000 0.000000 -0.164903 0.191688 0.413694
  5 0.000005 -0.000003 -3.713255 0.311761 2.936853 5.354811
  6 18.045725 0.000000 0.000000 0.000000 -0.000000 -1.993292
  7 17.597597 0.000000 0.000000 0.131027 -0.129930 1.055680
  8 1.293670 0.684478 -0.000001 -0.000004 -0.000001 0.279887
  9 5.309685 -0.003834 0.000000 -0.227123 -0.012308 -0.054060
 10 4.826790 -0.004591 0.000000 -0.457364 -0.028020 -0.057668
 11 5.792767 -0.005304 0.000000 -0.042871 0.001894 0.043564
 12 6.662317 -0.001453 0.000000 0.000000 -0.000001 0.078555
 13 2.046985 -0.000002 0.000000 0.660160 0.333369 -0.441912
 14 -3.447972 0.216433 4.341911 1.943717 -0.969878 1.048451
 15 4.827230 0.000000 0.000001 -0.354064 -0.378571 -0.245118
 16 11.139763 0.000000 0.000000 0.000000 -0.000000 -1.463680
 17 10.314597 0.000001 0.000000 -4.439167 0.096272 0.125038
 18 -3.186314 0.196501 -4.140396 -0.949924 1.153246 2.155424
 19 4.972048 0.000000 0.000001 0.075872 -0.637655 -0.952483
 20 11.585355 0.000000 0.000000 0.000000 -0.000000 -2.110452
 21 10.127057 0.000000 0.000001 1.898901 0.721753 0.103716
time 6
  0 0.235347 -0.235347 -11.596535 -0.000000 0.270322 -1.570969
  1 0.000000 0.000000 0.000000 -1.570795 -1.570796 0.000000
  2 -0.000005 0.000007 3.713255 -3.389865 -0.209941 1.567109
  3 18.045721 0.000000 0.000000 0.000000 -0.000000 -1.744711
  4 17.597597 0.000000 0.000000 -0.164903 0.191688 0.413694
  5 0.000005 -0.000003 -3.713255 0.311761 2.936853 5.354811
  6 18.045725 0.000000 0.000000 0.000000 -0.000000 -1.993292
  7 17.597597 0.000000 0.000000 0.131027 -0.129930 1.055680
  8 1.293670 0.684478 -0.000001 -0.000004 -0.000001 0.279887
  9 5.309685 -0.003834 0.000000 -0.216766 -0.008078 -0.037473
 10 4.826790 -0.004591 0.000000 -0.429647 -0.019271 -0.042874
 11 5.792767 -0.005304 0.000000 -0.017824 0.000791 0.043564
 12 6.662317 -0.001453 0.000000 0.000000 -0.000001 0.078555
 13 2.046985 -0.000002 0.000000 0.594501 0.317069 -0.495580
 14 -3.447972 0.216433 4.341911 1.856665 -0.846021 1.117290
 15 4.827230 0.000000 0.000001 -0.344432 -0.450651 -0.107813
 16 11.139763 0.000000 0.000000 0.000000 -0.000000 -1.383859
 17 10.314597 0.000001 0.000000 -4.437370 0.075270 0.021905
 18 -3.186314 0.196501 -4.140396 -1.060946 1.084338 2.055428
 19 4.972048 0.000000 0.000001 0.303063 -0.509110 -1.050370
 20 11.585355 0.000000 0.000000 0.000000 -0.000000 -1.971728
 21 10.127057 0.000000 0.000001 1.999168 0.674107 0.259323
time 7
  0 0.235347 -0.235347 -11.596535 -0.000000 0.270322 -1.570969
  1 0.000000 0.000000 0.000000 -1.570795 -1.570796 0.000000
  2 -0.000005 0.000007 3.713255 -3.389865 -0.209941 1.567109
  3 18.045721 0.000000 0.000000 0.000000 -0.000000 -1.744711
  4 17.597597 0.000000 0.000000 -0.164903 0.191688 0.413694
  5 0.000005 -0.000003 -3.713255 0.311761 2.936853 5.354811
  6 18.045725 0.000000 0.000000 0.000000 -0.000000 -1.993292
  7 17.597597 0.000000 0.000000 0.131027 -0.129930 1.055680
  8 1.293670 0.684478 -0.000001 -0.000004 -0.000001 0.279887
  9 5.309685 -0.003834 0.000000 -0.209347 -0.005261 -0.025630
 10 4.826790 -0.004591 0.000000 -0.409861 -0.013579 -0.032070
 11 5.792767 -0.005304 0.000000 0.000000 0.000000 0.043584
 12 6.662317 -0.001453 0.000000 0.000000 -0.000001 0.078555
 13 2.046985 -0.000002 0.000000 0.548790 0.303245 -0.532887
 14 -3.447972 0.216433 4.341911 1.808440 -0.756052 1.151997
 15 4.827230 0.000000 0.000001 -0.340849 -0.503754 -0.009188
 16 11.139763 0.000000 0.000000 0.000000 -0.000000 -1.327024
 17 10.314597 0.000001 0.000000 -4.434763 0.060507 -0.051407
 18 -3.186314 0.196501 -4.140396 -1.122880 1.033293 2.001452
 19 4.972048 0.000000 0.000001 0.430621 -0.395045 -1.091540
 20 11.585355 0.000000 0.000000 0.000000 -0.000000 -1.873788
 21 10.127057 0.000000 0.000001 2.063125 0.632552 0.364447
end
