version 1
nodes
  0 "Bip01"  -1
  1 "Bip01 Pelvis"   0
  2 "Bip01 L Leg"   1
  3 "Bip01 L Leg1"   2
  4 "Bip01 L Foot"   3
  5 "Bip01 R Leg"   1
  6 "Bip01 R Leg1"   5
  7 "Bip01 R Foot"   6
  8 "Bip01 Spine"   1
  9 "Bip01 Spine1"   8
 10 "Bip01 Spine2"   9
 11 "Bip01 Spine3"  10
 12 "Bip01 Neck"  11
 13 "Bip01 Head"  12
 14 "Bip01 L Arm"  12
 15 "Bip01 L Arm1"  14
 16 "Bip01 L Arm2"  15
 17 "Bip01 L Hand"  16
 18 "Bip01 R Arm"  12
 19 "Bip01 R Arm1"  18
 20 "Bip01 R Arm2"  19
 21 "Bip01 R Hand"  20
end
skeleton
time 0
  0 0.235347 -0.235347 -12.580939 -0.000000 0.270322 -1.570969
  1 -3.699332 0.589862 0.000000 -1.570795 -1.570796 0.000000
  2 -0.000005 0.000007 3.713255 -3.389865 -0.209941 1.567109
  3 18.045721 0.000000 0.000000 0.000000 -0.000000 -1.744711
  4 17.597597 0.000000 0.000000 -0.164903 0.191688 0.413694
  5 0.000005 -0.000003 -3.713255 0.311761 2.936853 5.354811
  6 18.045725 0.000000 0.000000 0.000000 -0.000000 -1.993292
  7 17.597597 0.000000 0.000000 0.131027 -0.129930 1.055680
  8 1.293670 0.684478 -0.000001 -0.000004 -0.000001 0.279887
  9 5.309685 -0.003834 0.000000 -0.206286 0.036229 0.170666
 10 4.826790 -0.004591 0.000000 -0.293180 0.045949 0.150203
 11 5.792767 -0.005304 0.000000 0.000000 -0.000000 0.279097
 12 6.662317 -0.001453 0.000000 0.000000 -0.000001 0.078555
 13 2.046985 -0.000002 0.000000 0.485588 -0.141367 -0.329184
 14 -3.447972 0.216433 4.341911 1.735769 -0.581922 1.197154
 15 4.827230 0.000000 0.000001 -0.137210 0.455927 0.271636
 16 11.139763 0.000000 0.000000 0.000000 -0.000000 -1.550438
 17 10.314597 0.000001 0.000000 -4.383981 0.179782 -0.497784
 18 -3.186314 0.196501 -4.140396 -0.682918 1.249598 2.404886
 19 4.972048 0.000000 0.000001 0.277768 -0.425532 -1.388559
 20 11.585355 0.000000 0.000000 0.000000 -0.000000 -1.485248
 21 10.127057 0.000000 0.000001 2.143134 0.406153 0.748268
time 1
  0 0.235347 -0.235347 -12.588753 -0.000000 0.270322 -1.570969
  1 -3.711051 0.589862 0.000000 -1.570795 -1.570796 0.000000
  2 -0.000005 0.000007 3.713255 -3.389865 -0.209941 1.567109
  3 18.045721 0.000000 0.000000 0.000000 -0.000000 -1.744711
  4 17.597597 0.000000 0.000000 -0.164903 0.191688 0.413694
  5 0.000005 -0.000003 -3.713255 0.311761 2.936853 5.354811
  6 18.045725 0.000000 0.000000 0.000000 -0.000000 -1.993292
  7 17.597597 0.000000 0.000000 0.131027 -0.129930 1.055680
  8 1.293670 0.684478 -0.000001 -0.000004 -0.000001 0.279887
  9 5.309685 -0.003834 0.000000 -0.206225 0.036625 0.172459
 10 4.826790 -0.004591 0.000000 -0.293131 0.046356 0.151592
 11 5.792767 -0.005304 0.000000 0.000000 -0.000000 0.282003
 12 6.662317 -0.001453 0.000000 0.000000 -0.000001 0.078555
 13 2.046985 -0.000002 0.000000 0.485415 -0.141705 -0.333678
 14 -3.447972 0.216433 4.341911 1.733276 -0.582576 1.201948
 15 4.827230 0.000000 0.000001 -0.143084 0.447757 0.270061
 16 11.139763 0.000000 0.000000 0.000000 -0.000000 -1.550438
 17 10.314597 0.000001 0.000000 -4.383981 0.179782 -0.497784
 18 -3.186314 0.196501 -4.140396 -0.693943 1.246913 2.394531
 19 4.972048 0.000000 0.000001 0.278387 -0.418614 -1.386253
 20 11.585355 0.000000 0.000000 0.000000 -0.000000 -1.485248
 21 10.127057 0.000000 0.000001 2.144345 0.406478 0.751288
time 2
  0 0.235347 -0.235347 -12.592659 -0.000000 0.270322 -1.570969
  1 -3.730583 0.601581 0.000000 -1.570795 -1.570796 0.000000
  2 -0.000005 0.000007 3.713255 -3.389865 -0.209941 1.567109
  3 18.045721 0.000000 0.000000 0.000000 -0.000000 -1.744711
  4 17.597597 0.000000 0.000000 -0.164903 0.191688 0.413694
  5 0.000005 -0.000003 -3.713255 0.311761 2.936853 5.354811
  6 18.045725 0.000000 0.000000 0.000000 -0.000000 -1.993292
  7 17.597597 0.000000 0.000000 0.131027 -0.129930 1.055680
  8 1.293670 0.684478 -0.000001 -0.000004 -0.000001 0.279887
  9 5.309685 -0.003834 0.000000 -0.206127 0.037116 0.174885
 10 4.826790 -0.004591 0.000000 -0.293049 0.046944 0.153488
 11 5.792767 -0.005304 0.000000 0.000000 -0.000000 0.285990
 12 6.662317 -0.001453 0.000000 0.000000 -0.000001 0.078555
 13 2.046985 -0.000002 0.000000 0.485286 -0.142155 -0.339791
 14 -3.447972 0.216433 4.341911 1.729729 -0.583460 1.208468
 15 4.827230 0.000000 0.000001 -0.151072 0.436524 0.267873
 16 11.139763 0.000000 0.000000 0.000000 -0.000000 -1.550438
 17 10.314597 0.000001 0.000000 -4.383981 0.179782 -0.497784
 18 -3.186314 0.196501 -4.140396 -0.708420 1.243239 2.380821
 19 4.972048 0.000000 0.000001 0.279083 -0.409122 -1.383157
 20 11.585355 0.000000 0.000000 0.000000 -0.000000 -1.485248
 21 10.127057 0.000000 0.000001 2.146001 0.406938 0.755525
time 3
  0 0.235347 -0.235347 -12.596565 -0.000000 0.270322 -1.570969
  1 -3.754021 0.613300 0.000000 -1.570795 -1.570796 0.000000
  2 -0.000005 0.000007 3.713255 -3.389865 -0.209941 1.567109
  3 18.045721 0.000000 0.000000 0.000000 -0.000000 -1.744711
  4 17.597597 0.000000 0.000000 -0.164903 0.191688 0.413694
  5 0.000005 -0.000003 -3.713255 0.311761 2.936853 5.354811
  6 18.045725 0.000000 0.000000 0.000000 -0.000000 -1.993292
  7 17.597597 0.000000 0.000000 0.131027 -0.129930 1.055680
  8 1.293670 0.684478 -0.000001 -0.000004 -0.000001 0.279887
  9 5.309685 -0.003834 0.000000 -0.206029 0.037739 0.177855
 10 4.826790 -0.004591 0.000000 -0.292934 0.047639 0.155803
 11 5.792767 -0.005304 0.000000 0.000000 -0.000000 0.290828
 12 6.662317 -0.001453 0.000000 0.000000 -0.000001 0.078555
 13 2.046985 -0.000002 0.000000 0.485071 -0.142696 -0.347297
 14 -3.447972 0.216433 4.341911 1.725222 -0.584499 1.216234
 15 4.827230 0.000000 0.000001 -0.160705 0.422993 0.265510
 16 11.139763 0.000000 0.000000 0.000000 -0.000000 -1.550438
 17 10.314597 0.000001 0.000000 -4.383981 0.179782 -0.497784
 18 -3.186314 0.196501 -4.140396 -0.725773 1.238575 2.364331
 19 4.972048 0.000000 0.000001 0.280089 -0.397619 -1.379403
 20 11.585355 0.000000 0.000000 0.000000 -0.000000 -1.485248
 21 10.127057 0.000000 0.000001 2.147848 0.407534 0.760624
time 4
  0 0.235347 -0.235347 -12.600471 -0.000000 0.270322 -1.570969
  1 -3.773553 0.621113 0.000000 -1.570795 -1.570796 0.000000
  2 -0.000005 0.000007 3.713255 -3.389865 -0.209941 1.567109
  3 18.045721 0.000000 0.000000 0.000000 -0.000000 -1.744711
  4 17.597597 0.000000 0.000000 -0.164903 0.191688 0.413694
  5 0.000005 -0.000003 -3.713255 0.311761 2.936853 5.354811
  6 18.045725 0.000000 0.000000 0.000000 -0.000000 -1.993292
  7 17.597597 0.000000 0.000000 0.131027 -0.129930 1.055680
  8 1.293670 0.684478 -0.000001 -0.000004 -0.000001 0.279887
  9 5.309685 -0.003834 0.000000 -0.205894 0.038447 0.181223
 10 4.826790 -0.004591 0.000000 -0.292819 0.048442 0.158449
 11 5.792767 -0.005304 0.000000 0.000000 -0.000000 0.296330
 12 6.662317 -0.001453 0.000000 0.000000 -0.000001 0.078555
 13 2.046985 -0.000002 0.000000 0.484769 -0.143303 -0.355838
 14 -3.447972 0.216433 4.341911 1.720429 -0.585653 1.225342
 15 4.827230 0.000000 0.000001 -0.171629 0.407420 0.262710
 16 11.139763 0.000000 0.000000 0.000000 -0.000000 -1.550438
 17 10.314597 0.000001 0.000000 -4.383981 0.179782 -0.497784
 18 -3.186314 0.196501 -4.140396 -0.744852 1.233205 2.346307
 19 4.972048 0.000000 0.000001 0.281017 -0.384346 -1.374989
 20 11.585355 0.000000 0.000000 0.000000 -0.000000 -1.485248
 21 10.127057 0.000000 0.000001 2.150142 0.408157 0.766429
time 5
  0 0.235347 -0.235347 -12.608284 -0.000000 0.270322 -1.570969
  1 -3.804804 0.632832 0.000000 -1.570795 -1.570796 0.000000
  2 -0.000005 0.000007 3.713255 -3.389865 -0.209941 1.567109
  3 18.045721 0.000000 0.000000 0.000000 -0.000000 -1.744711
  4 17.597597 0.000000 0.000000 -0.164903 0.191688 0.413694
  5 0.000005 -0.000003 -3.713255 0.311761 2.936853 5.354811
  6 18.045725 0.000000 0.000000 0.000000 -0.000000 -1.993292
  7 17.597597 0.000000 0.000000 0.131027 -0.129930 1.055680
  8 1.293670 0.684478 -0.000001 -0.000004 -0.000001 0.279887
  9 5.309685 -0.003834 0.000000 -0.205760 0.039226 0.184917
 10 4.826790 -0.004591 0.000000 -0.292671 0.049305 0.161337
 11 5.792767 -0.005304 0.000000 0.000000 -0.000000 0.302351
 12 6.662317 -0.001453 0.000000 0.000000 -0.000001 0.078555
 13 2.046985 -0.000002 0.000000 0.484554 -0.143979 -0.365142
 14 -3.447972 0.216433 4.341911 1.714868 -0.586845 1.235025
 15 4.827230 0.000000 0.000001 -0.183377 0.390314 0.259997
 16 11.139763 0.000000 0.000000 0.000000 -0.000000 -1.550438
 17 10.314597 0.000001 0.000000 -4.383981 0.179782 -0.497784
 18 -3.186314 0.196501 -4.140396 -0.765081 1.227213 2.327324
 19 4.972048 0.000000 0.000001 0.281868 -0.370108 -1.370246
 20 11.585355 0.000000 0.000000 0.000000 -0.000000 -1.485248
 21 10.127057 0.000000 0.000001 2.152498 0.408779 0.772784
time 6
  0 0.235347 -0.235347 -12.620004 -0.000000 0.270322 -1.570969
  1 -3.828242 0.644551 0.000000 -1.570795 -1.570796 0.000000
  2 -0.000005 0.000007 3.713255 -3.389865 -0.209941 1.567109
  3 18.045721 0.000000 0.000000 0.000000 -0.000000 -1.744711
  4 17.597597 0.000000 0.000000 -0.164903 0.191688 0.413694
  5 0.000005 -0.000003 -3.713255 0.311761 2.936853 5.354811
  6 18.045725 0.000000 0.000000 0.000000 -0.000000 -1.993292
  7 17.597597 0.000000 0.000000 0.131027 -0.129930 1.055680
  8 1.293670 0.684478 -0.000001 -0.000004 -0.000001 0.279887
  9 5.309685 -0.003834 0.000000 -0.205613 0.040029 0.188792
 10 4.826790 -0.004591 0.000000 -0.292507 0.050215 0.164380
 11 5.792767 -0.005304 0.000000 0.000000 -0.000000 0.308663
 12 6.662317 -0.001453 0.000000 0.000000 -0.000001 0.078555
 13 2.046985 -0.000002 0.000000 0.484252 -0.144677 -0.374850
 14 -3.447972 0.216433 4.341911 1.709212 -0.588076 1.245476
 15 4.827230 0.000000 0.000001 -0.195653 0.372443 0.257459
 16 11.139763 0.000000 0.000000 0.000000 -0.000000 -1.550438
 17 10.314597 0.000001 0.000000 -4.383981 0.179782 -0.497784
 18 -3.186314 0.196501 -4.140396 -0.785598 1.220797 2.307958
 19 4.972048 0.000000 0.000001 0.282951 -0.354985 -1.365174
 20 11.585355 0.000000 0.000000 0.000000 -0.000000 -1.485248
 21 10.127057 0.000000 0.000001 2.155047 0.409456 0.779531
time 7
  0 0.235347 -0.235347 -12.627816 -0.000000 0.270322 -1.570969
  1 -3.859493 0.656270 0.000000 -1.570795 -1.570796 0.000000
  2 -0.000005 0.000007 3.713255 -3.389865 -0.209941 1.567109
  3 18.045721 0.000000 0.000000 0.000000 -0.000000 -1.744711
  4 17.597597 0.000000 0.000000 -0.164903 0.191688 0.413694
  5 0.000005 -0.000003 -3.713255 0.311761 2.936853 5.354811
  6 18.045725 0.000000 0.000000 0.000000 -0.000000 -1.993292
  7 17.597597 0.000000 0.000000 0.131027 -0.129930 1.055680
  8 1.293670 0.684478 -0.000001 -0.000004 -0.000001 0.279887
  9 5.309685 -0.003834 0.000000 -0.205454 0.040843 0.192740
 10 4.826790 -0.004591 0.000000 -0.292359 0.051138 0.167467
 11 5.792767 -0.005304 0.000000 0.000000 -0.000000 0.315141
 12 6.662317 -0.001453 0.000000 0.000000 -0.000001 0.078555
 13 2.046985 -0.000002 0.000000 0.483907 -0.145397 -0.384874
 14 -3.447972 0.216433 4.341911 1.703268 -0.589269 1.255926
 15 4.827230 0.000000 0.000001 -0.208046 0.354232 0.254834
 16 11.139763 0.000000 0.000000 0.000000 -0.000000 -1.550438
 17 10.314597 0.000001 0.000000 -4.383981 0.179782 -0.497784
 18 -3.186314 0.196501 -4.140396 -0.805827 1.214127 2.288975
 19 4.972048 0.000000 0.000001 0.283879 -0.339621 -1.359970
 20 11.585355 0.000000 0.000000 0.000000 -0.000000 -1.485248
 21 10.127057 0.000000 0.000001 2.157659 0.410160 0.786356
time 8
  0 0.235347 -0.235347 -12.631722 -0.000000 0.270322 -1.570969
  1 -3.882931 0.664083 0.000000 -1.570795 -1.570796 0.000000
  2 -0.000005 0.000007 3.713255 -3.389865 -0.209941 1.567109
  3 18.045721 0.000000 0.000000 0.000000 -0.000000 -1.744711
  4 17.597597 0.000000 0.000000 -0.164903 0.191688 0.413694
  5 0.000005 -0.000003 -3.713255 0.311761 2.936853 5.354811
  6 18.045725 0.000000 0.000000 0.000000 -0.000000 -1.993292
  7 17.597597 0.000000 0.000000 0.131027 -0.129930 1.055680
  8 1.293670 0.684478 -0.000001 -0.000004 -0.000001 0.279887
  9 5.309685 -0.003834 0.000000 -0.205270 0.041658 0.196651
 10 4.826790 -0.004591 0.000000 -0.292195 0.052061 0.170532
 11 5.792767 -0.005304 0.000000 0.000000 -0.000000 0.321536
 12 6.662317 -0.001453 0.000000 0.000000 -0.000001 0.078555
 13 2.046985 -0.000002 0.000000 0.483649 -0.146118 -0.394672
 14 -3.447972 0.216433 4.341911 1.697419 -0.590423 1.266569
 15 4.827230 0.000000 0.000001 -0.220146 0.336020 0.252646
 16 11.139763 0.000000 0.000000 0.000000 -0.000000 -1.550438
 17 10.314597 0.000001 0.000000 -4.383981 0.179782 -0.497784
 18 -3.186314 0.196501 -4.140396 -0.825098 1.207372 2.271047
 19 4.972048 0.000000 0.000001 0.284730 -0.324337 -1.354832
 20 11.585355 0.000000 0.000000 0.000000 -0.000000 -1.485248
 21 10.127057 0.000000 0.000001 2.160334 0.410837 0.793103
time 9
  0 0.235347 -0.235347 -12.639535 -0.000000 0.270322 -1.570969
  1 -3.906369 0.675802 0.000000 -1.570795 -1.570796 0.000000
  2 -0.000005 0.000007 3.713255 -3.389865 -0.209941 1.567109
  3 18.045721 0.000000 0.000000 0.000000 -0.000000 -1.744711
  4 17.597597 0.000000 0.000000 -0.164903 0.191688 0.413694
  5 0.000005 -0.000003 -3.713255 0.311761 2.936853 5.354811
  6 18.045725 0.000000 0.000000 0.000000 -0.000000 -1.993292
  7 17.597597 0.000000 0.000000 0.131027 -0.129930 1.055680
  8 1.293670 0.684478 -0.000001 -0.000004 -0.000001 0.279887
  9 5.309685 -0.003834 0.000000 -0.205123 0.042437 0.200418
 10 4.826790 -0.004591 0.000000 -0.292047 0.052960 0.173464
 11 5.792767 -0.005304 0.000000 0.000000 -0.000000 0.327661
 12 6.662317 -0.001453 0.000000 0.000000 -0.000001 0.078555
 13 2.046985 -0.000002 0.000000 0.483304 -0.146793 -0.404156
 14 -3.447972 0.216433 4.341911 1.691859 -0.591461 1.276636
 15 4.827230 0.000000 0.000001 -0.231775 0.318574 0.250546
 16 11.139763 0.000000 0.000000 0.000000 -0.000000 -1.550438
 17 10.314597 0.000001 0.000000 -4.383981 0.179782 -0.497784
 18 -3.186314 0.196501 -4.140396 -0.843026 1.200758 2.254269
 19 4.972048 0.000000 0.000001 0.285349 -0.309697 -1.349892
 20 11.585355 0.000000 0.000000 0.000000 -0.000000 -1.485248
 21 10.127057 0.000000 0.000001 2.162755 0.411405 0.799614
time 10
  0 0.235347 -0.235347 -12.647348 -0.000000 0.270322 -1.570969
  1 -3.933714 0.687521 0.000000 -1.570795 -1.570796 0.000000
  2 -0.000005 0.000007 3.713255 -3.389865 -0.209941 1.567109
  3 18.045721 0.000000 0.000000 0.000000 -0.000000 -1.744711
  4 17.597597 0.000000 0.000000 -0.164903 0.191688 0.413694
  5 0.000005 -0.000003 -3.713255 0.311761 2.936853 5.354811
  6 18.045725 0.000000 0.000000 0.000000 -0.000000 -1.993292
  7 17.597597 0.000000 0.000000 0.131027 -0.129930 1.055680
  8 1.293670 0.684478 -0.000001 -0.000004 -0.000001 0.279887
  9 5.309685 -0.003834 0.000000 -0.204964 0.043157 0.203913
 10 4.826790 -0.004591 0.000000 -0.291883 0.053775 0.176198
 11 5.792767 -0.005304 0.000000 0.000000 -0.000000 0.333350
 12 6.662317 -0.001453 0.000000 0.000000 -0.000001 0.078555
 13 2.046985 -0.000002 0.000000 0.483089 -0.147424 -0.413011
 14 -3.447972 0.216433 4.341911 1.686682 -0.592384 1.285936
 15 4.827230 0.000000 0.000001 -0.242407 0.302405 0.248883
 16 11.139763 0.000000 0.000000 0.000000 -0.000000 -1.550438
 17 10.314597 0.000001 0.000000 -4.383981 0.179782 -0.497784
 18 -3.186314 0.196501 -4.140396 -0.859037 1.194483 2.239313
 19 4.972048 0.000000 0.000001 0.286045 -0.296183 -1.345215
 20 11.585355 0.000000 0.000000 0.000000 -0.000000 -1.485248
 21 10.127057 0.000000 0.000001 2.165112 0.412001 0.805655
time 11
  0 0.235347 -0.235347 -12.655161 -0.000000 0.270322 -1.570969
  1 -3.953246 0.695334 0.000000 -1.570795 -1.570796 0.000000
  2 -0.000005 0.000007 3.713255 -3.389865 -0.209941 1.567109
  3 18.045721 0.000000 0.000000 0.000000 -0.000000 -1.744711
  4 17.597597 0.000000 0.000000 -0.164903 0.191688 0.413694
  5 0.000005 -0.000003 -3.713255 0.311761 2.936853 5.354811
  6 18.045725 0.000000 0.000000 0.000000 -0.000000 -1.993292
  7 17.597597 0.000000 0.000000 0.131027 -0.129930 1.055680
  8 1.293670 0.684478 -0.000001 -0.000004 -0.000001 0.279887
  9 5.309685 -0.003834 0.000000 -0.204829 0.043816 0.207028
 10 4.826790 -0.004591 0.000000 -0.291768 0.054506 0.178645
 11 5.792767 -0.005304 0.000000 0.000000 -0.000000 0.338437
 12 6.662317 -0.001453 0.000000 0.000000 -0.000001 0.078555
 13 2.046985 -0.000002 0.000000 0.482787 -0.147986 -0.420832
 14 -3.447972 0.216433 4.341911 1.681984 -0.593154 1.294373
 15 4.827230 0.000000 0.000001 -0.251981 0.287938 0.247483
 16 11.139763 0.000000 0.000000 0.000000 -0.000000 -1.550438
 17 10.314597 0.000001 0.000000 -4.383981 0.179782 -0.497784
 18 -3.186314 0.196501 -4.140396 -0.872938 1.188887 2.226274
 19 4.972048 0.000000 0.000001 0.286664 -0.283956 -1.341065
 20 11.585355 0.000000 0.000000 0.000000 -0.000000 -1.485248
 21 10.127057 0.000000 0.000001 2.167214 0.412461 0.811029
time 12
  0 0.235347 -0.235347 -12.659067 -0.000000 0.270322 -1.570969
  1 -3.968871 0.707053 0.000000 -1.570795 -1.570796 0.000000
  2 -0.000005 0.000007 3.713255 -3.389865 -0.209941 1.567109
  3 18.045721 0.000000 0.000000 0.000000 -0.000000 -1.744711
  4 17.597597 0.000000 0.000000 -0.164903 0.191688 0.413694
  5 0.000005 -0.000003 -3.713255 0.311761 2.936853 5.354811
  6 18.045725 0.000000 0.000000 0.000000 -0.000000 -1.993292
  7 17.597597 0.000000 0.000000 0.131027 -0.129930 1.055680
  8 1.293670 0.684478 -0.000001 -0.000004 -0.000001 0.279887
  9 5.309685 -0.003834 0.000000 -0.204719 0.044367 0.209635
 10 4.826790 -0.004591 0.000000 -0.291653 0.055117 0.180696
 11 5.792767 -0.005304 0.000000 0.000000 -0.000000 0.342714
 12 6.662317 -0.001453 0.000000 0.000000 -0.000001 0.078555
 13 2.046985 -0.000002 0.000000 0.482615 -0.148459 -0.427394
 14 -3.447972 0.216433 4.341911 1.678053 -0.593807 1.301371
 15 4.827230 0.000000 0.000001 -0.259851 0.275854 0.246345
 16 11.139763 0.000000 0.000000 0.000000 -0.000000 -1.550438
 17 10.314597 0.000001 0.000000 -4.383981 0.179782 -0.497784
 18 -3.186314 0.196501 -4.140396 -0.884443 1.184082 2.215728
 19 4.972048 0.000000 0.000001 0.287051 -0.273740 -1.337508
 20 11.585355 0.000000 0.000000 0.000000 -0.000000 -1.485248
 21 10.127057 0.000000 0.000001 2.168998 0.412867 0.815579
time 13
  0 0.235347 -0.235347 -12.662973 -0.000000 0.270322 -1.570969
  1 -3.988403 0.714866 0.000000 -1.570795 -1.570796 0.000000
  2 -0.000005 0.000007 3.713255 -3.389865 -0.209941 1.567109
  3 18.045721 0.000000 0.000000 0.000000 -0.000000 -1.744711
  4 17.597597 0.000000 0.000000 -0.164903 0.191688 0.413694
  5 0.000005 -0.000003 -3.713255 0.311761 2.936853 5.354811
  6 18.045725 0.000000 0.000000 0.000000 -0.000000 -1.993292
  7 17.597597 0.000000 0.000000 0.131027 -0.129930 1.055680
  8 1.293670 0.684478 -0.000001 -0.000004 -0.000001 0.279887
  9 5.309685 -0.003834 0.000000 -0.204621 0.044774 0.211663
 10 4.826790 -0.004591 0.000000 -0.291571 0.055597 0.182283
 11 5.792767 -0.005304 0.000000 0.000000 -0.000000 0.346036
 12 6.662317 -0.001453 0.000000 0.000000 -0.000001 0.078555
 13 2.046985 -0.000002 0.000000 0.482399 -0.148820 -0.432473
 14 -3.447972 0.216433 4.341911 1.674985 -0.594307 1.306741
 15 4.827230 0.000000 0.000001 -0.265901 0.266493 0.245645
 16 11.139763 0.000000 0.000000 0.000000 -0.000000 -1.550438
 17 10.314597 0.000001 0.000000 -4.383981 0.179782 -0.497784
 18 -3.186314 0.196501 -4.140396 -0.892976 1.180408 2.207866
 19 4.972048 0.000000 0.000001 0.287360 -0.265937 -1.334807
 20 11.585355 0.000000 0.000000 0.000000 -0.000000 -1.485248
 21 10.127057 0.000000 0.000001 2.170271 0.413192 0.819070
time 14
  0 0.235347 -0.235347 -12.662973 -0.000000 0.270322 -1.570969
  1 -3.996216 0.718772 0.000000 -1.570795 -1.570796 0.000000
  2 -0.000005 0.000007 3.713255 -3.389865 -0.209941 1.567109
  3 18.045721 0.000000 0.000000 0.000000 -0.000000 -1.744711
  4 17.597597 0.000000 0.000000 -0.164903 0.191688 0.413694
  5 0.000005 -0.000003 -3.713255 0.311761 2.936853 5.354811
  6 18.045725 0.000000 0.000000 0.000000 -0.000000 -1.993292
  7 17.597597 0.000000 0.000000 0.131027 -0.129930 1.055680
  8 1.293670 0.684478 -0.000001 -0.000004 -0.000001 0.279887
  9 5.309685 -0.003834 0.000000 -0.204572 0.045038 0.212949
 10 4.826790 -0.004591 0.000000 -0.291505 0.055884 0.183297
 11 5.792767 -0.005304 0.000000 0.000000 -0.000000 0.348133
 12 6.662317 -0.001453 0.000000 0.000000 -0.000001 0.078555
 13 2.046985 -0.000002 0.000000 0.482313 -0.149045 -0.435755
 14 -3.447972 0.216433 4.341911 1.673068 -0.594577 1.310288
 15 4.827230 0.000000 0.000001 -0.269837 0.260536 0.245120
 16 11.139763 0.000000 0.000000 0.000000 -0.000000 -1.550438
 17 10.314597 0.000001 0.000000 -4.383981 0.179782 -0.497784
 18 -3.186314 0.196501 -4.140396 -0.898345 1.177977 2.202785
 19 4.972048 0.000000 0.000001 0.287515 -0.261030 -1.333028
 20 11.585355 0.000000 0.000000 0.000000 -0.000000 -1.485248
 21 10.127057 0.000000 0.000001 2.171100 0.413354 0.821306
time 15
  0 0.235347 -0.235347 -12.662973 -0.000000 0.270322 -1.570969
  1 -4.000122 0.718772 0.000000 -1.570795 -1.570796 0.000000
  2 -0.000005 0.000007 3.713255 -3.389865 -0.209941 1.567109
  3 18.045721 0.000000 0.000000 0.000000 -0.000000 -1.744711
  4 17.597597 0.000000 0.000000 -0.164903 0.191688 0.413694
  5 0.000005 -0.000003 -3.713255 0.311761 2.936853 5.354811
  6 18.045725 0.000000 0.000000 0.000000 -0.000000 -1.993292
  7 17.597597 0.000000 0.000000 0.131027 -0.129930 1.055680
  8 1.293670 0.684478 -0.000001 -0.000004 -0.000001 0.279887
  9 5.309685 -0.003834 0.000000 -0.204560 0.045146 0.213402
 10 4.826790 -0.004591 0.000000 -0.291489 0.056004 0.183650
 11 5.792767 -0.005304 0.000000 0.000000 -0.000000 0.348859
 12 6.662317 -0.001453 0.000000 0.000000 -0.000001 0.078555
 13 2.046985 -0.000002 0.000000 0.482270 -0.149135 -0.436878
 14 -3.447972 0.216433 4.341911 1.672301 -0.594692 1.311534
 15 4.827230 0.000000 0.000001 -0.271188 0.258323 0.244945
 16 11.139763 0.000000 0.000000 0.000000 -0.000000 -1.550438
 17 10.314597 0.000001 0.000000 -4.383981 0.179782 -0.497784
 18 -3.186314 0.196501 -4.140396 -0.900358 1.177129 2.201155
 19 4.972048 0.000000 0.000001 0.287515 -0.259180 -1.332370
 20 11.585355 0.000000 0.000000 0.000000 -0.000000 -1.485248
 21 10.127057 0.000000 0.000001 2.171482 0.413463 0.822051
time 16
  0 0.235347 -0.235347 -12.662973 -0.000000 0.270322 -1.570969
  1 -3.996216 0.718772 0.000000 -1.570795 -1.570796 0.000000
  2 -0.000005 0.000007 3.713255 -3.389865 -0.209941 1.567109
  3 18.045721 0.000000 0.000000 0.000000 -0.000000 -1.744711
  4 17.597597 0.000000 0.000000 -0.164903 0.191688 0.413694
  5 0.000005 -0.000003 -3.713255 0.311761 2.936853 5.354811
  6 18.045725 0.000000 0.000000 0.000000 -0.000000 -1.993292
  7 17.597597 0.000000 0.000000 0.131027 -0.129930 1.055680
  8 1.293670 0.684478 -0.000001 -0.000004 -0.000001 0.279887
  9 5.309685 -0.003834 0.000000 -0.204572 0.045038 0.212949
 10 4.826790 -0.004591 0.000000 -0.291505 0.055884 0.183297
 11 5.792767 -0.005304 0.000000 0.000000 -0.000000 0.348133
 12 6.662317 -0.001453 0.000000 0.000000 -0.000001 0.078555
 13 2.046985 -0.000002 0.000000 0.482313 -0.149045 -0.435755
 14 -3.447972 0.216433 4.341911 1.673068 -0.594577 1.310288
 15 4.827230 0.000000 0.000001 -0.269837 0.260536 0.245120
 16 11.139763 0.000000 0.000000 0.000000 -0.000000 -1.550438
 17 10.314597 0.000001 0.000000 -4.383981 0.179782 -0.497784
 18 -3.186314 0.196501 -4.140396 -0.898345 1.177977 2.202785
 19 4.972048 0.000000 0.000001 0.287515 -0.261030 -1.333028
 20 11.585355 0.000000 0.000000 0.000000 -0.000000 -1.485248
 21 10.127057 0.000000 0.000001 2.171100 0.413354 0.821306
time 17
  0 0.235347 -0.235347 -12.662973 -0.000000 0.270322 -1.570969
  1 -3.988403 0.714866 0.000000 -1.570795 -1.570796 0.000000
  2 -0.000005 0.000007 3.713255 -3.389865 -0.209941 1.567109
  3 18.045721 0.000000 0.000000 0.000000 -0.000000 -1.744711
  4 17.597597 0.000000 0.000000 -0.164903 0.191688 0.413694
  5 0.000005 -0.000003 -3.713255 0.311761 2.936853 5.354811
  6 18.045725 0.000000 0.000000 0.000000 -0.000000 -1.993292
  7 17.597597 0.000000 0.000000 0.131027 -0.129930 1.055680
  8 1.293670 0.684478 -0.000001 -0.000004 -0.000001 0.279887
  9 5.309685 -0.003834 0.000000 -0.204621 0.044774 0.211663
 10 4.826790 -0.004591 0.000000 -0.291571 0.055597 0.182283
 11 5.792767 -0.005304 0.000000 0.000000 -0.000000 0.346036
 12 6.662317 -0.001453 0.000000 0.000000 -0.000001 0.078555
 13 2.046985 -0.000002 0.000000 0.482399 -0.148820 -0.432473
 14 -3.447972 0.216433 4.341911 1.674985 -0.594307 1.306741
 15 4.827230 0.000000 0.000001 -0.265901 0.266493 0.245645
 16 11.139763 0.000000 0.000000 0.000000 -0.000000 -1.550438
 17 10.314597 0.000001 0.000000 -4.383981 0.179782 -0.497784
 18 -3.186314 0.196501 -4.140396 -0.892976 1.180408 2.207866
 19 4.972048 0.000000 0.000001 0.287360 -0.265937 -1.334807
 20 11.585355 0.000000 0.000000 0.000000 -0.000000 -1.485248
 21 10.127057 0.000000 0.000001 2.170271 0.413192 0.819070
time 18
  0 0.235347 -0.235347 -12.659067 -0.000000 0.270322 -1.570969
  1 -3.968871 0.707053 0.000000 -1.570795 -1.570796 0.000000
  2 -0.000005 0.000007 3.713255 -3.389865 -0.209941 1.567109
  3 18.045721 0.000000 0.000000 0.000000 -0.000000 -1.744711
  4 17.597597 0.000000 0.000000 -0.164903 0.191688 0.413694
  5 0.000005 -0.000003 -3.713255 0.311761 2.936853 5.354811
  6 18.045725 0.000000 0.000000 0.000000 -0.000000 -1.993292
  7 17.597597 0.000000 0.000000 0.131027 -0.129930 1.055680
  8 1.293670 0.684478 -0.000001 -0.000004 -0.000001 0.279887
  9 5.309685 -0.003834 0.000000 -0.204719 0.044367 0.209635
 10 4.826790 -0.004591 0.000000 -0.291653 0.055117 0.180696
 11 5.792767 -0.005304 0.000000 0.000000 -0.000000 0.342714
 12 6.662317 -0.001453 0.000000 0.000000 -0.000001 0.078555
 13 2.046985 -0.000002 0.000000 0.482615 -0.148459 -0.427394
 14 -3.447972 0.216433 4.341911 1.678053 -0.593807 1.301371
 15 4.827230 0.000000 0.000001 -0.259851 0.275854 0.246345
 16 11.139763 0.000000 0.000000 0.000000 -0.000000 -1.550438
 17 10.314597 0.000001 0.000000 -4.383981 0.179782 -0.497784
 18 -3.186314 0.196501 -4.140396 -0.884443 1.184082 2.215728
 19 4.972048 0.000000 0.000001 0.287051 -0.273740 -1.337508
 20 11.585355 0.000000 0.000000 0.000000 -0.000000 -1.485248
 21 10.127057 0.000000 0.000001 2.168998 0.412867 0.815579
time 19
  0 0.235347 -0.235347 -12.655161 -0.000000 0.270322 -1.570969
  1 -3.953246 0.695334 0.000000 -1.570795 -1.570796 0.000000
  2 -0.000005 0.000007 3.713255 -3.389865 -0.209941 1.567109
  3 18.045721 0.000000 0.000000 0.000000 -0.000000 -1.744711
  4 17.597597 0.000000 0.000000 -0.164903 0.191688 0.413694
  5 0.000005 -0.000003 -3.713255 0.311761 2.936853 5.354811
  6 18.045725 0.000000 0.000000 0.000000 -0.000000 -1.993292
  7 17.597597 0.000000 0.000000 0.131027 -0.129930 1.055680
  8 1.293670 0.684478 -0.000001 -0.000004 -0.000001 0.279887
  9 5.309685 -0.003834 0.000000 -0.204829 0.043816 0.207028
 10 4.826790 -0.004591 0.000000 -0.291768 0.054506 0.178645
 11 5.792767 -0.005304 0.000000 0.000000 -0.000000 0.338437
 12 6.662317 -0.001453 0.000000 0.000000 -0.000001 0.078555
 13 2.046985 -0.000002 0.000000 0.482787 -0.147986 -0.420832
 14 -3.447972 0.216433 4.341911 1.681984 -0.593154 1.294373
 15 4.827230 0.000000 0.000001 -0.251981 0.287938 0.247483
 16 11.139763 0.000000 0.000000 0.000000 -0.000000 -1.550438
 17 10.314597 0.000001 0.000000 -4.383981 0.179782 -0.497784
 18 -3.186314 0.196501 -4.140396 -0.872938 1.188887 2.226274
 19 4.972048 0.000000 0.000001 0.286664 -0.283956 -1.341065
 20 11.585355 0.000000 0.000000 0.000000 -0.000000 -1.485248
 21 10.127057 0.000000 0.000001 2.167214 0.412461 0.811029
time 20
  0 0.235347 -0.235347 -12.647348 -0.000000 0.270322 -1.570969
  1 -3.933714 0.687521 0.000000 -1.570795 -1.570796 0.000000
  2 -0.000005 0.000007 3.713255 -3.389865 -0.209941 1.567109
  3 18.045721 0.000000 0.000000 0.000000 -0.000000 -1.744711
  4 17.597597 0.000000 0.000000 -0.164903 0.191688 0.413694
  5 0.000005 -0.000003 -3.713255 0.311761 2.936853 5.354811
  6 18.045725 0.000000 0.000000 0.000000 -0.000000 -1.993292
  7 17.597597 0.000000 0.000000 0.131027 -0.129930 1.055680
  8 1.293670 0.684478 -0.000001 -0.000004 -0.000001 0.279887
  9 5.309685 -0.003834 0.000000 -0.204964 0.043157 0.203913
 10 4.826790 -0.004591 0.000000 -0.291883 0.053775 0.176198
 11 5.792767 -0.005304 0.000000 0.000000 -0.000000 0.333350
 12 6.662317 -0.001453 0.000000 0.000000 -0.000001 0.078555
 13 2.046985 -0.000002 0.000000 0.483089 -0.147424 -0.413011
 14 -3.447972 0.216433 4.341911 1.686682 -0.592384 1.285936
 15 4.827230 0.000000 0.000001 -0.242407 0.302405 0.248883
 16 11.139763 0.000000 0.000000 0.000000 -0.000000 -1.550438
 17 10.314597 0.000001 0.000000 -4.383981 0.179782 -0.497784
 18 -3.186314 0.196501 -4.140396 -0.859037 1.194483 2.239313
 19 4.972048 0.000000 0.000001 0.286045 -0.296183 -1.345215
 20 11.585355 0.000000 0.000000 0.000000 -0.000000 -1.485248
 21 10.127057 0.000000 0.000001 2.165112 0.412001 0.805655
time 21
  0 0.235347 -0.235347 -12.639535 -0.000000 0.270322 -1.570969
  1 -3.906369 0.675802 0.000000 -1.570795 -1.570796 0.000000
  2 -0.000005 0.000007 3.713255 -3.389865 -0.209941 1.567109
  3 18.045721 0.000000 0.000000 0.000000 -0.000000 -1.744711
  4 17.597597 0.000000 0.000000 -0.164903 0.191688 0.413694
  5 0.000005 -0.000003 -3.713255 0.311761 2.936853 5.354811
  6 18.045725 0.000000 0.000000 0.000000 -0.000000 -1.993292
  7 17.597597 0.000000 0.000000 0.131027 -0.129930 1.055680
  8 1.293670 0.684478 -0.000001 -0.000004 -0.000001 0.279887
  9 5.309685 -0.003834 0.000000 -0.205123 0.042437 0.200418
 10 4.826790 -0.004591 0.000000 -0.292047 0.052960 0.173464
 11 5.792767 -0.005304 0.000000 0.000000 -0.000000 0.327661
 12 6.662317 -0.001453 0.000000 0.000000 -0.000001 0.078555
 13 2.046985 -0.000002 0.000000 0.483304 -0.146793 -0.404156
 14 -3.447972 0.216433 4.341911 1.691859 -0.591461 1.276636
 15 4.827230 0.000000 0.000001 -0.231775 0.318574 0.250546
 16 11.139763 0.000000 0.000000 0.000000 -0.000000 -1.550438
 17 10.314597 0.000001 0.000000 -4.383981 0.179782 -0.497784
 18 -3.186314 0.196501 -4.140396 -0.843026 1.200758 2.254269
 19 4.972048 0.000000 0.000001 0.285349 -0.309697 -1.349892
 20 11.585355 0.000000 0.000000 0.000000 -0.000000 -1.485248
 21 10.127057 0.000000 0.000001 2.162755 0.411405 0.799614
time 22
  0 0.235347 -0.235347 -12.631722 -0.000000 0.270322 -1.570969
  1 -3.882931 0.664083 0.000000 -1.570795 -1.570796 0.000000
  2 -0.000005 0.000007 3.713255 -3.389865 -0.209941 1.567109
  3 18.045721 0.000000 0.000000 0.000000 -0.000000 -1.744711
  4 17.597597 0.000000 0.000000 -0.164903 0.191688 0.413694
  5 0.000005 -0.000003 -3.713255 0.311761 2.936853 5.354811
  6 18.045725 0.000000 0.000000 0.000000 -0.000000 -1.993292
  7 17.597597 0.000000 0.000000 0.131027 -0.129930 1.055680
  8 1.293670 0.684478 -0.000001 -0.000004 -0.000001 0.279887
  9 5.309685 -0.003834 0.000000 -0.205270 0.041658 0.196651
 10 4.826790 -0.004591 0.000000 -0.292195 0.052061 0.170532
 11 5.792767 -0.005304 0.000000 0.000000 -0.000000 0.321536
 12 6.662317 -0.001453 0.000000 0.000000 -0.000001 0.078555
 13 2.046985 -0.000002 0.000000 0.483649 -0.146118 -0.394672
 14 -3.447972 0.216433 4.341911 1.697419 -0.590423 1.266569
 15 4.827230 0.000000 0.000001 -0.220146 0.336020 0.252646
 16 11.139763 0.000000 0.000000 0.000000 -0.000000 -1.550438
 17 10.314597 0.000001 0.000000 -4.383981 0.179782 -0.497784
 18 -3.186314 0.196501 -4.140396 -0.825098 1.207372 2.271047
 19 4.972048 0.000000 0.000001 0.284730 -0.324337 -1.354832
 20 11.585355 0.000000 0.000000 0.000000 -0.000000 -1.485248
 21 10.127057 0.000000 0.000001 2.160334 0.410837 0.793103
time 23
  0 0.235347 -0.235347 -12.627816 -0.000000 0.270322 -1.570969
  1 -3.859493 0.656270 0.000000 -1.570795 -1.570796 0.000000
  2 -0.000005 0.000007 3.713255 -3.389865 -0.209941 1.567109
  3 18.045721 0.000000 0.000000 0.000000 -0.000000 -1.744711
  4 17.597597 0.000000 0.000000 -0.164903 0.191688 0.413694
  5 0.000005 -0.000003 -3.713255 0.311761 2.936853 5.354811
  6 18.045725 0.000000 0.000000 0.000000 -0.000000 -1.993292
  7 17.597597 0.000000 0.000000 0.131027 -0.129930 1.055680
  8 1.293670 0.684478 -0.000001 -0.000004 -0.000001 0.279887
  9 5.309685 -0.003834 0.000000 -0.205454 0.040843 0.192740
 10 4.826790 -0.004591 0.000000 -0.292359 0.051138 0.167467
 11 5.792767 -0.005304 0.000000 0.000000 -0.000000 0.315141
 12 6.662317 -0.001453 0.000000 0.000000 -0.000001 0.078555
 13 2.046985 -0.000002 0.000000 0.483907 -0.145397 -0.384874
 14 -3.447972 0.216433 4.341911 1.703268 -0.589269 1.255926
 15 4.827230 0.000000 0.000001 -0.208046 0.354232 0.254834
 16 11.139763 0.000000 0.000000 0.000000 -0.000000 -1.550438
 17 10.314597 0.000001 0.000000 -4.383981 0.179782 -0.497784
 18 -3.186314 0.196501 -4.140396 -0.805827 1.214127 2.288975
 19 4.972048 0.000000 0.000001 0.283879 -0.339621 -1.359970
 20 11.585355 0.000000 0.000000 0.000000 -0.000000 -1.485248
 21 10.127057 0.000000 0.000001 2.157659 0.410160 0.786356
time 24
  0 0.235347 -0.235347 -12.620004 -0.000000 0.270322 -1.570969
  1 -3.828242 0.644551 0.000000 -1.570795 -1.570796 0.000000
  2 -0.000005 0.000007 3.713255 -3.389865 -0.209941 1.567109
  3 18.045721 0.000000 0.000000 0.000000 -0.000000 -1.744711
  4 17.597597 0.000000 0.000000 -0.164903 0.191688 0.413694
  5 0.000005 -0.000003 -3.713255 0.311761 2.936853 5.354811
  6 18.045725 0.000000 0.000000 0.000000 -0.000000 -1.993292
  7 17.597597 0.000000 0.000000 0.131027 -0.129930 1.055680
  8 1.293670 0.684478 -0.000001 -0.000004 -0.000001 0.279887
  9 5.309685 -0.003834 0.000000 -0.205613 0.040029 0.188792
 10 4.826790 -0.004591 0.000000 -0.292507 0.050215 0.164380
 11 5.792767 -0.005304 0.000000 0.000000 -0.000000 0.308663
 12 6.662317 -0.001453 0.000000 0.000000 -0.000001 0.078555
 13 2.046985 -0.000002 0.000000 0.484252 -0.144677 -0.374850
 14 -3.447972 0.216433 4.341911 1.709212 -0.588076 1.245476
 15 4.827230 0.000000 0.000001 -0.195653 0.372443 0.257459
 16 11.139763 0.000000 0.000000 0.000000 -0.000000 -1.550438
 17 10.314597 0.000001 0.000000 -4.383981 0.179782 -0.497784
 18 -3.186314 0.196501 -4.140396 -0.785598 1.220797 2.307958
 19 4.972048 0.000000 0.000001 0.282951 -0.354985 -1.365174
 20 11.585355 0.000000 0.000000 0.000000 -0.000000 -1.485248
 21 10.127057 0.000000 0.000001 2.155047 0.409456 0.779531
time 25
  0 0.235347 -0.235347 -12.608284 -0.000000 0.270322 -1.570969
  1 -3.804804 0.632832 0.000000 -1.570795 -1.570796 0.000000
  2 -0.000005 0.000007 3.713255 -3.389865 -0.209941 1.567109
  3 18.045721 0.000000 0.000000 0.000000 -0.000000 -1.744711
  4 17.597597 0.000000 0.000000 -0.164903 0.191688 0.413694
  5 0.000005 -0.000003 -3.713255 0.311761 2.936853 5.354811
  6 18.045725 0.000000 0.000000 0.000000 -0.000000 -1.993292
  7 17.597597 0.000000 0.000000 0.131027 -0.129930 1.055680
  8 1.293670 0.684478 -0.000001 -0.000004 -0.000001 0.279887
  9 5.309685 -0.003834 0.000000 -0.205760 0.039226 0.184917
 10 4.826790 -0.004591 0.000000 -0.292671 0.049305 0.161337
 11 5.792767 -0.005304 0.000000 0.000000 -0.000000 0.302351
 12 6.662317 -0.001453 0.000000 0.000000 -0.000001 0.078555
 13 2.046985 -0.000002 0.000000 0.484554 -0.143979 -0.365142
 14 -3.447972 0.216433 4.341911 1.714868 -0.586845 1.235025
 15 4.827230 0.000000 0.000001 -0.183377 0.390314 0.259997
 16 11.139763 0.000000 0.000000 0.000000 -0.000000 -1.550438
 17 10.314597 0.000001 0.000000 -4.383981 0.179782 -0.497784
 18 -3.186314 0.196501 -4.140396 -0.765081 1.227213 2.327324
 19 4.972048 0.000000 0.000001 0.281868 -0.370108 -1.370246
 20 11.585355 0.000000 0.000000 0.000000 -0.000000 -1.485248
 21 10.127057 0.000000 0.000001 2.152498 0.408779 0.772784
time 26
  0 0.235347 -0.235347 -12.600471 -0.000000 0.270322 -1.570969
  1 -3.773553 0.621113 0.000000 -1.570795 -1.570796 0.000000
  2 -0.000005 0.000007 3.713255 -3.389865 -0.209941 1.567109
  3 18.045721 0.000000 0.000000 0.000000 -0.000000 -1.744711
  4 17.597597 0.000000 0.000000 -0.164903 0.191688 0.413694
  5 0.000005 -0.000003 -3.713255 0.311761 2.936853 5.354811
  6 18.045725 0.000000 0.000000 0.000000 -0.000000 -1.993292
  7 17.597597 0.000000 0.000000 0.131027 -0.129930 1.055680
  8 1.293670 0.684478 -0.000001 -0.000004 -0.000001 0.279887
  9 5.309685 -0.003834 0.000000 -0.205894 0.038447 0.181223
 10 4.826790 -0.004591 0.000000 -0.292819 0.048442 0.158449
 11 5.792767 -0.005304 0.000000 0.000000 -0.000000 0.296330
 12 6.662317 -0.001453 0.000000 0.000000 -0.000001 0.078555
 13 2.046985 -0.000002 0.000000 0.484769 -0.143303 -0.355838
 14 -3.447972 0.216433 4.341911 1.720429 -0.585653 1.225342
 15 4.827230 0.000000 0.000001 -0.171629 0.407420 0.262710
 16 11.139763 0.000000 0.000000 0.000000 -0.000000 -1.550438
 17 10.314597 0.000001 0.000000 -4.383981 0.179782 -0.497784
 18 -3.186314 0.196501 -4.140396 -0.744852 1.233205 2.346307
 19 4.972048 0.000000 0.000001 0.281017 -0.384346 -1.374989
 20 11.585355 0.000000 0.000000 0.000000 -0.000000 -1.485248
 21 10.127057 0.000000 0.000001 2.150142 0.408157 0.766429
time 27
  0 0.235347 -0.235347 -12.596565 -0.000000 0.270322 -1.570969
  1 -3.754021 0.613300 0.000000 -1.570795 -1.570796 0.000000
  2 -0.000005 0.000007 3.713255 -3.389865 -0.209941 1.567109
  3 18.045721 0.000000 0.000000 0.000000 -0.000000 -1.744711
  4 17.597597 0.000000 0.000000 -0.164903 0.191688 0.413694
  5 0.000005 -0.000003 -3.713255 0.311761 2.936853 5.354811
  6 18.045725 0.000000 0.000000 0.000000 -0.000000 -1.993292
  7 17.597597 0.000000 0.000000 0.131027 -0.129930 1.055680
  8 1.293670 0.684478 -0.000001 -0.000004 -0.000001 0.279887
  9 5.309685 -0.003834 0.000000 -0.206029 0.037739 0.177855
 10 4.826790 -0.004591 0.000000 -0.292934 0.047639 0.155803
 11 5.792767 -0.005304 0.000000 0.000000 -0.000000 0.290828
 12 6.662317 -0.001453 0.000000 0.000000 -0.000001 0.078555
 13 2.046985 -0.000002 0.000000 0.485071 -0.142696 -0.347297
 14 -3.447972 0.216433 4.341911 1.725222 -0.584499 1.216234
 15 4.827230 0.000000 0.000001 -0.160705 0.422993 0.265510
 16 11.139763 0.000000 0.000000 0.000000 -0.000000 -1.550438
 17 10.314597 0.000001 0.000000 -4.383981 0.179782 -0.497784
 18 -3.186314 0.196501 -4.140396 -0.725773 1.238575 2.364331
 19 4.972048 0.000000 0.000001 0.280089 -0.397619 -1.379403
 20 11.585355 0.000000 0.000000 0.000000 -0.000000 -1.485248
 21 10.127057 0.000000 0.000001 2.147848 0.407534 0.760624
time 28
  0 0.235347 -0.235347 -12.592659 -0.000000 0.270322 -1.570969
  1 -3.730583 0.601581 0.000000 -1.570795 -1.570796 0.000000
  2 -0.000005 0.000007 3.713255 -3.389865 -0.209941 1.567109
  3 18.045721 0.000000 0.000000 0.000000 -0.000000 -1.744711
  4 17.597597 0.000000 0.000000 -0.164903 0.191688 0.413694
  5 0.000005 -0.000003 -3.713255 0.311761 2.936853 5.354811
  6 18.045725 0.000000 0.000000 0.000000 -0.000000 -1.993292
  7 17.597597 0.000000 0.000000 0.131027 -0.129930 1.055680
  8 1.293670 0.684478 -0.000001 -0.000004 -0.000001 0.279887
  9 5.309685 -0.003834 0.000000 -0.206127 0.037116 0.174885
 10 4.826790 -0.004591 0.000000 -0.293049 0.046944 0.153488
 11 5.792767 -0.005304 0.000000 0.000000 -0.000000 0.285990
 12 6.662317 -0.001453 0.000000 0.000000 -0.000001 0.078555
 13 2.046985 -0.000002 0.000000 0.485286 -0.142155 -0.339791
 14 -3.447972 0.216433 4.341911 1.729729 -0.583460 1.208468
 15 4.827230 0.000000 0.000001 -0.151072 0.436524 0.267873
 16 11.139763 0.000000 0.000000 0.000000 -0.000000 -1.550438
 17 10.314597 0.000001 0.000000 -4.383981 0.179782 -0.497784
 18 -3.186314 0.196501 -4.140396 -0.708420 1.243239 2.380821
 19 4.972048 0.000000 0.000001 0.279083 -0.409122 -1.383157
 20 11.585355 0.000000 0.000000 0.000000 -0.000000 -1.485248
 21 10.127057 0.000000 0.000001 2.146001 0.406938 0.755525
time 29
  0 0.235347 -0.235347 -12.588753 -0.000000 0.270322 -1.570969
  1 -3.711051 0.589862 0.000000 -1.570795 -1.570796 0.000000
  2 -0.000005 0.000007 3.713255 -3.389865 -0.209941 1.567109
  3 18.045721 0.000000 0.000000 0.000000 -0.000000 -1.744711
  4 17.597597 0.000000 0.000000 -0.164903 0.191688 0.413694
  5 0.000005 -0.000003 -3.713255 0.311761 2.936853 5.354811
  6 18.045725 0.000000 0.000000 0.000000 -0.000000 -1.993292
  7 17.597597 0.000000 0.000000 0.131027 -0.129930 1.055680
  8 1.293670 0.684478 -0.000001 -0.000004 -0.000001 0.279887
  9 5.309685 -0.003834 0.000000 -0.206225 0.036625 0.172459
 10 4.826790 -0.004591 0.000000 -0.293131 0.046356 0.151592
 11 5.792767 -0.005304 0.000000 0.000000 -0.000000 0.282003
 12 6.662317 -0.001453 0.000000 0.000000 -0.000001 0.078555
 13 2.046985 -0.000002 0.000000 0.485415 -0.141705 -0.333678
 14 -3.447972 0.216433 4.341911 1.733276 -0.582576 1.201948
 15 4.827230 0.000000 0.000001 -0.143084 0.447757 0.270061
 16 11.139763 0.000000 0.000000 0.000000 -0.000000 -1.550438
 17 10.314597 0.000001 0.000000 -4.383981 0.179782 -0.497784
 18 -3.186314 0.196501 -4.140396 -0.693943 1.246913 2.394531
 19 4.972048 0.000000 0.000001 0.278387 -0.418614 -1.386253
 20 11.585355 0.000000 0.000000 0.000000 -0.000000 -1.485248
 21 10.127057 0.000000 0.000001 2.144345 0.406478 0.751288
time 30
  0 0.235347 -0.235347 -12.580939 -0.000000 0.270322 -1.570969
  1 -3.699332 0.589862 0.000000 -1.570795 -1.570796 0.000000
  2 -0.000005 0.000007 3.713255 -3.389865 -0.209941 1.567109
  3 18.045721 0.000000 0.000000 0.000000 -0.000000 -1.744711
  4 17.597597 0.000000 0.000000 -0.164903 0.191688 0.413694
  5 0.000005 -0.000003 -3.713255 0.311761 2.936853 5.354811
  6 18.045725 0.000000 0.000000 0.000000 -0.000000 -1.993292
  7 17.597597 0.000000 0.000000 0.131027 -0.129930 1.055680
  8 1.293670 0.684478 -0.000001 -0.000004 -0.000001 0.279887
  9 5.309685 -0.003834 0.000000 -0.206286 0.036229 0.170666
 10 4.826790 -0.004591 0.000000 -0.293180 0.045949 0.150203
 11 5.792767 -0.005304 0.000000 0.000000 -0.000000 0.279097
 12 6.662317 -0.001453 0.000000 0.000000 -0.000001 0.078555
 13 2.046985 -0.000002 0.000000 0.485588 -0.141367 -0.329184
 14 -3.447972 0.216433 4.341911 1.735769 -0.581922 1.197154
 15 4.827230 0.000000 0.000001 -0.137210 0.455927 0.271636
 16 11.139763 0.000000 0.000000 0.000000 -0.000000 -1.550438
 17 10.314597 0.000001 0.000000 -4.383981 0.179782 -0.497784
 18 -3.186314 0.196501 -4.140396 -0.682918 1.249598 2.404886
 19 4.972048 0.000000 0.000001 0.277768 -0.425532 -1.388559
 20 11.585355 0.000000 0.000000 0.000000 -0.000000 -1.485248
 21 10.127057 0.000000 0.000001 2.143134 0.406153 0.748268
end
