version 1
nodes
  0 "Bip01"  -1
  1 "Bip01 Pelvis"   0
  2 "Bip01 L Leg"   1
  3 "Bip01 L Leg1"   2
  4 "Bip01 L Foot"   3
  5 "Bip01 R Leg"   1
  6 "Bip01 R Leg1"   5
  7 "Bip01 R Foot"   6
  8 "Bip01 Spine"   1
  9 "Bip01 Spine1"   8
 10 "Bip01 Spine2"   9
 11 "Bip01 Spine3"  10
 12 "Bip01 Neck"  11
 13 "Bip01 Head"  12
 14 "Bip01 L Arm"  12
 15 "Bip01 L Arm1"  14
 16 "Bip01 L Arm2"  15
 17 "Bip01 L Hand"  16
 18 "Bip01 R Arm"  12
 19 "Bip01 R Arm1"  18
 20 "Bip01 R Arm2"  19
 21 "Bip01 R Hand"  20
end
skeleton
time 0
  0 0.235347 -0.235347 -14.549749 -0.045585 0.257873 -1.742273
  1 0.000000 0.000000 0.000000 -1.570795 -1.570796 0.000000
  2 -0.000005 0.000007 3.713255 -3.368582 -0.221254 1.331540
  3 18.045721 0.000000 0.000000 0.000000 -0.000000 -1.349168
  4 17.597597 0.000000 0.000000 -0.205032 0.225938 -0.216505
  5 0.000005 -0.000003 -3.713255 6.216136 2.542639 5.445702
  6 18.045725 0.000000 0.000000 0.000000 -0.000000 -2.074575
  7 17.597597 0.000000 0.000000 -0.092081 0.087818 0.559914
  8 1.293670 0.684478 -0.000001 -0.000004 -0.000001 0.271132
  9 5.309685 -0.003834 0.000000 -0.032320 0.013063 0.383494
 10 4.826790 -0.004591 0.000000 -0.143856 0.219737 0.294399
 11 5.792767 -0.005304 0.000000 0.000049 0.087260 0.113327
 12 6.662317 -0.001453 0.000000 0.000000 -0.000001 -0.314346
 13 2.046985 -0.000002 0.000000 0.265994 -0.336454 -0.171103
 14 -3.268279 -1.123452 4.341911 -1.854296 -1.353142 5.315989
 15 4.827230 0.000000 0.000001 -1.812605 1.249151 -1.295690
 16 11.139763 0.000000 0.000000 0.000000 -0.000000 -1.566066
 17 10.314597 0.000001 0.000000 -1.384037 -0.010306 0.140717
 18 -3.014434 -1.034005 -4.140396 -0.000013 1.370795 3.455176
 19 4.972048 0.000000 0.000001 0.895523 -0.653582 -1.003402
 20 11.585355 0.000000 0.000000 0.000000 -0.000000 -1.512531
 21 10.127057 0.000000 0.000001 1.956041 0.012399 -0.104453
time 1
  0 0.235347 -0.235347 -14.549749 -0.045585 0.257873 -1.742273
  1 0.000000 0.000000 0.000000 -1.570795 -1.570796 0.000000
  2 -0.000005 0.000007 3.713255 -3.368582 -0.221254 1.331540
  3 18.045721 0.000000 0.000000 0.000000 -0.000000 -1.349168
  4 17.597597 0.000000 0.000000 -0.205032 0.225938 -0.216505
  5 0.000005 -0.000003 -3.713255 6.216136 2.542639 5.445702
  6 18.045725 0.000000 0.000000 0.000000 -0.000000 -2.074575
  7 17.597597 0.000000 0.000000 -0.092081 0.087818 0.559914
  8 1.293670 0.684478 -0.000001 -0.000004 -0.000001 0.271132
  9 5.309685 -0.003834 0.000000 -0.032320 0.013063 0.383494
 10 4.826790 -0.004591 0.000000 -0.145301 0.214788 0.259585
 11 5.792767 -0.005304 0.000000 -0.121846 0.100491 0.101865
 12 6.662317 -0.001453 0.000000 0.000000 -0.000001 -0.314346
 13 2.046985 -0.000002 0.000000 0.377622 -0.298359 -0.161708
 14 -3.268279 -1.123452 4.341911 -1.854296 -1.353142 5.315989
 15 4.827230 0.000000 0.000001 -1.694662 1.300807 -1.144821
 16 11.139763 0.000000 0.000000 0.000000 -0.000000 -1.566066
 17 10.314597 0.000001 0.000000 -1.384037 -0.010306 0.140717
 18 -3.014434 -1.034005 -4.140396 0.298344 1.361807 3.747493
 19 4.972048 0.000000 0.000001 0.636926 -0.853317 -0.765207
 20 11.585355 0.000000 0.000000 0.000000 -0.000000 -1.785433
 21 10.127057 0.000000 0.000001 1.956041 0.012399 -0.104453
time 2
  0 0.235347 -0.235347 -14.549749 -0.045585 0.257873 -1.742273
  1 0.000000 0.000000 0.000000 -1.570795 -1.570796 0.000000
  2 -0.000005 0.000007 3.713255 -3.368582 -0.221254 1.331540
  3 18.045721 0.000000 0.000000 0.000000 -0.000000 -1.349168
  4 17.597597 0.000000 0.000000 -0.205032 0.225938 -0.216505
  5 0.000005 -0.000003 -3.713255 6.216136 2.542639 5.445702
  6 18.045725 0.000000 0.000000 0.000000 -0.000000 -2.074575
  7 17.597597 0.000000 0.000000 -0.092081 0.087818 0.559914
  8 1.293670 0.684478 -0.000001 -0.000004 -0.000001 0.271132
  9 5.309685 -0.003834 0.000000 -0.032320 0.013063 0.383494
 10 4.826790 -0.004591 0.000000 -0.143840 0.219785 0.294796
 11 5.792767 -0.005304 0.000000 -0.080899 0.096200 0.105893
 12 6.662317 -0.001453 0.000000 0.000000 -0.000001 -0.314346
 13 2.046985 -0.000002 0.000000 0.345180 -0.306397 -0.189486
 14 -3.268279 -1.123452 4.341911 -1.854296 -1.353142 5.315989
 15 4.827230 0.000000 0.000001 -1.691902 1.264044 -1.225681
 16 11.139763 0.000000 0.000000 0.000000 -0.000000 -1.566066
 17 10.314597 0.000001 0.000000 -1.384037 -0.010306 0.140717
 18 -3.014434 -1.034005 -4.140396 0.191542 1.367177 3.642704
 19 4.972048 0.000000 0.000001 0.770827 -0.776174 -0.898863
 20 11.585355 0.000000 0.000000 0.000000 -0.000000 -1.684695
 21 10.127057 0.000000 0.000001 1.956041 0.012399 -0.104453
time 3
  0 0.235347 -0.235347 -14.549749 -0.045585 0.257873 -1.742273
  1 0.000000 0.000000 0.000000 -1.570795 -1.570796 0.000000
  2 -0.000005 0.000007 3.713255 -3.368582 -0.221254 1.331540
  3 18.045721 0.000000 0.000000 0.000000 -0.000000 -1.349168
  4 17.597597 0.000000 0.000000 -0.205032 0.225938 -0.216505
  5 0.000005 -0.000003 -3.713255 6.216136 2.542639 5.445702
  6 18.045725 0.000000 0.000000 0.000000 -0.000000 -2.074575
  7 17.597597 0.000000 0.000000 -0.092081 0.087818 0.559914
  8 1.293670 0.684478 -0.000001 -0.000004 -0.000001 0.271132
  9 5.309685 -0.003834 0.000000 -0.032320 0.013063 0.383494
 10 4.826790 -0.004591 0.000000 -0.142198 0.224735 0.329941
 11 5.792767 -0.005304 0.000000 -0.021998 0.089765 0.111396
 12 6.662317 -0.001453 0.000000 0.000000 -0.000001 -0.314346
 13 2.046985 -0.000002 0.000000 0.296195 -0.323846 -0.213353
 14 -3.268279 -1.123452 4.341911 -1.854296 -1.353142 5.315989
 15 4.827230 0.000000 0.000001 -1.805968 1.223536 -1.311092
 16 11.139763 0.000000 0.000000 0.000000 -0.000000 -1.566066
 17 10.314597 0.000001 0.000000 -1.384037 -0.010306 0.140717
 18 -3.014434 -1.034005 -4.140396 0.055498 1.370512 3.509632
 19 4.972048 0.000000 0.000001 0.887865 -0.664361 -1.007157
 20 11.585355 0.000000 0.000000 0.000000 -0.000000 -1.561921
 21 10.127057 0.000000 0.000001 1.956041 0.012399 -0.104453
time 4
  0 0.235347 -0.235347 -14.549749 -0.045585 0.257873 -1.742273
  1 0.000000 0.000000 0.000000 -1.570795 -1.570796 0.000000
  2 -0.000005 0.000007 3.713255 -3.368582 -0.221254 1.331540
  3 18.045721 0.000000 0.000000 0.000000 -0.000000 -1.349168
  4 17.597597 0.000000 0.000000 -0.205032 0.225938 -0.216505
  5 0.000005 -0.000003 -3.713255 6.216136 2.542639 5.445702
  6 18.045725 0.000000 0.000000 0.000000 -0.000000 -2.074575
  7 17.597597 0.000000 0.000000 -0.092081 0.087818 0.559914
  8 1.293670 0.684478 -0.000001 -0.000004 -0.000001 0.271132
  9 5.309685 -0.003834 0.000000 -0.032320 0.013063 0.383494
 10 4.826790 -0.004591 0.000000 -0.143856 0.219737 0.294399
 11 5.792767 -0.005304 0.000000 0.000049 0.087260 0.113327
 12 6.662317 -0.001453 0.000000 0.000000 -0.000001 -0.314346
 13 2.046985 -0.000002 0.000000 0.265994 -0.336454 -0.171103
 14 -3.268279 -1.123452 4.341911 -1.854296 -1.353142 5.315989
 15 4.827230 0.000000 0.000001 -1.812605 1.249151 -1.295690
 16 11.139763 0.000000 0.000000 0.000000 -0.000000 -1.566066
 17 10.314597 0.000001 0.000000 -1.384037 -0.010306 0.140717
 18 -3.014434 -1.034005 -4.140396 -0.000013 1.370795 3.455176
 19 4.972048 0.000000 0.000001 0.895523 -0.653582 -1.003402
 20 11.585355 0.000000 0.000000 0.000000 -0.000000 -1.512531
 21 10.127057 0.000000 0.000001 1.956041 0.012399 -0.104453
end
