version 1
nodes
  0 "Bip01"  -1
  1 "Bip01 Pelvis"   0
  2 "Bip01 L Leg"   1
  3 "Bip01 L Leg1"   2
  4 "Bip01 L Foot"   3
  5 "Bip01 R Leg"   1
  6 "Bip01 R Leg1"   5
  7 "Bip01 R Foot"   6
  8 "Bip01 Spine"   1
  9 "Bip01 Spine1"   8
 10 "Bip01 Spine2"   9
 11 "Bip01 Spine3"  10
 12 "Bip01 Neck"  11
 13 "Bip01 Head"  12
 14 "Bip01 L Arm"  12
 15 "Bip01 L Arm1"  14
 16 "Bip01 L Arm2"  15
 17 "Bip01 L Hand"  16
 18 "Bip01 R Arm"  12
 19 "Bip01 R Arm1"  18
 20 "Bip01 R Arm2"  19
 21 "Bip01 R Hand"  20
end
skeleton
time 0
  0 0.235347 -0.235347 -14.604439 -0.000000 0.270322 -1.570969
  1 0.000000 0.000000 0.000000 -1.570795 -1.570796 0.000000
  2 -0.000005 0.000007 3.713255 -3.368582 -0.221254 1.331540
  3 18.045721 0.000000 0.000000 0.000000 -0.000000 -1.349168
  4 17.597597 0.000000 0.000000 -0.205032 0.225938 -0.216505
  5 0.000005 -0.000003 -3.713255 6.216136 2.542639 5.445702
  6 18.045725 0.000000 0.000000 0.000000 -0.000000 -2.074575
  7 17.597597 0.000000 0.000000 -0.092081 0.087818 0.559914
  8 1.293670 0.684478 -0.000001 -0.000004 -0.000001 0.079314
  9 5.309685 -0.003834 0.000000 -0.268698 0.030429 0.109260
 10 4.826790 -0.004591 0.000000 -0.270225 -0.009084 -0.033658
 11 5.792767 -0.005304 0.000000 -0.139214 -0.009588 -0.069074
 12 6.662317 -0.001453 0.000000 0.000000 -0.000001 0.471000
 13 2.046985 -0.000002 0.000000 0.375252 0.579045 -1.241577
 14 -3.112024 1.517254 4.341911 2.426247 -0.917566 0.132067
 15 4.827230 0.000000 0.000001 -1.604150 -0.487840 -1.247209
 16 11.139763 0.000000 0.000000 0.000000 -0.000000 -1.137458
 17 10.314597 0.000001 0.000000 -0.655375 0.368129 -0.269525
 18 -2.869898 1.399663 -4.140396 -0.000013 1.370795 2.669783
 19 4.972048 0.000000 0.000001 1.139732 -0.164903 -1.868177
 20 11.585355 0.000000 0.000000 0.000000 -0.000000 -2.024545
 21 10.127057 0.000000 0.000001 1.969610 0.138362 0.944238
time 1
  0 0.235347 -0.235347 -14.604439 -0.000000 0.270322 -1.570969
  1 0.000000 0.000000 0.000000 -1.570795 -1.570796 0.000000
  2 -0.000005 0.000007 3.713255 -3.368582 -0.221254 1.331540
  3 18.045721 0.000000 0.000000 0.000000 -0.000000 -1.349168
  4 17.597597 0.000000 0.000000 -0.205032 0.225938 -0.216505
  5 0.000005 -0.000003 -3.713255 6.216136 2.542639 5.445702
  6 18.045725 0.000000 0.000000 0.000000 -0.000000 -2.074575
  7 17.597597 0.000000 0.000000 -0.092081 0.087818 0.559914
  8 1.293670 0.684478 -0.000001 -0.000004 -0.000001 0.079314
  9 5.309685 -0.003834 0.000000 -0.268698 0.030429 0.109260
 10 4.826790 -0.004591 0.000000 -0.270225 -0.008617 -0.031916
 11 5.792767 -0.005304 0.000000 -0.139230 -0.009264 -0.066936
 12 6.662317 -0.001453 0.000000 0.000000 -0.000001 0.471000
 13 2.046985 -0.000002 0.000000 0.375080 0.579225 -1.245712
 14 -3.112024 1.517254 4.341911 2.423466 -0.920066 0.135711
 15 4.827230 0.000000 0.000001 -1.599803 -0.492436 -1.247384
 16 11.139763 0.000000 0.000000 0.000000 -0.000000 -1.137458
 17 10.314597 0.000001 0.000000 -0.655375 0.368129 -0.269525
 18 -2.869898 1.399663 -4.140396 -0.000013 1.366838 2.669783
 19 4.972048 0.000000 0.000001 1.134858 -0.162168 -1.868177
 20 11.585355 0.000000 0.000000 0.000000 -0.000000 -2.024545
 21 10.127057 0.000000 0.000001 1.969610 0.138362 0.944238
time 2
  0 0.235347 -0.235347 -14.604439 -0.000000 0.270322 -1.570969
  1 0.000000 0.000000 0.000000 -1.570795 -1.570796 0.000000
  2 -0.000005 0.000007 3.713255 -3.368582 -0.221254 1.331540
  3 18.045721 0.000000 0.000000 0.000000 -0.000000 -1.349168
  4 17.597597 0.000000 0.000000 -0.205032 0.225938 -0.216505
  5 0.000005 -0.000003 -3.713255 6.216136 2.542639 5.445702
  6 18.045725 0.000000 0.000000 0.000000 -0.000000 -2.074575
  7 17.597597 0.000000 0.000000 -0.092081 0.087818 0.559914
  8 1.293670 0.684478 -0.000001 -0.000004 -0.000001 0.079314
  9 5.309685 -0.003834 0.000000 -0.268698 0.030429 0.109260
 10 4.826790 -0.004591 0.000000 -0.270274 -0.007946 -0.029513
 11 5.792767 -0.005304 0.000000 -0.139262 -0.008869 -0.063988
 12 6.662317 -0.001453 0.000000 0.000000 -0.000001 0.471000
 13 2.046985 -0.000002 0.000000 0.374735 0.579450 -1.251240
 14 -3.112024 1.517254 4.341911 2.419535 -0.923413 0.140505
 15 4.827230 0.000000 0.000001 -1.593871 -0.498648 -1.247909
 16 11.139763 0.000000 0.000000 0.000000 -0.000000 -1.137458
 17 10.314597 0.000001 0.000000 -0.655375 0.368129 -0.269525
 18 -2.869898 1.399663 -4.140396 -0.000013 1.361383 2.669783
 19 4.972048 0.000000 0.000001 1.128283 -0.158709 -1.868177
 20 11.585355 0.000000 0.000000 0.000000 -0.000000 -2.024545
 21 10.127057 0.000000 0.000001 1.969610 0.138362 0.944238
time 3
  0 0.235347 -0.235347 -14.604439 -0.000000 0.270322 -1.570969
  1 0.000000 0.000000 0.000000 -1.570795 -1.570796 0.000000
  2 -0.000005 0.000007 3.713255 -3.368582 -0.221254 1.331540
  3 18.045721 0.000000 0.000000 0.000000 -0.000000 -1.349168
  4 17.597597 0.000000 0.000000 -0.205032 0.225938 -0.216505
  5 0.000005 -0.000003 -3.713255 6.216136 2.542639 5.445702
  6 18.045725 0.000000 0.000000 0.000000 -0.000000 -2.074575
  7 17.597597 0.000000 0.000000 -0.092081 0.087818 0.559914
  8 1.293670 0.684478 -0.000001 -0.000004 -0.000001 0.079314
  9 5.309685 -0.003834 0.000000 -0.268698 0.030429 0.109260
 10 4.826790 -0.004591 0.000000 -0.270274 -0.007143 -0.026602
 11 5.792767 -0.005304 0.000000 -0.139295 -0.008353 -0.060396
 12 6.662317 -0.001453 0.000000 0.000000 -0.000001 0.471000
 13 2.046985 -0.000002 0.000000 0.374391 0.579721 -1.258072
 14 -3.112024 1.517254 4.341911 2.414838 -0.927490 0.146545
 15 4.827230 0.000000 0.000001 -1.586588 -0.506222 -1.248609
 16 11.139763 0.000000 0.000000 0.000000 -0.000000 -1.137458
 17 10.314597 0.000001 0.000000 -0.655375 0.368129 -0.269525
 18 -2.869898 1.399663 -4.140396 -0.000013 1.354684 2.669783
 19 4.972048 0.000000 0.000001 1.120393 -0.154285 -1.868308
 20 11.585355 0.000000 0.000000 0.000000 -0.000000 -2.024545
 21 10.127057 0.000000 0.000001 1.969610 0.138362 0.944238
time 4
  0 0.235347 -0.235347 -14.604439 -0.000000 0.270322 -1.570969
  1 0.000000 0.000000 0.000000 -1.570795 -1.570796 0.000000
  2 -0.000005 0.000007 3.713255 -3.368582 -0.221254 1.331540
  3 18.045721 0.000000 0.000000 0.000000 -0.000000 -1.349168
  4 17.597597 0.000000 0.000000 -0.205032 0.225938 -0.216505
  5 0.000005 -0.000003 -3.713255 6.216136 2.542639 5.445702
  6 18.045725 0.000000 0.000000 0.000000 -0.000000 -2.074575
  7 17.597597 0.000000 0.000000 -0.092081 0.087818 0.559914
  8 1.293670 0.684478 -0.000001 -0.000004 -0.000001 0.079314
  9 5.309685 -0.003834 0.000000 -0.268698 0.030429 0.109260
 10 4.826790 -0.004591 0.000000 -0.270307 -0.006208 -0.023273
 11 5.792767 -0.005304 0.000000 -0.139328 -0.007790 -0.056285
 12 6.662317 -0.001453 0.000000 0.000000 -0.000001 0.471000
 13 2.046985 -0.000002 0.000000 0.373960 0.580036 -1.265849
 14 -3.112024 1.517254 4.341911 2.409181 -0.932106 0.153544
 15 4.827230 0.000000 0.000001 -1.578188 -0.514817 -1.249309
 16 11.139763 0.000000 0.000000 0.000000 -0.000000 -1.137458
 17 10.314597 0.000001 0.000000 -0.655375 0.368129 -0.269525
 18 -2.869898 1.399663 -4.140396 -0.000013 1.347138 2.669783
 19 4.972048 0.000000 0.000001 1.111265 -0.149378 -1.868638
 20 11.585355 0.000000 0.000000 0.000000 -0.000000 -2.024545
 21 10.127057 0.000000 0.000001 1.969610 0.138362 0.944238
time 5
  0 0.235347 -0.235347 -14.604439 -0.000000 0.270322 -1.570969
  1 0.000000 0.000000 0.000000 -1.570795 -1.570796 0.000000
  2 -0.000005 0.000007 3.713255 -3.368582 -0.221254 1.331540
  3 18.045721 0.000000 0.000000 0.000000 -0.000000 -1.349168
  4 17.597597 0.000000 0.000000 -0.205032 0.225938 -0.216505
  5 0.000005 -0.000003 -3.713255 6.216136 2.542639 5.445702
  6 18.045725 0.000000 0.000000 0.000000 -0.000000 -2.074575
  7 17.597597 0.000000 0.000000 -0.092081 0.087818 0.559914
  8 1.293670 0.684478 -0.000001 -0.000004 -0.000001 0.079314
  9 5.309685 -0.003834 0.000000 -0.268698 0.030429 0.109260
 10 4.826790 -0.004591 0.000000 -0.270340 -0.005201 -0.019657
 11 5.792767 -0.005304 0.000000 -0.139360 -0.007155 -0.051821
 12 6.662317 -0.001453 0.000000 0.000000 -0.000001 0.471000
 13 2.046985 -0.000002 0.000000 0.373486 0.580396 -1.274389
 14 -3.112024 1.517254 4.341911 2.403045 -0.937145 0.161022
 15 4.827230 0.000000 0.000001 -1.568967 -0.524263 -1.250447
 16 11.139763 0.000000 0.000000 0.000000 -0.000000 -1.137458
 17 10.314597 0.000001 0.000000 -0.655375 0.368129 -0.269525
 18 -2.869898 1.399663 -4.140396 -0.000013 1.338828 2.669783
 19 4.972048 0.000000 0.000001 1.101441 -0.143908 -1.869033
 20 11.585355 0.000000 0.000000 0.000000 -0.000000 -2.024545
 21 10.127057 0.000000 0.000001 1.969610 0.138362 0.944238
time 6
  0 0.235347 -0.235347 -14.604439 -0.000000 0.270322 -1.570969
  1 0.000000 0.000000 0.000000 -1.570795 -1.570796 0.000000
  2 -0.000005 0.000007 3.713255 -3.368582 -0.221254 1.331540
  3 18.045721 0.000000 0.000000 0.000000 -0.000000 -1.349168
  4 17.597597 0.000000 0.000000 -0.205032 0.225938 -0.216505
  5 0.000005 -0.000003 -3.713255 6.216136 2.542639 5.445702
  6 18.045725 0.000000 0.000000 0.000000 -0.000000 -2.074575
  7 17.597597 0.000000 0.000000 -0.092081 0.087818 0.559914
  8 1.293670 0.684478 -0.000001 -0.000004 -0.000001 0.079314
  9 5.309685 -0.003834 0.000000 -0.268698 0.030429 0.109260
 10 4.826790 -0.004591 0.000000 -0.270340 -0.004159 -0.015843
 11 5.792767 -0.005304 0.000000 -0.139393 -0.006496 -0.047107
 12 6.662317 -0.001453 0.000000 0.000000 -0.000001 0.471000
 13 2.046985 -0.000002 0.000000 0.373012 0.580756 -1.283288
 14 -3.112024 1.517254 4.341911 2.396622 -0.942376 0.169171
 15 4.827230 0.000000 0.000001 -1.559334 -0.534220 -1.251672
 16 11.139763 0.000000 0.000000 0.000000 -0.000000 -1.137458
 17 10.314597 0.000001 0.000000 -0.655375 0.368129 -0.269525
 18 -2.869898 1.399663 -4.140396 -0.000013 1.330151 2.669783
 19 4.972048 0.000000 0.000001 1.091153 -0.138277 -1.869560
 20 11.585355 0.000000 0.000000 0.000000 -0.000000 -2.024545
 21 10.127057 0.000000 0.000001 1.969610 0.138362 0.944238
time 7
  0 0.235347 -0.235347 -14.604439 -0.000000 0.270322 -1.570969
  1 0.000000 0.000000 0.000000 -1.570795 -1.570796 0.000000
  2 -0.000005 0.000007 3.713255 -3.368582 -0.221254 1.331540
  3 18.045721 0.000000 0.000000 0.000000 -0.000000 -1.349168
  4 17.597597 0.000000 0.000000 -0.205032 0.225938 -0.216505
  5 0.000005 -0.000003 -3.713255 6.216136 2.542639 5.445702
  6 18.045725 0.000000 0.000000 0.000000 -0.000000 -2.074575
  7 17.597597 0.000000 0.000000 -0.092081 0.087818 0.559914
  8 1.293670 0.684478 -0.000001 -0.000004 -0.000001 0.079314
  9 5.309685 -0.003834 0.000000 -0.268698 0.030429 0.109260
 10 4.826790 -0.004591 0.000000 -0.270340 -0.003068 -0.011962
 11 5.792767 -0.005304 0.000000 -0.139426 -0.005825 -0.042311
 12 6.662317 -0.001453 0.000000 0.000000 -0.000001 0.471000
 13 2.046985 -0.000002 0.000000 0.372495 0.581117 -1.292413
 14 -3.112024 1.517254 4.341911 2.389719 -0.947684 0.177609
 15 4.827230 0.000000 0.000001 -1.549349 -0.544347 -1.253072
 16 11.139763 0.000000 0.000000 0.000000 -0.000000 -1.137458
 17 10.314597 0.000001 0.000000 -0.655375 0.368129 -0.269525
 18 -2.869898 1.399663 -4.140396 -0.000013 1.321276 2.669783
 19 4.972048 0.000000 0.000001 1.080478 -0.132566 -1.870219
 20 11.585355 0.000000 0.000000 0.000000 -0.000000 -2.024545
 21 10.127057 0.000000 0.000001 1.969610 0.138362 0.944238
time 8
  0 0.235347 -0.235347 -14.604439 -0.000000 0.270322 -1.570969
  1 0.000000 0.000000 0.000000 -1.570795 -1.570796 0.000000
  2 -0.000005 0.000007 3.713255 -3.368582 -0.221254 1.331540
  3 18.045721 0.000000 0.000000 0.000000 -0.000000 -1.349168
  4 17.597597 0.000000 0.000000 -0.205032 0.225938 -0.216505
  5 0.000005 -0.000003 -3.713255 6.216136 2.542639 5.445702
  6 18.045725 0.000000 0.000000 0.000000 -0.000000 -2.074575
  7 17.597597 0.000000 0.000000 -0.092081 0.087818 0.559914
  8 1.293670 0.684478 -0.000001 -0.000004 -0.000001 0.079314
  9 5.309685 -0.003834 0.000000 -0.268698 0.030429 0.109260
 10 4.826790 -0.004591 0.000000 -0.270356 -0.002001 -0.008104
 11 5.792767 -0.005304 0.000000 -0.139442 -0.005153 -0.037557
 12 6.662317 -0.001453 0.000000 0.000000 -0.000001 0.471000
 13 2.046985 -0.000002 0.000000 0.371978 0.581477 -1.301447
 14 -3.112024 1.517254 4.341911 2.382720 -0.952915 0.186142
 15 4.827230 0.000000 0.000001 -1.539422 -0.554389 -1.254735
 16 11.139763 0.000000 0.000000 0.000000 -0.000000 -1.137458
 17 10.314597 0.000001 0.000000 -0.655375 0.368129 -0.269525
 18 -2.869898 1.399663 -4.140396 -0.000013 1.312486 2.669783
 19 4.972048 0.000000 0.000001 1.070035 -0.126774 -1.871075
 20 11.585355 0.000000 0.000000 0.000000 -0.000000 -2.024545
 21 10.127057 0.000000 0.000001 1.969610 0.138362 0.944238
time 9
  0 0.235347 -0.235347 -14.604439 -0.000000 0.270322 -1.570969
  1 0.000000 0.000000 0.000000 -1.570795 -1.570796 0.000000
  2 -0.000005 0.000007 3.713255 -3.368582 -0.221254 1.331540
  3 18.045721 0.000000 0.000000 0.000000 -0.000000 -1.349168
  4 17.597597 0.000000 0.000000 -0.205032 0.225938 -0.216505
  5 0.000005 -0.000003 -3.713255 6.216136 2.542639 5.445702
  6 18.045725 0.000000 0.000000 0.000000 -0.000000 -2.074575
  7 17.597597 0.000000 0.000000 -0.092081 0.087818 0.559914
  8 1.293670 0.684478 -0.000001 -0.000004 -0.000001 0.079314
  9 5.309685 -0.003834 0.000000 -0.268698 0.030429 0.109260
 10 4.826790 -0.004591 0.000000 -0.270356 -0.000995 -0.004422
 11 5.792767 -0.005304 0.000000 -0.139474 -0.004506 -0.033010
 12 6.662317 -0.001453 0.000000 0.000000 -0.000001 0.471000
 13 2.046985 -0.000002 0.000000 0.371504 0.581814 -1.310167
 14 -3.112024 1.517254 4.341911 2.376105 -0.957916 0.194483
 15 4.827230 0.000000 0.000001 -1.529790 -0.564090 -1.256485
 16 11.139763 0.000000 0.000000 0.000000 -0.000000 -1.137458
 17 10.314597 0.000001 0.000000 -0.655375 0.368129 -0.269525
 18 -2.869898 1.399663 -4.140396 -0.000013 1.304035 2.669783
 19 4.972048 0.000000 0.000001 1.059979 -0.121465 -1.871931
 20 11.585355 0.000000 0.000000 0.000000 -0.000000 -2.024545
 21 10.127057 0.000000 0.000001 1.969610 0.138362 0.944238
time 10
  0 0.235347 -0.235347 -14.604439 -0.000000 0.270322 -1.570969
  1 0.000000 0.000000 0.000000 -1.570795 -1.570796 0.000000
  2 -0.000005 0.000007 3.713255 -3.368582 -0.221254 1.331540
  3 18.045721 0.000000 0.000000 0.000000 -0.000000 -1.349168
  4 17.597597 0.000000 0.000000 -0.205032 0.225938 -0.216505
  5 0.000005 -0.000003 -3.713255 6.216136 2.542639 5.445702
  6 18.045725 0.000000 0.000000 0.000000 -0.000000 -2.074575
  7 17.597597 0.000000 0.000000 -0.092081 0.087818 0.559914
  8 1.293670 0.684478 -0.000001 -0.000004 -0.000001 0.079314
  9 5.309685 -0.003834 0.000000 -0.268698 0.030429 0.109260
 10 4.826790 -0.004591 0.000000 -0.270389 -0.000036 -0.000982
 11 5.792767 -0.005304 0.000000 -0.139491 -0.003931 -0.028795
 12 6.662317 -0.001453 0.000000 0.000000 -0.000001 0.471000
 13 2.046985 -0.000002 0.000000 0.370987 0.582130 -1.318213
 14 -3.112024 1.517254 4.341911 2.369682 -0.962531 0.202249
 15 4.827230 0.000000 0.000001 -1.520862 -0.573111 -1.258148
 16 11.139763 0.000000 0.000000 0.000000 -0.000000 -1.137458
 17 10.314597 0.000001 0.000000 -0.655375 0.368129 -0.269525
 18 -2.869898 1.399663 -4.140396 -0.000013 1.296206 2.669783
 19 4.972048 0.000000 0.000001 1.050774 -0.116397 -1.872919
 20 11.585355 0.000000 0.000000 0.000000 -0.000000 -2.024545
 21 10.127057 0.000000 0.000001 1.969610 0.138362 0.944238
time 11
  0 0.235347 -0.235347 -14.604439 -0.000000 0.270322 -1.570969
  1 0.000000 0.000000 0.000000 -1.570795 -1.570796 0.000000
  2 -0.000005 0.000007 3.713255 -3.368582 -0.221254 1.331540
  3 18.045721 0.000000 0.000000 0.000000 -0.000000 -1.349168
  4 17.597597 0.000000 0.000000 -0.205032 0.225938 -0.216505
  5 0.000005 -0.000003 -3.713255 6.216136 2.542639 5.445702
  6 18.045725 0.000000 0.000000 0.000000 -0.000000 -2.074575
  7 17.597597 0.000000 0.000000 -0.092081 0.087818 0.559914
  8 1.293670 0.684478 -0.000001 -0.000004 -0.000001 0.079314
  9 5.309685 -0.003834 0.000000 -0.268698 0.030429 0.109260
 10 4.826790 -0.004591 0.000000 -0.270356 0.000803 0.002083
 11 5.792767 -0.005304 0.000000 -0.139507 -0.003392 -0.025016
 12 6.662317 -0.001453 0.000000 0.000000 -0.000001 0.471000
 13 2.046985 -0.000002 0.000000 0.370599 0.582422 -1.325359
 14 -3.112024 1.517254 4.341911 2.363833 -0.966647 0.209248
 15 4.827230 0.000000 0.000001 -1.512815 -0.581196 -1.259723
 16 11.139763 0.000000 0.000000 0.000000 -0.000000 -1.137458
 17 10.314597 0.000001 0.000000 -0.655375 0.368129 -0.269525
 18 -2.869898 1.399663 -4.140396 -0.000013 1.289196 2.669783
 19 4.972048 0.000000 0.000001 1.042342 -0.111973 -1.873842
 20 11.585355 0.000000 0.000000 0.000000 -0.000000 -2.024545
 21 10.127057 0.000000 0.000001 1.969610 0.138362 0.944238
time 12
  0 0.235347 -0.235347 -14.604439 -0.000000 0.270322 -1.570969
  1 0.000000 0.000000 0.000000 -1.570795 -1.570796 0.000000
  2 -0.000005 0.000007 3.713255 -3.368582 -0.221254 1.331540
  3 18.045721 0.000000 0.000000 0.000000 -0.000000 -1.349168
  4 17.597597 0.000000 0.000000 -0.205032 0.225938 -0.216505
  5 0.000005 -0.000003 -3.713255 6.216136 2.542639 5.445702
  6 18.045725 0.000000 0.000000 0.000000 -0.000000 -2.074575
  7 17.597597 0.000000 0.000000 -0.092081 0.087818 0.559914
  8 1.293670 0.684478 -0.000001 -0.000004 -0.000001 0.079314
  9 5.309685 -0.003834 0.000000 -0.268698 0.030429 0.109260
 10 4.826790 -0.004591 0.000000 -0.270356 0.001498 0.004662
 11 5.792767 -0.005304 0.000000 -0.139507 -0.002936 -0.021818
 12 6.662317 -0.001453 0.000000 0.000000 -0.000001 0.471000
 13 2.046985 -0.000002 0.000000 0.370298 0.582648 -1.331382
 14 -3.112024 1.517254 4.341911 2.359040 -0.970070 0.215288
 15 4.827230 0.000000 0.000001 -1.505943 -0.588004 -1.261210
 16 11.139763 0.000000 0.000000 0.000000 -0.000000 -1.137458
 17 10.314597 0.000001 0.000000 -0.655375 0.368129 -0.269525
 18 -2.869898 1.399663 -4.140396 -0.000013 1.283346 2.669783
 19 4.972048 0.000000 0.000001 1.035380 -0.108192 -1.874830
 20 11.585355 0.000000 0.000000 0.000000 -0.000000 -2.024545
 21 10.127057 0.000000 0.000001 1.969610 0.138362 0.944238
time 13
  0 0.235347 -0.235347 -14.604439 -0.000000 0.270322 -1.570969
  1 0.000000 0.000000 0.000000 -1.570795 -1.570796 0.000000
  2 -0.000005 0.000007 3.713255 -3.368582 -0.221254 1.331540
  3 18.045721 0.000000 0.000000 0.000000 -0.000000 -1.349168
  4 17.597597 0.000000 0.000000 -0.205032 0.225938 -0.216505
  5 0.000005 -0.000003 -3.713255 6.216136 2.542639 5.445702
  6 18.045725 0.000000 0.000000 0.000000 -0.000000 -2.074575
  7 17.597597 0.000000 0.000000 -0.092081 0.087818 0.559914
  8 1.293670 0.684478 -0.000001 -0.000004 -0.000001 0.079314
  9 5.309685 -0.003834 0.000000 -0.268698 0.030429 0.109260
 10 4.826790 -0.004591 0.000000 -0.270356 0.002049 0.006647
 11 5.792767 -0.005304 0.000000 -0.139523 -0.002613 -0.019368
 12 6.662317 -0.001453 0.000000 0.000000 -0.000001 0.471000
 13 2.046985 -0.000002 0.000000 0.369996 0.582850 -1.336102
 14 -3.112024 1.517254 4.341911 2.355205 -0.972686 0.219794
 15 4.827230 0.000000 0.000001 -1.500598 -0.593195 -1.262436
 16 11.139763 0.000000 0.000000 0.000000 -0.000000 -1.137458
 17 10.314597 0.000001 0.000000 -0.655375 0.368129 -0.269525
 18 -2.869898 1.399663 -4.140396 -0.000013 1.278795 2.669783
 19 4.972048 0.000000 0.000001 1.030120 -0.105377 -1.875422
 20 11.585355 0.000000 0.000000 0.000000 -0.000000 -2.024545
 21 10.127057 0.000000 0.000001 1.969610 0.138362 0.944238
time 14
  0 0.235347 -0.235347 -14.604439 -0.000000 0.270322 -1.570969
  1 0.000000 0.000000 0.000000 -1.570795 -1.570796 0.000000
  2 -0.000005 0.000007 3.713255 -3.368582 -0.221254 1.331540
  3 18.045721 0.000000 0.000000 0.000000 -0.000000 -1.349168
  4 17.597597 0.000000 0.000000 -0.205032 0.225938 -0.216505
  5 0.000005 -0.000003 -3.713255 6.216136 2.542639 5.445702
  6 18.045725 0.000000 0.000000 0.000000 -0.000000 -2.074575
  7 17.597597 0.000000 0.000000 -0.092081 0.087818 0.559914
  8 1.293670 0.684478 -0.000001 -0.000004 -0.000001 0.079314
  9 5.309685 -0.003834 0.000000 -0.268698 0.030429 0.109260
 10 4.826790 -0.004591 0.000000 -0.270356 0.002409 0.007903
 11 5.792767 -0.005304 0.000000 -0.139523 -0.002385 -0.017832
 12 6.662317 -0.001453 0.000000 0.000000 -0.000001 0.471000
 13 2.046985 -0.000002 0.000000 0.369867 0.582963 -1.339023
 14 -3.112024 1.517254 4.341911 2.352616 -0.974340 0.222766
 15 4.827230 0.000000 0.000001 -1.497250 -0.596514 -1.263311
 16 11.139763 0.000000 0.000000 0.000000 -0.000000 -1.137458
 17 10.314597 0.000001 0.000000 -0.655375 0.368129 -0.269525
 18 -2.869898 1.399663 -4.140396 -0.000013 1.275884 2.669783
 19 4.972048 0.000000 0.000001 1.026639 -0.103607 -1.875950
 20 11.585355 0.000000 0.000000 0.000000 -0.000000 -2.024545
 21 10.127057 0.000000 0.000001 1.969610 0.138362 0.944238
time 15
  0 0.235347 -0.235347 -14.604439 -0.000000 0.270322 -1.570969
  1 0.000000 0.000000 0.000000 -1.570795 -1.570796 0.000000
  2 -0.000005 0.000007 3.713255 -3.368582 -0.221254 1.331540
  3 18.045721 0.000000 0.000000 0.000000 -0.000000 -1.349168
  4 17.597597 0.000000 0.000000 -0.205032 0.225938 -0.216505
  5 0.000005 -0.000003 -3.713255 6.216136 2.542639 5.445702
  6 18.045725 0.000000 0.000000 0.000000 -0.000000 -2.074575
  7 17.597597 0.000000 0.000000 -0.092081 0.087818 0.559914
  8 1.293670 0.684478 -0.000001 -0.000004 -0.000001 0.079314
  9 5.309685 -0.003834 0.000000 -0.268698 0.030429 0.109260
 10 4.826790 -0.004591 0.000000 -0.270356 0.002541 0.008366
 11 5.792767 -0.005304 0.000000 -0.139523 -0.002301 -0.017251
 12 6.662317 -0.001453 0.000000 0.000000 -0.000001 0.471000
 13 2.046985 -0.000002 0.000000 0.369781 0.582985 -1.340057
 14 -3.112024 1.517254 4.341911 2.351753 -0.974917 0.223917
 15 4.827230 0.000000 0.000001 -1.496075 -0.597620 -1.263486
 16 11.139763 0.000000 0.000000 0.000000 -0.000000 -1.137458
 17 10.314597 0.000001 0.000000 -0.655375 0.368129 -0.269525
 18 -2.869898 1.399663 -4.140396 -0.000013 1.274895 2.669783
 19 4.972048 0.000000 0.000001 1.025479 -0.102883 -1.876081
 20 11.585355 0.000000 0.000000 0.000000 -0.000000 -2.024545
 21 10.127057 0.000000 0.000001 1.969610 0.138362 0.944238
time 16
  0 0.235347 -0.235347 -14.604439 -0.000000 0.270322 -1.570969
  1 0.000000 0.000000 0.000000 -1.570795 -1.570796 0.000000
  2 -0.000005 0.000007 3.713255 -3.368582 -0.221254 1.331540
  3 18.045721 0.000000 0.000000 0.000000 -0.000000 -1.349168
  4 17.597597 0.000000 0.000000 -0.205032 0.225938 -0.216505
  5 0.000005 -0.000003 -3.713255 6.216136 2.542639 5.445702
  6 18.045725 0.000000 0.000000 0.000000 -0.000000 -2.074575
  7 17.597597 0.000000 0.000000 -0.092081 0.087818 0.559914
  8 1.293670 0.684478 -0.000001 -0.000004 -0.000001 0.079314
  9 5.309685 -0.003834 0.000000 -0.268698 0.030429 0.109260
 10 4.826790 -0.004591 0.000000 -0.270356 0.002409 0.007903
 11 5.792767 -0.005304 0.000000 -0.139523 -0.002385 -0.017832
 12 6.662317 -0.001453 0.000000 0.000000 -0.000001 0.471000
 13 2.046985 -0.000002 0.000000 0.369867 0.582963 -1.339023
 14 -3.112024 1.517254 4.341911 2.352616 -0.974340 0.222766
 15 4.827230 0.000000 0.000001 -1.497250 -0.596514 -1.263311
 16 11.139763 0.000000 0.000000 0.000000 -0.000000 -1.137458
 17 10.314597 0.000001 0.000000 -0.655375 0.368129 -0.269525
 18 -2.869898 1.399663 -4.140396 -0.000013 1.275884 2.669783
 19 4.972048 0.000000 0.000001 1.026639 -0.103607 -1.875950
 20 11.585355 0.000000 0.000000 0.000000 -0.000000 -2.024545
 21 10.127057 0.000000 0.000001 1.969610 0.138362 0.944238
time 17
  0 0.235347 -0.235347 -14.604439 -0.000000 0.270322 -1.570969
  1 0.000000 0.000000 0.000000 -1.570795 -1.570796 0.000000
  2 -0.000005 0.000007 3.713255 -3.368582 -0.221254 1.331540
  3 18.045721 0.000000 0.000000 0.000000 -0.000000 -1.349168
  4 17.597597 0.000000 0.000000 -0.205032 0.225938 -0.216505
  5 0.000005 -0.000003 -3.713255 6.216136 2.542639 5.445702
  6 18.045725 0.000000 0.000000 0.000000 -0.000000 -2.074575
  7 17.597597 0.000000 0.000000 -0.092081 0.087818 0.559914
  8 1.293670 0.684478 -0.000001 -0.000004 -0.000001 0.079314
  9 5.309685 -0.003834 0.000000 -0.268698 0.030429 0.109260
 10 4.826790 -0.004591 0.000000 -0.270356 0.002049 0.006647
 11 5.792767 -0.005304 0.000000 -0.139523 -0.002613 -0.019368
 12 6.662317 -0.001453 0.000000 0.000000 -0.000001 0.471000
 13 2.046985 -0.000002 0.000000 0.369996 0.582850 -1.336102
 14 -3.112024 1.517254 4.341911 2.355205 -0.972686 0.219794
 15 4.827230 0.000000 0.000001 -1.500598 -0.593195 -1.262436
 16 11.139763 0.000000 0.000000 0.000000 -0.000000 -1.137458
 17 10.314597 0.000001 0.000000 -0.655375 0.368129 -0.269525
 18 -2.869898 1.399663 -4.140396 -0.000013 1.278795 2.669783
 19 4.972048 0.000000 0.000001 1.030120 -0.105377 -1.875422
 20 11.585355 0.000000 0.000000 0.000000 -0.000000 -2.024545
 21 10.127057 0.000000 0.000001 1.969610 0.138362 0.944238
time 18
  0 0.235347 -0.235347 -14.604439 -0.000000 0.270322 -1.570969
  1 0.000000 0.000000 0.000000 -1.570795 -1.570796 0.000000
  2 -0.000005 0.000007 3.713255 -3.368582 -0.221254 1.331540
  3 18.045721 0.000000 0.000000 0.000000 -0.000000 -1.349168
  4 17.597597 0.000000 0.000000 -0.205032 0.225938 -0.216505
  5 0.000005 -0.000003 -3.713255 6.216136 2.542639 5.445702
  6 18.045725 0.000000 0.000000 0.000000 -0.000000 -2.074575
  7 17.597597 0.000000 0.000000 -0.092081 0.087818 0.559914
  8 1.293670 0.684478 -0.000001 -0.000004 -0.000001 0.079314
  9 5.309685 -0.003834 0.000000 -0.268698 0.030429 0.109260
 10 4.826790 -0.004591 0.000000 -0.270356 0.001498 0.004662
 11 5.792767 -0.005304 0.000000 -0.139507 -0.002936 -0.021818
 12 6.662317 -0.001453 0.000000 0.000000 -0.000001 0.471000
 13 2.046985 -0.000002 0.000000 0.370298 0.582648 -1.331382
 14 -3.112024 1.517254 4.341911 2.359040 -0.970070 0.215288
 15 4.827230 0.000000 0.000001 -1.505943 -0.588004 -1.261210
 16 11.139763 0.000000 0.000000 0.000000 -0.000000 -1.137458
 17 10.314597 0.000001 0.000000 -0.655375 0.368129 -0.269525
 18 -2.869898 1.399663 -4.140396 -0.000013 1.283346 2.669783
 19 4.972048 0.000000 0.000001 1.035380 -0.108192 -1.874830
 20 11.585355 0.000000 0.000000 0.000000 -0.000000 -2.024545
 21 10.127057 0.000000 0.000001 1.969610 0.138362 0.944238
time 19
  0 0.235347 -0.235347 -14.604439 -0.000000 0.270322 -1.570969
  1 0.000000 0.000000 0.000000 -1.570795 -1.570796 0.000000
  2 -0.000005 0.000007 3.713255 -3.368582 -0.221254 1.331540
  3 18.045721 0.000000 0.000000 0.000000 -0.000000 -1.349168
  4 17.597597 0.000000 0.000000 -0.205032 0.225938 -0.216505
  5 0.000005 -0.000003 -3.713255 6.216136 2.542639 5.445702
  6 18.045725 0.000000 0.000000 0.000000 -0.000000 -2.074575
  7 17.597597 0.000000 0.000000 -0.092081 0.087818 0.559914
  8 1.293670 0.684478 -0.000001 -0.000004 -0.000001 0.079314
  9 5.309685 -0.003834 0.000000 -0.268698 0.030429 0.109260
 10 4.826790 -0.004591 0.000000 -0.270356 0.000803 0.002083
 11 5.792767 -0.005304 0.000000 -0.139507 -0.003392 -0.025016
 12 6.662317 -0.001453 0.000000 0.000000 -0.000001 0.471000
 13 2.046985 -0.000002 0.000000 0.370599 0.582422 -1.325359
 14 -3.112024 1.517254 4.341911 2.363833 -0.966647 0.209248
 15 4.827230 0.000000 0.000001 -1.512815 -0.581196 -1.259723
 16 11.139763 0.000000 0.000000 0.000000 -0.000000 -1.137458
 17 10.314597 0.000001 0.000000 -0.655375 0.368129 -0.269525
 18 -2.869898 1.399663 -4.140396 -0.000013 1.289196 2.669783
 19 4.972048 0.000000 0.000001 1.042342 -0.111973 -1.873842
 20 11.585355 0.000000 0.000000 0.000000 -0.000000 -2.024545
 21 10.127057 0.000000 0.000001 1.969610 0.138362 0.944238
time 20
  0 0.235347 -0.235347 -14.604439 -0.000000 0.270322 -1.570969
  1 0.000000 0.000000 0.000000 -1.570795 -1.570796 0.000000
  2 -0.000005 0.000007 3.713255 -3.368582 -0.221254 1.331540
  3 18.045721 0.000000 0.000000 0.000000 -0.000000 -1.349168
  4 17.597597 0.000000 0.000000 -0.205032 0.225938 -0.216505
  5 0.000005 -0.000003 -3.713255 6.216136 2.542639 5.445702
  6 18.045725 0.000000 0.000000 0.000000 -0.000000 -2.074575
  7 17.597597 0.000000 0.000000 -0.092081 0.087818 0.559914
  8 1.293670 0.684478 -0.000001 -0.000004 -0.000001 0.079314
  9 5.309685 -0.003834 0.000000 -0.268698 0.030429 0.109260
 10 4.826790 -0.004591 0.000000 -0.270389 -0.000036 -0.000982
 11 5.792767 -0.005304 0.000000 -0.139491 -0.003931 -0.028795
 12 6.662317 -0.001453 0.000000 0.000000 -0.000001 0.471000
 13 2.046985 -0.000002 0.000000 0.370987 0.582130 -1.318213
 14 -3.112024 1.517254 4.341911 2.369682 -0.962531 0.202249
 15 4.827230 0.000000 0.000001 -1.520862 -0.573111 -1.258148
 16 11.139763 0.000000 0.000000 0.000000 -0.000000 -1.137458
 17 10.314597 0.000001 0.000000 -0.655375 0.368129 -0.269525
 18 -2.869898 1.399663 -4.140396 -0.000013 1.296206 2.669783
 19 4.972048 0.000000 0.000001 1.050774 -0.116397 -1.872919
 20 11.585355 0.000000 0.000000 0.000000 -0.000000 -2.024545
 21 10.127057 0.000000 0.000001 1.969610 0.138362 0.944238
time 21
  0 0.235347 -0.235347 -14.604439 -0.000000 0.270322 -1.570969
  1 0.000000 0.000000 0.000000 -1.570795 -1.570796 0.000000
  2 -0.000005 0.000007 3.713255 -3.368582 -0.221254 1.331540
  3 18.045721 0.000000 0.000000 0.000000 -0.000000 -1.349168
  4 17.597597 0.000000 0.000000 -0.205032 0.225938 -0.216505
  5 0.000005 -0.000003 -3.713255 6.216136 2.542639 5.445702
  6 18.045725 0.000000 0.000000 0.000000 -0.000000 -2.074575
  7 17.597597 0.000000 0.000000 -0.092081 0.087818 0.559914
  8 1.293670 0.684478 -0.000001 -0.000004 -0.000001 0.079314
  9 5.309685 -0.003834 0.000000 -0.268698 0.030429 0.109260
 10 4.826790 -0.004591 0.000000 -0.270356 -0.000995 -0.004422
 11 5.792767 -0.005304 0.000000 -0.139474 -0.004506 -0.033010
 12 6.662317 -0.001453 0.000000 0.000000 -0.000001 0.471000
 13 2.046985 -0.000002 0.000000 0.371504 0.581814 -1.310167
 14 -3.112024 1.517254 4.341911 2.376105 -0.957916 0.194483
 15 4.827230 0.000000 0.000001 -1.529790 -0.564090 -1.256485
 16 11.139763 0.000000 0.000000 0.000000 -0.000000 -1.137458
 17 10.314597 0.000001 0.000000 -0.655375 0.368129 -0.269525
 18 -2.869898 1.399663 -4.140396 -0.000013 1.304035 2.669783
 19 4.972048 0.000000 0.000001 1.059979 -0.121465 -1.871931
 20 11.585355 0.000000 0.000000 0.000000 -0.000000 -2.024545
 21 10.127057 0.000000 0.000001 1.969610 0.138362 0.944238
time 22
  0 0.235347 -0.235347 -14.604439 -0.000000 0.270322 -1.570969
  1 0.000000 0.000000 0.000000 -1.570795 -1.570796 0.000000
  2 -0.000005 0.000007 3.713255 -3.368582 -0.221254 1.331540
  3 18.045721 0.000000 0.000000 0.000000 -0.000000 -1.349168
  4 17.597597 0.000000 0.000000 -0.205032 0.225938 -0.216505
  5 0.000005 -0.000003 -3.713255 6.216136 2.542639 5.445702
  6 18.045725 0.000000 0.000000 0.000000 -0.000000 -2.074575
  7 17.597597 0.000000 0.000000 -0.092081 0.087818 0.559914
  8 1.293670 0.684478 -0.000001 -0.000004 -0.000001 0.079314
  9 5.309685 -0.003834 0.000000 -0.268698 0.030429 0.109260
 10 4.826790 -0.004591 0.000000 -0.270356 -0.002001 -0.008104
 11 5.792767 -0.005304 0.000000 -0.139442 -0.005153 -0.037557
 12 6.662317 -0.001453 0.000000 0.000000 -0.000001 0.471000
 13 2.046985 -0.000002 0.000000 0.371978 0.581477 -1.301447
 14 -3.112024 1.517254 4.341911 2.382720 -0.952915 0.186142
 15 4.827230 0.000000 0.000001 -1.539422 -0.554389 -1.254735
 16 11.139763 0.000000 0.000000 0.000000 -0.000000 -1.137458
 17 10.314597 0.000001 0.000000 -0.655375 0.368129 -0.269525
 18 -2.869898 1.399663 -4.140396 -0.000013 1.312486 2.669783
 19 4.972048 0.000000 0.000001 1.070035 -0.126774 -1.871075
 20 11.585355 0.000000 0.000000 0.000000 -0.000000 -2.024545
 21 10.127057 0.000000 0.000001 1.969610 0.138362 0.944238
time 23
  0 0.235347 -0.235347 -14.604439 -0.000000 0.270322 -1.570969
  1 0.000000 0.000000 0.000000 -1.570795 -1.570796 0.000000
  2 -0.000005 0.000007 3.713255 -3.368582 -0.221254 1.331540
  3 18.045721 0.000000 0.000000 0.000000 -0.000000 -1.349168
  4 17.597597 0.000000 0.000000 -0.205032 0.225938 -0.216505
  5 0.000005 -0.000003 -3.713255 6.216136 2.542639 5.445702
  6 18.045725 0.000000 0.000000 0.000000 -0.000000 -2.074575
  7 17.597597 0.000000 0.000000 -0.092081 0.087818 0.559914
  8 1.293670 0.684478 -0.000001 -0.000004 -0.000001 0.079314
  9 5.309685 -0.003834 0.000000 -0.268698 0.030429 0.109260
 10 4.826790 -0.004591 0.000000 -0.270340 -0.003068 -0.011962
 11 5.792767 -0.005304 0.000000 -0.139426 -0.005825 -0.042311
 12 6.662317 -0.001453 0.000000 0.000000 -0.000001 0.471000
 13 2.046985 -0.000002 0.000000 0.372495 0.581117 -1.292413
 14 -3.112024 1.517254 4.341911 2.389719 -0.947684 0.177609
 15 4.827230 0.000000 0.000001 -1.549349 -0.544347 -1.253072
 16 11.139763 0.000000 0.000000 0.000000 -0.000000 -1.137458
 17 10.314597 0.000001 0.000000 -0.655375 0.368129 -0.269525
 18 -2.869898 1.399663 -4.140396 -0.000013 1.321276 2.669783
 19 4.972048 0.000000 0.000001 1.080478 -0.132566 -1.870219
 20 11.585355 0.000000 0.000000 0.000000 -0.000000 -2.024545
 21 10.127057 0.000000 0.000001 1.969610 0.138362 0.944238
time 24
  0 0.235347 -0.235347 -14.604439 -0.000000 0.270322 -1.570969
  1 0.000000 0.000000 0.000000 -1.570795 -1.570796 0.000000
  2 -0.000005 0.000007 3.713255 -3.368582 -0.221254 1.331540
  3 18.045721 0.000000 0.000000 0.000000 -0.000000 -1.349168
  4 17.597597 0.000000 0.000000 -0.205032 0.225938 -0.216505
  5 0.000005 -0.000003 -3.713255 6.216136 2.542639 5.445702
  6 18.045725 0.000000 0.000000 0.000000 -0.000000 -2.074575
  7 17.597597 0.000000 0.000000 -0.092081 0.087818 0.559914
  8 1.293670 0.684478 -0.000001 -0.000004 -0.000001 0.079314
  9 5.309685 -0.003834 0.000000 -0.268698 0.030429 0.109260
 10 4.826790 -0.004591 0.000000 -0.270340 -0.004159 -0.015843
 11 5.792767 -0.005304 0.000000 -0.139393 -0.006496 -0.047107
 12 6.662317 -0.001453 0.000000 0.000000 -0.000001 0.471000
 13 2.046985 -0.000002 0.000000 0.373012 0.580756 -1.283288
 14 -3.112024 1.517254 4.341911 2.396622 -0.942376 0.169171
 15 4.827230 0.000000 0.000001 -1.559334 -0.534220 -1.251672
 16 11.139763 0.000000 0.000000 0.000000 -0.000000 -1.137458
 17 10.314597 0.000001 0.000000 -0.655375 0.368129 -0.269525
 18 -2.869898 1.399663 -4.140396 -0.000013 1.330151 2.669783
 19 4.972048 0.000000 0.000001 1.091153 -0.138277 -1.869560
 20 11.585355 0.000000 0.000000 0.000000 -0.000000 -2.024545
 21 10.127057 0.000000 0.000001 1.969610 0.138362 0.944238
time 25
  0 0.235347 -0.235347 -14.604439 -0.000000 0.270322 -1.570969
  1 0.000000 0.000000 0.000000 -1.570795 -1.570796 0.000000
  2 -0.000005 0.000007 3.713255 -3.368582 -0.221254 1.331540
  3 18.045721 0.000000 0.000000 0.000000 -0.000000 -1.349168
  4 17.597597 0.000000 0.000000 -0.205032 0.225938 -0.216505
  5 0.000005 -0.000003 -3.713255 6.216136 2.542639 5.445702
  6 18.045725 0.000000 0.000000 0.000000 -0.000000 -2.074575
  7 17.597597 0.000000 0.000000 -0.092081 0.087818 0.559914
  8 1.293670 0.684478 -0.000001 -0.000004 -0.000001 0.079314
  9 5.309685 -0.003834 0.000000 -0.268698 0.030429 0.109260
 10 4.826790 -0.004591 0.000000 -0.270340 -0.005201 -0.019657
 11 5.792767 -0.005304 0.000000 -0.139360 -0.007155 -0.051821
 12 6.662317 -0.001453 0.000000 0.000000 -0.000001 0.471000
 13 2.046985 -0.000002 0.000000 0.373486 0.580396 -1.274389
 14 -3.112024 1.517254 4.341911 2.403045 -0.937145 0.161022
 15 4.827230 0.000000 0.000001 -1.568967 -0.524263 -1.250447
 16 11.139763 0.000000 0.000000 0.000000 -0.000000 -1.137458
 17 10.314597 0.000001 0.000000 -0.655375 0.368129 -0.269525
 18 -2.869898 1.399663 -4.140396 -0.000013 1.338828 2.669783
 19 4.972048 0.000000 0.000001 1.101441 -0.143908 -1.869033
 20 11.585355 0.000000 0.000000 0.000000 -0.000000 -2.024545
 21 10.127057 0.000000 0.000001 1.969610 0.138362 0.944238
time 26
  0 0.235347 -0.235347 -14.604439 -0.000000 0.270322 -1.570969
  1 0.000000 0.000000 0.000000 -1.570795 -1.570796 0.000000
  2 -0.000005 0.000007 3.713255 -3.368582 -0.221254 1.331540
  3 18.045721 0.000000 0.000000 0.000000 -0.000000 -1.349168
  4 17.597597 0.000000 0.000000 -0.205032 0.225938 -0.216505
  5 0.000005 -0.000003 -3.713255 6.216136 2.542639 5.445702
  6 18.045725 0.000000 0.000000 0.000000 -0.000000 -2.074575
  7 17.597597 0.000000 0.000000 -0.092081 0.087818 0.559914
  8 1.293670 0.684478 -0.000001 -0.000004 -0.000001 0.079314
  9 5.309685 -0.003834 0.000000 -0.268698 0.030429 0.109260
 10 4.826790 -0.004591 0.000000 -0.270307 -0.006208 -0.023273
 11 5.792767 -0.005304 0.000000 -0.139328 -0.007790 -0.056285
 12 6.662317 -0.001453 0.000000 0.000000 -0.000001 0.471000
 13 2.046985 -0.000002 0.000000 0.373960 0.580036 -1.265849
 14 -3.112024 1.517254 4.341911 2.409181 -0.932106 0.153544
 15 4.827230 0.000000 0.000001 -1.578188 -0.514817 -1.249309
 16 11.139763 0.000000 0.000000 0.000000 -0.000000 -1.137458
 17 10.314597 0.000001 0.000000 -0.655375 0.368129 -0.269525
 18 -2.869898 1.399663 -4.140396 -0.000013 1.347138 2.669783
 19 4.972048 0.000000 0.000001 1.111265 -0.149378 -1.868638
 20 11.585355 0.000000 0.000000 0.000000 -0.000000 -2.024545
 21 10.127057 0.000000 0.000001 1.969610 0.138362 0.944238
time 27
  0 0.235347 -0.235347 -14.604439 -0.000000 0.270322 -1.570969
  1 0.000000 0.000000 0.000000 -1.570795 -1.570796 0.000000
  2 -0.000005 0.000007 3.713255 -3.368582 -0.221254 1.331540
  3 18.045721 0.000000 0.000000 0.000000 -0.000000 -1.349168
  4 17.597597 0.000000 0.000000 -0.205032 0.225938 -0.216505
  5 0.000005 -0.000003 -3.713255 6.216136 2.542639 5.445702
  6 18.045725 0.000000 0.000000 0.000000 -0.000000 -2.074575
  7 17.597597 0.000000 0.000000 -0.092081 0.087818 0.559914
  8 1.293670 0.684478 -0.000001 -0.000004 -0.000001 0.079314
  9 5.309685 -0.003834 0.000000 -0.268698 0.030429 0.109260
 10 4.826790 -0.004591 0.000000 -0.270274 -0.007143 -0.026602
 11 5.792767 -0.005304 0.000000 -0.139295 -0.008353 -0.060396
 12 6.662317 -0.001453 0.000000 0.000000 -0.000001 0.471000
 13 2.046985 -0.000002 0.000000 0.374391 0.579721 -1.258072
 14 -3.112024 1.517254 4.341911 2.414838 -0.927490 0.146545
 15 4.827230 0.000000 0.000001 -1.586588 -0.506222 -1.248609
 16 11.139763 0.000000 0.000000 0.000000 -0.000000 -1.137458
 17 10.314597 0.000001 0.000000 -0.655375 0.368129 -0.269525
 18 -2.869898 1.399663 -4.140396 -0.000013 1.354684 2.669783
 19 4.972048 0.000000 0.000001 1.120393 -0.154285 -1.868308
 20 11.585355 0.000000 0.000000 0.000000 -0.000000 -2.024545
 21 10.127057 0.000000 0.000001 1.969610 0.138362 0.944238
time 28
  0 0.235347 -0.235347 -14.604439 -0.000000 0.270322 -1.570969
  1 0.000000 0.000000 0.000000 -1.570795 -1.570796 0.000000
  2 -0.000005 0.000007 3.713255 -3.368582 -0.221254 1.331540
  3 18.045721 0.000000 0.000000 0.000000 -0.000000 -1.349168
  4 17.597597 0.000000 0.000000 -0.205032 0.225938 -0.216505
  5 0.000005 -0.000003 -3.713255 6.216136 2.542639 5.445702
  6 18.045725 0.000000 0.000000 0.000000 -0.000000 -2.074575
  7 17.597597 0.000000 0.000000 -0.092081 0.087818 0.559914
  8 1.293670 0.684478 -0.000001 -0.000004 -0.000001 0.079314
  9 5.309685 -0.003834 0.000000 -0.268698 0.030429 0.109260
 10 4.826790 -0.004591 0.000000 -0.270274 -0.007946 -0.029513
 11 5.792767 -0.005304 0.000000 -0.139262 -0.008869 -0.063988
 12 6.662317 -0.001453 0.000000 0.000000 -0.000001 0.471000
 13 2.046985 -0.000002 0.000000 0.374735 0.579450 -1.251240
 14 -3.112024 1.517254 4.341911 2.419535 -0.923413 0.140505
 15 4.827230 0.000000 0.000001 -1.593871 -0.498648 -1.247909
 16 11.139763 0.000000 0.000000 0.000000 -0.000000 -1.137458
 17 10.314597 0.000001 0.000000 -0.655375 0.368129 -0.269525
 18 -2.869898 1.399663 -4.140396 -0.000013 1.361383 2.669783
 19 4.972048 0.000000 0.000001 1.128283 -0.158709 -1.868177
 20 11.585355 0.000000 0.000000 0.000000 -0.000000 -2.024545
 21 10.127057 0.000000 0.000001 1.969610 0.138362 0.944238
time 29
  0 0.235347 -0.235347 -14.604439 -0.000000 0.270322 -1.570969
  1 0.000000 0.000000 0.000000 -1.570795 -1.570796 0.000000
  2 -0.000005 0.000007 3.713255 -3.368582 -0.221254 1.331540
  3 18.045721 0.000000 0.000000 0.000000 -0.000000 -1.349168
  4 17.597597 0.000000 0.000000 -0.205032 0.225938 -0.216505
  5 0.000005 -0.000003 -3.713255 6.216136 2.542639 5.445702
  6 18.045725 0.000000 0.000000 0.000000 -0.000000 -2.074575
  7 17.597597 0.000000 0.000000 -0.092081 0.087818 0.559914
  8 1.293670 0.684478 -0.000001 -0.000004 -0.000001 0.079314
  9 5.309685 -0.003834 0.000000 -0.268698 0.030429 0.109260
 10 4.826790 -0.004591 0.000000 -0.270225 -0.008617 -0.031916
 11 5.792767 -0.005304 0.000000 -0.139230 -0.009264 -0.066936
 12 6.662317 -0.001453 0.000000 0.000000 -0.000001 0.471000
 13 2.046985 -0.000002 0.000000 0.375080 0.579225 -1.245712
 14 -3.112024 1.517254 4.341911 2.423466 -0.920066 0.135711
 15 4.827230 0.000000 0.000001 -1.599803 -0.492436 -1.247384
 16 11.139763 0.000000 0.000000 0.000000 -0.000000 -1.137458
 17 10.314597 0.000001 0.000000 -0.655375 0.368129 -0.269525
 18 -2.869898 1.399663 -4.140396 -0.000013 1.366838 2.669783
 19 4.972048 0.000000 0.000001 1.134858 -0.162168 -1.868177
 20 11.585355 0.000000 0.000000 0.000000 -0.000000 -2.024545
 21 10.127057 0.000000 0.000001 1.969610 0.138362 0.944238
time 30
  0 0.235347 -0.235347 -14.604439 -0.000000 0.270322 -1.570969
  1 0.000000 0.000000 0.000000 -1.570795 -1.570796 0.000000
  2 -0.000005 0.000007 3.713255 -3.368582 -0.221254 1.331540
  3 18.045721 0.000000 0.000000 0.000000 -0.000000 -1.349168
  4 17.597597 0.000000 0.000000 -0.205032 0.225938 -0.216505
  5 0.000005 -0.000003 -3.713255 6.216136 2.542639 5.445702
  6 18.045725 0.000000 0.000000 0.000000 -0.000000 -2.074575
  7 17.597597 0.000000 0.000000 -0.092081 0.087818 0.559914
  8 1.293670 0.684478 -0.000001 -0.000004 -0.000001 0.079314
  9 5.309685 -0.003834 0.000000 -0.268698 0.030429 0.109260
 10 4.826790 -0.004591 0.000000 -0.270225 -0.009084 -0.033658
 11 5.792767 -0.005304 0.000000 -0.139214 -0.009588 -0.069074
 12 6.662317 -0.001453 0.000000 0.000000 -0.000001 0.471000
 13 2.046985 -0.000002 0.000000 0.375252 0.579045 -1.241577
 14 -3.112024 1.517254 4.341911 2.426247 -0.917566 0.132067
 15 4.827230 0.000000 0.000001 -1.604150 -0.487840 -1.247209
 16 11.139763 0.000000 0.000000 0.000000 -0.000000 -1.137458
 17 10.314597 0.000001 0.000000 -0.655375 0.368129 -0.269525
 18 -2.869898 1.399663 -4.140396 -0.000013 1.370795 2.669783
 19 4.972048 0.000000 0.000001 1.139732 -0.164903 -1.868177
 20 11.585355 0.000000 0.000000 0.000000 -0.000000 -2.024545
 21 10.127057 0.000000 0.000001 1.969610 0.138362 0.944238
end
