version 1
nodes
  0 "Bip01"  -1
  1 "Bip01 Pelvis"   0
  2 "Bip01 L Leg"   1
  3 "Bip01 L Leg1"   2
  4 "Bip01 L Foot"   3
  5 "Bip01 R Leg"   1
  6 "Bip01 R Leg1"   5
  7 "Bip01 R Foot"   6
  8 "Bip01 Spine"   1
  9 "Bip01 Spine1"   8
 10 "Bip01 Spine2"   9
 11 "Bip01 Spine3"  10
 12 "Bip01 Neck"  11
 13 "Bip01 Head"  12
 14 "Bip01 L Arm"  12
 15 "Bip01 L Arm1"  14
 16 "Bip01 L Arm2"  15
 17 "Bip01 L Hand"  16
 18 "Bip01 R Arm"  12
 19 "Bip01 R Arm1"  18
 20 "Bip01 R Arm2"  19
 21 "Bip01 R Hand"  20
end
skeleton
time 0
  0 0.235347 -0.235347 -14.666941 -0.045585 0.257873 -1.742273
  1 0.000000 0.000000 0.000000 -1.570795 -1.570796 0.000000
  2 -0.000005 0.000007 3.713255 -3.368582 -0.221254 1.331540
  3 18.045721 0.000000 0.000000 0.000000 -0.000000 -1.349168
  4 17.597597 0.000000 0.000000 -0.205032 0.225938 -0.216505
  5 0.000005 -0.000003 -3.713255 6.216136 2.542639 5.445702
  6 18.045725 0.000000 0.000000 0.000000 -0.000000 -2.074575
  7 17.597597 0.000000 0.000000 -0.092081 0.087818 0.559914
  8 1.293670 0.684478 -0.000001 -0.000004 -0.000001 0.358403
  9 5.309685 -0.003834 0.000000 -0.033165 0.010786 0.313795
 10 4.826790 -0.004591 0.000000 -0.148257 -0.002457 -0.017276
 11 5.792767 -0.005304 0.000000 0.000000 -0.000000 0.122088
 12 6.662317 -0.001453 0.000000 0.000000 -0.000001 0.078555
 13 2.046985 -0.000002 0.000000 0.153591 0.097577 -0.805225
 14 -3.447972 0.216433 4.341911 -0.041815 -1.370643 3.103266
 15 4.827230 0.000000 0.000001 -0.640522 -0.848242 -1.368762
 16 11.139763 0.000000 0.000000 0.000000 -0.000000 -1.194783
 17 10.314597 0.000001 0.000000 -2.411013 -0.017415 0.377003
 18 -3.186314 0.196501 -4.140396 -0.000013 1.370795 3.062192
 19 4.972048 0.000000 0.000001 0.838358 0.345495 -1.658504
 20 11.585355 0.000000 0.000000 0.000000 -0.000000 -1.263554
 21 10.127057 0.000000 0.000001 2.054142 0.472045 0.165104
time 1
  0 0.235347 -0.235347 -14.666941 -0.045585 0.257873 -1.742273
  1 0.000000 0.000000 0.000000 -1.570795 -1.570796 0.000000
  2 -0.000005 0.000007 3.713255 -3.368582 -0.221254 1.331540
  3 18.045721 0.000000 0.000000 0.000000 -0.000000 -1.349168
  4 17.597597 0.000000 0.000000 -0.205032 0.225938 -0.216505
  5 0.000005 -0.000003 -3.713255 6.216136 2.542639 5.445702
  6 18.045725 0.000000 0.000000 0.000000 -0.000000 -2.074575
  7 17.597597 0.000000 0.000000 -0.092081 0.087818 0.559914
  8 1.293670 0.684478 -0.000001 -0.000004 -0.000001 0.358403
  9 5.309685 -0.003834 0.000000 -0.033165 0.010786 0.313795
 10 4.826790 -0.004591 0.000000 -0.148257 -0.002169 -0.015468
 11 5.792767 -0.005304 0.000000 0.000000 -0.000000 0.122088
 12 6.662317 -0.001453 0.000000 0.000000 -0.000001 0.078555
 13 2.046985 -0.000002 0.000000 0.153591 0.097577 -0.807022
 14 -3.447972 0.216433 4.341911 -0.014395 -1.370797 3.076229
 15 4.827230 0.000000 0.000001 -0.641403 -0.850965 -1.363074
 16 11.139763 0.000000 0.000000 0.000000 -0.000000 -1.194783
 17 10.314597 0.000001 0.000000 -2.411013 -0.017415 0.377003
 18 -3.186314 0.196501 -4.140396 -0.034815 1.370710 3.027965
 19 4.972048 0.000000 0.000001 0.838126 0.348632 -1.652181
 20 11.585355 0.000000 0.000000 0.000000 -0.000000 -1.263554
 21 10.127057 0.000000 0.000001 2.054142 0.472045 0.165104
time 2
  0 0.235347 -0.235347 -14.666941 -0.045585 0.257873 -1.742273
  1 0.000000 0.000000 0.000000 -1.570795 -1.570796 0.000000
  2 -0.000005 0.000007 3.713255 -3.368582 -0.221254 1.331540
  3 18.045721 0.000000 0.000000 0.000000 -0.000000 -1.349168
  4 17.597597 0.000000 0.000000 -0.205032 0.225938 -0.216505
  5 0.000005 -0.000003 -3.713255 6.216136 2.542639 5.445702
  6 18.045725 0.000000 0.000000 0.000000 -0.000000 -2.074575
  7 17.597597 0.000000 0.000000 -0.092081 0.087818 0.559914
  8 1.293670 0.684478 -0.000001 -0.000004 -0.000001 0.358403
  9 5.309685 -0.003834 0.000000 -0.033165 0.010786 0.313795
 10 4.826790 -0.004591 0.000000 -0.148257 -0.001822 -0.013020
 11 5.792767 -0.005304 0.000000 0.000000 -0.000000 0.122088
 12 6.662317 -0.001453 0.000000 0.000000 -0.000001 0.078555
 13 2.046985 -0.000002 0.000000 0.153591 0.097577 -0.809495
 14 -3.447972 0.216433 4.341911 0.022996 -1.370797 3.039604
 15 4.827230 0.000000 0.000001 -0.642695 -0.854880 -1.355373
 16 11.139763 0.000000 0.000000 0.000000 -0.000000 -1.194783
 17 10.314597 0.000001 0.000000 -2.411013 -0.017415 0.377003
 18 -3.186314 0.196501 -4.140396 -0.081985 1.370173 2.981658
 19 4.972048 0.000000 0.000001 0.837739 0.352976 -1.643551
 20 11.585355 0.000000 0.000000 0.000000 -0.000000 -1.263554
 21 10.127057 0.000000 0.000001 2.054142 0.472045 0.165104
time 3
  0 0.235347 -0.235347 -14.666941 -0.045585 0.257873 -1.742273
  1 0.000000 0.000000 0.000000 -1.570795 -1.570796 0.000000
  2 -0.000005 0.000007 3.713255 -3.368582 -0.221254 1.331540
  3 18.045721 0.000000 0.000000 0.000000 -0.000000 -1.349168
  4 17.597597 0.000000 0.000000 -0.205032 0.225938 -0.216505
  5 0.000005 -0.000003 -3.713255 6.216136 2.542639 5.445702
  6 18.045725 0.000000 0.000000 0.000000 -0.000000 -2.074575
  7 17.597597 0.000000 0.000000 -0.092081 0.087818 0.559914
  8 1.293670 0.684478 -0.000001 -0.000004 -0.000001 0.358403
  9 5.309685 -0.003834 0.000000 -0.033165 0.010786 0.313795
 10 4.826790 -0.004591 0.000000 -0.148257 -0.001354 -0.010022
 11 5.792767 -0.005304 0.000000 0.000000 -0.000000 0.122088
 12 6.662317 -0.001453 0.000000 0.000000 -0.000001 0.078555
 13 2.046985 -0.000002 0.000000 0.153591 0.097577 -0.812551
 14 -3.447972 0.216433 4.341911 0.068439 -1.370412 2.995022
 15 4.827230 0.000000 0.000001 -0.644222 -0.859475 -1.345834
 16 11.139763 0.000000 0.000000 0.000000 -0.000000 -1.194783
 17 10.314597 0.000001 0.000000 -2.411013 -0.017415 0.377003
 18 -3.186314 0.196501 -4.140396 -0.139221 1.368901 2.925668
 19 4.972048 0.000000 0.000001 0.837275 0.358124 -1.633144
 20 11.585355 0.000000 0.000000 0.000000 -0.000000 -1.263554
 21 10.127057 0.000000 0.000001 2.054142 0.472045 0.165104
time 4
  0 0.235347 -0.235347 -14.666941 -0.045585 0.257873 -1.742273
  1 0.000000 0.000000 0.000000 -1.570795 -1.570796 0.000000
  2 -0.000005 0.000007 3.713255 -3.368582 -0.221254 1.331540
  3 18.045721 0.000000 0.000000 0.000000 -0.000000 -1.349168
  4 17.597597 0.000000 0.000000 -0.205032 0.225938 -0.216505
  5 0.000005 -0.000003 -3.713255 6.216136 2.542639 5.445702
  6 18.045725 0.000000 0.000000 0.000000 -0.000000 -2.074575
  7 17.597597 0.000000 0.000000 -0.092081 0.087818 0.559914
  8 1.293670 0.684478 -0.000001 -0.000004 -0.000001 0.358403
  9 5.309685 -0.003834 0.000000 -0.033165 0.010786 0.313795
 10 4.826790 -0.004591 0.000000 -0.148273 -0.000863 -0.006626
 11 5.792767 -0.005304 0.000000 0.000000 -0.000000 0.122088
 12 6.662317 -0.001453 0.000000 0.000000 -0.000001 0.078555
 13 2.046985 -0.000002 0.000000 0.153591 0.097577 -0.816012
 14 -3.447972 0.216433 4.341911 0.120211 -1.369412 2.944399
 15 4.827230 0.000000 0.000001 -0.646043 -0.864751 -1.335070
 16 11.139763 0.000000 0.000000 0.000000 -0.000000 -1.194783
 17 10.314597 0.000001 0.000000 -2.411013 -0.017415 0.377003
 18 -3.186314 0.196501 -4.140396 -0.203360 1.366725 2.862872
 19 4.972048 0.000000 0.000001 0.836656 0.364157 -1.621155
 20 11.585355 0.000000 0.000000 0.000000 -0.000000 -1.263554
 21 10.127057 0.000000 0.000001 2.054142 0.472045 0.165104
time 5
  0 0.235347 -0.235347 -14.666941 -0.045585 0.257873 -1.742273
  1 0.000000 0.000000 0.000000 -1.570795 -1.570796 0.000000
  2 -0.000005 0.000007 3.713255 -3.368582 -0.221254 1.331540
  3 18.045721 0.000000 0.000000 0.000000 -0.000000 -1.349168
  4 17.597597 0.000000 0.000000 -0.205032 0.225938 -0.216505
  5 0.000005 -0.000003 -3.713255 6.216136 2.542639 5.445702
  6 18.045725 0.000000 0.000000 0.000000 -0.000000 -2.074575
  7 17.597597 0.000000 0.000000 -0.092081 0.087818 0.559914
  8 1.293670 0.684478 -0.000001 -0.000004 -0.000001 0.358403
  9 5.309685 -0.003834 0.000000 -0.033165 0.010786 0.313795
 10 4.826790 -0.004591 0.000000 -0.148273 -0.000312 -0.002900
 11 5.792767 -0.005304 0.000000 0.000000 -0.000000 0.122088
 12 6.662317 -0.001453 0.000000 0.000000 -0.000001 0.078555
 13 2.046985 -0.000002 0.000000 0.153591 0.097577 -0.819743
 14 -3.447972 0.216433 4.341911 0.175721 -1.367758 2.889846
 15 4.827230 0.000000 0.000001 -0.648099 -0.870538 -1.323256
 16 11.139763 0.000000 0.000000 0.000000 -0.000000 -1.194783
 17 10.314597 0.000001 0.000000 -2.411013 -0.017415 0.377003
 18 -3.186314 0.196501 -4.140396 -0.271430 1.363418 2.796336
 19 4.972048 0.000000 0.000001 0.836269 0.370673 -1.607980
 20 11.585355 0.000000 0.000000 0.000000 -0.000000 -1.263554
 21 10.127057 0.000000 0.000001 2.054142 0.472045 0.165104
time 6
  0 0.235347 -0.235347 -14.666941 -0.045585 0.257873 -1.742273
  1 0.000000 0.000000 0.000000 -1.570795 -1.570796 0.000000
  2 -0.000005 0.000007 3.713255 -3.368582 -0.221254 1.331540
  3 18.045721 0.000000 0.000000 0.000000 -0.000000 -1.349168
  4 17.597597 0.000000 0.000000 -0.205032 0.225938 -0.216505
  5 0.000005 -0.000003 -3.713255 6.216136 2.542639 5.445702
  6 18.045725 0.000000 0.000000 0.000000 -0.000000 -2.074575
  7 17.597597 0.000000 0.000000 -0.092081 0.087818 0.559914
  8 1.293670 0.684478 -0.000001 -0.000004 -0.000001 0.358403
  9 5.309685 -0.003834 0.000000 -0.033165 0.010786 0.313795
 10 4.826790 -0.004591 0.000000 -0.148273 0.000264 0.001002
 11 5.792767 -0.005304 0.000000 0.000000 -0.000000 0.122088
 12 6.662317 -0.001453 0.000000 0.000000 -0.000001 0.078555
 13 2.046985 -0.000002 0.000000 0.153591 0.097577 -0.823653
 14 -3.447972 0.216433 4.341911 0.233054 -1.365450 2.833854
 15 4.827230 0.000000 0.000001 -0.650272 -0.876580 -1.310742
 16 11.139763 0.000000 0.000000 0.000000 -0.000000 -1.194783
 17 10.314597 0.000001 0.000000 -2.411013 -0.017415 0.377003
 18 -3.186314 0.196501 -4.140396 -0.340459 1.359009 2.728841
 19 4.972048 0.000000 0.000001 0.835805 0.377591 -1.594279
 20 11.585355 0.000000 0.000000 0.000000 -0.000000 -1.263554
 21 10.127057 0.000000 0.000001 2.054142 0.472045 0.165104
time 7
  0 0.235347 -0.235347 -14.666941 -0.045585 0.257873 -1.742273
  1 0.000000 0.000000 0.000000 -1.570795 -1.570796 0.000000
  2 -0.000005 0.000007 3.713255 -3.368582 -0.221254 1.331540
  3 18.045721 0.000000 0.000000 0.000000 -0.000000 -1.349168
  4 17.597597 0.000000 0.000000 -0.205032 0.225938 -0.216505
  5 0.000005 -0.000003 -3.713255 6.216136 2.542639 5.445702
  6 18.045725 0.000000 0.000000 0.000000 -0.000000 -2.074575
  7 17.597597 0.000000 0.000000 -0.092081 0.087818 0.559914
  8 1.293670 0.684478 -0.000001 -0.000004 -0.000001 0.358403
  9 5.309685 -0.003834 0.000000 -0.033165 0.010786 0.313795
 10 4.826790 -0.004591 0.000000 -0.148273 0.000863 0.004993
 11 5.792767 -0.005304 0.000000 0.000000 -0.000000 0.122088
 12 6.662317 -0.001453 0.000000 0.000000 -0.000001 0.078555
 13 2.046985 -0.000002 0.000000 0.153591 0.097577 -0.827698
 14 -3.447972 0.216433 4.341911 0.290098 -1.362335 2.777958
 15 4.827230 0.000000 0.000001 -0.652504 -0.882878 -1.297878
 16 11.139763 0.000000 0.000000 0.000000 -0.000000 -1.194783
 17 10.314597 0.000001 0.000000 -2.411013 -0.017415 0.377003
 18 -3.186314 0.196501 -4.140396 -0.407666 1.353497 2.663360
 19 4.972048 0.000000 0.000001 0.835341 0.384509 -1.580248
 20 11.585355 0.000000 0.000000 0.000000 -0.000000 -1.263554
 21 10.127057 0.000000 0.000001 2.054142 0.472045 0.165104
time 8
  0 0.235347 -0.235347 -14.666941 -0.045585 0.257873 -1.742273
  1 0.000000 0.000000 0.000000 -1.570795 -1.570796 0.000000
  2 -0.000005 0.000007 3.713255 -3.368582 -0.221254 1.331540
  3 18.045721 0.000000 0.000000 0.000000 -0.000000 -1.349168
  4 17.597597 0.000000 0.000000 -0.205032 0.225938 -0.216505
  5 0.000005 -0.000003 -3.713255 6.216136 2.542639 5.445702
  6 18.045725 0.000000 0.000000 0.000000 -0.000000 -2.074575
  7 17.597597 0.000000 0.000000 -0.092081 0.087818 0.559914
  8 1.293670 0.684478 -0.000001 -0.000004 -0.000001 0.358403
  9 5.309685 -0.003834 0.000000 -0.033165 0.010786 0.313795
 10 4.826790 -0.004591 0.000000 -0.148257 0.001438 0.008940
 11 5.792767 -0.005304 0.000000 0.000000 -0.000000 0.122088
 12 6.662317 -0.001453 0.000000 0.000000 -0.000001 0.078555
 13 2.046985 -0.000002 0.000000 0.153591 0.097577 -0.831744
 14 -3.447972 0.216433 4.341911 0.344746 -1.358681 2.724555
 15 4.827230 0.000000 0.000001 -0.654912 -0.889005 -1.285101
 16 11.139763 0.000000 0.000000 0.000000 -0.000000 -1.194783
 17 10.314597 0.000001 0.000000 -2.411013 -0.017415 0.377003
 18 -3.186314 0.196501 -4.140396 -0.470559 1.347166 2.601713
 19 4.972048 0.000000 0.000001 0.834877 0.391427 -1.566349
 20 11.585355 0.000000 0.000000 0.000000 -0.000000 -1.263554
 21 10.127057 0.000000 0.000001 2.054142 0.472045 0.165104
time 9
  0 0.235347 -0.235347 -14.666941 -0.045585 0.257873 -1.742273
  1 0.000000 0.000000 0.000000 -1.570795 -1.570796 0.000000
  2 -0.000005 0.000007 3.713255 -3.368582 -0.221254 1.331540
  3 18.045721 0.000000 0.000000 0.000000 -0.000000 -1.349168
  4 17.597597 0.000000 0.000000 -0.205032 0.225938 -0.216505
  5 0.000005 -0.000003 -3.713255 6.216136 2.542639 5.445702
  6 18.045725 0.000000 0.000000 0.000000 -0.000000 -2.074575
  7 17.597597 0.000000 0.000000 -0.092081 0.087818 0.559914
  8 1.293670 0.684478 -0.000001 -0.000004 -0.000001 0.358403
  9 5.309685 -0.003834 0.000000 -0.033165 0.010786 0.313795
 10 4.826790 -0.004591 0.000000 -0.148257 0.002001 0.012754
 11 5.792767 -0.005304 0.000000 0.000000 -0.000000 0.122088
 12 6.662317 -0.001453 0.000000 0.000000 -0.000001 0.078555
 13 2.046985 -0.000002 0.000000 0.153591 0.097577 -0.835519
 14 -3.447972 0.216433 4.341911 0.395367 -1.354603 2.675083
 15 4.827230 0.000000 0.000001 -0.657203 -0.894877 -1.272674
 16 11.139763 0.000000 0.000000 0.000000 -0.000000 -1.194783
 17 10.314597 0.000001 0.000000 -2.411013 -0.017415 0.377003
 18 -3.186314 0.196501 -4.140396 -0.527891 1.340326 2.546107
 19 4.972048 0.000000 0.000001 0.834490 0.398023 -1.552977
 20 11.585355 0.000000 0.000000 0.000000 -0.000000 -1.263554
 21 10.127057 0.000000 0.000001 2.054142 0.472045 0.165104
time 10
  0 0.235347 -0.235347 -14.666941 -0.045585 0.257873 -1.742273
  1 0.000000 0.000000 0.000000 -1.570795 -1.570796 0.000000
  2 -0.000005 0.000007 3.713255 -3.368582 -0.221254 1.331540
  3 18.045721 0.000000 0.000000 0.000000 -0.000000 -1.349168
  4 17.597597 0.000000 0.000000 -0.205032 0.225938 -0.216505
  5 0.000005 -0.000003 -3.713255 6.216136 2.542639 5.445702
  6 18.045725 0.000000 0.000000 0.000000 -0.000000 -2.074575
  7 17.597597 0.000000 0.000000 -0.092081 0.087818 0.559914
  8 1.293670 0.684478 -0.000001 -0.000004 -0.000001 0.358403
  9 5.309685 -0.003834 0.000000 -0.033165 0.010786 0.313795
 10 4.826790 -0.004591 0.000000 -0.148224 0.002541 0.016282
 11 5.792767 -0.005304 0.000000 0.000000 -0.000000 0.122088
 12 6.662317 -0.001453 0.000000 0.000000 -0.000001 0.078555
 13 2.046985 -0.000002 0.000000 0.153591 0.097577 -0.839115
 14 -3.447972 0.216433 4.341911 0.440715 -1.350334 2.630980
 15 4.827230 0.000000 0.000001 -0.659435 -0.900238 -1.261210
 16 11.139763 0.000000 0.000000 0.000000 -0.000000 -1.194783
 17 10.314597 0.000001 0.000000 -2.411013 -0.017415 0.377003
 18 -3.186314 0.196501 -4.140396 -0.577936 1.333373 2.497211
 19 4.972048 0.000000 0.000001 0.834103 0.404217 -1.540461
 20 11.585355 0.000000 0.000000 0.000000 -0.000000 -1.263554
 21 10.127057 0.000000 0.000001 2.054142 0.472045 0.165104
time 11
  0 0.235347 -0.235347 -14.666941 -0.045585 0.257873 -1.742273
  1 0.000000 0.000000 0.000000 -1.570795 -1.570796 0.000000
  2 -0.000005 0.000007 3.713255 -3.368582 -0.221254 1.331540
  3 18.045721 0.000000 0.000000 0.000000 -0.000000 -1.349168
  4 17.597597 0.000000 0.000000 -0.205032 0.225938 -0.216505
  5 0.000005 -0.000003 -3.713255 6.216136 2.542639 5.445702
  6 18.045725 0.000000 0.000000 0.000000 -0.000000 -2.074575
  7 17.597597 0.000000 0.000000 -0.092081 0.087818 0.559914
  8 1.293670 0.684478 -0.000001 -0.000004 -0.000001 0.358403
  9 5.309685 -0.003834 0.000000 -0.033165 0.010786 0.313795
 10 4.826790 -0.004591 0.000000 -0.148224 0.003008 0.019413
 11 5.792767 -0.005304 0.000000 0.000000 -0.000000 0.122088
 12 6.662317 -0.001453 0.000000 0.000000 -0.000001 0.078555
 13 2.046985 -0.000002 0.000000 0.153591 0.097577 -0.842261
 14 -3.447972 0.216433 4.341911 0.479447 -1.346180 2.593109
 15 4.827230 0.000000 0.000001 -0.661432 -0.905089 -1.250972
 16 11.139763 0.000000 0.000000 0.000000 -0.000000 -1.194783
 17 10.314597 0.000001 0.000000 -2.411013 -0.017415 0.377003
 18 -3.186314 0.196501 -4.140396 -0.620217 1.326703 2.456274
 19 4.972048 0.000000 0.000001 0.833871 0.409687 -1.529328
 20 11.585355 0.000000 0.000000 0.000000 -0.000000 -1.263554
 21 10.127057 0.000000 0.000001 2.054142 0.472045 0.165104
time 12
  0 0.235347 -0.235347 -14.666941 -0.045585 0.257873 -1.742273
  1 0.000000 0.000000 0.000000 -1.570795 -1.570796 0.000000
  2 -0.000005 0.000007 3.713255 -3.368582 -0.221254 1.331540
  3 18.045721 0.000000 0.000000 0.000000 -0.000000 -1.349168
  4 17.597597 0.000000 0.000000 -0.205032 0.225938 -0.216505
  5 0.000005 -0.000003 -3.713255 6.216136 2.542639 5.445702
  6 18.045725 0.000000 0.000000 0.000000 -0.000000 -2.074575
  7 17.597597 0.000000 0.000000 -0.092081 0.087818 0.559914
  8 1.293670 0.684478 -0.000001 -0.000004 -0.000001 0.358403
  9 5.309685 -0.003834 0.000000 -0.033165 0.010786 0.313795
 10 4.826790 -0.004591 0.000000 -0.148224 0.003416 0.022058
 11 5.792767 -0.005304 0.000000 0.000000 -0.000000 0.122088
 12 6.662317 -0.001453 0.000000 0.000000 -0.000001 0.078555
 13 2.046985 -0.000002 0.000000 0.153591 0.097577 -0.844958
 14 -3.447972 0.216433 4.341911 0.511086 -1.342448 2.562237
 15 4.827230 0.000000 0.000001 -0.663194 -0.909259 -1.242221
 16 11.139763 0.000000 0.000000 0.000000 -0.000000 -1.194783
 17 10.314597 0.000001 0.000000 -2.411013 -0.017415 0.377003
 18 -3.186314 0.196501 -4.140396 -0.653964 1.320739 2.423485
 19 4.972048 0.000000 0.000001 0.833794 0.414272 -1.519975
 20 11.585355 0.000000 0.000000 0.000000 -0.000000 -1.263554
 21 10.127057 0.000000 0.000001 2.054142 0.472045 0.165104
time 13
  0 0.235347 -0.235347 -14.666941 -0.045585 0.257873 -1.742273
  1 0.000000 0.000000 0.000000 -1.570795 -1.570796 0.000000
  2 -0.000005 0.000007 3.713255 -3.368582 -0.221254 1.331540
  3 18.045721 0.000000 0.000000 0.000000 -0.000000 -1.349168
  4 17.597597 0.000000 0.000000 -0.205032 0.225938 -0.216505
  5 0.000005 -0.000003 -3.713255 6.216136 2.542639 5.445702
  6 18.045725 0.000000 0.000000 0.000000 -0.000000 -2.074575
  7 17.597597 0.000000 0.000000 -0.092081 0.087818 0.559914
  8 1.293670 0.684478 -0.000001 -0.000004 -0.000001 0.358403
  9 5.309685 -0.003834 0.000000 -0.033165 0.010786 0.313795
 10 4.826790 -0.004591 0.000000 -0.148224 0.003703 0.024087
 11 5.792767 -0.005304 0.000000 0.000000 -0.000000 0.122088
 12 6.662317 -0.001453 0.000000 0.000000 -0.000001 0.078555
 13 2.046985 -0.000002 0.000000 0.153591 0.097577 -0.847071
 14 -3.447972 0.216433 4.341911 0.534670 -1.339410 2.539419
 15 4.827230 0.000000 0.000001 -0.664545 -0.912323 -1.235570
 16 11.139763 0.000000 0.000000 0.000000 -0.000000 -1.194783
 17 10.314597 0.000001 0.000000 -2.411013 -0.017415 0.377003
 18 -3.186314 0.196501 -4.140396 -0.678891 1.316019 2.399517
 19 4.972048 0.000000 0.000001 0.833639 0.417892 -1.512729
 20 11.585355 0.000000 0.000000 0.000000 -0.000000 -1.263554
 21 10.127057 0.000000 0.000001 2.054142 0.472045 0.165104
time 14
  0 0.235347 -0.235347 -14.666941 -0.045585 0.257873 -1.742273
  1 0.000000 0.000000 0.000000 -1.570795 -1.570796 0.000000
  2 -0.000005 0.000007 3.713255 -3.368582 -0.221254 1.331540
  3 18.045721 0.000000 0.000000 0.000000 -0.000000 -1.349168
  4 17.597597 0.000000 0.000000 -0.205032 0.225938 -0.216505
  5 0.000005 -0.000003 -3.713255 6.216136 2.542639 5.445702
  6 18.045725 0.000000 0.000000 0.000000 -0.000000 -2.074575
  7 17.597597 0.000000 0.000000 -0.092081 0.087818 0.559914
  8 1.293670 0.684478 -0.000001 -0.000004 -0.000001 0.358403
  9 5.309685 -0.003834 0.000000 -0.033165 0.010786 0.313795
 10 4.826790 -0.004591 0.000000 -0.148224 0.003907 0.025388
 11 5.792767 -0.005304 0.000000 0.000000 -0.000000 0.122088
 12 6.662317 -0.001453 0.000000 0.000000 -0.000001 0.078555
 13 2.046985 -0.000002 0.000000 0.153591 0.097577 -0.848329
 14 -3.447972 0.216433 4.341911 0.549627 -1.337410 2.524941
 15 4.827230 0.000000 0.000001 -0.665426 -0.914280 -1.231282
 16 11.139763 0.000000 0.000000 0.000000 -0.000000 -1.194783
 17 10.314597 0.000001 0.000000 -2.411013 -0.017415 0.377003
 18 -3.186314 0.196501 -4.140396 -0.694231 1.312910 2.384561
 19 4.972048 0.000000 0.000001 0.833562 0.420144 -1.508117
 20 11.585355 0.000000 0.000000 0.000000 -0.000000 -1.263554
 21 10.127057 0.000000 0.000001 2.054142 0.472045 0.165104
time 15
  0 0.235347 -0.235347 -14.666941 -0.045585 0.257873 -1.742273
  1 0.000000 0.000000 0.000000 -1.570795 -1.570796 0.000000
  2 -0.000005 0.000007 3.713255 -3.368582 -0.221254 1.331540
  3 18.045721 0.000000 0.000000 0.000000 -0.000000 -1.349168
  4 17.597597 0.000000 0.000000 -0.205032 0.225938 -0.216505
  5 0.000005 -0.000003 -3.713255 6.216136 2.542639 5.445702
  6 18.045725 0.000000 0.000000 0.000000 -0.000000 -2.074575
  7 17.597597 0.000000 0.000000 -0.092081 0.087818 0.559914
  8 1.293670 0.684478 -0.000001 -0.000004 -0.000001 0.358403
  9 5.309685 -0.003834 0.000000 -0.033165 0.010786 0.313795
 10 4.826790 -0.004591 0.000000 -0.148224 0.003979 0.025851
 11 5.792767 -0.005304 0.000000 0.000000 -0.000000 0.122088
 12 6.662317 -0.001453 0.000000 0.000000 -0.000001 0.078555
 13 2.046985 -0.000002 0.000000 0.153591 0.097577 -0.848824
 14 -3.447972 0.216433 4.341911 0.554804 -1.336717 2.519956
 15 4.827230 0.000000 0.000001 -0.665661 -0.915046 -1.229619
 16 11.139763 0.000000 0.000000 0.000000 -0.000000 -1.194783
 17 10.314597 0.000001 0.000000 -2.411013 -0.017415 0.377003
 18 -3.186314 0.196501 -4.140396 -0.699600 1.311779 2.379287
 19 4.972048 0.000000 0.000001 0.833562 0.421029 -1.506537
 20 11.585355 0.000000 0.000000 0.000000 -0.000000 -1.263554
 21 10.127057 0.000000 0.000001 2.054142 0.472045 0.165104
time 16
  0 0.235347 -0.235347 -14.666941 -0.045585 0.257873 -1.742273
  1 0.000000 0.000000 0.000000 -1.570795 -1.570796 0.000000
  2 -0.000005 0.000007 3.713255 -3.368582 -0.221254 1.331540
  3 18.045721 0.000000 0.000000 0.000000 -0.000000 -1.349168
  4 17.597597 0.000000 0.000000 -0.205032 0.225938 -0.216505
  5 0.000005 -0.000003 -3.713255 6.216136 2.542639 5.445702
  6 18.045725 0.000000 0.000000 0.000000 -0.000000 -2.074575
  7 17.597597 0.000000 0.000000 -0.092081 0.087818 0.559914
  8 1.293670 0.684478 -0.000001 -0.000004 -0.000001 0.358403
  9 5.309685 -0.003834 0.000000 -0.033165 0.010786 0.313795
 10 4.826790 -0.004591 0.000000 -0.148224 0.003907 0.025388
 11 5.792767 -0.005304 0.000000 0.000000 -0.000000 0.122088
 12 6.662317 -0.001453 0.000000 0.000000 -0.000001 0.078555
 13 2.046985 -0.000002 0.000000 0.153591 0.097577 -0.848329
 14 -3.447972 0.216433 4.341911 0.549627 -1.337410 2.524941
 15 4.827230 0.000000 0.000001 -0.665426 -0.914280 -1.231282
 16 11.139763 0.000000 0.000000 0.000000 -0.000000 -1.194783
 17 10.314597 0.000001 0.000000 -2.411013 -0.017415 0.377003
 18 -3.186314 0.196501 -4.140396 -0.694231 1.312910 2.384561
 19 4.972048 0.000000 0.000001 0.833562 0.420144 -1.508117
 20 11.585355 0.000000 0.000000 0.000000 -0.000000 -1.263554
 21 10.127057 0.000000 0.000001 2.054142 0.472045 0.165104
time 17
  0 0.235347 -0.235347 -14.666941 -0.045585 0.257873 -1.742273
  1 0.000000 0.000000 0.000000 -1.570795 -1.570796 0.000000
  2 -0.000005 0.000007 3.713255 -3.368582 -0.221254 1.331540
  3 18.045721 0.000000 0.000000 0.000000 -0.000000 -1.349168
  4 17.597597 0.000000 0.000000 -0.205032 0.225938 -0.216505
  5 0.000005 -0.000003 -3.713255 6.216136 2.542639 5.445702
  6 18.045725 0.000000 0.000000 0.000000 -0.000000 -2.074575
  7 17.597597 0.000000 0.000000 -0.092081 0.087818 0.559914
  8 1.293670 0.684478 -0.000001 -0.000004 -0.000001 0.358403
  9 5.309685 -0.003834 0.000000 -0.033165 0.010786 0.313795
 10 4.826790 -0.004591 0.000000 -0.148224 0.003703 0.024087
 11 5.792767 -0.005304 0.000000 0.000000 -0.000000 0.122088
 12 6.662317 -0.001453 0.000000 0.000000 -0.000001 0.078555
 13 2.046985 -0.000002 0.000000 0.153591 0.097577 -0.847071
 14 -3.447972 0.216433 4.341911 0.534670 -1.339410 2.539419
 15 4.827230 0.000000 0.000001 -0.664545 -0.912323 -1.235570
 16 11.139763 0.000000 0.000000 0.000000 -0.000000 -1.194783
 17 10.314597 0.000001 0.000000 -2.411013 -0.017415 0.377003
 18 -3.186314 0.196501 -4.140396 -0.678891 1.316019 2.399517
 19 4.972048 0.000000 0.000001 0.833639 0.417892 -1.512729
 20 11.585355 0.000000 0.000000 0.000000 -0.000000 -1.263554
 21 10.127057 0.000000 0.000001 2.054142 0.472045 0.165104
time 18
  0 0.235347 -0.235347 -14.666941 -0.045585 0.257873 -1.742273
  1 0.000000 0.000000 0.000000 -1.570795 -1.570796 0.000000
  2 -0.000005 0.000007 3.713255 -3.368582 -0.221254 1.331540
  3 18.045721 0.000000 0.000000 0.000000 -0.000000 -1.349168
  4 17.597597 0.000000 0.000000 -0.205032 0.225938 -0.216505
  5 0.000005 -0.000003 -3.713255 6.216136 2.542639 5.445702
  6 18.045725 0.000000 0.000000 0.000000 -0.000000 -2.074575
  7 17.597597 0.000000 0.000000 -0.092081 0.087818 0.559914
  8 1.293670 0.684478 -0.000001 -0.000004 -0.000001 0.358403
  9 5.309685 -0.003834 0.000000 -0.033165 0.010786 0.313795
 10 4.826790 -0.004591 0.000000 -0.148224 0.003416 0.022058
 11 5.792767 -0.005304 0.000000 0.000000 -0.000000 0.122088
 12 6.662317 -0.001453 0.000000 0.000000 -0.000001 0.078555
 13 2.046985 -0.000002 0.000000 0.153591 0.097577 -0.844958
 14 -3.447972 0.216433 4.341911 0.511086 -1.342448 2.562237
 15 4.827230 0.000000 0.000001 -0.663194 -0.909259 -1.242221
 16 11.139763 0.000000 0.000000 0.000000 -0.000000 -1.194783
 17 10.314597 0.000001 0.000000 -2.411013 -0.017415 0.377003
 18 -3.186314 0.196501 -4.140396 -0.653964 1.320739 2.423485
 19 4.972048 0.000000 0.000001 0.833794 0.414272 -1.519975
 20 11.585355 0.000000 0.000000 0.000000 -0.000000 -1.263554
 21 10.127057 0.000000 0.000001 2.054142 0.472045 0.165104
time 19
  0 0.235347 -0.235347 -14.666941 -0.045585 0.257873 -1.742273
  1 0.000000 0.000000 0.000000 -1.570795 -1.570796 0.000000
  2 -0.000005 0.000007 3.713255 -3.368582 -0.221254 1.331540
  3 18.045721 0.000000 0.000000 0.000000 -0.000000 -1.349168
  4 17.597597 0.000000 0.000000 -0.205032 0.225938 -0.216505
  5 0.000005 -0.000003 -3.713255 6.216136 2.542639 5.445702
  6 18.045725 0.000000 0.000000 0.000000 -0.000000 -2.074575
  7 17.597597 0.000000 0.000000 -0.092081 0.087818 0.559914
  8 1.293670 0.684478 -0.000001 -0.000004 -0.000001 0.358403
  9 5.309685 -0.003834 0.000000 -0.033165 0.010786 0.313795
 10 4.826790 -0.004591 0.000000 -0.148224 0.003008 0.019413
 11 5.792767 -0.005304 0.000000 0.000000 -0.000000 0.122088
 12 6.662317 -0.001453 0.000000 0.000000 -0.000001 0.078555
 13 2.046985 -0.000002 0.000000 0.153591 0.097577 -0.842261
 14 -3.447972 0.216433 4.341911 0.479447 -1.346180 2.593109
 15 4.827230 0.000000 0.000001 -0.661432 -0.905089 -1.250972
 16 11.139763 0.000000 0.000000 0.000000 -0.000000 -1.194783
 17 10.314597 0.000001 0.000000 -2.411013 -0.017415 0.377003
 18 -3.186314 0.196501 -4.140396 -0.620217 1.326703 2.456274
 19 4.972048 0.000000 0.000001 0.833871 0.409687 -1.529328
 20 11.585355 0.000000 0.000000 0.000000 -0.000000 -1.263554
 21 10.127057 0.000000 0.000001 2.054142 0.472045 0.165104
time 20
  0 0.235347 -0.235347 -14.666941 -0.045585 0.257873 -1.742273
  1 0.000000 0.000000 0.000000 -1.570795 -1.570796 0.000000
  2 -0.000005 0.000007 3.713255 -3.368582 -0.221254 1.331540
  3 18.045721 0.000000 0.000000 0.000000 -0.000000 -1.349168
  4 17.597597 0.000000 0.000000 -0.205032 0.225938 -0.216505
  5 0.000005 -0.000003 -3.713255 6.216136 2.542639 5.445702
  6 18.045725 0.000000 0.000000 0.000000 -0.000000 -2.074575
  7 17.597597 0.000000 0.000000 -0.092081 0.087818 0.559914
  8 1.293670 0.684478 -0.000001 -0.000004 -0.000001 0.358403
  9 5.309685 -0.003834 0.000000 -0.033165 0.010786 0.313795
 10 4.826790 -0.004591 0.000000 -0.148224 0.002541 0.016282
 11 5.792767 -0.005304 0.000000 0.000000 -0.000000 0.122088
 12 6.662317 -0.001453 0.000000 0.000000 -0.000001 0.078555
 13 2.046985 -0.000002 0.000000 0.153591 0.097577 -0.839115
 14 -3.447972 0.216433 4.341911 0.440715 -1.350334 2.630980
 15 4.827230 0.000000 0.000001 -0.659435 -0.900238 -1.261210
 16 11.139763 0.000000 0.000000 0.000000 -0.000000 -1.194783
 17 10.314597 0.000001 0.000000 -2.411013 -0.017415 0.377003
 18 -3.186314 0.196501 -4.140396 -0.577936 1.333373 2.497211
 19 4.972048 0.000000 0.000001 0.834103 0.404217 -1.540461
 20 11.585355 0.000000 0.000000 0.000000 -0.000000 -1.263554
 21 10.127057 0.000000 0.000001 2.054142 0.472045 0.165104
time 21
  0 0.235347 -0.235347 -14.666941 -0.045585 0.257873 -1.742273
  1 0.000000 0.000000 0.000000 -1.570795 -1.570796 0.000000
  2 -0.000005 0.000007 3.713255 -3.368582 -0.221254 1.331540
  3 18.045721 0.000000 0.000000 0.000000 -0.000000 -1.349168
  4 17.597597 0.000000 0.000000 -0.205032 0.225938 -0.216505
  5 0.000005 -0.000003 -3.713255 6.216136 2.542639 5.445702
  6 18.045725 0.000000 0.000000 0.000000 -0.000000 -2.074575
  7 17.597597 0.000000 0.000000 -0.092081 0.087818 0.559914
  8 1.293670 0.684478 -0.000001 -0.000004 -0.000001 0.358403
  9 5.309685 -0.003834 0.000000 -0.033165 0.010786 0.313795
 10 4.826790 -0.004591 0.000000 -0.148257 0.002001 0.012754
 11 5.792767 -0.005304 0.000000 0.000000 -0.000000 0.122088
 12 6.662317 -0.001453 0.000000 0.000000 -0.000001 0.078555
 13 2.046985 -0.000002 0.000000 0.153591 0.097577 -0.835519
 14 -3.447972 0.216433 4.341911 0.395367 -1.354603 2.675083
 15 4.827230 0.000000 0.000001 -0.657203 -0.894877 -1.272674
 16 11.139763 0.000000 0.000000 0.000000 -0.000000 -1.194783
 17 10.314597 0.000001 0.000000 -2.411013 -0.017415 0.377003
 18 -3.186314 0.196501 -4.140396 -0.527891 1.340326 2.546107
 19 4.972048 0.000000 0.000001 0.834490 0.398023 -1.552977
 20 11.585355 0.000000 0.000000 0.000000 -0.000000 -1.263554
 21 10.127057 0.000000 0.000001 2.054142 0.472045 0.165104
time 22
  0 0.235347 -0.235347 -14.666941 -0.045585 0.257873 -1.742273
  1 0.000000 0.000000 0.000000 -1.570795 -1.570796 0.000000
  2 -0.000005 0.000007 3.713255 -3.368582 -0.221254 1.331540
  3 18.045721 0.000000 0.000000 0.000000 -0.000000 -1.349168
  4 17.597597 0.000000 0.000000 -0.205032 0.225938 -0.216505
  5 0.000005 -0.000003 -3.713255 6.216136 2.542639 5.445702
  6 18.045725 0.000000 0.000000 0.000000 -0.000000 -2.074575
  7 17.597597 0.000000 0.000000 -0.092081 0.087818 0.559914
  8 1.293670 0.684478 -0.000001 -0.000004 -0.000001 0.358403
  9 5.309685 -0.003834 0.000000 -0.033165 0.010786 0.313795
 10 4.826790 -0.004591 0.000000 -0.148257 0.001438 0.008940
 11 5.792767 -0.005304 0.000000 0.000000 -0.000000 0.122088
 12 6.662317 -0.001453 0.000000 0.000000 -0.000001 0.078555
 13 2.046985 -0.000002 0.000000 0.153591 0.097577 -0.831744
 14 -3.447972 0.216433 4.341911 0.344746 -1.358681 2.724555
 15 4.827230 0.000000 0.000001 -0.654912 -0.889005 -1.285101
 16 11.139763 0.000000 0.000000 0.000000 -0.000000 -1.194783
 17 10.314597 0.000001 0.000000 -2.411013 -0.017415 0.377003
 18 -3.186314 0.196501 -4.140396 -0.470559 1.347166 2.601713
 19 4.972048 0.000000 0.000001 0.834877 0.391427 -1.566349
 20 11.585355 0.000000 0.000000 0.000000 -0.000000 -1.263554
 21 10.127057 0.000000 0.000001 2.054142 0.472045 0.165104
time 23
  0 0.235347 -0.235347 -14.666941 -0.045585 0.257873 -1.742273
  1 0.000000 0.000000 0.000000 -1.570795 -1.570796 0.000000
  2 -0.000005 0.000007 3.713255 -3.368582 -0.221254 1.331540
  3 18.045721 0.000000 0.000000 0.000000 -0.000000 -1.349168
  4 17.597597 0.000000 0.000000 -0.205032 0.225938 -0.216505
  5 0.000005 -0.000003 -3.713255 6.216136 2.542639 5.445702
  6 18.045725 0.000000 0.000000 0.000000 -0.000000 -2.074575
  7 17.597597 0.000000 0.000000 -0.092081 0.087818 0.559914
  8 1.293670 0.684478 -0.000001 -0.000004 -0.000001 0.358403
  9 5.309685 -0.003834 0.000000 -0.033165 0.010786 0.313795
 10 4.826790 -0.004591 0.000000 -0.148273 0.000863 0.004993
 11 5.792767 -0.005304 0.000000 0.000000 -0.000000 0.122088
 12 6.662317 -0.001453 0.000000 0.000000 -0.000001 0.078555
 13 2.046985 -0.000002 0.000000 0.153591 0.097577 -0.827698
 14 -3.447972 0.216433 4.341911 0.290098 -1.362335 2.777958
 15 4.827230 0.000000 0.000001 -0.652504 -0.882878 -1.297878
 16 11.139763 0.000000 0.000000 0.000000 -0.000000 -1.194783
 17 10.314597 0.000001 0.000000 -2.411013 -0.017415 0.377003
 18 -3.186314 0.196501 -4.140396 -0.407666 1.353497 2.663360
 19 4.972048 0.000000 0.000001 0.835341 0.384509 -1.580248
 20 11.585355 0.000000 0.000000 0.000000 -0.000000 -1.263554
 21 10.127057 0.000000 0.000001 2.054142 0.472045 0.165104
time 24
  0 0.235347 -0.235347 -14.666941 -0.045585 0.257873 -1.742273
  1 0.000000 0.000000 0.000000 -1.570795 -1.570796 0.000000
  2 -0.000005 0.000007 3.713255 -3.368582 -0.221254 1.331540
  3 18.045721 0.000000 0.000000 0.000000 -0.000000 -1.349168
  4 17.597597 0.000000 0.000000 -0.205032 0.225938 -0.216505
  5 0.000005 -0.000003 -3.713255 6.216136 2.542639 5.445702
  6 18.045725 0.000000 0.000000 0.000000 -0.000000 -2.074575
  7 17.597597 0.000000 0.000000 -0.092081 0.087818 0.559914
  8 1.293670 0.684478 -0.000001 -0.000004 -0.000001 0.358403
  9 5.309685 -0.003834 0.000000 -0.033165 0.010786 0.313795
 10 4.826790 -0.004591 0.000000 -0.148273 0.000264 0.001002
 11 5.792767 -0.005304 0.000000 0.000000 -0.000000 0.122088
 12 6.662317 -0.001453 0.000000 0.000000 -0.000001 0.078555
 13 2.046985 -0.000002 0.000000 0.153591 0.097577 -0.823653
 14 -3.447972 0.216433 4.341911 0.233054 -1.365450 2.833854
 15 4.827230 0.000000 0.000001 -0.650272 -0.876580 -1.310742
 16 11.139763 0.000000 0.000000 0.000000 -0.000000 -1.194783
 17 10.314597 0.000001 0.000000 -2.411013 -0.017415 0.377003
 18 -3.186314 0.196501 -4.140396 -0.340459 1.359009 2.728841
 19 4.972048 0.000000 0.000001 0.835805 0.377591 -1.594279
 20 11.585355 0.000000 0.000000 0.000000 -0.000000 -1.263554
 21 10.127057 0.000000 0.000001 2.054142 0.472045 0.165104
time 25
  0 0.235347 -0.235347 -14.666941 -0.045585 0.257873 -1.742273
  1 0.000000 0.000000 0.000000 -1.570795 -1.570796 0.000000
  2 -0.000005 0.000007 3.713255 -3.368582 -0.221254 1.331540
  3 18.045721 0.000000 0.000000 0.000000 -0.000000 -1.349168
  4 17.597597 0.000000 0.000000 -0.205032 0.225938 -0.216505
  5 0.000005 -0.000003 -3.713255 6.216136 2.542639 5.445702
  6 18.045725 0.000000 0.000000 0.000000 -0.000000 -2.074575
  7 17.597597 0.000000 0.000000 -0.092081 0.087818 0.559914
  8 1.293670 0.684478 -0.000001 -0.000004 -0.000001 0.358403
  9 5.309685 -0.003834 0.000000 -0.033165 0.010786 0.313795
 10 4.826790 -0.004591 0.000000 -0.148273 -0.000312 -0.002900
 11 5.792767 -0.005304 0.000000 0.000000 -0.000000 0.122088
 12 6.662317 -0.001453 0.000000 0.000000 -0.000001 0.078555
 13 2.046985 -0.000002 0.000000 0.153591 0.097577 -0.819743
 14 -3.447972 0.216433 4.341911 0.175721 -1.367758 2.889846
 15 4.827230 0.000000 0.000001 -0.648099 -0.870538 -1.323256
 16 11.139763 0.000000 0.000000 0.000000 -0.000000 -1.194783
 17 10.314597 0.000001 0.000000 -2.411013 -0.017415 0.377003
 18 -3.186314 0.196501 -4.140396 -0.271430 1.363418 2.796336
 19 4.972048 0.000000 0.000001 0.836269 0.370673 -1.607980
 20 11.585355 0.000000 0.000000 0.000000 -0.000000 -1.263554
 21 10.127057 0.000000 0.000001 2.054142 0.472045 0.165104
time 26
  0 0.235347 -0.235347 -14.666941 -0.045585 0.257873 -1.742273
  1 0.000000 0.000000 0.000000 -1.570795 -1.570796 0.000000
  2 -0.000005 0.000007 3.713255 -3.368582 -0.221254 1.331540
  3 18.045721 0.000000 0.000000 0.000000 -0.000000 -1.349168
  4 17.597597 0.000000 0.000000 -0.205032 0.225938 -0.216505
  5 0.000005 -0.000003 -3.713255 6.216136 2.542639 5.445702
  6 18.045725 0.000000 0.000000 0.000000 -0.000000 -2.074575
  7 17.597597 0.000000 0.000000 -0.092081 0.087818 0.559914
  8 1.293670 0.684478 -0.000001 -0.000004 -0.000001 0.358403
  9 5.309685 -0.003834 0.000000 -0.033165 0.010786 0.313795
 10 4.826790 -0.004591 0.000000 -0.148273 -0.000863 -0.006626
 11 5.792767 -0.005304 0.000000 0.000000 -0.000000 0.122088
 12 6.662317 -0.001453 0.000000 0.000000 -0.000001 0.078555
 13 2.046985 -0.000002 0.000000 0.153591 0.097577 -0.816012
 14 -3.447972 0.216433 4.341911 0.120211 -1.369412 2.944399
 15 4.827230 0.000000 0.000001 -0.646043 -0.864751 -1.335070
 16 11.139763 0.000000 0.000000 0.000000 -0.000000 -1.194783
 17 10.314597 0.000001 0.000000 -2.411013 -0.017415 0.377003
 18 -3.186314 0.196501 -4.140396 -0.203360 1.366725 2.862872
 19 4.972048 0.000000 0.000001 0.836656 0.364157 -1.621155
 20 11.585355 0.000000 0.000000 0.000000 -0.000000 -1.263554
 21 10.127057 0.000000 0.000001 2.054142 0.472045 0.165104
time 27
  0 0.235347 -0.235347 -14.666941 -0.045585 0.257873 -1.742273
  1 0.000000 0.000000 0.000000 -1.570795 -1.570796 0.000000
  2 -0.000005 0.000007 3.713255 -3.368582 -0.221254 1.331540
  3 18.045721 0.000000 0.000000 0.000000 -0.000000 -1.349168
  4 17.597597 0.000000 0.000000 -0.205032 0.225938 -0.216505
  5 0.000005 -0.000003 -3.713255 6.216136 2.542639 5.445702
  6 18.045725 0.000000 0.000000 0.000000 -0.000000 -2.074575
  7 17.597597 0.000000 0.000000 -0.092081 0.087818 0.559914
  8 1.293670 0.684478 -0.000001 -0.000004 -0.000001 0.358403
  9 5.309685 -0.003834 0.000000 -0.033165 0.010786 0.313795
 10 4.826790 -0.004591 0.000000 -0.148257 -0.001354 -0.010022
 11 5.792767 -0.005304 0.000000 0.000000 -0.000000 0.122088
 12 6.662317 -0.001453 0.000000 0.000000 -0.000001 0.078555
 13 2.046985 -0.000002 0.000000 0.153591 0.097577 -0.812551
 14 -3.447972 0.216433 4.341911 0.068439 -1.370412 2.995022
 15 4.827230 0.000000 0.000001 -0.644222 -0.859475 -1.345834
 16 11.139763 0.000000 0.000000 0.000000 -0.000000 -1.194783
 17 10.314597 0.000001 0.000000 -2.411013 -0.017415 0.377003
 18 -3.186314 0.196501 -4.140396 -0.139221 1.368901 2.925668
 19 4.972048 0.000000 0.000001 0.837275 0.358124 -1.633144
 20 11.585355 0.000000 0.000000 0.000000 -0.000000 -1.263554
 21 10.127057 0.000000 0.000001 2.054142 0.472045 0.165104
time 28
  0 0.235347 -0.235347 -14.666941 -0.045585 0.257873 -1.742273
  1 0.000000 0.000000 0.000000 -1.570795 -1.570796 0.000000
  2 -0.000005 0.000007 3.713255 -3.368582 -0.221254 1.331540
  3 18.045721 0.000000 0.000000 0.000000 -0.000000 -1.349168
  4 17.597597 0.000000 0.000000 -0.205032 0.225938 -0.216505
  5 0.000005 -0.000003 -3.713255 6.216136 2.542639 5.445702
  6 18.045725 0.000000 0.000000 0.000000 -0.000000 -2.074575
  7 17.597597 0.000000 0.000000 -0.092081 0.087818 0.559914
  8 1.293670 0.684478 -0.000001 -0.000004 -0.000001 0.358403
  9 5.309685 -0.003834 0.000000 -0.033165 0.010786 0.313795
 10 4.826790 -0.004591 0.000000 -0.148257 -0.001822 -0.013020
 11 5.792767 -0.005304 0.000000 0.000000 -0.000000 0.122088
 12 6.662317 -0.001453 0.000000 0.000000 -0.000001 0.078555
 13 2.046985 -0.000002 0.000000 0.153591 0.097577 -0.809495
 14 -3.447972 0.216433 4.341911 0.022996 -1.370797 3.039604
 15 4.827230 0.000000 0.000001 -0.642695 -0.854880 -1.355373
 16 11.139763 0.000000 0.000000 0.000000 -0.000000 -1.194783
 17 10.314597 0.000001 0.000000 -2.411013 -0.017415 0.377003
 18 -3.186314 0.196501 -4.140396 -0.081985 1.370173 2.981658
 19 4.972048 0.000000 0.000001 0.837739 0.352976 -1.643551
 20 11.585355 0.000000 0.000000 0.000000 -0.000000 -1.263554
 21 10.127057 0.000000 0.000001 2.054142 0.472045 0.165104
time 29
  0 0.235347 -0.235347 -14.666941 -0.045585 0.257873 -1.742273
  1 0.000000 0.000000 0.000000 -1.570795 -1.570796 0.000000
  2 -0.000005 0.000007 3.713255 -3.368582 -0.221254 1.331540
  3 18.045721 0.000000 0.000000 0.000000 -0.000000 -1.349168
  4 17.597597 0.000000 0.000000 -0.205032 0.225938 -0.216505
  5 0.000005 -0.000003 -3.713255 6.216136 2.542639 5.445702
  6 18.045725 0.000000 0.000000 0.000000 -0.000000 -2.074575
  7 17.597597 0.000000 0.000000 -0.092081 0.087818 0.559914
  8 1.293670 0.684478 -0.000001 -0.000004 -0.000001 0.358403
  9 5.309685 -0.003834 0.000000 -0.033165 0.010786 0.313795
 10 4.826790 -0.004591 0.000000 -0.148257 -0.002169 -0.015468
 11 5.792767 -0.005304 0.000000 0.000000 -0.000000 0.122088
 12 6.662317 -0.001453 0.000000 0.000000 -0.000001 0.078555
 13 2.046985 -0.000002 0.000000 0.153591 0.097577 -0.807022
 14 -3.447972 0.216433 4.341911 -0.014395 -1.370797 3.076229
 15 4.827230 0.000000 0.000001 -0.641403 -0.850965 -1.363074
 16 11.139763 0.000000 0.000000 0.000000 -0.000000 -1.194783
 17 10.314597 0.000001 0.000000 -2.411013 -0.017415 0.377003
 18 -3.186314 0.196501 -4.140396 -0.034815 1.370710 3.027965
 19 4.972048 0.000000 0.000001 0.838126 0.348632 -1.652181
 20 11.585355 0.000000 0.000000 0.000000 -0.000000 -1.263554
 21 10.127057 0.000000 0.000001 2.054142 0.472045 0.165104
time 30
  0 0.235347 -0.235347 -14.666941 -0.045585 0.257873 -1.742273
  1 0.000000 0.000000 0.000000 -1.570795 -1.570796 0.000000
  2 -0.000005 0.000007 3.713255 -3.368582 -0.221254 1.331540
  3 18.045721 0.000000 0.000000 0.000000 -0.000000 -1.349168
  4 17.597597 0.000000 0.000000 -0.205032 0.225938 -0.216505
  5 0.000005 -0.000003 -3.713255 6.216136 2.542639 5.445702
  6 18.045725 0.000000 0.000000 0.000000 -0.000000 -2.074575
  7 17.597597 0.000000 0.000000 -0.092081 0.087818 0.559914
  8 1.293670 0.684478 -0.000001 -0.000004 -0.000001 0.358403
  9 5.309685 -0.003834 0.000000 -0.033165 0.010786 0.313795
 10 4.826790 -0.004591 0.000000 -0.148257 -0.002457 -0.017276
 11 5.792767 -0.005304 0.000000 0.000000 -0.000000 0.122088
 12 6.662317 -0.001453 0.000000 0.000000 -0.000001 0.078555
 13 2.046985 -0.000002 0.000000 0.153591 0.097577 -0.805225
 14 -3.447972 0.216433 4.341911 -0.041815 -1.370643 3.103266
 15 4.827230 0.000000 0.000001 -0.640522 -0.848242 -1.368762
 16 11.139763 0.000000 0.000000 0.000000 -0.000000 -1.194783
 17 10.314597 0.000001 0.000000 -2.411013 -0.017415 0.377003
 18 -3.186314 0.196501 -4.140396 -0.000013 1.370795 3.062192
 19 4.972048 0.000000 0.000001 0.838358 0.345495 -1.658504
 20 11.585355 0.000000 0.000000 0.000000 -0.000000 -1.263554
 21 10.127057 0.000000 0.000001 2.054142 0.472045 0.165104
end
