version 1
nodes
  0 "Bip01"  -1
  1 "Bip01 Pelvis"   0
  2 "Bip01 L Leg"   1
  3 "Bip01 L Leg1"   2
  4 "Bip01 L Foot"   3
  5 "Bip01 R Leg"   1
  6 "Bip01 R Leg1"   5
  7 "Bip01 R Foot"   6
  8 "Bip01 Spine"   1
  9 "Bip01 Spine1"   8
 10 "Bip01 Spine2"   9
 11 "Bip01 Spine3"  10
 12 "Bip01 Neck"  11
 13 "Bip01 Head"  12
 14 "Bip01 L Arm"  12
 15 "Bip01 L Arm1"  14
 16 "Bip01 L Arm2"  15
 17 "Bip01 L Hand"  16
 18 "Bip01 R Arm"  12
 19 "Bip01 R Arm1"  18
 20 "Bip01 R Arm2"  19
 21 "Bip01 R Hand"  20
end
skeleton
time 0
  0 0.235347 -0.235347 -14.666941 -0.045585 0.257873 -1.742273
  1 0.000000 0.000000 0.000000 -1.570795 -1.570796 0.000000
  2 -0.000005 0.000007 3.713255 -3.368582 -0.221254 1.331540
  3 18.045721 0.000000 0.000000 0.000000 -0.000000 -1.349168
  4 17.597597 0.000000 0.000000 -0.205032 0.225938 -0.216505
  5 0.000005 -0.000003 -3.713255 6.216136 2.542639 5.445702
  6 18.045725 0.000000 0.000000 0.000000 -0.000000 -2.074575
  7 17.597597 0.000000 0.000000 -0.092081 0.087818 0.559914
  8 1.293670 0.684478 -0.000001 -0.000004 -0.000001 0.358403
  9 5.309685 -0.003834 0.000000 -0.031855 0.014202 0.418407
 10 4.826790 -0.004591 0.000000 -0.143265 0.038339 0.258901
 11 5.792767 -0.005304 0.000000 0.000000 -0.000000 0.122088
 12 6.662317 -0.001453 0.000000 0.000000 -0.000001 0.471000
 13 2.046985 -0.000002 0.000000 0.174184 0.048113 -1.201304
 14 -3.112024 1.517254 4.341911 -0.041815 -1.370643 2.710749
 15 4.827230 0.000000 0.000001 -0.635118 -0.462991 -1.341196
 16 11.139763 0.000000 0.000000 0.000000 -0.000000 -1.225128
 17 10.314597 0.000001 0.000000 -2.123664 0.144017 0.096696
 18 -2.869898 1.399663 -4.140396 -0.000013 1.370795 2.669783
 19 4.972048 0.000000 0.000001 0.847408 0.099667 -1.515627
 20 11.585355 0.000000 0.000000 0.000000 -0.000000 -1.291467
 21 10.127057 0.000000 0.000001 2.022546 0.324154 0.083986
time 1
  0 0.235347 -0.235347 -14.666941 -0.045585 0.257873 -1.742273
  1 0.000000 0.000000 0.000000 -1.570795 -1.570796 0.000000
  2 -0.000005 0.000007 3.713255 -3.368582 -0.221254 1.331540
  3 18.045721 0.000000 0.000000 0.000000 -0.000000 -1.349168
  4 17.597597 0.000000 0.000000 -0.205032 0.225938 -0.216505
  5 0.000005 -0.000003 -3.713255 6.216136 2.542639 5.445702
  6 18.045725 0.000000 0.000000 0.000000 -0.000000 -2.074575
  7 17.597597 0.000000 0.000000 -0.092081 0.087818 0.559914
  8 1.293670 0.684478 -0.000001 -0.000004 -0.000001 0.358403
  9 5.309685 -0.003834 0.000000 -0.031855 0.014226 0.419132
 10 4.826790 -0.004591 0.000000 -0.143265 0.038339 0.258901
 11 5.792767 -0.005304 0.000000 0.000000 -0.000000 0.124248
 12 6.662317 -0.001453 0.000000 0.000000 -0.000001 0.471000
 13 2.046985 -0.000002 0.000000 0.174141 0.048203 -1.204135
 14 -3.112024 1.517254 4.341911 -0.017942 -1.370797 2.687355
 15 4.827230 0.000000 0.000001 -0.635999 -0.466650 -1.336733
 16 11.139763 0.000000 0.000000 0.000000 -0.000000 -1.225128
 17 10.314597 0.000001 0.000000 -2.123664 0.144017 0.096696
 18 -2.869898 1.399663 -4.140396 -0.020050 1.370795 2.650033
 19 4.972048 0.000000 0.000001 0.847795 0.103287 -1.512202
 20 11.585355 0.000000 0.000000 0.000000 -0.000000 -1.291467
 21 10.127057 0.000000 0.000001 2.022546 0.324154 0.083986
time 2
  0 0.235347 -0.235347 -14.666941 -0.045585 0.257873 -1.742273
  1 0.000000 0.000000 0.000000 -1.570795 -1.570796 0.000000
  2 -0.000005 0.000007 3.713255 -3.368582 -0.221254 1.331540
  3 18.045721 0.000000 0.000000 0.000000 -0.000000 -1.349168
  4 17.597597 0.000000 0.000000 -0.205032 0.225938 -0.216505
  5 0.000005 -0.000003 -3.713255 6.216136 2.542639 5.445702
  6 18.045725 0.000000 0.000000 0.000000 -0.000000 -2.074575
  7 17.597597 0.000000 0.000000 -0.092081 0.087818 0.559914
  8 1.293670 0.684478 -0.000001 -0.000004 -0.000001 0.358403
  9 5.309685 -0.003834 0.000000 -0.031843 0.014250 0.420037
 10 4.826790 -0.004591 0.000000 -0.143265 0.038339 0.258901
 11 5.792767 -0.005304 0.000000 0.000000 -0.000000 0.126968
 12 6.662317 -0.001453 0.000000 0.000000 -0.000001 0.471000
 13 2.046985 -0.000002 0.000000 0.174098 0.048338 -1.207731
 14 -3.112024 1.517254 4.341911 0.014367 -1.370797 2.655716
 15 4.827230 0.000000 0.000001 -0.637115 -0.471416 -1.330607
 16 11.139763 0.000000 0.000000 0.000000 -0.000000 -1.225128
 17 10.314597 0.000001 0.000000 -2.123664 0.144017 0.096696
 18 -2.869898 1.399663 -4.140396 -0.047470 1.370597 2.623285
 19 4.972048 0.000000 0.000001 0.848182 0.107792 -1.507591
 20 11.585355 0.000000 0.000000 0.000000 -0.000000 -1.291467
 21 10.127057 0.000000 0.000001 2.022546 0.324154 0.083986
time 3
  0 0.235347 -0.235347 -14.666941 -0.045585 0.257873 -1.742273
  1 0.000000 0.000000 0.000000 -1.570795 -1.570796 0.000000
  2 -0.000005 0.000007 3.713255 -3.368582 -0.221254 1.331540
  3 18.045721 0.000000 0.000000 0.000000 -0.000000 -1.349168
  4 17.597597 0.000000 0.000000 -0.205032 0.225938 -0.216505
  5 0.000005 -0.000003 -3.713255 6.216136 2.542639 5.445702
  6 18.045725 0.000000 0.000000 0.000000 -0.000000 -2.074575
  7 17.597597 0.000000 0.000000 -0.092081 0.087818 0.559914
  8 1.293670 0.684478 -0.000001 -0.000004 -0.000001 0.358403
  9 5.309685 -0.003834 0.000000 -0.031806 0.014286 0.421051
 10 4.826790 -0.004591 0.000000 -0.143265 0.038339 0.258901
 11 5.792767 -0.005304 0.000000 0.000000 -0.000000 0.130061
 12 6.662317 -0.001453 0.000000 0.000000 -0.000001 0.471000
 13 2.046985 -0.000002 0.000000 0.174055 0.048473 -1.211866
 14 -3.112024 1.517254 4.341911 0.053867 -1.370566 2.616982
 15 4.827230 0.000000 0.000001 -0.638466 -0.476862 -1.323081
 16 11.139763 0.000000 0.000000 0.000000 -0.000000 -1.225128
 17 10.314597 0.000001 0.000000 -2.123664 0.144017 0.096696
 18 -2.869898 1.399663 -4.140396 -0.080930 1.370173 2.590592
 19 4.972048 0.000000 0.000001 0.848646 0.113262 -1.501925
 20 11.585355 0.000000 0.000000 0.000000 -0.000000 -1.291467
 21 10.127057 0.000000 0.000001 2.022546 0.324154 0.083986
time 4
  0 0.235347 -0.235347 -14.666941 -0.045585 0.257873 -1.742273
  1 0.000000 0.000000 0.000000 -1.570795 -1.570796 0.000000
  2 -0.000005 0.000007 3.713255 -3.368582 -0.221254 1.331540
  3 18.045721 0.000000 0.000000 0.000000 -0.000000 -1.349168
  4 17.597597 0.000000 0.000000 -0.205032 0.225938 -0.216505
  5 0.000005 -0.000003 -3.713255 6.216136 2.542639 5.445702
  6 18.045725 0.000000 0.000000 0.000000 -0.000000 -2.074575
  7 17.597597 0.000000 0.000000 -0.092081 0.087818 0.559914
  8 1.293670 0.684478 -0.000001 -0.000004 -0.000001 0.358403
  9 5.309685 -0.003834 0.000000 -0.031806 0.014322 0.422210
 10 4.826790 -0.004591 0.000000 -0.143265 0.038339 0.258901
 11 5.792767 -0.005304 0.000000 0.000000 -0.000000 0.133529
 12 6.662317 -0.001453 0.000000 0.000000 -0.000001 0.471000
 13 2.046985 -0.000002 0.000000 0.174055 0.048631 -1.216451
 14 -3.112024 1.517254 4.341911 0.098639 -1.369912 2.572975
 15 4.827230 0.000000 0.000001 -0.639993 -0.482989 -1.314330
 16 11.139763 0.000000 0.000000 0.000000 -0.000000 -1.225128
 17 10.314597 0.000001 0.000000 -2.123664 0.144017 0.096696
 18 -2.869898 1.399663 -4.140396 -0.118800 1.369438 2.553393
 19 4.972048 0.000000 0.000001 0.849110 0.119134 -1.495470
 20 11.585355 0.000000 0.000000 0.000000 -0.000000 -1.291467
 21 10.127057 0.000000 0.000001 2.022546 0.324154 0.083986
time 5
  0 0.235347 -0.235347 -14.666941 -0.045585 0.257873 -1.742273
  1 0.000000 0.000000 0.000000 -1.570795 -1.570796 0.000000
  2 -0.000005 0.000007 3.713255 -3.368582 -0.221254 1.331540
  3 18.045721 0.000000 0.000000 0.000000 -0.000000 -1.349168
  4 17.597597 0.000000 0.000000 -0.205032 0.225938 -0.216505
  5 0.000005 -0.000003 -3.713255 6.216136 2.542639 5.445702
  6 18.045725 0.000000 0.000000 0.000000 -0.000000 -2.074575
  7 17.597597 0.000000 0.000000 -0.092081 0.087818 0.559914
  8 1.293670 0.684478 -0.000001 -0.000004 -0.000001 0.358403
  9 5.309685 -0.003834 0.000000 -0.031794 0.014358 0.423441
 10 4.826790 -0.004591 0.000000 -0.143265 0.038339 0.258901
 11 5.792767 -0.005304 0.000000 0.000000 -0.000000 0.137224
 12 6.662317 -0.001453 0.000000 0.000000 -0.000001 0.471000
 13 2.046985 -0.000002 0.000000 0.173969 0.048811 -1.221350
 14 -3.112024 1.517254 4.341911 0.147151 -1.368681 2.525613
 15 4.827230 0.000000 0.000001 -0.641638 -0.489542 -1.304879
 16 11.139763 0.000000 0.000000 0.000000 -0.000000 -1.225128
 17 10.314597 0.000001 0.000000 -2.123664 0.144017 0.096696
 18 -2.869898 1.399663 -4.140396 -0.159642 1.368336 2.513414
 19 4.972048 0.000000 0.000001 0.849574 0.125569 -1.488356
 20 11.585355 0.000000 0.000000 0.000000 -0.000000 -1.291467
 21 10.127057 0.000000 0.000001 2.022546 0.324154 0.083986
time 6
  0 0.235347 -0.235347 -14.666941 -0.045585 0.257873 -1.742273
  1 0.000000 0.000000 0.000000 -1.570795 -1.570796 0.000000
  2 -0.000005 0.000007 3.713255 -3.368582 -0.221254 1.331540
  3 18.045721 0.000000 0.000000 0.000000 -0.000000 -1.349168
  4 17.597597 0.000000 0.000000 -0.205032 0.225938 -0.216505
  5 0.000005 -0.000003 -3.713255 6.216136 2.542639 5.445702
  6 18.045725 0.000000 0.000000 0.000000 -0.000000 -2.074575
  7 17.597597 0.000000 0.000000 -0.092081 0.087818 0.559914
  8 1.293670 0.684478 -0.000001 -0.000004 -0.000001 0.358403
  9 5.309685 -0.003834 0.000000 -0.031757 0.014393 0.424745
 10 4.826790 -0.004591 0.000000 -0.143265 0.038339 0.258901
 11 5.792767 -0.005304 0.000000 0.000000 -0.000000 0.141169
 12 6.662317 -0.001453 0.000000 0.000000 -0.000001 0.471000
 13 2.046985 -0.000002 0.000000 0.173926 0.048991 -1.226609
 14 -3.112024 1.517254 4.341911 0.197485 -1.366951 2.476236
 15 4.827230 0.000000 0.000001 -0.643400 -0.496691 -1.294990
 16 11.139763 0.000000 0.000000 0.000000 -0.000000 -1.225128
 17 10.314597 0.000001 0.000000 -2.123664 0.144017 0.096696
 18 -2.869898 1.399663 -4.140396 -0.202018 1.366753 2.471805
 19 4.972048 0.000000 0.000001 0.850193 0.132487 -1.480780
 20 11.585355 0.000000 0.000000 0.000000 -0.000000 -1.291467
 21 10.127057 0.000000 0.000001 2.022546 0.324154 0.083986
time 7
  0 0.235347 -0.235347 -14.666941 -0.045585 0.257873 -1.742273
  1 0.000000 0.000000 0.000000 -1.570795 -1.570796 0.000000
  2 -0.000005 0.000007 3.713255 -3.368582 -0.221254 1.331540
  3 18.045721 0.000000 0.000000 0.000000 -0.000000 -1.349168
  4 17.597597 0.000000 0.000000 -0.205032 0.225938 -0.216505
  5 0.000005 -0.000003 -3.713255 6.216136 2.542639 5.445702
  6 18.045725 0.000000 0.000000 0.000000 -0.000000 -2.074575
  7 17.597597 0.000000 0.000000 -0.092081 0.087818 0.559914
  8 1.293670 0.684478 -0.000001 -0.000004 -0.000001 0.358403
  9 5.309685 -0.003834 0.000000 -0.031745 0.014429 0.426121
 10 4.826790 -0.004591 0.000000 -0.143265 0.038339 0.258901
 11 5.792767 -0.005304 0.000000 0.000000 -0.000000 0.145322
 12 6.662317 -0.001453 0.000000 0.000000 -0.000001 0.471000
 13 2.046985 -0.000002 0.000000 0.173840 0.049171 -1.232138
 14 -3.112024 1.517254 4.341911 0.247818 -1.364681 2.427148
 15 4.827230 0.000000 0.000001 -0.645338 -0.503924 -1.284839
 16 11.139763 0.000000 0.000000 0.000000 -0.000000 -1.225128
 17 10.314597 0.000001 0.000000 -2.123664 0.144017 0.096696
 18 -2.869898 1.399663 -4.140396 -0.244490 1.364831 2.430196
 19 4.972048 0.000000 0.000001 0.850812 0.139566 -1.473139
 20 11.585355 0.000000 0.000000 0.000000 -0.000000 -1.291467
 21 10.127057 0.000000 0.000001 2.022546 0.324154 0.083986
time 8
  0 0.235347 -0.235347 -14.666941 -0.045585 0.257873 -1.742273
  1 0.000000 0.000000 0.000000 -1.570795 -1.570796 0.000000
  2 -0.000005 0.000007 3.713255 -3.368582 -0.221254 1.331540
  3 18.045721 0.000000 0.000000 0.000000 -0.000000 -1.349168
  4 17.597597 0.000000 0.000000 -0.205032 0.225938 -0.216505
  5 0.000005 -0.000003 -3.713255 6.216136 2.542639 5.445702
  6 18.045725 0.000000 0.000000 0.000000 -0.000000 -2.074575
  7 17.597597 0.000000 0.000000 -0.092081 0.087818 0.559914
  8 1.293670 0.684478 -0.000001 -0.000004 -0.000001 0.358403
  9 5.309685 -0.003834 0.000000 -0.031733 0.014477 0.427552
 10 4.826790 -0.004591 0.000000 -0.143265 0.038339 0.258901
 11 5.792767 -0.005304 0.000000 0.000000 -0.000000 0.149641
 12 6.662317 -0.001453 0.000000 0.000000 -0.000001 0.471000
 13 2.046985 -0.000002 0.000000 0.173710 0.049374 -1.237846
 14 -3.112024 1.517254 4.341911 0.296426 -1.361950 2.379593
 15 4.827230 0.000000 0.000001 -0.647218 -0.511413 -1.274775
 16 11.139763 0.000000 0.000000 0.000000 -0.000000 -1.225128
 17 10.314597 0.000001 0.000000 -2.123664 0.144017 0.096696
 18 -2.869898 1.399663 -4.140396 -0.285907 1.362570 2.389834
 19 4.972048 0.000000 0.000001 0.851508 0.146886 -1.465696
 20 11.585355 0.000000 0.000000 0.000000 -0.000000 -1.291467
 21 10.127057 0.000000 0.000001 2.022546 0.324154 0.083986
time 9
  0 0.235347 -0.235347 -14.666941 -0.045585 0.257873 -1.742273
  1 0.000000 0.000000 0.000000 -1.570795 -1.570796 0.000000
  2 -0.000005 0.000007 3.713255 -3.368582 -0.221254 1.331540
  3 18.045721 0.000000 0.000000 0.000000 -0.000000 -1.349168
  4 17.597597 0.000000 0.000000 -0.205032 0.225938 -0.216505
  5 0.000005 -0.000003 -3.713255 6.216136 2.542639 5.445702
  6 18.045725 0.000000 0.000000 0.000000 -0.000000 -2.074575
  7 17.597597 0.000000 0.000000 -0.092081 0.087818 0.559914
  8 1.293670 0.684478 -0.000001 -0.000004 -0.000001 0.358403
  9 5.309685 -0.003834 0.000000 -0.031696 0.014525 0.429019
 10 4.826790 -0.004591 0.000000 -0.143265 0.038339 0.258901
 11 5.792767 -0.005304 0.000000 0.000000 -0.000000 0.154105
 12 6.662317 -0.001453 0.000000 0.000000 -0.000001 0.471000
 13 2.046985 -0.000002 0.000000 0.173624 0.049576 -1.243779
 14 -3.112024 1.517254 4.341911 0.341774 -1.358911 2.335107
 15 4.827230 0.000000 0.000001 -0.649215 -0.518987 -1.265061
 16 11.139763 0.000000 0.000000 0.000000 -0.000000 -1.225128
 17 10.314597 0.000001 0.000000 -2.123664 0.144017 0.096696
 18 -2.869898 1.399663 -4.140396 -0.324640 1.360111 2.351964
 19 4.972048 0.000000 0.000001 0.852127 0.154367 -1.458581
 20 11.585355 0.000000 0.000000 0.000000 -0.000000 -1.291467
 21 10.127057 0.000000 0.000001 2.022546 0.324154 0.083986
time 10
  0 0.235347 -0.235347 -14.666941 -0.045585 0.257873 -1.742273
  1 0.000000 0.000000 0.000000 -1.570795 -1.570796 0.000000
  2 -0.000005 0.000007 3.713255 -3.368582 -0.221254 1.331540
  3 18.045721 0.000000 0.000000 0.000000 -0.000000 -1.349168
  4 17.597597 0.000000 0.000000 -0.205032 0.225938 -0.216505
  5 0.000005 -0.000003 -3.713255 6.216136 2.542639 5.445702
  6 18.045725 0.000000 0.000000 0.000000 -0.000000 -2.074575
  7 17.597597 0.000000 0.000000 -0.092081 0.087818 0.559914
  8 1.293670 0.684478 -0.000001 -0.000004 -0.000001 0.358403
  9 5.309685 -0.003834 0.000000 -0.031684 0.014573 0.430540
 10 4.826790 -0.004591 0.000000 -0.143265 0.038339 0.258901
 11 5.792767 -0.005304 0.000000 0.000000 -0.000000 0.158672
 12 6.662317 -0.001453 0.000000 0.000000 -0.000001 0.471000
 13 2.046985 -0.000002 0.000000 0.173581 0.049802 -1.249937
 14 -3.112024 1.517254 4.341911 0.382807 -1.355642 2.295031
 15 4.827230 0.000000 0.000001 -0.651270 -0.526646 -1.256135
 16 11.139763 0.000000 0.000000 0.000000 -0.000000 -1.225128
 17 10.314597 0.000001 0.000000 -2.123664 0.144017 0.096696
 18 -2.869898 1.399663 -4.140396 -0.359921 1.357539 2.317449
 19 4.972048 0.000000 0.000001 0.852823 0.161848 -1.452126
 20 11.585355 0.000000 0.000000 0.000000 -0.000000 -1.291467
 21 10.127057 0.000000 0.000001 2.022546 0.324154 0.083986
time 11
  0 0.235347 -0.235347 -14.666941 -0.045585 0.257873 -1.742273
  1 0.000000 0.000000 0.000000 -1.570795 -1.570796 0.000000
  2 -0.000005 0.000007 3.713255 -3.368582 -0.221254 1.331540
  3 18.045721 0.000000 0.000000 0.000000 -0.000000 -1.349168
  4 17.597597 0.000000 0.000000 -0.205032 0.225938 -0.216505
  5 0.000005 -0.000003 -3.713255 6.216136 2.542639 5.445702
  6 18.045725 0.000000 0.000000 0.000000 -0.000000 -2.074575
  7 17.597597 0.000000 0.000000 -0.092081 0.087818 0.559914
  8 1.293670 0.684478 -0.000001 -0.000004 -0.000001 0.358403
  9 5.309685 -0.003834 0.000000 -0.031647 0.014621 0.432097
 10 4.826790 -0.004591 0.000000 -0.143265 0.038339 0.258901
 11 5.792767 -0.005304 0.000000 0.000000 -0.000000 0.163386
 12 6.662317 -0.001453 0.000000 0.000000 -0.000001 0.471000
 13 2.046985 -0.000002 0.000000 0.173538 0.050004 -1.256140
 14 -3.112024 1.517254 4.341911 0.418376 -1.352488 2.260324
 15 4.827230 0.000000 0.000001 -0.653267 -0.534220 -1.248084
 16 11.139763 0.000000 0.000000 0.000000 -0.000000 -1.225128
 17 10.314597 0.000001 0.000000 -2.123664 0.144017 0.096696
 18 -2.869898 1.399663 -4.140396 -0.390409 1.354995 2.287441
 19 4.972048 0.000000 0.000001 0.853442 0.169249 -1.446527
 20 11.585355 0.000000 0.000000 0.000000 -0.000000 -1.291467
 21 10.127057 0.000000 0.000001 2.022546 0.324154 0.083986
time 12
  0 0.235347 -0.235347 -14.666941 -0.045585 0.257873 -1.742273
  1 0.000000 0.000000 0.000000 -1.570795 -1.570796 0.000000
  2 -0.000005 0.000007 3.713255 -3.368582 -0.221254 1.331540
  3 18.045721 0.000000 0.000000 0.000000 -0.000000 -1.349168
  4 17.597597 0.000000 0.000000 -0.205032 0.225938 -0.216505
  5 0.000005 -0.000003 -3.713255 6.216136 2.542639 5.445702
  6 18.045725 0.000000 0.000000 0.000000 -0.000000 -2.074575
  7 17.597597 0.000000 0.000000 -0.092081 0.087818 0.559914
  8 1.293670 0.684478 -0.000001 -0.000004 -0.000001 0.358403
  9 5.309685 -0.003834 0.000000 -0.031635 0.014669 0.433691
 10 4.826790 -0.004591 0.000000 -0.143265 0.038339 0.258901
 11 5.792767 -0.005304 0.000000 0.000000 -0.000000 0.168140
 12 6.662317 -0.001453 0.000000 0.000000 -0.000001 0.471000
 13 2.046985 -0.000002 0.000000 0.173452 0.050229 -1.262432
 14 -3.112024 1.517254 4.341911 0.447522 -1.349641 2.231848
 15 4.827230 0.000000 0.000001 -0.655206 -0.541709 -1.241433
 16 11.139763 0.000000 0.000000 0.000000 -0.000000 -1.225128
 17 10.314597 0.000001 0.000000 -2.123664 0.144017 0.096696
 18 -2.869898 1.399663 -4.140396 -0.415815 1.352734 2.262898
 19 4.972048 0.000000 0.000001 0.854061 0.176569 -1.441982
 20 11.585355 0.000000 0.000000 0.000000 -0.000000 -1.291467
 21 10.127057 0.000000 0.000001 2.022546 0.324154 0.083986
time 13
  0 0.235347 -0.235347 -14.666941 -0.045585 0.257873 -1.742273
  1 0.000000 0.000000 0.000000 -1.570795 -1.570796 0.000000
  2 -0.000005 0.000007 3.713255 -3.368582 -0.221254 1.331540
  3 18.045721 0.000000 0.000000 0.000000 -0.000000 -1.349168
  4 17.597597 0.000000 0.000000 -0.205032 0.225938 -0.216505
  5 0.000005 -0.000003 -3.713255 6.216136 2.542639 5.445702
  6 18.045725 0.000000 0.000000 0.000000 -0.000000 -2.074575
  7 17.597597 0.000000 0.000000 -0.092081 0.087818 0.559914
  8 1.293670 0.684478 -0.000001 -0.000004 -0.000001 0.358403
  9 5.309685 -0.003834 0.000000 -0.031610 0.014717 0.435284
 10 4.826790 -0.004591 0.000000 -0.143265 0.038339 0.258901
 11 5.792767 -0.005304 0.000000 0.000000 -0.000000 0.172978
 12 6.662317 -0.001453 0.000000 0.000000 -0.000001 0.471000
 13 2.046985 -0.000002 0.000000 0.173366 0.050455 -1.268905
 14 -3.112024 1.517254 4.341911 0.469381 -1.347334 2.210660
 15 4.827230 0.000000 0.000001 -0.657144 -0.548772 -1.236445
 16 11.139763 0.000000 0.000000 0.000000 -0.000000 -1.225128
 17 10.314597 0.000001 0.000000 -2.123664 0.144017 0.096696
 18 -2.869898 1.399663 -4.140396 -0.434798 1.350897 2.244202
 19 4.972048 0.000000 0.000001 0.854525 0.183728 -1.438820
 20 11.585355 0.000000 0.000000 0.000000 -0.000000 -1.291467
 21 10.127057 0.000000 0.000001 2.022546 0.324154 0.083986
time 14
  0 0.235347 -0.235347 -14.666941 -0.045585 0.257873 -1.742273
  1 0.000000 0.000000 0.000000 -1.570795 -1.570796 0.000000
  2 -0.000005 0.000007 3.713255 -3.368582 -0.221254 1.331540
  3 18.045721 0.000000 0.000000 0.000000 -0.000000 -1.349168
  4 17.597597 0.000000 0.000000 -0.205032 0.225938 -0.216505
  5 0.000005 -0.000003 -3.713255 6.216136 2.542639 5.445702
  6 18.045725 0.000000 0.000000 0.000000 -0.000000 -2.074575
  7 17.597597 0.000000 0.000000 -0.092081 0.087818 0.559914
  8 1.293670 0.684478 -0.000001 -0.000004 -0.000001 0.358403
  9 5.309685 -0.003834 0.000000 -0.031598 0.014789 0.436860
 10 4.826790 -0.004591 0.000000 -0.143265 0.038339 0.258901
 11 5.792767 -0.005304 0.000000 0.000000 -0.000000 0.177753
 12 6.662317 -0.001453 0.000000 0.000000 -0.000001 0.471000
 13 2.046985 -0.000002 0.000000 0.173236 0.050680 -1.275288
 14 -3.112024 1.517254 4.341911 0.483091 -1.345795 2.197141
 15 4.827230 0.000000 0.000001 -0.658789 -0.555580 -1.233207
 16 11.139763 0.000000 0.000000 0.000000 -0.000000 -1.225128
 17 10.314597 0.000001 0.000000 -2.123664 0.144017 0.096696
 18 -2.869898 1.399663 -4.140396 -0.446878 1.349738 2.232602
 19 4.972048 0.000000 0.000001 0.855144 0.190485 -1.437239
 20 11.585355 0.000000 0.000000 0.000000 -0.000000 -1.291467
 21 10.127057 0.000000 0.000001 2.022546 0.324154 0.083986
time 15
  0 0.235347 -0.235347 -14.666941 -0.045585 0.257873 -1.742273
  1 0.000000 0.000000 0.000000 -1.570795 -1.570796 0.000000
  2 -0.000005 0.000007 3.713255 -3.368582 -0.221254 1.331540
  3 18.045721 0.000000 0.000000 0.000000 -0.000000 -1.349168
  4 17.597597 0.000000 0.000000 -0.205032 0.225938 -0.216505
  5 0.000005 -0.000003 -3.713255 6.216136 2.542639 5.445702
  6 18.045725 0.000000 0.000000 0.000000 -0.000000 -2.074575
  7 17.597597 0.000000 0.000000 -0.092081 0.087818 0.559914
  8 1.293670 0.684478 -0.000001 -0.000004 -0.000001 0.358403
  9 5.309685 -0.003834 0.000000 -0.031561 0.014837 0.438435
 10 4.826790 -0.004591 0.000000 -0.143265 0.038339 0.258901
 11 5.792767 -0.005304 0.000000 0.000000 -0.000000 0.182467
 12 6.662317 -0.001453 0.000000 0.000000 -0.000001 0.471000
 13 2.046985 -0.000002 0.000000 0.173150 0.050882 -1.281490
 14 -3.112024 1.517254 4.341911 0.487788 -1.345218 2.192443
 15 4.827230 0.000000 0.000001 -0.660316 -0.561963 -1.232507
 16 11.139763 0.000000 0.000000 0.000000 -0.000000 -1.225128
 17 10.314597 0.000001 0.000000 -2.123664 0.144017 0.096696
 18 -2.869898 1.399663 -4.140396 -0.451000 1.349286 2.228383
 19 4.972048 0.000000 0.000001 0.855608 0.196840 -1.437436
 20 11.585355 0.000000 0.000000 0.000000 -0.000000 -1.291467
 21 10.127057 0.000000 0.000001 2.022546 0.324154 0.083986
time 16
  0 0.235347 -0.235347 -14.666941 -0.045585 0.257873 -1.742273
  1 0.000000 0.000000 0.000000 -1.570795 -1.570796 0.000000
  2 -0.000005 0.000007 3.713255 -3.368582 -0.221254 1.331540
  3 18.045721 0.000000 0.000000 0.000000 -0.000000 -1.349168
  4 17.597597 0.000000 0.000000 -0.205032 0.225938 -0.216505
  5 0.000005 -0.000003 -3.713255 6.216136 2.542639 5.445702
  6 18.045725 0.000000 0.000000 0.000000 -0.000000 -2.074575
  7 17.597597 0.000000 0.000000 -0.092081 0.087818 0.559914
  8 1.293670 0.684478 -0.000001 -0.000004 -0.000001 0.358403
  9 5.309685 -0.003834 0.000000 -0.031549 0.014885 0.439938
 10 4.826790 -0.004591 0.000000 -0.143265 0.038339 0.258901
 11 5.792767 -0.005304 0.000000 0.000000 -0.000000 0.187014
 12 6.662317 -0.001453 0.000000 0.000000 -0.000001 0.471000
 13 2.046985 -0.000002 0.000000 0.173064 0.051085 -1.287513
 14 -3.112024 1.517254 4.341911 0.483091 -1.345795 2.197141
 15 4.827230 0.000000 0.000001 -0.661667 -0.567580 -1.233994
 16 11.139763 0.000000 0.000000 0.000000 -0.000000 -1.225128
 17 10.314597 0.000001 0.000000 -2.123664 0.144017 0.096696
 18 -2.869898 1.399663 -4.140396 -0.446878 1.349738 2.232602
 19 4.972048 0.000000 0.000001 0.855917 0.202471 -1.439742
 20 11.585355 0.000000 0.000000 0.000000 -0.000000 -1.291467
 21 10.127057 0.000000 0.000001 2.022546 0.324154 0.083986
time 17
  0 0.235347 -0.235347 -14.666941 -0.045585 0.257873 -1.742273
  1 0.000000 0.000000 0.000000 -1.570795 -1.570796 0.000000
  2 -0.000005 0.000007 3.713255 -3.368582 -0.221254 1.331540
  3 18.045721 0.000000 0.000000 0.000000 -0.000000 -1.349168
  4 17.597597 0.000000 0.000000 -0.205032 0.225938 -0.216505
  5 0.000005 -0.000003 -3.713255 6.216136 2.542639 5.445702
  6 18.045725 0.000000 0.000000 0.000000 -0.000000 -2.074575
  7 17.597597 0.000000 0.000000 -0.092081 0.087818 0.559914
  8 1.293670 0.684478 -0.000001 -0.000004 -0.000001 0.358403
  9 5.309685 -0.003834 0.000000 -0.031512 0.014921 0.441333
 10 4.826790 -0.004591 0.000000 -0.143265 0.038339 0.258901
 11 5.792767 -0.005304 0.000000 0.000000 -0.000000 0.191270
 12 6.662317 -0.001453 0.000000 0.000000 -0.000001 0.471000
 13 2.046985 -0.000002 0.000000 0.173021 0.051288 -1.293177
 14 -3.112024 1.517254 4.341911 0.469381 -1.347334 2.210660
 15 4.827230 0.000000 0.000001 -0.662606 -0.572260 -1.237757
 16 11.139763 0.000000 0.000000 0.000000 -0.000000 -1.225128
 17 10.314597 0.000001 0.000000 -2.123664 0.144017 0.096696
 18 -2.869898 1.399663 -4.140396 -0.434798 1.350897 2.244202
 19 4.972048 0.000000 0.000001 0.856304 0.207458 -1.443628
 20 11.585355 0.000000 0.000000 0.000000 -0.000000 -1.291467
 21 10.127057 0.000000 0.000001 2.022546 0.324154 0.083986
time 18
  0 0.235347 -0.235347 -14.666941 -0.045585 0.257873 -1.742273
  1 0.000000 0.000000 0.000000 -1.570795 -1.570796 0.000000
  2 -0.000005 0.000007 3.713255 -3.368582 -0.221254 1.331540
  3 18.045721 0.000000 0.000000 0.000000 -0.000000 -1.349168
  4 17.597597 0.000000 0.000000 -0.205032 0.225938 -0.216505
  5 0.000005 -0.000003 -3.713255 6.216136 2.542639 5.445702
  6 18.045725 0.000000 0.000000 0.000000 -0.000000 -2.074575
  7 17.597597 0.000000 0.000000 -0.092081 0.087818 0.559914
  8 1.293670 0.684478 -0.000001 -0.000004 -0.000001 0.358403
  9 5.309685 -0.003834 0.000000 -0.031500 0.014969 0.442582
 10 4.826790 -0.004591 0.000000 -0.143265 0.038339 0.258901
 11 5.792767 -0.005304 0.000000 0.000000 -0.000000 0.195007
 12 6.662317 -0.001453 0.000000 0.000000 -0.000001 0.471000
 13 2.046985 -0.000002 0.000000 0.172978 0.051468 -1.298211
 14 -3.112024 1.517254 4.341911 0.447522 -1.349641 2.231848
 15 4.827230 0.000000 0.000001 -0.663429 -0.576175 -1.243621
 16 11.139763 0.000000 0.000000 0.000000 -0.000000 -1.225128
 17 10.314597 0.000001 0.000000 -2.123664 0.144017 0.096696
 18 -2.869898 1.399663 -4.140396 -0.415815 1.352734 2.262898
 19 4.972048 0.000000 0.000001 0.856536 0.211400 -1.449162
 20 11.585355 0.000000 0.000000 0.000000 -0.000000 -1.291467
 21 10.127057 0.000000 0.000001 2.022546 0.324154 0.083986
time 19
  0 0.235347 -0.235347 -14.666941 -0.045585 0.257873 -1.742273
  1 0.000000 0.000000 0.000000 -1.570795 -1.570796 0.000000
  2 -0.000005 0.000007 3.713255 -3.368582 -0.221254 1.331540
  3 18.045721 0.000000 0.000000 0.000000 -0.000000 -1.349168
  4 17.597597 0.000000 0.000000 -0.205032 0.225938 -0.216505
  5 0.000005 -0.000003 -3.713255 6.216136 2.542639 5.445702
  6 18.045725 0.000000 0.000000 0.000000 -0.000000 -2.074575
  7 17.597597 0.000000 0.000000 -0.092081 0.087818 0.559914
  8 1.293670 0.684478 -0.000001 -0.000004 -0.000001 0.358403
  9 5.309685 -0.003834 0.000000 -0.031488 0.014993 0.443614
 10 4.826790 -0.004591 0.000000 -0.143265 0.038339 0.258901
 11 5.792767 -0.005304 0.000000 0.000000 -0.000000 0.198101
 12 6.662317 -0.001453 0.000000 0.000000 -0.000001 0.471000
 13 2.046985 -0.000002 0.000000 0.172935 0.051603 -1.302301
 14 -3.112024 1.517254 4.341911 0.418376 -1.352488 2.260324
 15 4.827230 0.000000 0.000001 -0.663840 -0.578813 -1.250972
 16 11.139763 0.000000 0.000000 0.000000 -0.000000 -1.225128
 17 10.314597 0.000001 0.000000 -2.123664 0.144017 0.096696
 18 -2.869898 1.399663 -4.140396 -0.390409 1.354995 2.287441
 19 4.972048 0.000000 0.000001 0.856691 0.214135 -1.455815
 20 11.585355 0.000000 0.000000 0.000000 -0.000000 -1.291467
 21 10.127057 0.000000 0.000001 2.022546 0.324154 0.083986
time 20
  0 0.235347 -0.235347 -14.666941 -0.045585 0.257873 -1.742273
  1 0.000000 0.000000 0.000000 -1.570795 -1.570796 0.000000
  2 -0.000005 0.000007 3.713255 -3.368582 -0.221254 1.331540
  3 18.045721 0.000000 0.000000 0.000000 -0.000000 -1.349168
  4 17.597597 0.000000 0.000000 -0.205032 0.225938 -0.216505
  5 0.000005 -0.000003 -3.713255 6.216136 2.542639 5.445702
  6 18.045725 0.000000 0.000000 0.000000 -0.000000 -2.074575
  7 17.597597 0.000000 0.000000 -0.092081 0.087818 0.559914
  8 1.293670 0.684478 -0.000001 -0.000004 -0.000001 0.358403
  9 5.309685 -0.003834 0.000000 -0.031488 0.015017 0.444302
 10 4.826790 -0.004591 0.000000 -0.143265 0.038339 0.258901
 11 5.792767 -0.005304 0.000000 0.000000 -0.000000 0.200219
 12 6.662317 -0.001453 0.000000 0.000000 -0.000001 0.471000
 13 2.046985 -0.000002 0.000000 0.172892 0.051693 -1.305088
 14 -3.112024 1.517254 4.341911 0.382807 -1.355642 2.295031
 15 4.827230 0.000000 0.000001 -0.663840 -0.579834 -1.259548
 16 11.139763 0.000000 0.000000 0.000000 -0.000000 -1.225128
 17 10.314597 0.000001 0.000000 -2.123664 0.144017 0.096696
 18 -2.869898 1.399663 -4.140396 -0.359921 1.357539 2.317449
 19 4.972048 0.000000 0.000001 0.856691 0.215583 -1.463192
 20 11.585355 0.000000 0.000000 0.000000 -0.000000 -1.291467
 21 10.127057 0.000000 0.000001 2.022546 0.324154 0.083986
time 21
  0 0.235347 -0.235347 -14.666941 -0.045585 0.257873 -1.742273
  1 0.000000 0.000000 0.000000 -1.570795 -1.570796 0.000000
  2 -0.000005 0.000007 3.713255 -3.368582 -0.221254 1.331540
  3 18.045721 0.000000 0.000000 0.000000 -0.000000 -1.349168
  4 17.597597 0.000000 0.000000 -0.205032 0.225938 -0.216505
  5 0.000005 -0.000003 -3.713255 6.216136 2.542639 5.445702
  6 18.045725 0.000000 0.000000 0.000000 -0.000000 -2.074575
  7 17.597597 0.000000 0.000000 -0.092081 0.087818 0.559914
  8 1.293670 0.684478 -0.000001 -0.000004 -0.000001 0.358403
  9 5.309685 -0.003834 0.000000 -0.031463 0.015029 0.444574
 10 4.826790 -0.004591 0.000000 -0.143265 0.038339 0.258901
 11 5.792767 -0.005304 0.000000 0.000000 -0.000000 0.201008
 12 6.662317 -0.001453 0.000000 0.000000 -0.000001 0.471000
 13 2.046985 -0.000002 0.000000 0.172849 0.051738 -1.306167
 14 -3.112024 1.517254 4.341911 0.341774 -1.358911 2.335107
 15 4.827230 0.000000 0.000001 -0.663429 -0.579153 -1.268999
 16 11.139763 0.000000 0.000000 0.000000 -0.000000 -1.225128
 17 10.314597 0.000001 0.000000 -2.123664 0.144017 0.096696
 18 -2.869898 1.399663 -4.140396 -0.324640 1.360111 2.351964
 19 4.972048 0.000000 0.000001 0.856536 0.215100 -1.471163
 20 11.585355 0.000000 0.000000 0.000000 -0.000000 -1.291467
 21 10.127057 0.000000 0.000001 2.022546 0.324154 0.083986
time 22
  0 0.235347 -0.235347 -14.666941 -0.045585 0.257873 -1.742273
  1 0.000000 0.000000 0.000000 -1.570795 -1.570796 0.000000
  2 -0.000005 0.000007 3.713255 -3.368582 -0.221254 1.331540
  3 18.045721 0.000000 0.000000 0.000000 -0.000000 -1.349168
  4 17.597597 0.000000 0.000000 -0.205032 0.225938 -0.216505
  5 0.000005 -0.000003 -3.713255 6.216136 2.542639 5.445702
  6 18.045725 0.000000 0.000000 0.000000 -0.000000 -2.074575
  7 17.597597 0.000000 0.000000 -0.092081 0.087818 0.559914
  8 1.293670 0.684478 -0.000001 -0.000004 -0.000001 0.358403
  9 5.309685 -0.003834 0.000000 -0.031488 0.015017 0.444212
 10 4.826790 -0.004591 0.000000 -0.143265 0.038339 0.258901
 11 5.792767 -0.005304 0.000000 0.000000 -0.000000 0.199907
 12 6.662317 -0.001453 0.000000 0.000000 -0.000001 0.471000
 13 2.046985 -0.000002 0.000000 0.172892 0.051693 -1.304683
 14 -3.112024 1.517254 4.341911 0.296426 -1.361950 2.379593
 15 4.827230 0.000000 0.000001 -0.662372 -0.575834 -1.279063
 16 11.139763 0.000000 0.000000 0.000000 -0.000000 -1.225128
 17 10.314597 0.000001 0.000000 -2.123664 0.144017 0.096696
 18 -2.869898 1.399663 -4.140396 -0.285907 1.362570 2.389834
 19 4.972048 0.000000 0.000001 0.856304 0.211963 -1.479134
 20 11.585355 0.000000 0.000000 0.000000 -0.000000 -1.291467
 21 10.127057 0.000000 0.000001 2.022546 0.324154 0.083986
time 23
  0 0.235347 -0.235347 -14.666941 -0.045585 0.257873 -1.742273
  1 0.000000 0.000000 0.000000 -1.570795 -1.570796 0.000000
  2 -0.000005 0.000007 3.713255 -3.368582 -0.221254 1.331540
  3 18.045721 0.000000 0.000000 0.000000 -0.000000 -1.349168
  4 17.597597 0.000000 0.000000 -0.205032 0.225938 -0.216505
  5 0.000005 -0.000003 -3.713255 6.216136 2.542639 5.445702
  6 18.045725 0.000000 0.000000 0.000000 -0.000000 -2.074575
  7 17.597597 0.000000 0.000000 -0.092081 0.087818 0.559914
  8 1.293670 0.684478 -0.000001 -0.000004 -0.000001 0.358403
  9 5.309685 -0.003834 0.000000 -0.031500 0.014981 0.442908
 10 4.826790 -0.004591 0.000000 -0.143265 0.038339 0.258901
 11 5.792767 -0.005304 0.000000 0.000000 -0.000000 0.195962
 12 6.662317 -0.001453 0.000000 0.000000 -0.000001 0.471000
 13 2.046985 -0.000002 0.000000 0.172935 0.051513 -1.299424
 14 -3.112024 1.517254 4.341911 0.247818 -1.364681 2.427148
 15 4.827230 0.000000 0.000001 -0.660492 -0.568771 -1.289302
 16 11.139763 0.000000 0.000000 0.000000 -0.000000 -1.225128
 17 10.314597 0.000001 0.000000 -2.123664 0.144017 0.096696
 18 -2.869898 1.399663 -4.140396 -0.244490 1.364831 2.430196
 19 4.972048 0.000000 0.000001 0.855840 0.205045 -1.486775
 20 11.585355 0.000000 0.000000 0.000000 -0.000000 -1.291467
 21 10.127057 0.000000 0.000001 2.022546 0.324154 0.083986
time 24
  0 0.235347 -0.235347 -14.666941 -0.045585 0.257873 -1.742273
  1 0.000000 0.000000 0.000000 -1.570795 -1.570796 0.000000
  2 -0.000005 0.000007 3.713255 -3.368582 -0.221254 1.331540
  3 18.045721 0.000000 0.000000 0.000000 -0.000000 -1.349168
  4 17.597597 0.000000 0.000000 -0.205032 0.225938 -0.216505
  5 0.000005 -0.000003 -3.713255 6.216136 2.542639 5.445702
  6 18.045725 0.000000 0.000000 0.000000 -0.000000 -2.074575
  7 17.597597 0.000000 0.000000 -0.092081 0.087818 0.559914
  8 1.293670 0.684478 -0.000001 -0.000004 -0.000001 0.358403
  9 5.309685 -0.003834 0.000000 -0.031537 0.014897 0.440463
 10 4.826790 -0.004591 0.000000 -0.143265 0.038339 0.258901
 11 5.792767 -0.005304 0.000000 0.000000 -0.000000 0.188612
 12 6.662317 -0.001453 0.000000 0.000000 -0.000001 0.471000
 13 2.046985 -0.000002 0.000000 0.173021 0.051175 -1.289716
 14 -3.112024 1.517254 4.341911 0.197485 -1.366951 2.476236
 15 4.827230 0.000000 0.000001 -0.657614 -0.557453 -1.299453
 16 11.139763 0.000000 0.000000 0.000000 -0.000000 -1.225128
 17 10.314597 0.000001 0.000000 -2.123664 0.144017 0.096696
 18 -2.869898 1.399663 -4.140396 -0.202018 1.366753 2.471805
 19 4.972048 0.000000 0.000001 0.854989 0.193783 -1.493560
 20 11.585355 0.000000 0.000000 0.000000 -0.000000 -1.291467
 21 10.127057 0.000000 0.000001 2.022546 0.324154 0.083986
time 25
  0 0.235347 -0.235347 -14.666941 -0.045585 0.257873 -1.742273
  1 0.000000 0.000000 0.000000 -1.570795 -1.570796 0.000000
  2 -0.000005 0.000007 3.713255 -3.368582 -0.221254 1.331540
  3 18.045721 0.000000 0.000000 0.000000 -0.000000 -1.349168
  4 17.597597 0.000000 0.000000 -0.205032 0.225938 -0.216505
  5 0.000005 -0.000003 -3.713255 6.216136 2.542639 5.445702
  6 18.045725 0.000000 0.000000 0.000000 -0.000000 -2.074575
  7 17.597597 0.000000 0.000000 -0.092081 0.087818 0.559914
  8 1.293670 0.684478 -0.000001 -0.000004 -0.000001 0.358403
  9 5.309685 -0.003834 0.000000 -0.031598 0.014789 0.436968
 10 4.826790 -0.004591 0.000000 -0.143265 0.038339 0.258901
 11 5.792767 -0.005304 0.000000 0.000000 -0.000000 0.178065
 12 6.662317 -0.001453 0.000000 0.000000 -0.000001 0.471000
 13 2.046985 -0.000002 0.000000 0.173236 0.050680 -1.275602
 14 -3.112024 1.517254 4.341911 0.147151 -1.368681 2.525613
 15 4.827230 0.000000 0.000001 -0.653796 -0.541879 -1.308817
 16 11.139763 0.000000 0.000000 0.000000 -0.000000 -1.225128
 17 10.314597 0.000001 0.000000 -2.123664 0.144017 0.096696
 18 -2.869898 1.399663 -4.140396 -0.159642 1.368336 2.513414
 19 4.972048 0.000000 0.000001 0.853906 0.178419 -1.499291
 20 11.585355 0.000000 0.000000 0.000000 -0.000000 -1.291467
 21 10.127057 0.000000 0.000001 2.022546 0.324154 0.083986
time 26
  0 0.235347 -0.235347 -14.666941 -0.045585 0.257873 -1.742273
  1 0.000000 0.000000 0.000000 -1.570795 -1.570796 0.000000
  2 -0.000005 0.000007 3.713255 -3.368582 -0.221254 1.331540
  3 18.045721 0.000000 0.000000 0.000000 -0.000000 -1.349168
  4 17.597597 0.000000 0.000000 -0.205032 0.225938 -0.216505
  5 0.000005 -0.000003 -3.713255 6.216136 2.542639 5.445702
  6 18.045725 0.000000 0.000000 0.000000 -0.000000 -2.074575
  7 17.597597 0.000000 0.000000 -0.092081 0.087818 0.559914
  8 1.293670 0.684478 -0.000001 -0.000004 -0.000001 0.358403
  9 5.309685 -0.003834 0.000000 -0.031647 0.014645 0.432713
 10 4.826790 -0.004591 0.000000 -0.143265 0.038339 0.258901
 11 5.792767 -0.005304 0.000000 0.000000 -0.000000 0.165213
 12 6.662317 -0.001453 0.000000 0.000000 -0.000001 0.471000
 13 2.046985 -0.000002 0.000000 0.173495 0.050094 -1.258612
 14 -3.112024 1.517254 4.341911 0.098639 -1.369912 2.572975
 15 4.827230 0.000000 0.000001 -0.649391 -0.523497 -1.317568
 16 11.139763 0.000000 0.000000 0.000000 -0.000000 -1.225128
 17 10.314597 0.000001 0.000000 -2.123664 0.144017 0.096696
 18 -2.869898 1.399663 -4.140396 -0.118800 1.369438 2.553393
 19 4.972048 0.000000 0.000001 0.852436 0.160159 -1.503968
 20 11.585355 0.000000 0.000000 0.000000 -0.000000 -1.291467
 21 10.127057 0.000000 0.000001 2.022546 0.324154 0.083986
time 27
  0 0.235347 -0.235347 -14.666941 -0.045585 0.257873 -1.742273
  1 0.000000 0.000000 0.000000 -1.570795 -1.570796 0.000000
  2 -0.000005 0.000007 3.713255 -3.368582 -0.221254 1.331540
  3 18.045721 0.000000 0.000000 0.000000 -0.000000 -1.349168
  4 17.597597 0.000000 0.000000 -0.205032 0.225938 -0.216505
  5 0.000005 -0.000003 -3.713255 6.216136 2.542639 5.445702
  6 18.045725 0.000000 0.000000 0.000000 -0.000000 -2.074575
  7 17.597597 0.000000 0.000000 -0.092081 0.087818 0.559914
  8 1.293670 0.684478 -0.000001 -0.000004 -0.000001 0.358403
  9 5.309685 -0.003834 0.000000 -0.031708 0.014501 0.428186
 10 4.826790 -0.004591 0.000000 -0.143265 0.038339 0.258901
 11 5.792767 -0.005304 0.000000 0.000000 -0.000000 0.151551
 12 6.662317 -0.001453 0.000000 0.000000 -0.000001 0.471000
 13 2.046985 -0.000002 0.000000 0.173667 0.049464 -1.240408
 14 -3.112024 1.517254 4.341911 0.053867 -1.370566 2.616982
 15 4.827230 0.000000 0.000001 -0.644751 -0.504435 -1.325269
 16 11.139763 0.000000 0.000000 0.000000 -0.000000 -1.225128
 17 10.314597 0.000001 0.000000 -2.123664 0.144017 0.096696
 18 -2.869898 1.399663 -4.140396 -0.080930 1.370173 2.590592
 19 4.972048 0.000000 0.000001 0.850889 0.141014 -1.507656
 20 11.585355 0.000000 0.000000 0.000000 -0.000000 -1.291467
 21 10.127057 0.000000 0.000001 2.022546 0.324154 0.083986
time 28
  0 0.235347 -0.235347 -14.666941 -0.045585 0.257873 -1.742273
  1 0.000000 0.000000 0.000000 -1.570795 -1.570796 0.000000
  2 -0.000005 0.000007 3.713255 -3.368582 -0.221254 1.331540
  3 18.045721 0.000000 0.000000 0.000000 -0.000000 -1.349168
  4 17.597597 0.000000 0.000000 -0.205032 0.225938 -0.216505
  5 0.000005 -0.000003 -3.713255 6.216136 2.542639 5.445702
  6 18.045725 0.000000 0.000000 0.000000 -0.000000 -2.074575
  7 17.597597 0.000000 0.000000 -0.092081 0.087818 0.559914
  8 1.293670 0.684478 -0.000001 -0.000004 -0.000001 0.358403
  9 5.309685 -0.003834 0.000000 -0.031782 0.014382 0.423948
 10 4.826790 -0.004591 0.000000 -0.143265 0.038339 0.258901
 11 5.792767 -0.005304 0.000000 0.000000 -0.000000 0.138782
 12 6.662317 -0.001453 0.000000 0.000000 -0.000001 0.471000
 13 2.046985 -0.000002 0.000000 0.173926 0.048879 -1.223463
 14 -3.112024 1.517254 4.341911 0.014367 -1.370797 2.655716
 15 4.827230 0.000000 0.000001 -0.640580 -0.486564 -1.331920
 16 11.139763 0.000000 0.000000 0.000000 -0.000000 -1.225128
 17 10.314597 0.000001 0.000000 -2.123664 0.144017 0.096696
 18 -2.869898 1.399663 -4.140396 -0.047470 1.370597 2.623285
 19 4.972048 0.000000 0.000001 0.849497 0.123156 -1.510752
 20 11.585355 0.000000 0.000000 0.000000 -0.000000 -1.291467
 21 10.127057 0.000000 0.000001 2.022546 0.324154 0.083986
time 29
  0 0.235347 -0.235347 -14.666941 -0.045585 0.257873 -1.742273
  1 0.000000 0.000000 0.000000 -1.570795 -1.570796 0.000000
  2 -0.000005 0.000007 3.713255 -3.368582 -0.221254 1.331540
  3 18.045721 0.000000 0.000000 0.000000 -0.000000 -1.349168
  4 17.597597 0.000000 0.000000 -0.205032 0.225938 -0.216505
  5 0.000005 -0.000003 -3.713255 6.216136 2.542639 5.445702
  6 18.045725 0.000000 0.000000 0.000000 -0.000000 -2.074575
  7 17.597597 0.000000 0.000000 -0.092081 0.087818 0.559914
  8 1.293670 0.684478 -0.000001 -0.000004 -0.000001 0.358403
  9 5.309685 -0.003834 0.000000 -0.031818 0.014274 0.420562
 10 4.826790 -0.004591 0.000000 -0.143265 0.038339 0.258901
 11 5.792767 -0.005304 0.000000 0.000000 -0.000000 0.128566
 12 6.662317 -0.001453 0.000000 0.000000 -0.000001 0.471000
 13 2.046985 -0.000002 0.000000 0.174055 0.048406 -1.209889
 14 -3.112024 1.517254 4.341911 -0.017942 -1.370797 2.687355
 15 4.827230 0.000000 0.000001 -0.637232 -0.472267 -1.337258
 16 11.139763 0.000000 0.000000 0.000000 -0.000000 -1.225128
 17 10.314597 0.000001 0.000000 -2.123664 0.144017 0.096696
 18 -2.869898 1.399663 -4.140396 -0.020050 1.370795 2.650033
 19 4.972048 0.000000 0.000001 0.848259 0.108918 -1.513387
 20 11.585355 0.000000 0.000000 0.000000 -0.000000 -1.291467
 21 10.127057 0.000000 0.000001 2.022546 0.324154 0.083986
time 30
  0 0.235347 -0.235347 -14.666941 -0.045585 0.257873 -1.742273
  1 0.000000 0.000000 0.000000 -1.570795 -1.570796 0.000000
  2 -0.000005 0.000007 3.713255 -3.368582 -0.221254 1.331540
  3 18.045721 0.000000 0.000000 0.000000 -0.000000 -1.349168
  4 17.597597 0.000000 0.000000 -0.205032 0.225938 -0.216505
  5 0.000005 -0.000003 -3.713255 6.216136 2.542639 5.445702
  6 18.045725 0.000000 0.000000 0.000000 -0.000000 -2.074575
  7 17.597597 0.000000 0.000000 -0.092081 0.087818 0.559914
  8 1.293670 0.684478 -0.000001 -0.000004 -0.000001 0.358403
  9 5.309685 -0.003834 0.000000 -0.031855 0.014202 0.418407
 10 4.826790 -0.004591 0.000000 -0.143265 0.038339 0.258901
 11 5.792767 -0.005304 0.000000 0.000000 -0.000000 0.122088
 12 6.662317 -0.001453 0.000000 0.000000 -0.000001 0.471000
 13 2.046985 -0.000002 0.000000 0.174184 0.048113 -1.201304
 14 -3.112024 1.517254 4.341911 -0.041815 -1.370643 2.710749
 15 4.827230 0.000000 0.000001 -0.635118 -0.462991 -1.341196
 16 11.139763 0.000000 0.000000 0.000000 -0.000000 -1.225128
 17 10.314597 0.000001 0.000000 -2.123664 0.144017 0.096696
 18 -2.869898 1.399663 -4.140396 -0.000013 1.370795 2.669783
 19 4.972048 0.000000 0.000001 0.847408 0.099667 -1.515627
 20 11.585355 0.000000 0.000000 0.000000 -0.000000 -1.291467
 21 10.127057 0.000000 0.000001 2.022546 0.324154 0.083986
end
