version 1
nodes
  0 "Bip01"  -1
  1 "Bip01 Pelvis"   0
  2 "Bip01 L Leg"   1
  3 "Bip01 L Leg1"   2
  4 "Bip01 L Foot"   3
  5 "Bip01 R Leg"   1
  6 "Bip01 R Leg1"   5
  7 "Bip01 R Foot"   6
  8 "Bip01 Spine"   1
  9 "Bip01 Spine1"   8
 10 "Bip01 Spine2"   9
 11 "Bip01 Spine3"  10
 12 "Bip01 Neck"  11
 13 "Bip01 Head"  12
 14 "Bip01 L Arm"  12
 15 "Bip01 L Arm1"  14
 16 "Bip01 L Arm2"  15
 17 "Bip01 L Hand"  16
 18 "Bip01 R Arm"  12
 19 "Bip01 R Arm1"  18
 20 "Bip01 R Arm2"  19
 21 "Bip01 R Hand"  20
end
skeleton
time 0
  0 0.235347 -0.235347 3.532833 -0.000000 -0.000000 -1.570969
  1 0.000000 0.000000 0.000000 -1.570795 -1.570796 0.000000
  2 -0.000005 0.000007 3.713255 -6.281131 3.115465 6.261712
  3 18.045721 0.000000 0.000000 0.000000 -0.000000 -0.121501
  4 17.597597 0.000000 0.000000 -0.002613 0.026036 0.099967
  5 0.000005 -0.000003 -3.713255 6.280565 -3.124186 6.258640
  6 18.045725 0.000000 0.000000 0.000000 -0.000000 -0.127551
  7 17.597597 0.000000 0.000000 0.002950 -0.017289 0.103055
  8 1.293670 0.684478 -0.000001 -0.000004 -0.000001 0.035686
  9 5.309685 -0.003834 0.000000 0.000000 -0.000000 -0.104655
 10 4.826790 -0.004591 0.000000 -0.173330 -0.019499 -0.111686
 11 5.792767 -0.005304 0.000000 -0.138920 -0.013195 -0.094986
 12 6.662317 -0.001453 0.000000 0.000000 -0.000001 0.095957
 13 2.046985 -0.000002 0.000000 0.305286 0.072383 -0.162652
 14 -3.447972 0.278935 4.341911 -0.257721 -1.364181 3.297319
 15 4.827230 0.000000 0.000001 1.043743 1.133414 0.782964
 16 11.139763 0.000000 0.000000 0.000000 -0.000000 -0.395663
 17 10.314597 0.000001 0.000000 -1.642354 0.083249 -0.332944
 18 -3.182408 0.251190 -4.140396 0.672633 1.317206 3.701665
 19 4.972048 0.000000 0.000001 0.881831 -1.070910 -1.336783
 20 11.585355 0.000000 0.000000 0.000000 -0.000000 -1.918980
 21 10.127057 0.000000 0.000001 1.537137 -0.015052 -0.019648
time 1
  0 0.235347 -0.235347 3.532833 -0.000000 -0.000000 -1.570969
  1 0.000000 0.000000 0.000000 -1.570795 -1.570796 0.000000
  2 -0.000005 0.000007 3.713255 -6.281131 3.115465 6.261712
  3 18.045721 0.000000 0.000000 0.000000 -0.000000 -0.121501
  4 17.597597 0.000000 0.000000 -0.002613 0.026036 0.099967
  5 0.000005 -0.000003 -3.713255 6.280565 -3.124186 6.258640
  6 18.045725 0.000000 0.000000 0.000000 -0.000000 -0.127551
  7 17.597597 0.000000 0.000000 0.002950 -0.017289 0.103055
  8 1.293670 0.684478 -0.000001 -0.000004 -0.000001 0.035686
  9 5.309685 -0.003834 0.000000 0.000000 -0.000000 -0.104655
 10 4.826790 -0.004591 0.000000 -0.266087 -0.048454 -0.176663
 11 5.792767 -0.005304 0.000000 -0.138920 -0.013195 -0.094986
 12 6.662317 -0.001453 0.000000 0.000000 -0.000001 0.095957
 13 2.046985 -0.000002 0.000000 0.399163 0.088301 -0.084174
 14 -3.447972 0.278935 4.341911 -0.257721 -1.364181 3.297319
 15 4.827230 0.000000 0.000001 1.088323 1.084396 0.929195
 16 11.139763 0.000000 0.000000 0.000000 -0.000000 -0.395663
 17 10.314597 0.000001 0.000000 -1.642354 0.083249 -0.332944
 18 -3.182408 0.251190 -4.140396 1.092845 1.155620 4.100594
 19 4.972048 0.000000 0.000001 -0.612817 -1.260590 -0.061557
 20 11.585355 0.000000 0.000000 0.000000 -0.000000 -2.304303
 21 10.127057 0.000000 0.000001 1.537137 -0.015052 -0.019648
time 2
  0 0.235347 -0.235347 3.532833 -0.000000 -0.000000 -1.570969
  1 0.000000 0.000000 0.000000 -1.570795 -1.570796 0.000000
  2 -0.000005 0.000007 3.713255 -6.281131 3.115465 6.261712
  3 18.045721 0.000000 0.000000 0.000000 -0.000000 -0.121501
  4 17.597597 0.000000 0.000000 -0.002613 0.026036 0.099967
  5 0.000005 -0.000003 -3.713255 6.280565 -3.124186 6.258640
  6 18.045725 0.000000 0.000000 0.000000 -0.000000 -0.127551
  7 17.597597 0.000000 0.000000 0.002950 -0.017289 0.103055
  8 1.293670 0.684478 -0.000001 -0.000004 -0.000001 0.035686
  9 5.309685 -0.003834 0.000000 0.000000 -0.000000 -0.104655
 10 4.826790 -0.004591 0.000000 -0.237237 -0.021476 -0.089506
 11 5.792767 -0.005304 0.000000 -0.138920 -0.013195 -0.094986
 12 6.662317 -0.001453 0.000000 0.000000 -0.000001 0.095957
 13 2.046985 -0.000002 0.000000 0.366334 0.092399 -0.177890
 14 -3.447972 0.278935 4.341911 -0.257721 -1.364181 3.297319
 15 4.827230 0.000000 0.000001 0.963274 1.146179 0.766687
 16 11.139763 0.000000 0.000000 0.000000 -0.000000 -0.395663
 17 10.314597 0.000001 0.000000 -1.642354 0.083249 -0.332944
 18 -3.182408 0.251190 -4.140396 0.981632 1.220910 3.997434
 19 4.972048 0.000000 0.000001 0.317915 -1.270565 -0.913421
 20 11.585355 0.000000 0.000000 0.000000 -0.000000 -2.162011
 21 10.127057 0.000000 0.000001 1.537137 -0.015052 -0.019648
time 3
  0 0.235347 -0.235347 3.532833 -0.000000 -0.000000 -1.570969
  1 0.000000 0.000000 0.000000 -1.570795 -1.570796 0.000000
  2 -0.000005 0.000007 3.713255 -6.281131 3.115465 6.261712
  3 18.045721 0.000000 0.000000 0.000000 -0.000000 -0.121501
  4 17.597597 0.000000 0.000000 -0.002613 0.026036 0.099967
  5 0.000005 -0.000003 -3.713255 6.280565 -3.124186 6.258640
  6 18.045725 0.000000 0.000000 0.000000 -0.000000 -0.127551
  7 17.597597 0.000000 0.000000 0.002950 -0.017289 0.103055
  8 1.293670 0.684478 -0.000001 -0.000004 -0.000001 0.035686
  9 5.309685 -0.003834 0.000000 0.000000 -0.000000 -0.104655
 10 4.826790 -0.004591 0.000000 -0.191819 -0.000923 -0.005568
 11 5.792767 -0.005304 0.000000 -0.138920 -0.013195 -0.094986
 12 6.662317 -0.001453 0.000000 0.000000 -0.000001 0.095957
 13 2.046985 -0.000002 0.000000 0.318857 0.091723 -0.268145
 14 -3.447972 0.278935 4.341911 -0.257721 -1.364181 3.297319
 15 4.827230 0.000000 0.000001 0.811147 1.191878 0.563486
 16 11.139763 0.000000 0.000000 0.000000 -0.000000 -0.395663
 17 10.314597 0.000001 0.000000 -1.642354 0.083249 -0.332944
 18 -3.182408 0.251190 -4.140396 0.782120 1.292475 3.807317
 19 4.972048 0.000000 0.000001 0.896142 -1.055626 -1.394356
 20 11.585355 0.000000 0.000000 0.000000 -0.000000 -1.988727
 21 10.127057 0.000000 0.000001 1.537137 -0.015052 -0.019648
end
