version 1
nodes
  0 "Bip01"  -1
  1 "Bip01 Pelvis"   0
  2 "Bip01 L Leg"   1
  3 "Bip01 L Leg1"   2
  4 "Bip01 L Foot"   3
  5 "Bip01 R Leg"   1
  6 "Bip01 R Leg1"   5
  7 "Bip01 R Foot"   6
  8 "Bip01 Spine"   1
  9 "Bip01 Spine1"   8
 10 "Bip01 Spine2"   9
 11 "Bip01 Spine3"  10
 12 "Bip01 Neck"  11
 13 "Bip01 Head"  12
 14 "Bip01 L Arm"  12
 15 "Bip01 L Arm1"  14
 16 "Bip01 L Arm2"  15
 17 "Bip01 L Hand"  16
 18 "Bip01 R Arm"  12
 19 "Bip01 R Arm1"  18
 20 "Bip01 R Arm2"  19
 21 "Bip01 R Hand"  20
end
skeleton
time 0
  0 0.235347 -0.235347 3.532833 -0.000000 -0.000000 -1.570969
  1 0.000000 0.000000 0.000000 -1.570795 -1.570796 0.000000
  2 -0.000005 0.000007 3.713255 -6.279981 3.158894 6.191818
  3 18.045721 0.000000 0.000000 0.000000 -0.000000 -0.243578
  4 17.597597 0.000000 0.000000 -0.001675 -0.017562 0.152217
  5 0.000005 -0.000003 -3.713255 0.355097 3.115936 -0.017353
  6 18.045725 0.000000 0.000000 0.000000 -0.000000 -0.267080
  7 17.597597 0.000000 0.000000 0.202642 0.018016 0.241857
  8 1.293670 0.684478 -0.000001 -0.000004 -0.000001 0.201422
  9 5.309685 -0.003834 0.000000 -0.257154 0.049592 0.185587
 10 4.826790 -0.004591 0.000000 -0.258304 0.042941 0.160257
 11 5.792767 -0.005304 0.000000 -0.257146 0.049592 0.185539
 12 6.662317 -0.001453 0.000000 0.000000 -0.000001 0.471000
 13 2.046985 -0.000002 0.000000 0.687776 -0.394315 -0.413595
 14 -3.112024 1.517254 4.341911 1.427345 -1.394414 1.244805
 15 4.827230 0.000000 0.000001 -0.635588 0.367933 -0.909328
 16 11.139763 0.000000 0.000000 0.000000 -0.000000 -1.508881
 17 10.314597 0.000001 0.000000 -1.570000 -0.000000 -0.069778
 18 -2.869898 1.399663 -4.140396 1.270978 1.204743 3.920735
 19 4.972048 0.000000 0.000001 1.312929 -0.090978 -1.485589
 20 11.585355 0.000000 0.000000 0.000000 -0.000000 -1.683506
 21 10.127057 0.000000 0.000001 2.005984 -0.349060 -0.069778
time 1
  0 0.235347 -0.235347 3.532833 -0.000000 -0.000000 -1.570969
  1 0.000000 0.000000 0.000000 -1.570795 -1.570796 0.000000
  2 -0.000005 0.000007 3.713255 -6.279981 3.158894 6.191818
  3 18.045721 0.000000 0.000000 0.000000 -0.000000 -0.243578
  4 17.597597 0.000000 0.000000 -0.001675 -0.017562 0.152217
  5 0.000005 -0.000003 -3.713255 0.355097 3.115936 -0.017353
  6 18.045725 0.000000 0.000000 0.000000 -0.000000 -0.267080
  7 17.597597 0.000000 0.000000 0.202642 0.018016 0.241857
  8 1.293670 0.684478 -0.000001 -0.000004 -0.000001 0.201422
  9 5.309685 -0.003834 0.000000 -0.257154 0.049592 0.185587
 10 4.826790 -0.004591 0.000000 -0.258156 0.043924 0.163983
 11 5.792767 -0.005304 0.000000 -0.257146 0.049592 0.185539
 12 6.662317 -0.001453 0.000000 0.000000 -0.000001 0.471000
 13 2.046985 -0.000002 0.000000 0.687991 -0.393347 -0.417506
 14 -3.112024 1.517254 4.341911 1.427345 -1.394414 1.244805
 15 4.827230 0.000000 0.000001 -0.631241 0.364103 -0.909503
 16 11.139763 0.000000 0.000000 0.000000 -0.000000 -1.508881
 17 10.314597 0.000001 0.000000 -1.570000 -0.000000 -0.069778
 18 -2.869898 1.399663 -4.140396 1.265800 1.204093 3.915367
 19 4.972048 0.000000 0.000001 1.313316 -0.090415 -1.485457
 20 11.585355 0.000000 0.000000 0.000000 -0.000000 -1.683506
 21 10.127057 0.000000 0.000001 2.005984 -0.349060 -0.069778
time 2
  0 0.235347 -0.235347 3.532833 -0.000000 -0.000000 -1.570969
  1 0.000000 0.000000 0.000000 -1.570795 -1.570796 0.000000
  2 -0.000005 0.000007 3.713255 -6.279981 3.158894 6.191818
  3 18.045721 0.000000 0.000000 0.000000 -0.000000 -0.243578
  4 17.597597 0.000000 0.000000 -0.001675 -0.017562 0.152217
  5 0.000005 -0.000003 -3.713255 0.355097 3.115936 -0.017353
  6 18.045725 0.000000 0.000000 0.000000 -0.000000 -0.267080
  7 17.597597 0.000000 0.000000 0.202642 0.018016 0.241857
  8 1.293670 0.684478 -0.000001 -0.000004 -0.000001 0.201422
  9 5.309685 -0.003834 0.000000 -0.257154 0.049592 0.185587
 10 4.826790 -0.004591 0.000000 -0.257959 0.045098 0.168481
 11 5.792767 -0.005304 0.000000 -0.257146 0.049592 0.185539
 12 6.662317 -0.001453 0.000000 0.000000 -0.000001 0.471000
 13 2.046985 -0.000002 0.000000 0.688336 -0.392177 -0.422045
 14 -3.112024 1.517254 4.341911 1.427345 -1.394414 1.244805
 15 4.827230 0.000000 0.000001 -0.626190 0.359678 -0.909765
 16 11.139763 0.000000 0.000000 0.000000 -0.000000 -1.508881
 17 10.314597 0.000001 0.000000 -1.570000 -0.000000 -0.069778
 18 -2.869898 1.399663 -4.140396 1.259760 1.203358 3.908847
 19 4.972048 0.000000 0.000001 1.313780 -0.089691 -1.485391
 20 11.585355 0.000000 0.000000 0.000000 -0.000000 -1.683506
 21 10.127057 0.000000 0.000001 2.005984 -0.349060 -0.069778
time 3
  0 0.235347 -0.235347 3.532833 -0.000000 -0.000000 -1.570969
  1 0.000000 0.000000 0.000000 -1.570795 -1.570796 0.000000
  2 -0.000005 0.000007 3.713255 -6.279981 3.158894 6.191818
  3 18.045721 0.000000 0.000000 0.000000 -0.000000 -0.243578
  4 17.597597 0.000000 0.000000 -0.001675 -0.017562 0.152217
  5 0.000005 -0.000003 -3.713255 0.355097 3.115936 -0.017353
  6 18.045725 0.000000 0.000000 0.000000 -0.000000 -0.267080
  7 17.597597 0.000000 0.000000 0.202642 0.018016 0.241857
  8 1.293670 0.684478 -0.000001 -0.000004 -0.000001 0.201422
  9 5.309685 -0.003834 0.000000 -0.257154 0.049592 0.185587
 10 4.826790 -0.004591 0.000000 -0.257713 0.046416 0.173508
 11 5.792767 -0.005304 0.000000 -0.257146 0.049592 0.185539
 12 6.662317 -0.001453 0.000000 0.000000 -0.000001 0.471000
 13 2.046985 -0.000002 0.000000 0.688637 -0.390871 -0.427170
 14 -3.112024 1.517254 4.341911 1.427345 -1.394414 1.244805
 15 4.827230 0.000000 0.000001 -0.620493 0.354572 -0.910116
 16 11.139763 0.000000 0.000000 0.000000 -0.000000 -1.508881
 17 10.314597 0.000001 0.000000 -1.570000 -0.000000 -0.069778
 18 -2.869898 1.399663 -4.140396 1.253049 1.202510 3.901657
 19 4.972048 0.000000 0.000001 1.314244 -0.088967 -1.485326
 20 11.585355 0.000000 0.000000 0.000000 -0.000000 -1.683506
 21 10.127057 0.000000 0.000001 2.005984 -0.349060 -0.069778
time 4
  0 0.235347 -0.235347 3.532833 -0.000000 -0.000000 -1.570969
  1 0.000000 0.000000 0.000000 -1.570795 -1.570796 0.000000
  2 -0.000005 0.000007 3.713255 -6.279981 3.158894 6.191818
  3 18.045721 0.000000 0.000000 0.000000 -0.000000 -0.243578
  4 17.597597 0.000000 0.000000 -0.001675 -0.017562 0.152217
  5 0.000005 -0.000003 -3.713255 0.355097 3.115936 -0.017353
  6 18.045725 0.000000 0.000000 0.000000 -0.000000 -0.267080
  7 17.597597 0.000000 0.000000 0.202642 0.018016 0.241857
  8 1.293670 0.684478 -0.000001 -0.000004 -0.000001 0.201422
  9 5.309685 -0.003834 0.000000 -0.257154 0.049592 0.185587
 10 4.826790 -0.004591 0.000000 -0.257483 0.047854 0.178954
 11 5.792767 -0.005304 0.000000 -0.257146 0.049592 0.185539
 12 6.662317 -0.001453 0.000000 0.000000 -0.000001 0.471000
 13 2.046985 -0.000002 0.000000 0.688982 -0.389475 -0.432788
 14 -3.112024 1.517254 4.341911 1.427345 -1.394414 1.244805
 15 4.827230 0.000000 0.000001 -0.614208 0.349126 -0.910466
 16 11.139763 0.000000 0.000000 0.000000 -0.000000 -1.508881
 17 10.314597 0.000001 0.000000 -1.570000 -0.000000 -0.069778
 18 -2.869898 1.399663 -4.140396 1.245955 1.201606 3.894083
 19 4.972048 0.000000 0.000001 1.314863 -0.088082 -1.485326
 20 11.585355 0.000000 0.000000 0.000000 -0.000000 -1.683506
 21 10.127057 0.000000 0.000001 2.005984 -0.349060 -0.069778
time 5
  0 0.235347 -0.235347 3.532833 -0.000000 -0.000000 -1.570969
  1 0.000000 0.000000 0.000000 -1.570795 -1.570796 0.000000
  2 -0.000005 0.000007 3.713255 -6.279981 3.158894 6.191818
  3 18.045721 0.000000 0.000000 0.000000 -0.000000 -0.243578
  4 17.597597 0.000000 0.000000 -0.001675 -0.017562 0.152217
  5 0.000005 -0.000003 -3.713255 0.355097 3.115936 -0.017353
  6 18.045725 0.000000 0.000000 0.000000 -0.000000 -0.267080
  7 17.597597 0.000000 0.000000 0.202642 0.018016 0.241857
  8 1.293670 0.684478 -0.000001 -0.000004 -0.000001 0.201422
  9 5.309685 -0.003834 0.000000 -0.257154 0.049592 0.185587
 10 4.826790 -0.004591 0.000000 -0.257171 0.049400 0.184819
 11 5.792767 -0.005304 0.000000 -0.257146 0.049592 0.185539
 12 6.662317 -0.001453 0.000000 0.000000 -0.000001 0.471000
 13 2.046985 -0.000002 0.000000 0.689413 -0.387944 -0.438811
 14 -3.112024 1.517254 4.341911 1.427345 -1.394414 1.244805
 15 4.827230 0.000000 0.000001 -0.607570 0.343254 -0.910816
 16 11.139763 0.000000 0.000000 0.000000 -0.000000 -1.508881
 17 10.314597 0.000001 0.000000 -1.570000 -0.000000 -0.069778
 18 -2.869898 1.399663 -4.140396 1.238189 1.200560 3.885742
 19 4.972048 0.000000 0.000001 1.315404 -0.087197 -1.485260
 20 11.585355 0.000000 0.000000 0.000000 -0.000000 -1.683506
 21 10.127057 0.000000 0.000001 2.005984 -0.349060 -0.069778
time 6
  0 0.235347 -0.235347 3.532833 -0.000000 -0.000000 -1.570969
  1 0.000000 0.000000 0.000000 -1.570795 -1.570796 0.000000
  2 -0.000005 0.000007 3.713255 -6.279981 3.158894 6.191818
  3 18.045721 0.000000 0.000000 0.000000 -0.000000 -0.243578
  4 17.597597 0.000000 0.000000 -0.001675 -0.017562 0.152217
  5 0.000005 -0.000003 -3.713255 0.355097 3.115936 -0.017353
  6 18.045725 0.000000 0.000000 0.000000 -0.000000 -0.267080
  7 17.597597 0.000000 0.000000 0.202642 0.018016 0.241857
  8 1.293670 0.684478 -0.000001 -0.000004 -0.000001 0.201422
  9 5.309685 -0.003834 0.000000 -0.257154 0.049592 0.185587
 10 4.826790 -0.004591 0.000000 -0.256859 0.051078 0.191213
 11 5.792767 -0.005304 0.000000 -0.257146 0.049592 0.185539
 12 6.662317 -0.001453 0.000000 0.000000 -0.000001 0.471000
 13 2.046985 -0.000002 0.000000 0.689844 -0.386278 -0.445283
 14 -3.112024 1.517254 4.341911 1.427345 -1.394414 1.244805
 15 4.827230 0.000000 0.000001 -0.600346 0.336786 -0.911166
 16 11.139763 0.000000 0.000000 0.000000 -0.000000 -1.508881
 17 10.314597 0.000001 0.000000 -1.570000 -0.000000 -0.069778
 18 -2.869898 1.399663 -4.140396 1.229848 1.199458 3.876730
 19 4.972048 0.000000 0.000001 1.316178 -0.086232 -1.485194
 20 11.585355 0.000000 0.000000 0.000000 -0.000000 -1.683506
 21 10.127057 0.000000 0.000001 2.005984 -0.349060 -0.069778
time 7
  0 0.235347 -0.235347 3.532833 -0.000000 -0.000000 -1.570969
  1 0.000000 0.000000 0.000000 -1.570795 -1.570796 0.000000
  2 -0.000005 0.000007 3.713255 -6.279981 3.158894 6.191818
  3 18.045721 0.000000 0.000000 0.000000 -0.000000 -0.243578
  4 17.597597 0.000000 0.000000 -0.001675 -0.017562 0.152217
  5 0.000005 -0.000003 -3.713255 0.355097 3.115936 -0.017353
  6 18.045725 0.000000 0.000000 0.000000 -0.000000 -0.267080
  7 17.597597 0.000000 0.000000 0.202642 0.018016 0.241857
  8 1.293670 0.684478 -0.000001 -0.000004 -0.000001 0.201422
  9 5.309685 -0.003834 0.000000 -0.257154 0.049592 0.185587
 10 4.826790 -0.004591 0.000000 -0.256514 0.052912 0.198158
 11 5.792767 -0.005304 0.000000 -0.257146 0.049592 0.185539
 12 6.662317 -0.001453 0.000000 0.000000 -0.000001 0.471000
 13 2.046985 -0.000002 0.000000 0.690231 -0.384454 -0.452385
 14 -3.112024 1.517254 4.341911 1.427345 -1.394414 1.244805
 15 4.827230 0.000000 0.000001 -0.592358 0.329808 -0.911516
 16 11.139763 0.000000 0.000000 0.000000 -0.000000 -1.508881
 17 10.314597 0.000001 0.000000 -1.570000 -0.000000 -0.069778
 18 -2.869898 1.399663 -4.140396 1.220644 1.198186 3.867047
 19 4.972048 0.000000 0.000001 1.316874 -0.085186 -1.485194
 20 11.585355 0.000000 0.000000 0.000000 -0.000000 -1.683506
 21 10.127057 0.000000 0.000001 2.005984 -0.349060 -0.069778
time 8
  0 0.235347 -0.235347 3.532833 -0.000000 -0.000000 -1.570969
  1 0.000000 0.000000 0.000000 -1.570795 -1.570796 0.000000
  2 -0.000005 0.000007 3.713255 -6.279981 3.158894 6.191818
  3 18.045721 0.000000 0.000000 0.000000 -0.000000 -0.243578
  4 17.597597 0.000000 0.000000 -0.001675 -0.017562 0.152217
  5 0.000005 -0.000003 -3.713255 0.355097 3.115936 -0.017353
  6 18.045725 0.000000 0.000000 0.000000 -0.000000 -0.267080
  7 17.597597 0.000000 0.000000 0.202642 0.018016 0.241857
  8 1.293670 0.684478 -0.000001 -0.000004 -0.000001 0.201422
  9 5.309685 -0.003834 0.000000 -0.257154 0.049592 0.185587
 10 4.826790 -0.004591 0.000000 -0.256087 0.054877 0.205721
 11 5.792767 -0.005304 0.000000 -0.257146 0.049592 0.185539
 12 6.662317 -0.001453 0.000000 0.000000 -0.000001 0.471000
 13 2.046985 -0.000002 0.000000 0.690662 -0.382473 -0.460071
 14 -3.112024 1.517254 4.341911 1.427345 -1.394414 1.244805
 15 4.827230 0.000000 0.000001 -0.583489 0.322234 -0.911866
 16 11.139763 0.000000 0.000000 0.000000 -0.000000 -1.508881
 17 10.314597 0.000001 0.000000 -1.570000 -0.000000 -0.069778
 18 -2.869898 1.399663 -4.140396 1.210769 1.196716 3.856405
 19 4.972048 0.000000 0.000001 1.317570 -0.084060 -1.485194
 20 11.585355 0.000000 0.000000 0.000000 -0.000000 -1.683506
 21 10.127057 0.000000 0.000001 2.005984 -0.349060 -0.069778
time 9
  0 0.235347 -0.235347 3.532833 -0.000000 -0.000000 -1.570969
  1 0.000000 0.000000 0.000000 -1.570795 -1.570796 0.000000
  2 -0.000005 0.000007 3.713255 -6.279981 3.158894 6.191818
  3 18.045721 0.000000 0.000000 0.000000 -0.000000 -0.243578
  4 17.597597 0.000000 0.000000 -0.001675 -0.017562 0.152217
  5 0.000005 -0.000003 -3.713255 0.355097 3.115936 -0.017353
  6 18.045725 0.000000 0.000000 0.000000 -0.000000 -0.267080
  7 17.597597 0.000000 0.000000 0.202642 0.018016 0.241857
  8 1.293670 0.684478 -0.000001 -0.000004 -0.000001 0.201422
  9 5.309685 -0.003834 0.000000 -0.257154 0.049592 0.185587
 10 4.826790 -0.004591 0.000000 -0.255644 0.057011 0.213834
 11 5.792767 -0.005304 0.000000 -0.257146 0.049592 0.185539
 12 6.662317 -0.001453 0.000000 0.000000 -0.000001 0.471000
 13 2.046985 -0.000002 0.000000 0.691136 -0.380357 -0.468387
 14 -3.112024 1.517254 4.341911 1.427345 -1.394414 1.244805
 15 4.827230 0.000000 0.000001 -0.573915 0.314064 -0.912216
 16 11.139763 0.000000 0.000000 0.000000 -0.000000 -1.508881
 17 10.314597 0.000001 0.000000 -1.570000 -0.000000 -0.069778
 18 -2.869898 1.399663 -4.140396 1.200031 1.195105 3.844900
 19 4.972048 0.000000 0.000001 1.318344 -0.082934 -1.485128
 20 11.585355 0.000000 0.000000 0.000000 -0.000000 -1.683506
 21 10.127057 0.000000 0.000001 2.005984 -0.349060 -0.069778
time 10
  0 0.235347 -0.235347 3.532833 -0.000000 -0.000000 -1.570969
  1 0.000000 0.000000 0.000000 -1.570795 -1.570796 0.000000
  2 -0.000005 0.000007 3.713255 -6.279981 3.158894 6.191818
  3 18.045721 0.000000 0.000000 0.000000 -0.000000 -0.243578
  4 17.597597 0.000000 0.000000 -0.001675 -0.017562 0.152217
  5 0.000005 -0.000003 -3.713255 0.355097 3.115936 -0.017353
  6 18.045725 0.000000 0.000000 0.000000 -0.000000 -0.267080
  7 17.597597 0.000000 0.000000 0.202642 0.018016 0.241857
  8 1.293670 0.684478 -0.000001 -0.000004 -0.000001 0.201422
  9 5.309685 -0.003834 0.000000 -0.257154 0.049592 0.185587
 10 4.826790 -0.004591 0.000000 -0.255135 0.059216 0.222301
 11 5.792767 -0.005304 0.000000 -0.257146 0.049592 0.185539
 12 6.662317 -0.001453 0.000000 0.000000 -0.000001 0.471000
 13 2.046985 -0.000002 0.000000 0.691610 -0.378128 -0.476972
 14 -3.112024 1.517254 4.341911 1.427345 -1.394414 1.244805
 15 4.827230 0.000000 0.000001 -0.563812 0.305554 -0.912741
 16 11.139763 0.000000 0.000000 0.000000 -0.000000 -1.508881
 17 10.314597 0.000001 0.000000 -1.570000 -0.000000 -0.069778
 18 -2.869898 1.399663 -4.140396 1.188910 1.193381 3.832916
 19 4.972048 0.000000 0.000001 1.319040 -0.081888 -1.485128
 20 11.585355 0.000000 0.000000 0.000000 -0.000000 -1.683506
 21 10.127057 0.000000 0.000001 2.005984 -0.349060 -0.069778
time 11
  0 0.235347 -0.235347 3.532833 -0.000000 -0.000000 -1.570969
  1 0.000000 0.000000 0.000000 -1.570795 -1.570796 0.000000
  2 -0.000005 0.000007 3.713255 -6.279981 3.158894 6.191818
  3 18.045721 0.000000 0.000000 0.000000 -0.000000 -0.243578
  4 17.597597 0.000000 0.000000 -0.001675 -0.017562 0.152217
  5 0.000005 -0.000003 -3.713255 0.355097 3.115936 -0.017353
  6 18.045725 0.000000 0.000000 0.000000 -0.000000 -0.267080
  7 17.597597 0.000000 0.000000 0.202642 0.018016 0.241857
  8 1.293670 0.684478 -0.000001 -0.000004 -0.000001 0.201422
  9 5.309685 -0.003834 0.000000 -0.257154 0.049592 0.185587
 10 4.826790 -0.004591 0.000000 -0.254642 0.061325 0.230481
 11 5.792767 -0.005304 0.000000 -0.257146 0.049592 0.185539
 12 6.662317 -0.001453 0.000000 0.000000 -0.000001 0.471000
 13 2.046985 -0.000002 0.000000 0.692084 -0.375989 -0.485332
 14 -3.112024 1.517254 4.341911 1.427345 -1.394414 1.244805
 15 4.827230 0.000000 0.000001 -0.553474 0.297214 -0.913091
 16 11.139763 0.000000 0.000000 0.000000 -0.000000 -1.508881
 17 10.314597 0.000001 0.000000 -1.570000 -0.000000 -0.069778
 18 -2.869898 1.399663 -4.140396 1.177885 1.191572 3.820932
 19 4.972048 0.000000 0.000001 1.319504 -0.081003 -1.485128
 20 11.585355 0.000000 0.000000 0.000000 -0.000000 -1.683506
 21 10.127057 0.000000 0.000001 2.005984 -0.349060 -0.069778
time 12
  0 0.235347 -0.235347 3.532833 -0.000000 -0.000000 -1.570969
  1 0.000000 0.000000 0.000000 -1.570795 -1.570796 0.000000
  2 -0.000005 0.000007 3.713255 -6.279981 3.158894 6.191818
  3 18.045721 0.000000 0.000000 0.000000 -0.000000 -0.243578
  4 17.597597 0.000000 0.000000 -0.001675 -0.017562 0.152217
  5 0.000005 -0.000003 -3.713255 0.355097 3.115936 -0.017353
  6 18.045725 0.000000 0.000000 0.000000 -0.000000 -0.267080
  7 17.597597 0.000000 0.000000 0.202642 0.018016 0.241857
  8 1.293670 0.684478 -0.000001 -0.000004 -0.000001 0.201422
  9 5.309685 -0.003834 0.000000 -0.257154 0.049592 0.185587
 10 4.826790 -0.004591 0.000000 -0.254232 0.063123 0.237360
 11 5.792767 -0.005304 0.000000 -0.257146 0.049592 0.185539
 12 6.662317 -0.001453 0.000000 0.000000 -0.000001 0.471000
 13 2.046985 -0.000002 0.000000 0.692386 -0.374188 -0.492299
 14 -3.112024 1.517254 4.341911 1.427345 -1.394414 1.244805
 15 4.827230 0.000000 0.000001 -0.544135 0.290321 -0.913266
 16 11.139763 0.000000 0.000000 0.000000 -0.000000 -1.508881
 17 10.314597 0.000001 0.000000 -1.570000 -0.000000 -0.069778
 18 -2.869898 1.399663 -4.140396 1.168010 1.189933 3.810290
 19 4.972048 0.000000 0.000001 1.319659 -0.080762 -1.484930
 20 11.585355 0.000000 0.000000 0.000000 -0.000000 -1.683506
 21 10.127057 0.000000 0.000001 2.005984 -0.349060 -0.069778
time 13
  0 0.235347 -0.235347 3.532833 -0.000000 -0.000000 -1.570969
  1 0.000000 0.000000 0.000000 -1.570795 -1.570796 0.000000
  2 -0.000005 0.000007 3.713255 -6.279981 3.158894 6.191818
  3 18.045721 0.000000 0.000000 0.000000 -0.000000 -0.243578
  4 17.597597 0.000000 0.000000 -0.001675 -0.017562 0.152217
  5 0.000005 -0.000003 -3.713255 0.355097 3.115936 -0.017353
  6 18.045725 0.000000 0.000000 0.000000 -0.000000 -0.267080
  7 17.597597 0.000000 0.000000 0.202642 0.018016 0.241857
  8 1.293670 0.684478 -0.000001 -0.000004 -0.000001 0.201422
  9 5.309685 -0.003834 0.000000 -0.257154 0.049592 0.185587
 10 4.826790 -0.004591 0.000000 -0.253723 0.065184 0.245363
 11 5.792767 -0.005304 0.000000 -0.257146 0.049592 0.185539
 12 6.662317 -0.001453 0.000000 0.000000 -0.000001 0.471000
 13 2.046985 -0.000002 0.000000 0.692730 -0.372071 -0.500344
 14 -3.112024 1.517254 4.341911 1.427345 -1.394414 1.244805
 15 4.827230 0.000000 0.000001 -0.531155 0.282407 -0.913704
 16 11.139763 0.000000 0.000000 0.000000 -0.000000 -1.508881
 17 10.314597 0.000001 0.000000 -1.570000 -0.000000 -0.069778
 18 -2.869898 1.399663 -4.140396 1.154588 1.187615 3.795909
 19 4.972048 0.000000 0.000001 1.318885 -0.081164 -1.484469
 20 11.585355 0.000000 0.000000 0.000000 -0.000000 -1.683506
 21 10.127057 0.000000 0.000001 2.005984 -0.349060 -0.069778
time 14
  0 0.235347 -0.235347 3.532833 -0.000000 -0.000000 -1.570969
  1 0.000000 0.000000 0.000000 -1.570795 -1.570796 0.000000
  2 -0.000005 0.000007 3.713255 -6.279981 3.158894 6.191818
  3 18.045721 0.000000 0.000000 0.000000 -0.000000 -0.243578
  4 17.597597 0.000000 0.000000 -0.001675 -0.017562 0.152217
  5 0.000005 -0.000003 -3.713255 0.355097 3.115936 -0.017353
  6 18.045725 0.000000 0.000000 0.000000 -0.000000 -0.267080
  7 17.597597 0.000000 0.000000 0.202642 0.018016 0.241857
  8 1.293670 0.684478 -0.000001 -0.000004 -0.000001 0.201422
  9 5.309685 -0.003834 0.000000 -0.257154 0.049592 0.185587
 10 4.826790 -0.004591 0.000000 -0.253542 0.065879 0.248053
 11 5.792767 -0.005304 0.000000 -0.257146 0.049592 0.185539
 12 6.662317 -0.001453 0.000000 0.000000 -0.000001 0.471000
 13 2.046985 -0.000002 0.000000 0.692903 -0.371373 -0.503086
 14 -3.112024 1.517254 4.341911 1.427345 -1.394414 1.244805
 15 4.827230 0.000000 0.000001 -0.519583 0.279598 -0.913704
 16 11.139763 0.000000 0.000000 0.000000 -0.000000 -1.508881
 17 10.314597 0.000001 0.000000 -1.570000 -0.000000 -0.069778
 18 -2.869898 1.399663 -4.140396 1.144042 1.185665 3.784404
 19 4.972048 0.000000 0.000001 1.315791 -0.084623 -1.483284
 20 11.585355 0.000000 0.000000 0.000000 -0.000000 -1.683506
 21 10.127057 0.000000 0.000001 2.005984 -0.349060 -0.069778
time 15
  0 0.235347 -0.235347 3.532833 -0.000000 -0.000000 -1.570969
  1 0.000000 0.000000 0.000000 -1.570795 -1.570796 0.000000
  2 -0.000005 0.000007 3.713255 -6.279981 3.158894 6.191818
  3 18.045721 0.000000 0.000000 0.000000 -0.000000 -0.243578
  4 17.597597 0.000000 0.000000 -0.001675 -0.017562 0.152217
  5 0.000005 -0.000003 -3.713255 0.355097 3.115936 -0.017353
  6 18.045725 0.000000 0.000000 0.000000 -0.000000 -0.267080
  7 17.597597 0.000000 0.000000 0.202642 0.018016 0.241857
  8 1.293670 0.684478 -0.000001 -0.000004 -0.000001 0.201422
  9 5.309685 -0.003834 0.000000 -0.257154 0.049592 0.185587
 10 4.826790 -0.004591 0.000000 -0.253739 0.065040 0.244790
 11 5.792767 -0.005304 0.000000 -0.257146 0.049592 0.185539
 12 6.662317 -0.001453 0.000000 0.000000 -0.000001 0.471000
 13 2.046985 -0.000002 0.000000 0.692730 -0.372229 -0.499805
 14 -3.112024 1.517254 4.341911 1.427345 -1.394414 1.244805
 15 4.827230 0.000000 0.000001 -0.510009 0.282832 -0.913704
 16 11.139763 0.000000 0.000000 0.000000 -0.000000 -1.508881
 17 10.314597 0.000001 0.000000 -1.570000 -0.000000 -0.069778
 18 -2.869898 1.399663 -4.140396 1.136372 1.184252 3.776159
 19 4.972048 0.000000 0.000001 1.310144 -0.091139 -1.481044
 20 11.585355 0.000000 0.000000 0.000000 -0.000000 -1.683506
 21 10.127057 0.000000 0.000001 2.005984 -0.349060 -0.069778
time 16
  0 0.235347 -0.235347 3.532833 -0.000000 -0.000000 -1.570969
  1 0.000000 0.000000 0.000000 -1.570795 -1.570796 0.000000
  2 -0.000005 0.000007 3.713255 -6.279981 3.158894 6.191818
  3 18.045721 0.000000 0.000000 0.000000 -0.000000 -0.243578
  4 17.597597 0.000000 0.000000 -0.001675 -0.017562 0.152217
  5 0.000005 -0.000003 -3.713255 0.355097 3.115936 -0.017353
  6 18.045725 0.000000 0.000000 0.000000 -0.000000 -0.267080
  7 17.597597 0.000000 0.000000 0.202642 0.018016 0.241857
  8 1.293670 0.684478 -0.000001 -0.000004 -0.000001 0.201422
  9 5.309685 -0.003834 0.000000 -0.257154 0.049592 0.185587
 10 4.826790 -0.004591 0.000000 -0.254084 0.063710 0.239653
 11 5.792767 -0.005304 0.000000 -0.257146 0.049592 0.185539
 12 6.662317 -0.001453 0.000000 0.000000 -0.000001 0.471000
 13 2.046985 -0.000002 0.000000 0.692515 -0.373580 -0.494636
 14 -3.112024 1.517254 4.341911 1.427345 -1.394414 1.244805
 15 4.827230 0.000000 0.000001 -0.496853 0.288023 -0.913529
 16 11.139763 0.000000 0.000000 0.000000 -0.000000 -1.508881
 17 10.314597 0.000001 0.000000 -1.570000 -0.000000 -0.069778
 18 -2.869898 1.399663 -4.140396 1.126017 1.182273 3.765038
 19 4.972048 0.000000 0.000001 1.302022 -0.100309 -1.477619
 20 11.585355 0.000000 0.000000 0.000000 -0.000000 -1.683506
 21 10.127057 0.000000 0.000001 2.005984 -0.349060 -0.069778
time 17
  0 0.235347 -0.235347 3.532833 -0.000000 -0.000000 -1.570969
  1 0.000000 0.000000 0.000000 -1.570795 -1.570796 0.000000
  2 -0.000005 0.000007 3.713255 -6.279981 3.158894 6.191818
  3 18.045721 0.000000 0.000000 0.000000 -0.000000 -0.243578
  4 17.597597 0.000000 0.000000 -0.001675 -0.017562 0.152217
  5 0.000005 -0.000003 -3.713255 0.355097 3.115936 -0.017353
  6 18.045725 0.000000 0.000000 0.000000 -0.000000 -0.267080
  7 17.597597 0.000000 0.000000 0.202642 0.018016 0.241857
  8 1.293670 0.684478 -0.000001 -0.000004 -0.000001 0.201422
  9 5.309685 -0.003834 0.000000 -0.257154 0.049592 0.185587
 10 4.826790 -0.004591 0.000000 -0.254560 0.061805 0.232267
 11 5.792767 -0.005304 0.000000 -0.257146 0.049592 0.185539
 12 6.662317 -0.001453 0.000000 0.000000 -0.000001 0.471000
 13 2.046985 -0.000002 0.000000 0.692127 -0.375516 -0.487130
 14 -3.112024 1.517254 4.341911 1.427345 -1.394414 1.244805
 15 4.827230 0.000000 0.000001 -0.481464 0.295427 -0.913091
 16 11.139763 0.000000 0.000000 0.000000 -0.000000 -1.508881
 17 10.314597 0.000001 0.000000 -1.570000 -0.000000 -0.069778
 18 -2.869898 1.399663 -4.140396 1.114513 1.179984 3.752574
 19 4.972048 0.000000 0.000001 1.291579 -0.111973 -1.473337
 20 11.585355 0.000000 0.000000 0.000000 -0.000000 -1.683506
 21 10.127057 0.000000 0.000001 2.005984 -0.349060 -0.069778
time 18
  0 0.235347 -0.235347 3.532833 -0.000000 -0.000000 -1.570969
  1 0.000000 0.000000 0.000000 -1.570795 -1.570796 0.000000
  2 -0.000005 0.000007 3.713255 -6.279981 3.158894 6.191818
  3 18.045721 0.000000 0.000000 0.000000 -0.000000 -0.243578
  4 17.597597 0.000000 0.000000 -0.001675 -0.017562 0.152217
  5 0.000005 -0.000003 -3.713255 0.355097 3.115936 -0.017353
  6 18.045725 0.000000 0.000000 0.000000 -0.000000 -0.267080
  7 17.597597 0.000000 0.000000 0.202642 0.018016 0.241857
  8 1.293670 0.684478 -0.000001 -0.000004 -0.000001 0.201422
  9 5.309685 -0.003834 0.000000 -0.257154 0.049592 0.185587
 10 4.826790 -0.004591 0.000000 -0.255020 0.059695 0.224175
 11 5.792767 -0.005304 0.000000 -0.257146 0.049592 0.185539
 12 6.662317 -0.001453 0.000000 0.000000 -0.000001 0.471000
 13 2.046985 -0.000002 0.000000 0.691696 -0.377632 -0.478859
 14 -3.112024 1.517254 4.341911 1.427345 -1.394414 1.244805
 15 4.827230 0.000000 0.000001 -0.470832 0.303682 -0.912741
 16 11.139763 0.000000 0.000000 0.000000 -0.000000 -1.508881
 17 10.314597 0.000001 0.000000 -1.570000 -0.000000 -0.069778
 18 -2.869898 1.399663 -4.140396 1.107034 1.178486 3.744617
 19 4.972048 0.000000 0.000001 1.282606 -0.122028 -1.469319
 20 11.585355 0.000000 0.000000 0.000000 -0.000000 -1.683506
 21 10.127057 0.000000 0.000001 2.005984 -0.349060 -0.069778
time 19
  0 0.235347 -0.235347 3.532833 -0.000000 -0.000000 -1.570969
  1 0.000000 0.000000 0.000000 -1.570795 -1.570796 0.000000
  2 -0.000005 0.000007 3.713255 -6.279981 3.158894 6.191818
  3 18.045721 0.000000 0.000000 0.000000 -0.000000 -0.243578
  4 17.597597 0.000000 0.000000 -0.001675 -0.017562 0.152217
  5 0.000005 -0.000003 -3.713255 0.355097 3.115936 -0.017353
  6 18.045725 0.000000 0.000000 0.000000 -0.000000 -0.267080
  7 17.597597 0.000000 0.000000 0.202642 0.018016 0.241857
  8 1.293670 0.684478 -0.000001 -0.000004 -0.000001 0.201422
  9 5.309685 -0.003834 0.000000 -0.257154 0.049592 0.185587
 10 4.826790 -0.004591 0.000000 -0.255496 0.057718 0.216568
 11 5.792767 -0.005304 0.000000 -0.257146 0.049592 0.185539
 12 6.662317 -0.001453 0.000000 0.000000 -0.000001 0.471000
 13 2.046985 -0.000002 0.000000 0.691265 -0.379636 -0.471128
 14 -3.112024 1.517254 4.341911 1.427345 -1.394414 1.244805
 15 4.827230 0.000000 0.000001 -0.468248 0.311341 -0.912391
 16 11.139763 0.000000 0.000000 0.000000 -0.000000 -1.508881
 17 10.314597 0.000001 0.000000 -1.570000 -0.000000 -0.069778
 18 -2.869898 1.399663 -4.140396 1.106459 1.178316 3.743850
 19 4.972048 0.000000 0.000001 1.277191 -0.128222 -1.467079
 20 11.585355 0.000000 0.000000 0.000000 -0.000000 -1.683506
 21 10.127057 0.000000 0.000001 2.005984 -0.349060 -0.069778
time 20
  0 0.235347 -0.235347 3.532833 -0.000000 -0.000000 -1.570969
  1 0.000000 0.000000 0.000000 -1.570795 -1.570796 0.000000
  2 -0.000005 0.000007 3.713255 -6.279981 3.158894 6.191818
  3 18.045721 0.000000 0.000000 0.000000 -0.000000 -0.243578
  4 17.597597 0.000000 0.000000 -0.001675 -0.017562 0.152217
  5 0.000005 -0.000003 -3.713255 0.355097 3.115936 -0.017353
  6 18.045725 0.000000 0.000000 0.000000 -0.000000 -0.267080
  7 17.597597 0.000000 0.000000 0.202642 0.018016 0.241857
  8 1.293670 0.684478 -0.000001 -0.000004 -0.000001 0.201422
  9 5.309685 -0.003834 0.000000 -0.257154 0.049592 0.185587
 10 4.826790 -0.004591 0.000000 -0.255841 0.056052 0.210174
 11 5.792767 -0.005304 0.000000 -0.257146 0.049592 0.185539
 12 6.662317 -0.001453 0.000000 0.000000 -0.000001 0.471000
 13 2.046985 -0.000002 0.000000 0.690964 -0.381325 -0.464656
 14 -3.112024 1.517254 4.341911 1.427345 -1.394414 1.244805
 15 4.827230 0.000000 0.000001 -0.473475 0.317638 -0.912041
 16 11.139763 0.000000 0.000000 0.000000 -0.000000 -1.508881
 17 10.314597 0.000001 0.000000 -1.570000 -0.000000 -0.069778
 18 -2.869898 1.399663 -4.140396 1.112308 1.179503 3.750081
 19 4.972048 0.000000 0.000001 1.275644 -0.130072 -1.466552
 20 11.585355 0.000000 0.000000 0.000000 -0.000000 -1.683506
 21 10.127057 0.000000 0.000001 2.005984 -0.349060 -0.069778
time 21
  0 0.235347 -0.235347 3.532833 -0.000000 -0.000000 -1.570969
  1 0.000000 0.000000 0.000000 -1.570795 -1.570796 0.000000
  2 -0.000005 0.000007 3.713255 -6.279981 3.158894 6.191818
  3 18.045721 0.000000 0.000000 0.000000 -0.000000 -0.243578
  4 17.597597 0.000000 0.000000 -0.001675 -0.017562 0.152217
  5 0.000005 -0.000003 -3.713255 0.355097 3.115936 -0.017353
  6 18.045725 0.000000 0.000000 0.000000 -0.000000 -0.267080
  7 17.597597 0.000000 0.000000 0.202642 0.018016 0.241857
  8 1.293670 0.684478 -0.000001 -0.000004 -0.000001 0.201422
  9 5.309685 -0.003834 0.000000 -0.257154 0.049592 0.185587
 10 4.826790 -0.004591 0.000000 -0.256186 0.054494 0.204221
 11 5.792767 -0.005304 0.000000 -0.257146 0.049592 0.185539
 12 6.662317 -0.001453 0.000000 0.000000 -0.000001 0.471000
 13 2.046985 -0.000002 0.000000 0.690576 -0.382878 -0.458588
 14 -3.112024 1.517254 4.341911 1.427345 -1.394414 1.244805
 15 4.827230 0.000000 0.000001 -0.485634 0.323595 -0.911866
 16 11.139763 0.000000 0.000000 0.000000 -0.000000 -1.508881
 17 10.314597 0.000001 0.000000 -1.570000 -0.000000 -0.069778
 18 -2.869898 1.399663 -4.140396 1.123716 1.181821 3.762641
 19 4.972048 0.000000 0.000001 1.277191 -0.128544 -1.467474
 20 11.585355 0.000000 0.000000 0.000000 -0.000000 -1.683506
 21 10.127057 0.000000 0.000001 2.005984 -0.349060 -0.069778
time 22
  0 0.235347 -0.235347 3.532833 -0.000000 -0.000000 -1.570969
  1 0.000000 0.000000 0.000000 -1.570795 -1.570796 0.000000
  2 -0.000005 0.000007 3.713255 -6.279981 3.158894 6.191818
  3 18.045721 0.000000 0.000000 0.000000 -0.000000 -0.243578
  4 17.597597 0.000000 0.000000 -0.001675 -0.017562 0.152217
  5 0.000005 -0.000003 -3.713255 0.355097 3.115936 -0.017353
  6 18.045725 0.000000 0.000000 0.000000 -0.000000 -0.267080
  7 17.597597 0.000000 0.000000 0.202642 0.018016 0.241857
  8 1.293670 0.684478 -0.000001 -0.000004 -0.000001 0.201422
  9 5.309685 -0.003834 0.000000 -0.257154 0.049592 0.185587
 10 4.826790 -0.004591 0.000000 -0.256514 0.052852 0.198004
 11 5.792767 -0.005304 0.000000 -0.257146 0.049592 0.185539
 12 6.662317 -0.001453 0.000000 0.000000 -0.000001 0.471000
 13 2.046985 -0.000002 0.000000 0.690231 -0.384499 -0.452205
 14 -3.112024 1.517254 4.341911 1.427345 -1.394414 1.244805
 15 4.827230 0.000000 0.000001 -0.502609 0.329978 -0.911516
 16 11.139763 0.000000 0.000000 0.000000 -0.000000 -1.508881
 17 10.314597 0.000001 0.000000 -1.570000 -0.000000 -0.069778
 18 -2.869898 1.399663 -4.140396 1.139727 1.184902 3.779898
 19 4.972048 0.000000 0.000001 1.280517 -0.125085 -1.469319
 20 11.585355 0.000000 0.000000 0.000000 -0.000000 -1.683506
 21 10.127057 0.000000 0.000001 2.005984 -0.349060 -0.069778
time 23
  0 0.235347 -0.235347 3.532833 -0.000000 -0.000000 -1.570969
  1 0.000000 0.000000 0.000000 -1.570795 -1.570796 0.000000
  2 -0.000005 0.000007 3.713255 -6.279981 3.158894 6.191818
  3 18.045721 0.000000 0.000000 0.000000 -0.000000 -0.243578
  4 17.597597 0.000000 0.000000 -0.001675 -0.017562 0.152217
  5 0.000005 -0.000003 -3.713255 0.355097 3.115936 -0.017353
  6 18.045725 0.000000 0.000000 0.000000 -0.000000 -0.267080
  7 17.597597 0.000000 0.000000 0.202642 0.018016 0.241857
  8 1.293670 0.684478 -0.000001 -0.000004 -0.000001 0.201422
  9 5.309685 -0.003834 0.000000 -0.257154 0.049592 0.185587
 10 4.826790 -0.004591 0.000000 -0.256826 0.051258 0.191896
 11 5.792767 -0.005304 0.000000 -0.257146 0.049592 0.185539
 12 6.662317 -0.001453 0.000000 0.000000 -0.000001 0.471000
 13 2.046985 -0.000002 0.000000 0.689887 -0.386098 -0.446048
 14 -3.112024 1.517254 4.341911 1.427345 -1.394414 1.244805
 15 4.827230 0.000000 0.000001 -0.521815 0.336020 -0.911166
 16 11.139763 0.000000 0.000000 0.000000 -0.000000 -1.508881
 17 10.314597 0.000001 0.000000 -1.570000 -0.000000 -0.069778
 18 -2.869898 1.399663 -4.140396 1.157943 1.188180 3.799552
 19 4.972048 0.000000 0.000001 1.284849 -0.120741 -1.471690
 20 11.585355 0.000000 0.000000 0.000000 -0.000000 -1.683506
 21 10.127057 0.000000 0.000001 2.005984 -0.349060 -0.069778
time 24
  0 0.235347 -0.235347 3.532833 -0.000000 -0.000000 -1.570969
  1 0.000000 0.000000 0.000000 -1.570795 -1.570796 0.000000
  2 -0.000005 0.000007 3.713255 -6.279981 3.158894 6.191818
  3 18.045721 0.000000 0.000000 0.000000 -0.000000 -0.243578
  4 17.597597 0.000000 0.000000 -0.001675 -0.017562 0.152217
  5 0.000005 -0.000003 -3.713255 0.355097 3.115936 -0.017353
  6 18.045725 0.000000 0.000000 0.000000 -0.000000 -0.267080
  7 17.597597 0.000000 0.000000 0.202642 0.018016 0.241857
  8 1.293670 0.684478 -0.000001 -0.000004 -0.000001 0.201422
  9 5.309685 -0.003834 0.000000 -0.257154 0.049592 0.185587
 10 4.826790 -0.004591 0.000000 -0.257105 0.049724 0.186076
 11 5.792767 -0.005304 0.000000 -0.257146 0.049592 0.185539
 12 6.662317 -0.001453 0.000000 0.000000 -0.000001 0.471000
 13 2.046985 -0.000002 0.000000 0.689499 -0.387606 -0.440069
 14 -3.112024 1.517254 4.341911 1.427345 -1.394414 1.244805
 15 4.827230 0.000000 0.000001 -0.541610 0.341892 -0.910816
 16 11.139763 0.000000 0.000000 0.000000 -0.000000 -1.508881
 17 10.314597 0.000001 0.000000 -1.570000 -0.000000 -0.069778
 18 -2.869898 1.399663 -4.140396 1.176830 1.191431 3.819877
 19 4.972048 0.000000 0.000001 1.289568 -0.115834 -1.474061
 20 11.585355 0.000000 0.000000 0.000000 -0.000000 -1.683506
 21 10.127057 0.000000 0.000001 2.005984 -0.349060 -0.069778
time 25
  0 0.235347 -0.235347 3.532833 -0.000000 -0.000000 -1.570969
  1 0.000000 0.000000 0.000000 -1.570795 -1.570796 0.000000
  2 -0.000005 0.000007 3.713255 -6.279981 3.158894 6.191818
  3 18.045721 0.000000 0.000000 0.000000 -0.000000 -0.243578
  4 17.597597 0.000000 0.000000 -0.001675 -0.017562 0.152217
  5 0.000005 -0.000003 -3.713255 0.355097 3.115936 -0.017353
  6 18.045725 0.000000 0.000000 0.000000 -0.000000 -0.267080
  7 17.597597 0.000000 0.000000 0.202642 0.018016 0.241857
  8 1.293670 0.684478 -0.000001 -0.000004 -0.000001 0.201422
  9 5.309685 -0.003834 0.000000 -0.257154 0.049592 0.185587
 10 4.826790 -0.004591 0.000000 -0.257401 0.048310 0.180652
 11 5.792767 -0.005304 0.000000 -0.257146 0.049592 0.185539
 12 6.662317 -0.001453 0.000000 0.000000 -0.000001 0.471000
 13 2.046985 -0.000002 0.000000 0.689111 -0.389025 -0.434541
 14 -3.112024 1.517254 4.341911 1.427345 -1.394414 1.244805
 15 4.827230 0.000000 0.000001 -0.560993 0.347338 -0.910466
 16 11.139763 0.000000 0.000000 0.000000 -0.000000 -1.508881
 17 10.314597 0.000001 0.000000 -1.570000 -0.000000 -0.069778
 18 -2.869898 1.399663 -4.140396 1.195621 1.194455 3.840010
 19 4.972048 0.000000 0.000001 1.294441 -0.110847 -1.476565
 20 11.585355 0.000000 0.000000 0.000000 -0.000000 -1.683506
 21 10.127057 0.000000 0.000001 2.005984 -0.349060 -0.069778
time 26
  0 0.235347 -0.235347 3.532833 -0.000000 -0.000000 -1.570969
  1 0.000000 0.000000 0.000000 -1.570795 -1.570796 0.000000
  2 -0.000005 0.000007 3.713255 -6.279981 3.158894 6.191818
  3 18.045721 0.000000 0.000000 0.000000 -0.000000 -0.243578
  4 17.597597 0.000000 0.000000 -0.001675 -0.017562 0.152217
  5 0.000005 -0.000003 -3.713255 0.355097 3.115936 -0.017353
  6 18.045725 0.000000 0.000000 0.000000 -0.000000 -0.267080
  7 17.597597 0.000000 0.000000 0.202642 0.018016 0.241857
  8 1.293670 0.684478 -0.000001 -0.000004 -0.000001 0.201422
  9 5.309685 -0.003834 0.000000 -0.257154 0.049592 0.185587
 10 4.826790 -0.004591 0.000000 -0.257614 0.046992 0.175603
 11 5.792767 -0.005304 0.000000 -0.257146 0.049592 0.185539
 12 6.662317 -0.001453 0.000000 0.000000 -0.000001 0.471000
 13 2.046985 -0.000002 0.000000 0.688810 -0.390330 -0.429372
 14 -3.112024 1.517254 4.341911 1.427345 -1.394414 1.244805
 15 4.827230 0.000000 0.000001 -0.579436 0.352530 -0.910291
 16 11.139763 0.000000 0.000000 0.000000 -0.000000 -1.508881
 17 10.314597 0.000001 0.000000 -1.570000 -0.000000 -0.069778
 18 -2.869898 1.399663 -4.140396 1.213837 1.197168 3.859568
 19 4.972048 0.000000 0.000001 1.299005 -0.105940 -1.478738
 20 11.585355 0.000000 0.000000 0.000000 -0.000000 -1.683506
 21 10.127057 0.000000 0.000001 2.005984 -0.349060 -0.069778
time 27
  0 0.235347 -0.235347 3.532833 -0.000000 -0.000000 -1.570969
  1 0.000000 0.000000 0.000000 -1.570795 -1.570796 0.000000
  2 -0.000005 0.000007 3.713255 -6.279981 3.158894 6.191818
  3 18.045721 0.000000 0.000000 0.000000 -0.000000 -0.243578
  4 17.597597 0.000000 0.000000 -0.001675 -0.017562 0.152217
  5 0.000005 -0.000003 -3.713255 0.355097 3.115936 -0.017353
  6 18.045725 0.000000 0.000000 0.000000 -0.000000 -0.267080
  7 17.597597 0.000000 0.000000 0.202642 0.018016 0.241857
  8 1.293670 0.684478 -0.000001 -0.000004 -0.000001 0.201422
  9 5.309685 -0.003834 0.000000 -0.257154 0.049592 0.185587
 10 4.826790 -0.004591 0.000000 -0.257844 0.045757 0.170995
 11 5.792767 -0.005304 0.000000 -0.257146 0.049592 0.185539
 12 6.662317 -0.001453 0.000000 0.000000 -0.000001 0.471000
 13 2.046985 -0.000002 0.000000 0.688465 -0.391546 -0.424607
 14 -3.112024 1.517254 4.341911 1.427345 -1.394414 1.244805
 15 4.827230 0.000000 0.000001 -0.596646 0.357125 -0.909941
 16 11.139763 0.000000 0.000000 0.000000 -0.000000 -1.508881
 17 10.314597 0.000001 0.000000 -1.570000 -0.000000 -0.069778
 18 -2.869898 1.399663 -4.140396 1.230999 1.199599 3.878168
 19 4.972048 0.000000 0.000001 1.303337 -0.101355 -1.480912
 20 11.585355 0.000000 0.000000 0.000000 -0.000000 -1.683506
 21 10.127057 0.000000 0.000001 2.005984 -0.349060 -0.069778
time 28
  0 0.235347 -0.235347 3.532833 -0.000000 -0.000000 -1.570969
  1 0.000000 0.000000 0.000000 -1.570795 -1.570796 0.000000
  2 -0.000005 0.000007 3.713255 -6.279981 3.158894 6.191818
  3 18.045721 0.000000 0.000000 0.000000 -0.000000 -0.243578
  4 17.597597 0.000000 0.000000 -0.001675 -0.017562 0.152217
  5 0.000005 -0.000003 -3.713255 0.355097 3.115936 -0.017353
  6 18.045725 0.000000 0.000000 0.000000 -0.000000 -0.267080
  7 17.597597 0.000000 0.000000 0.202642 0.018016 0.241857
  8 1.293670 0.684478 -0.000001 -0.000004 -0.000001 0.201422
  9 5.309685 -0.003834 0.000000 -0.257154 0.049592 0.185587
 10 4.826790 -0.004591 0.000000 -0.258025 0.044667 0.166827
 11 5.792767 -0.005304 0.000000 -0.257146 0.049592 0.185539
 12 6.662317 -0.001453 0.000000 0.000000 -0.000001 0.471000
 13 2.046985 -0.000002 0.000000 0.688163 -0.392627 -0.420337
 14 -3.112024 1.517254 4.341911 1.427345 -1.394414 1.244805
 15 4.827230 0.000000 0.000001 -0.612211 0.361295 -0.909678
 16 11.139763 0.000000 0.000000 0.000000 -0.000000 -1.508881
 17 10.314597 0.000001 0.000000 -1.570000 -0.000000 -0.069778
 18 -2.869898 1.399663 -4.140396 1.246818 1.201747 3.894946
 19 4.972048 0.000000 0.000001 1.307282 -0.097172 -1.482822
 20 11.585355 0.000000 0.000000 0.000000 -0.000000 -1.683506
 21 10.127057 0.000000 0.000001 2.005984 -0.349060 -0.069778
time 29
  0 0.235347 -0.235347 3.532833 -0.000000 -0.000000 -1.570969
  1 0.000000 0.000000 0.000000 -1.570795 -1.570796 0.000000
  2 -0.000005 0.000007 3.713255 -6.279981 3.158894 6.191818
  3 18.045721 0.000000 0.000000 0.000000 -0.000000 -0.243578
  4 17.597597 0.000000 0.000000 -0.001675 -0.017562 0.152217
  5 0.000005 -0.000003 -3.713255 0.355097 3.115936 -0.017353
  6 18.045725 0.000000 0.000000 0.000000 -0.000000 -0.267080
  7 17.597597 0.000000 0.000000 0.202642 0.018016 0.241857
  8 1.293670 0.684478 -0.000001 -0.000004 -0.000001 0.201422
  9 5.309685 -0.003834 0.000000 -0.257154 0.049592 0.185587
 10 4.826790 -0.004591 0.000000 -0.258189 0.043708 0.163189
 11 5.792767 -0.005304 0.000000 -0.257146 0.049592 0.185539
 12 6.662317 -0.001453 0.000000 0.000000 -0.000001 0.471000
 13 2.046985 -0.000002 0.000000 0.687905 -0.393550 -0.416652
 14 -3.112024 1.517254 4.341911 1.427345 -1.394414 1.244805
 15 4.827230 0.000000 0.000001 -0.625544 0.364869 -0.909503
 16 11.139763 0.000000 0.000000 0.000000 -0.000000 -1.508881
 17 10.314597 0.000001 0.000000 -1.570000 -0.000000 -0.069778
 18 -2.869898 1.399663 -4.140396 1.260432 1.203443 3.909518
 19 4.972048 0.000000 0.000001 1.310531 -0.093552 -1.484403
 20 11.585355 0.000000 0.000000 0.000000 -0.000000 -1.683506
 21 10.127057 0.000000 0.000001 2.005984 -0.349060 -0.069778
time 30
  0 0.235347 -0.235347 3.532833 -0.000000 -0.000000 -1.570969
  1 0.000000 0.000000 0.000000 -1.570795 -1.570796 0.000000
  2 -0.000005 0.000007 3.713255 -6.279981 3.158894 6.191818
  3 18.045721 0.000000 0.000000 0.000000 -0.000000 -0.243578
  4 17.597597 0.000000 0.000000 -0.001675 -0.017562 0.152217
  5 0.000005 -0.000003 -3.713255 0.355097 3.115936 -0.017353
  6 18.045725 0.000000 0.000000 0.000000 -0.000000 -0.267080
  7 17.597597 0.000000 0.000000 0.202642 0.018016 0.241857
  8 1.293670 0.684478 -0.000001 -0.000004 -0.000001 0.201422
  9 5.309685 -0.003834 0.000000 -0.257154 0.049592 0.185587
 10 4.826790 -0.004591 0.000000 -0.258304 0.042941 0.160257
 11 5.792767 -0.005304 0.000000 -0.257146 0.049592 0.185539
 12 6.662317 -0.001453 0.000000 0.000000 -0.000001 0.471000
 13 2.046985 -0.000002 0.000000 0.687776 -0.394315 -0.413595
 14 -3.112024 1.517254 4.341911 1.427345 -1.394414 1.244805
 15 4.827230 0.000000 0.000001 -0.635588 0.367933 -0.909328
 16 11.139763 0.000000 0.000000 0.000000 -0.000000 -1.508881
 17 10.314597 0.000001 0.000000 -1.570000 -0.000000 -0.069778
 18 -2.869898 1.399663 -4.140396 1.270978 1.204743 3.920735
 19 4.972048 0.000000 0.000001 1.312929 -0.090978 -1.485589
 20 11.585355 0.000000 0.000000 0.000000 -0.000000 -1.683506
 21 10.127057 0.000000 0.000001 2.005984 -0.349060 -0.069778
end
