version 1
nodes
  0 "Bip01"  -1
  1 "Bip01 Pelvis"   0
  2 "Bip01 L Leg"   1
  3 "Bip01 L Leg1"   2
  4 "Bip01 L Foot"   3
  5 "Bip01 R Leg"   1
  6 "Bip01 R Leg1"   5
  7 "Bip01 R Foot"   6
  8 "Bip01 Spine"   1
  9 "Bip01 Spine1"   8
 10 "Bip01 Spine2"   9
 11 "Bip01 Spine3"  10
 12 "Bip01 Neck"  11
 13 "Bip01 Head"  12
 14 "Bip01 L Arm"  12
 15 "Bip01 L Arm1"  14
 16 "Bip01 L Arm2"  15
 17 "Bip01 L Hand"  16
 18 "Bip01 R Arm"  12
 19 "Bip01 R Arm1"  18
 20 "Bip01 R Arm2"  19
 21 "Bip01 R Hand"  20
end
skeleton
time 0
  0 0.235347 -0.235347 3.532833 -0.000000 -0.000000 -1.570969
  1 2.125065 -0.062502 0.000000 -1.570795 -1.570796 0.000000
  2 -0.000005 0.000007 3.713255 -6.281131 3.115465 6.261712
  3 18.045721 0.000000 0.000000 0.000000 -0.000000 -0.121501
  4 17.597597 0.000000 0.000000 -0.002613 0.026036 0.099967
  5 0.000005 -0.000003 -3.713255 6.280565 -3.124186 6.258640
  6 18.045725 0.000000 0.000000 0.000000 -0.000000 -0.127551
  7 17.597597 0.000000 0.000000 0.002950 -0.017289 0.103055
  8 1.293670 0.684478 -0.000001 -0.000004 -0.000001 0.009520
  9 5.309685 -0.003834 0.000000 0.000000 -0.000000 -0.261655
 10 4.826790 -0.004591 0.000000 -0.156516 -0.012116 -0.077556
 11 5.792767 -0.005304 0.000000 -0.052036 -0.005405 -0.104517
 12 6.662317 -0.001453 0.000000 0.000000 -0.000001 0.471000
 13 2.046985 -0.000002 0.000000 0.209168 0.001306 -0.314306
 14 -3.112024 1.517254 4.341911 1.374519 -0.766091 1.378456
 15 4.827230 0.000000 0.000001 -0.567806 0.389804 -0.656071
 16 11.139763 0.000000 0.000000 0.000000 -0.000000 -0.946070
 17 10.314597 0.000001 0.000000 -3.687047 0.382827 -0.380512
 18 -2.869898 1.399663 -4.140396 0.994288 1.214777 3.634075
 19 4.972048 0.000000 0.000001 -0.375957 -1.241686 -0.720085
 20 11.585355 0.000000 0.000000 0.000000 -0.000000 -1.504976
 21 10.127057 0.000000 0.000001 1.540768 0.693273 -0.289048
time 1
  0 0.235347 -0.235347 3.532833 -0.000000 -0.000000 -1.570969
  1 2.125065 -0.062502 0.000000 -1.570795 -1.570796 0.000000
  2 -0.000005 0.000007 3.713255 -6.281131 3.115465 6.261712
  3 18.045721 0.000000 0.000000 0.000000 -0.000000 -0.121501
  4 17.597597 0.000000 0.000000 -0.002613 0.026036 0.099967
  5 0.000005 -0.000003 -3.713255 6.280565 -3.124186 6.258640
  6 18.045725 0.000000 0.000000 0.000000 -0.000000 -0.127551
  7 17.597597 0.000000 0.000000 0.002950 -0.017289 0.103055
  8 1.293670 0.684478 -0.000001 -0.000004 -0.000001 0.009520
  9 5.309685 -0.003834 0.000000 0.000000 -0.000000 -0.261655
 10 4.826790 -0.004591 0.000000 -0.156516 -0.012021 -0.076850
 11 5.792767 -0.005304 0.000000 -0.052052 -0.005297 -0.102316
 12 6.662317 -0.001453 0.000000 0.000000 -0.000001 0.471000
 13 2.046985 -0.000002 0.000000 0.209168 0.001351 -0.317183
 14 -3.112024 1.517254 4.341911 1.372122 -0.765591 1.381811
 15 4.827230 0.000000 0.000001 -0.566396 0.384868 -0.655896
 16 11.139763 0.000000 0.000000 0.000000 -0.000000 -0.946070
 17 10.314597 0.000001 0.000000 -3.687047 0.382827 -0.380512
 18 -2.869898 1.399663 -4.140396 0.990069 1.213816 3.629665
 19 4.972048 0.000000 0.000001 -0.371548 -1.239112 -0.724762
 20 11.585355 0.000000 0.000000 0.000000 -0.000000 -1.504976
 21 10.127057 0.000000 0.000001 1.540768 0.693273 -0.289048
time 2
  0 0.235347 -0.235347 3.532833 -0.000000 -0.000000 -1.570969
  1 2.121159 -0.058596 0.000000 -1.570795 -1.570796 0.000000
  2 -0.000005 0.000007 3.713255 -6.281131 3.115465 6.261712
  3 18.045721 0.000000 0.000000 0.000000 -0.000000 -0.121501
  4 17.597597 0.000000 0.000000 -0.002613 0.026036 0.099967
  5 0.000005 -0.000003 -3.713255 6.280565 -3.124186 6.258640
  6 18.045725 0.000000 0.000000 0.000000 -0.000000 -0.127551
  7 17.597597 0.000000 0.000000 0.002950 -0.017289 0.103055
  8 1.293670 0.684478 -0.000001 -0.000004 -0.000001 0.009520
  9 5.309685 -0.003834 0.000000 0.000000 -0.000000 -0.261655
 10 4.826790 -0.004591 0.000000 -0.156549 -0.011865 -0.075858
 11 5.792767 -0.005304 0.000000 -0.052069 -0.005141 -0.099347
 12 6.662317 -0.001453 0.000000 0.000000 -0.000001 0.471000
 13 2.046985 -0.000002 0.000000 0.209211 0.001396 -0.321183
 14 -3.112024 1.517254 4.341911 1.368670 -0.764899 1.386509
 15 4.827230 0.000000 0.000001 -0.564575 0.378230 -0.655896
 16 11.139763 0.000000 0.000000 0.000000 -0.000000 -0.946070
 17 10.314597 0.000001 0.000000 -3.687047 0.382827 -0.380512
 18 -2.869898 1.399663 -4.140396 0.984509 1.212431 3.623721
 19 4.972048 0.000000 0.000001 -0.365669 -1.235814 -0.731020
 20 11.585355 0.000000 0.000000 0.000000 -0.000000 -1.504976
 21 10.127057 0.000000 0.000001 1.540768 0.693273 -0.289048
time 3
  0 0.235347 -0.235347 3.532833 -0.000000 -0.000000 -1.570969
  1 2.113346 -0.058596 0.000000 -1.570795 -1.570796 0.000000
  2 -0.000005 0.000007 3.713255 -6.281131 3.115465 6.261712
  3 18.045721 0.000000 0.000000 0.000000 -0.000000 -0.121501
  4 17.597597 0.000000 0.000000 -0.002613 0.026036 0.099967
  5 0.000005 -0.000003 -3.713255 6.280565 -3.124186 6.258640
  6 18.045725 0.000000 0.000000 0.000000 -0.000000 -0.127551
  7 17.597597 0.000000 0.000000 0.002950 -0.017289 0.103055
  8 1.293670 0.684478 -0.000001 -0.000004 -0.000001 0.009520
  9 5.309685 -0.003834 0.000000 0.000000 -0.000000 -0.261655
 10 4.826790 -0.004591 0.000000 -0.156549 -0.011673 -0.074667
 11 5.792767 -0.005304 0.000000 -0.052085 -0.004962 -0.095734
 12 6.662317 -0.001453 0.000000 0.000000 -0.000001 0.471000
 13 2.046985 -0.000002 0.000000 0.209211 0.001486 -0.325992
 14 -3.112024 1.517254 4.341911 1.364836 -0.764014 1.392358
 15 4.827230 0.000000 0.000001 -0.562344 0.370060 -0.655633
 16 11.139763 0.000000 0.000000 0.000000 -0.000000 -0.946070
 17 10.314597 0.000001 0.000000 -3.687047 0.382827 -0.380512
 18 -2.869898 1.399663 -4.140396 0.977797 1.210735 3.616626
 19 4.972048 0.000000 0.000001 -0.358707 -1.231631 -0.738595
 20 11.585355 0.000000 0.000000 0.000000 -0.000000 -1.504976
 21 10.127057 0.000000 0.000001 1.540768 0.693273 -0.289048
time 4
  0 0.235347 -0.235347 3.532833 -0.000000 -0.000000 -1.570969
  1 2.101627 -0.058596 0.000000 -1.570795 -1.570796 0.000000
  2 -0.000005 0.000007 3.713255 -6.281131 3.115465 6.261712
  3 18.045721 0.000000 0.000000 0.000000 -0.000000 -0.121501
  4 17.597597 0.000000 0.000000 -0.002613 0.026036 0.099967
  5 0.000005 -0.000003 -3.713255 6.280565 -3.124186 6.258640
  6 18.045725 0.000000 0.000000 0.000000 -0.000000 -0.127551
  7 17.597597 0.000000 0.000000 0.002950 -0.017289 0.103055
  8 1.293670 0.684478 -0.000001 -0.000004 -0.000001 0.009520
  9 5.309685 -0.003834 0.000000 0.000000 -0.000000 -0.261655
 10 4.826790 -0.004591 0.000000 -0.156582 -0.011445 -0.073300
 11 5.792767 -0.005304 0.000000 -0.052101 -0.004746 -0.091581
 12 6.662317 -0.001453 0.000000 0.000000 -0.000001 0.471000
 13 2.046985 -0.000002 0.000000 0.209211 0.001553 -0.331566
 14 -3.112024 1.517254 4.341911 1.360330 -0.763053 1.398782
 15 4.827230 0.000000 0.000001 -0.559818 0.360784 -0.655545
 16 11.139763 0.000000 0.000000 0.000000 -0.000000 -0.946070
 17 10.314597 0.000001 0.000000 -3.687047 0.382827 -0.380512
 18 -2.869898 1.399663 -4.140396 0.970223 1.208813 3.608573
 19 4.972048 0.000000 0.000001 -0.350894 -1.226885 -0.746961
 20 11.585355 0.000000 0.000000 0.000000 -0.000000 -1.504976
 21 10.127057 0.000000 0.000001 1.540768 0.693273 -0.289048
time 5
  0 0.235347 -0.235347 3.532833 -0.000000 -0.000000 -1.570969
  1 2.093814 -0.050783 0.000000 -1.570795 -1.570796 0.000000
  2 -0.000005 0.000007 3.713255 -6.281131 3.115465 6.261712
  3 18.045721 0.000000 0.000000 0.000000 -0.000000 -0.121501
  4 17.597597 0.000000 0.000000 -0.002613 0.026036 0.099967
  5 0.000005 -0.000003 -3.713255 6.280565 -3.124186 6.258640
  6 18.045725 0.000000 0.000000 0.000000 -0.000000 -0.127551
  7 17.597597 0.000000 0.000000 0.002950 -0.017289 0.103055
  8 1.293670 0.684478 -0.000001 -0.000004 -0.000001 0.009520
  9 5.309685 -0.003834 0.000000 0.000000 -0.000000 -0.261655
 10 4.826790 -0.004591 0.000000 -0.156598 -0.011230 -0.071823
 11 5.792767 -0.005304 0.000000 -0.052134 -0.004494 -0.087097
 12 6.662317 -0.001453 0.000000 0.000000 -0.000001 0.471000
 13 2.046985 -0.000002 0.000000 0.209211 0.001599 -0.337544
 14 -3.112024 1.517254 4.341911 1.355440 -0.761937 1.405972
 15 4.827230 0.000000 0.000001 -0.556998 0.350657 -0.655545
 16 11.139763 0.000000 0.000000 0.000000 -0.000000 -0.946070
 17 10.314597 0.000001 0.000000 -3.687047 0.382827 -0.380512
 18 -2.869898 1.399663 -4.140396 0.962074 1.206665 3.599752
 19 4.972048 0.000000 0.000001 -0.342849 -1.221576 -0.755854
 20 11.585355 0.000000 0.000000 0.000000 -0.000000 -1.504976
 21 10.127057 0.000000 0.000001 1.540768 0.693273 -0.289048
time 6
  0 0.235347 -0.235347 3.532833 -0.000000 -0.000000 -1.570969
  1 2.082095 -0.050783 0.000000 -1.570795 -1.570796 0.000000
  2 -0.000005 0.000007 3.713255 -6.281131 3.115465 6.261712
  3 18.045721 0.000000 0.000000 0.000000 -0.000000 -0.121501
  4 17.597597 0.000000 0.000000 -0.002613 0.026036 0.099967
  5 0.000005 -0.000003 -3.713255 6.280565 -3.124186 6.258640
  6 18.045725 0.000000 0.000000 0.000000 -0.000000 -0.127551
  7 17.597597 0.000000 0.000000 0.002950 -0.017289 0.103055
  8 1.293670 0.684478 -0.000001 -0.000004 -0.000001 0.009520
  9 5.309685 -0.003834 0.000000 0.000000 -0.000000 -0.261655
 10 4.826790 -0.004591 0.000000 -0.156598 -0.010978 -0.070258
 11 5.792767 -0.005304 0.000000 -0.052150 -0.004267 -0.082363
 12 6.662317 -0.001453 0.000000 0.000000 -0.000001 0.471000
 13 2.046985 -0.000002 0.000000 0.209211 0.001689 -0.343836
 14 -3.112024 1.517254 4.341911 1.350263 -0.760745 1.413451
 15 4.827230 0.000000 0.000001 -0.554120 0.340190 -0.655545
 16 11.139763 0.000000 0.000000 0.000000 -0.000000 -0.946070
 17 10.314597 0.000001 0.000000 -3.687047 0.382827 -0.380512
 18 -2.869898 1.399663 -4.140396 0.953637 1.204404 3.590836
 19 4.972048 0.000000 0.000001 -0.334495 -1.216106 -0.764944
 20 11.585355 0.000000 0.000000 0.000000 -0.000000 -1.504976
 21 10.127057 0.000000 0.000001 1.540768 0.693273 -0.289048
time 7
  0 0.235347 -0.235347 3.532833 -0.000000 -0.000000 -1.570969
  1 2.070376 -0.050783 0.000000 -1.570795 -1.570796 0.000000
  2 -0.000005 0.000007 3.713255 -6.281131 3.115465 6.261712
  3 18.045721 0.000000 0.000000 0.000000 -0.000000 -0.121501
  4 17.597597 0.000000 0.000000 -0.002613 0.026036 0.099967
  5 0.000005 -0.000003 -3.713255 6.280565 -3.124186 6.258640
  6 18.045725 0.000000 0.000000 0.000000 -0.000000 -0.127551
  7 17.597597 0.000000 0.000000 0.002950 -0.017289 0.103055
  8 1.293670 0.684478 -0.000001 -0.000004 -0.000001 0.009520
  9 5.309685 -0.003834 0.000000 0.000000 -0.000000 -0.261655
 10 4.826790 -0.004591 0.000000 -0.156631 -0.010714 -0.068670
 11 5.792767 -0.005304 0.000000 -0.052166 -0.004015 -0.077525
 12 6.662317 -0.001453 0.000000 0.000000 -0.000001 0.471000
 13 2.046985 -0.000002 0.000000 0.209211 0.001779 -0.350354
 14 -3.112024 1.517254 4.341911 1.344990 -0.759475 1.421121
 15 4.827230 0.000000 0.000001 -0.551184 0.329297 -0.655633
 16 11.139763 0.000000 0.000000 0.000000 -0.000000 -0.946070
 17 10.314597 0.000001 0.000000 -3.687047 0.382827 -0.380512
 18 -2.869898 1.399663 -4.140396 0.945201 1.202058 3.581536
 19 4.972048 0.000000 0.000001 -0.326218 -1.210314 -0.773903
 20 11.585355 0.000000 0.000000 0.000000 -0.000000 -1.504976
 21 10.127057 0.000000 0.000001 1.540768 0.693273 -0.289048
time 8
  0 0.235347 -0.235347 3.532833 -0.000000 -0.000000 -1.570969
  1 2.062563 -0.050783 0.000000 -1.570795 -1.570796 0.000000
  2 -0.000005 0.000007 3.713255 -6.281131 3.115465 6.261712
  3 18.045721 0.000000 0.000000 0.000000 -0.000000 -0.121501
  4 17.597597 0.000000 0.000000 -0.002613 0.026036 0.099967
  5 0.000005 -0.000003 -3.713255 6.280565 -3.124186 6.258640
  6 18.045725 0.000000 0.000000 0.000000 -0.000000 -0.127551
  7 17.597597 0.000000 0.000000 0.002950 -0.017289 0.103055
  8 1.293670 0.684478 -0.000001 -0.000004 -0.000001 0.009520
  9 5.309685 -0.003834 0.000000 0.000000 -0.000000 -0.261655
 10 4.826790 -0.004591 0.000000 -0.156631 -0.010475 -0.067083
 11 5.792767 -0.005304 0.000000 -0.052183 -0.003751 -0.072750
 12 6.662317 -0.001453 0.000000 0.000000 -0.000001 0.471000
 13 2.046985 -0.000002 0.000000 0.209211 0.001869 -0.356692
 14 -3.112024 1.517254 4.341911 1.339813 -0.758206 1.428503
 15 4.827230 0.000000 0.000001 -0.548306 0.318574 -0.655720
 16 11.139763 0.000000 0.000000 0.000000 -0.000000 -0.946070
 17 10.314597 0.000001 0.000000 -3.687047 0.382827 -0.380512
 18 -2.869898 1.399663 -4.140396 0.936860 1.199712 3.572620
 19 4.972048 0.000000 0.000001 -0.318405 -1.204844 -0.782598
 20 11.585355 0.000000 0.000000 0.000000 -0.000000 -1.504976
 21 10.127057 0.000000 0.000001 1.540768 0.693273 -0.289048
time 9
  0 0.235347 -0.235347 3.532833 -0.000000 -0.000000 -1.570969
  1 2.058657 -0.042970 0.000000 -1.570795 -1.570796 0.000000
  2 -0.000005 0.000007 3.713255 -6.281131 3.115465 6.261712
  3 18.045721 0.000000 0.000000 0.000000 -0.000000 -0.121501
  4 17.597597 0.000000 0.000000 -0.002613 0.026036 0.099967
  5 0.000005 -0.000003 -3.713255 6.280565 -3.124186 6.258640
  6 18.045725 0.000000 0.000000 0.000000 -0.000000 -0.127551
  7 17.597597 0.000000 0.000000 0.002950 -0.017289 0.103055
  8 1.293670 0.684478 -0.000001 -0.000004 -0.000001 0.009520
  9 5.309685 -0.003834 0.000000 0.000000 -0.000000 -0.261655
 10 4.826790 -0.004591 0.000000 -0.156664 -0.010235 -0.065561
 11 5.792767 -0.005304 0.000000 -0.052199 -0.003511 -0.068119
 12 6.662317 -0.001453 0.000000 0.000000 -0.000001 0.471000
 13 2.046985 -0.000002 0.000000 0.209211 0.001959 -0.362804
 14 -3.112024 1.517254 4.341911 1.334827 -0.756975 1.435790
 15 4.827230 0.000000 0.000001 -0.545545 0.308277 -0.655896
 16 11.139763 0.000000 0.000000 0.000000 -0.000000 -0.946070
 17 10.314597 0.000001 0.000000 -3.687047 0.382827 -0.380512
 18 -2.869898 1.399663 -4.140396 0.928902 1.197423 3.564183
 19 4.972048 0.000000 0.000001 -0.311134 -1.199294 -0.790700
 20 11.585355 0.000000 0.000000 0.000000 -0.000000 -1.504976
 21 10.127057 0.000000 0.000001 1.540768 0.693273 -0.289048
time 10
  0 0.235347 -0.235347 3.532833 -0.000000 -0.000000 -1.570969
  1 2.043031 -0.042970 0.000000 -1.570795 -1.570796 0.000000
  2 -0.000005 0.000007 3.713255 -6.281131 3.115465 6.261712
  3 18.045721 0.000000 0.000000 0.000000 -0.000000 -0.121501
  4 17.597597 0.000000 0.000000 -0.002613 0.026036 0.099967
  5 0.000005 -0.000003 -3.713255 6.280565 -3.124186 6.258640
  6 18.045725 0.000000 0.000000 0.000000 -0.000000 -0.127551
  7 17.597597 0.000000 0.000000 0.002950 -0.017289 0.103055
  8 1.293670 0.684478 -0.000001 -0.000004 -0.000001 0.009520
  9 5.309685 -0.003834 0.000000 0.000000 -0.000000 -0.261655
 10 4.826790 -0.004591 0.000000 -0.156664 -0.010007 -0.064150
 11 5.792767 -0.005304 0.000000 -0.052215 -0.003296 -0.063842
 12 6.662317 -0.001453 0.000000 0.000000 -0.000001 0.471000
 13 2.046985 -0.000002 0.000000 0.209211 0.002004 -0.368558
 14 -3.112024 1.517254 4.341911 1.330225 -0.755783 1.442405
 15 4.827230 0.000000 0.000001 -0.542961 0.298831 -0.656071
 16 11.139763 0.000000 0.000000 0.000000 -0.000000 -0.946070
 17 10.314597 0.000001 0.000000 -3.687047 0.382827 -0.380512
 18 -2.869898 1.399663 -4.140396 0.921808 1.195246 3.556514
 19 4.972048 0.000000 0.000001 -0.304481 -1.194226 -0.798078
 20 11.585355 0.000000 0.000000 0.000000 -0.000000 -1.504976
 21 10.127057 0.000000 0.000001 1.540768 0.693273 -0.289048
time 11
  0 0.235347 -0.235347 3.532833 -0.000000 -0.000000 -1.570969
  1 2.039125 -0.039064 0.000000 -1.570795 -1.570796 0.000000
  2 -0.000005 0.000007 3.713255 -6.281131 3.115465 6.261712
  3 18.045721 0.000000 0.000000 0.000000 -0.000000 -0.121501
  4 17.597597 0.000000 0.000000 -0.002613 0.026036 0.099967
  5 0.000005 -0.000003 -3.713255 6.280565 -3.124186 6.258640
  6 18.045725 0.000000 0.000000 0.000000 -0.000000 -0.127551
  7 17.597597 0.000000 0.000000 0.002950 -0.017289 0.103055
  8 1.293670 0.684478 -0.000001 -0.000004 -0.000001 0.009520
  9 5.309685 -0.003834 0.000000 0.000000 -0.000000 -0.261655
 10 4.826790 -0.004591 0.000000 -0.156664 -0.009803 -0.062894
 11 5.792767 -0.005304 0.000000 -0.052232 -0.003080 -0.060043
 12 6.662317 -0.001453 0.000000 0.000000 -0.000001 0.471000
 13 2.046985 -0.000002 0.000000 0.209211 0.002094 -0.373637
 14 -3.112024 1.517254 4.341911 1.326295 -0.754706 1.448349
 15 4.827230 0.000000 0.000001 -0.540552 0.290321 -0.656246
 16 11.139763 0.000000 0.000000 0.000000 -0.000000 -0.946070
 17 10.314597 0.000001 0.000000 -3.687047 0.382827 -0.380512
 18 -2.869898 1.399663 -4.140396 0.915288 1.193353 3.549611
 19 4.972048 0.000000 0.000001 -0.298834 -1.189721 -0.804467
 20 11.585355 0.000000 0.000000 0.000000 -0.000000 -1.504976
 21 10.127057 0.000000 0.000001 1.540768 0.693273 -0.289048
time 12
  0 0.235347 -0.235347 3.532833 -0.000000 -0.000000 -1.570969
  1 2.031312 -0.039064 0.000000 -1.570795 -1.570796 0.000000
  2 -0.000005 0.000007 3.713255 -6.281131 3.115465 6.261712
  3 18.045721 0.000000 0.000000 0.000000 -0.000000 -0.121501
  4 17.597597 0.000000 0.000000 -0.002613 0.026036 0.099967
  5 0.000005 -0.000003 -3.713255 6.280565 -3.124186 6.258640
  6 18.045725 0.000000 0.000000 0.000000 -0.000000 -0.127551
  7 17.597597 0.000000 0.000000 0.002950 -0.017289 0.103055
  8 1.293670 0.684478 -0.000001 -0.000004 -0.000001 0.009520
  9 5.309685 -0.003834 0.000000 0.000000 -0.000000 -0.261655
 10 4.826790 -0.004591 0.000000 -0.156680 -0.009648 -0.061835
 11 5.792767 -0.005304 0.000000 -0.052248 -0.002912 -0.056824
 12 6.662317 -0.001453 0.000000 0.000000 -0.000001 0.471000
 13 2.046985 -0.000002 0.000000 0.209211 0.002139 -0.377907
 14 -3.112024 1.517254 4.341911 1.322747 -0.753821 1.453239
 15 4.827230 0.000000 0.000001 -0.538673 0.283087 -0.656596
 16 11.139763 0.000000 0.000000 0.000000 -0.000000 -0.946070
 17 10.314597 0.000001 0.000000 -3.687047 0.382827 -0.380512
 18 -2.869898 1.399663 -4.140396 0.910111 1.191685 3.543762
 19 4.972048 0.000000 0.000001 -0.294193 -1.186021 -0.809737
 20 11.585355 0.000000 0.000000 0.000000 -0.000000 -1.504976
 21 10.127057 0.000000 0.000001 1.540768 0.693273 -0.289048
time 13
  0 0.235347 -0.235347 3.532833 -0.000000 -0.000000 -1.570969
  1 2.027406 -0.039064 0.000000 -1.570795 -1.570796 0.000000
  2 -0.000005 0.000007 3.713255 -6.281131 3.115465 6.261712
  3 18.045721 0.000000 0.000000 0.000000 -0.000000 -0.121501
  4 17.597597 0.000000 0.000000 -0.002613 0.026036 0.099967
  5 0.000005 -0.000003 -3.713255 6.280565 -3.124186 6.258640
  6 18.045725 0.000000 0.000000 0.000000 -0.000000 -0.127551
  7 17.597597 0.000000 0.000000 0.002950 -0.017289 0.103055
  8 1.293670 0.684478 -0.000001 -0.000004 -0.000001 0.009520
  9 5.309685 -0.003834 0.000000 0.000000 -0.000000 -0.261655
 10 4.826790 -0.004591 0.000000 -0.156713 -0.009516 -0.061042
 11 5.792767 -0.005304 0.000000 -0.052248 -0.002792 -0.054374
 12 6.662317 -0.001453 0.000000 0.000000 -0.000001 0.471000
 13 2.046985 -0.000002 0.000000 0.209211 0.002184 -0.381233
 14 -3.112024 1.517254 4.341911 1.320255 -0.753090 1.457074
 15 4.827230 0.000000 0.000001 -0.537146 0.277641 -0.656771
 16 11.139763 0.000000 0.000000 0.000000 -0.000000 -0.946070
 17 10.314597 0.000001 0.000000 -3.687047 0.382827 -0.380512
 18 -2.869898 1.399663 -4.140396 0.905893 1.190413 3.539544
 19 4.972048 0.000000 0.000001 -0.290712 -1.182964 -0.813756
 20 11.585355 0.000000 0.000000 0.000000 -0.000000 -1.504976
 21 10.127057 0.000000 0.000001 1.540768 0.693273 -0.289048
time 14
  0 0.235347 -0.235347 3.532833 -0.000000 -0.000000 -1.570969
  1 2.027406 -0.039064 0.000000 -1.570795 -1.570796 0.000000
  2 -0.000005 0.000007 3.713255 -6.281131 3.115465 6.261712
  3 18.045721 0.000000 0.000000 0.000000 -0.000000 -0.121501
  4 17.597597 0.000000 0.000000 -0.002613 0.026036 0.099967
  5 0.000005 -0.000003 -3.713255 6.280565 -3.124186 6.258640
  6 18.045725 0.000000 0.000000 0.000000 -0.000000 -0.127551
  7 17.597597 0.000000 0.000000 0.002950 -0.017289 0.103055
  8 1.293670 0.684478 -0.000001 -0.000004 -0.000001 0.009520
  9 5.309685 -0.003834 0.000000 0.000000 -0.000000 -0.261655
 10 4.826790 -0.004591 0.000000 -0.156713 -0.009444 -0.060512
 11 5.792767 -0.005304 0.000000 -0.052248 -0.002721 -0.052796
 12 6.662317 -0.001453 0.000000 0.000000 -0.000001 0.471000
 13 2.046985 -0.000002 0.000000 0.209211 0.002229 -0.383301
 14 -3.112024 1.517254 4.341911 1.318529 -0.752629 1.459663
 15 4.827230 0.000000 0.000001 -0.536206 0.274152 -0.656771
 16 11.139763 0.000000 0.000000 0.000000 -0.000000 -0.946070
 17 10.314597 0.000001 0.000000 -3.687047 0.382827 -0.380512
 18 -2.869898 1.399663 -4.140396 0.903400 1.189650 3.536764
 19 4.972048 0.000000 0.000001 -0.288469 -1.181114 -0.816325
 20 11.585355 0.000000 0.000000 0.000000 -0.000000 -1.504976
 21 10.127057 0.000000 0.000001 1.540768 0.693273 -0.289048
time 15
  0 0.235347 -0.235347 3.532833 -0.000000 -0.000000 -1.570969
  1 2.019593 -0.039064 0.000000 -1.570795 -1.570796 0.000000
  2 -0.000005 0.000007 3.713255 -6.281131 3.115465 6.261712
  3 18.045721 0.000000 0.000000 0.000000 -0.000000 -0.121501
  4 17.597597 0.000000 0.000000 -0.002613 0.026036 0.099967
  5 0.000005 -0.000003 -3.713255 6.280565 -3.124186 6.258640
  6 18.045725 0.000000 0.000000 0.000000 -0.000000 -0.127551
  7 17.597597 0.000000 0.000000 0.002950 -0.017289 0.103055
  8 1.293670 0.684478 -0.000001 -0.000004 -0.000001 0.009520
  9 5.309685 -0.003834 0.000000 0.000000 -0.000000 -0.261655
 10 4.826790 -0.004591 0.000000 -0.156713 -0.009408 -0.060336
 11 5.792767 -0.005304 0.000000 -0.052248 -0.002685 -0.052257
 12 6.662317 -0.001453 0.000000 0.000000 -0.000001 0.471000
 13 2.046985 -0.000002 0.000000 0.209211 0.002229 -0.384065
 14 -3.112024 1.517254 4.341911 1.317954 -0.752475 1.460526
 15 4.827230 0.000000 0.000001 -0.535853 0.272790 -0.656771
 16 11.139763 0.000000 0.000000 0.000000 -0.000000 -0.946070
 17 10.314597 0.000001 0.000000 -3.687047 0.382827 -0.380512
 18 -2.869898 1.399663 -4.140396 0.902441 1.189311 3.535613
 19 4.972048 0.000000 0.000001 -0.287618 -1.180551 -0.817247
 20 11.585355 0.000000 0.000000 0.000000 -0.000000 -1.504976
 21 10.127057 0.000000 0.000001 1.540768 0.693273 -0.289048
time 16
  0 0.235347 -0.235347 3.532833 -0.000000 -0.000000 -1.570969
  1 2.027406 -0.039064 0.000000 -1.570795 -1.570796 0.000000
  2 -0.000005 0.000007 3.713255 -6.281131 3.115465 6.261712
  3 18.045721 0.000000 0.000000 0.000000 -0.000000 -0.121501
  4 17.597597 0.000000 0.000000 -0.002613 0.026036 0.099967
  5 0.000005 -0.000003 -3.713255 6.280565 -3.124186 6.258640
  6 18.045725 0.000000 0.000000 0.000000 -0.000000 -0.127551
  7 17.597597 0.000000 0.000000 0.002950 -0.017289 0.103055
  8 1.293670 0.684478 -0.000001 -0.000004 -0.000001 0.009520
  9 5.309685 -0.003834 0.000000 0.000000 -0.000000 -0.261655
 10 4.826790 -0.004591 0.000000 -0.156713 -0.009444 -0.060512
 11 5.792767 -0.005304 0.000000 -0.052248 -0.002721 -0.052796
 12 6.662317 -0.001453 0.000000 0.000000 -0.000001 0.471000
 13 2.046985 -0.000002 0.000000 0.209211 0.002229 -0.383301
 14 -3.112024 1.517254 4.341911 1.318529 -0.752629 1.459663
 15 4.827230 0.000000 0.000001 -0.536206 0.274152 -0.656771
 16 11.139763 0.000000 0.000000 0.000000 -0.000000 -0.946070
 17 10.314597 0.000001 0.000000 -3.687047 0.382827 -0.380512
 18 -2.869898 1.399663 -4.140396 0.903400 1.189650 3.536764
 19 4.972048 0.000000 0.000001 -0.288469 -1.181114 -0.816325
 20 11.585355 0.000000 0.000000 0.000000 -0.000000 -1.504976
 21 10.127057 0.000000 0.000001 1.540768 0.693273 -0.289048
time 17
  0 0.235347 -0.235347 3.532833 -0.000000 -0.000000 -1.570969
  1 2.027406 -0.039064 0.000000 -1.570795 -1.570796 0.000000
  2 -0.000005 0.000007 3.713255 -6.281131 3.115465 6.261712
  3 18.045721 0.000000 0.000000 0.000000 -0.000000 -0.121501
  4 17.597597 0.000000 0.000000 -0.002613 0.026036 0.099967
  5 0.000005 -0.000003 -3.713255 6.280565 -3.124186 6.258640
  6 18.045725 0.000000 0.000000 0.000000 -0.000000 -0.127551
  7 17.597597 0.000000 0.000000 0.002950 -0.017289 0.103055
  8 1.293670 0.684478 -0.000001 -0.000004 -0.000001 0.009520
  9 5.309685 -0.003834 0.000000 0.000000 -0.000000 -0.261655
 10 4.826790 -0.004591 0.000000 -0.156713 -0.009516 -0.061042
 11 5.792767 -0.005304 0.000000 -0.052248 -0.002792 -0.054374
 12 6.662317 -0.001453 0.000000 0.000000 -0.000001 0.471000
 13 2.046985 -0.000002 0.000000 0.209211 0.002184 -0.381233
 14 -3.112024 1.517254 4.341911 1.320255 -0.753090 1.457074
 15 4.827230 0.000000 0.000001 -0.537146 0.277641 -0.656771
 16 11.139763 0.000000 0.000000 0.000000 -0.000000 -0.946070
 17 10.314597 0.000001 0.000000 -3.687047 0.382827 -0.380512
 18 -2.869898 1.399663 -4.140396 0.905893 1.190413 3.539544
 19 4.972048 0.000000 0.000001 -0.290712 -1.182964 -0.813756
 20 11.585355 0.000000 0.000000 0.000000 -0.000000 -1.504976
 21 10.127057 0.000000 0.000001 1.540768 0.693273 -0.289048
time 18
  0 0.235347 -0.235347 3.532833 -0.000000 -0.000000 -1.570969
  1 2.031312 -0.039064 0.000000 -1.570795 -1.570796 0.000000
  2 -0.000005 0.000007 3.713255 -6.281131 3.115465 6.261712
  3 18.045721 0.000000 0.000000 0.000000 -0.000000 -0.121501
  4 17.597597 0.000000 0.000000 -0.002613 0.026036 0.099967
  5 0.000005 -0.000003 -3.713255 6.280565 -3.124186 6.258640
  6 18.045725 0.000000 0.000000 0.000000 -0.000000 -0.127551
  7 17.597597 0.000000 0.000000 0.002950 -0.017289 0.103055
  8 1.293670 0.684478 -0.000001 -0.000004 -0.000001 0.009520
  9 5.309685 -0.003834 0.000000 0.000000 -0.000000 -0.261655
 10 4.826790 -0.004591 0.000000 -0.156680 -0.009648 -0.061835
 11 5.792767 -0.005304 0.000000 -0.052248 -0.002912 -0.056824
 12 6.662317 -0.001453 0.000000 0.000000 -0.000001 0.471000
 13 2.046985 -0.000002 0.000000 0.209211 0.002139 -0.377907
 14 -3.112024 1.517254 4.341911 1.322747 -0.753821 1.453239
 15 4.827230 0.000000 0.000001 -0.538673 0.283087 -0.656596
 16 11.139763 0.000000 0.000000 0.000000 -0.000000 -0.946070
 17 10.314597 0.000001 0.000000 -3.687047 0.382827 -0.380512
 18 -2.869898 1.399663 -4.140396 0.910111 1.191685 3.543762
 19 4.972048 0.000000 0.000001 -0.294193 -1.186021 -0.809737
 20 11.585355 0.000000 0.000000 0.000000 -0.000000 -1.504976
 21 10.127057 0.000000 0.000001 1.540768 0.693273 -0.289048
time 19
  0 0.235347 -0.235347 3.532833 -0.000000 -0.000000 -1.570969
  1 2.039125 -0.039064 0.000000 -1.570795 -1.570796 0.000000
  2 -0.000005 0.000007 3.713255 -6.281131 3.115465 6.261712
  3 18.045721 0.000000 0.000000 0.000000 -0.000000 -0.121501
  4 17.597597 0.000000 0.000000 -0.002613 0.026036 0.099967
  5 0.000005 -0.000003 -3.713255 6.280565 -3.124186 6.258640
  6 18.045725 0.000000 0.000000 0.000000 -0.000000 -0.127551
  7 17.597597 0.000000 0.000000 0.002950 -0.017289 0.103055
  8 1.293670 0.684478 -0.000001 -0.000004 -0.000001 0.009520
  9 5.309685 -0.003834 0.000000 0.000000 -0.000000 -0.261655
 10 4.826790 -0.004591 0.000000 -0.156664 -0.009803 -0.062894
 11 5.792767 -0.005304 0.000000 -0.052232 -0.003080 -0.060043
 12 6.662317 -0.001453 0.000000 0.000000 -0.000001 0.471000
 13 2.046985 -0.000002 0.000000 0.209211 0.002094 -0.373637
 14 -3.112024 1.517254 4.341911 1.326295 -0.754706 1.448349
 15 4.827230 0.000000 0.000001 -0.540552 0.290321 -0.656246
 16 11.139763 0.000000 0.000000 0.000000 -0.000000 -0.946070
 17 10.314597 0.000001 0.000000 -3.687047 0.382827 -0.380512
 18 -2.869898 1.399663 -4.140396 0.915288 1.193353 3.549611
 19 4.972048 0.000000 0.000001 -0.298834 -1.189721 -0.804467
 20 11.585355 0.000000 0.000000 0.000000 -0.000000 -1.504976
 21 10.127057 0.000000 0.000001 1.540768 0.693273 -0.289048
time 20
  0 0.235347 -0.235347 3.532833 -0.000000 -0.000000 -1.570969
  1 2.043031 -0.042970 0.000000 -1.570795 -1.570796 0.000000
  2 -0.000005 0.000007 3.713255 -6.281131 3.115465 6.261712
  3 18.045721 0.000000 0.000000 0.000000 -0.000000 -0.121501
  4 17.597597 0.000000 0.000000 -0.002613 0.026036 0.099967
  5 0.000005 -0.000003 -3.713255 6.280565 -3.124186 6.258640
  6 18.045725 0.000000 0.000000 0.000000 -0.000000 -0.127551
  7 17.597597 0.000000 0.000000 0.002950 -0.017289 0.103055
  8 1.293670 0.684478 -0.000001 -0.000004 -0.000001 0.009520
  9 5.309685 -0.003834 0.000000 0.000000 -0.000000 -0.261655
 10 4.826790 -0.004591 0.000000 -0.156664 -0.010007 -0.064150
 11 5.792767 -0.005304 0.000000 -0.052215 -0.003296 -0.063842
 12 6.662317 -0.001453 0.000000 0.000000 -0.000001 0.471000
 13 2.046985 -0.000002 0.000000 0.209211 0.002004 -0.368558
 14 -3.112024 1.517254 4.341911 1.330225 -0.755783 1.442405
 15 4.827230 0.000000 0.000001 -0.542961 0.298831 -0.656071
 16 11.139763 0.000000 0.000000 0.000000 -0.000000 -0.946070
 17 10.314597 0.000001 0.000000 -3.687047 0.382827 -0.380512
 18 -2.869898 1.399663 -4.140396 0.921808 1.195246 3.556514
 19 4.972048 0.000000 0.000001 -0.304481 -1.194226 -0.798078
 20 11.585355 0.000000 0.000000 0.000000 -0.000000 -1.504976
 21 10.127057 0.000000 0.000001 1.540768 0.693273 -0.289048
time 21
  0 0.235347 -0.235347 3.532833 -0.000000 -0.000000 -1.570969
  1 2.058657 -0.042970 0.000000 -1.570795 -1.570796 0.000000
  2 -0.000005 0.000007 3.713255 -6.281131 3.115465 6.261712
  3 18.045721 0.000000 0.000000 0.000000 -0.000000 -0.121501
  4 17.597597 0.000000 0.000000 -0.002613 0.026036 0.099967
  5 0.000005 -0.000003 -3.713255 6.280565 -3.124186 6.258640
  6 18.045725 0.000000 0.000000 0.000000 -0.000000 -0.127551
  7 17.597597 0.000000 0.000000 0.002950 -0.017289 0.103055
  8 1.293670 0.684478 -0.000001 -0.000004 -0.000001 0.009520
  9 5.309685 -0.003834 0.000000 0.000000 -0.000000 -0.261655
 10 4.826790 -0.004591 0.000000 -0.156664 -0.010235 -0.065561
 11 5.792767 -0.005304 0.000000 -0.052199 -0.003511 -0.068119
 12 6.662317 -0.001453 0.000000 0.000000 -0.000001 0.471000
 13 2.046985 -0.000002 0.000000 0.209211 0.001959 -0.362804
 14 -3.112024 1.517254 4.341911 1.334827 -0.756975 1.435790
 15 4.827230 0.000000 0.000001 -0.545545 0.308277 -0.655896
 16 11.139763 0.000000 0.000000 0.000000 -0.000000 -0.946070
 17 10.314597 0.000001 0.000000 -3.687047 0.382827 -0.380512
 18 -2.869898 1.399663 -4.140396 0.928902 1.197423 3.564183
 19 4.972048 0.000000 0.000001 -0.311134 -1.199294 -0.790700
 20 11.585355 0.000000 0.000000 0.000000 -0.000000 -1.504976
 21 10.127057 0.000000 0.000001 1.540768 0.693273 -0.289048
time 22
  0 0.235347 -0.235347 3.532833 -0.000000 -0.000000 -1.570969
  1 2.062563 -0.050783 0.000000 -1.570795 -1.570796 0.000000
  2 -0.000005 0.000007 3.713255 -6.281131 3.115465 6.261712
  3 18.045721 0.000000 0.000000 0.000000 -0.000000 -0.121501
  4 17.597597 0.000000 0.000000 -0.002613 0.026036 0.099967
  5 0.000005 -0.000003 -3.713255 6.280565 -3.124186 6.258640
  6 18.045725 0.000000 0.000000 0.000000 -0.000000 -0.127551
  7 17.597597 0.000000 0.000000 0.002950 -0.017289 0.103055
  8 1.293670 0.684478 -0.000001 -0.000004 -0.000001 0.009520
  9 5.309685 -0.003834 0.000000 0.000000 -0.000000 -0.261655
 10 4.826790 -0.004591 0.000000 -0.156631 -0.010475 -0.067083
 11 5.792767 -0.005304 0.000000 -0.052183 -0.003751 -0.072750
 12 6.662317 -0.001453 0.000000 0.000000 -0.000001 0.471000
 13 2.046985 -0.000002 0.000000 0.209211 0.001869 -0.356692
 14 -3.112024 1.517254 4.341911 1.339813 -0.758206 1.428503
 15 4.827230 0.000000 0.000001 -0.548306 0.318574 -0.655720
 16 11.139763 0.000000 0.000000 0.000000 -0.000000 -0.946070
 17 10.314597 0.000001 0.000000 -3.687047 0.382827 -0.380512
 18 -2.869898 1.399663 -4.140396 0.936860 1.199712 3.572620
 19 4.972048 0.000000 0.000001 -0.318405 -1.204844 -0.782598
 20 11.585355 0.000000 0.000000 0.000000 -0.000000 -1.504976
 21 10.127057 0.000000 0.000001 1.540768 0.693273 -0.289048
time 23
  0 0.235347 -0.235347 3.532833 -0.000000 -0.000000 -1.570969
  1 2.070376 -0.050783 0.000000 -1.570795 -1.570796 0.000000
  2 -0.000005 0.000007 3.713255 -6.281131 3.115465 6.261712
  3 18.045721 0.000000 0.000000 0.000000 -0.000000 -0.121501
  4 17.597597 0.000000 0.000000 -0.002613 0.026036 0.099967
  5 0.000005 -0.000003 -3.713255 6.280565 -3.124186 6.258640
  6 18.045725 0.000000 0.000000 0.000000 -0.000000 -0.127551
  7 17.597597 0.000000 0.000000 0.002950 -0.017289 0.103055
  8 1.293670 0.684478 -0.000001 -0.000004 -0.000001 0.009520
  9 5.309685 -0.003834 0.000000 0.000000 -0.000000 -0.261655
 10 4.826790 -0.004591 0.000000 -0.156631 -0.010714 -0.068670
 11 5.792767 -0.005304 0.000000 -0.052166 -0.004015 -0.077525
 12 6.662317 -0.001453 0.000000 0.000000 -0.000001 0.471000
 13 2.046985 -0.000002 0.000000 0.209211 0.001779 -0.350354
 14 -3.112024 1.517254 4.341911 1.344990 -0.759475 1.421121
 15 4.827230 0.000000 0.000001 -0.551184 0.329297 -0.655633
 16 11.139763 0.000000 0.000000 0.000000 -0.000000 -0.946070
 17 10.314597 0.000001 0.000000 -3.687047 0.382827 -0.380512
 18 -2.869898 1.399663 -4.140396 0.945201 1.202058 3.581536
 19 4.972048 0.000000 0.000001 -0.326218 -1.210314 -0.773903
 20 11.585355 0.000000 0.000000 0.000000 -0.000000 -1.504976
 21 10.127057 0.000000 0.000001 1.540768 0.693273 -0.289048
time 24
  0 0.235347 -0.235347 3.532833 -0.000000 -0.000000 -1.570969
  1 2.082095 -0.050783 0.000000 -1.570795 -1.570796 0.000000
  2 -0.000005 0.000007 3.713255 -6.281131 3.115465 6.261712
  3 18.045721 0.000000 0.000000 0.000000 -0.000000 -0.121501
  4 17.597597 0.000000 0.000000 -0.002613 0.026036 0.099967
  5 0.000005 -0.000003 -3.713255 6.280565 -3.124186 6.258640
  6 18.045725 0.000000 0.000000 0.000000 -0.000000 -0.127551
  7 17.597597 0.000000 0.000000 0.002950 -0.017289 0.103055
  8 1.293670 0.684478 -0.000001 -0.000004 -0.000001 0.009520
  9 5.309685 -0.003834 0.000000 0.000000 -0.000000 -0.261655
 10 4.826790 -0.004591 0.000000 -0.156598 -0.010978 -0.070258
 11 5.792767 -0.005304 0.000000 -0.052150 -0.004267 -0.082363
 12 6.662317 -0.001453 0.000000 0.000000 -0.000001 0.471000
 13 2.046985 -0.000002 0.000000 0.209211 0.001689 -0.343836
 14 -3.112024 1.517254 4.341911 1.350263 -0.760745 1.413451
 15 4.827230 0.000000 0.000001 -0.554120 0.340190 -0.655545
 16 11.139763 0.000000 0.000000 0.000000 -0.000000 -0.946070
 17 10.314597 0.000001 0.000000 -3.687047 0.382827 -0.380512
 18 -2.869898 1.399663 -4.140396 0.953637 1.204404 3.590836
 19 4.972048 0.000000 0.000001 -0.334495 -1.216106 -0.764944
 20 11.585355 0.000000 0.000000 0.000000 -0.000000 -1.504976
 21 10.127057 0.000000 0.000001 1.540768 0.693273 -0.289048
time 25
  0 0.235347 -0.235347 3.532833 -0.000000 -0.000000 -1.570969
  1 2.093814 -0.050783 0.000000 -1.570795 -1.570796 0.000000
  2 -0.000005 0.000007 3.713255 -6.281131 3.115465 6.261712
  3 18.045721 0.000000 0.000000 0.000000 -0.000000 -0.121501
  4 17.597597 0.000000 0.000000 -0.002613 0.026036 0.099967
  5 0.000005 -0.000003 -3.713255 6.280565 -3.124186 6.258640
  6 18.045725 0.000000 0.000000 0.000000 -0.000000 -0.127551
  7 17.597597 0.000000 0.000000 0.002950 -0.017289 0.103055
  8 1.293670 0.684478 -0.000001 -0.000004 -0.000001 0.009520
  9 5.309685 -0.003834 0.000000 0.000000 -0.000000 -0.261655
 10 4.826790 -0.004591 0.000000 -0.156598 -0.011230 -0.071823
 11 5.792767 -0.005304 0.000000 -0.052134 -0.004494 -0.087097
 12 6.662317 -0.001453 0.000000 0.000000 -0.000001 0.471000
 13 2.046985 -0.000002 0.000000 0.209211 0.001599 -0.337544
 14 -3.112024 1.517254 4.341911 1.355440 -0.761937 1.405972
 15 4.827230 0.000000 0.000001 -0.556998 0.350657 -0.655545
 16 11.139763 0.000000 0.000000 0.000000 -0.000000 -0.946070
 17 10.314597 0.000001 0.000000 -3.687047 0.382827 -0.380512
 18 -2.869898 1.399663 -4.140396 0.962074 1.206665 3.599752
 19 4.972048 0.000000 0.000001 -0.342849 -1.221576 -0.755854
 20 11.585355 0.000000 0.000000 0.000000 -0.000000 -1.504976
 21 10.127057 0.000000 0.000001 1.540768 0.693273 -0.289048
time 26
  0 0.235347 -0.235347 3.532833 -0.000000 -0.000000 -1.570969
  1 2.101627 -0.058596 0.000000 -1.570795 -1.570796 0.000000
  2 -0.000005 0.000007 3.713255 -6.281131 3.115465 6.261712
  3 18.045721 0.000000 0.000000 0.000000 -0.000000 -0.121501
  4 17.597597 0.000000 0.000000 -0.002613 0.026036 0.099967
  5 0.000005 -0.000003 -3.713255 6.280565 -3.124186 6.258640
  6 18.045725 0.000000 0.000000 0.000000 -0.000000 -0.127551
  7 17.597597 0.000000 0.000000 0.002950 -0.017289 0.103055
  8 1.293670 0.684478 -0.000001 -0.000004 -0.000001 0.009520
  9 5.309685 -0.003834 0.000000 0.000000 -0.000000 -0.261655
 10 4.826790 -0.004591 0.000000 -0.156582 -0.011445 -0.073300
 11 5.792767 -0.005304 0.000000 -0.052101 -0.004746 -0.091581
 12 6.662317 -0.001453 0.000000 0.000000 -0.000001 0.471000
 13 2.046985 -0.000002 0.000000 0.209211 0.001553 -0.331566
 14 -3.112024 1.517254 4.341911 1.360330 -0.763053 1.398782
 15 4.827230 0.000000 0.000001 -0.559818 0.360784 -0.655545
 16 11.139763 0.000000 0.000000 0.000000 -0.000000 -0.946070
 17 10.314597 0.000001 0.000000 -3.687047 0.382827 -0.380512
 18 -2.869898 1.399663 -4.140396 0.970223 1.208813 3.608573
 19 4.972048 0.000000 0.000001 -0.350894 -1.226885 -0.746961
 20 11.585355 0.000000 0.000000 0.000000 -0.000000 -1.504976
 21 10.127057 0.000000 0.000001 1.540768 0.693273 -0.289048
time 27
  0 0.235347 -0.235347 3.532833 -0.000000 -0.000000 -1.570969
  1 2.113346 -0.058596 0.000000 -1.570795 -1.570796 0.000000
  2 -0.000005 0.000007 3.713255 -6.281131 3.115465 6.261712
  3 18.045721 0.000000 0.000000 0.000000 -0.000000 -0.121501
  4 17.597597 0.000000 0.000000 -0.002613 0.026036 0.099967
  5 0.000005 -0.000003 -3.713255 6.280565 -3.124186 6.258640
  6 18.045725 0.000000 0.000000 0.000000 -0.000000 -0.127551
  7 17.597597 0.000000 0.000000 0.002950 -0.017289 0.103055
  8 1.293670 0.684478 -0.000001 -0.000004 -0.000001 0.009520
  9 5.309685 -0.003834 0.000000 0.000000 -0.000000 -0.261655
 10 4.826790 -0.004591 0.000000 -0.156549 -0.011673 -0.074667
 11 5.792767 -0.005304 0.000000 -0.052085 -0.004962 -0.095734
 12 6.662317 -0.001453 0.000000 0.000000 -0.000001 0.471000
 13 2.046985 -0.000002 0.000000 0.209211 0.001486 -0.325992
 14 -3.112024 1.517254 4.341911 1.364836 -0.764014 1.392358
 15 4.827230 0.000000 0.000001 -0.562344 0.370060 -0.655633
 16 11.139763 0.000000 0.000000 0.000000 -0.000000 -0.946070
 17 10.314597 0.000001 0.000000 -3.687047 0.382827 -0.380512
 18 -2.869898 1.399663 -4.140396 0.977797 1.210735 3.616626
 19 4.972048 0.000000 0.000001 -0.358707 -1.231631 -0.738595
 20 11.585355 0.000000 0.000000 0.000000 -0.000000 -1.504976
 21 10.127057 0.000000 0.000001 1.540768 0.693273 -0.289048
time 28
  0 0.235347 -0.235347 3.532833 -0.000000 -0.000000 -1.570969
  1 2.121159 -0.058596 0.000000 -1.570795 -1.570796 0.000000
  2 -0.000005 0.000007 3.713255 -6.281131 3.115465 6.261712
  3 18.045721 0.000000 0.000000 0.000000 -0.000000 -0.121501
  4 17.597597 0.000000 0.000000 -0.002613 0.026036 0.099967
  5 0.000005 -0.000003 -3.713255 6.280565 -3.124186 6.258640
  6 18.045725 0.000000 0.000000 0.000000 -0.000000 -0.127551
  7 17.597597 0.000000 0.000000 0.002950 -0.017289 0.103055
  8 1.293670 0.684478 -0.000001 -0.000004 -0.000001 0.009520
  9 5.309685 -0.003834 0.000000 0.000000 -0.000000 -0.261655
 10 4.826790 -0.004591 0.000000 -0.156549 -0.011865 -0.075858
 11 5.792767 -0.005304 0.000000 -0.052069 -0.005141 -0.099347
 12 6.662317 -0.001453 0.000000 0.000000 -0.000001 0.471000
 13 2.046985 -0.000002 0.000000 0.209211 0.001396 -0.321183
 14 -3.112024 1.517254 4.341911 1.368670 -0.764899 1.386509
 15 4.827230 0.000000 0.000001 -0.564575 0.378230 -0.655896
 16 11.139763 0.000000 0.000000 0.000000 -0.000000 -0.946070
 17 10.314597 0.000001 0.000000 -3.687047 0.382827 -0.380512
 18 -2.869898 1.399663 -4.140396 0.984509 1.212431 3.623721
 19 4.972048 0.000000 0.000001 -0.365669 -1.235814 -0.731020
 20 11.585355 0.000000 0.000000 0.000000 -0.000000 -1.504976
 21 10.127057 0.000000 0.000001 1.540768 0.693273 -0.289048
time 29
  0 0.235347 -0.235347 3.532833 -0.000000 -0.000000 -1.570969
  1 2.125065 -0.062502 0.000000 -1.570795 -1.570796 0.000000
  2 -0.000005 0.000007 3.713255 -6.281131 3.115465 6.261712
  3 18.045721 0.000000 0.000000 0.000000 -0.000000 -0.121501
  4 17.597597 0.000000 0.000000 -0.002613 0.026036 0.099967
  5 0.000005 -0.000003 -3.713255 6.280565 -3.124186 6.258640
  6 18.045725 0.000000 0.000000 0.000000 -0.000000 -0.127551
  7 17.597597 0.000000 0.000000 0.002950 -0.017289 0.103055
  8 1.293670 0.684478 -0.000001 -0.000004 -0.000001 0.009520
  9 5.309685 -0.003834 0.000000 0.000000 -0.000000 -0.261655
 10 4.826790 -0.004591 0.000000 -0.156516 -0.012021 -0.076850
 11 5.792767 -0.005304 0.000000 -0.052052 -0.005297 -0.102316
 12 6.662317 -0.001453 0.000000 0.000000 -0.000001 0.471000
 13 2.046985 -0.000002 0.000000 0.209168 0.001351 -0.317183
 14 -3.112024 1.517254 4.341911 1.372122 -0.765591 1.381811
 15 4.827230 0.000000 0.000001 -0.566396 0.384868 -0.655896
 16 11.139763 0.000000 0.000000 0.000000 -0.000000 -0.946070
 17 10.314597 0.000001 0.000000 -3.687047 0.382827 -0.380512
 18 -2.869898 1.399663 -4.140396 0.990069 1.213816 3.629665
 19 4.972048 0.000000 0.000001 -0.371548 -1.239112 -0.724762
 20 11.585355 0.000000 0.000000 0.000000 -0.000000 -1.504976
 21 10.127057 0.000000 0.000001 1.540768 0.693273 -0.289048
time 30
  0 0.235347 -0.235347 3.532833 -0.000000 -0.000000 -1.570969
  1 2.125065 -0.062502 0.000000 -1.570795 -1.570796 0.000000
  2 -0.000005 0.000007 3.713255 -6.281131 3.115465 6.261712
  3 18.045721 0.000000 0.000000 0.000000 -0.000000 -0.121501
  4 17.597597 0.000000 0.000000 -0.002613 0.026036 0.099967
  5 0.000005 -0.000003 -3.713255 6.280565 -3.124186 6.258640
  6 18.045725 0.000000 0.000000 0.000000 -0.000000 -0.127551
  7 17.597597 0.000000 0.000000 0.002950 -0.017289 0.103055
  8 1.293670 0.684478 -0.000001 -0.000004 -0.000001 0.009520
  9 5.309685 -0.003834 0.000000 0.000000 -0.000000 -0.261655
 10 4.826790 -0.004591 0.000000 -0.156516 -0.012116 -0.077556
 11 5.792767 -0.005304 0.000000 -0.052036 -0.005405 -0.104517
 12 6.662317 -0.001453 0.000000 0.000000 -0.000001 0.471000
 13 2.046985 -0.000002 0.000000 0.209168 0.001306 -0.314306
 14 -3.112024 1.517254 4.341911 1.374519 -0.766091 1.378456
 15 4.827230 0.000000 0.000001 -0.567806 0.389804 -0.656071
 16 11.139763 0.000000 0.000000 0.000000 -0.000000 -0.946070
 17 10.314597 0.000001 0.000000 -3.687047 0.382827 -0.380512
 18 -2.869898 1.399663 -4.140396 0.994288 1.214777 3.634075
 19 4.972048 0.000000 0.000001 -0.375957 -1.241686 -0.720085
 20 11.585355 0.000000 0.000000 0.000000 -0.000000 -1.504976
 21 10.127057 0.000000 0.000001 1.540768 0.693273 -0.289048
end
