version 1
nodes
  0 "Bip01"  -1
  1 "Bip01 Pelvis"   0
  2 "Bip01 L Leg"   1
  3 "Bip01 L Leg1"   2
  4 "Bip01 L Foot"   3
  5 "Bip01 R Leg"   1
  6 "Bip01 R Leg1"   5
  7 "Bip01 R Foot"   6
  8 "Bip01 Spine"   1
  9 "Bip01 Spine1"   8
 10 "Bip01 Spine2"   9
 11 "Bip01 Spine3"  10
 12 "Bip01 Neck"  11
 13 "Bip01 Head"  12
 14 "Bip01 L Arm"  12
 15 "Bip01 L Arm1"  14
 16 "Bip01 L Arm2"  15
 17 "Bip01 L Hand"  16
 18 "Bip01 R Arm"  12
 19 "Bip01 R Arm1"  18
 20 "Bip01 R Arm2"  19
 21 "Bip01 R Hand"  20
end
skeleton
time 0
  0 0.235347 -0.235347 3.532833 -0.000000 -0.000000 -1.570969
  1 0.000000 0.000000 0.000000 -1.570795 -1.570796 0.000000
  2 -0.000005 0.000007 3.713255 -6.281131 3.115465 6.261712
  3 18.045721 0.000000 0.000000 0.000000 -0.000000 -0.121501
  4 17.597597 0.000000 0.000000 -0.002613 0.026036 0.099967
  5 0.000005 -0.000003 -3.713255 6.280565 -3.124186 6.258640
  6 18.045725 0.000000 0.000000 0.000000 -0.000000 -0.127551
  7 17.597597 0.000000 0.000000 0.002950 -0.017289 0.103055
  8 1.293670 0.684478 -0.000001 -0.000004 -0.000001 -0.007924
  9 5.309685 -0.003834 0.000000 -0.224662 -0.031088 -0.136037
 10 4.826790 -0.004591 0.000000 -0.120934 -0.016826 -0.138519
 11 5.792767 -0.005304 0.000000 -0.104186 -0.009911 -0.095402
 12 6.662317 -0.001453 0.000000 0.000000 -0.000001 0.471000
 13 2.046985 -0.000002 0.000000 0.589848 0.415254 -0.207735
 14 -3.112024 1.517254 4.341911 1.167912 -1.093543 1.546335
 15 4.827230 0.000000 0.000001 -0.792355 0.287683 -0.806240
 16 11.139763 0.000000 0.000000 0.000000 -0.000000 -1.371384
 17 10.314597 0.000001 0.000000 -2.987507 -0.064638 0.326464
 18 -2.869898 1.399663 -4.140396 -0.700750 1.311553 1.985824
 19 4.972048 0.000000 0.000001 1.265046 -0.186381 -2.041553
 20 11.585355 0.000000 0.000000 0.000000 -0.000000 -0.621770
 21 10.127057 0.000000 0.000001 1.721681 0.262810 0.362604
time 1
  0 0.235347 -0.235347 3.532833 -0.000000 -0.000000 -1.570969
  1 0.000000 0.000000 0.000000 -1.570795 -1.570796 0.000000
  2 -0.000005 0.000007 3.713255 -6.281131 3.115465 6.261712
  3 18.045721 0.000000 0.000000 0.000000 -0.000000 -0.121501
  4 17.597597 0.000000 0.000000 -0.002613 0.026036 0.099967
  5 0.000005 -0.000003 -3.713255 6.280565 -3.124186 6.258640
  6 18.045725 0.000000 0.000000 0.000000 -0.000000 -0.127551
  7 17.597597 0.000000 0.000000 0.002950 -0.017289 0.103055
  8 1.293670 0.684478 -0.000001 -0.000004 -0.000001 -0.007924
  9 5.309685 -0.003834 0.000000 -0.224662 -0.031088 -0.136037
 10 4.826790 -0.004591 0.000000 -0.120950 -0.016707 -0.137439
 11 5.792767 -0.005304 0.000000 -0.104186 -0.009911 -0.095402
 12 6.662317 -0.001453 0.000000 0.000000 -0.000001 0.471000
 13 2.046985 -0.000002 0.000000 0.589848 0.415366 -0.208814
 14 -3.112024 1.517254 4.341911 1.165324 -1.092966 1.549211
 15 4.827230 0.000000 0.000001 -0.791474 0.285555 -0.806240
 16 11.139763 0.000000 0.000000 0.000000 -0.000000 -1.371384
 17 10.314597 0.000001 0.000000 -2.987507 -0.064638 0.326464
 18 -2.869898 1.399663 -4.140396 -0.696340 1.310197 1.990234
 19 4.972048 0.000000 0.000001 1.262803 -0.186381 -2.041290
 20 11.585355 0.000000 0.000000 0.000000 -0.000000 -0.621770
 21 10.127057 0.000000 0.000001 1.721681 0.262810 0.362604
time 2
  0 0.235347 -0.235347 3.532833 -0.000000 -0.000000 -1.570969
  1 0.000000 0.000000 0.000000 -1.570795 -1.570796 0.000000
  2 -0.000005 0.000007 3.713255 -6.281131 3.115465 6.261712
  3 18.045721 0.000000 0.000000 0.000000 -0.000000 -0.121501
  4 17.597597 0.000000 0.000000 -0.002613 0.026036 0.099967
  5 0.000005 -0.000003 -3.713255 6.280565 -3.124186 6.258640
  6 18.045725 0.000000 0.000000 0.000000 -0.000000 -0.127551
  7 17.597597 0.000000 0.000000 0.002950 -0.017289 0.103055
  8 1.293670 0.684478 -0.000001 -0.000004 -0.000001 -0.007924
  9 5.309685 -0.003834 0.000000 -0.224662 -0.031088 -0.136037
 10 4.826790 -0.004591 0.000000 -0.120983 -0.016527 -0.135962
 11 5.792767 -0.005304 0.000000 -0.104186 -0.009911 -0.095402
 12 6.662317 -0.001453 0.000000 0.000000 -0.000001 0.471000
 13 2.046985 -0.000002 0.000000 0.589891 0.415524 -0.210252
 14 -3.112024 1.517254 4.341911 1.161776 -1.092158 1.553142
 15 4.827230 0.000000 0.000001 -0.790358 0.282747 -0.806065
 16 11.139763 0.000000 0.000000 0.000000 -0.000000 -1.371384
 17 10.314597 0.000001 0.000000 -2.987507 -0.064638 0.326464
 18 -2.869898 1.399663 -4.140396 -0.690492 1.308246 1.996370
 19 4.972048 0.000000 0.000001 1.259941 -0.186220 -2.041026
 20 11.585355 0.000000 0.000000 0.000000 -0.000000 -0.621770
 21 10.127057 0.000000 0.000001 1.721681 0.262810 0.362604
time 3
  0 0.235347 -0.235347 3.532833 -0.000000 -0.000000 -1.570969
  1 0.000000 0.000000 0.000000 -1.570795 -1.570796 0.000000
  2 -0.000005 0.000007 3.713255 -6.281131 3.115465 6.261712
  3 18.045721 0.000000 0.000000 0.000000 -0.000000 -0.121501
  4 17.597597 0.000000 0.000000 -0.002613 0.026036 0.099967
  5 0.000005 -0.000003 -3.713255 6.280565 -3.124186 6.258640
  6 18.045725 0.000000 0.000000 0.000000 -0.000000 -0.127551
  7 17.597597 0.000000 0.000000 0.002950 -0.017289 0.103055
  8 1.293670 0.684478 -0.000001 -0.000004 -0.000001 -0.007924
  9 5.309685 -0.003834 0.000000 -0.224662 -0.031088 -0.136037
 10 4.826790 -0.004591 0.000000 -0.121016 -0.016299 -0.134154
 11 5.792767 -0.005304 0.000000 -0.104186 -0.009911 -0.095402
 12 6.662317 -0.001453 0.000000 0.000000 -0.000001 0.471000
 13 2.046985 -0.000002 0.000000 0.589934 0.415704 -0.212050
 14 -3.112024 1.517254 4.341911 1.157654 -1.091196 1.558032
 15 4.827230 0.000000 0.000001 -0.788890 0.279428 -0.806065
 16 11.139763 0.000000 0.000000 0.000000 -0.000000 -1.371384
 17 10.314597 0.000001 0.000000 -2.987507 -0.064638 0.326464
 18 -2.869898 1.399663 -4.140396 -0.683397 1.305929 2.003849
 19 4.972048 0.000000 0.000001 1.256228 -0.186059 -2.040697
 20 11.585355 0.000000 0.000000 0.000000 -0.000000 -0.621770
 21 10.127057 0.000000 0.000001 1.721681 0.262810 0.362604
time 4
  0 0.235347 -0.235347 3.532833 -0.000000 -0.000000 -1.570969
  1 0.000000 0.000000 0.000000 -1.570795 -1.570796 0.000000
  2 -0.000005 0.000007 3.713255 -6.281131 3.115465 6.261712
  3 18.045721 0.000000 0.000000 0.000000 -0.000000 -0.121501
  4 17.597597 0.000000 0.000000 -0.002613 0.026036 0.099967
  5 0.000005 -0.000003 -3.713255 6.280565 -3.124186 6.258640
  6 18.045725 0.000000 0.000000 0.000000 -0.000000 -0.127551
  7 17.597597 0.000000 0.000000 0.002950 -0.017289 0.103055
  8 1.293670 0.684478 -0.000001 -0.000004 -0.000001 -0.007924
  9 5.309685 -0.003834 0.000000 -0.224662 -0.031088 -0.136037
 10 4.826790 -0.004591 0.000000 -0.121049 -0.016047 -0.132103
 11 5.792767 -0.005304 0.000000 -0.104186 -0.009911 -0.095402
 12 6.662317 -0.001453 0.000000 0.000000 -0.000001 0.471000
 13 2.046985 -0.000002 0.000000 0.590021 0.415929 -0.214073
 14 -3.112024 1.517254 4.341911 1.152668 -1.090081 1.563497
 15 4.827230 0.000000 0.000001 -0.787304 0.275428 -0.806065
 16 11.139763 0.000000 0.000000 0.000000 -0.000000 -1.371384
 17 10.314597 0.000001 0.000000 -2.987507 -0.064638 0.326464
 18 -2.869898 1.399663 -4.140396 -0.675344 1.303272 2.012094
 19 4.972048 0.000000 0.000001 1.252051 -0.185818 -2.040301
 20 11.585355 0.000000 0.000000 0.000000 -0.000000 -0.621770
 21 10.127057 0.000000 0.000001 1.721681 0.262810 0.362604
time 5
  0 0.235347 -0.235347 3.532833 -0.000000 -0.000000 -1.570969
  1 0.000000 0.000000 0.000000 -1.570795 -1.570796 0.000000
  2 -0.000005 0.000007 3.713255 -6.281131 3.115465 6.261712
  3 18.045721 0.000000 0.000000 0.000000 -0.000000 -0.121501
  4 17.597597 0.000000 0.000000 -0.002613 0.026036 0.099967
  5 0.000005 -0.000003 -3.713255 6.280565 -3.124186 6.258640
  6 18.045725 0.000000 0.000000 0.000000 -0.000000 -0.127551
  7 17.597597 0.000000 0.000000 0.002950 -0.017289 0.103055
  8 1.293670 0.684478 -0.000001 -0.000004 -0.000001 -0.007924
  9 5.309685 -0.003834 0.000000 -0.224662 -0.031088 -0.136037
 10 4.826790 -0.004591 0.000000 -0.121065 -0.015784 -0.129854
 11 5.792767 -0.005304 0.000000 -0.104186 -0.009911 -0.095402
 12 6.662317 -0.001453 0.000000 0.000000 -0.000001 0.471000
 13 2.046985 -0.000002 0.000000 0.590064 0.416154 -0.216320
 14 -3.112024 1.517254 4.341911 1.147395 -1.088850 1.569345
 15 4.827230 0.000000 0.000001 -0.785542 0.271173 -0.805890
 16 11.139763 0.000000 0.000000 0.000000 -0.000000 -1.371384
 17 10.314597 0.000001 0.000000 -2.987507 -0.064638 0.326464
 18 -2.869898 1.399663 -4.140396 -0.666907 1.300304 2.020818
 19 4.972048 0.000000 0.000001 1.247487 -0.185657 -2.039972
 20 11.585355 0.000000 0.000000 0.000000 -0.000000 -0.621770
 21 10.127057 0.000000 0.000001 1.721681 0.262810 0.362604
time 6
  0 0.235347 -0.235347 3.532833 -0.000000 -0.000000 -1.570969
  1 0.000000 0.000000 0.000000 -1.570795 -1.570796 0.000000
  2 -0.000005 0.000007 3.713255 -6.281131 3.115465 6.261712
  3 18.045721 0.000000 0.000000 0.000000 -0.000000 -0.121501
  4 17.597597 0.000000 0.000000 -0.002613 0.026036 0.099967
  5 0.000005 -0.000003 -3.713255 6.280565 -3.124186 6.258640
  6 18.045725 0.000000 0.000000 0.000000 -0.000000 -0.127551
  7 17.597597 0.000000 0.000000 0.002950 -0.017289 0.103055
  8 1.293670 0.684478 -0.000001 -0.000004 -0.000001 -0.007924
  9 5.309685 -0.003834 0.000000 -0.224662 -0.031088 -0.136037
 10 4.826790 -0.004591 0.000000 -0.121098 -0.015496 -0.127517
 11 5.792767 -0.005304 0.000000 -0.104186 -0.009911 -0.095402
 12 6.662317 -0.001453 0.000000 0.000000 -0.000001 0.471000
 13 2.046985 -0.000002 0.000000 0.590107 0.416402 -0.218612
 14 -3.112024 1.517254 4.341911 1.141931 -1.087542 1.575673
 15 4.827230 0.000000 0.000001 -0.783662 0.266748 -0.805890
 16 11.139763 0.000000 0.000000 0.000000 -0.000000 -1.371384
 17 10.314597 0.000001 0.000000 -2.987507 -0.064638 0.326464
 18 -2.869898 1.399663 -4.140396 -0.658086 1.297167 2.029830
 19 4.972048 0.000000 0.000001 1.242691 -0.185496 -2.039577
 20 11.585355 0.000000 0.000000 0.000000 -0.000000 -0.621770
 21 10.127057 0.000000 0.000001 1.721681 0.262810 0.362604
time 7
  0 0.235347 -0.235347 3.532833 -0.000000 -0.000000 -1.570969
  1 0.000000 0.000000 0.000000 -1.570795 -1.570796 0.000000
  2 -0.000005 0.000007 3.713255 -6.281131 3.115465 6.261712
  3 18.045721 0.000000 0.000000 0.000000 -0.000000 -0.121501
  4 17.597597 0.000000 0.000000 -0.002613 0.026036 0.099967
  5 0.000005 -0.000003 -3.713255 6.280565 -3.124186 6.258640
  6 18.045725 0.000000 0.000000 0.000000 -0.000000 -0.127551
  7 17.597597 0.000000 0.000000 0.002950 -0.017289 0.103055
  8 1.293670 0.684478 -0.000001 -0.000004 -0.000001 -0.007924
  9 5.309685 -0.003834 0.000000 -0.224662 -0.031088 -0.136037
 10 4.826790 -0.004591 0.000000 -0.121164 -0.015196 -0.125114
 11 5.792767 -0.005304 0.000000 -0.104186 -0.009911 -0.095402
 12 6.662317 -0.001453 0.000000 0.000000 -0.000001 0.471000
 13 2.046985 -0.000002 0.000000 0.590150 0.416650 -0.221039
 14 -3.112024 1.517254 4.341911 1.136466 -1.086196 1.582001
 15 4.827230 0.000000 0.000001 -0.781724 0.262238 -0.805890
 16 11.139763 0.000000 0.000000 0.000000 -0.000000 -1.371384
 17 10.314597 0.000001 0.000000 -2.987507 -0.064638 0.326464
 18 -2.869898 1.399663 -4.140396 -0.649554 1.293973 2.038842
 19 4.972048 0.000000 0.000001 1.237740 -0.185174 -2.039116
 20 11.585355 0.000000 0.000000 0.000000 -0.000000 -0.621770
 21 10.127057 0.000000 0.000001 1.721681 0.262810 0.362604
time 8
  0 0.235347 -0.235347 3.532833 -0.000000 -0.000000 -1.570969
  1 0.000000 0.000000 0.000000 -1.570795 -1.570796 0.000000
  2 -0.000005 0.000007 3.713255 -6.281131 3.115465 6.261712
  3 18.045721 0.000000 0.000000 0.000000 -0.000000 -0.121501
  4 17.597597 0.000000 0.000000 -0.002613 0.026036 0.099967
  5 0.000005 -0.000003 -3.713255 6.280565 -3.124186 6.258640
  6 18.045725 0.000000 0.000000 0.000000 -0.000000 -0.127551
  7 17.597597 0.000000 0.000000 0.002950 -0.017289 0.103055
  8 1.293670 0.684478 -0.000001 -0.000004 -0.000001 -0.007924
  9 5.309685 -0.003834 0.000000 -0.224662 -0.031088 -0.136037
 10 4.826790 -0.004591 0.000000 -0.121180 -0.014921 -0.122733
 11 5.792767 -0.005304 0.000000 -0.104186 -0.009911 -0.095402
 12 6.662317 -0.001453 0.000000 0.000000 -0.000001 0.471000
 13 2.046985 -0.000002 0.000000 0.590193 0.416897 -0.223422
 14 -3.112024 1.517254 4.341911 1.130809 -1.084849 1.588137
 15 4.827230 0.000000 0.000001 -0.779903 0.257642 -0.805890
 16 11.139763 0.000000 0.000000 0.000000 -0.000000 -1.371384
 17 10.314597 0.000001 0.000000 -2.987507 -0.064638 0.326464
 18 -2.869898 1.399663 -4.140396 -0.641117 1.290779 2.047662
 19 4.972048 0.000000 0.000001 1.232944 -0.184933 -2.038720
 20 11.585355 0.000000 0.000000 0.000000 -0.000000 -0.621770
 21 10.127057 0.000000 0.000001 1.721681 0.262810 0.362604
time 9
  0 0.235347 -0.235347 3.532833 -0.000000 -0.000000 -1.570969
  1 0.000000 0.000000 0.000000 -1.570795 -1.570796 0.000000
  2 -0.000005 0.000007 3.713255 -6.281131 3.115465 6.261712
  3 18.045721 0.000000 0.000000 0.000000 -0.000000 -0.121501
  4 17.597597 0.000000 0.000000 -0.002613 0.026036 0.099967
  5 0.000005 -0.000003 -3.713255 6.280565 -3.124186 6.258640
  6 18.045725 0.000000 0.000000 0.000000 -0.000000 -0.127551
  7 17.597597 0.000000 0.000000 0.002950 -0.017289 0.103055
  8 1.293670 0.684478 -0.000001 -0.000004 -0.000001 -0.007924
  9 5.309685 -0.003834 0.000000 -0.224662 -0.031088 -0.136037
 10 4.826790 -0.004591 0.000000 -0.121213 -0.014633 -0.120440
 11 5.792767 -0.005304 0.000000 -0.104186 -0.009911 -0.095402
 12 6.662317 -0.001453 0.000000 0.000000 -0.000001 0.471000
 13 2.046985 -0.000002 0.000000 0.590236 0.417122 -0.225714
 14 -3.112024 1.517254 4.341911 1.125728 -1.083542 1.593985
 15 4.827230 0.000000 0.000001 -0.778023 0.253302 -0.805890
 16 11.139763 0.000000 0.000000 0.000000 -0.000000 -1.371384
 17 10.314597 0.000001 0.000000 -2.987507 -0.064638 0.326464
 18 -2.869898 1.399663 -4.140396 -0.633159 1.287727 2.055907
 19 4.972048 0.000000 0.000001 1.228303 -0.184772 -2.038391
 20 11.585355 0.000000 0.000000 0.000000 -0.000000 -0.621770
 21 10.127057 0.000000 0.000001 1.721681 0.262810 0.362604
time 10
  0 0.235347 -0.235347 3.532833 -0.000000 -0.000000 -1.570969
  1 0.000000 0.000000 0.000000 -1.570795 -1.570796 0.000000
  2 -0.000005 0.000007 3.713255 -6.281131 3.115465 6.261712
  3 18.045721 0.000000 0.000000 0.000000 -0.000000 -0.121501
  4 17.597597 0.000000 0.000000 -0.002613 0.026036 0.099967
  5 0.000005 -0.000003 -3.713255 6.280565 -3.124186 6.258640
  6 18.045725 0.000000 0.000000 0.000000 -0.000000 -0.127551
  7 17.597597 0.000000 0.000000 0.002950 -0.017289 0.103055
  8 1.293670 0.684478 -0.000001 -0.000004 -0.000001 -0.007924
  9 5.309685 -0.003834 0.000000 -0.224662 -0.031088 -0.136037
 10 4.826790 -0.004591 0.000000 -0.121246 -0.014382 -0.118323
 11 5.792767 -0.005304 0.000000 -0.104186 -0.009911 -0.095402
 12 6.662317 -0.001453 0.000000 0.000000 -0.000001 0.471000
 13 2.046985 -0.000002 0.000000 0.590236 0.417348 -0.227827
 14 -3.112024 1.517254 4.341911 1.120743 -1.082311 1.599450
 15 4.827230 0.000000 0.000001 -0.776379 0.249302 -0.805890
 16 11.139763 0.000000 0.000000 0.000000 -0.000000 -1.371384
 17 10.314597 0.000001 0.000000 -2.987507 -0.064638 0.326464
 18 -2.869898 1.399663 -4.140396 -0.626065 1.284844 2.063386
 19 4.972048 0.000000 0.000001 1.223971 -0.184611 -2.038128
 20 11.585355 0.000000 0.000000 0.000000 -0.000000 -0.621770
 21 10.127057 0.000000 0.000001 1.721681 0.262810 0.362604
time 11
  0 0.235347 -0.235347 3.532833 -0.000000 -0.000000 -1.570969
  1 0.000000 0.000000 0.000000 -1.570795 -1.570796 0.000000
  2 -0.000005 0.000007 3.713255 -6.281131 3.115465 6.261712
  3 18.045721 0.000000 0.000000 0.000000 -0.000000 -0.121501
  4 17.597597 0.000000 0.000000 -0.002613 0.026036 0.099967
  5 0.000005 -0.000003 -3.713255 6.280565 -3.124186 6.258640
  6 18.045725 0.000000 0.000000 0.000000 -0.000000 -0.127551
  7 17.597597 0.000000 0.000000 0.002950 -0.017289 0.103055
  8 1.293670 0.684478 -0.000001 -0.000004 -0.000001 -0.007924
  9 5.309685 -0.003834 0.000000 -0.224662 -0.031088 -0.136037
 10 4.826790 -0.004591 0.000000 -0.121262 -0.014154 -0.116427
 11 5.792767 -0.005304 0.000000 -0.104186 -0.009911 -0.095402
 12 6.662317 -0.001453 0.000000 0.000000 -0.000001 0.471000
 13 2.046985 -0.000002 0.000000 0.590236 0.417550 -0.229669
 14 -3.112024 1.517254 4.341911 1.116428 -1.081195 1.604436
 15 4.827230 0.000000 0.000001 -0.774852 0.245643 -0.805890
 16 11.139763 0.000000 0.000000 0.000000 -0.000000 -1.371384
 17 10.314597 0.000001 0.000000 -2.987507 -0.064638 0.326464
 18 -2.869898 1.399663 -4.140396 -0.619641 1.282243 2.069809
 19 4.972048 0.000000 0.000001 1.220103 -0.184370 -2.037798
 20 11.585355 0.000000 0.000000 0.000000 -0.000000 -0.621770
 21 10.127057 0.000000 0.000001 1.721681 0.262810 0.362604
time 12
  0 0.235347 -0.235347 3.532833 -0.000000 -0.000000 -1.570969
  1 0.000000 0.000000 0.000000 -1.570795 -1.570796 0.000000
  2 -0.000005 0.000007 3.713255 -6.281131 3.115465 6.261712
  3 18.045721 0.000000 0.000000 0.000000 -0.000000 -0.121501
  4 17.597597 0.000000 0.000000 -0.002613 0.026036 0.099967
  5 0.000005 -0.000003 -3.713255 6.280565 -3.124186 6.258640
  6 18.045725 0.000000 0.000000 0.000000 -0.000000 -0.127551
  7 17.597597 0.000000 0.000000 0.002950 -0.017289 0.103055
  8 1.293670 0.684478 -0.000001 -0.000004 -0.000001 -0.007924
  9 5.309685 -0.003834 0.000000 -0.224662 -0.031088 -0.136037
 10 4.826790 -0.004591 0.000000 -0.121295 -0.013950 -0.114839
 11 5.792767 -0.005304 0.000000 -0.104186 -0.009911 -0.095402
 12 6.662317 -0.001453 0.000000 0.000000 -0.000001 0.471000
 13 2.046985 -0.000002 0.000000 0.590279 0.417708 -0.231243
 14 -3.112024 1.517254 4.341911 1.112977 -1.080272 1.608462
 15 4.827230 0.000000 0.000001 -0.773677 0.242750 -0.805890
 16 11.139763 0.000000 0.000000 0.000000 -0.000000 -1.371384
 17 10.314597 0.000001 0.000000 -2.987507 -0.064638 0.326464
 18 -2.869898 1.399663 -4.140396 -0.614464 1.280067 2.075370
 19 4.972048 0.000000 0.000001 1.217009 -0.184370 -2.037601
 20 11.585355 0.000000 0.000000 0.000000 -0.000000 -0.621770
 21 10.127057 0.000000 0.000001 1.721681 0.262810 0.362604
time 13
  0 0.235347 -0.235347 3.532833 -0.000000 -0.000000 -1.570969
  1 0.000000 0.000000 0.000000 -1.570795 -1.570796 0.000000
  2 -0.000005 0.000007 3.713255 -6.281131 3.115465 6.261712
  3 18.045721 0.000000 0.000000 0.000000 -0.000000 -0.121501
  4 17.597597 0.000000 0.000000 -0.002613 0.026036 0.099967
  5 0.000005 -0.000003 -3.713255 6.280565 -3.124186 6.258640
  6 18.045725 0.000000 0.000000 0.000000 -0.000000 -0.127551
  7 17.597597 0.000000 0.000000 0.002950 -0.017289 0.103055
  8 1.293670 0.684478 -0.000001 -0.000004 -0.000001 -0.007924
  9 5.309685 -0.003834 0.000000 -0.224662 -0.031088 -0.136037
 10 4.826790 -0.004591 0.000000 -0.121328 -0.013794 -0.113605
 11 5.792767 -0.005304 0.000000 -0.104186 -0.009911 -0.095402
 12 6.662317 -0.001453 0.000000 0.000000 -0.000001 0.471000
 13 2.046985 -0.000002 0.000000 0.590279 0.417843 -0.232456
 14 -3.112024 1.517254 4.341911 1.110197 -1.079541 1.611530
 15 4.827230 0.000000 0.000001 -0.772678 0.240452 -0.805890
 16 11.139763 0.000000 0.000000 0.000000 -0.000000 -1.371384
 17 10.314597 0.000001 0.000000 -2.987507 -0.064638 0.326464
 18 -2.869898 1.399663 -4.140396 -0.610533 1.278371 2.079396
 19 4.972048 0.000000 0.000001 1.214379 -0.184209 -2.037469
 20 11.585355 0.000000 0.000000 0.000000 -0.000000 -0.621770
 21 10.127057 0.000000 0.000001 1.721681 0.262810 0.362604
time 14
  0 0.235347 -0.235347 3.532833 -0.000000 -0.000000 -1.570969
  1 0.000000 0.000000 0.000000 -1.570795 -1.570796 0.000000
  2 -0.000005 0.000007 3.713255 -6.281131 3.115465 6.261712
  3 18.045721 0.000000 0.000000 0.000000 -0.000000 -0.121501
  4 17.597597 0.000000 0.000000 -0.002613 0.026036 0.099967
  5 0.000005 -0.000003 -3.713255 6.280565 -3.124186 6.258640
  6 18.045725 0.000000 0.000000 0.000000 -0.000000 -0.127551
  7 17.597597 0.000000 0.000000 0.002950 -0.017289 0.103055
  8 1.293670 0.684478 -0.000001 -0.000004 -0.000001 -0.007924
  9 5.309685 -0.003834 0.000000 -0.224662 -0.031088 -0.136037
 10 4.826790 -0.004591 0.000000 -0.121328 -0.013698 -0.112833
 11 5.792767 -0.005304 0.000000 -0.104186 -0.009911 -0.095402
 12 6.662317 -0.001453 0.000000 0.000000 -0.000001 0.471000
 13 2.046985 -0.000002 0.000000 0.590279 0.417933 -0.233220
 14 -3.112024 1.517254 4.341911 1.108471 -1.079041 1.613640
 15 4.827230 0.000000 0.000001 -0.772091 0.238835 -0.806065
 16 11.139763 0.000000 0.000000 0.000000 -0.000000 -1.371384
 17 10.314597 0.000001 0.000000 -2.987507 -0.064638 0.326464
 18 -2.869898 1.399663 -4.140396 -0.608137 1.277297 2.081985
 19 4.972048 0.000000 0.000001 1.212832 -0.184048 -2.037271
 20 11.585355 0.000000 0.000000 0.000000 -0.000000 -0.621770
 21 10.127057 0.000000 0.000001 1.721681 0.262810 0.362604
time 15
  0 0.235347 -0.235347 3.532833 -0.000000 -0.000000 -1.570969
  1 0.000000 0.000000 0.000000 -1.570795 -1.570796 0.000000
  2 -0.000005 0.000007 3.713255 -6.281131 3.115465 6.261712
  3 18.045721 0.000000 0.000000 0.000000 -0.000000 -0.121501
  4 17.597597 0.000000 0.000000 -0.002613 0.026036 0.099967
  5 0.000005 -0.000003 -3.713255 6.280565 -3.124186 6.258640
  6 18.045725 0.000000 0.000000 0.000000 -0.000000 -0.127551
  7 17.597597 0.000000 0.000000 0.002950 -0.017289 0.103055
  8 1.293670 0.684478 -0.000001 -0.000004 -0.000001 -0.007924
  9 5.309685 -0.003834 0.000000 -0.224662 -0.031088 -0.136037
 10 4.826790 -0.004591 0.000000 -0.121328 -0.013662 -0.112546
 11 5.792767 -0.005304 0.000000 -0.104186 -0.009911 -0.095402
 12 6.662317 -0.001453 0.000000 0.000000 -0.000001 0.471000
 13 2.046985 -0.000002 0.000000 0.590322 0.417955 -0.233580
 14 -3.112024 1.517254 4.341911 1.107800 -1.078887 1.614407
 15 4.827230 0.000000 0.000001 -0.771915 0.238324 -0.806065
 16 11.139763 0.000000 0.000000 0.000000 -0.000000 -1.371384
 17 10.314597 0.000001 0.000000 -2.987507 -0.064638 0.326464
 18 -2.869898 1.399663 -4.140396 -0.607274 1.276930 2.083040
 19 4.972048 0.000000 0.000001 1.212368 -0.184048 -2.037205
 20 11.585355 0.000000 0.000000 0.000000 -0.000000 -0.621770
 21 10.127057 0.000000 0.000001 1.721681 0.262810 0.362604
time 16
  0 0.235347 -0.235347 3.532833 -0.000000 -0.000000 -1.570969
  1 0.000000 0.000000 0.000000 -1.570795 -1.570796 0.000000
  2 -0.000005 0.000007 3.713255 -6.281131 3.115465 6.261712
  3 18.045721 0.000000 0.000000 0.000000 -0.000000 -0.121501
  4 17.597597 0.000000 0.000000 -0.002613 0.026036 0.099967
  5 0.000005 -0.000003 -3.713255 6.280565 -3.124186 6.258640
  6 18.045725 0.000000 0.000000 0.000000 -0.000000 -0.127551
  7 17.597597 0.000000 0.000000 0.002950 -0.017289 0.103055
  8 1.293670 0.684478 -0.000001 -0.000004 -0.000001 -0.007924
  9 5.309685 -0.003834 0.000000 -0.224662 -0.031088 -0.136037
 10 4.826790 -0.004591 0.000000 -0.121328 -0.013698 -0.112833
 11 5.792767 -0.005304 0.000000 -0.104186 -0.009911 -0.095402
 12 6.662317 -0.001453 0.000000 0.000000 -0.000001 0.471000
 13 2.046985 -0.000002 0.000000 0.590279 0.417933 -0.233220
 14 -3.112024 1.517254 4.341911 1.108471 -1.079041 1.613640
 15 4.827230 0.000000 0.000001 -0.772091 0.238835 -0.806065
 16 11.139763 0.000000 0.000000 0.000000 -0.000000 -1.371384
 17 10.314597 0.000001 0.000000 -2.987507 -0.064638 0.326464
 18 -2.869898 1.399663 -4.140396 -0.608137 1.277297 2.081985
 19 4.972048 0.000000 0.000001 1.212832 -0.184048 -2.037271
 20 11.585355 0.000000 0.000000 0.000000 -0.000000 -0.621770
 21 10.127057 0.000000 0.000001 1.721681 0.262810 0.362604
time 17
  0 0.235347 -0.235347 3.532833 -0.000000 -0.000000 -1.570969
  1 0.000000 0.000000 0.000000 -1.570795 -1.570796 0.000000
  2 -0.000005 0.000007 3.713255 -6.281131 3.115465 6.261712
  3 18.045721 0.000000 0.000000 0.000000 -0.000000 -0.121501
  4 17.597597 0.000000 0.000000 -0.002613 0.026036 0.099967
  5 0.000005 -0.000003 -3.713255 6.280565 -3.124186 6.258640
  6 18.045725 0.000000 0.000000 0.000000 -0.000000 -0.127551
  7 17.597597 0.000000 0.000000 0.002950 -0.017289 0.103055
  8 1.293670 0.684478 -0.000001 -0.000004 -0.000001 -0.007924
  9 5.309685 -0.003834 0.000000 -0.224662 -0.031088 -0.136037
 10 4.826790 -0.004591 0.000000 -0.121328 -0.013794 -0.113605
 11 5.792767 -0.005304 0.000000 -0.104186 -0.009911 -0.095402
 12 6.662317 -0.001453 0.000000 0.000000 -0.000001 0.471000
 13 2.046985 -0.000002 0.000000 0.590279 0.417843 -0.232456
 14 -3.112024 1.517254 4.341911 1.110197 -1.079541 1.611530
 15 4.827230 0.000000 0.000001 -0.772678 0.240452 -0.805890
 16 11.139763 0.000000 0.000000 0.000000 -0.000000 -1.371384
 17 10.314597 0.000001 0.000000 -2.987507 -0.064638 0.326464
 18 -2.869898 1.399663 -4.140396 -0.610533 1.278371 2.079396
 19 4.972048 0.000000 0.000001 1.214379 -0.184209 -2.037469
 20 11.585355 0.000000 0.000000 0.000000 -0.000000 -0.621770
 21 10.127057 0.000000 0.000001 1.721681 0.262810 0.362604
time 18
  0 0.235347 -0.235347 3.532833 -0.000000 -0.000000 -1.570969
  1 0.000000 0.000000 0.000000 -1.570795 -1.570796 0.000000
  2 -0.000005 0.000007 3.713255 -6.281131 3.115465 6.261712
  3 18.045721 0.000000 0.000000 0.000000 -0.000000 -0.121501
  4 17.597597 0.000000 0.000000 -0.002613 0.026036 0.099967
  5 0.000005 -0.000003 -3.713255 6.280565 -3.124186 6.258640
  6 18.045725 0.000000 0.000000 0.000000 -0.000000 -0.127551
  7 17.597597 0.000000 0.000000 0.002950 -0.017289 0.103055
  8 1.293670 0.684478 -0.000001 -0.000004 -0.000001 -0.007924
  9 5.309685 -0.003834 0.000000 -0.224662 -0.031088 -0.136037
 10 4.826790 -0.004591 0.000000 -0.121295 -0.013950 -0.114839
 11 5.792767 -0.005304 0.000000 -0.104186 -0.009911 -0.095402
 12 6.662317 -0.001453 0.000000 0.000000 -0.000001 0.471000
 13 2.046985 -0.000002 0.000000 0.590279 0.417708 -0.231243
 14 -3.112024 1.517254 4.341911 1.112977 -1.080272 1.608462
 15 4.827230 0.000000 0.000001 -0.773677 0.242750 -0.805890
 16 11.139763 0.000000 0.000000 0.000000 -0.000000 -1.371384
 17 10.314597 0.000001 0.000000 -2.987507 -0.064638 0.326464
 18 -2.869898 1.399663 -4.140396 -0.614464 1.280067 2.075370
 19 4.972048 0.000000 0.000001 1.217009 -0.184370 -2.037601
 20 11.585355 0.000000 0.000000 0.000000 -0.000000 -0.621770
 21 10.127057 0.000000 0.000001 1.721681 0.262810 0.362604
time 19
  0 0.235347 -0.235347 3.532833 -0.000000 -0.000000 -1.570969
  1 0.000000 0.000000 0.000000 -1.570795 -1.570796 0.000000
  2 -0.000005 0.000007 3.713255 -6.281131 3.115465 6.261712
  3 18.045721 0.000000 0.000000 0.000000 -0.000000 -0.121501
  4 17.597597 0.000000 0.000000 -0.002613 0.026036 0.099967
  5 0.000005 -0.000003 -3.713255 6.280565 -3.124186 6.258640
  6 18.045725 0.000000 0.000000 0.000000 -0.000000 -0.127551
  7 17.597597 0.000000 0.000000 0.002950 -0.017289 0.103055
  8 1.293670 0.684478 -0.000001 -0.000004 -0.000001 -0.007924
  9 5.309685 -0.003834 0.000000 -0.224662 -0.031088 -0.136037
 10 4.826790 -0.004591 0.000000 -0.121262 -0.014154 -0.116427
 11 5.792767 -0.005304 0.000000 -0.104186 -0.009911 -0.095402
 12 6.662317 -0.001453 0.000000 0.000000 -0.000001 0.471000
 13 2.046985 -0.000002 0.000000 0.590236 0.417550 -0.229669
 14 -3.112024 1.517254 4.341911 1.116428 -1.081195 1.604436
 15 4.827230 0.000000 0.000001 -0.774852 0.245643 -0.805890
 16 11.139763 0.000000 0.000000 0.000000 -0.000000 -1.371384
 17 10.314597 0.000001 0.000000 -2.987507 -0.064638 0.326464
 18 -2.869898 1.399663 -4.140396 -0.619641 1.282243 2.069809
 19 4.972048 0.000000 0.000001 1.220103 -0.184370 -2.037798
 20 11.585355 0.000000 0.000000 0.000000 -0.000000 -0.621770
 21 10.127057 0.000000 0.000001 1.721681 0.262810 0.362604
time 20
  0 0.235347 -0.235347 3.532833 -0.000000 -0.000000 -1.570969
  1 0.000000 0.000000 0.000000 -1.570795 -1.570796 0.000000
  2 -0.000005 0.000007 3.713255 -6.281131 3.115465 6.261712
  3 18.045721 0.000000 0.000000 0.000000 -0.000000 -0.121501
  4 17.597597 0.000000 0.000000 -0.002613 0.026036 0.099967
  5 0.000005 -0.000003 -3.713255 6.280565 -3.124186 6.258640
  6 18.045725 0.000000 0.000000 0.000000 -0.000000 -0.127551
  7 17.597597 0.000000 0.000000 0.002950 -0.017289 0.103055
  8 1.293670 0.684478 -0.000001 -0.000004 -0.000001 -0.007924
  9 5.309685 -0.003834 0.000000 -0.224662 -0.031088 -0.136037
 10 4.826790 -0.004591 0.000000 -0.121246 -0.014382 -0.118323
 11 5.792767 -0.005304 0.000000 -0.104186 -0.009911 -0.095402
 12 6.662317 -0.001453 0.000000 0.000000 -0.000001 0.471000
 13 2.046985 -0.000002 0.000000 0.590236 0.417348 -0.227827
 14 -3.112024 1.517254 4.341911 1.120743 -1.082311 1.599450
 15 4.827230 0.000000 0.000001 -0.776379 0.249302 -0.805890
 16 11.139763 0.000000 0.000000 0.000000 -0.000000 -1.371384
 17 10.314597 0.000001 0.000000 -2.987507 -0.064638 0.326464
 18 -2.869898 1.399663 -4.140396 -0.626065 1.284844 2.063386
 19 4.972048 0.000000 0.000001 1.223971 -0.184611 -2.038128
 20 11.585355 0.000000 0.000000 0.000000 -0.000000 -0.621770
 21 10.127057 0.000000 0.000001 1.721681 0.262810 0.362604
time 21
  0 0.235347 -0.235347 3.532833 -0.000000 -0.000000 -1.570969
  1 0.000000 0.000000 0.000000 -1.570795 -1.570796 0.000000
  2 -0.000005 0.000007 3.713255 -6.281131 3.115465 6.261712
  3 18.045721 0.000000 0.000000 0.000000 -0.000000 -0.121501
  4 17.597597 0.000000 0.000000 -0.002613 0.026036 0.099967
  5 0.000005 -0.000003 -3.713255 6.280565 -3.124186 6.258640
  6 18.045725 0.000000 0.000000 0.000000 -0.000000 -0.127551
  7 17.597597 0.000000 0.000000 0.002950 -0.017289 0.103055
  8 1.293670 0.684478 -0.000001 -0.000004 -0.000001 -0.007924
  9 5.309685 -0.003834 0.000000 -0.224662 -0.031088 -0.136037
 10 4.826790 -0.004591 0.000000 -0.121213 -0.014633 -0.120440
 11 5.792767 -0.005304 0.000000 -0.104186 -0.009911 -0.095402
 12 6.662317 -0.001453 0.000000 0.000000 -0.000001 0.471000
 13 2.046985 -0.000002 0.000000 0.590236 0.417122 -0.225714
 14 -3.112024 1.517254 4.341911 1.125728 -1.083542 1.593985
 15 4.827230 0.000000 0.000001 -0.778023 0.253302 -0.805890
 16 11.139763 0.000000 0.000000 0.000000 -0.000000 -1.371384
 17 10.314597 0.000001 0.000000 -2.987507 -0.064638 0.326464
 18 -2.869898 1.399663 -4.140396 -0.633159 1.287727 2.055907
 19 4.972048 0.000000 0.000001 1.228303 -0.184772 -2.038391
 20 11.585355 0.000000 0.000000 0.000000 -0.000000 -0.621770
 21 10.127057 0.000000 0.000001 1.721681 0.262810 0.362604
time 22
  0 0.235347 -0.235347 3.532833 -0.000000 -0.000000 -1.570969
  1 0.000000 0.000000 0.000000 -1.570795 -1.570796 0.000000
  2 -0.000005 0.000007 3.713255 -6.281131 3.115465 6.261712
  3 18.045721 0.000000 0.000000 0.000000 -0.000000 -0.121501
  4 17.597597 0.000000 0.000000 -0.002613 0.026036 0.099967
  5 0.000005 -0.000003 -3.713255 6.280565 -3.124186 6.258640
  6 18.045725 0.000000 0.000000 0.000000 -0.000000 -0.127551
  7 17.597597 0.000000 0.000000 0.002950 -0.017289 0.103055
  8 1.293670 0.684478 -0.000001 -0.000004 -0.000001 -0.007924
  9 5.309685 -0.003834 0.000000 -0.224662 -0.031088 -0.136037
 10 4.826790 -0.004591 0.000000 -0.121180 -0.014921 -0.122733
 11 5.792767 -0.005304 0.000000 -0.104186 -0.009911 -0.095402
 12 6.662317 -0.001453 0.000000 0.000000 -0.000001 0.471000
 13 2.046985 -0.000002 0.000000 0.590193 0.416897 -0.223422
 14 -3.112024 1.517254 4.341911 1.130809 -1.084849 1.588137
 15 4.827230 0.000000 0.000001 -0.779903 0.257642 -0.805890
 16 11.139763 0.000000 0.000000 0.000000 -0.000000 -1.371384
 17 10.314597 0.000001 0.000000 -2.987507 -0.064638 0.326464
 18 -2.869898 1.399663 -4.140396 -0.641117 1.290779 2.047662
 19 4.972048 0.000000 0.000001 1.232944 -0.184933 -2.038720
 20 11.585355 0.000000 0.000000 0.000000 -0.000000 -0.621770
 21 10.127057 0.000000 0.000001 1.721681 0.262810 0.362604
time 23
  0 0.235347 -0.235347 3.532833 -0.000000 -0.000000 -1.570969
  1 0.000000 0.000000 0.000000 -1.570795 -1.570796 0.000000
  2 -0.000005 0.000007 3.713255 -6.281131 3.115465 6.261712
  3 18.045721 0.000000 0.000000 0.000000 -0.000000 -0.121501
  4 17.597597 0.000000 0.000000 -0.002613 0.026036 0.099967
  5 0.000005 -0.000003 -3.713255 6.280565 -3.124186 6.258640
  6 18.045725 0.000000 0.000000 0.000000 -0.000000 -0.127551
  7 17.597597 0.000000 0.000000 0.002950 -0.017289 0.103055
  8 1.293670 0.684478 -0.000001 -0.000004 -0.000001 -0.007924
  9 5.309685 -0.003834 0.000000 -0.224662 -0.031088 -0.136037
 10 4.826790 -0.004591 0.000000 -0.121164 -0.015196 -0.125114
 11 5.792767 -0.005304 0.000000 -0.104186 -0.009911 -0.095402
 12 6.662317 -0.001453 0.000000 0.000000 -0.000001 0.471000
 13 2.046985 -0.000002 0.000000 0.590150 0.416650 -0.221039
 14 -3.112024 1.517254 4.341911 1.136466 -1.086196 1.582001
 15 4.827230 0.000000 0.000001 -0.781724 0.262238 -0.805890
 16 11.139763 0.000000 0.000000 0.000000 -0.000000 -1.371384
 17 10.314597 0.000001 0.000000 -2.987507 -0.064638 0.326464
 18 -2.869898 1.399663 -4.140396 -0.649554 1.293973 2.038842
 19 4.972048 0.000000 0.000001 1.237740 -0.185174 -2.039116
 20 11.585355 0.000000 0.000000 0.000000 -0.000000 -0.621770
 21 10.127057 0.000000 0.000001 1.721681 0.262810 0.362604
time 24
  0 0.235347 -0.235347 3.532833 -0.000000 -0.000000 -1.570969
  1 0.000000 0.000000 0.000000 -1.570795 -1.570796 0.000000
  2 -0.000005 0.000007 3.713255 -6.281131 3.115465 6.261712
  3 18.045721 0.000000 0.000000 0.000000 -0.000000 -0.121501
  4 17.597597 0.000000 0.000000 -0.002613 0.026036 0.099967
  5 0.000005 -0.000003 -3.713255 6.280565 -3.124186 6.258640
  6 18.045725 0.000000 0.000000 0.000000 -0.000000 -0.127551
  7 17.597597 0.000000 0.000000 0.002950 -0.017289 0.103055
  8 1.293670 0.684478 -0.000001 -0.000004 -0.000001 -0.007924
  9 5.309685 -0.003834 0.000000 -0.224662 -0.031088 -0.136037
 10 4.826790 -0.004591 0.000000 -0.121098 -0.015496 -0.127517
 11 5.792767 -0.005304 0.000000 -0.104186 -0.009911 -0.095402
 12 6.662317 -0.001453 0.000000 0.000000 -0.000001 0.471000
 13 2.046985 -0.000002 0.000000 0.590107 0.416402 -0.218612
 14 -3.112024 1.517254 4.341911 1.141931 -1.087542 1.575673
 15 4.827230 0.000000 0.000001 -0.783662 0.266748 -0.805890
 16 11.139763 0.000000 0.000000 0.000000 -0.000000 -1.371384
 17 10.314597 0.000001 0.000000 -2.987507 -0.064638 0.326464
 18 -2.869898 1.399663 -4.140396 -0.658086 1.297167 2.029830
 19 4.972048 0.000000 0.000001 1.242691 -0.185496 -2.039577
 20 11.585355 0.000000 0.000000 0.000000 -0.000000 -0.621770
 21 10.127057 0.000000 0.000001 1.721681 0.262810 0.362604
time 25
  0 0.235347 -0.235347 3.532833 -0.000000 -0.000000 -1.570969
  1 0.000000 0.000000 0.000000 -1.570795 -1.570796 0.000000
  2 -0.000005 0.000007 3.713255 -6.281131 3.115465 6.261712
  3 18.045721 0.000000 0.000000 0.000000 -0.000000 -0.121501
  4 17.597597 0.000000 0.000000 -0.002613 0.026036 0.099967
  5 0.000005 -0.000003 -3.713255 6.280565 -3.124186 6.258640
  6 18.045725 0.000000 0.000000 0.000000 -0.000000 -0.127551
  7 17.597597 0.000000 0.000000 0.002950 -0.017289 0.103055
  8 1.293670 0.684478 -0.000001 -0.000004 -0.000001 -0.007924
  9 5.309685 -0.003834 0.000000 -0.224662 -0.031088 -0.136037
 10 4.826790 -0.004591 0.000000 -0.121065 -0.015784 -0.129854
 11 5.792767 -0.005304 0.000000 -0.104186 -0.009911 -0.095402
 12 6.662317 -0.001453 0.000000 0.000000 -0.000001 0.471000
 13 2.046985 -0.000002 0.000000 0.590064 0.416154 -0.216320
 14 -3.112024 1.517254 4.341911 1.147395 -1.088850 1.569345
 15 4.827230 0.000000 0.000001 -0.785542 0.271173 -0.805890
 16 11.139763 0.000000 0.000000 0.000000 -0.000000 -1.371384
 17 10.314597 0.000001 0.000000 -2.987507 -0.064638 0.326464
 18 -2.869898 1.399663 -4.140396 -0.666907 1.300304 2.020818
 19 4.972048 0.000000 0.000001 1.247487 -0.185657 -2.039972
 20 11.585355 0.000000 0.000000 0.000000 -0.000000 -0.621770
 21 10.127057 0.000000 0.000001 1.721681 0.262810 0.362604
time 26
  0 0.235347 -0.235347 3.532833 -0.000000 -0.000000 -1.570969
  1 0.000000 0.000000 0.000000 -1.570795 -1.570796 0.000000
  2 -0.000005 0.000007 3.713255 -6.281131 3.115465 6.261712
  3 18.045721 0.000000 0.000000 0.000000 -0.000000 -0.121501
  4 17.597597 0.000000 0.000000 -0.002613 0.026036 0.099967
  5 0.000005 -0.000003 -3.713255 6.280565 -3.124186 6.258640
  6 18.045725 0.000000 0.000000 0.000000 -0.000000 -0.127551
  7 17.597597 0.000000 0.000000 0.002950 -0.017289 0.103055
  8 1.293670 0.684478 -0.000001 -0.000004 -0.000001 -0.007924
  9 5.309685 -0.003834 0.000000 -0.224662 -0.031088 -0.136037
 10 4.826790 -0.004591 0.000000 -0.121049 -0.016047 -0.132103
 11 5.792767 -0.005304 0.000000 -0.104186 -0.009911 -0.095402
 12 6.662317 -0.001453 0.000000 0.000000 -0.000001 0.471000
 13 2.046985 -0.000002 0.000000 0.590021 0.415929 -0.214073
 14 -3.112024 1.517254 4.341911 1.152668 -1.090081 1.563497
 15 4.827230 0.000000 0.000001 -0.787304 0.275428 -0.806065
 16 11.139763 0.000000 0.000000 0.000000 -0.000000 -1.371384
 17 10.314597 0.000001 0.000000 -2.987507 -0.064638 0.326464
 18 -2.869898 1.399663 -4.140396 -0.675344 1.303272 2.012094
 19 4.972048 0.000000 0.000001 1.252051 -0.185818 -2.040301
 20 11.585355 0.000000 0.000000 0.000000 -0.000000 -0.621770
 21 10.127057 0.000000 0.000001 1.721681 0.262810 0.362604
time 27
  0 0.235347 -0.235347 3.532833 -0.000000 -0.000000 -1.570969
  1 0.000000 0.000000 0.000000 -1.570795 -1.570796 0.000000
  2 -0.000005 0.000007 3.713255 -6.281131 3.115465 6.261712
  3 18.045721 0.000000 0.000000 0.000000 -0.000000 -0.121501
  4 17.597597 0.000000 0.000000 -0.002613 0.026036 0.099967
  5 0.000005 -0.000003 -3.713255 6.280565 -3.124186 6.258640
  6 18.045725 0.000000 0.000000 0.000000 -0.000000 -0.127551
  7 17.597597 0.000000 0.000000 0.002950 -0.017289 0.103055
  8 1.293670 0.684478 -0.000001 -0.000004 -0.000001 -0.007924
  9 5.309685 -0.003834 0.000000 -0.224662 -0.031088 -0.136037
 10 4.826790 -0.004591 0.000000 -0.121016 -0.016299 -0.134154
 11 5.792767 -0.005304 0.000000 -0.104186 -0.009911 -0.095402
 12 6.662317 -0.001453 0.000000 0.000000 -0.000001 0.471000
 13 2.046985 -0.000002 0.000000 0.589934 0.415704 -0.212050
 14 -3.112024 1.517254 4.341911 1.157654 -1.091196 1.558032
 15 4.827230 0.000000 0.000001 -0.788890 0.279428 -0.806065
 16 11.139763 0.000000 0.000000 0.000000 -0.000000 -1.371384
 17 10.314597 0.000001 0.000000 -2.987507 -0.064638 0.326464
 18 -2.869898 1.399663 -4.140396 -0.683397 1.305929 2.003849
 19 4.972048 0.000000 0.000001 1.256228 -0.186059 -2.040697
 20 11.585355 0.000000 0.000000 0.000000 -0.000000 -0.621770
 21 10.127057 0.000000 0.000001 1.721681 0.262810 0.362604
time 28
  0 0.235347 -0.235347 3.532833 -0.000000 -0.000000 -1.570969
  1 0.000000 0.000000 0.000000 -1.570795 -1.570796 0.000000
  2 -0.000005 0.000007 3.713255 -6.281131 3.115465 6.261712
  3 18.045721 0.000000 0.000000 0.000000 -0.000000 -0.121501
  4 17.597597 0.000000 0.000000 -0.002613 0.026036 0.099967
  5 0.000005 -0.000003 -3.713255 6.280565 -3.124186 6.258640
  6 18.045725 0.000000 0.000000 0.000000 -0.000000 -0.127551
  7 17.597597 0.000000 0.000000 0.002950 -0.017289 0.103055
  8 1.293670 0.684478 -0.000001 -0.000004 -0.000001 -0.007924
  9 5.309685 -0.003834 0.000000 -0.224662 -0.031088 -0.136037
 10 4.826790 -0.004591 0.000000 -0.120983 -0.016527 -0.135962
 11 5.792767 -0.005304 0.000000 -0.104186 -0.009911 -0.095402
 12 6.662317 -0.001453 0.000000 0.000000 -0.000001 0.471000
 13 2.046985 -0.000002 0.000000 0.589891 0.415524 -0.210252
 14 -3.112024 1.517254 4.341911 1.161776 -1.092158 1.553142
 15 4.827230 0.000000 0.000001 -0.790358 0.282747 -0.806065
 16 11.139763 0.000000 0.000000 0.000000 -0.000000 -1.371384
 17 10.314597 0.000001 0.000000 -2.987507 -0.064638 0.326464
 18 -2.869898 1.399663 -4.140396 -0.690492 1.308246 1.996370
 19 4.972048 0.000000 0.000001 1.259941 -0.186220 -2.041026
 20 11.585355 0.000000 0.000000 0.000000 -0.000000 -0.621770
 21 10.127057 0.000000 0.000001 1.721681 0.262810 0.362604
time 29
  0 0.235347 -0.235347 3.532833 -0.000000 -0.000000 -1.570969
  1 0.000000 0.000000 0.000000 -1.570795 -1.570796 0.000000
  2 -0.000005 0.000007 3.713255 -6.281131 3.115465 6.261712
  3 18.045721 0.000000 0.000000 0.000000 -0.000000 -0.121501
  4 17.597597 0.000000 0.000000 -0.002613 0.026036 0.099967
  5 0.000005 -0.000003 -3.713255 6.280565 -3.124186 6.258640
  6 18.045725 0.000000 0.000000 0.000000 -0.000000 -0.127551
  7 17.597597 0.000000 0.000000 0.002950 -0.017289 0.103055
  8 1.293670 0.684478 -0.000001 -0.000004 -0.000001 -0.007924
  9 5.309685 -0.003834 0.000000 -0.224662 -0.031088 -0.136037
 10 4.826790 -0.004591 0.000000 -0.120950 -0.016707 -0.137439
 11 5.792767 -0.005304 0.000000 -0.104186 -0.009911 -0.095402
 12 6.662317 -0.001453 0.000000 0.000000 -0.000001 0.471000
 13 2.046985 -0.000002 0.000000 0.589848 0.415366 -0.208814
 14 -3.112024 1.517254 4.341911 1.165324 -1.092966 1.549211
 15 4.827230 0.000000 0.000001 -0.791474 0.285555 -0.806240
 16 11.139763 0.000000 0.000000 0.000000 -0.000000 -1.371384
 17 10.314597 0.000001 0.000000 -2.987507 -0.064638 0.326464
 18 -2.869898 1.399663 -4.140396 -0.696340 1.310197 1.990234
 19 4.972048 0.000000 0.000001 1.262803 -0.186381 -2.041290
 20 11.585355 0.000000 0.000000 0.000000 -0.000000 -0.621770
 21 10.127057 0.000000 0.000001 1.721681 0.262810 0.362604
time 30
  0 0.235347 -0.235347 3.532833 -0.000000 -0.000000 -1.570969
  1 0.000000 0.000000 0.000000 -1.570795 -1.570796 0.000000
  2 -0.000005 0.000007 3.713255 -6.281131 3.115465 6.261712
  3 18.045721 0.000000 0.000000 0.000000 -0.000000 -0.121501
  4 17.597597 0.000000 0.000000 -0.002613 0.026036 0.099967
  5 0.000005 -0.000003 -3.713255 6.280565 -3.124186 6.258640
  6 18.045725 0.000000 0.000000 0.000000 -0.000000 -0.127551
  7 17.597597 0.000000 0.000000 0.002950 -0.017289 0.103055
  8 1.293670 0.684478 -0.000001 -0.000004 -0.000001 -0.007924
  9 5.309685 -0.003834 0.000000 -0.224662 -0.031088 -0.136037
 10 4.826790 -0.004591 0.000000 -0.120934 -0.016826 -0.138519
 11 5.792767 -0.005304 0.000000 -0.104186 -0.009911 -0.095402
 12 6.662317 -0.001453 0.000000 0.000000 -0.000001 0.471000
 13 2.046985 -0.000002 0.000000 0.589848 0.415254 -0.207735
 14 -3.112024 1.517254 4.341911 1.167912 -1.093543 1.546335
 15 4.827230 0.000000 0.000001 -0.792355 0.287683 -0.806240
 16 11.139763 0.000000 0.000000 0.000000 -0.000000 -1.371384
 17 10.314597 0.000001 0.000000 -2.987507 -0.064638 0.326464
 18 -2.869898 1.399663 -4.140396 -0.700750 1.311553 1.985824
 19 4.972048 0.000000 0.000001 1.265046 -0.186381 -2.041553
 20 11.585355 0.000000 0.000000 0.000000 -0.000000 -0.621770
 21 10.127057 0.000000 0.000001 1.721681 0.262810 0.362604
end
