version 1
nodes
  0 "Dummy01"  -1
  1 "Object03"   0
  2 "Object12"   0
  3 "Object07"   0
  4 "Object16"   0
end
skeleton
time 0
  0 0.068072 0.301805 1.851063 0.000000 0.000000 0.000000
  1 0.491708 -0.887787 -0.756825 0.019037 0.007130 -3.141592
  2 0.334224 -0.267497 -0.727725 0.008722 -0.139556 -0.000000
  3 -0.050666 0.020950 -0.613704 0.000000 -0.183167 -0.000000
  4 0.740315 -0.282778 -1.380019 -0.008722 0.000000 0.000000
end
triangles
Flesh2.bmp
  4 -1.4616 6.1178 0.3078 -0.9985 -0.0550 0.0005 0.1389 0.7368
  4 -1.4116 1.7632 -0.2042 -0.9950 -0.1002 0.0009 0.0833 0.5658
  4 -1.4616 6.1325 0.8477 -0.9985 -0.0550 0.0005 0.1389 0.7368
Flesh2.bmp
  4 -1.4616 6.1325 0.8477 -0.9985 -0.0550 0.0005 0.1389 0.7368
  4 -1.4116 1.7632 -0.2042 -0.9950 -0.1002 0.0009 0.0833 0.5658
  4 -1.4116 1.7679 0.3358 -0.9818 -0.1898 0.0017 0.0833 0.5658
Flesh2.bmp
  4 -1.4116 1.7632 -0.2042 -0.9950 -0.1002 0.0009 0.0833 0.5658
  4 -0.7216 -0.6167 -0.1834 -0.7818 -0.6235 0.0057 0.1389 0.4605
  4 -1.4116 1.7679 0.3358 -0.9818 -0.1898 0.0017 0.0833 0.5658
Flesh2.bmp
  4 -1.4116 1.7679 0.3358 -0.9818 -0.1898 0.0017 0.0833 0.5658
  4 -0.7216 -0.6167 -0.1834 -0.7818 -0.6235 0.0057 0.1389 0.4605
  4 -0.7216 -0.6120 0.3565 0.8311 -0.5561 0.0051 0.1389 0.4605
Flesh2.bmp
  4 -0.7216 -0.6167 -0.1834 -0.7818 -0.6235 0.0057 0.1389 0.4605
  4 -0.4516 0.7532 -0.1954 0.7531 -0.6579 0.0060 0.1944 0.5132
  4 -0.7216 -0.6120 0.3565 0.8311 -0.5561 0.0051 0.1389 0.4605
Flesh2.bmp
  4 -0.7216 -0.6120 0.3565 0.8311 -0.5561 0.0051 0.1389 0.4605
  4 -0.4516 0.7532 -0.1954 0.7531 -0.6579 0.0060 0.1944 0.5132
  4 -0.4516 0.7580 0.3446 -0.2937 -0.9559 0.0088 0.1944 0.5132
Flesh2.bmp
  4 -0.4516 0.7532 -0.1954 0.7531 -0.6579 0.0060 0.1944 0.5132
  4 0.8684 -0.6567 -0.1831 -0.8385 -0.5448 0.0050 0.3056 0.4605
  4 -0.4516 0.7580 0.3446 -0.2937 -0.9559 0.0088 0.1944 0.5132
Flesh2.bmp
  4 -0.4516 0.7580 0.3446 -0.2937 -0.9559 0.0088 0.1944 0.5132
  4 0.8684 -0.6567 -0.1831 -0.8385 -0.5448 0.0050 0.3056 0.4605
  4 0.8684 -0.6520 0.3569 -0.9232 -0.3844 0.0035 0.3056 0.4605
Flesh2.bmp
  4 0.8684 -0.6567 -0.1831 -0.8385 -0.5448 0.0050 0.3056 0.4605
  4 1.2384 -2.3038 0.1513 -0.9950 -0.1002 0.0009 0.3333 0.3947
  4 0.8684 -0.6520 0.3569 -0.9232 -0.3844 0.0035 0.3056 0.4605
Flesh2.bmp
  4 0.8684 -0.6520 0.3569 -0.9232 -0.3844 0.0035 0.3056 0.4605
  4 1.2384 -2.3038 0.1513 -0.9950 -0.1002 0.0009 0.3333 0.3947
  4 1.2384 -2.2992 0.6813 -0.9997 0.0231 -0.0002 0.3333 0.3947
Flesh2.bmp
  4 1.2384 -2.3038 0.1513 -0.9950 -0.1002 0.0009 0.3333 0.3947
  4 0.7884 -5.4785 0.7790 -0.7882 0.6154 -0.0056 0.2222 0.2763
  4 1.2384 -2.2992 0.6813 -0.9997 0.0231 -0.0002 0.3333 0.3947
Flesh2.bmp
  4 1.2384 -2.2992 0.6813 -0.9997 0.0231 -0.0002 0.3333 0.3947
  4 0.7884 -5.4785 0.7790 -0.7882 0.6154 -0.0056 0.2222 0.2763
  4 0.7884 -5.4737 1.3290 0.0278 0.9996 -0.0092 0.2222 0.2763
Flesh2.bmp
  4 0.7884 -5.4785 0.7790 -0.7882 0.6154 -0.0056 0.2222 0.2763
  4 -0.7716 -4.5298 0.6307 0.1227 0.9924 -0.0091 0.0556 0.3158
  4 0.7884 -5.4737 1.3290 0.0278 0.9996 -0.0092 0.2222 0.2763
Flesh2.bmp
  4 0.7884 -5.4737 1.3290 0.0278 0.9996 -0.0092 0.2222 0.2763
  4 -0.7716 -4.5298 0.6307 0.1227 0.9924 -0.0091 0.0556 0.3158
  4 -0.7716 -4.5250 1.1707 -0.9985 -0.0550 0.0005 0.0556 0.3158
Flesh2.bmp
  4 -0.7716 -4.5298 0.6307 0.1227 0.9924 -0.0091 0.0556 0.3158
  4 0.7884 -7.5316 0.4269 -0.8385 -0.5448 0.0050 0.1944 0.1974
  4 -0.7716 -4.5250 1.1707 -0.9985 -0.0550 0.0005 0.0556 0.3158
Flesh2.bmp
  4 -0.7716 -4.5250 1.1707 -0.9985 -0.0550 0.0005 0.0556 0.3158
  4 0.7884 -7.5316 0.4269 -0.8385 -0.5448 0.0050 0.1944 0.1974
  4 0.7884 -7.5269 0.9669 -0.7363 -0.6767 0.0062 0.1944 0.1974
Flesh2.bmp
  4 0.7884 -7.5316 0.4269 -0.8385 -0.5448 0.0050 0.1944 0.1974
  4 3.4384 -9.7677 -0.2536 -0.2223 -0.9749 0.0089 0.4722 0.0921
  4 0.7884 -7.5269 0.9669 -0.7363 -0.6767 0.0062 0.1944 0.1974
Flesh2.bmp
  4 0.7884 -7.5269 0.9669 -0.7363 -0.6767 0.0062 0.1944 0.1974
  4 3.4384 -9.7677 -0.2536 -0.2223 -0.9749 0.0089 0.4722 0.0921
  4 3.4384 -9.7629 0.2964 0.9636 -0.2674 0.0025 0.4722 0.0921
Flesh2.bmp
  4 3.4384 -9.7677 -0.2536 -0.2223 -0.9749 0.0089 0.4722 0.0921
  4 3.1184 -8.1934 0.2327 0.9925 0.1224 -0.0011 0.4444 0.1579
  4 3.4384 -9.7629 0.2964 0.9636 -0.2674 0.0025 0.4722 0.0921
Flesh2.bmp
  4 3.4384 -9.7629 0.2964 0.9636 -0.2674 0.0025 0.4722 0.0921
  4 3.1184 -8.1934 0.2327 0.9925 0.1224 -0.0011 0.4444 0.1579
  4 3.1184 -8.1887 0.7626 0.9991 0.0429 -0.0004 0.4444 0.1579
Flesh2.bmp
  4 3.1184 -8.1934 0.2327 0.9925 0.1224 -0.0011 0.4444 0.1579
  4 3.2084 -5.6685 0.7807 0.9925 0.1224 -0.0011 0.5000 0.2500
  4 3.1184 -8.1887 0.7626 0.9991 0.0429 -0.0004 0.4444 0.1579
Flesh2.bmp
  4 3.1184 -8.1887 0.7626 0.9991 0.0429 -0.0004 0.4444 0.1579
  4 3.2084 -5.6685 0.7807 0.9925 0.1224 -0.0011 0.5000 0.2500
  4 3.2084 -5.6637 1.3306 0.9566 0.2913 -0.0027 0.5000 0.2500
Flesh2.bmp
  4 3.2084 -5.6685 0.7807 0.9925 0.1224 -0.0011 0.5000 0.2500
  4 2.4284 -4.0918 0.3969 0.9726 0.2326 -0.0021 0.4444 0.3158
  4 3.2084 -5.6637 1.3306 0.9566 0.2913 -0.0027 0.5000 0.2500
Flesh2.bmp
  4 3.2084 -5.6637 1.3306 0.9566 0.2913 -0.0027 0.5000 0.2500
  4 2.4284 -4.0918 0.3969 0.9726 0.2326 -0.0021 0.4444 0.3158
  4 2.4284 -4.0871 0.9369 0.9975 -0.0210 -0.0676 0.4444 0.3158
Flesh2.bmp
  4 2.4284 -4.0918 0.3969 0.9726 0.2326 -0.0021 0.4444 0.3158
  4 3.2584 -0.5167 -0.1843 0.9906 -0.0379 -0.1312 0.5833 0.4605
  4 2.4284 -4.0871 0.9369 0.9975 -0.0210 -0.0676 0.4444 0.3158
Flesh2.bmp
  4 2.4284 -4.0871 0.9369 0.9975 -0.0210 -0.0676 0.4444 0.3158
  4 3.2584 -0.5167 -0.1843 0.9906 -0.0379 -0.1312 0.5833 0.4605
  4 3.3384 -0.5132 0.2157 0.9727 0.1896 -0.1341 0.5833 0.4605
Flesh2.bmp
  4 3.2584 -0.5167 -0.1843 0.9906 -0.0379 -0.1312 0.5833 0.4605
  4 1.5584 3.3231 -0.2178 0.9887 -0.1046 -0.1075 0.4444 0.6053
  4 3.3384 -0.5132 0.2157 0.9727 0.1896 -0.1341 0.5833 0.4605
Flesh2.bmp
  4 3.3384 -0.5132 0.2157 0.9727 0.1896 -0.1341 0.5833 0.4605
  4 1.5584 3.3231 -0.2178 0.9887 -0.1046 -0.1075 0.4444 0.6053
  4 1.5584 3.3279 0.3222 0.3718 -0.9283 0.0085 0.4444 0.6053
Flesh2.bmp
  4 1.5584 3.3231 -0.2178 0.9887 -0.1046 -0.1075 0.4444 0.6053
  4 3.1684 3.0932 -0.2158 0.3718 -0.9283 0.0085 0.6389 0.5921
  4 1.5584 3.3279 0.3222 0.3718 -0.9283 0.0085 0.4444 0.6053
Flesh2.bmp
  4 1.5584 3.3279 0.3222 0.3718 -0.9283 0.0085 0.4444 0.6053
  4 3.1684 3.0932 -0.2158 0.3718 -0.9283 0.0085 0.6389 0.5921
  4 3.1684 3.0979 0.3242 0.9991 0.0429 -0.0004 0.6389 0.5921
Flesh2.bmp
  4 3.1684 3.0932 -0.2158 0.3718 -0.9283 0.0085 0.6389 0.5921
  4 1.0084 6.3478 0.3058 0.9124 0.4092 -0.0038 0.4444 0.7368
  4 3.1684 3.0979 0.3242 0.9991 0.0429 -0.0004 0.6389 0.5921
Flesh2.bmp
  4 3.1684 3.0979 0.3242 0.9991 0.0429 -0.0004 0.6389 0.5921
  4 1.0084 6.3478 0.3058 0.9124 0.4092 -0.0038 0.4444 0.7368
  4 1.0084 6.3525 0.8458 0.9726 0.2326 -0.0021 0.4444 0.7368
Flesh2.bmp
  4 1.0084 6.3478 0.3058 0.9124 0.4092 -0.0038 0.4444 0.7368
  4 0.9084 7.4553 0.0062 0.9419 0.3360 -0.0031 0.4444 0.7763
  4 1.0084 6.3525 0.8458 0.9726 0.2326 -0.0021 0.4444 0.7368
Flesh2.bmp
  4 1.0084 6.3525 0.8458 0.9726 0.2326 -0.0021 0.4444 0.7368
  4 0.9084 7.4553 0.0062 0.9419 0.3360 -0.0031 0.4444 0.7763
  4 0.9084 7.4600 0.5461 0.8181 0.5751 -0.0053 0.4444 0.7763
Flesh2.bmp
  4 0.9084 7.4553 0.0062 0.9419 0.3360 -0.0031 0.4444 0.7763
  4 -1.8216 9.7942 -0.1242 -0.4636 0.8860 -0.0081 0.1667 0.8684
  4 0.9084 7.4600 0.5461 0.8181 0.5751 -0.0053 0.4444 0.7763
Flesh2.bmp
  4 0.9084 7.4600 0.5461 0.8181 0.5751 -0.0053 0.4444 0.7763
  4 -1.8216 9.7942 -0.1242 -0.4636 0.8860 -0.0081 0.1667 0.8684
  4 -1.8216 9.7988 0.4057 -0.4636 0.8860 -0.0081 0.1667 0.8684
Flesh2.bmp
  4 -1.8216 9.7942 -0.1242 -0.4636 0.8860 -0.0081 0.1667 0.8684
  4 -1.4616 6.1325 0.8477 -0.9985 -0.0550 0.0005 0.1389 0.7368
  4 -1.8216 9.7988 0.4057 -0.4636 0.8860 -0.0081 0.1667 0.8684
Flesh2.bmp
  4 -1.8216 9.7942 -0.1242 -0.0567 -0.1245 -0.9906 0.1667 0.8684
  4 0.9084 7.4553 0.0062 0.0971 -0.0681 -0.9929 0.4444 0.7763
  4 -1.4616 6.1178 0.3078 -0.1236 -0.0056 -0.9923 0.1389 0.7368
Flesh2.bmp
  4 -1.4616 6.1178 0.3078 -0.1236 -0.0056 -0.9923 0.1389 0.7368
  4 0.9084 7.4553 0.0062 0.0971 -0.0681 -0.9929 0.4444 0.7763
  4 -1.4116 1.7632 -0.2042 0.1075 -0.0021 -0.9942 0.0833 0.5658
Flesh2.bmp
  4 0.9084 7.4553 0.0062 0.0971 -0.0681 -0.9929 0.4444 0.7763
  4 1.0084 6.3478 0.3058 0.1158 0.0522 -0.9919 0.4444 0.7368
  4 -1.4116 1.7632 -0.2042 0.1075 -0.0021 -0.9942 0.0833 0.5658
Flesh2.bmp
  4 -1.4116 1.7632 -0.2042 0.1075 -0.0021 -0.9942 0.0833 0.5658
  4 1.0084 6.3478 0.3058 0.1158 0.0522 -0.9919 0.4444 0.7368
  4 -0.4516 0.7532 -0.1954 -0.0259 0.0471 -0.9986 0.1944 0.5132
Flesh2.bmp
  4 1.0084 6.3478 0.3058 0.1158 0.0522 -0.9919 0.4444 0.7368
  4 1.5584 3.3231 -0.2178 -0.0259 0.0471 -0.9986 0.4444 0.6053
  4 -0.4516 0.7532 -0.1954 -0.0259 0.0471 -0.9986 0.1944 0.5132
Flesh2.bmp
  4 -0.4516 0.7532 -0.1954 -0.0259 0.0471 -0.9986 0.1944 0.5132
  4 1.5584 3.3231 -0.2178 -0.0259 0.0471 -0.9986 0.4444 0.6053
  4 0.8684 -0.6567 -0.1831 0.0036 -0.0717 -0.9974 0.3056 0.4605
Flesh2.bmp
  4 1.5584 3.3231 -0.2178 -0.0259 0.0471 -0.9986 0.4444 0.6053
  4 3.2584 -0.5167 -0.1843 -0.0054 -0.1208 -0.9927 0.5833 0.4605
  4 0.8684 -0.6567 -0.1831 0.0036 -0.0717 -0.9974 0.3056 0.4605
Flesh2.bmp
  4 0.8684 -0.6567 -0.1831 0.0036 -0.0717 -0.9974 0.3056 0.4605
  4 3.2584 -0.5167 -0.1843 -0.0054 -0.1208 -0.9927 0.5833 0.4605
  4 1.2384 -2.3038 0.1513 -0.0401 -0.1978 -0.9794 0.3333 0.3947
Flesh2.bmp
  4 3.2584 -0.5167 -0.1843 -0.0054 -0.1208 -0.9927 0.5833 0.4605
  4 2.4284 -4.0918 0.3969 -0.0401 -0.1978 -0.9794 0.4444 0.3158
  4 1.2384 -2.3038 0.1513 -0.0401 -0.1978 -0.9794 0.3333 0.3947
Flesh2.bmp
  4 1.2384 -2.3038 0.1513 -0.0401 -0.1978 -0.9794 0.3333 0.3947
  4 2.4284 -4.0918 0.3969 -0.0401 -0.1978 -0.9794 0.4444 0.3158
  4 0.7884 -5.4785 0.7790 0.0000 -0.0087 -1.0000 0.2222 0.2763
Flesh2.bmp
  4 2.4284 -4.0918 0.3969 -0.0401 -0.1978 -0.9794 0.4444 0.3158
  4 3.2084 -5.6685 0.7807 -0.0259 0.0471 -0.9986 0.5000 0.2500
  4 0.7884 -5.4785 0.7790 0.0000 -0.0087 -1.0000 0.2222 0.2763
Flesh2.bmp
  4 0.7884 -5.4785 0.7790 0.0000 -0.0087 -1.0000 0.2222 0.2763
  4 3.2084 -5.6685 0.7807 -0.0259 0.0471 -0.9986 0.5000 0.2500
  4 0.7884 -7.5316 0.4269 0.0485 0.2146 -0.9755 0.1944 0.1974
Flesh2.bmp
  4 3.2084 -5.6685 0.7807 -0.0259 0.0471 -0.9986 0.5000 0.2500
  4 3.1184 -8.1934 0.2327 -0.0098 0.2556 -0.9667 0.4444 0.1579
  4 0.7884 -7.5316 0.4269 0.0485 0.2146 -0.9755 0.1944 0.1974
Flesh2.bmp
  4 0.7884 -7.5316 0.4269 0.0485 0.2146 -0.9755 0.1944 0.1974
  4 3.1184 -8.1934 0.2327 -0.0098 0.2556 -0.9667 0.4444 0.1579
  4 3.4384 -9.7677 -0.2536 0.0018 0.2934 -0.9560 0.4722 0.0921
Flesh2.bmp
  4 -1.4616 6.1325 0.8477 0.1235 0.0056 0.9923 0.1389 0.7368
  4 -1.4116 1.7679 0.3358 -0.1075 0.0021 0.9942 0.0833 0.5658
  4 0.9084 7.4600 0.5461 -0.0971 0.0681 0.9929 0.4444 0.7763
Flesh2.bmp
  4 0.9084 7.4600 0.5461 -0.0971 0.0681 0.9929 0.4444 0.7763
  4 -1.4116 1.7679 0.3358 -0.1075 0.0021 0.9942 0.0833 0.5658
  4 1.0084 6.3525 0.8458 -0.1157 -0.0522 0.9919 0.4444 0.7368
Flesh2.bmp
  4 -1.4116 1.7679 0.3358 -0.1075 0.0021 0.9942 0.0833 0.5658
  4 -0.4516 0.7580 0.3446 0.0259 -0.0471 0.9986 0.1944 0.5132
  4 1.0084 6.3525 0.8458 -0.1157 -0.0522 0.9919 0.4444 0.7368
Flesh2.bmp
  4 1.0084 6.3525 0.8458 -0.1157 -0.0522 0.9919 0.4444 0.7368
  4 -0.4516 0.7580 0.3446 0.0259 -0.0471 0.9986 0.1944 0.5132
  4 1.5584 3.3279 0.3222 0.0546 -0.0767 0.9956 0.4444 0.6053
Flesh2.bmp
  4 -0.4516 0.7580 0.3446 0.0259 -0.0471 0.9986 0.1944 0.5132
  4 0.8684 -0.6520 0.3569 0.0356 0.0724 0.9967 0.3056 0.4605
  4 1.5584 3.3279 0.3222 0.0546 -0.0767 0.9956 0.4444 0.6053
Flesh2.bmp
  4 1.5584 3.3279 0.3222 0.0546 -0.0767 0.9956 0.4444 0.6053
  4 0.8684 -0.6520 0.3569 0.0356 0.0724 0.9967 0.3056 0.4605
  4 3.3384 -0.5132 0.2157 0.0567 0.1245 0.9906 0.5833 0.4605
Flesh2.bmp
  4 0.8684 -0.6520 0.3569 0.0356 0.0724 0.9967 0.3056 0.4605
  4 1.2384 -2.2992 0.6813 0.0638 0.1928 0.9792 0.3333 0.3947
  4 3.3384 -0.5132 0.2157 0.0567 0.1245 0.9906 0.5833 0.4605
Flesh2.bmp
  4 3.3384 -0.5132 0.2157 0.0567 0.1245 0.9906 0.5833 0.4605
  4 1.2384 -2.2992 0.6813 0.0638 0.1928 0.9792 0.3333 0.3947
  4 2.4284 -4.0871 0.9369 0.0638 0.1928 0.9792 0.4444 0.3158
Flesh2.bmp
  4 1.2384 -2.2992 0.6813 0.0638 0.1928 0.9792 0.3333 0.3947
  4 0.7884 -5.4737 1.3290 0.0000 0.0087 1.0000 0.2222 0.2763
  4 2.4284 -4.0871 0.9369 0.0638 0.1928 0.9792 0.4444 0.3158
Flesh2.bmp
  4 2.4284 -4.0871 0.9369 0.0638 0.1928 0.9792 0.4444 0.3158
  4 0.7884 -5.4737 1.3290 0.0000 0.0087 1.0000 0.2222 0.2763
  4 3.2084 -5.6637 1.3306 0.0259 -0.0471 0.9986 0.5000 0.2500
Flesh2.bmp
  4 0.7884 -5.4737 1.3290 0.0000 0.0087 1.0000 0.2222 0.2763
  4 0.7884 -7.5269 0.9669 -0.0485 -0.2147 0.9755 0.1944 0.1974
  4 3.2084 -5.6637 1.3306 0.0259 -0.0471 0.9986 0.5000 0.2500
Flesh2.bmp
  4 3.2084 -5.6637 1.3306 0.0259 -0.0471 0.9986 0.5000 0.2500
  4 0.7884 -7.5269 0.9669 -0.0485 -0.2147 0.9755 0.1944 0.1974
  4 3.1184 -8.1887 0.7626 0.0098 -0.2556 0.9667 0.4444 0.1579
Flesh2.bmp
  4 0.7884 -7.5269 0.9669 -0.0485 -0.2147 0.9755 0.1944 0.1974
  4 3.4384 -9.7629 0.2964 -0.0018 -0.2933 0.9560 0.4722 0.0921
  4 3.1184 -8.1887 0.7626 0.0098 -0.2556 0.9667 0.4444 0.1579
Flesh2.bmp
  4 -1.4116 1.7632 -0.2042 0.1075 -0.0021 -0.9942 0.0833 0.5658
  4 -0.4516 0.7532 -0.1954 -0.0259 0.0471 -0.9986 0.1944 0.5132
  4 -0.7216 -0.6167 -0.1834 0.0000 -0.0087 -1.0000 0.1389 0.4605
Flesh2.bmp
  4 0.7884 -5.4785 0.7790 0.0000 -0.0087 -1.0000 0.2222 0.2763
  4 0.7884 -7.5316 0.4269 0.0485 0.2146 -0.9755 0.1944 0.1974
  4 -0.7716 -4.5298 0.6307 0.1988 0.1700 -0.9652 0.0556 0.3158
Flesh2.bmp
  4 1.5584 3.3231 -0.2178 -0.0259 0.0471 -0.9986 0.4444 0.6053
  4 1.0084 6.3478 0.3058 0.1158 0.0522 -0.9919 0.4444 0.7368
  4 3.1684 3.0932 -0.2158 0.0264 0.1760 -0.9840 0.6389 0.5921
Flesh2.bmp
  4 -1.4616 6.1325 0.8477 0.1235 0.0056 0.9923 0.1389 0.7368
  4 0.9084 7.4600 0.5461 -0.0971 0.0681 0.9929 0.4444 0.7763
  4 -1.8216 9.7988 0.4057 0.0567 0.1245 0.9906 0.1667 0.8684
Flesh2.bmp
  4 -0.4516 0.7580 0.3446 0.0259 -0.0471 0.9986 0.1944 0.5132
  4 -1.4116 1.7679 0.3358 -0.1075 0.0021 0.9942 0.0833 0.5658
  4 -0.7216 -0.6120 0.3565 0.0000 0.0087 1.0000 0.1389 0.4605
Flesh2.bmp
  4 0.7884 -7.5269 0.9669 -0.0485 -0.2147 0.9755 0.1944 0.1974
  4 0.7884 -5.4737 1.3290 0.0000 0.0087 1.0000 0.2222 0.2763
  4 -0.7716 -4.5250 1.1707 -0.1989 -0.1700 0.9652 0.0556 0.3158
Flesh2.bmp
  4 1.0084 6.3525 0.8458 -0.1157 -0.0522 0.9919 0.4444 0.7368
  4 1.5584 3.3279 0.3222 0.0546 -0.0767 0.9956 0.4444 0.6053
  4 3.1684 3.0979 0.3242 -0.0264 -0.1760 0.9840 0.6389 0.5921
Flesh2.bmp
  4 -1.4616 6.1325 0.8477 -0.9985 -0.0550 0.0005 0.1389 0.7368
  4 -1.8216 9.7942 -0.1242 -0.4636 0.8860 -0.0081 0.1667 0.8684
  4 -1.4616 6.1178 0.3078 -0.9985 -0.0550 0.0005 0.1389 0.7368
end
