version 1
nodes
  0 "Hands biped"  -1
  1 "Bip01 Pelvis"   0
  2 "Bip01 Spine"   1
  3 "Bip01 Spine1"   2
  4 "Bip01 Spine2"   3
  5 "Bip01 Spine3"   4
  6 "Bip01 Neck"   5
  7 "Bip01 L Arm"   6
  8 "Bip01 L Arm1"   7
  9 "Bip01 L Arm2"   8
 10 "Bip01 L Hand"   9
 11 "Bip01 L Finger0"  10
 12 "Bip01 L Finger01"  11
 13 "Bip01 L Finger02"  12
 14 "Bip01 L Finger1"  10
 15 "Bip01 L Finger11"  14
 16 "Bip01 L Finger12"  15
 17 "Bip01 L Finger2"  10
 18 "Bip01 L Finger21"  17
 19 "Bip01 L Finger22"  18
 20 "Bip01 L Finger3"  10
 21 "Bip01 L Finger31"  20
 22 "Bip01 L Finger32"  21
 23 "Bip01 L Finger4"  10
 24 "Bip01 L Finger41"  23
 25 "Bip01 L Finger42"  24
 26 "Bip01 R Arm"   6
 27 "Bip01 R Arm1"  26
 28 "Bip01 R Arm2"  27
 29 "Bip01 R Hand"  28
 30 "Bip01 R Finger0"  29
 31 "Bip01 R Finger01"  30
 32 "Bip01 R Finger02"  31
 33 "Bip01 R Finger1"  29
 34 "Bip01 R Finger11"  33
 35 "Bip01 R Finger12"  34
 36 "Bip01 R Finger2"  29
 37 "Bip01 R Finger21"  36
 38 "Bip01 R Finger22"  37
 39 "Bip01 R Finger3"  29
 40 "Bip01 R Finger31"  39
 41 "Bip01 R Finger32"  40
 42 "Bip01 R Finger4"  29
 43 "Bip01 R Finger41"  42
 44 "Bip01 R Finger42"  43
 45 "Bone01"  29
 46 "Bone02"  45
 47 "Box02"  -1
end
skeleton
time 0
  0 -1.877473 1.877473 -22.602280 0.000000 0.000000 -1.553534
  1 0.000000 0.000000 0.000000 -1.570795 -1.570796 0.000000
  2 1.326317 -0.003921 0.000002 -0.000004 -0.000001 0.000796
  3 4.926312 -0.003923 0.000000 0.000000 0.000000 0.000000
  4 4.926314 -0.003923 0.000000 0.000000 0.000000 0.000000
  5 4.926313 -0.003923 0.000000 0.000000 0.000000 0.000000
  6 4.926317 -0.001509 0.000000 0.000000 0.000000 0.000000
  7 -0.000001 0.001503 1.894737 0.625442 -0.725326 2.694084
  8 4.926316 0.000000 0.000002 -0.752745 0.392422 -1.059245
  9 11.368426 0.000000 0.000000 0.000000 0.000000 -0.705984
 10 11.368419 -0.000001 0.000000 -2.596260 -0.095008 0.238685
 11 1.126230 0.104083 -1.358370 2.320117 0.490133 0.709771
 12 2.373626 0.000000 0.000000 0.000000 0.000000 0.392462
 13 1.071901 -0.000001 -0.000001 0.000000 0.000000 0.017444
 14 3.789472 -0.000906 -1.136842 0.063479 0.143729 0.423138
 15 1.136843 0.000001 0.000000 0.000000 0.000000 0.505814
 16 1.136841 -0.000001 0.000000 0.000000 0.000000 0.680333
 17 3.789472 -0.000302 -0.378948 0.022870 0.075108 0.306099
 18 1.326317 0.000000 0.000000 0.000000 0.000000 0.610548
 19 1.326316 0.000000 0.000000 0.000000 0.000000 1.002949
 20 3.789472 0.000302 0.378947 -0.000686 0.000410 0.540685
 21 1.136844 -0.000001 0.000000 0.000000 0.000000 0.540692
 22 1.136840 0.000000 0.000000 0.000000 0.000000 0.846017
 23 3.789472 0.000904 1.136841 -0.057806 -0.136621 0.396429
 24 0.947370 0.000000 0.000000 0.000000 0.000000 0.976825
 25 0.947371 0.000000 0.000000 0.000000 0.000000 0.732558
 26 -0.000001 0.001514 -1.894737 -0.000014 1.370797 3.140783
 27 4.926315 0.000000 0.000000 1.196906 -0.642577 -1.509105
 28 11.368422 0.000000 0.000000 0.000000 0.000000 -0.731986
 29 11.368422 0.000000 -0.000001 1.609968 0.223177 0.178858
 30 1.126228 0.104084 1.358370 -2.504249 -0.141489 0.818398
 31 2.373625 0.000000 0.000000 0.000000 0.000000 0.505818
 32 1.071902 0.000001 0.000000 0.000000 0.000000 0.785000
 33 3.789471 -0.000906 1.136842 -0.033446 -0.153436 0.220514
 34 1.136842 0.000000 0.000000 0.000000 0.000000 0.322673
 35 1.136841 0.000000 0.000000 0.000000 0.000000 0.627924
 36 3.789471 -0.000302 0.378947 -0.029916 -0.072567 0.402275
 37 1.326317 0.000000 -0.000001 0.000000 0.000000 0.584389
 38 1.326315 0.000000 0.000000 0.000000 0.000000 1.343018
 39 3.789471 0.000302 -0.378947 0.000746 -0.000290 0.383772
 40 1.136844 0.000000 0.000000 0.000000 0.000000 0.680333
 41 1.136842 -0.000001 0.000000 0.000000 0.000000 1.151193
 42 3.789471 0.000904 -1.136842 0.042681 0.028628 0.286027
 43 0.947370 0.000000 0.000000 0.000000 0.000000 0.758788
 44 0.947371 0.000000 0.000000 0.000000 0.000000 0.854674
 45 0.628269 1.045216 0.151087 1.674813 -1.370795 -0.003936
 46 2.840679 -1.567271 0.000000 0.000000 0.000000 0.000000
 47 -8.666772 8.666772 -23.283133 1.570796 -0.261512 1.588044
end
