version 1
nodes
  0 "Hands biped"  -1
  1 "Bip01 Pelvis"   0
  2 "Bip01 Spine"   1
  3 "Bip01 Spine1"   2
  4 "Bip01 Spine2"   3
  5 "Bip01 Spine3"   4
  6 "Bip01 Neck"   5
  7 "Bip01 R Arm"   6
  8 "Bip01 R Arm1"   7
  9 "Bip01 R Arm2"   8
 10 "Bip01 R Hand"   9
end
skeleton
time 0
  0 0.001490 -0.001490 -24.602341 0.000000 0.000000 -1.570795
  1 0.000000 0.000000 0.000000 -1.570795 -1.570796 0.000000
  2 1.326317 -0.003921 0.000002 -0.000004 -0.000001 0.000796
  3 4.926312 -0.003923 0.000000 0.000000 0.000000 0.000000
  4 4.926314 -0.003923 0.000000 0.000000 0.000000 0.000000
  5 4.926313 -0.003923 0.000000 0.000000 0.000000 0.000000
  6 4.926317 -0.001509 0.000000 0.000000 0.000000 0.000000
  7 -0.000001 0.001514 -1.894737 -0.000014 1.370797 3.140783
  8 4.926315 0.000000 0.000000 0.000000 -1.078935 0.000000
  9 11.368422 0.000000 0.000000 0.000000 0.000000 -1.569389
 10 11.368422 0.000002 -0.000001 1.707598 -0.014343 -0.026582
end
