$modelname "p_shotgun.mdl"
$cd ".\"
$cdtexture ".\textures"
$cliptotextures

$scale 1.0

// 0 attachments

// 0 bone controllers

// 3 hit boxes
$hbox 0 "Bip01 Neck" -2.869898 0.000000 -4.140396  0.000000 1.399663 0.000000
$hbox 0 "Bip01 R Hand" 0.000000 0.000000 0.000000  12.295609 1.386845 1.667124
$hbox 0 "Box01" -12.260000 -4.010000 -1.570000  12.260000 4.010000 1.570000

$bodygroup studio
{
studio "reference_shotgun"
}

// 1 sequences
$sequence idle "idle" fps 30 
