version 1
nodes
  0 "Bip01"  -1
  1 "Bip01 Pelvis"   0
  2 "Bip01 L Leg"   1
  3 "Bip01 L Leg1"   2
  4 "Bip01 L Foot"   3
  5 "Bip01 L Toe0"   4
  6 "Bip01 R Leg"   1
  7 "Bip01 R Leg1"   6
  8 "Bip01 R Foot"   7
  9 "Bip01 R Toe0"   8
 10 "Bip01 R Toe01"   9
 11 "Bip01 R Toe02"  10
 12 "Bip01 Spine"   1
 13 "Bip01 Spine1"  12
 14 "Bip01 Spine2"  13
 15 "Bip01 Spine3"  14
 16 "Bip01 Neck"  15
 17 "Bip01 Head"  16
 18 "Bip01 L Arm"  16
 19 "Bip01 L Arm1"  18
 20 "Bip01 L Arm2"  19
 21 "Bip01 L Hand"  20
 22 "Bip01 L Finger1"  21
 23 "Bip01 L Finger11"  22
 24 "Bip01 L Finger12"  23
 25 "Bip01 R Arm"  16
 26 "Bip01 R Arm1"  25
 27 "Bip01 R Arm2"  26
 28 "Bip01 R Hand"  27
 29 "Bip01 R Finger1"  28
 30 "Bip01 R Finger11"  29
 31 "Bip01 R Finger12"  30
end
skeleton
time 0
  0 0.235347 -0.235347 -14.600533 -0.000000 0.270322 -1.571254
  1 0.000000 0.000000 0.000000 -1.570795 -1.570796 0.000000
  2 -0.000005 0.000007 3.713255 -3.368582 -0.221254 1.331540
  3 18.045721 0.000000 0.000000 0.000000 -0.000000 -1.349056
  4 17.597597 0.000000 0.000000 -0.205032 0.225938 -0.216505
  5 3.793090 6.407221 0.000000 0.000000 -0.000000 1.570796
  6 0.000005 -0.000003 -3.713255 6.216042 2.542639 5.445438
  7 18.045725 0.000000 0.000000 0.000000 -0.000000 -2.074575
  8 17.597597 0.000000 0.000000 -0.092072 0.087818 0.559914
  9 3.793090 6.407221 0.000000 0.000000 -0.000000 1.570796
 10 0.935740 0.000000 0.000000 0.000000 -0.000000 0.000000
 11 0.935741 0.000000 0.000000 0.000000 -0.000000 0.000000
 12 1.293670 0.684478 -0.000001 -0.000004 -0.000001 0.201406
 13 5.309685 -0.003834 0.000000 -0.258378 0.080512 0.294748
 14 4.826790 -0.004591 0.000000 -0.265151 0.053403 0.193462
 15 5.792767 -0.005304 0.000000 -0.138761 0.014585 0.103610
 16 6.662317 -0.001453 0.000000 0.000000 -0.000001 0.471000
 17 2.046985 -0.000002 0.000000 0.375468 0.330660 -0.836868
 18 -3.112024 1.517254 4.341911 2.426247 -0.917593 0.132067
 19 4.827230 0.000000 0.000001 -1.586294 0.313213 -0.932081
 20 11.139763 0.000000 0.000000 0.000000 -0.000000 -1.564945
 21 10.314597 0.000001 0.000000 -1.119069 0.303029 0.092698
 22 2.975834 -0.386307 -0.044143 -0.000797 -0.043611 0.000035
 23 1.438886 0.000000 0.000000 0.000000 -0.000000 0.784940
 24 1.485303 0.000000 0.000000 0.000000 -0.000000 0.531981
 25 -2.869898 1.399663 -4.140396 -0.000013 1.370795 2.669783
 26 4.972048 0.000000 0.000001 0.922829 -0.422636 -1.749738
 27 11.585355 0.000000 0.000000 0.000000 -0.000000 -1.958226
 28 10.127057 0.000000 0.000001 1.892467 -0.027532 1.149858
 29 2.683750 -0.427338 0.044205 -0.005738 0.043239 -0.157060
 30 1.438885 -0.000001 0.000000 0.000000 -0.000000 0.732589
 31 1.485305 0.000001 0.000000 0.000000 -0.000000 1.168627
time 1
  0 0.235347 -0.235347 -14.600533 -0.000000 0.270322 -1.571254
  1 0.000000 0.000000 0.000000 -1.570795 -1.570796 0.000000
  2 -0.000005 0.000007 3.713255 -3.368582 -0.221254 1.331540
  3 18.045721 0.000000 0.000000 0.000000 -0.000000 -1.349056
  4 17.597597 0.000000 0.000000 -0.205032 0.225938 -0.216505
  5 3.793090 6.407221 0.000000 0.000000 -0.000000 1.570796
  6 0.000005 -0.000003 -3.713255 6.216042 2.542639 5.445438
  7 18.045725 0.000000 0.000000 0.000000 -0.000000 -2.074575
  8 17.597597 0.000000 0.000000 -0.092072 0.087818 0.559914
  9 3.793090 6.407221 0.000000 0.000000 -0.000000 1.570796
 10 0.935740 0.000000 0.000000 0.000000 -0.000000 0.000000
 11 0.935741 0.000000 0.000000 0.000000 -0.000000 0.000000
 12 1.293670 0.684478 -0.000001 -0.000004 -0.000001 0.201406
 13 5.309685 -0.003834 0.000000 -0.261365 0.069930 0.254840
 14 4.826790 -0.004591 0.000000 -0.320536 0.056376 0.167445
 15 5.792767 -0.005304 0.000000 -0.248008 0.025971 0.101409
 16 6.662317 -0.001453 0.000000 0.000000 -0.000001 0.471000
 17 2.046985 -0.000002 0.000000 0.581749 0.236131 -0.748770
 18 -3.112024 1.517254 4.341911 2.426247 -0.917593 0.132067
 19 4.827230 0.000000 0.000001 -1.565678 0.285555 -0.815866
 20 11.139763 0.000000 0.000000 0.000000 -0.000000 -1.614702
 21 10.314597 0.000001 0.000000 -1.073859 0.287702 0.085947
 22 2.975834 -0.386307 -0.044143 -0.000797 -0.043611 0.000035
 23 1.438886 0.000000 0.000000 0.000000 -0.000000 0.679511
 24 1.485303 0.000000 0.000000 0.000000 -0.000000 0.531981
 25 -2.869898 1.399663 -4.140396 -0.000013 1.370795 2.669783
 26 4.972048 0.000000 0.000001 0.988426 -0.455617 -1.810802
 27 11.585355 0.000000 0.000000 0.000000 -0.000000 -2.061902
 28 10.127057 0.000000 0.000001 1.792009 -0.116272 1.148681
 29 2.683750 -0.427338 0.044205 -0.005738 0.043239 -0.157060
 30 1.438885 -0.000001 0.000000 0.000000 -0.000000 0.732589
 31 1.485305 0.000001 0.000000 0.000000 -0.000000 1.168627
time 2
  0 0.235347 -0.235347 -14.600533 -0.000000 0.270322 -1.571254
  1 0.000000 0.000000 0.000000 -1.570795 -1.570796 0.000000
  2 -0.000005 0.000007 3.713255 -3.368582 -0.221254 1.331540
  3 18.045721 0.000000 0.000000 0.000000 -0.000000 -1.349056
  4 17.597597 0.000000 0.000000 -0.205032 0.225938 -0.216505
  5 3.793090 6.407221 0.000000 0.000000 -0.000000 1.570796
  6 0.000005 -0.000003 -3.713255 6.216042 2.542639 5.445438
  7 18.045725 0.000000 0.000000 0.000000 -0.000000 -2.074575
  8 17.597597 0.000000 0.000000 -0.092072 0.087818 0.559914
  9 3.793090 6.407221 0.000000 0.000000 -0.000000 1.570796
 10 0.935740 0.000000 0.000000 0.000000 -0.000000 0.000000
 11 0.935741 0.000000 0.000000 0.000000 -0.000000 0.000000
 12 1.293670 0.684478 -0.000001 -0.000004 -0.000001 0.201406
 13 5.309685 -0.003834 0.000000 -0.264438 0.056951 0.206332
 14 4.826790 -0.004591 0.000000 -0.388252 0.056387 0.136158
 15 5.792767 -0.005304 0.000000 -0.381111 0.039297 0.097028
 16 6.662317 -0.001453 0.000000 0.000000 -0.000001 0.471000
 17 2.046985 -0.000002 0.000000 0.826934 0.105605 -0.697755
 18 -3.112024 1.517254 4.341911 2.426247 -0.917593 0.132067
 19 4.827230 0.000000 0.000001 -1.531141 0.237303 -0.675323
 20 11.139763 0.000000 0.000000 0.000000 -0.000000 -1.678264
 21 10.314597 0.000001 0.000000 -1.013549 0.267528 0.075774
 22 2.975834 -0.386307 -0.044143 -0.000797 -0.043611 0.000035
 23 1.438886 0.000000 0.000000 0.000000 -0.000000 0.537683
 24 1.485303 0.000000 0.000000 0.000000 -0.000000 0.531981
 25 -2.869898 1.399663 -4.140396 -0.000013 1.370795 2.669783
 26 4.972048 0.000000 0.000001 1.066477 -0.495194 -1.866464
 27 11.585355 0.000000 0.000000 0.000000 -0.000000 -2.194820
 28 10.127057 0.000000 0.000001 1.654221 -0.232463 1.161743
 29 2.683750 -0.427338 0.044205 -0.005738 0.043239 -0.157060
 30 1.438885 -0.000001 0.000000 0.000000 -0.000000 0.732589
 31 1.485305 0.000001 0.000000 0.000000 -0.000000 1.168627
time 3
  0 0.235347 -0.235347 -14.600533 -0.000000 0.270322 -1.571254
  1 0.000000 0.000000 0.000000 -1.570795 -1.570796 0.000000
  2 -0.000005 0.000007 3.713255 -3.368582 -0.221254 1.331540
  3 18.045721 0.000000 0.000000 0.000000 -0.000000 -1.349056
  4 17.597597 0.000000 0.000000 -0.205032 0.225938 -0.216505
  5 3.793090 6.407221 0.000000 0.000000 -0.000000 1.570796
  6 0.000005 -0.000003 -3.713255 6.216042 2.542639 5.445438
  7 18.045725 0.000000 0.000000 0.000000 -0.000000 -2.074575
  8 17.597597 0.000000 0.000000 -0.092072 0.087818 0.559914
  9 3.793090 6.407221 0.000000 0.000000 -0.000000 1.570796
 10 0.935740 0.000000 0.000000 0.000000 -0.000000 0.000000
 11 0.935741 0.000000 0.000000 0.000000 -0.000000 0.000000
 12 1.293670 0.684478 -0.000001 -0.000004 -0.000001 0.201406
 13 5.309685 -0.003834 0.000000 -0.265148 0.053403 0.193440
 14 4.826790 -0.004591 0.000000 -0.406298 0.055728 0.127978
 15 5.792767 -0.005304 0.000000 -0.416543 0.042809 0.095616
 16 6.662317 -0.001453 0.000000 0.000000 -0.000001 0.471000
 17 2.046985 -0.000002 0.000000 0.892118 0.070396 -0.694384
 18 -3.112024 1.517254 4.341911 2.426247 -0.917593 0.132067
 19 4.827230 0.000000 0.000001 -1.517455 0.204199 -0.645482
 20 11.139763 0.000000 0.000000 0.000000 -0.000000 -1.703703
 21 10.314597 0.000001 0.000000 -0.977417 0.255875 0.069163
 22 2.975834 -0.386307 -0.044143 -0.000797 -0.043611 0.000035
 23 1.438886 0.000000 0.000000 0.000000 -0.000000 0.453458
 24 1.485303 0.000000 0.000000 0.000000 -0.000000 0.531981
 25 -2.869898 1.399663 -4.140396 -0.000013 1.370795 2.669783
 26 4.972048 0.000000 0.000001 1.109022 -0.498733 -1.848020
 27 11.585355 0.000000 0.000000 0.000000 -0.000000 -2.243510
 28 10.127057 0.000000 0.000001 1.569752 -0.287824 1.177394
 29 2.683750 -0.427338 0.044205 -0.005738 0.043239 -0.157060
 30 1.438885 -0.000001 0.000000 0.000000 -0.000000 0.732589
 31 1.485305 0.000001 0.000000 0.000000 -0.000000 1.168627
time 4
  0 0.235347 -0.235347 -14.600533 -0.000000 0.270322 -1.571254
  1 0.000000 0.000000 0.000000 -1.570795 -1.570796 0.000000
  2 -0.000005 0.000007 3.713255 -3.368582 -0.221254 1.331540
  3 18.045721 0.000000 0.000000 0.000000 -0.000000 -1.349056
  4 17.597597 0.000000 0.000000 -0.205032 0.225938 -0.216505
  5 3.793090 6.407221 0.000000 0.000000 -0.000000 1.570796
  6 0.000005 -0.000003 -3.713255 6.216042 2.542639 5.445438
  7 18.045725 0.000000 0.000000 0.000000 -0.000000 -2.074575
  8 17.597597 0.000000 0.000000 -0.092072 0.087818 0.559914
  9 3.793090 6.407221 0.000000 0.000000 -0.000000 1.570796
 10 0.935740 0.000000 0.000000 0.000000 -0.000000 0.000000
 11 0.935741 0.000000 0.000000 0.000000 -0.000000 0.000000
 12 1.293670 0.684478 -0.000001 -0.000004 -0.000001 0.201406
 13 5.309685 -0.003834 0.000000 -0.264977 0.054458 0.197152
 14 4.826790 -0.004591 0.000000 -0.401109 0.055944 0.130382
 15 5.792767 -0.005304 0.000000 -0.406336 0.041766 0.095990
 16 6.662317 -0.001453 0.000000 0.000000 -0.000001 0.471000
 17 2.046985 -0.000002 0.000000 0.874368 0.079941 -0.695867
 18 -3.112024 1.517254 4.341911 2.426247 -0.917593 0.132067
 19 4.827230 0.000000 0.000001 -1.515987 0.257472 -0.662634
 20 11.139763 0.000000 0.000000 0.000000 -0.000000 -1.687935
 21 10.314597 0.000001 0.000000 -0.977417 0.255875 0.069163
 22 2.975834 -0.386307 -0.044143 -0.000797 -0.043611 0.000035
 23 1.438886 0.000000 0.000000 0.000000 -0.000000 0.453458
 24 1.485303 0.000000 0.000000 0.000000 -0.000000 0.531981
 25 -2.869898 1.399663 -4.140396 -0.000013 1.370795 2.669783
 26 4.972048 0.000000 0.000001 1.103375 -0.511443 -1.822132
 27 11.585355 0.000000 0.000000 0.000000 -0.000000 -2.201117
 28 10.127057 0.000000 0.000001 1.539302 -0.282924 1.183827
 29 2.683750 -0.427338 0.044205 -0.005738 0.043239 -0.157060
 30 1.438885 -0.000001 0.000000 0.000000 -0.000000 0.732589
 31 1.485305 0.000001 0.000000 0.000000 -0.000000 1.168627
time 5
  0 0.235347 -0.235347 -14.600533 -0.000000 0.270322 -1.571254
  1 0.000000 0.000000 0.000000 -1.570795 -1.570796 0.000000
  2 -0.000005 0.000007 3.713255 -3.368582 -0.221254 1.331540
  3 18.045721 0.000000 0.000000 0.000000 -0.000000 -1.349056
  4 17.597597 0.000000 0.000000 -0.205032 0.225938 -0.216505
  5 3.793090 6.407221 0.000000 0.000000 -0.000000 1.570796
  6 0.000005 -0.000003 -3.713255 6.216042 2.542639 5.445438
  7 18.045725 0.000000 0.000000 0.000000 -0.000000 -2.074575
  8 17.597597 0.000000 0.000000 -0.092072 0.087818 0.559914
  9 3.793090 6.407221 0.000000 0.000000 -0.000000 1.570796
 10 0.935740 0.000000 0.000000 0.000000 -0.000000 0.000000
 11 0.935741 0.000000 0.000000 0.000000 -0.000000 0.000000
 12 1.293670 0.684478 -0.000001 -0.000004 -0.000001 0.201406
 13 5.309685 -0.003834 0.000000 -0.264487 0.056795 0.205789
 14 4.826790 -0.004591 0.000000 -0.389024 0.056376 0.135872
 15 5.792767 -0.005304 0.000000 -0.382628 0.039453 0.097007
 16 6.662317 -0.001453 0.000000 0.000000 -0.000001 0.471000
 17 2.046985 -0.000002 0.000000 0.832707 0.102206 -0.700317
 18 -3.112024 1.517254 4.341911 2.426247 -0.917593 0.132067
 19 4.827230 0.000000 0.000001 -1.517749 0.355593 -0.693438
 20 11.139763 0.000000 0.000000 0.000000 -0.000000 -1.654507
 21 10.314597 0.000001 0.000000 -0.977417 0.255875 0.069163
 22 2.975834 -0.386307 -0.044143 -0.000797 -0.043611 0.000035
 23 1.438886 0.000000 0.000000 0.000000 -0.000000 0.453458
 24 1.485303 0.000000 0.000000 0.000000 -0.000000 0.531981
 25 -2.869898 1.399663 -4.140396 -0.000013 1.370795 2.669783
 26 4.972048 0.000000 0.000001 1.076069 -0.533323 -1.796376
 27 11.585355 0.000000 0.000000 0.000000 -0.000000 -2.118637
 28 10.127057 0.000000 0.000001 1.528409 -0.254093 1.185592
 29 2.683750 -0.427338 0.044205 -0.005738 0.043239 -0.157060
 30 1.438885 -0.000001 0.000000 0.000000 -0.000000 0.732589
 31 1.485305 0.000001 0.000000 0.000000 -0.000000 1.168627
time 6
  0 0.235347 -0.235347 -14.600533 -0.000000 0.270322 -1.571254
  1 0.000000 0.000000 0.000000 -1.570795 -1.570796 0.000000
  2 -0.000005 0.000007 3.713255 -3.368582 -0.221254 1.331540
  3 18.045721 0.000000 0.000000 0.000000 -0.000000 -1.349056
  4 17.597597 0.000000 0.000000 -0.205032 0.225938 -0.216505
  5 3.793090 6.407221 0.000000 0.000000 -0.000000 1.570796
  6 0.000005 -0.000003 -3.713255 6.216042 2.542639 5.445438
  7 18.045725 0.000000 0.000000 0.000000 -0.000000 -2.074575
  8 17.597597 0.000000 0.000000 -0.092072 0.087818 0.559914
  9 3.793090 6.407221 0.000000 0.000000 -0.000000 1.570796
 10 0.935740 0.000000 0.000000 0.000000 -0.000000 0.000000
 11 0.935741 0.000000 0.000000 0.000000 -0.000000 0.000000
 12 1.293670 0.684478 -0.000001 -0.000004 -0.000001 0.201406
 13 5.309685 -0.003834 0.000000 -0.263838 0.059683 0.216671
 14 4.826790 -0.004591 0.000000 -0.373819 0.056711 0.142817
 15 5.792767 -0.005304 0.000000 -0.352739 0.036505 0.098149
 16 6.662317 -0.001453 0.000000 0.000000 -0.000001 0.471000
 17 2.046985 -0.000002 0.000000 0.779887 0.130324 -0.708138
 18 -3.112024 1.517254 4.341911 2.426247 -0.917593 0.132067
 19 4.827230 0.000000 0.000001 -1.521978 0.452608 -0.730368
 20 11.139763 0.000000 0.000000 0.000000 -0.000000 -1.618556
 21 10.314597 0.000001 0.000000 -0.977417 0.255875 0.069163
 22 2.975834 -0.386307 -0.044143 -0.000797 -0.043611 0.000035
 23 1.438886 0.000000 0.000000 0.000000 -0.000000 0.453458
 24 1.485303 0.000000 0.000000 0.000000 -0.000000 0.531981
 25 -2.869898 1.399663 -4.140396 -0.000013 1.370795 2.669783
 26 4.972048 0.000000 0.000001 1.043425 -0.552307 -1.772464
 27 11.585355 0.000000 0.000000 0.000000 -0.000000 -2.032241
 28 10.127057 0.000000 0.000001 1.532040 -0.217655 1.184180
 29 2.683750 -0.427338 0.044205 -0.005738 0.043239 -0.157060
 30 1.438885 -0.000001 0.000000 0.000000 -0.000000 0.732589
 31 1.485305 0.000001 0.000000 0.000000 -0.000000 1.168627
time 7
  0 0.235347 -0.235347 -14.600533 -0.000000 0.270322 -1.571254
  1 0.000000 0.000000 0.000000 -1.570795 -1.570796 0.000000
  2 -0.000005 0.000007 3.713255 -3.368582 -0.221254 1.331540
  3 18.045721 0.000000 0.000000 0.000000 -0.000000 -1.349056
  4 17.597597 0.000000 0.000000 -0.205032 0.225938 -0.216505
  5 3.793090 6.407221 0.000000 0.000000 -0.000000 1.570796
  6 0.000005 -0.000003 -3.713255 6.216042 2.542639 5.445438
  7 18.045725 0.000000 0.000000 0.000000 -0.000000 -2.074575
  8 17.597597 0.000000 0.000000 -0.092072 0.087818 0.559914
  9 3.793090 6.407221 0.000000 0.000000 -0.000000 1.570796
 10 0.935740 0.000000 0.000000 0.000000 -0.000000 0.000000
 11 0.935741 0.000000 0.000000 0.000000 -0.000000 0.000000
 12 1.293670 0.684478 -0.000001 -0.000004 -0.000001 0.201406
 13 5.309685 -0.003834 0.000000 -0.263128 0.062799 0.228205
 14 4.826790 -0.004591 0.000000 -0.357678 0.056915 0.150203
 15 5.792767 -0.005304 0.000000 -0.321041 0.033341 0.099229
 16 6.662317 -0.001453 0.000000 0.000000 -0.000001 0.471000
 17 2.046985 -0.000002 0.000000 0.723664 0.160085 -0.719285
 18 -3.112024 1.517254 4.341911 2.426247 -0.917593 0.132067
 19 4.827230 0.000000 0.000001 -1.527734 0.522220 -0.768435
 20 11.139763 0.000000 0.000000 0.000000 -0.000000 -1.588632
 21 10.314597 0.000001 0.000000 -0.977417 0.255875 0.069163
 22 2.975834 -0.386307 -0.044143 -0.000797 -0.043611 0.000035
 23 1.438886 0.000000 0.000000 0.000000 -0.000000 0.453458
 24 1.485303 0.000000 0.000000 0.000000 -0.000000 0.531981
 25 -2.869898 1.399663 -4.140396 -0.000013 1.370795 2.669783
 26 4.972048 0.000000 0.000001 1.015268 -0.561799 -1.751253
 27 11.585355 0.000000 0.000000 0.000000 -0.000000 -1.962074
 28 10.127057 0.000000 0.000001 1.546564 -0.183274 1.181238
 29 2.683750 -0.427338 0.044205 -0.005738 0.043239 -0.157060
 30 1.438885 -0.000001 0.000000 0.000000 -0.000000 0.732589
 31 1.485305 0.000001 0.000000 0.000000 -0.000000 1.168627
time 8
  0 0.235347 -0.235347 -14.600533 -0.000000 0.270322 -1.571254
  1 0.000000 0.000000 0.000000 -1.570795 -1.570796 0.000000
  2 -0.000005 0.000007 3.713255 -3.368582 -0.221254 1.331540
  3 18.045721 0.000000 0.000000 0.000000 -0.000000 -1.349056
  4 17.597597 0.000000 0.000000 -0.205032 0.225938 -0.216505
  5 3.793090 6.407221 0.000000 0.000000 -0.000000 1.570796
  6 0.000005 -0.000003 -3.713255 6.216042 2.542639 5.445438
  7 18.045725 0.000000 0.000000 0.000000 -0.000000 -2.074575
  8 17.597597 0.000000 0.000000 -0.092072 0.087818 0.559914
  9 3.793090 6.407221 0.000000 0.000000 -0.000000 1.570796
 10 0.935740 0.000000 0.000000 0.000000 -0.000000 0.000000
 11 0.935741 0.000000 0.000000 0.000000 -0.000000 0.000000
 12 1.293670 0.684478 -0.000001 -0.000004 -0.000001 0.201406
 13 5.309685 -0.003834 0.000000 -0.262418 0.065831 0.239540
 14 4.826790 -0.004591 0.000000 -0.341849 0.056843 0.157501
 15 5.792767 -0.005304 0.000000 -0.289979 0.030213 0.100246
 16 6.662317 -0.001453 0.000000 0.000000 -0.000001 0.471000
 17 2.046985 -0.000002 0.000000 0.667742 0.189013 -0.733039
 18 -3.112024 1.517254 4.341911 2.426247 -0.917593 0.132067
 19 4.827230 0.000000 0.000001 -1.534254 0.548857 -0.803877
 20 11.139763 0.000000 0.000000 0.000000 -0.000000 -1.570131
 21 10.314597 0.000001 0.000000 -0.977417 0.255875 0.069163
 22 2.975834 -0.386307 -0.044143 -0.000797 -0.043611 0.000035
 23 1.438886 0.000000 0.000000 0.000000 -0.000000 0.453458
 24 1.485303 0.000000 0.000000 0.000000 -0.000000 0.531981
 25 -2.869898 1.399663 -4.140396 -0.000013 1.370795 2.669783
 26 4.972048 0.000000 0.000001 0.998250 -0.557616 -1.733863
 27 11.585355 0.000000 0.000000 0.000000 -0.000000 -1.920519
 28 10.127057 0.000000 0.000001 1.569752 -0.156744 1.177394
 29 2.683750 -0.427338 0.044205 -0.005738 0.043239 -0.157060
 30 1.438885 -0.000001 0.000000 0.000000 -0.000000 0.732589
 31 1.485305 0.000001 0.000000 0.000000 -0.000000 1.168627
time 9
  0 0.235347 -0.235347 -14.600533 -0.000000 0.270322 -1.571254
  1 0.000000 0.000000 0.000000 -1.570795 -1.570796 0.000000
  2 -0.000005 0.000007 3.713255 -3.368582 -0.221254 1.331540
  3 18.045721 0.000000 0.000000 0.000000 -0.000000 -1.349056
  4 17.597597 0.000000 0.000000 -0.205032 0.225938 -0.216505
  5 3.793090 6.407221 0.000000 0.000000 -0.000000 1.570796
  6 0.000005 -0.000003 -3.713255 6.216042 2.542639 5.445438
  7 18.045725 0.000000 0.000000 0.000000 -0.000000 -2.074575
  8 17.597597 0.000000 0.000000 -0.092072 0.087818 0.559914
  9 3.793090 6.407221 0.000000 0.000000 -0.000000 1.570796
 10 0.935740 0.000000 0.000000 0.000000 -0.000000 0.000000
 11 0.935741 0.000000 0.000000 0.000000 -0.000000 0.000000
 12 1.293670 0.684478 -0.000001 -0.000004 -0.000001 0.201406
 13 5.309685 -0.003834 0.000000 -0.261708 0.068744 0.250187
 14 4.826790 -0.004591 0.000000 -0.326989 0.056543 0.164358
 15 5.792767 -0.005304 0.000000 -0.260759 0.027277 0.101056
 16 6.662317 -0.001453 0.000000 0.000000 -0.000001 0.471000
 17 2.046985 -0.000002 0.000000 0.614664 0.215960 -0.748546
 18 -3.112024 1.517254 4.341911 2.426247 -0.917593 0.132067
 19 4.827230 0.000000 0.000001 -1.541831 0.535326 -0.833981
 20 11.139763 0.000000 0.000000 0.000000 -0.000000 -1.562913
 21 10.314597 0.000001 0.000000 -0.996202 0.261897 0.072616
 22 2.975834 -0.386307 -0.044143 -0.000797 -0.043611 0.000035
 23 1.438886 0.000000 0.000000 0.000000 -0.000000 0.497221
 24 1.485303 0.000000 0.000000 0.000000 -0.000000 0.531981
 25 -2.869898 1.399663 -4.140396 -0.000013 1.370795 2.669783
 26 4.972048 0.000000 0.000001 0.986647 -0.541769 -1.727078
 27 11.585355 0.000000 0.000000 0.000000 -0.000000 -1.906808
 28 10.127057 0.000000 0.000001 1.612815 -0.134437 1.171471
 29 2.683750 -0.427338 0.044205 -0.005738 0.043239 -0.157060
 30 1.438885 -0.000001 0.000000 0.000000 -0.000000 0.732589
 31 1.485305 0.000001 0.000000 0.000000 -0.000000 1.168627
time 10
  0 0.235347 -0.235347 -14.600533 -0.000000 0.270322 -1.571254
  1 0.000000 0.000000 0.000000 -1.570795 -1.570796 0.000000
  2 -0.000005 0.000007 3.713255 -3.368582 -0.221254 1.331540
  3 18.045721 0.000000 0.000000 0.000000 -0.000000 -1.349056
  4 17.597597 0.000000 0.000000 -0.205032 0.225938 -0.216505
  5 3.793090 6.407221 0.000000 0.000000 -0.000000 1.570796
  6 0.000005 -0.000003 -3.713255 6.216042 2.542639 5.445438
  7 18.045725 0.000000 0.000000 0.000000 -0.000000 -2.074575
  8 17.597597 0.000000 0.000000 -0.092072 0.087818 0.559914
  9 3.793090 6.407221 0.000000 0.000000 -0.000000 1.570796
 10 0.935740 0.000000 0.000000 0.000000 -0.000000 0.000000
 11 0.935741 0.000000 0.000000 0.000000 -0.000000 0.000000
 12 1.293670 0.684478 -0.000001 -0.000004 -0.000001 0.201406
 13 5.309685 -0.003834 0.000000 -0.261010 0.071308 0.260019
 14 4.826790 -0.004591 0.000000 -0.313344 0.056184 0.170752
 15 5.792767 -0.005304 0.000000 -0.233839 0.024497 0.101762
 16 6.662317 -0.001453 0.000000 0.000000 -0.000001 0.471000
 17 2.046985 -0.000002 0.000000 0.565076 0.240521 -0.764906
 18 -3.112024 1.517254 4.341911 2.426247 -0.917593 0.132067
 19 4.827230 0.000000 0.000001 -1.550700 0.499924 -0.857959
 20 11.139763 0.000000 0.000000 0.000000 -0.000000 -1.562282
 21 10.314597 0.000001 0.000000 -1.024065 0.271093 0.077687
 22 2.975834 -0.386307 -0.044143 -0.000797 -0.043611 0.000035
 23 1.438886 0.000000 0.000000 0.000000 -0.000000 0.563035
 24 1.485303 0.000000 0.000000 0.000000 -0.000000 0.531981
 25 -2.869898 1.399663 -4.140396 -0.000013 1.370795 2.669783
 26 4.972048 0.000000 0.000001 0.972723 -0.520774 -1.731755
 27 11.585355 0.000000 0.000000 0.000000 -0.000000 -1.908487
 28 10.127057 0.000000 0.000001 1.677154 -0.111183 1.163822
 29 2.683750 -0.427338 0.044205 -0.005738 0.043239 -0.157060
 30 1.438885 -0.000001 0.000000 0.000000 -0.000000 0.732589
 31 1.485305 0.000001 0.000000 0.000000 -0.000000 1.168627
time 11
  0 0.235347 -0.235347 -14.600533 -0.000000 0.270322 -1.571254
  1 0.000000 0.000000 0.000000 -1.570795 -1.570796 0.000000
  2 -0.000005 0.000007 3.713255 -3.368582 -0.221254 1.331540
  3 18.045721 0.000000 0.000000 0.000000 -0.000000 -1.349056
  4 17.597597 0.000000 0.000000 -0.205032 0.225938 -0.216505
  5 3.793090 6.407221 0.000000 0.000000 -0.000000 1.570796
  6 0.000005 -0.000003 -3.713255 6.216042 2.542639 5.445438
  7 18.045725 0.000000 0.000000 0.000000 -0.000000 -2.074575
  8 17.597597 0.000000 0.000000 -0.092072 0.087818 0.559914
  9 3.793090 6.407221 0.000000 0.000000 -0.000000 1.570796
 10 0.935740 0.000000 0.000000 0.000000 -0.000000 0.000000
 11 0.935741 0.000000 0.000000 0.000000 -0.000000 0.000000
 12 1.293670 0.684478 -0.000001 -0.000004 -0.000001 0.201406
 13 5.309685 -0.003834 0.000000 -0.260349 0.073693 0.268946
 14 4.826790 -0.004591 0.000000 -0.300914 0.055632 0.176617
 15 5.792767 -0.005304 0.000000 -0.209364 0.021992 0.102343
 16 6.662317 -0.001453 0.000000 0.000000 -0.000001 0.471000
 17 2.046985 -0.000002 0.000000 0.519063 0.262673 -0.781762
 18 -3.112024 1.517254 4.341911 2.426247 -0.917593 0.132067
 19 4.827230 0.000000 0.000001 -1.559863 0.452523 -0.877124
 20 11.139763 0.000000 0.000000 0.000000 -0.000000 -1.565436
 21 10.314597 0.000001 0.000000 -1.054984 0.281354 0.082914
 22 2.975834 -0.386307 -0.044143 -0.000797 -0.043611 0.000035
 23 1.438886 0.000000 0.000000 0.000000 -0.000000 0.635367
 24 1.485303 0.000000 0.000000 0.000000 -0.000000 0.531981
 25 -2.869898 1.399663 -4.140396 -0.000013 1.370795 2.669783
 26 4.972048 0.000000 0.000001 0.957948 -0.497446 -1.741570
 27 11.585355 0.000000 0.000000 0.000000 -0.000000 -1.919190
 28 10.127057 0.000000 0.000001 1.747736 -0.088199 1.156840
 29 2.683750 -0.427338 0.044205 -0.005738 0.043239 -0.157060
 30 1.438885 -0.000001 0.000000 0.000000 -0.000000 0.732589
 31 1.485305 0.000001 0.000000 0.000000 -0.000000 1.168627
time 12
  0 0.235347 -0.235347 -14.600533 -0.000000 0.270322 -1.571254
  1 0.000000 0.000000 0.000000 -1.570795 -1.570796 0.000000
  2 -0.000005 0.000007 3.713255 -3.368582 -0.221254 1.331540
  3 18.045721 0.000000 0.000000 0.000000 -0.000000 -1.349056
  4 17.597597 0.000000 0.000000 -0.205032 0.225938 -0.216505
  5 3.793090 6.407221 0.000000 0.000000 -0.000000 1.570796
  6 0.000005 -0.000003 -3.713255 6.216042 2.542639 5.445438
  7 18.045725 0.000000 0.000000 0.000000 -0.000000 -2.074575
  8 17.597597 0.000000 0.000000 -0.092072 0.087818 0.559914
  9 3.793090 6.407221 0.000000 0.000000 -0.000000 1.570796
 10 0.935740 0.000000 0.000000 0.000000 -0.000000 0.000000
 11 0.935741 0.000000 0.000000 0.000000 -0.000000 0.000000
 12 1.293670 0.684478 -0.000001 -0.000004 -0.000001 0.201406
 13 5.309685 -0.003834 0.000000 -0.259749 0.075827 0.276985
 14 4.826790 -0.004591 0.000000 -0.289765 0.055057 0.181798
 15 5.792767 -0.005304 0.000000 -0.187352 0.019715 0.102800
 16 6.662317 -0.001453 0.000000 0.000000 -0.000001 0.471000
 17 2.046985 -0.000002 0.000000 0.476497 0.282619 -0.798123
 18 -3.112024 1.517254 4.341911 2.426247 -0.917593 0.132067
 19 4.827230 0.000000 0.000001 -1.568791 0.404356 -0.893401
 20 11.139763 0.000000 0.000000 0.000000 -0.000000 -1.568519
 21 10.314597 0.000001 0.000000 -1.082937 0.290746 0.087378
 22 2.975834 -0.386307 -0.044143 -0.000797 -0.043611 0.000035
 23 1.438886 0.000000 0.000000 0.000000 -0.000000 0.700673
 24 1.485303 0.000000 0.000000 0.000000 -0.000000 0.531981
 25 -2.869898 1.399663 -4.140396 -0.000013 1.370795 2.669783
 26 4.972048 0.000000 0.000001 0.944179 -0.474279 -1.750924
 27 11.585355 0.000000 0.000000 0.000000 -0.000000 -1.933531
 28 10.127057 0.000000 0.000001 1.811183 -0.067273 1.152133
 29 2.683750 -0.427338 0.044205 -0.005738 0.043239 -0.157060
 30 1.438885 -0.000001 0.000000 0.000000 -0.000000 0.732589
 31 1.485305 0.000001 0.000000 0.000000 -0.000000 1.168627
time 13
  0 0.235347 -0.235347 -14.600533 -0.000000 0.270322 -1.571254
  1 0.000000 0.000000 0.000000 -1.570795 -1.570796 0.000000
  2 -0.000005 0.000007 3.713255 -3.368582 -0.221254 1.331540
  3 18.045721 0.000000 0.000000 0.000000 -0.000000 -1.349056
  4 17.597597 0.000000 0.000000 -0.205032 0.225938 -0.216505
  5 3.793090 6.407221 0.000000 0.000000 -0.000000 1.570796
  6 0.000005 -0.000003 -3.713255 6.216042 2.542639 5.445438
  7 18.045725 0.000000 0.000000 0.000000 -0.000000 -2.074575
  8 17.597597 0.000000 0.000000 -0.092072 0.087818 0.559914
  9 3.793090 6.407221 0.000000 0.000000 -0.000000 1.570796
 10 0.935740 0.000000 0.000000 0.000000 -0.000000 0.000000
 11 0.935741 0.000000 0.000000 0.000000 -0.000000 0.000000
 12 1.293670 0.684478 -0.000001 -0.000004 -0.000001 0.201406
 13 5.309685 -0.003834 0.000000 -0.259223 0.077708 0.284101
 14 4.826790 -0.004591 0.000000 -0.279913 0.054506 0.186428
 15 5.792767 -0.005304 0.000000 -0.167915 0.017641 0.103174
 16 6.662317 -0.001453 0.000000 0.000000 -0.000001 0.471000
 17 2.046985 -0.000002 0.000000 0.437981 0.300562 -0.813450
 18 -3.112024 1.517254 4.341911 2.426247 -0.917593 0.132067
 19 4.827230 0.000000 0.000001 -1.576485 0.362146 -0.907928
 20 11.139763 0.000000 0.000000 0.000000 -0.000000 -1.570271
 21 10.314597 0.000001 0.000000 -1.103879 0.297811 0.090505
 22 2.975834 -0.386307 -0.044143 -0.000797 -0.043611 0.000035
 23 1.438886 0.000000 0.000000 0.000000 -0.000000 0.749261
 24 1.485303 0.000000 0.000000 0.000000 -0.000000 0.531981
 25 -2.869898 1.399663 -4.140396 -0.000013 1.370795 2.669783
 26 4.972048 0.000000 0.000001 0.933272 -0.452882 -1.755864
 27 11.585355 0.000000 0.000000 0.000000 -0.000000 -1.946404
 28 10.127057 0.000000 0.000001 1.858068 -0.049676 1.149544
 29 2.683750 -0.427338 0.044205 -0.005738 0.043239 -0.157060
 30 1.438885 -0.000001 0.000000 0.000000 -0.000000 0.732589
 31 1.485305 0.000001 0.000000 0.000000 -0.000000 1.168627
time 14
  0 0.235347 -0.235347 -14.600533 -0.000000 0.270322 -1.571254
  1 0.000000 0.000000 0.000000 -1.570795 -1.570796 0.000000
  2 -0.000005 0.000007 3.713255 -3.368582 -0.221254 1.331540
  3 18.045721 0.000000 0.000000 0.000000 -0.000000 -1.349056
  4 17.597597 0.000000 0.000000 -0.205032 0.225938 -0.216505
  5 3.793090 6.407221 0.000000 0.000000 -0.000000 1.570796
  6 0.000005 -0.000003 -3.713255 6.216042 2.542639 5.445438
  7 18.045725 0.000000 0.000000 0.000000 -0.000000 -2.074575
  8 17.597597 0.000000 0.000000 -0.092072 0.087818 0.559914
  9 3.793090 6.407221 0.000000 0.000000 -0.000000 1.570796
 10 0.935740 0.000000 0.000000 0.000000 -0.000000 0.000000
 11 0.935741 0.000000 0.000000 0.000000 -0.000000 0.000000
 12 1.293670 0.684478 -0.000001 -0.000004 -0.000001 0.201406
 13 5.309685 -0.003834 0.000000 -0.258733 0.079350 0.290131
 14 4.826790 -0.004591 0.000000 -0.271555 0.053931 0.190375
 15 5.792767 -0.005304 0.000000 -0.151430 0.015940 0.103423
 16 6.662317 -0.001453 0.000000 0.000000 -0.000001 0.471000
 17 2.046985 -0.000002 0.000000 0.403687 0.316635 -0.826710
 18 -3.112024 1.517254 4.341911 2.426247 -0.917593 0.132067
 19 4.827230 0.000000 0.000001 -1.582359 0.330914 -0.921142
 20 11.139763 0.000000 0.000000 0.000000 -0.000000 -1.569080
 21 10.314597 0.000001 0.000000 -1.115923 0.301855 0.092216
 22 2.975834 -0.386307 -0.044143 -0.000797 -0.043611 0.000035
 23 1.438886 0.000000 0.000000 0.000000 -0.000000 0.776941
 24 1.485303 0.000000 0.000000 0.000000 -0.000000 0.531981
 25 -2.869898 1.399663 -4.140396 -0.000013 1.370795 2.669783
 26 4.972048 0.000000 0.000001 0.926233 -0.435426 -1.754942
 27 11.585355 0.000000 0.000000 0.000000 -0.000000 -1.954868
 28 10.127057 0.000000 0.000001 1.884759 -0.036438 1.149034
 29 2.683750 -0.427338 0.044205 -0.005738 0.043239 -0.157060
 30 1.438885 -0.000001 0.000000 0.000000 -0.000000 0.732589
 31 1.485305 0.000001 0.000000 0.000000 -0.000000 1.168627
time 15
  0 0.235347 -0.235347 -14.600533 -0.000000 0.270322 -1.571254
  1 0.000000 0.000000 0.000000 -1.570795 -1.570796 0.000000
  2 -0.000005 0.000007 3.713255 -3.368582 -0.221254 1.331540
  3 18.045721 0.000000 0.000000 0.000000 -0.000000 -1.349056
  4 17.597597 0.000000 0.000000 -0.205032 0.225938 -0.216505
  5 3.793090 6.407221 0.000000 0.000000 -0.000000 1.570796
  6 0.000005 -0.000003 -3.713255 6.216042 2.542639 5.445438
  7 18.045725 0.000000 0.000000 0.000000 -0.000000 -2.074575
  8 17.597597 0.000000 0.000000 -0.092072 0.087818 0.559914
  9 3.793090 6.407221 0.000000 0.000000 -0.000000 1.570796
 10 0.935740 0.000000 0.000000 0.000000 -0.000000 0.000000
 11 0.935741 0.000000 0.000000 0.000000 -0.000000 0.000000
 12 1.293670 0.684478 -0.000001 -0.000004 -0.000001 0.201406
 13 5.309685 -0.003834 0.000000 -0.258378 0.080512 0.294748
 14 4.826790 -0.004591 0.000000 -0.265151 0.053403 0.193462
 15 5.792767 -0.005304 0.000000 -0.138761 0.014585 0.103610
 16 6.662317 -0.001453 0.000000 0.000000 -0.000001 0.471000
 17 2.046985 -0.000002 0.000000 0.375468 0.330660 -0.836868
 18 -3.112024 1.517254 4.341911 2.426247 -0.917593 0.132067
 19 4.827230 0.000000 0.000001 -1.586294 0.313213 -0.932081
 20 11.139763 0.000000 0.000000 0.000000 -0.000000 -1.564945
 21 10.314597 0.000001 0.000000 -1.119069 0.303029 0.092698
 22 2.975834 -0.386307 -0.044143 -0.000797 -0.043611 0.000035
 23 1.438886 0.000000 0.000000 0.000000 -0.000000 0.784940
 24 1.485303 0.000000 0.000000 0.000000 -0.000000 0.531981
 25 -2.869898 1.399663 -4.140396 -0.000013 1.370795 2.669783
 26 4.972048 0.000000 0.000001 0.922829 -0.422636 -1.749738
 27 11.585355 0.000000 0.000000 0.000000 -0.000000 -1.958226
 28 10.127057 0.000000 0.000001 1.892467 -0.027532 1.149858
 29 2.683750 -0.427338 0.044205 -0.005738 0.043239 -0.157060
 30 1.438885 -0.000001 0.000000 0.000000 -0.000000 0.732589
 31 1.485305 0.000001 0.000000 0.000000 -0.000000 1.168627
end
