version 1
nodes
  0 "Bip01"  -1
  1 "Bip01 Pelvis"   0
  2 "Bip01 L Leg"   1
  3 "Bip01 L Leg1"   2
  4 "Bip01 L Foot"   3
  5 "Bip01 L Toe0"   4
  6 "Bip01 R Leg"   1
  7 "Bip01 R Leg1"   6
  8 "Bip01 R Foot"   7
  9 "Bip01 R Toe0"   8
 10 "Bip01 R Toe01"   9
 11 "Bip01 R Toe02"  10
 12 "Bip01 Spine"   1
 13 "Bip01 Spine1"  12
 14 "Bip01 Spine2"  13
 15 "Bip01 Spine3"  14
 16 "Bip01 Neck"  15
 17 "Bip01 Head"  16
 18 "Bip01 L Arm"  16
 19 "Bip01 L Arm1"  18
 20 "Bip01 L Arm2"  19
 21 "Bip01 L Hand"  20
 22 "Bip01 L Finger1"  21
 23 "Bip01 L Finger11"  22
 24 "Bip01 L Finger12"  23
 25 "Bip01 R Arm"  16
 26 "Bip01 R Arm1"  25
 27 "Bip01 R Arm2"  26
 28 "Bip01 R Hand"  27
 29 "Bip01 R Finger1"  28
 30 "Bip01 R Finger11"  29
 31 "Bip01 R Finger12"  30
end
skeleton
time 0
  0 0.235347 -0.235347 -14.381776 -0.045585 0.257873 -1.742273
  1 0.000000 0.000000 0.000000 -1.570795 -1.570796 0.000000
  2 -0.000005 0.000007 3.713255 -3.368582 -0.221254 1.331540
  3 18.045721 0.000000 0.000000 0.000000 -0.000000 -1.349056
  4 17.597597 0.000000 0.000000 -0.205032 0.225938 -0.216505
  5 3.793090 6.407221 0.000000 0.000000 -0.000000 1.570796
  6 0.000005 -0.000003 -3.713255 6.216042 2.542639 5.445438
  7 18.045725 0.000000 0.000000 0.000000 -0.000000 -2.074575
  8 17.597597 0.000000 0.000000 -0.092072 0.087818 0.559914
  9 3.793090 6.407221 0.000000 0.000000 -0.000000 1.570796
 10 0.935740 0.000000 0.000000 0.000000 -0.000000 0.000000
 11 0.935741 0.000000 0.000000 0.000000 -0.000000 0.000000
 12 1.293670 0.684478 -0.000001 -0.000004 -0.000001 0.271132
 13 5.309685 -0.003834 0.000000 -0.032308 0.013027 0.383453
 14 4.826790 -0.004591 0.000000 -0.143840 0.219714 0.294399
 15 5.792767 -0.005304 0.000000 0.000049 0.087260 0.113327
 16 6.662317 -0.001453 0.000000 0.000000 -0.000001 -0.314346
 17 2.046985 -0.000002 0.000000 0.265994 -0.336424 -0.171103
 18 -3.268279 -1.123452 4.341911 1.923105 -1.393567 1.526584
 19 4.827230 0.000000 0.000001 -0.589715 -0.396102 -1.347847
 20 11.139763 0.000000 0.000000 0.000000 -0.000000 -1.565856
 21 10.314597 0.000001 0.000000 -0.695192 -0.010305 0.140702
 22 2.975834 -0.386307 -0.044143 -0.017432 -0.040040 0.392840
 23 1.438886 0.000000 0.000000 0.000000 -0.000000 0.270702
 24 1.485303 0.000000 0.000000 0.000000 -0.000000 0.375217
 25 -3.014434 -1.034005 -4.140396 -0.000013 1.370795 3.455176
 26 4.972048 0.000000 0.000001 0.811980 0.093795 -1.124213
 27 11.585355 0.000000 0.000000 0.000000 -0.000000 -1.988518
 28 10.127057 0.000000 0.000001 1.980376 -0.285848 1.184180
 29 2.683750 -0.427338 0.044205 0.001045 0.043611 0.000046
 30 1.438885 -0.000001 0.000000 0.000000 -0.000000 0.767689
 31 1.485305 0.000001 0.000000 0.000000 -0.000000 1.221538
time 1
  0 0.235347 -0.235347 -14.381776 -0.045585 0.257873 -1.742273
  1 0.000000 0.000000 0.000000 -1.570795 -1.570796 0.000000
  2 -0.000005 0.000007 3.713255 -3.368582 -0.221254 1.331540
  3 18.045721 0.000000 0.000000 0.000000 -0.000000 -1.349056
  4 17.597597 0.000000 0.000000 -0.205032 0.225938 -0.216505
  5 3.793090 6.407221 0.000000 0.000000 -0.000000 1.570796
  6 0.000005 -0.000003 -3.713255 6.216042 2.542639 5.445438
  7 18.045725 0.000000 0.000000 0.000000 -0.000000 -2.074575
  8 17.597597 0.000000 0.000000 -0.092072 0.087818 0.559914
  9 3.793090 6.407221 0.000000 0.000000 -0.000000 1.570796
 10 0.935740 0.000000 0.000000 0.000000 -0.000000 0.000000
 11 0.935741 0.000000 0.000000 0.000000 -0.000000 0.000000
 12 1.293670 0.684478 -0.000001 -0.000004 -0.000001 0.271132
 13 5.309685 -0.003834 0.000000 0.025183 -0.010187 0.383543
 14 4.826790 -0.004591 0.000000 -0.050410 0.190939 0.313471
 15 5.792767 -0.005304 0.000000 0.061912 0.079985 0.118476
 16 6.662317 -0.001453 0.000000 0.000000 -0.000001 -0.314346
 17 2.046985 -0.000002 0.000000 0.045539 -0.338585 -0.138515
 18 -3.268279 -1.123452 4.341911 1.923105 -1.393567 1.526584
 19 4.827230 0.000000 0.000001 -0.715998 -0.362657 -1.355723
 20 11.139763 0.000000 0.000000 0.000000 -0.000000 -1.565856
 21 10.314597 0.000001 0.000000 -0.695192 -0.010305 0.140702
 22 2.975834 -0.386307 -0.044143 -0.017432 -0.040040 0.392840
 23 1.438886 0.000000 0.000000 0.000000 -0.000000 0.270702
 24 1.485303 0.000000 0.000000 0.000000 -0.000000 0.375217
 25 -3.014434 -1.034005 -4.140396 -0.343527 1.358839 3.118278
 26 4.972048 0.000000 0.000001 0.870073 0.307366 -1.071054
 27 11.585355 0.000000 0.000000 0.000000 -0.000000 -1.433969
 28 10.127057 0.000000 0.000001 2.519423 -0.421584 0.908700
 29 2.683750 -0.427338 0.044205 -0.002395 0.043563 -0.078994
 30 1.438885 -0.000001 0.000000 0.000000 -0.000000 0.578712
 31 1.485305 0.000001 0.000000 0.000000 -0.000000 0.773045
time 2
  0 0.235347 -0.235347 -14.381776 -0.045585 0.257873 -1.742273
  1 0.000000 0.000000 0.000000 -1.570795 -1.570796 0.000000
  2 -0.000005 0.000007 3.713255 -3.368582 -0.221254 1.331540
  3 18.045721 0.000000 0.000000 0.000000 -0.000000 -1.349056
  4 17.597597 0.000000 0.000000 -0.205032 0.225938 -0.216505
  5 3.793090 6.407221 0.000000 0.000000 -0.000000 1.570796
  6 0.000005 -0.000003 -3.713255 6.216042 2.542639 5.445438
  7 18.045725 0.000000 0.000000 0.000000 -0.000000 -2.074575
  8 17.597597 0.000000 0.000000 -0.092072 0.087818 0.559914
  9 3.793090 6.407221 0.000000 0.000000 -0.000000 1.570796
 10 0.935740 0.000000 0.000000 0.000000 -0.000000 0.000000
 11 0.935741 0.000000 0.000000 0.000000 -0.000000 0.000000
 12 1.293670 0.684478 -0.000001 -0.000004 -0.000001 0.271132
 13 5.309685 -0.003834 0.000000 0.102225 -0.041275 0.381552
 14 4.826790 -0.004591 0.000000 0.073004 0.149891 0.334372
 15 5.792767 -0.005304 0.000000 0.144566 0.069834 0.124705
 16 6.662317 -0.001453 0.000000 0.000000 -0.000001 -0.314346
 17 2.046985 -0.000002 0.000000 -0.246779 -0.334285 -0.105838
 18 -3.268279 -1.123452 4.341911 1.923105 -1.393567 1.526584
 19 4.827230 0.000000 0.000001 -0.867479 -0.290832 -1.382414
 20 11.139763 0.000000 0.000000 0.000000 -0.000000 -1.565856
 21 10.314597 0.000001 0.000000 -0.695192 -0.010305 0.140702
 22 2.975834 -0.386307 -0.044143 -0.017432 -0.040040 0.392840
 23 1.438886 0.000000 0.000000 0.000000 -0.000000 0.270702
 24 1.485303 0.000000 0.000000 0.000000 -0.000000 0.375217
 25 -3.014434 -1.034005 -4.140396 -0.699600 1.311751 2.771984
 26 4.972048 0.000000 0.000001 0.892429 0.612398 -0.969742
 27 11.585355 0.000000 0.000000 0.000000 -0.000000 -0.698583
 28 10.127057 0.000000 0.000001 3.274229 -0.356640 0.495029
 29 2.683750 -0.427338 0.044205 -0.006985 0.043120 -0.184788
 30 1.438885 -0.000001 0.000000 0.000000 -0.000000 0.325856
 31 1.485305 0.000001 0.000000 0.000000 -0.000000 0.172895
time 3
  0 0.235347 -0.235347 -14.381776 -0.045585 0.257873 -1.742273
  1 0.000000 0.000000 0.000000 -1.570795 -1.570796 0.000000
  2 -0.000005 0.000007 3.713255 -3.368582 -0.221254 1.331540
  3 18.045721 0.000000 0.000000 0.000000 -0.000000 -1.349056
  4 17.597597 0.000000 0.000000 -0.205032 0.225938 -0.216505
  5 3.793090 6.407221 0.000000 0.000000 -0.000000 1.570796
  6 0.000005 -0.000003 -3.713255 6.216042 2.542639 5.445438
  7 18.045725 0.000000 0.000000 0.000000 -0.000000 -2.074575
  8 17.597597 0.000000 0.000000 -0.092072 0.087818 0.559914
  9 3.793090 6.407221 0.000000 0.000000 -0.000000 1.570796
 10 0.935740 0.000000 0.000000 0.000000 -0.000000 0.000000
 11 0.935741 0.000000 0.000000 0.000000 -0.000000 0.000000
 12 1.293670 0.684478 -0.000001 -0.000004 -0.000001 0.271132
 13 5.309685 -0.003834 0.000000 0.145698 -0.058677 0.379379
 14 4.826790 -0.004591 0.000000 0.141771 0.125766 0.343831
 15 5.792767 -0.005304 0.000000 0.191053 0.063950 0.127819
 16 6.662317 -0.001453 0.000000 0.000000 -0.000001 -0.314346
 17 2.046985 -0.000002 0.000000 -0.409805 -0.330143 -0.093613
 18 -3.268279 -1.123452 4.341911 1.923105 -1.393567 1.526584
 19 4.827230 0.000000 0.000001 -0.942544 -0.238580 -1.405779
 20 11.139763 0.000000 0.000000 0.000000 -0.000000 -1.565856
 21 10.314597 0.000001 0.000000 -0.695192 -0.010305 0.140702
 22 2.975834 -0.386307 -0.044143 -0.017432 -0.040040 0.392840
 23 1.438886 0.000000 0.000000 0.000000 -0.000000 0.270702
 24 1.485303 0.000000 0.000000 0.000000 -0.000000 0.375217
 25 -3.014434 -1.034005 -4.140396 -0.839862 1.275997 2.637378
 26 4.972048 0.000000 0.000001 0.874637 0.784542 -0.907756
 27 11.585355 0.000000 0.000000 0.000000 -0.000000 -0.317598
 28 10.127057 0.000000 0.000001 3.654594 -0.208586 0.324516
 29 2.683750 -0.427338 0.044205 -0.009477 0.042580 -0.244374
 30 1.438885 -0.000001 0.000000 0.000000 -0.000000 0.183457
 31 1.485305 0.000001 0.000000 0.000000 -0.000000 -0.165070
time 4
  0 0.235347 -0.235347 -14.381776 -0.045585 0.257873 -1.742273
  1 0.000000 0.000000 0.000000 -1.570795 -1.570796 0.000000
  2 -0.000005 0.000007 3.713255 -3.368582 -0.221254 1.331540
  3 18.045721 0.000000 0.000000 0.000000 -0.000000 -1.349056
  4 17.597597 0.000000 0.000000 -0.205032 0.225938 -0.216505
  5 3.793090 6.407221 0.000000 0.000000 -0.000000 1.570796
  6 0.000005 -0.000003 -3.713255 6.216042 2.542639 5.445438
  7 18.045725 0.000000 0.000000 0.000000 -0.000000 -2.074575
  8 17.597597 0.000000 0.000000 -0.092072 0.087818 0.559914
  9 3.793090 6.407221 0.000000 0.000000 -0.000000 1.570796
 10 0.935740 0.000000 0.000000 0.000000 -0.000000 0.000000
 11 0.935741 0.000000 0.000000 0.000000 -0.000000 0.000000
 12 1.293670 0.684478 -0.000001 -0.000004 -0.000001 0.271132
 13 5.309685 -0.003834 0.000000 0.145943 -0.058748 0.379361
 14 4.826790 -0.004591 0.000000 0.141196 0.122794 0.363851
 15 5.792767 -0.005304 0.000000 0.191363 0.063914 0.127840
 16 6.662317 -0.001453 0.000000 0.000000 -0.000001 -0.314346
 17 2.046985 -0.000002 0.000000 -0.404290 -0.332011 -0.114693
 18 -3.268279 -1.123452 4.341911 1.923105 -1.393567 1.526584
 19 4.827230 0.000000 0.000001 -0.947243 -0.257132 -1.398866
 20 11.139763 0.000000 0.000000 0.000000 -0.000000 -1.464941
 21 10.314597 0.000001 0.000000 -0.695192 -0.010305 0.140702
 22 2.975834 -0.386307 -0.044143 -0.017432 -0.040040 0.392840
 23 1.438886 0.000000 0.000000 0.000000 -0.000000 0.270702
 24 1.485303 0.000000 0.000000 0.000000 -0.000000 0.375217
 25 -3.014434 -1.034005 -4.140396 -0.833343 1.277919 2.643226
 26 4.972048 0.000000 0.000001 0.883765 0.798056 -0.908810
 27 11.585355 0.000000 0.000000 0.000000 -0.000000 -0.407002
 28 10.127057 0.000000 0.000001 3.657078 -0.207395 0.323653
 29 2.683750 -0.427338 0.044205 -0.009501 0.042568 -0.244754
 30 1.438885 -0.000001 0.000000 0.000000 -0.000000 0.182526
 31 1.485305 0.000001 0.000000 0.000000 -0.000000 -0.167306
time 5
  0 0.235347 -0.235347 -14.381776 -0.045585 0.257873 -1.742273
  1 0.000000 0.000000 0.000000 -1.570795 -1.570796 0.000000
  2 -0.000005 0.000007 3.713255 -3.368582 -0.221254 1.331540
  3 18.045721 0.000000 0.000000 0.000000 -0.000000 -1.349056
  4 17.597597 0.000000 0.000000 -0.205032 0.225938 -0.216505
  5 3.793090 6.407221 0.000000 0.000000 -0.000000 1.570796
  6 0.000005 -0.000003 -3.713255 6.216042 2.542639 5.445438
  7 18.045725 0.000000 0.000000 0.000000 -0.000000 -2.074575
  8 17.597597 0.000000 0.000000 -0.092072 0.087818 0.559914
  9 3.793090 6.407221 0.000000 0.000000 -0.000000 1.570796
 10 0.935740 0.000000 0.000000 0.000000 -0.000000 0.000000
 11 0.935741 0.000000 0.000000 0.000000 -0.000000 0.000000
 12 1.293670 0.684478 -0.000001 -0.000004 -0.000001 0.271132
 13 5.309685 -0.003834 0.000000 0.126759 -0.051066 0.380429
 14 4.826790 -0.004591 0.000000 0.109916 0.131159 0.386891
 15 5.792767 -0.005304 0.000000 0.170834 0.066502 0.126449
 16 6.662317 -0.001453 0.000000 0.000000 -0.000001 -0.314346
 17 2.046985 -0.000002 0.000000 -0.324199 -0.335253 -0.148584
 18 -3.268279 -1.123452 4.341911 1.923105 -1.393567 1.526584
 19 4.827230 0.000000 0.000001 -0.920753 -0.306916 -1.378038
 20 11.139763 0.000000 0.000000 0.000000 -0.000000 -1.328075
 21 10.314597 0.000001 0.000000 -0.695192 -0.010305 0.140702
 22 2.975834 -0.386307 -0.044143 -0.017432 -0.040040 0.392840
 23 1.438886 0.000000 0.000000 0.000000 -0.000000 0.270702
 24 1.485303 0.000000 0.000000 0.000000 -0.000000 0.375217
 25 -3.014434 -1.034005 -4.140396 -0.763739 1.297167 2.710242
 26 4.972048 0.000000 0.000001 0.906430 0.737725 -0.939638
 27 11.585355 0.000000 0.000000 0.000000 -0.000000 -0.711595
 28 10.127057 0.000000 0.000001 3.494447 -0.280569 0.390493
 29 2.683750 -0.427338 0.044205 -0.008423 0.042808 -0.218429
 30 1.438885 -0.000001 0.000000 0.000000 -0.000000 0.245374
 31 1.485305 0.000001 0.000000 0.000000 -0.000000 -0.018025
time 6
  0 0.235347 -0.235347 -14.381776 -0.045585 0.257873 -1.742273
  1 0.000000 0.000000 0.000000 -1.570795 -1.570796 0.000000
  2 -0.000005 0.000007 3.713255 -3.368582 -0.221254 1.331540
  3 18.045721 0.000000 0.000000 0.000000 -0.000000 -1.349056
  4 17.597597 0.000000 0.000000 -0.205032 0.225938 -0.216505
  5 3.793090 6.407221 0.000000 0.000000 -0.000000 1.570796
  6 0.000005 -0.000003 -3.713255 6.216042 2.542639 5.445438
  7 18.045725 0.000000 0.000000 0.000000 -0.000000 -2.074575
  8 17.597597 0.000000 0.000000 -0.092072 0.087818 0.559914
  9 3.793090 6.407221 0.000000 0.000000 -0.000000 1.570796
 10 0.935740 0.000000 0.000000 0.000000 -0.000000 0.000000
 11 0.935741 0.000000 0.000000 0.000000 -0.000000 0.000000
 12 1.293670 0.684478 -0.000001 -0.000004 -0.000001 0.271132
 13 5.309685 -0.003834 0.000000 0.101111 -0.040820 0.381606
 14 4.826790 -0.004591 0.000000 0.069293 0.145733 0.403361
 15 5.792767 -0.005304 0.000000 0.143375 0.070038 0.124601
 16 6.662317 -0.001453 0.000000 0.000000 -0.000001 -0.314346
 17 2.046985 -0.000002 0.000000 -0.221317 -0.336986 -0.179688
 18 -3.268279 -1.123452 4.341911 1.923105 -1.393567 1.526584
 19 4.827230 0.000000 0.000001 -0.879461 -0.357466 -1.356423
 20 11.139763 0.000000 0.000000 0.000000 -0.000000 -1.217349
 21 10.314597 0.000001 0.000000 -0.695192 -0.010305 0.140702
 22 2.975834 -0.386307 -0.044143 -0.017432 -0.040040 0.392840
 23 1.438886 0.000000 0.000000 0.000000 -0.000000 0.270702
 24 1.485303 0.000000 0.000000 0.000000 -0.000000 0.375217
 25 -3.014434 -1.034005 -4.140396 -0.660963 1.319439 2.809183
 26 4.972048 0.000000 0.000001 0.921514 0.647551 -0.981928
 27 11.585355 0.000000 0.000000 0.000000 -0.000000 -1.052844
 28 10.127057 0.000000 0.000001 3.263909 -0.359455 0.500246
 29 2.683750 -0.427338 0.044205 -0.006913 0.043132 -0.183252
 30 1.438885 -0.000001 0.000000 0.000000 -0.000000 0.329515
 31 1.485305 0.000001 0.000000 0.000000 -0.000000 0.181605
time 7
  0 0.235347 -0.235347 -14.381776 -0.045585 0.257873 -1.742273
  1 0.000000 0.000000 0.000000 -1.570795 -1.570796 0.000000
  2 -0.000005 0.000007 3.713255 -3.368582 -0.221254 1.331540
  3 18.045721 0.000000 0.000000 0.000000 -0.000000 -1.349056
  4 17.597597 0.000000 0.000000 -0.205032 0.225938 -0.216505
  5 3.793090 6.407221 0.000000 0.000000 -0.000000 1.570796
  6 0.000005 -0.000003 -3.713255 6.216042 2.542639 5.445438
  7 18.045725 0.000000 0.000000 0.000000 -0.000000 -2.074575
  8 17.597597 0.000000 0.000000 -0.092072 0.087818 0.559914
  9 3.793090 6.407221 0.000000 0.000000 -0.000000 1.570796
 10 0.935740 0.000000 0.000000 0.000000 -0.000000 0.000000
 11 0.935741 0.000000 0.000000 0.000000 -0.000000 0.000000
 12 1.293670 0.684478 -0.000001 -0.000004 -0.000001 0.271132
 13 5.309685 -0.003834 0.000000 0.077838 -0.031472 0.382439
 14 4.826790 -0.004591 0.000000 0.033136 0.160570 0.406669
 15 5.792767 -0.005304 0.000000 0.118460 0.073142 0.122836
 16 6.662317 -0.001453 0.000000 0.000000 -0.000001 -0.314346
 17 2.046985 -0.000002 0.000000 -0.131446 -0.337076 -0.197487
 18 -3.268279 -1.123452 4.341911 1.923105 -1.393567 1.526584
 19 4.827230 0.000000 0.000001 -0.836936 -0.390400 -1.342946
 20 11.139763 0.000000 0.000000 0.000000 -0.000000 -1.173549
 21 10.314597 0.000001 0.000000 -0.695192 -0.010305 0.140702
 22 2.975834 -0.386307 -0.044143 -0.017432 -0.040040 0.392840
 23 1.438886 0.000000 0.000000 0.000000 -0.000000 0.270702
 24 1.485303 0.000000 0.000000 0.000000 -0.000000 0.375217
 25 -3.014434 -1.034005 -4.140396 -0.558954 1.336143 2.908220
 26 4.972048 0.000000 0.000001 0.923216 0.559307 -1.018817
 27 11.585355 0.000000 0.000000 0.000000 -0.000000 -1.310845
 28 10.127057 0.000000 0.000001 3.042608 -0.408184 0.616824
 29 2.683750 -0.427338 0.044205 -0.005535 0.043275 -0.151362
 30 1.438885 -0.000001 0.000000 0.000000 -0.000000 0.405705
 31 1.485305 0.000001 0.000000 0.000000 -0.000000 0.362558
time 8
  0 0.235347 -0.235347 -14.381776 -0.045585 0.257873 -1.742273
  1 0.000000 0.000000 0.000000 -1.570795 -1.570796 0.000000
  2 -0.000005 0.000007 3.713255 -3.368582 -0.221254 1.331540
  3 18.045721 0.000000 0.000000 0.000000 -0.000000 -1.349056
  4 17.597597 0.000000 0.000000 -0.205032 0.225938 -0.216505
  5 3.793090 6.407221 0.000000 0.000000 -0.000000 1.570796
  6 0.000005 -0.000003 -3.713255 6.216042 2.542639 5.445438
  7 18.045725 0.000000 0.000000 0.000000 -0.000000 -2.074575
  8 17.597597 0.000000 0.000000 -0.092072 0.087818 0.559914
  9 3.793090 6.407221 0.000000 0.000000 -0.000000 1.570796
 10 0.935740 0.000000 0.000000 0.000000 -0.000000 0.000000
 11 0.935741 0.000000 0.000000 0.000000 -0.000000 0.000000
 12 1.293670 0.684478 -0.000001 -0.000004 -0.000001 0.271132
 13 5.309685 -0.003834 0.000000 0.056034 -0.022651 0.383036
 14 4.826790 -0.004591 0.000000 -0.000739 0.174843 0.393638
 15 5.792767 -0.005304 0.000000 0.095029 0.075982 0.121092
 16 6.662317 -0.001453 0.000000 0.000000 -0.000001 -0.314346
 17 2.046985 -0.000002 0.000000 -0.051398 -0.336716 -0.198700
 18 -3.268279 -1.123452 4.341911 1.923105 -1.393567 1.526584
 19 4.827230 0.000000 0.000001 -0.791533 -0.404101 -1.337783
 20 11.139763 0.000000 0.000000 0.000000 -0.000000 -1.210201
 21 10.314597 0.000001 0.000000 -0.695192 -0.010305 0.140702
 22 2.975834 -0.386307 -0.044143 -0.017432 -0.040040 0.392840
 23 1.438886 0.000000 0.000000 0.000000 -0.000000 0.270702
 24 1.485303 0.000000 0.000000 0.000000 -0.000000 0.375217
 25 -3.014434 -1.034005 -4.140396 -0.445536 1.349823 3.019049
 26 4.972048 0.000000 0.000001 0.913160 0.467363 -1.052346
 27 11.585355 0.000000 0.000000 0.000000 -0.000000 -1.482519
 28 10.127057 0.000000 0.000001 2.826849 -0.430680 0.736265
 29 2.683750 -0.427338 0.044205 -0.004192 0.043419 -0.121371
 30 1.438885 -0.000001 0.000000 0.000000 -0.000000 0.477436
 31 1.485305 0.000001 0.000000 0.000000 -0.000000 0.532659
time 9
  0 0.235347 -0.235347 -14.381776 -0.045585 0.257873 -1.742273
  1 0.000000 0.000000 0.000000 -1.570795 -1.570796 0.000000
  2 -0.000005 0.000007 3.713255 -3.368582 -0.221254 1.331540
  3 18.045721 0.000000 0.000000 0.000000 -0.000000 -1.349056
  4 17.597597 0.000000 0.000000 -0.205032 0.225938 -0.216505
  5 3.793090 6.407221 0.000000 0.000000 -0.000000 1.570796
  6 0.000005 -0.000003 -3.713255 6.216042 2.542639 5.445438
  7 18.045725 0.000000 0.000000 0.000000 -0.000000 -2.074575
  8 17.597597 0.000000 0.000000 -0.092072 0.087818 0.559914
  9 3.793090 6.407221 0.000000 0.000000 -0.000000 1.570796
 10 0.935740 0.000000 0.000000 0.000000 -0.000000 0.000000
 11 0.935741 0.000000 0.000000 0.000000 -0.000000 0.000000
 12 1.293670 0.684478 -0.000001 -0.000004 -0.000001 0.271132
 13 5.309685 -0.003834 0.000000 0.032553 -0.013135 0.383453
 14 4.826790 -0.004591 0.000000 -0.037717 0.189213 0.371237
 15 5.792767 -0.005304 0.000000 0.069853 0.079026 0.119099
 16 6.662317 -0.001453 0.000000 0.000000 -0.000001 -0.314346
 17 2.046985 -0.000002 0.000000 0.032700 -0.336446 -0.193172
 18 -3.268279 -1.123452 4.341911 1.923105 -1.393567 1.526584
 19 4.827230 0.000000 0.000001 -0.739845 -0.409207 -1.337083
 20 11.139763 0.000000 0.000000 0.000000 -0.000000 -1.288971
 21 10.314597 0.000001 0.000000 -0.695192 -0.010305 0.140702
 22 2.975834 -0.386307 -0.044143 -0.017432 -0.040040 0.392840
 23 1.438886 0.000000 0.000000 0.000000 -0.000000 0.270702
 24 1.485303 0.000000 0.000000 0.000000 -0.000000 0.375217
 25 -3.014434 -1.034005 -4.140396 -0.303452 1.361496 3.157586
 26 4.972048 0.000000 0.000001 0.894208 0.365042 -1.085414
 27 11.585355 0.000000 0.000000 0.000000 -0.000000 -1.631248
 28 10.127057 0.000000 0.000001 2.592744 -0.428271 0.867827
 29 2.683750 -0.427338 0.044205 -0.002790 0.043539 -0.089167
 30 1.438885 -0.000001 0.000000 0.000000 -0.000000 0.554425
 31 1.485305 0.000001 0.000000 0.000000 -0.000000 0.715382
time 10
  0 0.235347 -0.235347 -14.381776 -0.045585 0.257873 -1.742273
  1 0.000000 0.000000 0.000000 -1.570795 -1.570796 0.000000
  2 -0.000005 0.000007 3.713255 -3.368582 -0.221254 1.331540
  3 18.045721 0.000000 0.000000 0.000000 -0.000000 -1.349056
  4 17.597597 0.000000 0.000000 -0.205032 0.225938 -0.216505
  5 3.793090 6.407221 0.000000 0.000000 -0.000000 1.570796
  6 0.000005 -0.000003 -3.713255 6.216042 2.542639 5.445438
  7 18.045725 0.000000 0.000000 0.000000 -0.000000 -2.074575
  8 17.597597 0.000000 0.000000 -0.092072 0.087818 0.559914
  9 3.793090 6.407221 0.000000 0.000000 -0.000000 1.570796
 10 0.935740 0.000000 0.000000 0.000000 -0.000000 0.000000
 11 0.935741 0.000000 0.000000 0.000000 -0.000000 0.000000
 12 1.293670 0.684478 -0.000001 -0.000004 -0.000001 0.271132
 13 5.309685 -0.003834 0.000000 0.008986 -0.003583 0.383652
 14 4.826790 -0.004591 0.000000 -0.075664 0.201880 0.344448
 15 5.792767 -0.005304 0.000000 0.044514 0.082047 0.117085
 16 6.662317 -0.001453 0.000000 0.000000 -0.000001 -0.314346
 17 2.046985 -0.000002 0.000000 0.116970 -0.336401 -0.184857
 18 -3.268279 -1.123452 4.341911 1.923105 -1.393567 1.526584
 19 4.827230 0.000000 0.000001 -0.685925 -0.408186 -1.339183
 20 11.139763 0.000000 0.000000 0.000000 -0.000000 -1.385961
 21 10.314597 0.000001 0.000000 -0.695192 -0.010305 0.140702
 22 2.975834 -0.386307 -0.044143 -0.017432 -0.040040 0.392840
 23 1.438886 0.000000 0.000000 0.000000 -0.000000 0.270702
 24 1.485303 0.000000 0.000000 0.000000 -0.000000 0.375217
 25 -3.014434 -1.034005 -4.140396 -0.156095 1.368449 3.301683
 26 4.972048 0.000000 0.000001 0.868913 0.262721 -1.112356
 27 11.585355 0.000000 0.000000 0.000000 -0.000000 -1.764446
 28 10.127057 0.000000 0.000001 2.361123 -0.397978 0.995035
 29 2.683750 -0.427338 0.044205 -0.001424 0.043611 -0.056749
 30 1.438885 -0.000001 0.000000 0.000000 -0.000000 0.631879
 31 1.485305 0.000001 0.000000 0.000000 -0.000000 0.899316
time 11
  0 0.235347 -0.235347 -14.381776 -0.045585 0.257873 -1.742273
  1 0.000000 0.000000 0.000000 -1.570795 -1.570796 0.000000
  2 -0.000005 0.000007 3.713255 -3.368582 -0.221254 1.331540
  3 18.045721 0.000000 0.000000 0.000000 -0.000000 -1.349056
  4 17.597597 0.000000 0.000000 -0.205032 0.225938 -0.216505
  5 3.793090 6.407221 0.000000 0.000000 -0.000000 1.570796
  6 0.000005 -0.000003 -3.713255 6.216042 2.542639 5.445438
  7 18.045725 0.000000 0.000000 0.000000 -0.000000 -2.074575
  8 17.597597 0.000000 0.000000 -0.092072 0.087818 0.559914
  9 3.793090 6.407221 0.000000 0.000000 -0.000000 1.570796
 10 0.935740 0.000000 0.000000 0.000000 -0.000000 0.000000
 11 0.935741 0.000000 0.000000 0.000000 -0.000000 0.000000
 12 1.293670 0.684478 -0.000001 -0.000004 -0.000001 0.271132
 13 5.309685 -0.003834 0.000000 -0.013773 0.005585 0.383634
 14 4.826790 -0.004591 0.000000 -0.113036 0.212415 0.316557
 15 5.792767 -0.005304 0.000000 0.019991 0.084971 0.115050
 16 6.662317 -0.001453 0.000000 0.000000 -0.000001 -0.314346
 17 2.046985 -0.000002 0.000000 0.198957 -0.336469 -0.176272
 18 -3.268279 -1.123452 4.341911 1.923105 -1.393567 1.526584
 19 4.827230 0.000000 0.000001 -0.632945 -0.402399 -1.343734
 20 11.139763 0.000000 0.000000 0.000000 -0.000000 -1.487367
 21 10.314597 0.000001 0.000000 -0.695192 -0.010305 0.140702
 22 2.975834 -0.386307 -0.044143 -0.017432 -0.040040 0.392840
 23 1.438886 0.000000 0.000000 0.000000 -0.000000 0.270702
 24 1.485303 0.000000 0.000000 0.000000 -0.000000 0.375217
 25 -3.014434 -1.034005 -4.140396 -0.034144 1.370710 3.421237
 26 4.972048 0.000000 0.000001 0.839054 0.166594 -1.128165
 27 11.585355 0.000000 0.000000 0.000000 -0.000000 -1.886241
 28 10.127057 0.000000 0.000001 2.146256 -0.344349 1.106043
 29 2.683750 -0.427338 0.044205 -0.000058 0.043623 -0.025403
 30 1.438885 -0.000001 0.000000 0.000000 -0.000000 0.706804
 31 1.485305 0.000001 0.000000 0.000000 -0.000000 1.077055
time 12
  0 0.235347 -0.235347 -14.381776 -0.045585 0.257873 -1.742273
  1 0.000000 0.000000 0.000000 -1.570795 -1.570796 0.000000
  2 -0.000005 0.000007 3.713255 -3.368582 -0.221254 1.331540
  3 18.045721 0.000000 0.000000 0.000000 -0.000000 -1.349056
  4 17.597597 0.000000 0.000000 -0.205032 0.225938 -0.216505
  5 3.793090 6.407221 0.000000 0.000000 -0.000000 1.570796
  6 0.000005 -0.000003 -3.713255 6.216042 2.542639 5.445438
  7 18.045725 0.000000 0.000000 0.000000 -0.000000 -2.074575
  8 17.597597 0.000000 0.000000 -0.092072 0.087818 0.559914
  9 3.793090 6.407221 0.000000 0.000000 -0.000000 1.570796
 10 0.935740 0.000000 0.000000 0.000000 -0.000000 0.000000
 11 0.935741 0.000000 0.000000 0.000000 -0.000000 0.000000
 12 1.293670 0.684478 -0.000001 -0.000004 -0.000001 0.271132
 13 5.309685 -0.003834 0.000000 -0.032308 0.013027 0.383453
 14 4.826790 -0.004591 0.000000 -0.143840 0.219714 0.294399
 15 5.792767 -0.005304 0.000000 0.000049 0.087260 0.113327
 16 6.662317 -0.001453 0.000000 0.000000 -0.000001 -0.314346
 17 2.046985 -0.000002 0.000000 0.265994 -0.336424 -0.171103
 18 -3.268279 -1.123452 4.341911 1.923105 -1.393567 1.526584
 19 4.827230 0.000000 0.000001 -0.589715 -0.396102 -1.347847
 20 11.139763 0.000000 0.000000 0.000000 -0.000000 -1.565856
 21 10.314597 0.000001 0.000000 -0.695192 -0.010305 0.140702
 22 2.975834 -0.386307 -0.044143 -0.017432 -0.040040 0.392840
 23 1.438886 0.000000 0.000000 0.000000 -0.000000 0.270702
 24 1.485303 0.000000 0.000000 0.000000 -0.000000 0.375217
 25 -3.014434 -1.034005 -4.140396 -0.000013 1.370795 3.455176
 26 4.972048 0.000000 0.000001 0.811980 0.093795 -1.124213
 27 11.585355 0.000000 0.000000 0.000000 -0.000000 -1.988518
 28 10.127057 0.000000 0.000001 1.980376 -0.285848 1.184180
 29 2.683750 -0.427338 0.044205 0.001045 0.043611 0.000046
 30 1.438885 -0.000001 0.000000 0.000000 -0.000000 0.767689
 31 1.485305 0.000001 0.000000 0.000000 -0.000000 1.221538
end
