version 1
nodes
  0 "Bip01"  -1
  1 "Bip01 Pelvis"   0
  2 "Bip01 L Leg"   1
  3 "Bip01 L Leg1"   2
  4 "Bip01 L Foot"   3
  5 "Bip01 L Toe0"   4
  6 "Bip01 R Leg"   1
  7 "Bip01 R Leg1"   6
  8 "Bip01 R Foot"   7
  9 "Bip01 R Toe0"   8
 10 "Bip01 R Toe01"   9
 11 "Bip01 R Toe02"  10
 12 "Bip01 Spine"   1
 13 "Bip01 Spine1"  12
 14 "Bip01 Spine2"  13
 15 "Bip01 Spine3"  14
 16 "Bip01 Neck"  15
 17 "Bip01 Head"  16
 18 "Bip01 L Arm"  16
 19 "Bip01 L Arm1"  18
 20 "Bip01 L Arm2"  19
 21 "Bip01 L Hand"  20
 22 "Bip01 L Finger1"  21
 23 "Bip01 L Finger11"  22
 24 "Bip01 L Finger12"  23
 25 "Bip01 R Arm"  16
 26 "Bip01 R Arm1"  25
 27 "Bip01 R Arm2"  26
 28 "Bip01 R Hand"  27
 29 "Bip01 R Finger1"  28
 30 "Bip01 R Finger11"  29
 31 "Bip01 R Finger12"  30
end
skeleton
time 0
  0 0.235347 -0.235347 -11.596535 -0.000000 0.270322 -1.571254
  1 0.000000 0.000000 0.000000 -1.570795 -1.570796 0.000000
  2 -0.000005 0.000007 3.713255 -3.389770 -0.209750 1.567109
  3 18.045721 0.000000 0.000000 0.000000 -0.000000 -1.744563
  4 17.597597 0.000000 0.000000 -0.164903 0.191688 0.413694
  5 3.793090 6.407221 0.000000 0.000000 -0.000000 1.570796
  6 0.000005 -0.000003 -3.713255 0.311943 2.936853 5.354742
  7 18.045725 0.000000 0.000000 0.000000 -0.000000 -1.993292
  8 17.597597 0.000000 0.000000 0.131015 -0.129891 1.055680
  9 3.793090 6.407221 0.000000 0.000000 -0.000000 1.570796
 10 0.935740 0.000000 0.000000 0.000000 -0.000000 0.000000
 11 0.935741 0.000000 0.000000 0.000000 -0.000000 0.000000
 12 1.293670 0.684478 -0.000001 -0.000004 -0.000001 0.279871
 13 5.309685 -0.003834 0.000000 -0.209347 -0.005225 -0.025634
 14 4.826790 -0.004591 0.000000 -0.409861 -0.013579 -0.032070
 15 5.792767 -0.005304 0.000000 0.000000 0.000000 0.043564
 16 6.662317 -0.001453 0.000000 0.000000 -0.000001 0.078555
 17 2.046985 -0.000002 0.000000 0.548661 0.303218 -0.532887
 18 -3.447972 0.216433 4.341911 1.808249 -0.756089 1.152188
 19 4.827230 0.000000 0.000001 -0.340849 -0.503754 -0.009188
 20 11.139763 0.000000 0.000000 0.000000 -0.000000 -1.327024
 21 10.314597 0.000001 0.000000 -4.434674 0.060501 -0.051407
 22 2.975834 -0.386307 -0.044143 -0.012063 -0.041921 0.261905
 23 1.438886 0.000000 0.000000 0.000000 -0.000000 0.924779
 24 1.485303 0.000000 0.000000 0.000000 -0.000000 0.540939
 25 -3.186314 0.196501 -4.140396 -1.122880 1.033293 2.001643
 26 4.972048 0.000000 0.000001 0.430621 -0.395045 -1.091540
 27 11.585355 0.000000 0.000000 0.000000 -0.000000 -1.873578
 28 10.127057 0.000000 0.000001 2.063125 0.632525 0.364369
 29 2.683750 -0.427338 0.044205 0.001045 0.043611 0.000046
 30 1.438885 -0.000001 0.000000 0.000000 -0.000000 0.767689
 31 1.485305 0.000001 0.000000 0.000000 -0.000000 1.221538
time 1
  0 0.235347 -0.235347 -11.596535 -0.000000 0.270322 -1.571254
  1 0.000000 0.000000 0.000000 -1.570795 -1.570796 0.000000
  2 -0.000005 0.000007 3.713255 -3.389770 -0.209750 1.567109
  3 18.045721 0.000000 0.000000 0.000000 -0.000000 -1.744563
  4 17.597597 0.000000 0.000000 -0.164903 0.191688 0.413694
  5 3.793090 6.407221 0.000000 0.000000 -0.000000 1.570796
  6 0.000005 -0.000003 -3.713255 0.311943 2.936853 5.354742
  7 18.045725 0.000000 0.000000 0.000000 -0.000000 -1.993292
  8 17.597597 0.000000 0.000000 0.131015 -0.129891 1.055680
  9 3.793090 6.407221 0.000000 0.000000 -0.000000 1.570796
 10 0.935740 0.000000 0.000000 0.000000 -0.000000 0.000000
 11 0.935741 0.000000 0.000000 0.000000 -0.000000 0.000000
 12 1.293670 0.684478 -0.000001 -0.000004 -0.000001 0.279871
 13 5.309685 -0.003834 0.000000 -0.239892 -0.018085 -0.074594
 14 4.826790 -0.004591 0.000000 -0.491682 -0.040053 -0.075461
 15 5.792767 -0.005304 0.000000 -0.074076 0.003284 0.043481
 16 6.662317 -0.001453 0.000000 0.000000 -0.000001 0.078555
 17 2.046985 -0.000002 0.000000 0.743611 0.348355 -0.373682
 18 -3.447972 0.216433 4.341911 2.107948 -1.116675 0.906170
 19 4.827230 0.000000 0.000001 -0.372508 -0.292534 -0.415590
 20 11.139763 0.000000 0.000000 0.000000 -0.000000 -1.563053
 21 10.314597 0.000001 0.000000 -4.438269 0.122503 0.253774
 22 2.975834 -0.386307 -0.044143 -0.012063 -0.041921 0.261905
 23 1.438886 0.000000 0.000000 0.000000 -0.000000 0.924779
 24 1.485303 0.000000 0.000000 0.000000 -0.000000 0.540939
 25 -3.186314 0.196501 -4.140396 -0.861242 1.193692 2.237299
 26 4.972048 0.000000 0.000001 -0.119758 -0.715361 -0.883976
 27 11.585355 0.000000 0.000000 0.000000 -0.000000 -2.197829
 28 10.127057 0.000000 0.000001 2.030191 0.655211 0.309728
 29 2.683750 -0.427338 0.044205 0.001045 0.043611 0.000046
 30 1.438885 -0.000001 0.000000 0.000000 -0.000000 0.767689
 31 1.485305 0.000001 0.000000 0.000000 -0.000000 1.221538
time 2
  0 0.235347 -0.235347 -11.596535 -0.000000 0.270322 -1.571254
  1 0.000000 0.000000 0.000000 -1.570795 -1.570796 0.000000
  2 -0.000005 0.000007 3.713255 -3.389770 -0.209750 1.567109
  3 18.045721 0.000000 0.000000 0.000000 -0.000000 -1.744563
  4 17.597597 0.000000 0.000000 -0.164903 0.191688 0.413694
  5 3.793090 6.407221 0.000000 0.000000 -0.000000 1.570796
  6 0.000005 -0.000003 -3.713255 0.311943 2.936853 5.354742
  7 18.045725 0.000000 0.000000 0.000000 -0.000000 -1.993292
  8 17.597597 0.000000 0.000000 0.131015 -0.129891 1.055680
  9 3.793090 6.407221 0.000000 0.000000 -0.000000 1.570796
 10 0.935740 0.000000 0.000000 0.000000 -0.000000 0.000000
 11 0.935741 0.000000 0.000000 0.000000 -0.000000 0.000000
 12 1.293670 0.684478 -0.000001 -0.000004 -0.000001 0.279871
 13 5.309685 -0.003834 0.000000 -0.257068 -0.026798 -0.102370
 14 4.826790 -0.004591 0.000000 -0.538052 -0.058485 -0.098369
 15 5.792767 -0.005304 0.000000 -0.116618 0.005117 0.043294
 16 6.662317 -0.001453 0.000000 0.000000 -0.000001 0.078555
 17 2.046985 -0.000002 0.000000 0.859978 0.359071 -0.278977
 18 -3.447972 0.216433 4.341911 2.561620 -1.280602 0.481056
 19 4.827230 0.000000 0.000001 -0.406399 -0.183605 -0.648895
 20 11.139763 0.000000 0.000000 0.000000 -0.000000 -1.698377
 21 10.314597 0.000001 0.000000 -4.431708 0.157656 0.430110
 22 2.975834 -0.386307 -0.044143 -0.012063 -0.041921 0.261905
 23 1.438886 0.000000 0.000000 0.000000 -0.000000 0.924779
 24 1.485303 0.000000 0.000000 0.000000 -0.000000 0.540939
 25 -3.186314 0.196501 -4.140396 -0.397983 1.297845 2.677549
 26 4.972048 0.000000 0.000001 -0.742773 -0.690987 -0.549739
 27 11.585355 0.000000 0.000000 0.000000 -0.000000 -2.492347
 28 10.127057 0.000000 0.000001 1.977828 0.685883 0.225354
 29 2.683750 -0.427338 0.044205 0.001045 0.043611 0.000046
 30 1.438885 -0.000001 0.000000 0.000000 -0.000000 0.767689
 31 1.485305 0.000001 0.000000 0.000000 -0.000000 1.221538
time 3
  0 0.235347 -0.235347 -11.596535 -0.000000 0.270322 -1.571254
  1 0.000000 0.000000 0.000000 -1.570795 -1.570796 0.000000
  2 -0.000005 0.000007 3.713255 -3.389770 -0.209750 1.567109
  3 18.045721 0.000000 0.000000 0.000000 -0.000000 -1.744563
  4 17.597597 0.000000 0.000000 -0.164903 0.191688 0.413694
  5 3.793090 6.407221 0.000000 0.000000 -0.000000 1.570796
  6 0.000005 -0.000003 -3.713255 0.311943 2.936853 5.354742
  7 18.045725 0.000000 0.000000 0.000000 -0.000000 -1.993292
  8 17.597597 0.000000 0.000000 0.131015 -0.129891 1.055680
  9 3.793090 6.407221 0.000000 0.000000 -0.000000 1.570796
 10 0.935740 0.000000 0.000000 0.000000 -0.000000 0.000000
 11 0.935741 0.000000 0.000000 0.000000 -0.000000 0.000000
 12 1.293670 0.684478 -0.000001 -0.000004 -0.000001 0.279871
 13 5.309685 -0.003834 0.000000 -0.250641 -0.023394 -0.091923
 14 4.826790 -0.004591 0.000000 -0.520614 -0.051222 -0.090013
 15 5.792767 -0.005304 0.000000 -0.100573 0.004410 0.043377
 16 6.662317 -0.001453 0.000000 0.000000 -0.000001 0.078555
 17 2.046985 -0.000002 0.000000 0.816077 0.356369 -0.314620
 18 -3.447972 0.216433 4.341911 2.343125 -1.227101 0.688915
 19 4.827230 0.000000 0.000001 -0.392596 -0.223773 -0.560771
 20 11.139763 0.000000 0.000000 0.000000 -0.000000 -1.647429
 21 10.314597 0.000001 0.000000 -4.434854 0.144547 0.363455
 22 2.975834 -0.386307 -0.044143 -0.012063 -0.041921 0.261905
 23 1.438886 0.000000 0.000000 0.000000 -0.000000 0.924779
 24 1.485303 0.000000 0.000000 0.000000 -0.000000 0.540939
 25 -3.186314 0.196501 -4.140396 -0.526165 1.280802 2.554735
 26 4.972048 0.000000 0.000001 -0.596186 -0.714315 -0.609683
 27 11.585355 0.000000 0.000000 0.000000 -0.000000 -2.426937
 28 10.127057 0.000000 0.000001 1.875140 0.730578 0.067825
 29 2.683750 -0.427338 0.044205 0.001045 0.043611 0.000046
 30 1.438885 -0.000001 0.000000 0.000000 -0.000000 0.767689
 31 1.485305 0.000001 0.000000 0.000000 -0.000000 1.221538
time 4
  0 0.235347 -0.235347 -11.596535 -0.000000 0.270322 -1.571254
  1 0.000000 0.000000 0.000000 -1.570795 -1.570796 0.000000
  2 -0.000005 0.000007 3.713255 -3.389770 -0.209750 1.567109
  3 18.045721 0.000000 0.000000 0.000000 -0.000000 -1.744563
  4 17.597597 0.000000 0.000000 -0.164903 0.191688 0.413694
  5 3.793090 6.407221 0.000000 0.000000 -0.000000 1.570796
  6 0.000005 -0.000003 -3.713255 0.311943 2.936853 5.354742
  7 18.045725 0.000000 0.000000 0.000000 -0.000000 -1.993292
  8 17.597597 0.000000 0.000000 0.131015 -0.129891 1.055680
  9 3.793090 6.407221 0.000000 0.000000 -0.000000 1.570796
 10 0.935740 0.000000 0.000000 0.000000 -0.000000 0.000000
 11 0.935741 0.000000 0.000000 0.000000 -0.000000 0.000000
 12 1.293670 0.684478 -0.000001 -0.000004 -0.000001 0.279871
 13 5.309685 -0.003834 0.000000 -0.238900 -0.017569 -0.072983
 14 4.826790 -0.004591 0.000000 -0.489055 -0.039094 -0.074116
 15 5.792767 -0.005304 0.000000 -0.071679 0.003176 0.043481
 16 6.662317 -0.001453 0.000000 0.000000 -0.000001 0.078555
 17 2.046985 -0.000002 0.000000 0.737278 0.347432 -0.378941
 18 -3.447972 0.216433 4.341911 2.091650 -1.105867 0.920456
 19 4.827230 0.000000 0.000001 -0.370746 -0.299172 -0.402551
 20 11.139763 0.000000 0.000000 0.000000 -0.000000 -1.555274
 21 10.314597 0.000001 0.000000 -4.438449 0.120503 0.243881
 22 2.975834 -0.386307 -0.044143 -0.012063 -0.041921 0.261905
 23 1.438886 0.000000 0.000000 0.000000 -0.000000 0.924779
 24 1.485303 0.000000 0.000000 0.000000 -0.000000 0.540939
 25 -3.186314 0.196501 -4.140396 -0.794035 1.217914 2.299713
 26 4.972048 0.000000 0.000001 -0.218695 -0.718498 -0.808025
 27 11.585355 0.000000 0.000000 0.000000 -0.000000 -2.254004
 28 10.127057 0.000000 0.000001 1.821885 0.747281 -0.011214
 29 2.683750 -0.427338 0.044205 0.001045 0.043611 0.000046
 30 1.438885 -0.000001 0.000000 0.000000 -0.000000 0.767689
 31 1.485305 0.000001 0.000000 0.000000 -0.000000 1.221538
time 5
  0 0.235347 -0.235347 -11.596535 -0.000000 0.270322 -1.571254
  1 0.000000 0.000000 0.000000 -1.570795 -1.570796 0.000000
  2 -0.000005 0.000007 3.713255 -3.389770 -0.209750 1.567109
  3 18.045721 0.000000 0.000000 0.000000 -0.000000 -1.744563
  4 17.597597 0.000000 0.000000 -0.164903 0.191688 0.413694
  5 3.793090 6.407221 0.000000 0.000000 -0.000000 1.570796
  6 0.000005 -0.000003 -3.713255 0.311943 2.936853 5.354742
  7 18.045725 0.000000 0.000000 0.000000 -0.000000 -1.993292
  8 17.597597 0.000000 0.000000 0.131015 -0.129891 1.055680
  9 3.793090 6.407221 0.000000 0.000000 -0.000000 1.570796
 10 0.935740 0.000000 0.000000 0.000000 -0.000000 0.000000
 11 0.935741 0.000000 0.000000 0.000000 -0.000000 0.000000
 12 1.293670 0.684478 -0.000001 -0.000004 -0.000001 0.279871
 13 5.309685 -0.003834 0.000000 -0.227123 -0.012272 -0.054061
 14 4.826790 -0.004591 0.000000 -0.457364 -0.028020 -0.057668
 15 5.792767 -0.005304 0.000000 -0.042867 0.001894 0.043564
 16 6.662317 -0.001453 0.000000 0.000000 -0.000001 0.078555
 17 2.046985 -0.000002 0.000000 0.660160 0.333339 -0.441778
 18 -3.447972 0.216433 4.341911 1.943526 -0.969902 1.048546
 19 4.827230 0.000000 0.000001 -0.354006 -0.378571 -0.245118
 20 11.139763 0.000000 0.000000 0.000000 -0.000000 -1.463680
 21 10.314597 0.000001 0.000000 -4.438988 0.096263 0.125038
 22 2.975834 -0.386307 -0.044143 -0.012063 -0.041921 0.261905
 23 1.438886 0.000000 0.000000 0.000000 -0.000000 0.924779
 24 1.485303 0.000000 0.000000 0.000000 -0.000000 0.540939
 25 -3.186314 0.196501 -4.140396 -0.949829 1.153274 2.155711
 26 4.972048 0.000000 0.000001 0.075795 -0.637655 -0.952483
 27 11.585355 0.000000 0.000000 0.000000 -0.000000 -2.110243
 28 10.127057 0.000000 0.000001 1.898901 0.721753 0.103716
 29 2.683750 -0.427338 0.044205 0.001045 0.043611 0.000046
 30 1.438885 -0.000001 0.000000 0.000000 -0.000000 0.767689
 31 1.485305 0.000001 0.000000 0.000000 -0.000000 1.221538
time 6
  0 0.235347 -0.235347 -11.596535 -0.000000 0.270322 -1.571254
  1 0.000000 0.000000 0.000000 -1.570795 -1.570796 0.000000
  2 -0.000005 0.000007 3.713255 -3.389770 -0.209750 1.567109
  3 18.045721 0.000000 0.000000 0.000000 -0.000000 -1.744563
  4 17.597597 0.000000 0.000000 -0.164903 0.191688 0.413694
  5 3.793090 6.407221 0.000000 0.000000 -0.000000 1.570796
  6 0.000005 -0.000003 -3.713255 0.311943 2.936853 5.354742
  7 18.045725 0.000000 0.000000 0.000000 -0.000000 -1.993292
  8 17.597597 0.000000 0.000000 0.131015 -0.129891 1.055680
  9 3.793090 6.407221 0.000000 0.000000 -0.000000 1.570796
 10 0.935740 0.000000 0.000000 0.000000 -0.000000 0.000000
 11 0.935741 0.000000 0.000000 0.000000 -0.000000 0.000000
 12 1.293670 0.684478 -0.000001 -0.000004 -0.000001 0.279871
 13 5.309685 -0.003834 0.000000 -0.216766 -0.008078 -0.037475
 14 4.826790 -0.004591 0.000000 -0.429647 -0.019235 -0.042940
 15 5.792767 -0.005304 0.000000 -0.017822 0.000791 0.043564
 16 6.662317 -0.001453 0.000000 0.000000 -0.000001 0.078555
 17 2.046985 -0.000002 0.000000 0.594415 0.317041 -0.495580
 18 -3.447972 0.216433 4.341911 1.856665 -0.846053 1.117385
 19 4.827230 0.000000 0.000001 -0.344432 -0.450481 -0.107813
 20 11.139763 0.000000 0.000000 0.000000 -0.000000 -1.383859
 21 10.314597 0.000001 0.000000 -4.437191 0.075263 0.021890
 22 2.975834 -0.386307 -0.044143 -0.012063 -0.041921 0.261905
 23 1.438886 0.000000 0.000000 0.000000 -0.000000 0.924779
 24 1.485303 0.000000 0.000000 0.000000 -0.000000 0.540939
 25 -3.186314 0.196501 -4.140396 -1.060946 1.084338 2.055428
 26 4.972048 0.000000 0.000001 0.303063 -0.509110 -1.050370
 27 11.585355 0.000000 0.000000 0.000000 -0.000000 -1.971728
 28 10.127057 0.000000 0.000001 1.999168 0.674107 0.259284
 29 2.683750 -0.427338 0.044205 0.001045 0.043611 0.000046
 30 1.438885 -0.000001 0.000000 0.000000 -0.000000 0.767689
 31 1.485305 0.000001 0.000000 0.000000 -0.000000 1.221538
time 7
  0 0.235347 -0.235347 -11.596535 -0.000000 0.270322 -1.571254
  1 0.000000 0.000000 0.000000 -1.570795 -1.570796 0.000000
  2 -0.000005 0.000007 3.713255 -3.389770 -0.209750 1.567109
  3 18.045721 0.000000 0.000000 0.000000 -0.000000 -1.744563
  4 17.597597 0.000000 0.000000 -0.164903 0.191688 0.413694
  5 3.793090 6.407221 0.000000 0.000000 -0.000000 1.570796
  6 0.000005 -0.000003 -3.713255 0.311943 2.936853 5.354742
  7 18.045725 0.000000 0.000000 0.000000 -0.000000 -1.993292
  8 17.597597 0.000000 0.000000 0.131015 -0.129891 1.055680
  9 3.793090 6.407221 0.000000 0.000000 -0.000000 1.570796
 10 0.935740 0.000000 0.000000 0.000000 -0.000000 0.000000
 11 0.935741 0.000000 0.000000 0.000000 -0.000000 0.000000
 12 1.293670 0.684478 -0.000001 -0.000004 -0.000001 0.279871
 13 5.309685 -0.003834 0.000000 -0.209347 -0.005225 -0.025634
 14 4.826790 -0.004591 0.000000 -0.409861 -0.013579 -0.032070
 15 5.792767 -0.005304 0.000000 0.000000 0.000000 0.043564
 16 6.662317 -0.001453 0.000000 0.000000 -0.000001 0.078555
 17 2.046985 -0.000002 0.000000 0.548661 0.303218 -0.532887
 18 -3.447972 0.216433 4.341911 1.808249 -0.756089 1.152188
 19 4.827230 0.000000 0.000001 -0.340849 -0.503754 -0.009188
 20 11.139763 0.000000 0.000000 0.000000 -0.000000 -1.327024
 21 10.314597 0.000001 0.000000 -4.434674 0.060501 -0.051407
 22 2.975834 -0.386307 -0.044143 -0.012063 -0.041921 0.261905
 23 1.438886 0.000000 0.000000 0.000000 -0.000000 0.924779
 24 1.485303 0.000000 0.000000 0.000000 -0.000000 0.540939
 25 -3.186314 0.196501 -4.140396 -1.122880 1.033293 2.001643
 26 4.972048 0.000000 0.000001 0.430621 -0.395045 -1.091540
 27 11.585355 0.000000 0.000000 0.000000 -0.000000 -1.873578
 28 10.127057 0.000000 0.000001 2.063125 0.632525 0.364369
 29 2.683750 -0.427338 0.044205 0.001045 0.043611 0.000046
 30 1.438885 -0.000001 0.000000 0.000000 -0.000000 0.767689
 31 1.485305 0.000001 0.000000 0.000000 -0.000000 1.221538
end
