version 1
nodes
  0 "Bip01"  -1
  1 "Bip01 Pelvis"   0
  2 "Bip01 L Leg"   1
  3 "Bip01 L Leg1"   2
  4 "Bip01 L Foot"   3
  5 "Bip01 L Toe0"   4
  6 "Bip01 R Leg"   1
  7 "Bip01 R Leg1"   6
  8 "Bip01 R Foot"   7
  9 "Bip01 R Toe0"   8
 10 "Bip01 R Toe01"   9
 11 "Bip01 R Toe02"  10
 12 "Bip01 Spine"   1
 13 "Bip01 Spine1"  12
 14 "Bip01 Spine2"  13
 15 "Bip01 Spine3"  14
 16 "Bip01 Neck"  15
 17 "Bip01 Head"  16
 18 "Bip01 L Arm"  16
 19 "Bip01 L Arm1"  18
 20 "Bip01 L Arm2"  19
 21 "Bip01 L Hand"  20
 22 "Bip01 L Finger1"  21
 23 "Bip01 L Finger11"  22
 24 "Bip01 L Finger12"  23
 25 "Bip01 R Arm"  16
 26 "Bip01 R Arm1"  25
 27 "Bip01 R Arm2"  26
 28 "Bip01 R Hand"  27
 29 "Bip01 R Finger1"  28
 30 "Bip01 R Finger11"  29
 31 "Bip01 R Finger12"  30
end
skeleton
time 0
  0 0.235347 -0.235347 -12.569221 -0.000000 0.270322 -1.571254
  1 -3.699332 0.589862 0.000000 -1.570795 -1.570796 0.000000
  2 -0.000005 0.000007 3.713255 -3.389770 -0.209750 1.567109
  3 18.045721 0.000000 0.000000 0.000000 -0.000000 -1.744563
  4 17.597597 0.000000 0.000000 -0.164903 0.191688 0.413694
  5 3.793090 6.407221 0.000000 0.000000 -0.000000 1.570796
  6 0.000005 -0.000003 -3.713255 0.311943 2.936853 5.354742
  7 18.045725 0.000000 0.000000 0.000000 -0.000000 -1.993292
  8 17.597597 0.000000 0.000000 0.131015 -0.129891 1.055680
  9 3.793090 6.407221 0.000000 0.000000 -0.000000 1.570796
 10 0.935740 0.000000 0.000000 0.000000 -0.000000 0.000000
 11 0.935741 0.000000 0.000000 0.000000 -0.000000 0.000000
 12 1.293670 0.684478 -0.000001 -0.000004 -0.000001 0.279871
 13 5.309685 -0.003834 0.000000 -0.206274 0.036193 0.170644
 14 4.826790 -0.004591 0.000000 -0.293180 0.045949 0.150203
 15 5.792767 -0.005304 0.000000 0.000000 -0.000000 0.279097
 16 6.662317 -0.001453 0.000000 0.000000 -0.000001 0.078555
 17 2.046985 -0.000002 0.000000 0.485588 -0.141355 -0.329184
 18 -3.447972 0.216433 4.341911 1.735769 -0.581969 1.197154
 19 4.827230 0.000000 0.000001 -0.299616 0.266237 0.208628
 20 11.139763 0.000000 0.000000 0.000000 -0.000000 -1.304248
 21 10.314597 0.000001 0.000000 -4.515207 0.031522 -0.094278
 22 2.975834 -0.386307 -0.044143 -0.012063 -0.041921 0.261905
 23 1.438886 0.000000 0.000000 0.000000 -0.000000 0.924779
 24 1.485303 0.000000 0.000000 0.000000 -0.000000 0.540939
 25 -3.186314 0.196501 -4.140396 -0.682918 1.249598 2.405077
 26 4.972048 0.000000 0.000001 0.277768 -0.425532 -1.388559
 27 11.585355 0.000000 0.000000 0.000000 -0.000000 -1.485248
 28 10.127057 0.000000 0.000001 2.090517 0.474211 0.624708
 29 2.683750 -0.427338 0.044205 0.001045 0.043611 0.000046
 30 1.438885 -0.000001 0.000000 0.000000 -0.000000 0.767689
 31 1.485305 0.000001 0.000000 0.000000 -0.000000 1.221538
time 1
  0 0.235347 -0.235347 -12.588753 -0.000000 0.270322 -1.571254
  1 -3.711051 0.589862 0.000000 -1.570795 -1.570796 0.000000
  2 -0.000005 0.000007 3.713255 -3.389770 -0.209750 1.567109
  3 18.045721 0.000000 0.000000 0.000000 -0.000000 -1.744563
  4 17.597597 0.000000 0.000000 -0.164903 0.191688 0.413694
  5 3.793090 6.407221 0.000000 0.000000 -0.000000 1.570796
  6 0.000005 -0.000003 -3.713255 0.311943 2.936853 5.354742
  7 18.045725 0.000000 0.000000 0.000000 -0.000000 -1.993292
  8 17.597597 0.000000 0.000000 0.131015 -0.129891 1.055680
  9 3.793090 6.407221 0.000000 0.000000 -0.000000 1.570796
 10 0.935740 0.000000 0.000000 0.000000 -0.000000 0.000000
 11 0.935741 0.000000 0.000000 0.000000 -0.000000 0.000000
 12 1.293670 0.684478 -0.000001 -0.000004 -0.000001 0.279871
 13 5.309685 -0.003834 0.000000 -0.206225 0.036625 0.172436
 14 4.826790 -0.004591 0.000000 -0.293131 0.046320 0.151570
 15 5.792767 -0.005304 0.000000 0.000000 -0.000000 0.281983
 16 6.662317 -0.001453 0.000000 0.000000 -0.000001 0.078555
 17 2.046985 -0.000002 0.000000 0.485286 -0.141692 -0.333543
 18 -3.447972 0.216433 4.341911 1.734235 -0.578469 1.197825
 19 4.827230 0.000000 0.000001 -0.302729 0.260706 0.212566
 20 11.139763 0.000000 0.000000 0.000000 -0.000000 -1.304248
 21 10.314597 0.000001 0.000000 -4.515207 0.031522 -0.094278
 22 2.975834 -0.386307 -0.044143 -0.012063 -0.041921 0.261905
 23 1.438886 0.000000 0.000000 0.000000 -0.000000 0.924779
 24 1.485303 0.000000 0.000000 0.000000 -0.000000 0.540939
 25 -3.186314 0.196501 -4.140396 -0.693943 1.246913 2.394531
 26 4.972048 0.000000 0.000001 0.278387 -0.418614 -1.386188
 27 11.585355 0.000000 0.000000 0.000000 -0.000000 -1.485248
 28 10.127057 0.000000 0.000001 2.090517 0.474211 0.624708
 29 2.683750 -0.427338 0.044205 0.001045 0.043611 0.000046
 30 1.438885 -0.000001 0.000000 0.000000 -0.000000 0.767689
 31 1.485305 0.000001 0.000000 0.000000 -0.000000 1.221538
time 2
  0 0.235347 -0.235347 -12.592659 -0.000000 0.270322 -1.571254
  1 -3.730583 0.601581 0.000000 -1.570795 -1.570796 0.000000
  2 -0.000005 0.000007 3.713255 -3.389770 -0.209750 1.567109
  3 18.045721 0.000000 0.000000 0.000000 -0.000000 -1.744563
  4 17.597597 0.000000 0.000000 -0.164903 0.191688 0.413694
  5 3.793090 6.407221 0.000000 0.000000 -0.000000 1.570796
  6 0.000005 -0.000003 -3.713255 0.311943 2.936853 5.354742
  7 18.045725 0.000000 0.000000 0.000000 -0.000000 -1.993292
  8 17.597597 0.000000 0.000000 0.131015 -0.129891 1.055680
  9 3.793090 6.407221 0.000000 0.000000 -0.000000 1.570796
 10 0.935740 0.000000 0.000000 0.000000 -0.000000 0.000000
 11 0.935741 0.000000 0.000000 0.000000 -0.000000 0.000000
 12 1.293670 0.684478 -0.000001 -0.000004 -0.000001 0.279871
 13 5.309685 -0.003834 0.000000 -0.206127 0.037080 0.174863
 14 4.826790 -0.004591 0.000000 -0.293049 0.046944 0.153422
 15 5.792767 -0.005304 0.000000 0.000000 -0.000000 0.285990
 16 6.662317 -0.001453 0.000000 0.000000 -0.000001 0.078555
 17 2.046985 -0.000002 0.000000 0.485286 -0.142143 -0.339656
 18 -3.447972 0.216433 4.341911 1.732701 -0.573738 1.198784
 19 4.827230 0.000000 0.000001 -0.306958 0.252451 0.218079
 20 11.139763 0.000000 0.000000 0.000000 -0.000000 -1.304248
 21 10.314597 0.000001 0.000000 -4.515207 0.031522 -0.094278
 22 2.975834 -0.386307 -0.044143 -0.012063 -0.041921 0.261905
 23 1.438886 0.000000 0.000000 0.000000 -0.000000 0.924779
 24 1.485303 0.000000 0.000000 0.000000 -0.000000 0.540939
 25 -3.186314 0.196501 -4.140396 -0.708420 1.243267 2.380821
 26 4.972048 0.000000 0.000001 0.279083 -0.409122 -1.383026
 27 11.585355 0.000000 0.000000 0.000000 -0.000000 -1.485248
 28 10.127057 0.000000 0.000001 2.090517 0.474211 0.624708
 29 2.683750 -0.427338 0.044205 0.001045 0.043611 0.000046
 30 1.438885 -0.000001 0.000000 0.000000 -0.000000 0.767689
 31 1.485305 0.000001 0.000000 0.000000 -0.000000 1.221538
time 3
  0 0.235347 -0.235347 -12.596565 -0.000000 0.270322 -1.571254
  1 -3.754021 0.613300 0.000000 -1.570795 -1.570796 0.000000
  2 -0.000005 0.000007 3.713255 -3.389770 -0.209750 1.567109
  3 18.045721 0.000000 0.000000 0.000000 -0.000000 -1.744563
  4 17.597597 0.000000 0.000000 -0.164903 0.191688 0.413694
  5 3.793090 6.407221 0.000000 0.000000 -0.000000 1.570796
  6 0.000005 -0.000003 -3.713255 0.311943 2.936853 5.354742
  7 18.045725 0.000000 0.000000 0.000000 -0.000000 -1.993292
  8 17.597597 0.000000 0.000000 0.131015 -0.129891 1.055680
  9 3.793090 6.407221 0.000000 0.000000 -0.000000 1.570796
 10 0.935740 0.000000 0.000000 0.000000 -0.000000 0.000000
 11 0.935741 0.000000 0.000000 0.000000 -0.000000 0.000000
 12 1.293670 0.684478 -0.000001 -0.000004 -0.000001 0.279871
 13 5.309685 -0.003834 0.000000 -0.206029 0.037716 0.177832
 14 4.826790 -0.004591 0.000000 -0.292934 0.047639 0.155737
 15 5.792767 -0.005304 0.000000 0.000000 -0.000000 0.290828
 16 6.662317 -0.001453 0.000000 0.000000 -0.000001 0.078555
 17 2.046985 -0.000002 0.000000 0.485071 -0.142683 -0.347253
 18 -3.447972 0.216433 4.341911 1.730496 -0.567969 1.200126
 19 4.827230 0.000000 0.000001 -0.312127 0.243090 0.224730
 20 11.139763 0.000000 0.000000 0.000000 -0.000000 -1.304248
 21 10.314597 0.000001 0.000000 -4.515207 0.031522 -0.094278
 22 2.975834 -0.386307 -0.044143 -0.012063 -0.041921 0.261905
 23 1.438886 0.000000 0.000000 0.000000 -0.000000 0.924779
 24 1.485303 0.000000 0.000000 0.000000 -0.000000 0.540939
 25 -3.186314 0.196501 -4.140396 -0.725773 1.238575 2.364331
 26 4.972048 0.000000 0.000001 0.280089 -0.397619 -1.379403
 27 11.585355 0.000000 0.000000 0.000000 -0.000000 -1.485248
 28 10.127057 0.000000 0.000001 2.090517 0.474211 0.624708
 29 2.683750 -0.427338 0.044205 0.001045 0.043611 0.000046
 30 1.438885 -0.000001 0.000000 0.000000 -0.000000 0.767689
 31 1.485305 0.000001 0.000000 0.000000 -0.000000 1.221538
time 4
  0 0.235347 -0.235347 -12.596565 -0.000000 0.270322 -1.571254
  1 -3.773553 0.621113 0.000000 -1.570795 -1.570796 0.000000
  2 -0.000005 0.000007 3.713255 -3.389770 -0.209750 1.567109
  3 18.045721 0.000000 0.000000 0.000000 -0.000000 -1.744563
  4 17.597597 0.000000 0.000000 -0.164903 0.191688 0.413694
  5 3.793090 6.407221 0.000000 0.000000 -0.000000 1.570796
  6 0.000005 -0.000003 -3.713255 0.311943 2.936853 5.354742
  7 18.045725 0.000000 0.000000 0.000000 -0.000000 -1.993292
  8 17.597597 0.000000 0.000000 0.131015 -0.129891 1.055680
  9 3.793090 6.407221 0.000000 0.000000 -0.000000 1.570796
 10 0.935740 0.000000 0.000000 0.000000 -0.000000 0.000000
 11 0.935741 0.000000 0.000000 0.000000 -0.000000 0.000000
 12 1.293670 0.684478 -0.000001 -0.000004 -0.000001 0.279871
 13 5.309685 -0.003834 0.000000 -0.205870 0.038447 0.181200
 14 4.826790 -0.004591 0.000000 -0.292819 0.048442 0.158405
 15 5.792767 -0.005304 0.000000 0.000000 -0.000000 0.296330
 16 6.662317 -0.001453 0.000000 0.000000 -0.000001 0.078555
 17 2.046985 -0.000002 0.000000 0.484769 -0.143291 -0.355838
 18 -3.447972 0.216433 4.341911 1.728195 -0.561315 1.201181
 19 4.827230 0.000000 0.000001 -0.317942 0.232112 0.232431
 20 11.139763 0.000000 0.000000 0.000000 -0.000000 -1.304248
 21 10.314597 0.000001 0.000000 -4.515207 0.031522 -0.094278
 22 2.975834 -0.386307 -0.044143 -0.012063 -0.041921 0.261905
 23 1.438886 0.000000 0.000000 0.000000 -0.000000 0.924779
 24 1.485303 0.000000 0.000000 0.000000 -0.000000 0.540939
 25 -3.186314 0.196501 -4.140396 -0.744852 1.233205 2.346307
 26 4.972048 0.000000 0.000001 0.281017 -0.384346 -1.374792
 27 11.585355 0.000000 0.000000 0.000000 -0.000000 -1.485248
 28 10.127057 0.000000 0.000001 2.090517 0.474211 0.624708
 29 2.683750 -0.427338 0.044205 0.001045 0.043611 0.000046
 30 1.438885 -0.000001 0.000000 0.000000 -0.000000 0.767689
 31 1.485305 0.000001 0.000000 0.000000 -0.000000 1.221538
time 5
  0 0.235347 -0.235347 -12.596565 -0.000000 0.270322 -1.571254
  1 -3.804804 0.632832 0.000000 -1.570795 -1.570796 0.000000
  2 -0.000005 0.000007 3.713255 -3.389770 -0.209750 1.567109
  3 18.045721 0.000000 0.000000 0.000000 -0.000000 -1.744563
  4 17.597597 0.000000 0.000000 -0.164903 0.191688 0.413694
  5 3.793090 6.407221 0.000000 0.000000 -0.000000 1.570796
  6 0.000005 -0.000003 -3.713255 0.311943 2.936853 5.354742
  7 18.045725 0.000000 0.000000 0.000000 -0.000000 -1.993292
  8 17.597597 0.000000 0.000000 0.131015 -0.129891 1.055680
  9 3.793090 6.407221 0.000000 0.000000 -0.000000 1.570796
 10 0.935740 0.000000 0.000000 0.000000 -0.000000 0.000000
 11 0.935741 0.000000 0.000000 0.000000 -0.000000 0.000000
 12 1.293670 0.684478 -0.000001 -0.000004 -0.000001 0.279871
 13 5.309685 -0.003834 0.000000 -0.205760 0.039226 0.184894
 14 4.826790 -0.004591 0.000000 -0.292671 0.049305 0.161271
 15 5.792767 -0.005304 0.000000 0.000000 -0.000000 0.302351
 16 6.662317 -0.001453 0.000000 0.000000 -0.000001 0.078555
 17 2.046985 -0.000002 0.000000 0.484554 -0.143966 -0.365142
 18 -3.447972 0.216433 4.341911 1.725894 -0.554161 1.202523
 19 4.827230 0.000000 0.000001 -0.324403 0.219772 0.241007
 20 11.139763 0.000000 0.000000 0.000000 -0.000000 -1.304248
 21 10.314597 0.000001 0.000000 -4.515207 0.031522 -0.094278
 22 2.975834 -0.386307 -0.044143 -0.012063 -0.041921 0.261905
 23 1.438886 0.000000 0.000000 0.000000 -0.000000 0.924779
 24 1.485303 0.000000 0.000000 0.000000 -0.000000 0.540939
 25 -3.186314 0.196501 -4.140396 -0.765081 1.227213 2.327324
 26 4.972048 0.000000 0.000001 0.281868 -0.370108 -1.370115
 27 11.585355 0.000000 0.000000 0.000000 -0.000000 -1.485248
 28 10.127057 0.000000 0.000001 2.090517 0.474211 0.624708
 29 2.683750 -0.427338 0.044205 0.001045 0.043611 0.000046
 30 1.438885 -0.000001 0.000000 0.000000 -0.000000 0.767689
 31 1.485305 0.000001 0.000000 0.000000 -0.000000 1.221538
time 6
  0 0.235347 -0.235347 -12.620004 -0.000000 0.270322 -1.571254
  1 -3.828242 0.644551 0.000000 -1.570795 -1.570796 0.000000
  2 -0.000005 0.000007 3.713255 -3.389770 -0.209750 1.567109
  3 18.045721 0.000000 0.000000 0.000000 -0.000000 -1.744563
  4 17.597597 0.000000 0.000000 -0.164903 0.191688 0.413694
  5 3.793090 6.407221 0.000000 0.000000 -0.000000 1.570796
  6 0.000005 -0.000003 -3.713255 0.311943 2.936853 5.354742
  7 18.045725 0.000000 0.000000 0.000000 -0.000000 -1.993292
  8 17.597597 0.000000 0.000000 0.131015 -0.129891 1.055680
  9 3.793090 6.407221 0.000000 0.000000 -0.000000 1.570796
 10 0.935740 0.000000 0.000000 0.000000 -0.000000 0.000000
 11 0.935741 0.000000 0.000000 0.000000 -0.000000 0.000000
 12 1.293670 0.684478 -0.000001 -0.000004 -0.000001 0.279871
 13 5.309685 -0.003834 0.000000 -0.205613 0.040029 0.188769
 14 4.826790 -0.004591 0.000000 -0.292507 0.050179 0.164358
 15 5.792767 -0.005304 0.000000 0.000000 -0.000000 0.308663
 16 6.662317 -0.001453 0.000000 0.000000 -0.000001 0.078555
 17 2.046985 -0.000002 0.000000 0.484252 -0.144664 -0.374761
 18 -3.447972 0.216433 4.341911 1.722921 -0.546545 1.203961
 19 4.827230 0.000000 0.000001 -0.331275 0.207092 0.249933
 20 11.139763 0.000000 0.000000 0.000000 -0.000000 -1.304248
 21 10.314597 0.000001 0.000000 -4.515207 0.031522 -0.094278
 22 2.975834 -0.386307 -0.044143 -0.012063 -0.041921 0.261905
 23 1.438886 0.000000 0.000000 0.000000 -0.000000 0.924779
 24 1.485303 0.000000 0.000000 0.000000 -0.000000 0.540939
 25 -3.186314 0.196501 -4.140396 -0.785598 1.220797 2.307958
 26 4.972048 0.000000 0.000001 0.282951 -0.354985 -1.364977
 27 11.585355 0.000000 0.000000 0.000000 -0.000000 -1.485248
 28 10.127057 0.000000 0.000001 2.090517 0.474211 0.624708
 29 2.683750 -0.427338 0.044205 0.001045 0.043611 0.000046
 30 1.438885 -0.000001 0.000000 0.000000 -0.000000 0.767689
 31 1.485305 0.000001 0.000000 0.000000 -0.000000 1.221538
time 7
  0 0.235347 -0.235347 -12.627816 -0.000000 0.270322 -1.571254
  1 -3.859493 0.656270 0.000000 -1.570795 -1.570796 0.000000
  2 -0.000005 0.000007 3.713255 -3.389770 -0.209750 1.567109
  3 18.045721 0.000000 0.000000 0.000000 -0.000000 -1.744563
  4 17.597597 0.000000 0.000000 -0.164903 0.191688 0.413694
  5 3.793090 6.407221 0.000000 0.000000 -0.000000 1.570796
  6 0.000005 -0.000003 -3.713255 0.311943 2.936853 5.354742
  7 18.045725 0.000000 0.000000 0.000000 -0.000000 -1.993292
  8 17.597597 0.000000 0.000000 0.131015 -0.129891 1.055680
  9 3.793090 6.407221 0.000000 0.000000 -0.000000 1.570796
 10 0.935740 0.000000 0.000000 0.000000 -0.000000 0.000000
 11 0.935741 0.000000 0.000000 0.000000 -0.000000 0.000000
 12 1.293670 0.684478 -0.000001 -0.000004 -0.000001 0.279871
 13 5.309685 -0.003834 0.000000 -0.205454 0.040832 0.192716
 14 4.826790 -0.004591 0.000000 -0.292359 0.051102 0.167467
 15 5.792767 -0.005304 0.000000 0.000000 -0.000000 0.315141
 16 6.662317 -0.001453 0.000000 0.000000 -0.000001 0.078555
 17 2.046985 -0.000002 0.000000 0.483778 -0.145384 -0.384874
 18 -3.447972 0.216433 4.341911 1.720621 -0.538814 1.205495
 19 4.827230 0.000000 0.000001 -0.338206 0.194242 0.259297
 20 11.139763 0.000000 0.000000 0.000000 -0.000000 -1.304248
 21 10.314597 0.000001 0.000000 -4.515207 0.031522 -0.094278
 22 2.975834 -0.386307 -0.044143 -0.012063 -0.041921 0.261905
 23 1.438886 0.000000 0.000000 0.000000 -0.000000 0.924779
 24 1.485303 0.000000 0.000000 0.000000 -0.000000 0.540939
 25 -3.186314 0.196501 -4.140396 -0.805827 1.214155 2.288975
 26 4.972048 0.000000 0.000001 0.283879 -0.339621 -1.359773
 27 11.585355 0.000000 0.000000 0.000000 -0.000000 -1.485248
 28 10.127057 0.000000 0.000001 2.090517 0.474211 0.624708
 29 2.683750 -0.427338 0.044205 0.001045 0.043611 0.000046
 30 1.438885 -0.000001 0.000000 0.000000 -0.000000 0.767689
 31 1.485305 0.000001 0.000000 0.000000 -0.000000 1.221538
time 8
  0 0.235347 -0.235347 -12.631722 -0.000000 0.270322 -1.571254
  1 -3.882931 0.664083 0.000000 -1.570795 -1.570796 0.000000
  2 -0.000005 0.000007 3.713255 -3.389770 -0.209750 1.567109
  3 18.045721 0.000000 0.000000 0.000000 -0.000000 -1.744563
  4 17.597597 0.000000 0.000000 -0.164903 0.191688 0.413694
  5 3.793090 6.407221 0.000000 0.000000 -0.000000 1.570796
  6 0.000005 -0.000003 -3.713255 0.311943 2.936853 5.354742
  7 18.045725 0.000000 0.000000 0.000000 -0.000000 -1.993292
  8 17.597597 0.000000 0.000000 0.131015 -0.129891 1.055680
  9 3.793090 6.407221 0.000000 0.000000 -0.000000 1.570796
 10 0.935740 0.000000 0.000000 0.000000 -0.000000 0.000000
 11 0.935741 0.000000 0.000000 0.000000 -0.000000 0.000000
 12 1.293670 0.684478 -0.000001 -0.000004 -0.000001 0.279871
 13 5.309685 -0.003834 0.000000 -0.205270 0.041622 0.196627
 14 4.826790 -0.004591 0.000000 -0.292195 0.052025 0.170532
 15 5.792767 -0.005304 0.000000 0.000000 -0.000000 0.321536
 16 6.662317 -0.001453 0.000000 0.000000 -0.000001 0.078555
 17 2.046985 -0.000002 0.000000 0.483649 -0.146105 -0.394537
 18 -3.447972 0.216433 4.341911 1.717649 -0.531160 1.206550
 19 4.827230 0.000000 0.000001 -0.345078 0.181477 0.268573
 20 11.139763 0.000000 0.000000 0.000000 -0.000000 -1.304248
 21 10.314597 0.000001 0.000000 -4.515207 0.031522 -0.094278
 22 2.975834 -0.386307 -0.044143 -0.012063 -0.041921 0.261905
 23 1.438886 0.000000 0.000000 0.000000 -0.000000 0.924779
 24 1.485303 0.000000 0.000000 0.000000 -0.000000 0.540939
 25 -3.186314 0.196501 -4.140396 -0.825098 1.207400 2.271334
 26 4.972048 0.000000 0.000001 0.284730 -0.324337 -1.354635
 27 11.585355 0.000000 0.000000 0.000000 -0.000000 -1.485248
 28 10.127057 0.000000 0.000001 2.090517 0.474211 0.624708
 29 2.683750 -0.427338 0.044205 0.001045 0.043611 0.000046
 30 1.438885 -0.000001 0.000000 0.000000 -0.000000 0.767689
 31 1.485305 0.000001 0.000000 0.000000 -0.000000 1.221538
time 9
  0 0.235347 -0.235347 -12.631722 -0.000000 0.270322 -1.571254
  1 -3.902463 0.675802 0.000000 -1.570795 -1.570796 0.000000
  2 -0.000005 0.000007 3.713255 -3.389770 -0.209750 1.567109
  3 18.045721 0.000000 0.000000 0.000000 -0.000000 -1.744563
  4 17.597597 0.000000 0.000000 -0.164903 0.191688 0.413694
  5 3.793090 6.407221 0.000000 0.000000 -0.000000 1.570796
  6 0.000005 -0.000003 -3.713255 0.311943 2.936853 5.354742
  7 18.045725 0.000000 0.000000 0.000000 -0.000000 -1.993292
  8 17.597597 0.000000 0.000000 0.131015 -0.129891 1.055680
  9 3.793090 6.407221 0.000000 0.000000 -0.000000 1.570796
 10 0.935740 0.000000 0.000000 0.000000 -0.000000 0.000000
 11 0.935741 0.000000 0.000000 0.000000 -0.000000 0.000000
 12 1.293670 0.684478 -0.000001 -0.000004 -0.000001 0.279871
 13 5.309685 -0.003834 0.000000 -0.205123 0.042401 0.200393
 14 4.826790 -0.004591 0.000000 -0.292047 0.052960 0.173464
 15 5.792767 -0.005304 0.000000 0.000000 -0.000000 0.327661
 16 6.662317 -0.001453 0.000000 0.000000 -0.000001 0.078555
 17 2.046985 -0.000002 0.000000 0.483218 -0.146780 -0.404021
 18 -3.447972 0.216433 4.341911 1.715348 -0.523814 1.207892
 19 4.827230 0.000000 0.000001 -0.351598 0.169563 0.277499
 20 11.139763 0.000000 0.000000 0.000000 -0.000000 -1.304248
 21 10.314597 0.000001 0.000000 -4.515207 0.031522 -0.094278
 22 2.975834 -0.386307 -0.044143 -0.012063 -0.041921 0.261905
 23 1.438886 0.000000 0.000000 0.000000 -0.000000 0.924779
 24 1.485303 0.000000 0.000000 0.000000 -0.000000 0.540939
 25 -3.186314 0.196501 -4.140396 -0.843026 1.200758 2.254269
 26 4.972048 0.000000 0.000001 0.285349 -0.309697 -1.349892
 27 11.585355 0.000000 0.000000 0.000000 -0.000000 -1.485248
 28 10.127057 0.000000 0.000001 2.090517 0.474211 0.624708
 29 2.683750 -0.427338 0.044205 0.001045 0.043611 0.000046
 30 1.438885 -0.000001 0.000000 0.000000 -0.000000 0.767689
 31 1.485305 0.000001 0.000000 0.000000 -0.000000 1.221538
time 10
  0 0.235347 -0.235347 -12.647348 -0.000000 0.270322 -1.571254
  1 -3.933714 0.687521 0.000000 -1.570795 -1.570796 0.000000
  2 -0.000005 0.000007 3.713255 -3.389770 -0.209750 1.567109
  3 18.045721 0.000000 0.000000 0.000000 -0.000000 -1.744563
  4 17.597597 0.000000 0.000000 -0.164903 0.191688 0.413694
  5 3.793090 6.407221 0.000000 0.000000 -0.000000 1.570796
  6 0.000005 -0.000003 -3.713255 0.311943 2.936853 5.354742
  7 18.045725 0.000000 0.000000 0.000000 -0.000000 -1.993292
  8 17.597597 0.000000 0.000000 0.131015 -0.129891 1.055680
  9 3.793090 6.407221 0.000000 0.000000 -0.000000 1.570796
 10 0.935740 0.000000 0.000000 0.000000 -0.000000 0.000000
 11 0.935741 0.000000 0.000000 0.000000 -0.000000 0.000000
 12 1.293670 0.684478 -0.000001 -0.000004 -0.000001 0.279871
 13 5.309685 -0.003834 0.000000 -0.204964 0.043157 0.203888
 14 4.826790 -0.004591 0.000000 -0.291883 0.053775 0.176198
 15 5.792767 -0.005304 0.000000 0.000000 -0.000000 0.333350
 16 6.662317 -0.001453 0.000000 0.000000 -0.000001 0.078555
 17 2.046985 -0.000002 0.000000 0.483089 -0.147410 -0.413011
 18 -3.447972 0.216433 4.341911 1.713143 -0.516929 1.208947
 19 4.827230 0.000000 0.000001 -0.357824 0.157819 0.285988
 20 11.139763 0.000000 0.000000 0.000000 -0.000000 -1.304248
 21 10.314597 0.000001 0.000000 -4.515207 0.031522 -0.094278
 22 2.975834 -0.386307 -0.044143 -0.012063 -0.041921 0.261905
 23 1.438886 0.000000 0.000000 0.000000 -0.000000 0.924779
 24 1.485303 0.000000 0.000000 0.000000 -0.000000 0.540939
 25 -3.186314 0.196501 -4.140396 -0.859037 1.194483 2.239600
 26 4.972048 0.000000 0.000001 0.286045 -0.296183 -1.345215
 27 11.585355 0.000000 0.000000 0.000000 -0.000000 -1.485248
 28 10.127057 0.000000 0.000001 2.090517 0.474211 0.624708
 29 2.683750 -0.427338 0.044205 0.001045 0.043611 0.000046
 30 1.438885 -0.000001 0.000000 0.000000 -0.000000 0.767689
 31 1.485305 0.000001 0.000000 0.000000 -0.000000 1.221538
time 11
  0 0.235347 -0.235347 -12.655161 -0.000000 0.270322 -1.571254
  1 -3.953246 0.695334 0.000000 -1.570795 -1.570796 0.000000
  2 -0.000005 0.000007 3.713255 -3.389770 -0.209750 1.567109
  3 18.045721 0.000000 0.000000 0.000000 -0.000000 -1.744563
  4 17.597597 0.000000 0.000000 -0.164903 0.191688 0.413694
  5 3.793090 6.407221 0.000000 0.000000 -0.000000 1.570796
  6 0.000005 -0.000003 -3.713255 0.311943 2.936853 5.354742
  7 18.045725 0.000000 0.000000 0.000000 -0.000000 -1.993292
  8 17.597597 0.000000 0.000000 0.131015 -0.129891 1.055680
  9 3.793090 6.407221 0.000000 0.000000 -0.000000 1.570796
 10 0.935740 0.000000 0.000000 0.000000 -0.000000 0.000000
 11 0.935741 0.000000 0.000000 0.000000 -0.000000 0.000000
 12 1.293670 0.684478 -0.000001 -0.000004 -0.000001 0.279871
 13 5.309685 -0.003834 0.000000 -0.204817 0.043816 0.207002
 14 4.826790 -0.004591 0.000000 -0.291768 0.054506 0.178579
 15 5.792767 -0.005304 0.000000 0.000000 -0.000000 0.338437
 16 6.662317 -0.001453 0.000000 0.000000 -0.000001 0.078555
 17 2.046985 -0.000002 0.000000 0.482701 -0.147973 -0.420832
 18 -3.447972 0.216433 4.341911 1.711225 -0.510852 1.210193
 19 4.827230 0.000000 0.000001 -0.363345 0.147607 0.293689
 20 11.139763 0.000000 0.000000 0.000000 -0.000000 -1.304248
 21 10.314597 0.000001 0.000000 -4.515207 0.031522 -0.094278
 22 2.975834 -0.386307 -0.044143 -0.012063 -0.041921 0.261905
 23 1.438886 0.000000 0.000000 0.000000 -0.000000 0.924779
 24 1.485303 0.000000 0.000000 0.000000 -0.000000 0.540939
 25 -3.186314 0.196501 -4.140396 -0.872651 1.188887 2.226274
 26 4.972048 0.000000 0.000001 0.286664 -0.283956 -1.341065
 27 11.585355 0.000000 0.000000 0.000000 -0.000000 -1.485248
 28 10.127057 0.000000 0.000001 2.090517 0.474211 0.624708
 29 2.683750 -0.427338 0.044205 0.001045 0.043611 0.000046
 30 1.438885 -0.000001 0.000000 0.000000 -0.000000 0.767689
 31 1.485305 0.000001 0.000000 0.000000 -0.000000 1.221538
time 12
  0 0.235347 -0.235347 -12.659067 -0.000000 0.270322 -1.571254
  1 -3.968871 0.707053 0.000000 -1.570795 -1.570796 0.000000
  2 -0.000005 0.000007 3.713255 -3.389770 -0.209750 1.567109
  3 18.045721 0.000000 0.000000 0.000000 -0.000000 -1.744563
  4 17.597597 0.000000 0.000000 -0.164903 0.191688 0.413694
  5 3.793090 6.407221 0.000000 0.000000 -0.000000 1.570796
  6 0.000005 -0.000003 -3.713255 0.311943 2.936853 5.354742
  7 18.045725 0.000000 0.000000 0.000000 -0.000000 -1.993292
  8 17.597597 0.000000 0.000000 0.131015 -0.129891 1.055680
  9 3.793090 6.407221 0.000000 0.000000 -0.000000 1.570796
 10 0.935740 0.000000 0.000000 0.000000 -0.000000 0.000000
 11 0.935741 0.000000 0.000000 0.000000 -0.000000 0.000000
 12 1.293670 0.684478 -0.000001 -0.000004 -0.000001 0.279871
 13 5.309685 -0.003834 0.000000 -0.204719 0.044367 0.209610
 14 4.826790 -0.004591 0.000000 -0.291653 0.055081 0.180696
 15 5.792767 -0.005304 0.000000 0.000000 -0.000000 0.342714
 16 6.662317 -0.001453 0.000000 0.000000 -0.000001 0.078555
 17 2.046985 -0.000002 0.000000 0.482615 -0.148446 -0.427259
 18 -3.447972 0.216433 4.341911 1.709308 -0.505698 1.210960
 19 4.827230 0.000000 0.000001 -0.367868 0.139182 0.300077
 20 11.139763 0.000000 0.000000 0.000000 -0.000000 -1.304248
 21 10.314597 0.000001 0.000000 -4.515207 0.031522 -0.094278
 22 2.975834 -0.386307 -0.044143 -0.012063 -0.041921 0.261905
 23 1.438886 0.000000 0.000000 0.000000 -0.000000 0.924779
 24 1.485303 0.000000 0.000000 0.000000 -0.000000 0.540939
 25 -3.186314 0.196501 -4.140396 -0.884443 1.184082 2.215728
 26 4.972048 0.000000 0.000001 0.287051 -0.273740 -1.337508
 27 11.585355 0.000000 0.000000 0.000000 -0.000000 -1.485248
 28 10.127057 0.000000 0.000001 2.090517 0.474211 0.624708
 29 2.683750 -0.427338 0.044205 0.001045 0.043611 0.000046
 30 1.438885 -0.000001 0.000000 0.000000 -0.000000 0.767689
 31 1.485305 0.000001 0.000000 0.000000 -0.000000 1.221538
time 13
  0 0.235347 -0.235347 -12.662973 -0.000000 0.270322 -1.571254
  1 -3.988403 0.714866 0.000000 -1.570795 -1.570796 0.000000
  2 -0.000005 0.000007 3.713255 -3.389770 -0.209750 1.567109
  3 18.045721 0.000000 0.000000 0.000000 -0.000000 -1.744563
  4 17.597597 0.000000 0.000000 -0.164903 0.191688 0.413694
  5 3.793090 6.407221 0.000000 0.000000 -0.000000 1.570796
  6 0.000005 -0.000003 -3.713255 0.311943 2.936853 5.354742
  7 18.045725 0.000000 0.000000 0.000000 -0.000000 -1.993292
  8 17.597597 0.000000 0.000000 0.131015 -0.129891 1.055680
  9 3.793090 6.407221 0.000000 0.000000 -0.000000 1.570796
 10 0.935740 0.000000 0.000000 0.000000 -0.000000 0.000000
 11 0.935741 0.000000 0.000000 0.000000 -0.000000 0.000000
 12 1.293670 0.684478 -0.000001 -0.000004 -0.000001 0.279871
 13 5.309685 -0.003834 0.000000 -0.204609 0.044738 0.211638
 14 4.826790 -0.004591 0.000000 -0.291571 0.055597 0.182217
 15 5.792767 -0.005304 0.000000 0.000000 -0.000000 0.346036
 16 6.662317 -0.001453 0.000000 0.000000 -0.000001 0.078555
 17 2.046985 -0.000002 0.000000 0.482270 -0.148806 -0.432339
 18 -3.447972 0.216433 4.341911 1.708253 -0.501775 1.211727
 19 4.827230 0.000000 0.000001 -0.371392 0.132544 0.305065
 20 11.139763 0.000000 0.000000 0.000000 -0.000000 -1.304248
 21 10.314597 0.000001 0.000000 -4.515207 0.031522 -0.094278
 22 2.975834 -0.386307 -0.044143 -0.012063 -0.041921 0.261905
 23 1.438886 0.000000 0.000000 0.000000 -0.000000 0.924779
 24 1.485303 0.000000 0.000000 0.000000 -0.000000 0.540939
 25 -3.186314 0.196501 -4.140396 -0.892976 1.180436 2.207866
 26 4.972048 0.000000 0.000001 0.287360 -0.265937 -1.334807
 27 11.585355 0.000000 0.000000 0.000000 -0.000000 -1.485248
 28 10.127057 0.000000 0.000001 2.090517 0.474211 0.624708
 29 2.683750 -0.427338 0.044205 0.001045 0.043611 0.000046
 30 1.438885 -0.000001 0.000000 0.000000 -0.000000 0.767689
 31 1.485305 0.000001 0.000000 0.000000 -0.000000 1.221538
time 14
  0 0.235347 -0.235347 -12.662973 -0.000000 0.270322 -1.571254
  1 -3.996216 0.718772 0.000000 -1.570795 -1.570796 0.000000
  2 -0.000005 0.000007 3.713255 -3.389770 -0.209750 1.567109
  3 18.045721 0.000000 0.000000 0.000000 -0.000000 -1.744563
  4 17.597597 0.000000 0.000000 -0.164903 0.191688 0.413694
  5 3.793090 6.407221 0.000000 0.000000 -0.000000 1.570796
  6 0.000005 -0.000003 -3.713255 0.311943 2.936853 5.354742
  7 18.045725 0.000000 0.000000 0.000000 -0.000000 -1.993292
  8 17.597597 0.000000 0.000000 0.131015 -0.129891 1.055680
  9 3.793090 6.407221 0.000000 0.000000 -0.000000 1.570796
 10 0.935740 0.000000 0.000000 0.000000 -0.000000 0.000000
 11 0.935741 0.000000 0.000000 0.000000 -0.000000 0.000000
 12 1.293670 0.684478 -0.000001 -0.000004 -0.000001 0.279871
 13 5.309685 -0.003834 0.000000 -0.204560 0.045002 0.212923
 14 4.826790 -0.004591 0.000000 -0.291489 0.055848 0.183231
 15 5.792767 -0.005304 0.000000 0.000000 -0.000000 0.348133
 16 6.662317 -0.001453 0.000000 0.000000 -0.000001 0.078555
 17 2.046985 -0.000002 0.000000 0.482184 -0.149031 -0.435755
 18 -3.447972 0.216433 4.341911 1.707103 -0.499198 1.211823
 19 4.827230 0.000000 0.000001 -0.373859 0.128289 0.308128
 20 11.139763 0.000000 0.000000 0.000000 -0.000000 -1.304248
 21 10.314597 0.000001 0.000000 -4.515207 0.031522 -0.094278
 22 2.975834 -0.386307 -0.044143 -0.012063 -0.041921 0.261905
 23 1.438886 0.000000 0.000000 0.000000 -0.000000 0.924779
 24 1.485303 0.000000 0.000000 0.000000 -0.000000 0.540939
 25 -3.186314 0.196501 -4.140396 -0.898345 1.177977 2.202785
 26 4.972048 0.000000 0.000001 0.287515 -0.261030 -1.332963
 27 11.585355 0.000000 0.000000 0.000000 -0.000000 -1.485248
 28 10.127057 0.000000 0.000001 2.090517 0.474211 0.624708
 29 2.683750 -0.427338 0.044205 0.001045 0.043611 0.000046
 30 1.438885 -0.000001 0.000000 0.000000 -0.000000 0.767689
 31 1.485305 0.000001 0.000000 0.000000 -0.000000 1.221538
time 15
  0 0.235347 -0.235347 -12.662973 -0.000000 0.270322 -1.571254
  1 -4.000122 0.718772 0.000000 -1.570795 -1.570796 0.000000
  2 -0.000005 0.000007 3.713255 -3.389770 -0.209750 1.567109
  3 18.045721 0.000000 0.000000 0.000000 -0.000000 -1.744563
  4 17.597597 0.000000 0.000000 -0.164903 0.191688 0.413694
  5 3.793090 6.407221 0.000000 0.000000 -0.000000 1.570796
  6 0.000005 -0.000003 -3.713255 0.311943 2.936853 5.354742
  7 18.045725 0.000000 0.000000 0.000000 -0.000000 -1.993292
  8 17.597597 0.000000 0.000000 0.131015 -0.129891 1.055680
  9 3.793090 6.407221 0.000000 0.000000 -0.000000 1.570796
 10 0.935740 0.000000 0.000000 0.000000 -0.000000 0.000000
 11 0.935741 0.000000 0.000000 0.000000 -0.000000 0.000000
 12 1.293670 0.684478 -0.000001 -0.000004 -0.000001 0.279871
 13 5.309685 -0.003834 0.000000 -0.204560 0.045146 0.213376
 14 4.826790 -0.004591 0.000000 -0.291489 0.056004 0.183584
 15 5.792767 -0.005304 0.000000 0.000000 -0.000000 0.348839
 16 6.662317 -0.001453 0.000000 0.000000 -0.000001 0.078555
 17 2.046985 -0.000002 0.000000 0.482141 -0.149121 -0.436743
 18 -3.447972 0.216433 4.341911 1.707103 -0.498313 1.212015
 19 4.827230 0.000000 0.000001 -0.374505 0.126842 0.309266
 20 11.139763 0.000000 0.000000 0.000000 -0.000000 -1.304248
 21 10.314597 0.000001 0.000000 -4.515207 0.031522 -0.094278
 22 2.975834 -0.386307 -0.044143 -0.012063 -0.041921 0.261905
 23 1.438886 0.000000 0.000000 0.000000 -0.000000 0.924779
 24 1.485303 0.000000 0.000000 0.000000 -0.000000 0.540939
 25 -3.186314 0.196501 -4.140396 -0.900358 1.177129 2.201155
 26 4.972048 0.000000 0.000001 0.287515 -0.259180 -1.332370
 27 11.585355 0.000000 0.000000 0.000000 -0.000000 -1.485248
 28 10.127057 0.000000 0.000001 2.090517 0.474211 0.624708
 29 2.683750 -0.427338 0.044205 0.001045 0.043611 0.000046
 30 1.438885 -0.000001 0.000000 0.000000 -0.000000 0.767689
 31 1.485305 0.000001 0.000000 0.000000 -0.000000 1.221538
time 16
  0 0.235347 -0.235347 -12.662973 -0.000000 0.270322 -1.571254
  1 -3.996216 0.718772 0.000000 -1.570795 -1.570796 0.000000
  2 -0.000005 0.000007 3.713255 -3.389770 -0.209750 1.567109
  3 18.045721 0.000000 0.000000 0.000000 -0.000000 -1.744563
  4 17.597597 0.000000 0.000000 -0.164903 0.191688 0.413694
  5 3.793090 6.407221 0.000000 0.000000 -0.000000 1.570796
  6 0.000005 -0.000003 -3.713255 0.311943 2.936853 5.354742
  7 18.045725 0.000000 0.000000 0.000000 -0.000000 -1.993292
  8 17.597597 0.000000 0.000000 0.131015 -0.129891 1.055680
  9 3.793090 6.407221 0.000000 0.000000 -0.000000 1.570796
 10 0.935740 0.000000 0.000000 0.000000 -0.000000 0.000000
 11 0.935741 0.000000 0.000000 0.000000 -0.000000 0.000000
 12 1.293670 0.684478 -0.000001 -0.000004 -0.000001 0.279871
 13 5.309685 -0.003834 0.000000 -0.204560 0.045002 0.212923
 14 4.826790 -0.004591 0.000000 -0.291489 0.055848 0.183231
 15 5.792767 -0.005304 0.000000 0.000000 -0.000000 0.348133
 16 6.662317 -0.001453 0.000000 0.000000 -0.000001 0.078555
 17 2.046985 -0.000002 0.000000 0.482184 -0.149031 -0.435755
 18 -3.447972 0.216433 4.341911 1.707103 -0.499198 1.211823
 19 4.827230 0.000000 0.000001 -0.373859 0.128289 0.308128
 20 11.139763 0.000000 0.000000 0.000000 -0.000000 -1.304248
 21 10.314597 0.000001 0.000000 -4.515207 0.031522 -0.094278
 22 2.975834 -0.386307 -0.044143 -0.012063 -0.041921 0.261905
 23 1.438886 0.000000 0.000000 0.000000 -0.000000 0.924779
 24 1.485303 0.000000 0.000000 0.000000 -0.000000 0.540939
 25 -3.186314 0.196501 -4.140396 -0.898345 1.177977 2.202785
 26 4.972048 0.000000 0.000001 0.287515 -0.261030 -1.332963
 27 11.585355 0.000000 0.000000 0.000000 -0.000000 -1.485248
 28 10.127057 0.000000 0.000001 2.090517 0.474211 0.624708
 29 2.683750 -0.427338 0.044205 0.001045 0.043611 0.000046
 30 1.438885 -0.000001 0.000000 0.000000 -0.000000 0.767689
 31 1.485305 0.000001 0.000000 0.000000 -0.000000 1.221538
time 17
  0 0.235347 -0.235347 -12.662973 -0.000000 0.270322 -1.571254
  1 -3.988403 0.714866 0.000000 -1.570795 -1.570796 0.000000
  2 -0.000005 0.000007 3.713255 -3.389770 -0.209750 1.567109
  3 18.045721 0.000000 0.000000 0.000000 -0.000000 -1.744563
  4 17.597597 0.000000 0.000000 -0.164903 0.191688 0.413694
  5 3.793090 6.407221 0.000000 0.000000 -0.000000 1.570796
  6 0.000005 -0.000003 -3.713255 0.311943 2.936853 5.354742
  7 18.045725 0.000000 0.000000 0.000000 -0.000000 -1.993292
  8 17.597597 0.000000 0.000000 0.131015 -0.129891 1.055680
  9 3.793090 6.407221 0.000000 0.000000 -0.000000 1.570796
 10 0.935740 0.000000 0.000000 0.000000 -0.000000 0.000000
 11 0.935741 0.000000 0.000000 0.000000 -0.000000 0.000000
 12 1.293670 0.684478 -0.000001 -0.000004 -0.000001 0.279871
 13 5.309685 -0.003834 0.000000 -0.204609 0.044738 0.211638
 14 4.826790 -0.004591 0.000000 -0.291571 0.055597 0.182217
 15 5.792767 -0.005304 0.000000 0.000000 -0.000000 0.346036
 16 6.662317 -0.001453 0.000000 0.000000 -0.000001 0.078555
 17 2.046985 -0.000002 0.000000 0.482270 -0.148806 -0.432339
 18 -3.447972 0.216433 4.341911 1.708253 -0.501775 1.211727
 19 4.827230 0.000000 0.000001 -0.371392 0.132544 0.305065
 20 11.139763 0.000000 0.000000 0.000000 -0.000000 -1.304248
 21 10.314597 0.000001 0.000000 -4.515207 0.031522 -0.094278
 22 2.975834 -0.386307 -0.044143 -0.012063 -0.041921 0.261905
 23 1.438886 0.000000 0.000000 0.000000 -0.000000 0.924779
 24 1.485303 0.000000 0.000000 0.000000 -0.000000 0.540939
 25 -3.186314 0.196501 -4.140396 -0.892976 1.180436 2.207866
 26 4.972048 0.000000 0.000001 0.287360 -0.265937 -1.334807
 27 11.585355 0.000000 0.000000 0.000000 -0.000000 -1.485248
 28 10.127057 0.000000 0.000001 2.090517 0.474211 0.624708
 29 2.683750 -0.427338 0.044205 0.001045 0.043611 0.000046
 30 1.438885 -0.000001 0.000000 0.000000 -0.000000 0.767689
 31 1.485305 0.000001 0.000000 0.000000 -0.000000 1.221538
time 18
  0 0.235347 -0.235347 -12.659067 -0.000000 0.270322 -1.571254
  1 -3.968871 0.707053 0.000000 -1.570795 -1.570796 0.000000
  2 -0.000005 0.000007 3.713255 -3.389770 -0.209750 1.567109
  3 18.045721 0.000000 0.000000 0.000000 -0.000000 -1.744563
  4 17.597597 0.000000 0.000000 -0.164903 0.191688 0.413694
  5 3.793090 6.407221 0.000000 0.000000 -0.000000 1.570796
  6 0.000005 -0.000003 -3.713255 0.311943 2.936853 5.354742
  7 18.045725 0.000000 0.000000 0.000000 -0.000000 -1.993292
  8 17.597597 0.000000 0.000000 0.131015 -0.129891 1.055680
  9 3.793090 6.407221 0.000000 0.000000 -0.000000 1.570796
 10 0.935740 0.000000 0.000000 0.000000 -0.000000 0.000000
 11 0.935741 0.000000 0.000000 0.000000 -0.000000 0.000000
 12 1.293670 0.684478 -0.000001 -0.000004 -0.000001 0.279871
 13 5.309685 -0.003834 0.000000 -0.204719 0.044367 0.209610
 14 4.826790 -0.004591 0.000000 -0.291653 0.055081 0.180696
 15 5.792767 -0.005304 0.000000 0.000000 -0.000000 0.342714
 16 6.662317 -0.001453 0.000000 0.000000 -0.000001 0.078555
 17 2.046985 -0.000002 0.000000 0.482615 -0.148446 -0.427259
 18 -3.447972 0.216433 4.341911 1.709308 -0.505698 1.210960
 19 4.827230 0.000000 0.000001 -0.367868 0.139182 0.300077
 20 11.139763 0.000000 0.000000 0.000000 -0.000000 -1.304248
 21 10.314597 0.000001 0.000000 -4.515207 0.031522 -0.094278
 22 2.975834 -0.386307 -0.044143 -0.012063 -0.041921 0.261905
 23 1.438886 0.000000 0.000000 0.000000 -0.000000 0.924779
 24 1.485303 0.000000 0.000000 0.000000 -0.000000 0.540939
 25 -3.186314 0.196501 -4.140396 -0.884443 1.184082 2.215728
 26 4.972048 0.000000 0.000001 0.287051 -0.273740 -1.337508
 27 11.585355 0.000000 0.000000 0.000000 -0.000000 -1.485248
 28 10.127057 0.000000 0.000001 2.090517 0.474211 0.624708
 29 2.683750 -0.427338 0.044205 0.001045 0.043611 0.000046
 30 1.438885 -0.000001 0.000000 0.000000 -0.000000 0.767689
 31 1.485305 0.000001 0.000000 0.000000 -0.000000 1.221538
time 19
  0 0.235347 -0.235347 -12.655161 -0.000000 0.270322 -1.571254
  1 -3.953246 0.695334 0.000000 -1.570795 -1.570796 0.000000
  2 -0.000005 0.000007 3.713255 -3.389770 -0.209750 1.567109
  3 18.045721 0.000000 0.000000 0.000000 -0.000000 -1.744563
  4 17.597597 0.000000 0.000000 -0.164903 0.191688 0.413694
  5 3.793090 6.407221 0.000000 0.000000 -0.000000 1.570796
  6 0.000005 -0.000003 -3.713255 0.311943 2.936853 5.354742
  7 18.045725 0.000000 0.000000 0.000000 -0.000000 -1.993292
  8 17.597597 0.000000 0.000000 0.131015 -0.129891 1.055680
  9 3.793090 6.407221 0.000000 0.000000 -0.000000 1.570796
 10 0.935740 0.000000 0.000000 0.000000 -0.000000 0.000000
 11 0.935741 0.000000 0.000000 0.000000 -0.000000 0.000000
 12 1.293670 0.684478 -0.000001 -0.000004 -0.000001 0.279871
 13 5.309685 -0.003834 0.000000 -0.204817 0.043816 0.207002
 14 4.826790 -0.004591 0.000000 -0.291768 0.054506 0.178579
 15 5.792767 -0.005304 0.000000 0.000000 -0.000000 0.338437
 16 6.662317 -0.001453 0.000000 0.000000 -0.000001 0.078555
 17 2.046985 -0.000002 0.000000 0.482701 -0.147973 -0.420832
 18 -3.447972 0.216433 4.341911 1.711225 -0.510852 1.210193
 19 4.827230 0.000000 0.000001 -0.363345 0.147607 0.293689
 20 11.139763 0.000000 0.000000 0.000000 -0.000000 -1.304248
 21 10.314597 0.000001 0.000000 -4.515207 0.031522 -0.094278
 22 2.975834 -0.386307 -0.044143 -0.012063 -0.041921 0.261905
 23 1.438886 0.000000 0.000000 0.000000 -0.000000 0.924779
 24 1.485303 0.000000 0.000000 0.000000 -0.000000 0.540939
 25 -3.186314 0.196501 -4.140396 -0.872651 1.188887 2.226274
 26 4.972048 0.000000 0.000001 0.286664 -0.283956 -1.341065
 27 11.585355 0.000000 0.000000 0.000000 -0.000000 -1.485248
 28 10.127057 0.000000 0.000001 2.090517 0.474211 0.624708
 29 2.683750 -0.427338 0.044205 0.001045 0.043611 0.000046
 30 1.438885 -0.000001 0.000000 0.000000 -0.000000 0.767689
 31 1.485305 0.000001 0.000000 0.000000 -0.000000 1.221538
time 20
  0 0.235347 -0.235347 -12.647348 -0.000000 0.270322 -1.571254
  1 -3.933714 0.687521 0.000000 -1.570795 -1.570796 0.000000
  2 -0.000005 0.000007 3.713255 -3.389770 -0.209750 1.567109
  3 18.045721 0.000000 0.000000 0.000000 -0.000000 -1.744563
  4 17.597597 0.000000 0.000000 -0.164903 0.191688 0.413694
  5 3.793090 6.407221 0.000000 0.000000 -0.000000 1.570796
  6 0.000005 -0.000003 -3.713255 0.311943 2.936853 5.354742
  7 18.045725 0.000000 0.000000 0.000000 -0.000000 -1.993292
  8 17.597597 0.000000 0.000000 0.131015 -0.129891 1.055680
  9 3.793090 6.407221 0.000000 0.000000 -0.000000 1.570796
 10 0.935740 0.000000 0.000000 0.000000 -0.000000 0.000000
 11 0.935741 0.000000 0.000000 0.000000 -0.000000 0.000000
 12 1.293670 0.684478 -0.000001 -0.000004 -0.000001 0.279871
 13 5.309685 -0.003834 0.000000 -0.204964 0.043157 0.203888
 14 4.826790 -0.004591 0.000000 -0.291883 0.053775 0.176198
 15 5.792767 -0.005304 0.000000 0.000000 -0.000000 0.333350
 16 6.662317 -0.001453 0.000000 0.000000 -0.000001 0.078555
 17 2.046985 -0.000002 0.000000 0.483089 -0.147410 -0.413011
 18 -3.447972 0.216433 4.341911 1.713143 -0.516929 1.208947
 19 4.827230 0.000000 0.000001 -0.357824 0.157819 0.285988
 20 11.139763 0.000000 0.000000 0.000000 -0.000000 -1.304248
 21 10.314597 0.000001 0.000000 -4.515207 0.031522 -0.094278
 22 2.975834 -0.386307 -0.044143 -0.012063 -0.041921 0.261905
 23 1.438886 0.000000 0.000000 0.000000 -0.000000 0.924779
 24 1.485303 0.000000 0.000000 0.000000 -0.000000 0.540939
 25 -3.186314 0.196501 -4.140396 -0.859037 1.194483 2.239600
 26 4.972048 0.000000 0.000001 0.286045 -0.296183 -1.345215
 27 11.585355 0.000000 0.000000 0.000000 -0.000000 -1.485248
 28 10.127057 0.000000 0.000001 2.090517 0.474211 0.624708
 29 2.683750 -0.427338 0.044205 0.001045 0.043611 0.000046
 30 1.438885 -0.000001 0.000000 0.000000 -0.000000 0.767689
 31 1.485305 0.000001 0.000000 0.000000 -0.000000 1.221538
time 21
  0 0.235347 -0.235347 -12.631722 -0.000000 0.270322 -1.571254
  1 -3.902463 0.675802 0.000000 -1.570795 -1.570796 0.000000
  2 -0.000005 0.000007 3.713255 -3.389770 -0.209750 1.567109
  3 18.045721 0.000000 0.000000 0.000000 -0.000000 -1.744563
  4 17.597597 0.000000 0.000000 -0.164903 0.191688 0.413694
  5 3.793090 6.407221 0.000000 0.000000 -0.000000 1.570796
  6 0.000005 -0.000003 -3.713255 0.311943 2.936853 5.354742
  7 18.045725 0.000000 0.000000 0.000000 -0.000000 -1.993292
  8 17.597597 0.000000 0.000000 0.131015 -0.129891 1.055680
  9 3.793090 6.407221 0.000000 0.000000 -0.000000 1.570796
 10 0.935740 0.000000 0.000000 0.000000 -0.000000 0.000000
 11 0.935741 0.000000 0.000000 0.000000 -0.000000 0.000000
 12 1.293670 0.684478 -0.000001 -0.000004 -0.000001 0.279871
 13 5.309685 -0.003834 0.000000 -0.205123 0.042401 0.200393
 14 4.826790 -0.004591 0.000000 -0.292047 0.052960 0.173464
 15 5.792767 -0.005304 0.000000 0.000000 -0.000000 0.327661
 16 6.662317 -0.001453 0.000000 0.000000 -0.000001 0.078555
 17 2.046985 -0.000002 0.000000 0.483218 -0.146780 -0.404021
 18 -3.447972 0.216433 4.341911 1.715348 -0.523814 1.207892
 19 4.827230 0.000000 0.000001 -0.351598 0.169563 0.277499
 20 11.139763 0.000000 0.000000 0.000000 -0.000000 -1.304248
 21 10.314597 0.000001 0.000000 -4.515207 0.031522 -0.094278
 22 2.975834 -0.386307 -0.044143 -0.012063 -0.041921 0.261905
 23 1.438886 0.000000 0.000000 0.000000 -0.000000 0.924779
 24 1.485303 0.000000 0.000000 0.000000 -0.000000 0.540939
 25 -3.186314 0.196501 -4.140396 -0.843026 1.200758 2.254269
 26 4.972048 0.000000 0.000001 0.285349 -0.309697 -1.349892
 27 11.585355 0.000000 0.000000 0.000000 -0.000000 -1.485248
 28 10.127057 0.000000 0.000001 2.090517 0.474211 0.624708
 29 2.683750 -0.427338 0.044205 0.001045 0.043611 0.000046
 30 1.438885 -0.000001 0.000000 0.000000 -0.000000 0.767689
 31 1.485305 0.000001 0.000000 0.000000 -0.000000 1.221538
time 22
  0 0.235347 -0.235347 -12.631722 -0.000000 0.270322 -1.571254
  1 -3.882931 0.664083 0.000000 -1.570795 -1.570796 0.000000
  2 -0.000005 0.000007 3.713255 -3.389770 -0.209750 1.567109
  3 18.045721 0.000000 0.000000 0.000000 -0.000000 -1.744563
  4 17.597597 0.000000 0.000000 -0.164903 0.191688 0.413694
  5 3.793090 6.407221 0.000000 0.000000 -0.000000 1.570796
  6 0.000005 -0.000003 -3.713255 0.311943 2.936853 5.354742
  7 18.045725 0.000000 0.000000 0.000000 -0.000000 -1.993292
  8 17.597597 0.000000 0.000000 0.131015 -0.129891 1.055680
  9 3.793090 6.407221 0.000000 0.000000 -0.000000 1.570796
 10 0.935740 0.000000 0.000000 0.000000 -0.000000 0.000000
 11 0.935741 0.000000 0.000000 0.000000 -0.000000 0.000000
 12 1.293670 0.684478 -0.000001 -0.000004 -0.000001 0.279871
 13 5.309685 -0.003834 0.000000 -0.205270 0.041622 0.196627
 14 4.826790 -0.004591 0.000000 -0.292195 0.052025 0.170532
 15 5.792767 -0.005304 0.000000 0.000000 -0.000000 0.321536
 16 6.662317 -0.001453 0.000000 0.000000 -0.000001 0.078555
 17 2.046985 -0.000002 0.000000 0.483649 -0.146105 -0.394537
 18 -3.447972 0.216433 4.341911 1.717649 -0.531160 1.206550
 19 4.827230 0.000000 0.000001 -0.345078 0.181477 0.268573
 20 11.139763 0.000000 0.000000 0.000000 -0.000000 -1.304248
 21 10.314597 0.000001 0.000000 -4.515207 0.031522 -0.094278
 22 2.975834 -0.386307 -0.044143 -0.012063 -0.041921 0.261905
 23 1.438886 0.000000 0.000000 0.000000 -0.000000 0.924779
 24 1.485303 0.000000 0.000000 0.000000 -0.000000 0.540939
 25 -3.186314 0.196501 -4.140396 -0.825098 1.207400 2.271334
 26 4.972048 0.000000 0.000001 0.284730 -0.324337 -1.354635
 27 11.585355 0.000000 0.000000 0.000000 -0.000000 -1.485248
 28 10.127057 0.000000 0.000001 2.090517 0.474211 0.624708
 29 2.683750 -0.427338 0.044205 0.001045 0.043611 0.000046
 30 1.438885 -0.000001 0.000000 0.000000 -0.000000 0.767689
 31 1.485305 0.000001 0.000000 0.000000 -0.000000 1.221538
time 23
  0 0.235347 -0.235347 -12.627816 -0.000000 0.270322 -1.571254
  1 -3.859493 0.656270 0.000000 -1.570795 -1.570796 0.000000
  2 -0.000005 0.000007 3.713255 -3.389770 -0.209750 1.567109
  3 18.045721 0.000000 0.000000 0.000000 -0.000000 -1.744563
  4 17.597597 0.000000 0.000000 -0.164903 0.191688 0.413694
  5 3.793090 6.407221 0.000000 0.000000 -0.000000 1.570796
  6 0.000005 -0.000003 -3.713255 0.311943 2.936853 5.354742
  7 18.045725 0.000000 0.000000 0.000000 -0.000000 -1.993292
  8 17.597597 0.000000 0.000000 0.131015 -0.129891 1.055680
  9 3.793090 6.407221 0.000000 0.000000 -0.000000 1.570796
 10 0.935740 0.000000 0.000000 0.000000 -0.000000 0.000000
 11 0.935741 0.000000 0.000000 0.000000 -0.000000 0.000000
 12 1.293670 0.684478 -0.000001 -0.000004 -0.000001 0.279871
 13 5.309685 -0.003834 0.000000 -0.205454 0.040832 0.192716
 14 4.826790 -0.004591 0.000000 -0.292359 0.051102 0.167467
 15 5.792767 -0.005304 0.000000 0.000000 -0.000000 0.315141
 16 6.662317 -0.001453 0.000000 0.000000 -0.000001 0.078555
 17 2.046985 -0.000002 0.000000 0.483778 -0.145384 -0.384874
 18 -3.447972 0.216433 4.341911 1.720621 -0.538814 1.205495
 19 4.827230 0.000000 0.000001 -0.338206 0.194242 0.259297
 20 11.139763 0.000000 0.000000 0.000000 -0.000000 -1.304248
 21 10.314597 0.000001 0.000000 -4.515207 0.031522 -0.094278
 22 2.975834 -0.386307 -0.044143 -0.012063 -0.041921 0.261905
 23 1.438886 0.000000 0.000000 0.000000 -0.000000 0.924779
 24 1.485303 0.000000 0.000000 0.000000 -0.000000 0.540939
 25 -3.186314 0.196501 -4.140396 -0.805827 1.214155 2.288975
 26 4.972048 0.000000 0.000001 0.283879 -0.339621 -1.359773
 27 11.585355 0.000000 0.000000 0.000000 -0.000000 -1.485248
 28 10.127057 0.000000 0.000001 2.090517 0.474211 0.624708
 29 2.683750 -0.427338 0.044205 0.001045 0.043611 0.000046
 30 1.438885 -0.000001 0.000000 0.000000 -0.000000 0.767689
 31 1.485305 0.000001 0.000000 0.000000 -0.000000 1.221538
time 24
  0 0.235347 -0.235347 -12.620004 -0.000000 0.270322 -1.571254
  1 -3.828242 0.644551 0.000000 -1.570795 -1.570796 0.000000
  2 -0.000005 0.000007 3.713255 -3.389770 -0.209750 1.567109
  3 18.045721 0.000000 0.000000 0.000000 -0.000000 -1.744563
  4 17.597597 0.000000 0.000000 -0.164903 0.191688 0.413694
  5 3.793090 6.407221 0.000000 0.000000 -0.000000 1.570796
  6 0.000005 -0.000003 -3.713255 0.311943 2.936853 5.354742
  7 18.045725 0.000000 0.000000 0.000000 -0.000000 -1.993292
  8 17.597597 0.000000 0.000000 0.131015 -0.129891 1.055680
  9 3.793090 6.407221 0.000000 0.000000 -0.000000 1.570796
 10 0.935740 0.000000 0.000000 0.000000 -0.000000 0.000000
 11 0.935741 0.000000 0.000000 0.000000 -0.000000 0.000000
 12 1.293670 0.684478 -0.000001 -0.000004 -0.000001 0.279871
 13 5.309685 -0.003834 0.000000 -0.205613 0.040029 0.188769
 14 4.826790 -0.004591 0.000000 -0.292507 0.050179 0.164358
 15 5.792767 -0.005304 0.000000 0.000000 -0.000000 0.308663
 16 6.662317 -0.001453 0.000000 0.000000 -0.000001 0.078555
 17 2.046985 -0.000002 0.000000 0.484252 -0.144664 -0.374761
 18 -3.447972 0.216433 4.341911 1.722921 -0.546545 1.203961
 19 4.827230 0.000000 0.000001 -0.331275 0.207092 0.249933
 20 11.139763 0.000000 0.000000 0.000000 -0.000000 -1.304248
 21 10.314597 0.000001 0.000000 -4.515207 0.031522 -0.094278
 22 2.975834 -0.386307 -0.044143 -0.012063 -0.041921 0.261905
 23 1.438886 0.000000 0.000000 0.000000 -0.000000 0.924779
 24 1.485303 0.000000 0.000000 0.000000 -0.000000 0.540939
 25 -3.186314 0.196501 -4.140396 -0.785598 1.220797 2.307958
 26 4.972048 0.000000 0.000001 0.282951 -0.354985 -1.364977
 27 11.585355 0.000000 0.000000 0.000000 -0.000000 -1.485248
 28 10.127057 0.000000 0.000001 2.090517 0.474211 0.624708
 29 2.683750 -0.427338 0.044205 0.001045 0.043611 0.000046
 30 1.438885 -0.000001 0.000000 0.000000 -0.000000 0.767689
 31 1.485305 0.000001 0.000000 0.000000 -0.000000 1.221538
time 25
  0 0.235347 -0.235347 -12.596565 -0.000000 0.270322 -1.571254
  1 -3.804804 0.632832 0.000000 -1.570795 -1.570796 0.000000
  2 -0.000005 0.000007 3.713255 -3.389770 -0.209750 1.567109
  3 18.045721 0.000000 0.000000 0.000000 -0.000000 -1.744563
  4 17.597597 0.000000 0.000000 -0.164903 0.191688 0.413694
  5 3.793090 6.407221 0.000000 0.000000 -0.000000 1.570796
  6 0.000005 -0.000003 -3.713255 0.311943 2.936853 5.354742
  7 18.045725 0.000000 0.000000 0.000000 -0.000000 -1.993292
  8 17.597597 0.000000 0.000000 0.131015 -0.129891 1.055680
  9 3.793090 6.407221 0.000000 0.000000 -0.000000 1.570796
 10 0.935740 0.000000 0.000000 0.000000 -0.000000 0.000000
 11 0.935741 0.000000 0.000000 0.000000 -0.000000 0.000000
 12 1.293670 0.684478 -0.000001 -0.000004 -0.000001 0.279871
 13 5.309685 -0.003834 0.000000 -0.205760 0.039226 0.184894
 14 4.826790 -0.004591 0.000000 -0.292671 0.049305 0.161271
 15 5.792767 -0.005304 0.000000 0.000000 -0.000000 0.302351
 16 6.662317 -0.001453 0.000000 0.000000 -0.000001 0.078555
 17 2.046985 -0.000002 0.000000 0.484554 -0.143966 -0.365142
 18 -3.447972 0.216433 4.341911 1.725894 -0.554161 1.202523
 19 4.827230 0.000000 0.000001 -0.324403 0.219772 0.241007
 20 11.139763 0.000000 0.000000 0.000000 -0.000000 -1.304248
 21 10.314597 0.000001 0.000000 -4.515207 0.031522 -0.094278
 22 2.975834 -0.386307 -0.044143 -0.012063 -0.041921 0.261905
 23 1.438886 0.000000 0.000000 0.000000 -0.000000 0.924779
 24 1.485303 0.000000 0.000000 0.000000 -0.000000 0.540939
 25 -3.186314 0.196501 -4.140396 -0.765081 1.227213 2.327324
 26 4.972048 0.000000 0.000001 0.281868 -0.370108 -1.370115
 27 11.585355 0.000000 0.000000 0.000000 -0.000000 -1.485248
 28 10.127057 0.000000 0.000001 2.090517 0.474211 0.624708
 29 2.683750 -0.427338 0.044205 0.001045 0.043611 0.000046
 30 1.438885 -0.000001 0.000000 0.000000 -0.000000 0.767689
 31 1.485305 0.000001 0.000000 0.000000 -0.000000 1.221538
time 26
  0 0.235347 -0.235347 -12.596565 -0.000000 0.270322 -1.571254
  1 -3.773553 0.621113 0.000000 -1.570795 -1.570796 0.000000
  2 -0.000005 0.000007 3.713255 -3.389770 -0.209750 1.567109
  3 18.045721 0.000000 0.000000 0.000000 -0.000000 -1.744563
  4 17.597597 0.000000 0.000000 -0.164903 0.191688 0.413694
  5 3.793090 6.407221 0.000000 0.000000 -0.000000 1.570796
  6 0.000005 -0.000003 -3.713255 0.311943 2.936853 5.354742
  7 18.045725 0.000000 0.000000 0.000000 -0.000000 -1.993292
  8 17.597597 0.000000 0.000000 0.131015 -0.129891 1.055680
  9 3.793090 6.407221 0.000000 0.000000 -0.000000 1.570796
 10 0.935740 0.000000 0.000000 0.000000 -0.000000 0.000000
 11 0.935741 0.000000 0.000000 0.000000 -0.000000 0.000000
 12 1.293670 0.684478 -0.000001 -0.000004 -0.000001 0.279871
 13 5.309685 -0.003834 0.000000 -0.205870 0.038447 0.181200
 14 4.826790 -0.004591 0.000000 -0.292819 0.048442 0.158405
 15 5.792767 -0.005304 0.000000 0.000000 -0.000000 0.296330
 16 6.662317 -0.001453 0.000000 0.000000 -0.000001 0.078555
 17 2.046985 -0.000002 0.000000 0.484769 -0.143291 -0.355838
 18 -3.447972 0.216433 4.341911 1.728195 -0.561315 1.201181
 19 4.827230 0.000000 0.000001 -0.317942 0.232112 0.232431
 20 11.139763 0.000000 0.000000 0.000000 -0.000000 -1.304248
 21 10.314597 0.000001 0.000000 -4.515207 0.031522 -0.094278
 22 2.975834 -0.386307 -0.044143 -0.012063 -0.041921 0.261905
 23 1.438886 0.000000 0.000000 0.000000 -0.000000 0.924779
 24 1.485303 0.000000 0.000000 0.000000 -0.000000 0.540939
 25 -3.186314 0.196501 -4.140396 -0.744852 1.233205 2.346307
 26 4.972048 0.000000 0.000001 0.281017 -0.384346 -1.374792
 27 11.585355 0.000000 0.000000 0.000000 -0.000000 -1.485248
 28 10.127057 0.000000 0.000001 2.090517 0.474211 0.624708
 29 2.683750 -0.427338 0.044205 0.001045 0.043611 0.000046
 30 1.438885 -0.000001 0.000000 0.000000 -0.000000 0.767689
 31 1.485305 0.000001 0.000000 0.000000 -0.000000 1.221538
time 27
  0 0.235347 -0.235347 -12.596565 -0.000000 0.270322 -1.571254
  1 -3.754021 0.613300 0.000000 -1.570795 -1.570796 0.000000
  2 -0.000005 0.000007 3.713255 -3.389770 -0.209750 1.567109
  3 18.045721 0.000000 0.000000 0.000000 -0.000000 -1.744563
  4 17.597597 0.000000 0.000000 -0.164903 0.191688 0.413694
  5 3.793090 6.407221 0.000000 0.000000 -0.000000 1.570796
  6 0.000005 -0.000003 -3.713255 0.311943 2.936853 5.354742
  7 18.045725 0.000000 0.000000 0.000000 -0.000000 -1.993292
  8 17.597597 0.000000 0.000000 0.131015 -0.129891 1.055680
  9 3.793090 6.407221 0.000000 0.000000 -0.000000 1.570796
 10 0.935740 0.000000 0.000000 0.000000 -0.000000 0.000000
 11 0.935741 0.000000 0.000000 0.000000 -0.000000 0.000000
 12 1.293670 0.684478 -0.000001 -0.000004 -0.000001 0.279871
 13 5.309685 -0.003834 0.000000 -0.206029 0.037716 0.177832
 14 4.826790 -0.004591 0.000000 -0.292934 0.047639 0.155737
 15 5.792767 -0.005304 0.000000 0.000000 -0.000000 0.290828
 16 6.662317 -0.001453 0.000000 0.000000 -0.000001 0.078555
 17 2.046985 -0.000002 0.000000 0.485071 -0.142683 -0.347253
 18 -3.447972 0.216433 4.341911 1.730496 -0.567969 1.200126
 19 4.827230 0.000000 0.000001 -0.312127 0.243090 0.224730
 20 11.139763 0.000000 0.000000 0.000000 -0.000000 -1.304248
 21 10.314597 0.000001 0.000000 -4.515207 0.031522 -0.094278
 22 2.975834 -0.386307 -0.044143 -0.012063 -0.041921 0.261905
 23 1.438886 0.000000 0.000000 0.000000 -0.000000 0.924779
 24 1.485303 0.000000 0.000000 0.000000 -0.000000 0.540939
 25 -3.186314 0.196501 -4.140396 -0.725773 1.238575 2.364331
 26 4.972048 0.000000 0.000001 0.280089 -0.397619 -1.379403
 27 11.585355 0.000000 0.000000 0.000000 -0.000000 -1.485248
 28 10.127057 0.000000 0.000001 2.090517 0.474211 0.624708
 29 2.683750 -0.427338 0.044205 0.001045 0.043611 0.000046
 30 1.438885 -0.000001 0.000000 0.000000 -0.000000 0.767689
 31 1.485305 0.000001 0.000000 0.000000 -0.000000 1.221538
time 28
  0 0.235347 -0.235347 -12.592659 -0.000000 0.270322 -1.571254
  1 -3.730583 0.601581 0.000000 -1.570795 -1.570796 0.000000
  2 -0.000005 0.000007 3.713255 -3.389770 -0.209750 1.567109
  3 18.045721 0.000000 0.000000 0.000000 -0.000000 -1.744563
  4 17.597597 0.000000 0.000000 -0.164903 0.191688 0.413694
  5 3.793090 6.407221 0.000000 0.000000 -0.000000 1.570796
  6 0.000005 -0.000003 -3.713255 0.311943 2.936853 5.354742
  7 18.045725 0.000000 0.000000 0.000000 -0.000000 -1.993292
  8 17.597597 0.000000 0.000000 0.131015 -0.129891 1.055680
  9 3.793090 6.407221 0.000000 0.000000 -0.000000 1.570796
 10 0.935740 0.000000 0.000000 0.000000 -0.000000 0.000000
 11 0.935741 0.000000 0.000000 0.000000 -0.000000 0.000000
 12 1.293670 0.684478 -0.000001 -0.000004 -0.000001 0.279871
 13 5.309685 -0.003834 0.000000 -0.206127 0.037080 0.174863
 14 4.826790 -0.004591 0.000000 -0.293049 0.046944 0.153422
 15 5.792767 -0.005304 0.000000 0.000000 -0.000000 0.285990
 16 6.662317 -0.001453 0.000000 0.000000 -0.000001 0.078555
 17 2.046985 -0.000002 0.000000 0.485286 -0.142143 -0.339656
 18 -3.447972 0.216433 4.341911 1.732701 -0.573738 1.198784
 19 4.827230 0.000000 0.000001 -0.306958 0.252451 0.218079
 20 11.139763 0.000000 0.000000 0.000000 -0.000000 -1.304248
 21 10.314597 0.000001 0.000000 -4.515207 0.031522 -0.094278
 22 2.975834 -0.386307 -0.044143 -0.012063 -0.041921 0.261905
 23 1.438886 0.000000 0.000000 0.000000 -0.000000 0.924779
 24 1.485303 0.000000 0.000000 0.000000 -0.000000 0.540939
 25 -3.186314 0.196501 -4.140396 -0.708420 1.243267 2.380821
 26 4.972048 0.000000 0.000001 0.279083 -0.409122 -1.383026
 27 11.585355 0.000000 0.000000 0.000000 -0.000000 -1.485248
 28 10.127057 0.000000 0.000001 2.090517 0.474211 0.624708
 29 2.683750 -0.427338 0.044205 0.001045 0.043611 0.000046
 30 1.438885 -0.000001 0.000000 0.000000 -0.000000 0.767689
 31 1.485305 0.000001 0.000000 0.000000 -0.000000 1.221538
time 29
  0 0.235347 -0.235347 -12.588753 -0.000000 0.270322 -1.571254
  1 -3.711051 0.589862 0.000000 -1.570795 -1.570796 0.000000
  2 -0.000005 0.000007 3.713255 -3.389770 -0.209750 1.567109
  3 18.045721 0.000000 0.000000 0.000000 -0.000000 -1.744563
  4 17.597597 0.000000 0.000000 -0.164903 0.191688 0.413694
  5 3.793090 6.407221 0.000000 0.000000 -0.000000 1.570796
  6 0.000005 -0.000003 -3.713255 0.311943 2.936853 5.354742
  7 18.045725 0.000000 0.000000 0.000000 -0.000000 -1.993292
  8 17.597597 0.000000 0.000000 0.131015 -0.129891 1.055680
  9 3.793090 6.407221 0.000000 0.000000 -0.000000 1.570796
 10 0.935740 0.000000 0.000000 0.000000 -0.000000 0.000000
 11 0.935741 0.000000 0.000000 0.000000 -0.000000 0.000000
 12 1.293670 0.684478 -0.000001 -0.000004 -0.000001 0.279871
 13 5.309685 -0.003834 0.000000 -0.206225 0.036625 0.172436
 14 4.826790 -0.004591 0.000000 -0.293131 0.046320 0.151570
 15 5.792767 -0.005304 0.000000 0.000000 -0.000000 0.281983
 16 6.662317 -0.001453 0.000000 0.000000 -0.000001 0.078555
 17 2.046985 -0.000002 0.000000 0.485286 -0.141692 -0.333543
 18 -3.447972 0.216433 4.341911 1.734235 -0.578469 1.197825
 19 4.827230 0.000000 0.000001 -0.302729 0.260706 0.212566
 20 11.139763 0.000000 0.000000 0.000000 -0.000000 -1.304248
 21 10.314597 0.000001 0.000000 -4.515207 0.031522 -0.094278
 22 2.975834 -0.386307 -0.044143 -0.012063 -0.041921 0.261905
 23 1.438886 0.000000 0.000000 0.000000 -0.000000 0.924779
 24 1.485303 0.000000 0.000000 0.000000 -0.000000 0.540939
 25 -3.186314 0.196501 -4.140396 -0.693943 1.246913 2.394531
 26 4.972048 0.000000 0.000001 0.278387 -0.418614 -1.386188
 27 11.585355 0.000000 0.000000 0.000000 -0.000000 -1.485248
 28 10.127057 0.000000 0.000001 2.090517 0.474211 0.624708
 29 2.683750 -0.427338 0.044205 0.001045 0.043611 0.000046
 30 1.438885 -0.000001 0.000000 0.000000 -0.000000 0.767689
 31 1.485305 0.000001 0.000000 0.000000 -0.000000 1.221538
time 30
  0 0.235347 -0.235347 -12.569221 -0.000000 0.270322 -1.571254
  1 -3.699332 0.589862 0.000000 -1.570795 -1.570796 0.000000
  2 -0.000005 0.000007 3.713255 -3.389770 -0.209750 1.567109
  3 18.045721 0.000000 0.000000 0.000000 -0.000000 -1.744563
  4 17.597597 0.000000 0.000000 -0.164903 0.191688 0.413694
  5 3.793090 6.407221 0.000000 0.000000 -0.000000 1.570796
  6 0.000005 -0.000003 -3.713255 0.311943 2.936853 5.354742
  7 18.045725 0.000000 0.000000 0.000000 -0.000000 -1.993292
  8 17.597597 0.000000 0.000000 0.131015 -0.129891 1.055680
  9 3.793090 6.407221 0.000000 0.000000 -0.000000 1.570796
 10 0.935740 0.000000 0.000000 0.000000 -0.000000 0.000000
 11 0.935741 0.000000 0.000000 0.000000 -0.000000 0.000000
 12 1.293670 0.684478 -0.000001 -0.000004 -0.000001 0.279871
 13 5.309685 -0.003834 0.000000 -0.206274 0.036193 0.170644
 14 4.826790 -0.004591 0.000000 -0.293180 0.045949 0.150203
 15 5.792767 -0.005304 0.000000 0.000000 -0.000000 0.279097
 16 6.662317 -0.001453 0.000000 0.000000 -0.000001 0.078555
 17 2.046985 -0.000002 0.000000 0.485588 -0.141355 -0.329184
 18 -3.447972 0.216433 4.341911 1.735769 -0.581969 1.197154
 19 4.827230 0.000000 0.000001 -0.299616 0.266237 0.208628
 20 11.139763 0.000000 0.000000 0.000000 -0.000000 -1.304248
 21 10.314597 0.000001 0.000000 -4.515207 0.031522 -0.094278
 22 2.975834 -0.386307 -0.044143 -0.012063 -0.041921 0.261905
 23 1.438886 0.000000 0.000000 0.000000 -0.000000 0.924779
 24 1.485303 0.000000 0.000000 0.000000 -0.000000 0.540939
 25 -3.186314 0.196501 -4.140396 -0.682918 1.249598 2.405077
 26 4.972048 0.000000 0.000001 0.277768 -0.425532 -1.388559
 27 11.585355 0.000000 0.000000 0.000000 -0.000000 -1.485248
 28 10.127057 0.000000 0.000001 2.090517 0.474211 0.624708
 29 2.683750 -0.427338 0.044205 0.001045 0.043611 0.000046
 30 1.438885 -0.000001 0.000000 0.000000 -0.000000 0.767689
 31 1.485305 0.000001 0.000000 0.000000 -0.000000 1.221538
end
