version 1
nodes
  0 "Bip01"  -1
  1 "Bip01 Pelvis"   0
  2 "Bip01 L Leg"   1
  3 "Bip01 L Leg1"   2
  4 "Bip01 L Foot"   3
  5 "Bip01 L Toe0"   4
  6 "Bip01 R Leg"   1
  7 "Bip01 R Leg1"   6
  8 "Bip01 R Foot"   7
  9 "Bip01 R Toe0"   8
 10 "Bip01 R Toe01"   9
 11 "Bip01 R Toe02"  10
 12 "Bip01 Spine"   1
 13 "Bip01 Spine1"  12
 14 "Bip01 Spine2"  13
 15 "Bip01 Spine3"  14
 16 "Bip01 Neck"  15
 17 "Bip01 Head"  16
 18 "Bip01 L Arm"  16
 19 "Bip01 L Arm1"  18
 20 "Bip01 L Arm2"  19
 21 "Bip01 L Hand"  20
 22 "Bip01 L Finger1"  21
 23 "Bip01 L Finger11"  22
 24 "Bip01 L Finger12"  23
 25 "Bip01 R Arm"  16
 26 "Bip01 R Arm1"  25
 27 "Bip01 R Arm2"  26
 28 "Bip01 R Hand"  27
 29 "Bip01 R Finger1"  28
 30 "Bip01 R Finger11"  29
 31 "Bip01 R Finger12"  30
end
skeleton
time 0
  0 0.235347 -0.235347 -14.538031 -0.045585 0.257873 -1.742273
  1 0.000000 0.000000 0.000000 -1.570795 -1.570796 0.000000
  2 -0.000005 0.000007 3.713255 -3.368582 -0.221254 1.331540
  3 18.045721 0.000000 0.000000 0.000000 -0.000000 -1.349056
  4 17.597597 0.000000 0.000000 -0.205032 0.225938 -0.216505
  5 3.793090 6.407221 0.000000 0.000000 -0.000000 1.570796
  6 0.000005 -0.000003 -3.713255 6.216042 2.542639 5.445438
  7 18.045725 0.000000 0.000000 0.000000 -0.000000 -2.074575
  8 17.597597 0.000000 0.000000 -0.092072 0.087818 0.559914
  9 3.793090 6.407221 0.000000 0.000000 -0.000000 1.570796
 10 0.935740 0.000000 0.000000 0.000000 -0.000000 0.000000
 11 0.935741 0.000000 0.000000 0.000000 -0.000000 0.000000
 12 1.293670 0.684478 -0.000001 -0.000004 -0.000001 0.306054
 13 5.309685 -0.003834 0.000000 0.000000 -0.000000 0.523509
 14 4.826790 -0.004591 0.000000 -0.167337 0.049377 0.283683
 15 5.792767 -0.005304 0.000000 -0.224626 0.031460 0.135979
 16 6.662317 -0.001453 0.000000 0.000000 -0.000001 -0.139812
 17 2.046985 -0.000002 0.000000 0.375166 0.132800 -0.452250
 18 -3.416721 -0.541403 4.341911 1.360809 -0.799436 1.999061
 19 4.827230 0.000000 0.000001 -0.491038 -0.730718 -0.662459
 20 11.139763 0.000000 0.000000 0.000000 -0.000000 -0.903111
 21 10.314597 0.000001 0.000000 -4.229297 0.558643 -0.152953
 22 2.975834 -0.386307 -0.044143 -0.000797 -0.043611 0.000035
 23 1.438886 0.000000 0.000000 0.000000 -0.000000 0.872170
 24 1.485303 0.000000 0.000000 0.000000 -0.000000 0.906977
 25 -3.151157 -0.491020 -4.140396 -1.285385 1.188039 2.016024
 26 4.972048 0.000000 0.000001 0.937449 -0.364960 -1.181456
 27 11.585355 0.000000 0.000000 0.000000 -0.000000 -1.892397
 28 10.127057 0.000000 0.000001 1.926484 0.125206 0.590935
 29 2.683750 -0.427338 0.044205 -0.005738 0.043239 -0.157060
 30 1.438885 -0.000001 0.000000 0.000000 -0.000000 0.732589
 31 1.485305 0.000001 0.000000 0.000000 -0.000000 1.168627
time 1
  0 0.235347 -0.235347 -14.538031 -0.045585 0.257873 -1.742273
  1 0.000000 0.000000 0.000000 -1.570795 -1.570796 0.000000
  2 -0.000005 0.000007 3.713255 -3.368582 -0.221254 1.331540
  3 18.045721 0.000000 0.000000 0.000000 -0.000000 -1.349056
  4 17.597597 0.000000 0.000000 -0.205032 0.225938 -0.216505
  5 3.793090 6.407221 0.000000 0.000000 -0.000000 1.570796
  6 0.000005 -0.000003 -3.713255 6.216042 2.542639 5.445438
  7 18.045725 0.000000 0.000000 0.000000 -0.000000 -2.074575
  8 17.597597 0.000000 0.000000 -0.092072 0.087818 0.559914
  9 3.793090 6.407221 0.000000 0.000000 -0.000000 1.570796
 10 0.935740 0.000000 0.000000 0.000000 -0.000000 0.000000
 11 0.935741 0.000000 0.000000 0.000000 -0.000000 0.000000
 12 1.293670 0.684478 -0.000001 -0.000004 -0.000001 0.306054
 13 5.309685 -0.003834 0.000000 0.000000 -0.000000 0.523509
 14 4.826790 -0.004591 0.000000 -0.167140 0.050036 0.287277
 15 5.792767 -0.005304 0.000000 -0.224626 0.031460 0.135979
 16 6.662317 -0.001453 0.000000 0.000000 -0.000001 -0.139812
 17 2.046985 -0.000002 0.000000 0.374994 0.133543 -0.456026
 18 -3.416721 -0.541403 4.341911 1.360809 -0.799436 1.999061
 19 4.827230 0.000000 0.000001 -0.490744 -0.734377 -0.662984
 20 11.139763 0.000000 0.000000 0.000000 -0.000000 -0.903111
 21 10.314597 0.000001 0.000000 -4.229297 0.558643 -0.152953
 22 2.975834 -0.386307 -0.044143 -0.000797 -0.043611 0.000035
 23 1.438886 0.000000 0.000000 0.000000 -0.000000 0.872170
 24 1.485303 0.000000 0.000000 0.000000 -0.000000 0.906977
 25 -3.151157 -0.491020 -4.140396 -1.291425 1.181086 2.010655
 26 4.972048 0.000000 0.000001 0.938687 -0.360616 -1.175198
 27 11.585355 0.000000 0.000000 0.000000 -0.000000 -1.892397
 28 10.127057 0.000000 0.000001 1.926484 0.125206 0.590935
 29 2.683750 -0.427338 0.044205 -0.005738 0.043239 -0.157060
 30 1.438885 -0.000001 0.000000 0.000000 -0.000000 0.732589
 31 1.485305 0.000001 0.000000 0.000000 -0.000000 1.168627
time 2
  0 0.235347 -0.235347 -14.538031 -0.045585 0.257873 -1.742273
  1 0.000000 0.000000 0.000000 -1.570795 -1.570796 0.000000
  2 -0.000005 0.000007 3.713255 -3.368582 -0.221254 1.331540
  3 18.045721 0.000000 0.000000 0.000000 -0.000000 -1.349056
  4 17.597597 0.000000 0.000000 -0.205032 0.225938 -0.216505
  5 3.793090 6.407221 0.000000 0.000000 -0.000000 1.570796
  6 0.000005 -0.000003 -3.713255 6.216042 2.542639 5.445438
  7 18.045725 0.000000 0.000000 0.000000 -0.000000 -2.074575
  8 17.597597 0.000000 0.000000 -0.092072 0.087818 0.559914
  9 3.793090 6.407221 0.000000 0.000000 -0.000000 1.570796
 10 0.935740 0.000000 0.000000 0.000000 -0.000000 0.000000
 11 0.935741 0.000000 0.000000 0.000000 -0.000000 0.000000
 12 1.293670 0.684478 -0.000001 -0.000004 -0.000001 0.306054
 13 5.309685 -0.003834 0.000000 0.000000 -0.000000 0.523509
 14 4.826790 -0.004591 0.000000 -0.166910 0.050863 0.292216
 15 5.792767 -0.005304 0.000000 -0.224626 0.031460 0.135979
 16 6.662317 -0.001453 0.000000 0.000000 -0.000001 -0.139812
 17 2.046985 -0.000002 0.000000 0.374477 0.134533 -0.460790
 18 -3.416721 -0.541403 4.341911 1.360809 -0.799436 1.999061
 19 4.827230 0.000000 0.000001 -0.490157 -0.739313 -0.663772
 20 11.139763 0.000000 0.000000 0.000000 -0.000000 -0.903111
 21 10.314597 0.000001 0.000000 -4.229297 0.558643 -0.152953
 22 2.975834 -0.386307 -0.044143 -0.000797 -0.043611 0.000035
 23 1.438886 0.000000 0.000000 0.000000 -0.000000 0.872170
 24 1.485303 0.000000 0.000000 0.000000 -0.000000 0.906977
 25 -3.151157 -0.491020 -4.140396 -1.298999 1.171561 2.003465
 26 4.972048 0.000000 0.000001 0.940466 -0.354985 -1.166569
 27 11.585355 0.000000 0.000000 0.000000 -0.000000 -1.892397
 28 10.127057 0.000000 0.000001 1.926484 0.125206 0.590935
 29 2.683750 -0.427338 0.044205 -0.005738 0.043239 -0.157060
 30 1.438885 -0.000001 0.000000 0.000000 -0.000000 0.732589
 31 1.485305 0.000001 0.000000 0.000000 -0.000000 1.168627
time 3
  0 0.235347 -0.235347 -14.538031 -0.045585 0.257873 -1.742273
  1 0.000000 0.000000 0.000000 -1.570795 -1.570796 0.000000
  2 -0.000005 0.000007 3.713255 -3.368582 -0.221254 1.331540
  3 18.045721 0.000000 0.000000 0.000000 -0.000000 -1.349056
  4 17.597597 0.000000 0.000000 -0.205032 0.225938 -0.216505
  5 3.793090 6.407221 0.000000 0.000000 -0.000000 1.570796
  6 0.000005 -0.000003 -3.713255 6.216042 2.542639 5.445438
  7 18.045725 0.000000 0.000000 0.000000 -0.000000 -2.074575
  8 17.597597 0.000000 0.000000 -0.092072 0.087818 0.559914
  9 3.793090 6.407221 0.000000 0.000000 -0.000000 1.570796
 10 0.935740 0.000000 0.000000 0.000000 -0.000000 0.000000
 11 0.935741 0.000000 0.000000 0.000000 -0.000000 0.000000
 12 1.293670 0.684478 -0.000001 -0.000004 -0.000001 0.306054
 13 5.309685 -0.003834 0.000000 0.000000 -0.000000 0.523509
 14 4.826790 -0.004591 0.000000 -0.166598 0.051821 0.298169
 15 5.792767 -0.005304 0.000000 -0.224626 0.031460 0.135979
 16 6.662317 -0.001453 0.000000 0.000000 -0.000001 -0.139812
 17 2.046985 -0.000002 0.000000 0.373874 0.135749 -0.466768
 18 -3.416721 -0.541403 4.341911 1.360809 -0.799436 1.999061
 19 4.827230 0.000000 0.000001 -0.489628 -0.745270 -0.664647
 20 11.139763 0.000000 0.000000 0.000000 -0.000000 -0.903111
 21 10.314597 0.000001 0.000000 -4.229297 0.558643 -0.152953
 22 2.975834 -0.386307 -0.044143 -0.000797 -0.043611 0.000035
 23 1.438886 0.000000 0.000000 0.000000 -0.000000 0.872170
 24 1.485303 0.000000 0.000000 0.000000 -0.000000 0.906977
 25 -3.151157 -0.491020 -4.140396 -1.307819 1.160001 1.995507
 26 4.972048 0.000000 0.000001 0.942632 -0.347826 -1.156161
 27 11.585355 0.000000 0.000000 0.000000 -0.000000 -1.892397
 28 10.127057 0.000000 0.000001 1.926484 0.125206 0.590935
 29 2.683750 -0.427338 0.044205 -0.005738 0.043239 -0.157060
 30 1.438885 -0.000001 0.000000 0.000000 -0.000000 0.732589
 31 1.485305 0.000001 0.000000 0.000000 -0.000000 1.168627
time 4
  0 0.235347 -0.235347 -14.538031 -0.045585 0.257873 -1.742273
  1 0.000000 0.000000 0.000000 -1.570795 -1.570796 0.000000
  2 -0.000005 0.000007 3.713255 -3.368582 -0.221254 1.331540
  3 18.045721 0.000000 0.000000 0.000000 -0.000000 -1.349056
  4 17.597597 0.000000 0.000000 -0.205032 0.225938 -0.216505
  5 3.793090 6.407221 0.000000 0.000000 -0.000000 1.570796
  6 0.000005 -0.000003 -3.713255 6.216042 2.542639 5.445438
  7 18.045725 0.000000 0.000000 0.000000 -0.000000 -2.074575
  8 17.597597 0.000000 0.000000 -0.092072 0.087818 0.559914
  9 3.793090 6.407221 0.000000 0.000000 -0.000000 1.570796
 10 0.935740 0.000000 0.000000 0.000000 -0.000000 0.000000
 11 0.935741 0.000000 0.000000 0.000000 -0.000000 0.000000
 12 1.293670 0.684478 -0.000001 -0.000004 -0.000001 0.306054
 13 5.309685 -0.003834 0.000000 0.000000 -0.000000 0.523509
 14 4.826790 -0.004591 0.000000 -0.166253 0.053008 0.305004
 15 5.792767 -0.005304 0.000000 -0.224626 0.031460 0.135979
 16 6.662317 -0.001453 0.000000 0.000000 -0.000001 -0.139812
 17 2.046985 -0.000002 0.000000 0.373055 0.137145 -0.473556
 18 -3.416721 -0.541403 4.341911 1.360809 -0.799436 1.999061
 19 4.827230 0.000000 0.000001 -0.488982 -0.752078 -0.665697
 20 11.139763 0.000000 0.000000 0.000000 -0.000000 -0.903111
 21 10.314597 0.000001 0.000000 -4.229297 0.558643 -0.152953
 22 2.975834 -0.386307 -0.044143 -0.000797 -0.043611 0.000035
 23 1.438886 0.000000 0.000000 0.000000 -0.000000 0.872170
 24 1.485303 0.000000 0.000000 0.000000 -0.000000 0.906977
 25 -3.151157 -0.491020 -4.140396 -1.317119 1.146717 1.986783
 26 4.972048 0.000000 0.000001 0.945030 -0.339782 -1.144238
 27 11.585355 0.000000 0.000000 0.000000 -0.000000 -1.892397
 28 10.127057 0.000000 0.000001 1.926484 0.125206 0.590935
 29 2.683750 -0.427338 0.044205 -0.005738 0.043239 -0.157060
 30 1.438885 -0.000001 0.000000 0.000000 -0.000000 0.732589
 31 1.485305 0.000001 0.000000 0.000000 -0.000000 1.168627
time 5
  0 0.235347 -0.235347 -14.538031 -0.045585 0.257873 -1.742273
  1 0.000000 0.000000 0.000000 -1.570795 -1.570796 0.000000
  2 -0.000005 0.000007 3.713255 -3.368582 -0.221254 1.331540
  3 18.045721 0.000000 0.000000 0.000000 -0.000000 -1.349056
  4 17.597597 0.000000 0.000000 -0.205032 0.225938 -0.216505
  5 3.793090 6.407221 0.000000 0.000000 -0.000000 1.570796
  6 0.000005 -0.000003 -3.713255 6.216042 2.542639 5.445438
  7 18.045725 0.000000 0.000000 0.000000 -0.000000 -2.074575
  8 17.597597 0.000000 0.000000 -0.092072 0.087818 0.559914
  9 3.793090 6.407221 0.000000 0.000000 -0.000000 1.570796
 10 0.935740 0.000000 0.000000 0.000000 -0.000000 0.000000
 11 0.935741 0.000000 0.000000 0.000000 -0.000000 0.000000
 12 1.293670 0.684478 -0.000001 -0.000004 -0.000001 0.306054
 13 5.309685 -0.003834 0.000000 0.000000 -0.000000 0.523509
 14 4.826790 -0.004591 0.000000 -0.165859 0.054206 0.312412
 15 5.792767 -0.005304 0.000000 -0.224626 0.031460 0.135979
 16 6.662317 -0.001453 0.000000 0.000000 -0.000001 -0.139812
 17 2.046985 -0.000002 0.000000 0.372409 0.138631 -0.481197
 18 -3.416721 -0.541403 4.341911 1.360809 -0.799436 1.999061
 19 4.827230 0.000000 0.000001 -0.488160 -0.759652 -0.666747
 20 11.139763 0.000000 0.000000 0.000000 -0.000000 -0.903111
 21 10.314597 0.000001 0.000000 -4.229297 0.558643 -0.152953
 22 2.975834 -0.386307 -0.044143 -0.000797 -0.043611 0.000035
 23 1.438886 0.000000 0.000000 0.000000 -0.000000 0.872170
 24 1.485303 0.000000 0.000000 0.000000 -0.000000 0.906977
 25 -3.151157 -0.491020 -4.140396 -1.326994 1.132302 1.978250
 26 4.972048 0.000000 0.000001 0.947660 -0.331094 -1.130932
 27 11.585355 0.000000 0.000000 0.000000 -0.000000 -1.892397
 28 10.127057 0.000000 0.000001 1.926484 0.125206 0.590935
 29 2.683750 -0.427338 0.044205 -0.005738 0.043239 -0.157060
 30 1.438885 -0.000001 0.000000 0.000000 -0.000000 0.732589
 31 1.485305 0.000001 0.000000 0.000000 -0.000000 1.168627
time 6
  0 0.235347 -0.235347 -14.538031 -0.045585 0.257873 -1.742273
  1 0.000000 0.000000 0.000000 -1.570795 -1.570796 0.000000
  2 -0.000005 0.000007 3.713255 -3.368582 -0.221254 1.331540
  3 18.045721 0.000000 0.000000 0.000000 -0.000000 -1.349056
  4 17.597597 0.000000 0.000000 -0.205032 0.225938 -0.216505
  5 3.793090 6.407221 0.000000 0.000000 -0.000000 1.570796
  6 0.000005 -0.000003 -3.713255 6.216042 2.542639 5.445438
  7 18.045725 0.000000 0.000000 0.000000 -0.000000 -2.074575
  8 17.597597 0.000000 0.000000 -0.092072 0.087818 0.559914
  9 3.793090 6.407221 0.000000 0.000000 -0.000000 1.570796
 10 0.935740 0.000000 0.000000 0.000000 -0.000000 0.000000
 11 0.935741 0.000000 0.000000 0.000000 -0.000000 0.000000
 12 1.293670 0.684478 -0.000001 -0.000004 -0.000001 0.306054
 13 5.309685 -0.003834 0.000000 0.000000 -0.000000 0.523509
 14 4.826790 -0.004591 0.000000 -0.165432 0.055561 0.320217
 15 5.792767 -0.005304 0.000000 -0.224626 0.031460 0.135979
 16 6.662317 -0.001453 0.000000 0.000000 -0.000001 -0.139812
 17 2.046985 -0.000002 0.000000 0.371504 0.140207 -0.489018
 18 -3.416721 -0.541403 4.341911 1.360809 -0.799436 1.999061
 19 4.827230 0.000000 0.000001 -0.487220 -0.767311 -0.668060
 20 11.139763 0.000000 0.000000 0.000000 -0.000000 -0.903111
 21 10.314597 0.000001 0.000000 -4.229297 0.558643 -0.152953
 22 2.975834 -0.386307 -0.044143 -0.000797 -0.043611 0.000035
 23 1.438886 0.000000 0.000000 0.000000 -0.000000 0.872170
 24 1.485303 0.000000 0.000000 0.000000 -0.000000 0.906977
 25 -3.151157 -0.491020 -4.140396 -1.336581 1.116983 1.969430
 26 4.972048 0.000000 0.000001 0.950290 -0.321763 -1.117494
 27 11.585355 0.000000 0.000000 0.000000 -0.000000 -1.892397
 28 10.127057 0.000000 0.000001 1.926484 0.125206 0.590935
 29 2.683750 -0.427338 0.044205 -0.005738 0.043239 -0.157060
 30 1.438885 -0.000001 0.000000 0.000000 -0.000000 0.732589
 31 1.485305 0.000001 0.000000 0.000000 -0.000000 1.168627
time 7
  0 0.235347 -0.235347 -14.538031 -0.045585 0.257873 -1.742273
  1 0.000000 0.000000 0.000000 -1.570795 -1.570796 0.000000
  2 -0.000005 0.000007 3.713255 -3.368582 -0.221254 1.331540
  3 18.045721 0.000000 0.000000 0.000000 -0.000000 -1.349056
  4 17.597597 0.000000 0.000000 -0.205032 0.225938 -0.216505
  5 3.793090 6.407221 0.000000 0.000000 -0.000000 1.570796
  6 0.000005 -0.000003 -3.713255 6.216042 2.542639 5.445438
  7 18.045725 0.000000 0.000000 0.000000 -0.000000 -2.074575
  8 17.597597 0.000000 0.000000 -0.092072 0.087818 0.559914
  9 3.793090 6.407221 0.000000 0.000000 -0.000000 1.570796
 10 0.935740 0.000000 0.000000 0.000000 -0.000000 0.000000
 11 0.935741 0.000000 0.000000 0.000000 -0.000000 0.000000
 12 1.293670 0.684478 -0.000001 -0.000004 -0.000001 0.306054
 13 5.309685 -0.003834 0.000000 0.000000 -0.000000 0.523509
 14 4.826790 -0.004591 0.000000 -0.164989 0.056891 0.328265
 15 5.792767 -0.005304 0.000000 -0.224626 0.031460 0.135979
 16 6.662317 -0.001453 0.000000 0.000000 -0.000001 -0.139812
 17 2.046985 -0.000002 0.000000 0.370513 0.141805 -0.496838
 18 -3.416721 -0.541403 4.341911 1.360809 -0.799436 1.999061
 19 4.827230 0.000000 0.000001 -0.486515 -0.775481 -0.669285
 20 11.139763 0.000000 0.000000 0.000000 -0.000000 -0.903111
 21 10.314597 0.000001 0.000000 -4.229297 0.558643 -0.152953
 22 2.975834 -0.386307 -0.044143 -0.000797 -0.043611 0.000035
 23 1.438886 0.000000 0.000000 0.000000 -0.000000 0.872170
 24 1.485303 0.000000 0.000000 0.000000 -0.000000 0.906977
 25 -3.151157 -0.491020 -4.140396 -1.345689 1.101353 1.961568
 26 4.972048 0.000000 0.000001 0.953152 -0.312271 -1.103463
 27 11.585355 0.000000 0.000000 0.000000 -0.000000 -1.892397
 28 10.127057 0.000000 0.000001 1.926484 0.125206 0.590935
 29 2.683750 -0.427338 0.044205 -0.005738 0.043239 -0.157060
 30 1.438885 -0.000001 0.000000 0.000000 -0.000000 0.732589
 31 1.485305 0.000001 0.000000 0.000000 -0.000000 1.168627
time 8
  0 0.235347 -0.235347 -14.538031 -0.045585 0.257873 -1.742273
  1 0.000000 0.000000 0.000000 -1.570795 -1.570796 0.000000
  2 -0.000005 0.000007 3.713255 -3.368582 -0.221254 1.331540
  3 18.045721 0.000000 0.000000 0.000000 -0.000000 -1.349056
  4 17.597597 0.000000 0.000000 -0.205032 0.225938 -0.216505
  5 3.793090 6.407221 0.000000 0.000000 -0.000000 1.570796
  6 0.000005 -0.000003 -3.713255 6.216042 2.542639 5.445438
  7 18.045725 0.000000 0.000000 0.000000 -0.000000 -2.074575
  8 17.597597 0.000000 0.000000 -0.092072 0.087818 0.559914
  9 3.793090 6.407221 0.000000 0.000000 -0.000000 1.570796
 10 0.935740 0.000000 0.000000 0.000000 -0.000000 0.000000
 11 0.935741 0.000000 0.000000 0.000000 -0.000000 0.000000
 12 1.293670 0.684478 -0.000001 -0.000004 -0.000001 0.306054
 13 5.309685 -0.003834 0.000000 0.000000 -0.000000 0.523509
 14 4.826790 -0.004591 0.000000 -0.164529 0.058149 0.336092
 15 5.792767 -0.005304 0.000000 -0.224626 0.031460 0.135979
 16 6.662317 -0.001453 0.000000 0.000000 -0.000001 -0.139812
 17 2.046985 -0.000002 0.000000 0.369824 0.143381 -0.504749
 18 -3.416721 -0.541403 4.341911 1.360809 -0.799436 1.999061
 19 4.827230 0.000000 0.000001 -0.485634 -0.783395 -0.670510
 20 11.139763 0.000000 0.000000 0.000000 -0.000000 -0.903111
 21 10.314597 0.000001 0.000000 -4.229297 0.558643 -0.152953
 22 2.975834 -0.386307 -0.044143 -0.000797 -0.043611 0.000035
 23 1.438886 0.000000 0.000000 0.000000 -0.000000 0.872170
 24 1.485303 0.000000 0.000000 0.000000 -0.000000 0.906977
 25 -3.151157 -0.491020 -4.140396 -1.354126 1.085864 1.953995
 26 4.972048 0.000000 0.000001 0.955937 -0.303181 -1.089564
 27 11.585355 0.000000 0.000000 0.000000 -0.000000 -1.892397
 28 10.127057 0.000000 0.000001 1.926484 0.125206 0.590935
 29 2.683750 -0.427338 0.044205 -0.005738 0.043239 -0.157060
 30 1.438885 -0.000001 0.000000 0.000000 -0.000000 0.732589
 31 1.485305 0.000001 0.000000 0.000000 -0.000000 1.168627
time 9
  0 0.235347 -0.235347 -14.538031 -0.045585 0.257873 -1.742273
  1 0.000000 0.000000 0.000000 -1.570795 -1.570796 0.000000
  2 -0.000005 0.000007 3.713255 -3.368582 -0.221254 1.331540
  3 18.045721 0.000000 0.000000 0.000000 -0.000000 -1.349056
  4 17.597597 0.000000 0.000000 -0.205032 0.225938 -0.216505
  5 3.793090 6.407221 0.000000 0.000000 -0.000000 1.570796
  6 0.000005 -0.000003 -3.713255 6.216042 2.542639 5.445438
  7 18.045725 0.000000 0.000000 0.000000 -0.000000 -2.074575
  8 17.597597 0.000000 0.000000 -0.092072 0.087818 0.559914
  9 3.793090 6.407221 0.000000 0.000000 -0.000000 1.570796
 10 0.935740 0.000000 0.000000 0.000000 -0.000000 0.000000
 11 0.935741 0.000000 0.000000 0.000000 -0.000000 0.000000
 12 1.293670 0.684478 -0.000001 -0.000004 -0.000001 0.306054
 13 5.309685 -0.003834 0.000000 0.000000 -0.000000 0.523509
 14 4.826790 -0.004591 0.000000 -0.164086 0.059456 0.343743
 15 5.792767 -0.005304 0.000000 -0.224626 0.031460 0.135979
 16 6.662317 -0.001453 0.000000 0.000000 -0.000001 -0.139812
 17 2.046985 -0.000002 0.000000 0.368876 0.144889 -0.512345
 18 -3.416721 -0.541403 4.341911 1.360809 -0.799436 1.999061
 19 4.827230 0.000000 0.000001 -0.484753 -0.790969 -0.671648
 20 11.139763 0.000000 0.000000 0.000000 -0.000000 -0.903111
 21 10.314597 0.000001 0.000000 -4.229297 0.558643 -0.152953
 22 2.975834 -0.386307 -0.044143 -0.000797 -0.043611 0.000035
 23 1.438886 0.000000 0.000000 0.000000 -0.000000 0.872170
 24 1.485303 0.000000 0.000000 0.000000 -0.000000 0.906977
 25 -3.151157 -0.491020 -4.140396 -1.361796 1.070969 1.947187
 26 4.972048 0.000000 0.000001 0.958567 -0.294172 -1.076126
 27 11.585355 0.000000 0.000000 0.000000 -0.000000 -1.892397
 28 10.127057 0.000000 0.000001 1.926484 0.125206 0.590935
 29 2.683750 -0.427338 0.044205 -0.005738 0.043239 -0.157060
 30 1.438885 -0.000001 0.000000 0.000000 -0.000000 0.732589
 31 1.485305 0.000001 0.000000 0.000000 -0.000000 1.168627
time 10
  0 0.235347 -0.235347 -14.538031 -0.045585 0.257873 -1.742273
  1 0.000000 0.000000 0.000000 -1.570795 -1.570796 0.000000
  2 -0.000005 0.000007 3.713255 -3.368582 -0.221254 1.331540
  3 18.045721 0.000000 0.000000 0.000000 -0.000000 -1.349056
  4 17.597597 0.000000 0.000000 -0.205032 0.225938 -0.216505
  5 3.793090 6.407221 0.000000 0.000000 -0.000000 1.570796
  6 0.000005 -0.000003 -3.713255 6.216042 2.542639 5.445438
  7 18.045725 0.000000 0.000000 0.000000 -0.000000 -2.074575
  8 17.597597 0.000000 0.000000 -0.092072 0.087818 0.559914
  9 3.793090 6.407221 0.000000 0.000000 -0.000000 1.570796
 10 0.935740 0.000000 0.000000 0.000000 -0.000000 0.000000
 11 0.935741 0.000000 0.000000 0.000000 -0.000000 0.000000
 12 1.293670 0.684478 -0.000001 -0.000004 -0.000001 0.306054
 13 5.309685 -0.003834 0.000000 0.000000 -0.000000 0.523509
 14 4.826790 -0.004591 0.000000 -0.163659 0.060570 0.350732
 15 5.792767 -0.005304 0.000000 -0.224626 0.031460 0.135979
 16 6.662317 -0.001453 0.000000 0.000000 -0.000001 -0.139812
 17 2.046985 -0.000002 0.000000 0.368187 0.146285 -0.519582
 18 -3.416721 -0.541403 4.341911 1.360809 -0.799436 1.999061
 19 4.827230 0.000000 0.000001 -0.483931 -0.798203 -0.672873
 20 11.139763 0.000000 0.000000 0.000000 -0.000000 -0.903111
 21 10.314597 0.000001 0.000000 -4.229297 0.558643 -0.152953
 22 2.975834 -0.386307 -0.044143 -0.000797 -0.043611 0.000035
 23 1.438886 0.000000 0.000000 0.000000 -0.000000 0.872170
 24 1.485303 0.000000 0.000000 0.000000 -0.000000 0.906977
 25 -3.151157 -0.491020 -4.140396 -1.368603 1.057063 1.941147
 26 4.972048 0.000000 0.000001 0.960965 -0.285806 -1.063676
 27 11.585355 0.000000 0.000000 0.000000 -0.000000 -1.892397
 28 10.127057 0.000000 0.000001 1.926484 0.125206 0.590935
 29 2.683750 -0.427338 0.044205 -0.005738 0.043239 -0.157060
 30 1.438885 -0.000001 0.000000 0.000000 -0.000000 0.732589
 31 1.485305 0.000001 0.000000 0.000000 -0.000000 1.168627
time 11
  0 0.235347 -0.235347 -14.538031 -0.045585 0.257873 -1.742273
  1 0.000000 0.000000 0.000000 -1.570795 -1.570796 0.000000
  2 -0.000005 0.000007 3.713255 -3.368582 -0.221254 1.331540
  3 18.045721 0.000000 0.000000 0.000000 -0.000000 -1.349056
  4 17.597597 0.000000 0.000000 -0.205032 0.225938 -0.216505
  5 3.793090 6.407221 0.000000 0.000000 -0.000000 1.570796
  6 0.000005 -0.000003 -3.713255 6.216042 2.542639 5.445438
  7 18.045725 0.000000 0.000000 0.000000 -0.000000 -2.074575
  8 17.597597 0.000000 0.000000 -0.092072 0.087818 0.559914
  9 3.793090 6.407221 0.000000 0.000000 -0.000000 1.570796
 10 0.935740 0.000000 0.000000 0.000000 -0.000000 0.000000
 11 0.935741 0.000000 0.000000 0.000000 -0.000000 0.000000
 12 1.293670 0.684478 -0.000001 -0.000004 -0.000001 0.306054
 13 5.309685 -0.003834 0.000000 0.000000 -0.000000 0.523509
 14 4.826790 -0.004591 0.000000 -0.163281 0.061649 0.357082
 15 5.792767 -0.005304 0.000000 -0.224626 0.031460 0.135979
 16 6.662317 -0.001453 0.000000 0.000000 -0.000001 -0.139812
 17 2.046985 -0.000002 0.000000 0.367325 0.147523 -0.525875
 18 -3.416721 -0.541403 4.341911 1.360809 -0.799436 1.999061
 19 4.827230 0.000000 0.000001 -0.483226 -0.804500 -0.673923
 20 11.139763 0.000000 0.000000 0.000000 -0.000000 -0.903111
 21 10.314597 0.000001 0.000000 -4.229297 0.558643 -0.152953
 22 2.975834 -0.386307 -0.044143 -0.000797 -0.043611 0.000035
 23 1.438886 0.000000 0.000000 0.000000 -0.000000 0.872170
 24 1.485303 0.000000 0.000000 0.000000 -0.000000 0.906977
 25 -3.151157 -0.491020 -4.140396 -1.374547 1.044655 1.935874
 26 4.972048 0.000000 0.000001 0.963131 -0.278486 -1.052412
 27 11.585355 0.000000 0.000000 0.000000 -0.000000 -1.892397
 28 10.127057 0.000000 0.000001 1.926484 0.125206 0.590935
 29 2.683750 -0.427338 0.044205 -0.005738 0.043239 -0.157060
 30 1.438885 -0.000001 0.000000 0.000000 -0.000000 0.732589
 31 1.485305 0.000001 0.000000 0.000000 -0.000000 1.168627
time 12
  0 0.235347 -0.235347 -14.538031 -0.045585 0.257873 -1.742273
  1 0.000000 0.000000 0.000000 -1.570795 -1.570796 0.000000
  2 -0.000005 0.000007 3.713255 -3.368582 -0.221254 1.331540
  3 18.045721 0.000000 0.000000 0.000000 -0.000000 -1.349056
  4 17.597597 0.000000 0.000000 -0.205032 0.225938 -0.216505
  5 3.793090 6.407221 0.000000 0.000000 -0.000000 1.570796
  6 0.000005 -0.000003 -3.713255 6.216042 2.542639 5.445438
  7 18.045725 0.000000 0.000000 0.000000 -0.000000 -2.074575
  8 17.597597 0.000000 0.000000 -0.092072 0.087818 0.559914
  9 3.793090 6.407221 0.000000 0.000000 -0.000000 1.570796
 10 0.935740 0.000000 0.000000 0.000000 -0.000000 0.000000
 11 0.935741 0.000000 0.000000 0.000000 -0.000000 0.000000
 12 1.293670 0.684478 -0.000001 -0.000004 -0.000001 0.306054
 13 5.309685 -0.003834 0.000000 0.000000 -0.000000 0.523509
 14 4.826790 -0.004591 0.000000 -0.162953 0.062524 0.362374
 15 5.792767 -0.005304 0.000000 -0.224626 0.031460 0.135979
 16 6.662317 -0.001453 0.000000 0.000000 -0.000001 -0.139812
 17 2.046985 -0.000002 0.000000 0.366808 0.148581 -0.531134
 18 -3.416721 -0.541403 4.341911 1.360809 -0.799436 1.999061
 19 4.827230 0.000000 0.000001 -0.482580 -0.809606 -0.674798
 20 11.139763 0.000000 0.000000 0.000000 -0.000000 -0.903111
 21 10.314597 0.000001 0.000000 -4.229297 0.558643 -0.152953
 22 2.975834 -0.386307 -0.044143 -0.000797 -0.043611 0.000035
 23 1.438886 0.000000 0.000000 0.000000 -0.000000 0.872170
 24 1.485303 0.000000 0.000000 0.000000 -0.000000 0.906977
 25 -3.151157 -0.491020 -4.140396 -1.379053 1.034197 1.932039
 26 4.972048 0.000000 0.000001 0.965142 -0.272292 -1.043058
 27 11.585355 0.000000 0.000000 0.000000 -0.000000 -1.892397
 28 10.127057 0.000000 0.000001 1.926484 0.125206 0.590935
 29 2.683750 -0.427338 0.044205 -0.005738 0.043239 -0.157060
 30 1.438885 -0.000001 0.000000 0.000000 -0.000000 0.732589
 31 1.485305 0.000001 0.000000 0.000000 -0.000000 1.168627
time 13
  0 0.235347 -0.235347 -14.538031 -0.045585 0.257873 -1.742273
  1 0.000000 0.000000 0.000000 -1.570795 -1.570796 0.000000
  2 -0.000005 0.000007 3.713255 -3.368582 -0.221254 1.331540
  3 18.045721 0.000000 0.000000 0.000000 -0.000000 -1.349056
  4 17.597597 0.000000 0.000000 -0.205032 0.225938 -0.216505
  5 3.793090 6.407221 0.000000 0.000000 -0.000000 1.570796
  6 0.000005 -0.000003 -3.713255 6.216042 2.542639 5.445438
  7 18.045725 0.000000 0.000000 0.000000 -0.000000 -2.074575
  8 17.597597 0.000000 0.000000 -0.092072 0.087818 0.559914
  9 3.793090 6.407221 0.000000 0.000000 -0.000000 1.570796
 10 0.935740 0.000000 0.000000 0.000000 -0.000000 0.000000
 11 0.935741 0.000000 0.000000 0.000000 -0.000000 0.000000
 12 1.293670 0.684478 -0.000001 -0.000004 -0.000001 0.306054
 13 5.309685 -0.003834 0.000000 0.000000 -0.000000 0.523509
 14 4.826790 -0.004591 0.000000 -0.162690 0.063183 0.366364
 15 5.792767 -0.005304 0.000000 -0.224626 0.031460 0.135979
 16 6.662317 -0.001453 0.000000 0.000000 -0.000001 -0.139812
 17 2.046985 -0.000002 0.000000 0.366291 0.149369 -0.535269
 18 -3.416721 -0.541403 4.341911 1.360809 -0.799436 1.999061
 19 4.827230 0.000000 0.000001 -0.482051 -0.813776 -0.675586
 20 11.139763 0.000000 0.000000 0.000000 -0.000000 -0.903111
 21 10.314597 0.000001 0.000000 -4.229297 0.558643 -0.152953
 22 2.975834 -0.386307 -0.044143 -0.000797 -0.043611 0.000035
 23 1.438886 0.000000 0.000000 0.000000 -0.000000 0.872170
 24 1.485303 0.000000 0.000000 0.000000 -0.000000 0.906977
 25 -3.151157 -0.491020 -4.140396 -1.382792 1.026170 1.929067
 26 4.972048 0.000000 0.000001 0.966457 -0.267385 -1.035878
 27 11.585355 0.000000 0.000000 0.000000 -0.000000 -1.892397
 28 10.127057 0.000000 0.000001 1.926484 0.125206 0.590935
 29 2.683750 -0.427338 0.044205 -0.005738 0.043239 -0.157060
 30 1.438885 -0.000001 0.000000 0.000000 -0.000000 0.732589
 31 1.485305 0.000001 0.000000 0.000000 -0.000000 1.168627
time 14
  0 0.235347 -0.235347 -14.538031 -0.045585 0.257873 -1.742273
  1 0.000000 0.000000 0.000000 -1.570795 -1.570796 0.000000
  2 -0.000005 0.000007 3.713255 -3.368582 -0.221254 1.331540
  3 18.045721 0.000000 0.000000 0.000000 -0.000000 -1.349056
  4 17.597597 0.000000 0.000000 -0.205032 0.225938 -0.216505
  5 3.793090 6.407221 0.000000 0.000000 -0.000000 1.570796
  6 0.000005 -0.000003 -3.713255 6.216042 2.542639 5.445438
  7 18.045725 0.000000 0.000000 0.000000 -0.000000 -2.074575
  8 17.597597 0.000000 0.000000 -0.092072 0.087818 0.559914
  9 3.793090 6.407221 0.000000 0.000000 -0.000000 1.570796
 10 0.935740 0.000000 0.000000 0.000000 -0.000000 0.000000
 11 0.935741 0.000000 0.000000 0.000000 -0.000000 0.000000
 12 1.293670 0.684478 -0.000001 -0.000004 -0.000001 0.306054
 13 5.309685 -0.003834 0.000000 0.000000 -0.000000 0.523509
 14 4.826790 -0.004591 0.000000 -0.162526 0.063566 0.368988
 15 5.792767 -0.005304 0.000000 -0.224626 0.031460 0.135979
 16 6.662317 -0.001453 0.000000 0.000000 -0.000001 -0.139812
 17 2.046985 -0.000002 0.000000 0.365860 0.149887 -0.537876
 18 -3.416721 -0.541403 4.341911 1.360809 -0.799436 1.999061
 19 4.827230 0.000000 0.000001 -0.481699 -0.816329 -0.675936
 20 11.139763 0.000000 0.000000 0.000000 -0.000000 -0.903111
 21 10.314597 0.000001 0.000000 -4.229297 0.558643 -0.152953
 22 2.975834 -0.386307 -0.044143 -0.000797 -0.043611 0.000035
 23 1.438886 0.000000 0.000000 0.000000 -0.000000 0.872170
 24 1.485303 0.000000 0.000000 0.000000 -0.000000 0.906977
 25 -3.151157 -0.491020 -4.140396 -1.384901 1.021026 1.926862
 26 4.972048 0.000000 0.000001 0.967463 -0.264328 -1.031201
 27 11.585355 0.000000 0.000000 0.000000 -0.000000 -1.892397
 28 10.127057 0.000000 0.000001 1.926484 0.125206 0.590935
 29 2.683750 -0.427338 0.044205 -0.005738 0.043239 -0.157060
 30 1.438885 -0.000001 0.000000 0.000000 -0.000000 0.732589
 31 1.485305 0.000001 0.000000 0.000000 -0.000000 1.168627
time 15
  0 0.235347 -0.235347 -14.538031 -0.045585 0.257873 -1.742273
  1 0.000000 0.000000 0.000000 -1.570795 -1.570796 0.000000
  2 -0.000005 0.000007 3.713255 -3.368582 -0.221254 1.331540
  3 18.045721 0.000000 0.000000 0.000000 -0.000000 -1.349056
  4 17.597597 0.000000 0.000000 -0.205032 0.225938 -0.216505
  5 3.793090 6.407221 0.000000 0.000000 -0.000000 1.570796
  6 0.000005 -0.000003 -3.713255 6.216042 2.542639 5.445438
  7 18.045725 0.000000 0.000000 0.000000 -0.000000 -2.074575
  8 17.597597 0.000000 0.000000 -0.092072 0.087818 0.559914
  9 3.793090 6.407221 0.000000 0.000000 -0.000000 1.570796
 10 0.935740 0.000000 0.000000 0.000000 -0.000000 0.000000
 11 0.935741 0.000000 0.000000 0.000000 -0.000000 0.000000
 12 1.293670 0.684478 -0.000001 -0.000004 -0.000001 0.306054
 13 5.309685 -0.003834 0.000000 0.000000 -0.000000 0.523509
 14 4.826790 -0.004591 0.000000 -0.162460 0.063722 0.369892
 15 5.792767 -0.005304 0.000000 -0.224626 0.031460 0.135979
 16 6.662317 -0.001453 0.000000 0.000000 -0.000001 -0.139812
 17 2.046985 -0.000002 0.000000 0.365774 0.150067 -0.538820
 18 -3.416721 -0.541403 4.341911 1.360809 -0.799436 1.999061
 19 4.827230 0.000000 0.000001 -0.481640 -0.817180 -0.676111
 20 11.139763 0.000000 0.000000 0.000000 -0.000000 -0.903111
 21 10.314597 0.000001 0.000000 -4.229297 0.558643 -0.152953
 22 2.975834 -0.386307 -0.044143 -0.000797 -0.043611 0.000035
 23 1.438886 0.000000 0.000000 0.000000 -0.000000 0.872170
 24 1.485303 0.000000 0.000000 0.000000 -0.000000 0.906977
 25 -3.151157 -0.491020 -4.140396 -1.385668 1.019217 1.926287
 26 4.972048 0.000000 0.000001 0.967772 -0.263363 -1.029620
 27 11.585355 0.000000 0.000000 0.000000 -0.000000 -1.892397
 28 10.127057 0.000000 0.000001 1.926484 0.125206 0.590935
 29 2.683750 -0.427338 0.044205 -0.005738 0.043239 -0.157060
 30 1.438885 -0.000001 0.000000 0.000000 -0.000000 0.732589
 31 1.485305 0.000001 0.000000 0.000000 -0.000000 1.168627
time 16
  0 0.235347 -0.235347 -14.538031 -0.045585 0.257873 -1.742273
  1 0.000000 0.000000 0.000000 -1.570795 -1.570796 0.000000
  2 -0.000005 0.000007 3.713255 -3.368582 -0.221254 1.331540
  3 18.045721 0.000000 0.000000 0.000000 -0.000000 -1.349056
  4 17.597597 0.000000 0.000000 -0.205032 0.225938 -0.216505
  5 3.793090 6.407221 0.000000 0.000000 -0.000000 1.570796
  6 0.000005 -0.000003 -3.713255 6.216042 2.542639 5.445438
  7 18.045725 0.000000 0.000000 0.000000 -0.000000 -2.074575
  8 17.597597 0.000000 0.000000 -0.092072 0.087818 0.559914
  9 3.793090 6.407221 0.000000 0.000000 -0.000000 1.570796
 10 0.935740 0.000000 0.000000 0.000000 -0.000000 0.000000
 11 0.935741 0.000000 0.000000 0.000000 -0.000000 0.000000
 12 1.293670 0.684478 -0.000001 -0.000004 -0.000001 0.306054
 13 5.309685 -0.003834 0.000000 0.000000 -0.000000 0.523509
 14 4.826790 -0.004591 0.000000 -0.162526 0.063566 0.368988
 15 5.792767 -0.005304 0.000000 -0.224626 0.031460 0.135979
 16 6.662317 -0.001453 0.000000 0.000000 -0.000001 -0.139812
 17 2.046985 -0.000002 0.000000 0.365860 0.149887 -0.537876
 18 -3.416721 -0.541403 4.341911 1.360809 -0.799436 1.999061
 19 4.827230 0.000000 0.000001 -0.481699 -0.816329 -0.675936
 20 11.139763 0.000000 0.000000 0.000000 -0.000000 -0.903111
 21 10.314597 0.000001 0.000000 -4.229297 0.558643 -0.152953
 22 2.975834 -0.386307 -0.044143 -0.000797 -0.043611 0.000035
 23 1.438886 0.000000 0.000000 0.000000 -0.000000 0.872170
 24 1.485303 0.000000 0.000000 0.000000 -0.000000 0.906977
 25 -3.151157 -0.491020 -4.140396 -1.384901 1.021026 1.926862
 26 4.972048 0.000000 0.000001 0.967463 -0.264328 -1.031201
 27 11.585355 0.000000 0.000000 0.000000 -0.000000 -1.892397
 28 10.127057 0.000000 0.000001 1.926484 0.125206 0.590935
 29 2.683750 -0.427338 0.044205 -0.005738 0.043239 -0.157060
 30 1.438885 -0.000001 0.000000 0.000000 -0.000000 0.732589
 31 1.485305 0.000001 0.000000 0.000000 -0.000000 1.168627
time 17
  0 0.235347 -0.235347 -14.538031 -0.045585 0.257873 -1.742273
  1 0.000000 0.000000 0.000000 -1.570795 -1.570796 0.000000
  2 -0.000005 0.000007 3.713255 -3.368582 -0.221254 1.331540
  3 18.045721 0.000000 0.000000 0.000000 -0.000000 -1.349056
  4 17.597597 0.000000 0.000000 -0.205032 0.225938 -0.216505
  5 3.793090 6.407221 0.000000 0.000000 -0.000000 1.570796
  6 0.000005 -0.000003 -3.713255 6.216042 2.542639 5.445438
  7 18.045725 0.000000 0.000000 0.000000 -0.000000 -2.074575
  8 17.597597 0.000000 0.000000 -0.092072 0.087818 0.559914
  9 3.793090 6.407221 0.000000 0.000000 -0.000000 1.570796
 10 0.935740 0.000000 0.000000 0.000000 -0.000000 0.000000
 11 0.935741 0.000000 0.000000 0.000000 -0.000000 0.000000
 12 1.293670 0.684478 -0.000001 -0.000004 -0.000001 0.306054
 13 5.309685 -0.003834 0.000000 0.000000 -0.000000 0.523509
 14 4.826790 -0.004591 0.000000 -0.162690 0.063183 0.366364
 15 5.792767 -0.005304 0.000000 -0.224626 0.031460 0.135979
 16 6.662317 -0.001453 0.000000 0.000000 -0.000001 -0.139812
 17 2.046985 -0.000002 0.000000 0.366291 0.149369 -0.535269
 18 -3.416721 -0.541403 4.341911 1.360809 -0.799436 1.999061
 19 4.827230 0.000000 0.000001 -0.482051 -0.813776 -0.675586
 20 11.139763 0.000000 0.000000 0.000000 -0.000000 -0.903111
 21 10.314597 0.000001 0.000000 -4.229297 0.558643 -0.152953
 22 2.975834 -0.386307 -0.044143 -0.000797 -0.043611 0.000035
 23 1.438886 0.000000 0.000000 0.000000 -0.000000 0.872170
 24 1.485303 0.000000 0.000000 0.000000 -0.000000 0.906977
 25 -3.151157 -0.491020 -4.140396 -1.382792 1.026170 1.929067
 26 4.972048 0.000000 0.000001 0.966457 -0.267385 -1.035878
 27 11.585355 0.000000 0.000000 0.000000 -0.000000 -1.892397
 28 10.127057 0.000000 0.000001 1.926484 0.125206 0.590935
 29 2.683750 -0.427338 0.044205 -0.005738 0.043239 -0.157060
 30 1.438885 -0.000001 0.000000 0.000000 -0.000000 0.732589
 31 1.485305 0.000001 0.000000 0.000000 -0.000000 1.168627
time 18
  0 0.235347 -0.235347 -14.538031 -0.045585 0.257873 -1.742273
  1 0.000000 0.000000 0.000000 -1.570795 -1.570796 0.000000
  2 -0.000005 0.000007 3.713255 -3.368582 -0.221254 1.331540
  3 18.045721 0.000000 0.000000 0.000000 -0.000000 -1.349056
  4 17.597597 0.000000 0.000000 -0.205032 0.225938 -0.216505
  5 3.793090 6.407221 0.000000 0.000000 -0.000000 1.570796
  6 0.000005 -0.000003 -3.713255 6.216042 2.542639 5.445438
  7 18.045725 0.000000 0.000000 0.000000 -0.000000 -2.074575
  8 17.597597 0.000000 0.000000 -0.092072 0.087818 0.559914
  9 3.793090 6.407221 0.000000 0.000000 -0.000000 1.570796
 10 0.935740 0.000000 0.000000 0.000000 -0.000000 0.000000
 11 0.935741 0.000000 0.000000 0.000000 -0.000000 0.000000
 12 1.293670 0.684478 -0.000001 -0.000004 -0.000001 0.306054
 13 5.309685 -0.003834 0.000000 0.000000 -0.000000 0.523509
 14 4.826790 -0.004591 0.000000 -0.162953 0.062524 0.362374
 15 5.792767 -0.005304 0.000000 -0.224626 0.031460 0.135979
 16 6.662317 -0.001453 0.000000 0.000000 -0.000001 -0.139812
 17 2.046985 -0.000002 0.000000 0.366808 0.148581 -0.531134
 18 -3.416721 -0.541403 4.341911 1.360809 -0.799436 1.999061
 19 4.827230 0.000000 0.000001 -0.482580 -0.809606 -0.674798
 20 11.139763 0.000000 0.000000 0.000000 -0.000000 -0.903111
 21 10.314597 0.000001 0.000000 -4.229297 0.558643 -0.152953
 22 2.975834 -0.386307 -0.044143 -0.000797 -0.043611 0.000035
 23 1.438886 0.000000 0.000000 0.000000 -0.000000 0.872170
 24 1.485303 0.000000 0.000000 0.000000 -0.000000 0.906977
 25 -3.151157 -0.491020 -4.140396 -1.379053 1.034197 1.932039
 26 4.972048 0.000000 0.000001 0.965142 -0.272292 -1.043058
 27 11.585355 0.000000 0.000000 0.000000 -0.000000 -1.892397
 28 10.127057 0.000000 0.000001 1.926484 0.125206 0.590935
 29 2.683750 -0.427338 0.044205 -0.005738 0.043239 -0.157060
 30 1.438885 -0.000001 0.000000 0.000000 -0.000000 0.732589
 31 1.485305 0.000001 0.000000 0.000000 -0.000000 1.168627
time 19
  0 0.235347 -0.235347 -14.538031 -0.045585 0.257873 -1.742273
  1 0.000000 0.000000 0.000000 -1.570795 -1.570796 0.000000
  2 -0.000005 0.000007 3.713255 -3.368582 -0.221254 1.331540
  3 18.045721 0.000000 0.000000 0.000000 -0.000000 -1.349056
  4 17.597597 0.000000 0.000000 -0.205032 0.225938 -0.216505
  5 3.793090 6.407221 0.000000 0.000000 -0.000000 1.570796
  6 0.000005 -0.000003 -3.713255 6.216042 2.542639 5.445438
  7 18.045725 0.000000 0.000000 0.000000 -0.000000 -2.074575
  8 17.597597 0.000000 0.000000 -0.092072 0.087818 0.559914
  9 3.793090 6.407221 0.000000 0.000000 -0.000000 1.570796
 10 0.935740 0.000000 0.000000 0.000000 -0.000000 0.000000
 11 0.935741 0.000000 0.000000 0.000000 -0.000000 0.000000
 12 1.293670 0.684478 -0.000001 -0.000004 -0.000001 0.306054
 13 5.309685 -0.003834 0.000000 0.000000 -0.000000 0.523509
 14 4.826790 -0.004591 0.000000 -0.163281 0.061649 0.357082
 15 5.792767 -0.005304 0.000000 -0.224626 0.031460 0.135979
 16 6.662317 -0.001453 0.000000 0.000000 -0.000001 -0.139812
 17 2.046985 -0.000002 0.000000 0.367325 0.147523 -0.525875
 18 -3.416721 -0.541403 4.341911 1.360809 -0.799436 1.999061
 19 4.827230 0.000000 0.000001 -0.483226 -0.804500 -0.673923
 20 11.139763 0.000000 0.000000 0.000000 -0.000000 -0.903111
 21 10.314597 0.000001 0.000000 -4.229297 0.558643 -0.152953
 22 2.975834 -0.386307 -0.044143 -0.000797 -0.043611 0.000035
 23 1.438886 0.000000 0.000000 0.000000 -0.000000 0.872170
 24 1.485303 0.000000 0.000000 0.000000 -0.000000 0.906977
 25 -3.151157 -0.491020 -4.140396 -1.374547 1.044655 1.935874
 26 4.972048 0.000000 0.000001 0.963131 -0.278486 -1.052412
 27 11.585355 0.000000 0.000000 0.000000 -0.000000 -1.892397
 28 10.127057 0.000000 0.000001 1.926484 0.125206 0.590935
 29 2.683750 -0.427338 0.044205 -0.005738 0.043239 -0.157060
 30 1.438885 -0.000001 0.000000 0.000000 -0.000000 0.732589
 31 1.485305 0.000001 0.000000 0.000000 -0.000000 1.168627
time 20
  0 0.235347 -0.235347 -14.538031 -0.045585 0.257873 -1.742273
  1 0.000000 0.000000 0.000000 -1.570795 -1.570796 0.000000
  2 -0.000005 0.000007 3.713255 -3.368582 -0.221254 1.331540
  3 18.045721 0.000000 0.000000 0.000000 -0.000000 -1.349056
  4 17.597597 0.000000 0.000000 -0.205032 0.225938 -0.216505
  5 3.793090 6.407221 0.000000 0.000000 -0.000000 1.570796
  6 0.000005 -0.000003 -3.713255 6.216042 2.542639 5.445438
  7 18.045725 0.000000 0.000000 0.000000 -0.000000 -2.074575
  8 17.597597 0.000000 0.000000 -0.092072 0.087818 0.559914
  9 3.793090 6.407221 0.000000 0.000000 -0.000000 1.570796
 10 0.935740 0.000000 0.000000 0.000000 -0.000000 0.000000
 11 0.935741 0.000000 0.000000 0.000000 -0.000000 0.000000
 12 1.293670 0.684478 -0.000001 -0.000004 -0.000001 0.306054
 13 5.309685 -0.003834 0.000000 0.000000 -0.000000 0.523509
 14 4.826790 -0.004591 0.000000 -0.163659 0.060570 0.350732
 15 5.792767 -0.005304 0.000000 -0.224626 0.031460 0.135979
 16 6.662317 -0.001453 0.000000 0.000000 -0.000001 -0.139812
 17 2.046985 -0.000002 0.000000 0.368187 0.146285 -0.519582
 18 -3.416721 -0.541403 4.341911 1.360809 -0.799436 1.999061
 19 4.827230 0.000000 0.000001 -0.483931 -0.798203 -0.672873
 20 11.139763 0.000000 0.000000 0.000000 -0.000000 -0.903111
 21 10.314597 0.000001 0.000000 -4.229297 0.558643 -0.152953
 22 2.975834 -0.386307 -0.044143 -0.000797 -0.043611 0.000035
 23 1.438886 0.000000 0.000000 0.000000 -0.000000 0.872170
 24 1.485303 0.000000 0.000000 0.000000 -0.000000 0.906977
 25 -3.151157 -0.491020 -4.140396 -1.368603 1.057063 1.941147
 26 4.972048 0.000000 0.000001 0.960965 -0.285806 -1.063676
 27 11.585355 0.000000 0.000000 0.000000 -0.000000 -1.892397
 28 10.127057 0.000000 0.000001 1.926484 0.125206 0.590935
 29 2.683750 -0.427338 0.044205 -0.005738 0.043239 -0.157060
 30 1.438885 -0.000001 0.000000 0.000000 -0.000000 0.732589
 31 1.485305 0.000001 0.000000 0.000000 -0.000000 1.168627
time 21
  0 0.235347 -0.235347 -14.538031 -0.045585 0.257873 -1.742273
  1 0.000000 0.000000 0.000000 -1.570795 -1.570796 0.000000
  2 -0.000005 0.000007 3.713255 -3.368582 -0.221254 1.331540
  3 18.045721 0.000000 0.000000 0.000000 -0.000000 -1.349056
  4 17.597597 0.000000 0.000000 -0.205032 0.225938 -0.216505
  5 3.793090 6.407221 0.000000 0.000000 -0.000000 1.570796
  6 0.000005 -0.000003 -3.713255 6.216042 2.542639 5.445438
  7 18.045725 0.000000 0.000000 0.000000 -0.000000 -2.074575
  8 17.597597 0.000000 0.000000 -0.092072 0.087818 0.559914
  9 3.793090 6.407221 0.000000 0.000000 -0.000000 1.570796
 10 0.935740 0.000000 0.000000 0.000000 -0.000000 0.000000
 11 0.935741 0.000000 0.000000 0.000000 -0.000000 0.000000
 12 1.293670 0.684478 -0.000001 -0.000004 -0.000001 0.306054
 13 5.309685 -0.003834 0.000000 0.000000 -0.000000 0.523509
 14 4.826790 -0.004591 0.000000 -0.164086 0.059456 0.343743
 15 5.792767 -0.005304 0.000000 -0.224626 0.031460 0.135979
 16 6.662317 -0.001453 0.000000 0.000000 -0.000001 -0.139812
 17 2.046985 -0.000002 0.000000 0.368876 0.144889 -0.512345
 18 -3.416721 -0.541403 4.341911 1.360809 -0.799436 1.999061
 19 4.827230 0.000000 0.000001 -0.484753 -0.790969 -0.671648
 20 11.139763 0.000000 0.000000 0.000000 -0.000000 -0.903111
 21 10.314597 0.000001 0.000000 -4.229297 0.558643 -0.152953
 22 2.975834 -0.386307 -0.044143 -0.000797 -0.043611 0.000035
 23 1.438886 0.000000 0.000000 0.000000 -0.000000 0.872170
 24 1.485303 0.000000 0.000000 0.000000 -0.000000 0.906977
 25 -3.151157 -0.491020 -4.140396 -1.361796 1.070969 1.947187
 26 4.972048 0.000000 0.000001 0.958567 -0.294172 -1.076126
 27 11.585355 0.000000 0.000000 0.000000 -0.000000 -1.892397
 28 10.127057 0.000000 0.000001 1.926484 0.125206 0.590935
 29 2.683750 -0.427338 0.044205 -0.005738 0.043239 -0.157060
 30 1.438885 -0.000001 0.000000 0.000000 -0.000000 0.732589
 31 1.485305 0.000001 0.000000 0.000000 -0.000000 1.168627
time 22
  0 0.235347 -0.235347 -14.538031 -0.045585 0.257873 -1.742273
  1 0.000000 0.000000 0.000000 -1.570795 -1.570796 0.000000
  2 -0.000005 0.000007 3.713255 -3.368582 -0.221254 1.331540
  3 18.045721 0.000000 0.000000 0.000000 -0.000000 -1.349056
  4 17.597597 0.000000 0.000000 -0.205032 0.225938 -0.216505
  5 3.793090 6.407221 0.000000 0.000000 -0.000000 1.570796
  6 0.000005 -0.000003 -3.713255 6.216042 2.542639 5.445438
  7 18.045725 0.000000 0.000000 0.000000 -0.000000 -2.074575
  8 17.597597 0.000000 0.000000 -0.092072 0.087818 0.559914
  9 3.793090 6.407221 0.000000 0.000000 -0.000000 1.570796
 10 0.935740 0.000000 0.000000 0.000000 -0.000000 0.000000
 11 0.935741 0.000000 0.000000 0.000000 -0.000000 0.000000
 12 1.293670 0.684478 -0.000001 -0.000004 -0.000001 0.306054
 13 5.309685 -0.003834 0.000000 0.000000 -0.000000 0.523509
 14 4.826790 -0.004591 0.000000 -0.164529 0.058149 0.336092
 15 5.792767 -0.005304 0.000000 -0.224626 0.031460 0.135979
 16 6.662317 -0.001453 0.000000 0.000000 -0.000001 -0.139812
 17 2.046985 -0.000002 0.000000 0.369824 0.143381 -0.504749
 18 -3.416721 -0.541403 4.341911 1.360809 -0.799436 1.999061
 19 4.827230 0.000000 0.000001 -0.485634 -0.783395 -0.670510
 20 11.139763 0.000000 0.000000 0.000000 -0.000000 -0.903111
 21 10.314597 0.000001 0.000000 -4.229297 0.558643 -0.152953
 22 2.975834 -0.386307 -0.044143 -0.000797 -0.043611 0.000035
 23 1.438886 0.000000 0.000000 0.000000 -0.000000 0.872170
 24 1.485303 0.000000 0.000000 0.000000 -0.000000 0.906977
 25 -3.151157 -0.491020 -4.140396 -1.354126 1.085864 1.953995
 26 4.972048 0.000000 0.000001 0.955937 -0.303181 -1.089564
 27 11.585355 0.000000 0.000000 0.000000 -0.000000 -1.892397
 28 10.127057 0.000000 0.000001 1.926484 0.125206 0.590935
 29 2.683750 -0.427338 0.044205 -0.005738 0.043239 -0.157060
 30 1.438885 -0.000001 0.000000 0.000000 -0.000000 0.732589
 31 1.485305 0.000001 0.000000 0.000000 -0.000000 1.168627
time 23
  0 0.235347 -0.235347 -14.538031 -0.045585 0.257873 -1.742273
  1 0.000000 0.000000 0.000000 -1.570795 -1.570796 0.000000
  2 -0.000005 0.000007 3.713255 -3.368582 -0.221254 1.331540
  3 18.045721 0.000000 0.000000 0.000000 -0.000000 -1.349056
  4 17.597597 0.000000 0.000000 -0.205032 0.225938 -0.216505
  5 3.793090 6.407221 0.000000 0.000000 -0.000000 1.570796
  6 0.000005 -0.000003 -3.713255 6.216042 2.542639 5.445438
  7 18.045725 0.000000 0.000000 0.000000 -0.000000 -2.074575
  8 17.597597 0.000000 0.000000 -0.092072 0.087818 0.559914
  9 3.793090 6.407221 0.000000 0.000000 -0.000000 1.570796
 10 0.935740 0.000000 0.000000 0.000000 -0.000000 0.000000
 11 0.935741 0.000000 0.000000 0.000000 -0.000000 0.000000
 12 1.293670 0.684478 -0.000001 -0.000004 -0.000001 0.306054
 13 5.309685 -0.003834 0.000000 0.000000 -0.000000 0.523509
 14 4.826790 -0.004591 0.000000 -0.164989 0.056891 0.328265
 15 5.792767 -0.005304 0.000000 -0.224626 0.031460 0.135979
 16 6.662317 -0.001453 0.000000 0.000000 -0.000001 -0.139812
 17 2.046985 -0.000002 0.000000 0.370513 0.141805 -0.496838
 18 -3.416721 -0.541403 4.341911 1.360809 -0.799436 1.999061
 19 4.827230 0.000000 0.000001 -0.486515 -0.775481 -0.669285
 20 11.139763 0.000000 0.000000 0.000000 -0.000000 -0.903111
 21 10.314597 0.000001 0.000000 -4.229297 0.558643 -0.152953
 22 2.975834 -0.386307 -0.044143 -0.000797 -0.043611 0.000035
 23 1.438886 0.000000 0.000000 0.000000 -0.000000 0.872170
 24 1.485303 0.000000 0.000000 0.000000 -0.000000 0.906977
 25 -3.151157 -0.491020 -4.140396 -1.345689 1.101353 1.961568
 26 4.972048 0.000000 0.000001 0.953152 -0.312271 -1.103463
 27 11.585355 0.000000 0.000000 0.000000 -0.000000 -1.892397
 28 10.127057 0.000000 0.000001 1.926484 0.125206 0.590935
 29 2.683750 -0.427338 0.044205 -0.005738 0.043239 -0.157060
 30 1.438885 -0.000001 0.000000 0.000000 -0.000000 0.732589
 31 1.485305 0.000001 0.000000 0.000000 -0.000000 1.168627
time 24
  0 0.235347 -0.235347 -14.538031 -0.045585 0.257873 -1.742273
  1 0.000000 0.000000 0.000000 -1.570795 -1.570796 0.000000
  2 -0.000005 0.000007 3.713255 -3.368582 -0.221254 1.331540
  3 18.045721 0.000000 0.000000 0.000000 -0.000000 -1.349056
  4 17.597597 0.000000 0.000000 -0.205032 0.225938 -0.216505
  5 3.793090 6.407221 0.000000 0.000000 -0.000000 1.570796
  6 0.000005 -0.000003 -3.713255 6.216042 2.542639 5.445438
  7 18.045725 0.000000 0.000000 0.000000 -0.000000 -2.074575
  8 17.597597 0.000000 0.000000 -0.092072 0.087818 0.559914
  9 3.793090 6.407221 0.000000 0.000000 -0.000000 1.570796
 10 0.935740 0.000000 0.000000 0.000000 -0.000000 0.000000
 11 0.935741 0.000000 0.000000 0.000000 -0.000000 0.000000
 12 1.293670 0.684478 -0.000001 -0.000004 -0.000001 0.306054
 13 5.309685 -0.003834 0.000000 0.000000 -0.000000 0.523509
 14 4.826790 -0.004591 0.000000 -0.165432 0.055561 0.320217
 15 5.792767 -0.005304 0.000000 -0.224626 0.031460 0.135979
 16 6.662317 -0.001453 0.000000 0.000000 -0.000001 -0.139812
 17 2.046985 -0.000002 0.000000 0.371504 0.140207 -0.489018
 18 -3.416721 -0.541403 4.341911 1.360809 -0.799436 1.999061
 19 4.827230 0.000000 0.000001 -0.487220 -0.767311 -0.668060
 20 11.139763 0.000000 0.000000 0.000000 -0.000000 -0.903111
 21 10.314597 0.000001 0.000000 -4.229297 0.558643 -0.152953
 22 2.975834 -0.386307 -0.044143 -0.000797 -0.043611 0.000035
 23 1.438886 0.000000 0.000000 0.000000 -0.000000 0.872170
 24 1.485303 0.000000 0.000000 0.000000 -0.000000 0.906977
 25 -3.151157 -0.491020 -4.140396 -1.336581 1.116983 1.969430
 26 4.972048 0.000000 0.000001 0.950290 -0.321763 -1.117494
 27 11.585355 0.000000 0.000000 0.000000 -0.000000 -1.892397
 28 10.127057 0.000000 0.000001 1.926484 0.125206 0.590935
 29 2.683750 -0.427338 0.044205 -0.005738 0.043239 -0.157060
 30 1.438885 -0.000001 0.000000 0.000000 -0.000000 0.732589
 31 1.485305 0.000001 0.000000 0.000000 -0.000000 1.168627
time 25
  0 0.235347 -0.235347 -14.538031 -0.045585 0.257873 -1.742273
  1 0.000000 0.000000 0.000000 -1.570795 -1.570796 0.000000
  2 -0.000005 0.000007 3.713255 -3.368582 -0.221254 1.331540
  3 18.045721 0.000000 0.000000 0.000000 -0.000000 -1.349056
  4 17.597597 0.000000 0.000000 -0.205032 0.225938 -0.216505
  5 3.793090 6.407221 0.000000 0.000000 -0.000000 1.570796
  6 0.000005 -0.000003 -3.713255 6.216042 2.542639 5.445438
  7 18.045725 0.000000 0.000000 0.000000 -0.000000 -2.074575
  8 17.597597 0.000000 0.000000 -0.092072 0.087818 0.559914
  9 3.793090 6.407221 0.000000 0.000000 -0.000000 1.570796
 10 0.935740 0.000000 0.000000 0.000000 -0.000000 0.000000
 11 0.935741 0.000000 0.000000 0.000000 -0.000000 0.000000
 12 1.293670 0.684478 -0.000001 -0.000004 -0.000001 0.306054
 13 5.309685 -0.003834 0.000000 0.000000 -0.000000 0.523509
 14 4.826790 -0.004591 0.000000 -0.165859 0.054206 0.312412
 15 5.792767 -0.005304 0.000000 -0.224626 0.031460 0.135979
 16 6.662317 -0.001453 0.000000 0.000000 -0.000001 -0.139812
 17 2.046985 -0.000002 0.000000 0.372409 0.138631 -0.481197
 18 -3.416721 -0.541403 4.341911 1.360809 -0.799436 1.999061
 19 4.827230 0.000000 0.000001 -0.488160 -0.759652 -0.666747
 20 11.139763 0.000000 0.000000 0.000000 -0.000000 -0.903111
 21 10.314597 0.000001 0.000000 -4.229297 0.558643 -0.152953
 22 2.975834 -0.386307 -0.044143 -0.000797 -0.043611 0.000035
 23 1.438886 0.000000 0.000000 0.000000 -0.000000 0.872170
 24 1.485303 0.000000 0.000000 0.000000 -0.000000 0.906977
 25 -3.151157 -0.491020 -4.140396 -1.326994 1.132302 1.978250
 26 4.972048 0.000000 0.000001 0.947660 -0.331094 -1.130932
 27 11.585355 0.000000 0.000000 0.000000 -0.000000 -1.892397
 28 10.127057 0.000000 0.000001 1.926484 0.125206 0.590935
 29 2.683750 -0.427338 0.044205 -0.005738 0.043239 -0.157060
 30 1.438885 -0.000001 0.000000 0.000000 -0.000000 0.732589
 31 1.485305 0.000001 0.000000 0.000000 -0.000000 1.168627
time 26
  0 0.235347 -0.235347 -14.538031 -0.045585 0.257873 -1.742273
  1 0.000000 0.000000 0.000000 -1.570795 -1.570796 0.000000
  2 -0.000005 0.000007 3.713255 -3.368582 -0.221254 1.331540
  3 18.045721 0.000000 0.000000 0.000000 -0.000000 -1.349056
  4 17.597597 0.000000 0.000000 -0.205032 0.225938 -0.216505
  5 3.793090 6.407221 0.000000 0.000000 -0.000000 1.570796
  6 0.000005 -0.000003 -3.713255 6.216042 2.542639 5.445438
  7 18.045725 0.000000 0.000000 0.000000 -0.000000 -2.074575
  8 17.597597 0.000000 0.000000 -0.092072 0.087818 0.559914
  9 3.793090 6.407221 0.000000 0.000000 -0.000000 1.570796
 10 0.935740 0.000000 0.000000 0.000000 -0.000000 0.000000
 11 0.935741 0.000000 0.000000 0.000000 -0.000000 0.000000
 12 1.293670 0.684478 -0.000001 -0.000004 -0.000001 0.306054
 13 5.309685 -0.003834 0.000000 0.000000 -0.000000 0.523509
 14 4.826790 -0.004591 0.000000 -0.166253 0.053008 0.305004
 15 5.792767 -0.005304 0.000000 -0.224626 0.031460 0.135979
 16 6.662317 -0.001453 0.000000 0.000000 -0.000001 -0.139812
 17 2.046985 -0.000002 0.000000 0.373055 0.137145 -0.473556
 18 -3.416721 -0.541403 4.341911 1.360809 -0.799436 1.999061
 19 4.827230 0.000000 0.000001 -0.488982 -0.752078 -0.665697
 20 11.139763 0.000000 0.000000 0.000000 -0.000000 -0.903111
 21 10.314597 0.000001 0.000000 -4.229297 0.558643 -0.152953
 22 2.975834 -0.386307 -0.044143 -0.000797 -0.043611 0.000035
 23 1.438886 0.000000 0.000000 0.000000 -0.000000 0.872170
 24 1.485303 0.000000 0.000000 0.000000 -0.000000 0.906977
 25 -3.151157 -0.491020 -4.140396 -1.317119 1.146717 1.986783
 26 4.972048 0.000000 0.000001 0.945030 -0.339782 -1.144238
 27 11.585355 0.000000 0.000000 0.000000 -0.000000 -1.892397
 28 10.127057 0.000000 0.000001 1.926484 0.125206 0.590935
 29 2.683750 -0.427338 0.044205 -0.005738 0.043239 -0.157060
 30 1.438885 -0.000001 0.000000 0.000000 -0.000000 0.732589
 31 1.485305 0.000001 0.000000 0.000000 -0.000000 1.168627
time 27
  0 0.235347 -0.235347 -14.538031 -0.045585 0.257873 -1.742273
  1 0.000000 0.000000 0.000000 -1.570795 -1.570796 0.000000
  2 -0.000005 0.000007 3.713255 -3.368582 -0.221254 1.331540
  3 18.045721 0.000000 0.000000 0.000000 -0.000000 -1.349056
  4 17.597597 0.000000 0.000000 -0.205032 0.225938 -0.216505
  5 3.793090 6.407221 0.000000 0.000000 -0.000000 1.570796
  6 0.000005 -0.000003 -3.713255 6.216042 2.542639 5.445438
  7 18.045725 0.000000 0.000000 0.000000 -0.000000 -2.074575
  8 17.597597 0.000000 0.000000 -0.092072 0.087818 0.559914
  9 3.793090 6.407221 0.000000 0.000000 -0.000000 1.570796
 10 0.935740 0.000000 0.000000 0.000000 -0.000000 0.000000
 11 0.935741 0.000000 0.000000 0.000000 -0.000000 0.000000
 12 1.293670 0.684478 -0.000001 -0.000004 -0.000001 0.306054
 13 5.309685 -0.003834 0.000000 0.000000 -0.000000 0.523509
 14 4.826790 -0.004591 0.000000 -0.166598 0.051821 0.298169
 15 5.792767 -0.005304 0.000000 -0.224626 0.031460 0.135979
 16 6.662317 -0.001453 0.000000 0.000000 -0.000001 -0.139812
 17 2.046985 -0.000002 0.000000 0.373874 0.135749 -0.466768
 18 -3.416721 -0.541403 4.341911 1.360809 -0.799436 1.999061
 19 4.827230 0.000000 0.000001 -0.489628 -0.745270 -0.664647
 20 11.139763 0.000000 0.000000 0.000000 -0.000000 -0.903111
 21 10.314597 0.000001 0.000000 -4.229297 0.558643 -0.152953
 22 2.975834 -0.386307 -0.044143 -0.000797 -0.043611 0.000035
 23 1.438886 0.000000 0.000000 0.000000 -0.000000 0.872170
 24 1.485303 0.000000 0.000000 0.000000 -0.000000 0.906977
 25 -3.151157 -0.491020 -4.140396 -1.307819 1.160001 1.995507
 26 4.972048 0.000000 0.000001 0.942632 -0.347826 -1.156161
 27 11.585355 0.000000 0.000000 0.000000 -0.000000 -1.892397
 28 10.127057 0.000000 0.000001 1.926484 0.125206 0.590935
 29 2.683750 -0.427338 0.044205 -0.005738 0.043239 -0.157060
 30 1.438885 -0.000001 0.000000 0.000000 -0.000000 0.732589
 31 1.485305 0.000001 0.000000 0.000000 -0.000000 1.168627
time 28
  0 0.235347 -0.235347 -14.538031 -0.045585 0.257873 -1.742273
  1 0.000000 0.000000 0.000000 -1.570795 -1.570796 0.000000
  2 -0.000005 0.000007 3.713255 -3.368582 -0.221254 1.331540
  3 18.045721 0.000000 0.000000 0.000000 -0.000000 -1.349056
  4 17.597597 0.000000 0.000000 -0.205032 0.225938 -0.216505
  5 3.793090 6.407221 0.000000 0.000000 -0.000000 1.570796
  6 0.000005 -0.000003 -3.713255 6.216042 2.542639 5.445438
  7 18.045725 0.000000 0.000000 0.000000 -0.000000 -2.074575
  8 17.597597 0.000000 0.000000 -0.092072 0.087818 0.559914
  9 3.793090 6.407221 0.000000 0.000000 -0.000000 1.570796
 10 0.935740 0.000000 0.000000 0.000000 -0.000000 0.000000
 11 0.935741 0.000000 0.000000 0.000000 -0.000000 0.000000
 12 1.293670 0.684478 -0.000001 -0.000004 -0.000001 0.306054
 13 5.309685 -0.003834 0.000000 0.000000 -0.000000 0.523509
 14 4.826790 -0.004591 0.000000 -0.166910 0.050863 0.292216
 15 5.792767 -0.005304 0.000000 -0.224626 0.031460 0.135979
 16 6.662317 -0.001453 0.000000 0.000000 -0.000001 -0.139812
 17 2.046985 -0.000002 0.000000 0.374477 0.134533 -0.460790
 18 -3.416721 -0.541403 4.341911 1.360809 -0.799436 1.999061
 19 4.827230 0.000000 0.000001 -0.490157 -0.739313 -0.663772
 20 11.139763 0.000000 0.000000 0.000000 -0.000000 -0.903111
 21 10.314597 0.000001 0.000000 -4.229297 0.558643 -0.152953
 22 2.975834 -0.386307 -0.044143 -0.000797 -0.043611 0.000035
 23 1.438886 0.000000 0.000000 0.000000 -0.000000 0.872170
 24 1.485303 0.000000 0.000000 0.000000 -0.000000 0.906977
 25 -3.151157 -0.491020 -4.140396 -1.298999 1.171561 2.003465
 26 4.972048 0.000000 0.000001 0.940466 -0.354985 -1.166569
 27 11.585355 0.000000 0.000000 0.000000 -0.000000 -1.892397
 28 10.127057 0.000000 0.000001 1.926484 0.125206 0.590935
 29 2.683750 -0.427338 0.044205 -0.005738 0.043239 -0.157060
 30 1.438885 -0.000001 0.000000 0.000000 -0.000000 0.732589
 31 1.485305 0.000001 0.000000 0.000000 -0.000000 1.168627
time 29
  0 0.235347 -0.235347 -14.538031 -0.045585 0.257873 -1.742273
  1 0.000000 0.000000 0.000000 -1.570795 -1.570796 0.000000
  2 -0.000005 0.000007 3.713255 -3.368582 -0.221254 1.331540
  3 18.045721 0.000000 0.000000 0.000000 -0.000000 -1.349056
  4 17.597597 0.000000 0.000000 -0.205032 0.225938 -0.216505
  5 3.793090 6.407221 0.000000 0.000000 -0.000000 1.570796
  6 0.000005 -0.000003 -3.713255 6.216042 2.542639 5.445438
  7 18.045725 0.000000 0.000000 0.000000 -0.000000 -2.074575
  8 17.597597 0.000000 0.000000 -0.092072 0.087818 0.559914
  9 3.793090 6.407221 0.000000 0.000000 -0.000000 1.570796
 10 0.935740 0.000000 0.000000 0.000000 -0.000000 0.000000
 11 0.935741 0.000000 0.000000 0.000000 -0.000000 0.000000
 12 1.293670 0.684478 -0.000001 -0.000004 -0.000001 0.306054
 13 5.309685 -0.003834 0.000000 0.000000 -0.000000 0.523509
 14 4.826790 -0.004591 0.000000 -0.167140 0.050036 0.287277
 15 5.792767 -0.005304 0.000000 -0.224626 0.031460 0.135979
 16 6.662317 -0.001453 0.000000 0.000000 -0.000001 -0.139812
 17 2.046985 -0.000002 0.000000 0.374994 0.133543 -0.456026
 18 -3.416721 -0.541403 4.341911 1.360809 -0.799436 1.999061
 19 4.827230 0.000000 0.000001 -0.490744 -0.734377 -0.662984
 20 11.139763 0.000000 0.000000 0.000000 -0.000000 -0.903111
 21 10.314597 0.000001 0.000000 -4.229297 0.558643 -0.152953
 22 2.975834 -0.386307 -0.044143 -0.000797 -0.043611 0.000035
 23 1.438886 0.000000 0.000000 0.000000 -0.000000 0.872170
 24 1.485303 0.000000 0.000000 0.000000 -0.000000 0.906977
 25 -3.151157 -0.491020 -4.140396 -1.291425 1.181086 2.010655
 26 4.972048 0.000000 0.000001 0.938687 -0.360616 -1.175198
 27 11.585355 0.000000 0.000000 0.000000 -0.000000 -1.892397
 28 10.127057 0.000000 0.000001 1.926484 0.125206 0.590935
 29 2.683750 -0.427338 0.044205 -0.005738 0.043239 -0.157060
 30 1.438885 -0.000001 0.000000 0.000000 -0.000000 0.732589
 31 1.485305 0.000001 0.000000 0.000000 -0.000000 1.168627
time 30
  0 0.235347 -0.235347 -14.538031 -0.045585 0.257873 -1.742273
  1 0.000000 0.000000 0.000000 -1.570795 -1.570796 0.000000
  2 -0.000005 0.000007 3.713255 -3.368582 -0.221254 1.331540
  3 18.045721 0.000000 0.000000 0.000000 -0.000000 -1.349056
  4 17.597597 0.000000 0.000000 -0.205032 0.225938 -0.216505
  5 3.793090 6.407221 0.000000 0.000000 -0.000000 1.570796
  6 0.000005 -0.000003 -3.713255 6.216042 2.542639 5.445438
  7 18.045725 0.000000 0.000000 0.000000 -0.000000 -2.074575
  8 17.597597 0.000000 0.000000 -0.092072 0.087818 0.559914
  9 3.793090 6.407221 0.000000 0.000000 -0.000000 1.570796
 10 0.935740 0.000000 0.000000 0.000000 -0.000000 0.000000
 11 0.935741 0.000000 0.000000 0.000000 -0.000000 0.000000
 12 1.293670 0.684478 -0.000001 -0.000004 -0.000001 0.306054
 13 5.309685 -0.003834 0.000000 0.000000 -0.000000 0.523509
 14 4.826790 -0.004591 0.000000 -0.167337 0.049377 0.283683
 15 5.792767 -0.005304 0.000000 -0.224626 0.031460 0.135979
 16 6.662317 -0.001453 0.000000 0.000000 -0.000001 -0.139812
 17 2.046985 -0.000002 0.000000 0.375166 0.132800 -0.452250
 18 -3.416721 -0.541403 4.341911 1.360809 -0.799436 1.999061
 19 4.827230 0.000000 0.000001 -0.491038 -0.730718 -0.662459
 20 11.139763 0.000000 0.000000 0.000000 -0.000000 -0.903111
 21 10.314597 0.000001 0.000000 -4.229297 0.558643 -0.152953
 22 2.975834 -0.386307 -0.044143 -0.000797 -0.043611 0.000035
 23 1.438886 0.000000 0.000000 0.000000 -0.000000 0.872170
 24 1.485303 0.000000 0.000000 0.000000 -0.000000 0.906977
 25 -3.151157 -0.491020 -4.140396 -1.285385 1.188039 2.016024
 26 4.972048 0.000000 0.000001 0.937449 -0.364960 -1.181456
 27 11.585355 0.000000 0.000000 0.000000 -0.000000 -1.892397
 28 10.127057 0.000000 0.000001 1.926484 0.125206 0.590935
 29 2.683750 -0.427338 0.044205 -0.005738 0.043239 -0.157060
 30 1.438885 -0.000001 0.000000 0.000000 -0.000000 0.732589
 31 1.485305 0.000001 0.000000 0.000000 -0.000000 1.168627
end
