version 1
nodes
  0 "Bip01"  -1
  1 "Bip01 Pelvis"   0
  2 "Bip01 L Leg"   1
  3 "Bip01 L Leg1"   2
  4 "Bip01 L Foot"   3
  5 "Bip01 L Toe0"   4
  6 "Bip01 R Leg"   1
  7 "Bip01 R Leg1"   6
  8 "Bip01 R Foot"   7
  9 "Bip01 R Toe0"   8
 10 "Bip01 R Toe01"   9
 11 "Bip01 R Toe02"  10
 12 "Bip01 Spine"   1
 13 "Bip01 Spine1"  12
 14 "Bip01 Spine2"  13
 15 "Bip01 Spine3"  14
 16 "Bip01 Neck"  15
 17 "Bip01 Head"  16
 18 "Bip01 L Arm"  16
 19 "Bip01 L Arm1"  18
 20 "Bip01 L Arm2"  19
 21 "Bip01 L Hand"  20
 22 "Bip01 L Finger1"  21
 23 "Bip01 L Finger11"  22
 24 "Bip01 L Finger12"  23
 25 "Bip01 R Arm"  16
 26 "Bip01 R Arm1"  25
 27 "Bip01 R Arm2"  26
 28 "Bip01 R Hand"  27
 29 "Bip01 R Finger1"  28
 30 "Bip01 R Finger11"  29
 31 "Bip01 R Finger12"  30
end
skeleton
time 0
  0 0.235347 -0.235347 -12.569221 -0.000000 0.270322 -1.571254
  1 -3.699332 0.589862 0.000000 -1.570795 -1.570796 0.000000
  2 -0.000005 0.000007 3.713255 -3.389770 -0.209750 1.567109
  3 18.045721 0.000000 0.000000 0.000000 -0.000000 -1.744563
  4 17.597597 0.000000 0.000000 -0.164903 0.191688 0.413694
  5 3.793090 6.407221 0.000000 0.000000 -0.000000 1.570796
  6 0.000005 -0.000003 -3.713255 0.311943 2.936853 5.354742
  7 18.045725 0.000000 0.000000 0.000000 -0.000000 -1.993292
  8 17.597597 0.000000 0.000000 0.131015 -0.129891 1.055680
  9 3.793090 6.407221 0.000000 0.000000 -0.000000 1.570796
 10 0.935740 0.000000 0.000000 0.000000 -0.000000 0.000000
 11 0.935741 0.000000 0.000000 0.000000 -0.000000 0.000000
 12 1.293670 0.684478 -0.000001 -0.000004 -0.000001 0.279871
 13 5.309685 -0.003834 0.000000 -0.206274 0.036193 0.170644
 14 4.826790 -0.004591 0.000000 -0.293180 0.045949 0.150203
 15 5.792767 -0.005304 0.000000 0.000000 0.000000 0.279097
 16 6.662317 -0.001453 0.000000 0.000000 -0.000001 0.078555
 17 2.046985 -0.000002 0.000000 0.485588 -0.141355 -0.329184
 18 -3.447972 0.216433 4.341911 1.735769 -0.581969 1.197154
 19 4.827230 0.000000 0.000001 -0.299616 0.266237 0.208628
 20 11.139763 0.000000 0.000000 0.000000 -0.000000 -1.304248
 21 10.314597 0.000001 0.000000 -4.515207 0.031522 -0.094278
 22 2.975834 -0.386307 -0.044143 -0.012063 -0.041921 0.261905
 23 1.438886 0.000000 0.000000 0.000000 -0.000000 0.924779
 24 1.485303 0.000000 0.000000 0.000000 -0.000000 0.540939
 25 -3.186314 0.196501 -4.140396 -0.682918 1.249598 2.405077
 26 4.972048 0.000000 0.000001 0.277768 -0.425532 -1.388559
 27 11.585355 0.000000 0.000000 0.000000 -0.000000 -1.485248
 28 10.127057 0.000000 0.000001 2.082618 0.482901 0.607684
 29 2.683750 -0.427338 0.044205 0.001045 0.043611 0.000046
 30 1.438885 -0.000001 0.000000 0.000000 -0.000000 0.767689
 31 1.485305 0.000001 0.000000 0.000000 -0.000000 1.221538
time 1
  0 0.235347 -0.235347 -12.475468 -0.000000 0.270322 -1.571254
  1 -3.320414 0.558611 0.000000 -1.570795 -1.570796 0.000000
  2 -0.000005 0.000007 3.713255 -3.389770 -0.209750 1.567109
  3 18.045721 0.000000 0.000000 0.000000 -0.000000 -1.744563
  4 17.597597 0.000000 0.000000 -0.164903 0.191688 0.413694
  5 3.793090 6.407221 0.000000 0.000000 -0.000000 1.570796
  6 0.000005 -0.000003 -3.713255 0.311943 2.936853 5.354742
  7 18.045725 0.000000 0.000000 0.000000 -0.000000 -1.993292
  8 17.597597 0.000000 0.000000 0.131015 -0.129891 1.055680
  9 3.793090 6.407221 0.000000 0.000000 -0.000000 1.570796
 10 0.935740 0.000000 0.000000 0.000000 -0.000000 0.000000
 11 0.935741 0.000000 0.000000 0.000000 -0.000000 0.000000
 12 1.293670 0.684478 -0.000001 -0.000004 -0.000001 0.279871
 13 5.309685 -0.003834 0.000000 -0.262920 0.029734 0.109189
 14 4.826790 -0.004591 0.000000 -0.293180 0.045949 0.150203
 15 5.792767 -0.005304 0.000000 -0.072169 0.014166 0.192765
 16 6.662317 -0.001453 0.000000 0.000000 -0.000001 0.078555
 17 2.046985 -0.000002 0.000000 0.608891 -0.182912 -0.208050
 18 -3.447972 0.216433 4.341911 1.598287 -0.110496 1.245188
 19 4.827230 0.000000 0.000001 -0.193891 0.195178 1.243973
 20 11.139763 0.000000 0.000000 0.000000 -0.000000 -2.187464
 21 10.314597 0.000001 0.000000 -4.515207 0.031522 -0.094278
 22 2.975834 -0.386307 -0.044143 -0.012063 -0.041921 0.261905
 23 1.438886 0.000000 0.000000 0.000000 -0.000000 0.924779
 24 1.485303 0.000000 0.000000 0.000000 -0.000000 0.540939
 25 -3.186314 0.196501 -4.140396 0.783942 1.221306 3.814892
 26 4.972048 0.000000 0.000001 -0.546292 -0.840205 -0.932524
 27 11.585355 0.000000 0.000000 0.000000 -0.000000 -2.333265
 28 10.127057 0.000000 0.000001 1.651227 0.753399 0.291802
 29 2.683750 -0.427338 0.044205 0.001045 0.043611 0.000046
 30 1.438885 -0.000001 0.000000 0.000000 -0.000000 0.767689
 31 1.485305 0.000001 0.000000 0.000000 -0.000000 1.221538
time 2
  0 0.235347 -0.235347 -12.475468 -0.000000 0.270322 -1.571254
  1 -3.312601 0.539079 0.000000 -1.570795 -1.570796 0.000000
  2 -0.000005 0.000007 3.713255 -3.389770 -0.209750 1.567109
  3 18.045721 0.000000 0.000000 0.000000 -0.000000 -1.744563
  4 17.597597 0.000000 0.000000 -0.164903 0.191688 0.413694
  5 3.793090 6.407221 0.000000 0.000000 -0.000000 1.570796
  6 0.000005 -0.000003 -3.713255 0.311943 2.936853 5.354742
  7 18.045725 0.000000 0.000000 0.000000 -0.000000 -1.993292
  8 17.597597 0.000000 0.000000 0.131015 -0.129891 1.055680
  9 3.793090 6.407221 0.000000 0.000000 -0.000000 1.570796
 10 0.935740 0.000000 0.000000 0.000000 -0.000000 0.000000
 11 0.935741 0.000000 0.000000 0.000000 -0.000000 0.000000
 12 1.293670 0.684478 -0.000001 -0.000004 -0.000001 0.279871
 13 5.309685 -0.003834 0.000000 -0.264891 0.029338 0.107071
 14 4.826790 -0.004591 0.000000 -0.263394 0.041395 0.151504
 15 5.792767 -0.005304 0.000000 -0.074729 0.014393 0.189734
 16 6.662317 -0.001453 0.000000 0.000000 -0.000001 0.078555
 17 2.046985 -0.000002 0.000000 0.583343 -0.177734 -0.198386
 18 -3.447972 0.216433 4.341911 1.609600 -0.155189 1.243654
 19 4.827230 0.000000 0.000001 -0.312597 0.213730 1.133534
 20 11.139763 0.000000 0.000000 0.000000 -0.000000 -2.104490
 21 10.314597 0.000001 0.000000 -4.515207 0.031522 -0.094278
 22 2.975834 -0.386307 -0.044143 -0.012063 -0.041921 0.261905
 23 1.438886 0.000000 0.000000 0.000000 -0.000000 0.924779
 24 1.485303 0.000000 0.000000 0.000000 -0.000000 0.540939
 25 -3.186314 0.196501 -4.140396 0.696506 1.246263 3.732537
 26 4.972048 0.000000 0.000001 -0.459500 -0.845273 -0.967173
 27 11.585355 0.000000 0.000000 0.000000 -0.000000 -2.260860
 28 10.127057 0.000000 0.000001 1.604215 0.751829 0.185148
 29 2.683750 -0.427338 0.044205 0.001045 0.043611 0.000046
 30 1.438885 -0.000001 0.000000 0.000000 -0.000000 0.767689
 31 1.485305 0.000001 0.000000 0.000000 -0.000000 1.221538
time 3
  0 0.235347 -0.235347 -12.475468 -0.000000 0.270322 -1.571254
  1 -3.343852 0.515641 0.000000 -1.570795 -1.570796 0.000000
  2 -0.000005 0.000007 3.713255 -3.389770 -0.209750 1.567109
  3 18.045721 0.000000 0.000000 0.000000 -0.000000 -1.744563
  4 17.597597 0.000000 0.000000 -0.164903 0.191688 0.413694
  5 3.793090 6.407221 0.000000 0.000000 -0.000000 1.570796
  6 0.000005 -0.000003 -3.713255 0.311943 2.936853 5.354742
  7 18.045725 0.000000 0.000000 0.000000 -0.000000 -1.993292
  8 17.597597 0.000000 0.000000 0.131015 -0.129891 1.055680
  9 3.793090 6.407221 0.000000 0.000000 -0.000000 1.570796
 10 0.935740 0.000000 0.000000 0.000000 -0.000000 0.000000
 11 0.935741 0.000000 0.000000 0.000000 -0.000000 0.000000
 12 1.293670 0.684478 -0.000001 -0.000004 -0.000001 0.279871
 13 5.309685 -0.003834 0.000000 -0.261916 0.029914 0.110294
 14 4.826790 -0.004591 0.000000 -0.235480 0.037056 0.152518
 15 5.792767 -0.005304 0.000000 -0.070832 0.014022 0.194343
 16 6.662317 -0.001453 0.000000 0.000000 -0.000001 0.078555
 17 2.046985 -0.000002 0.000000 0.548704 -0.169045 -0.199465
 18 -3.447972 0.216433 4.341911 1.635198 -0.253230 1.238764
 19 4.827230 0.000000 0.000001 -0.426663 0.240537 0.909680
 20 11.139763 0.000000 0.000000 0.000000 -0.000000 -1.921371
 21 10.314597 0.000001 0.000000 -4.515207 0.031522 -0.094278
 22 2.975834 -0.386307 -0.044143 -0.012063 -0.041921 0.261905
 23 1.438886 0.000000 0.000000 0.000000 -0.000000 0.924779
 24 1.485303 0.000000 0.000000 0.000000 -0.000000 0.540939
 25 -3.186314 0.196501 -4.140396 0.466698 1.289479 3.513275
 26 4.972048 0.000000 0.000001 -0.266036 -0.825002 -1.071844
 27 11.585355 0.000000 0.000000 0.000000 -0.000000 -2.106675
 28 10.127057 0.000000 0.000001 1.617083 0.730632 0.130468
 29 2.683750 -0.427338 0.044205 0.001045 0.043611 0.000046
 30 1.438885 -0.000001 0.000000 0.000000 -0.000000 0.767689
 31 1.485305 0.000001 0.000000 0.000000 -0.000000 1.221538
time 4
  0 0.235347 -0.235347 -12.502812 -0.000000 0.270322 -1.571254
  1 -3.382916 0.515641 0.000000 -1.570795 -1.570796 0.000000
  2 -0.000005 0.000007 3.713255 -3.389770 -0.209750 1.567109
  3 18.045721 0.000000 0.000000 0.000000 -0.000000 -1.744563
  4 17.597597 0.000000 0.000000 -0.164903 0.191688 0.413694
  5 3.793090 6.407221 0.000000 0.000000 -0.000000 1.570796
  6 0.000005 -0.000003 -3.713255 0.311943 2.936853 5.354742
  7 18.045725 0.000000 0.000000 0.000000 -0.000000 -1.993292
  8 17.597597 0.000000 0.000000 0.131015 -0.129891 1.055680
  9 3.793090 6.407221 0.000000 0.000000 -0.000000 1.570796
 10 0.935740 0.000000 0.000000 0.000000 -0.000000 0.000000
 11 0.935741 0.000000 0.000000 0.000000 -0.000000 0.000000
 12 1.293670 0.684478 -0.000001 -0.000004 -0.000001 0.279871
 13 5.309685 -0.003834 0.000000 -0.257215 0.030693 0.115328
 14 4.826790 -0.004591 0.000000 -0.212656 0.033569 0.153400
 15 5.792767 -0.005304 0.000000 -0.064766 0.013303 0.201465
 16 6.662317 -0.001453 0.000000 0.000000 -0.000001 0.078555
 17 2.046985 -0.000002 0.000000 0.515918 -0.160310 -0.205532
 18 -3.447972 0.216433 4.341911 1.660221 -0.344617 1.231094
 19 4.827230 0.000000 0.000001 -0.489452 0.254919 0.697903
 20 11.139763 0.000000 0.000000 0.000000 -0.000000 -1.750236
 21 10.314597 0.000001 0.000000 -4.515207 0.031522 -0.094278
 22 2.975834 -0.386307 -0.044143 -0.012063 -0.041921 0.261905
 23 1.438886 0.000000 0.000000 0.000000 -0.000000 0.924779
 24 1.485303 0.000000 0.000000 0.000000 -0.000000 0.540939
 25 -3.186314 0.196501 -4.140396 0.095573 1.317206 3.155093
 26 4.972048 0.000000 0.000001 -0.050912 -0.761373 -1.189822
 27 11.585355 0.000000 0.000000 0.000000 -0.000000 -1.913524
 28 10.127057 0.000000 0.000001 1.652565 0.702965 0.089909
 29 2.683750 -0.427338 0.044205 0.001045 0.043611 0.000046
 30 1.438885 -0.000001 0.000000 0.000000 -0.000000 0.767689
 31 1.485305 0.000001 0.000000 0.000000 -0.000000 1.221538
time 5
  0 0.235347 -0.235347 -12.506719 -0.000000 0.270322 -1.571254
  1 -3.437605 0.507828 0.000000 -1.570795 -1.570796 0.000000
  2 -0.000005 0.000007 3.713255 -3.389770 -0.209750 1.567109
  3 18.045721 0.000000 0.000000 0.000000 -0.000000 -1.744563
  4 17.597597 0.000000 0.000000 -0.164903 0.191688 0.413694
  5 3.793090 6.407221 0.000000 0.000000 -0.000000 1.570796
  6 0.000005 -0.000003 -3.713255 0.311943 2.936853 5.354742
  7 18.045725 0.000000 0.000000 0.000000 -0.000000 -1.993292
  8 17.597597 0.000000 0.000000 0.131015 -0.129891 1.055680
  9 3.793090 6.407221 0.000000 0.000000 -0.000000 1.570796
 10 0.935740 0.000000 0.000000 0.000000 -0.000000 0.000000
 11 0.935741 0.000000 0.000000 0.000000 -0.000000 0.000000
 12 1.293670 0.684478 -0.000001 -0.000004 -0.000001 0.279871
 13 5.309685 -0.003834 0.000000 -0.249649 0.031819 0.123494
 14 4.826790 -0.004591 0.000000 -0.198305 0.031328 0.153841
 15 5.792767 -0.005304 0.000000 -0.054999 0.011961 0.213092
 16 6.662317 -0.001453 0.000000 0.000000 -0.000001 0.078555
 17 2.046985 -0.000002 0.000000 0.485071 -0.151598 -0.219826
 18 -3.447972 0.216433 4.341911 1.685915 -0.432427 1.221699
 19 4.827230 0.000000 0.000001 -0.442463 0.270152 0.496102
 20 11.139763 0.000000 0.000000 0.000000 -0.000000 -1.585899
 21 10.314597 0.000001 0.000000 -4.515207 0.031522 -0.094278
 22 2.975834 -0.386307 -0.044143 -0.012063 -0.041921 0.261905
 23 1.438886 0.000000 0.000000 0.000000 -0.000000 0.924779
 24 1.485303 0.000000 0.000000 0.000000 -0.000000 0.540939
 25 -3.186314 0.196501 -4.140396 -0.287537 1.307992 2.784064
 26 4.972048 0.000000 0.000001 0.122672 -0.661546 -1.275588
 27 11.585355 0.000000 0.000000 0.000000 -0.000000 -1.727089
 28 10.127057 0.000000 0.000001 1.781689 0.658920 0.200642
 29 2.683750 -0.427338 0.044205 0.001045 0.043611 0.000046
 30 1.438885 -0.000001 0.000000 0.000000 -0.000000 0.767689
 31 1.485305 0.000001 0.000000 0.000000 -0.000000 1.221538
time 6
  0 0.235347 -0.235347 -12.537970 -0.000000 0.270322 -1.571254
  1 -3.562609 0.539079 0.000000 -1.570795 -1.570796 0.000000
  2 -0.000005 0.000007 3.713255 -3.389770 -0.209750 1.567109
  3 18.045721 0.000000 0.000000 0.000000 -0.000000 -1.744563
  4 17.597597 0.000000 0.000000 -0.164903 0.191688 0.413694
  5 3.793090 6.407221 0.000000 0.000000 -0.000000 1.570796
  6 0.000005 -0.000003 -3.713255 0.311943 2.936853 5.354742
  7 18.045725 0.000000 0.000000 0.000000 -0.000000 -1.993292
  8 17.597597 0.000000 0.000000 0.131015 -0.129891 1.055680
  9 3.793090 6.407221 0.000000 0.000000 -0.000000 1.570796
 10 0.935740 0.000000 0.000000 0.000000 -0.000000 0.000000
 11 0.935741 0.000000 0.000000 0.000000 -0.000000 0.000000
 12 1.293670 0.684478 -0.000001 -0.000004 -0.000001 0.279871
 13 5.309685 -0.003834 0.000000 -0.229302 0.034408 0.145512
 14 4.826790 -0.004591 0.000000 -0.234429 0.036937 0.152562
 15 5.792767 -0.005304 0.000000 -0.029008 0.007251 0.244070
 16 6.662317 -0.001453 0.000000 0.000000 -0.000001 0.078555
 17 2.046985 -0.000002 0.000000 0.476885 -0.145474 -0.269898
 18 -3.447972 0.216433 4.341911 1.714389 -0.520506 1.208659
 19 4.827230 0.000000 0.000001 -0.354476 0.275343 0.317142
 20 11.139763 0.000000 0.000000 0.000000 -0.000000 -1.420160
 21 10.314597 0.000001 0.000000 -4.515207 0.031522 -0.094278
 22 2.975834 -0.386307 -0.044143 -0.012063 -0.041921 0.261905
 23 1.438886 0.000000 0.000000 0.000000 -0.000000 0.924779
 24 1.485303 0.000000 0.000000 0.000000 -0.000000 0.540939
 25 -3.186314 0.196501 -4.140396 -0.584648 1.270655 2.498266
 26 4.972048 0.000000 0.000001 0.242881 -0.520050 -1.347916
 27 11.585355 0.000000 0.000000 0.000000 -0.000000 -1.555065
 28 10.127057 0.000000 0.000001 1.951519 0.582362 0.395867
 29 2.683750 -0.427338 0.044205 0.001045 0.043611 0.000046
 30 1.438885 -0.000001 0.000000 0.000000 -0.000000 0.767689
 31 1.485305 0.000001 0.000000 0.000000 -0.000000 1.221538
time 7
  0 0.235347 -0.235347 -12.569221 -0.000000 0.270322 -1.571254
  1 -3.699332 0.589862 0.000000 -1.570795 -1.570796 0.000000
  2 -0.000005 0.000007 3.713255 -3.389770 -0.209750 1.567109
  3 18.045721 0.000000 0.000000 0.000000 -0.000000 -1.744563
  4 17.597597 0.000000 0.000000 -0.164903 0.191688 0.413694
  5 3.793090 6.407221 0.000000 0.000000 -0.000000 1.570796
  6 0.000005 -0.000003 -3.713255 0.311943 2.936853 5.354742
  7 18.045725 0.000000 0.000000 0.000000 -0.000000 -1.993292
  8 17.597597 0.000000 0.000000 0.131015 -0.129891 1.055680
  9 3.793090 6.407221 0.000000 0.000000 -0.000000 1.570796
 10 0.935740 0.000000 0.000000 0.000000 -0.000000 0.000000
 11 0.935741 0.000000 0.000000 0.000000 -0.000000 0.000000
 12 1.293670 0.684478 -0.000001 -0.000004 -0.000001 0.279871
 13 5.309685 -0.003834 0.000000 -0.206274 0.036193 0.170644
 14 4.826790 -0.004591 0.000000 -0.293180 0.045949 0.150203
 15 5.792767 -0.005304 0.000000 0.000000 0.000000 0.279097
 16 6.662317 -0.001453 0.000000 0.000000 -0.000001 0.078555
 17 2.046985 -0.000002 0.000000 0.485588 -0.141355 -0.329184
 18 -3.447972 0.216433 4.341911 1.735769 -0.581969 1.197154
 19 4.827230 0.000000 0.000001 -0.299616 0.266237 0.208628
 20 11.139763 0.000000 0.000000 0.000000 -0.000000 -1.304248
 21 10.314597 0.000001 0.000000 -4.515207 0.031522 -0.094278
 22 2.975834 -0.386307 -0.044143 -0.012063 -0.041921 0.261905
 23 1.438886 0.000000 0.000000 0.000000 -0.000000 0.924779
 24 1.485303 0.000000 0.000000 0.000000 -0.000000 0.540939
 25 -3.186314 0.196501 -4.140396 -0.682918 1.249598 2.405077
 26 4.972048 0.000000 0.000001 0.277768 -0.425532 -1.388559
 27 11.585355 0.000000 0.000000 0.000000 -0.000000 -1.485248
 28 10.127057 0.000000 0.000001 2.082618 0.482901 0.607684
 29 2.683750 -0.427338 0.044205 0.001045 0.043611 0.000046
 30 1.438885 -0.000001 0.000000 0.000000 -0.000000 0.767689
 31 1.485305 0.000001 0.000000 0.000000 -0.000000 1.221538
end
