version 1
nodes
  0 "Bip01"  -1
  1 "Bip01 Pelvis"   0
  2 "Bip01 L Leg"   1
  3 "Bip01 L Leg1"   2
  4 "Bip01 L Foot"   3
  5 "Bip01 L Toe0"   4
  6 "Bip01 R Leg"   1
  7 "Bip01 R Leg1"   6
  8 "Bip01 R Foot"   7
  9 "Bip01 R Toe0"   8
 10 "Bip01 R Toe01"   9
 11 "Bip01 R Toe02"  10
 12 "Bip01 Spine"   1
 13 "Bip01 Spine1"  12
 14 "Bip01 Spine2"  13
 15 "Bip01 Spine3"  14
 16 "Bip01 Neck"  15
 17 "Bip01 Head"  16
 18 "Bip01 L Arm"  16
 19 "Bip01 L Arm1"  18
 20 "Bip01 L Arm2"  19
 21 "Bip01 L Hand"  20
 22 "Bip01 L Finger1"  21
 23 "Bip01 L Finger11"  22
 24 "Bip01 L Finger12"  23
 25 "Bip01 R Arm"  16
 26 "Bip01 R Arm1"  25
 27 "Bip01 R Arm2"  26
 28 "Bip01 R Hand"  27
 29 "Bip01 R Finger1"  28
 30 "Bip01 R Finger11"  29
 31 "Bip01 R Finger12"  30
end
skeleton
time 0
  0 0.235347 -0.235347 3.532833 -0.000000 -0.000000 -1.571254
  1 0.000000 0.000000 0.000000 -1.570795 -1.570796 0.000000
  2 -0.000005 0.000007 3.713255 -6.281131 3.115177 6.261712
  3 18.045721 0.000000 0.000000 0.000000 -0.000000 -0.121501
  4 17.597597 0.000000 0.000000 -0.002613 0.026036 0.099967
  5 3.793090 6.407221 0.000000 0.000000 -0.000000 1.570796
  6 0.000005 -0.000003 -3.713255 6.280565 -3.123995 6.258640
  7 18.045725 0.000000 0.000000 0.000000 -0.000000 -0.127551
  8 17.597597 0.000000 0.000000 0.002950 -0.017289 0.103055
  9 3.793090 6.407221 0.000000 0.000000 -0.000000 1.570796
 10 0.935740 0.000000 0.000000 0.000000 -0.000000 0.000000
 11 0.935741 0.000000 0.000000 0.000000 -0.000000 0.000000
 12 1.293670 0.684478 -0.000001 -0.000004 -0.000001 -0.130234
 13 5.309685 -0.003834 0.000000 0.000000 -0.000000 -0.087251
 14 4.826790 -0.004591 0.000000 -0.172575 -0.025479 -0.146170
 15 5.792767 -0.005304 0.000000 -0.136543 -0.028823 -0.207521
 16 6.662317 -0.001453 0.000000 0.000000 -0.000001 0.034722
 17 2.046985 -0.000002 0.000000 0.300719 0.088563 -0.020618
 18 -3.459691 0.060178 4.341911 1.021706 -1.200331 2.116509
 19 4.827230 0.000000 0.000001 -0.855262 0.632426 -1.291402
 20 11.139763 0.000000 0.000000 0.000000 -0.000000 -0.903742
 21 10.314597 0.000001 0.000000 -3.444010 0.558643 -0.152953
 22 2.975834 -0.386307 -0.044143 -0.000797 -0.043611 0.000035
 23 1.438886 0.000000 0.000000 0.000000 -0.000000 0.872170
 24 1.485303 0.000000 0.000000 0.000000 -0.000000 0.906977
 25 -3.186314 0.059778 -4.140396 -0.964881 1.228796 2.169421
 26 4.972048 0.000000 0.000001 -0.310747 -1.318508 -0.099764
 27 11.585355 0.000000 0.000000 0.000000 -0.000000 -1.922408
 28 10.127057 0.000000 0.000001 1.602686 0.604750 0.226374
 29 2.683750 -0.427338 0.044205 -0.005738 0.043239 -0.157060
 30 1.438885 -0.000001 0.000000 0.000000 -0.000000 0.732589
 31 1.485305 0.000001 0.000000 0.000000 -0.000000 1.168627
time 1
  0 0.235347 -0.235347 3.532833 -0.000000 -0.000000 -1.571254
  1 0.000000 0.000000 0.000000 -1.570795 -1.570796 0.000000
  2 -0.000005 0.000007 3.713255 -6.281131 3.115177 6.261712
  3 18.045721 0.000000 0.000000 0.000000 -0.000000 -0.121501
  4 17.597597 0.000000 0.000000 -0.002613 0.026036 0.099967
  5 3.793090 6.407221 0.000000 0.000000 -0.000000 1.570796
  6 0.000005 -0.000003 -3.713255 6.280565 -3.123995 6.258640
  7 18.045725 0.000000 0.000000 0.000000 -0.000000 -0.127551
  8 17.597597 0.000000 0.000000 0.002950 -0.017289 0.103055
  9 3.793090 6.407221 0.000000 0.000000 -0.000000 1.570796
 10 0.935740 0.000000 0.000000 0.000000 -0.000000 0.000000
 11 0.935741 0.000000 0.000000 0.000000 -0.000000 0.000000
 12 1.293670 0.684478 -0.000001 -0.000004 -0.000001 -0.130234
 13 5.309685 -0.003834 0.000000 0.000000 -0.000000 -0.087251
 14 4.826790 -0.004591 0.000000 -0.172575 -0.025479 -0.146170
 15 5.792767 -0.005304 0.000000 -0.136641 -0.028320 -0.203908
 16 6.662317 -0.001453 0.000000 0.000000 -0.000001 0.034722
 17 2.046985 -0.000002 0.000000 0.300719 0.088563 -0.024213
 18 -3.459691 0.060178 4.341911 1.013461 -1.198408 2.125042
 19 4.827230 0.000000 0.000001 -0.850798 0.627490 -1.289302
 20 11.139763 0.000000 0.000000 0.000000 -0.000000 -0.903742
 21 10.314597 0.000001 0.000000 -3.444010 0.558643 -0.152953
 22 2.975834 -0.386307 -0.044143 -0.000797 -0.043611 0.000035
 23 1.438886 0.000000 0.000000 0.000000 -0.000000 0.872170
 24 1.485303 0.000000 0.000000 0.000000 -0.000000 0.906977
 25 -3.186314 0.059778 -4.140396 -0.956540 1.226704 2.178433
 26 4.972048 0.000000 0.000001 -0.299221 -1.313440 -0.111621
 27 11.585355 0.000000 0.000000 0.000000 -0.000000 -1.922408
 28 10.127057 0.000000 0.000001 1.602686 0.604750 0.226374
 29 2.683750 -0.427338 0.044205 -0.005738 0.043239 -0.157060
 30 1.438885 -0.000001 0.000000 0.000000 -0.000000 0.732589
 31 1.485305 0.000001 0.000000 0.000000 -0.000000 1.168627
time 2
  0 0.235347 -0.235347 3.532833 -0.000000 -0.000000 -1.571254
  1 0.000000 0.000000 0.000000 -1.570795 -1.570796 0.000000
  2 -0.000005 0.000007 3.713255 -6.281131 3.115177 6.261712
  3 18.045721 0.000000 0.000000 0.000000 -0.000000 -0.121501
  4 17.597597 0.000000 0.000000 -0.002613 0.026036 0.099967
  5 3.793090 6.407221 0.000000 0.000000 -0.000000 1.570796
  6 0.000005 -0.000003 -3.713255 6.280565 -3.123995 6.258640
  7 18.045725 0.000000 0.000000 0.000000 -0.000000 -0.127551
  8 17.597597 0.000000 0.000000 0.002950 -0.017289 0.103055
  9 3.793090 6.407221 0.000000 0.000000 -0.000000 1.570796
 10 0.935740 0.000000 0.000000 0.000000 -0.000000 0.000000
 11 0.935741 0.000000 0.000000 0.000000 -0.000000 0.000000
 12 1.293670 0.684478 -0.000001 -0.000004 -0.000001 -0.130234
 13 5.309685 -0.003834 0.000000 0.000000 -0.000000 -0.087251
 14 4.826790 -0.004591 0.000000 -0.172575 -0.025479 -0.146170
 15 5.792767 -0.005304 0.000000 -0.136788 -0.027601 -0.198946
 16 6.662317 -0.001453 0.000000 0.000000 -0.000001 0.034722
 17 2.046985 -0.000002 0.000000 0.300719 0.088563 -0.029248
 18 -3.459691 0.060178 4.341911 1.002915 -1.195754 2.136643
 19 4.827230 0.000000 0.000001 -0.844748 0.621533 -1.286764
 20 11.139763 0.000000 0.000000 0.000000 -0.000000 -0.903742
 21 10.314597 0.000001 0.000000 -3.444010 0.558643 -0.152953
 22 2.975834 -0.386307 -0.044143 -0.000797 -0.043611 0.000035
 23 1.438886 0.000000 0.000000 0.000000 -0.000000 0.872170
 24 1.485303 0.000000 0.000000 0.000000 -0.000000 0.906977
 25 -3.186314 0.059778 -4.140396 -0.945227 1.223878 2.190513
 26 4.972048 0.000000 0.000001 -0.284137 -1.306683 -0.127101
 27 11.585355 0.000000 0.000000 0.000000 -0.000000 -1.922408
 28 10.127057 0.000000 0.000001 1.602686 0.604750 0.226374
 29 2.683750 -0.427338 0.044205 -0.005738 0.043239 -0.157060
 30 1.438885 -0.000001 0.000000 0.000000 -0.000000 0.732589
 31 1.485305 0.000001 0.000000 0.000000 -0.000000 1.168627
time 3
  0 0.235347 -0.235347 3.532833 -0.000000 -0.000000 -1.571254
  1 0.000000 0.000000 0.000000 -1.570795 -1.570796 0.000000
  2 -0.000005 0.000007 3.713255 -6.281131 3.115177 6.261712
  3 18.045721 0.000000 0.000000 0.000000 -0.000000 -0.121501
  4 17.597597 0.000000 0.000000 -0.002613 0.026036 0.099967
  5 3.793090 6.407221 0.000000 0.000000 -0.000000 1.570796
  6 0.000005 -0.000003 -3.713255 6.280565 -3.123995 6.258640
  7 18.045725 0.000000 0.000000 0.000000 -0.000000 -0.127551
  8 17.597597 0.000000 0.000000 0.002950 -0.017289 0.103055
  9 3.793090 6.407221 0.000000 0.000000 -0.000000 1.570796
 10 0.935740 0.000000 0.000000 0.000000 -0.000000 0.000000
 11 0.935741 0.000000 0.000000 0.000000 -0.000000 0.000000
 12 1.293670 0.684478 -0.000001 -0.000004 -0.000001 -0.130234
 13 5.309685 -0.003834 0.000000 0.000000 -0.000000 -0.087251
 14 4.826790 -0.004591 0.000000 -0.172575 -0.025479 -0.146170
 15 5.792767 -0.005304 0.000000 -0.136951 -0.026822 -0.193008
 16 6.662317 -0.001453 0.000000 0.000000 -0.000001 0.034722
 17 2.046985 -0.000002 0.000000 0.300719 0.088563 -0.035316
 18 -3.459691 0.060178 4.341911 0.990068 -1.192523 2.150066
 19 4.827230 0.000000 0.000001 -0.837406 0.613959 -1.283701
 20 11.139763 0.000000 0.000000 0.000000 -0.000000 -0.903742
 21 10.314597 0.000001 0.000000 -3.444010 0.558643 -0.152953
 22 2.975834 -0.386307 -0.044143 -0.000797 -0.043611 0.000035
 23 1.438886 0.000000 0.000000 0.000000 -0.000000 0.872170
 24 1.485303 0.000000 0.000000 0.000000 -0.000000 0.906977
 25 -3.186314 0.059778 -4.140396 -0.931613 1.220260 2.204798
 26 4.972048 0.000000 0.000001 -0.266964 -1.298156 -0.145150
 27 11.585355 0.000000 0.000000 0.000000 -0.000000 -1.922408
 28 10.127057 0.000000 0.000001 1.602686 0.604750 0.226374
 29 2.683750 -0.427338 0.044205 -0.005738 0.043239 -0.157060
 30 1.438885 -0.000001 0.000000 0.000000 -0.000000 0.732589
 31 1.485305 0.000001 0.000000 0.000000 -0.000000 1.168627
time 4
  0 0.235347 -0.235347 3.532833 -0.000000 -0.000000 -1.571254
  1 0.000000 0.000000 0.000000 -1.570795 -1.570796 0.000000
  2 -0.000005 0.000007 3.713255 -6.281131 3.115177 6.261712
  3 18.045721 0.000000 0.000000 0.000000 -0.000000 -0.121501
  4 17.597597 0.000000 0.000000 -0.002613 0.026036 0.099967
  5 3.793090 6.407221 0.000000 0.000000 -0.000000 1.570796
  6 0.000005 -0.000003 -3.713255 6.280565 -3.123995 6.258640
  7 18.045725 0.000000 0.000000 0.000000 -0.000000 -0.127551
  8 17.597597 0.000000 0.000000 0.002950 -0.017289 0.103055
  9 3.793090 6.407221 0.000000 0.000000 -0.000000 1.570796
 10 0.935740 0.000000 0.000000 0.000000 -0.000000 0.000000
 11 0.935741 0.000000 0.000000 0.000000 -0.000000 0.000000
 12 1.293670 0.684478 -0.000001 -0.000004 -0.000001 -0.130234
 13 5.309685 -0.003834 0.000000 0.000000 -0.000000 -0.087251
 14 4.826790 -0.004591 0.000000 -0.172575 -0.025479 -0.146170
 15 5.792767 -0.005304 0.000000 -0.137130 -0.025875 -0.186156
 16 6.662317 -0.001453 0.000000 0.000000 -0.000001 0.034722
 17 2.046985 -0.000002 0.000000 0.300719 0.088563 -0.042193
 18 -3.459691 0.060178 4.341911 0.975687 -1.188677 2.165502
 19 4.827230 0.000000 0.000001 -0.828948 0.604938 -1.280288
 20 11.139763 0.000000 0.000000 0.000000 -0.000000 -0.903742
 21 10.314597 0.000001 0.000000 -3.444010 0.558643 -0.152953
 22 2.975834 -0.386307 -0.044143 -0.000797 -0.043611 0.000035
 23 1.438886 0.000000 0.000000 0.000000 -0.000000 0.872170
 24 1.485303 0.000000 0.000000 0.000000 -0.000000 0.906977
 25 -3.186314 0.059778 -4.140396 -0.917040 1.216077 2.220713
 26 4.972048 0.000000 0.000001 -0.248554 -1.288423 -0.164253
 27 11.585355 0.000000 0.000000 0.000000 -0.000000 -1.922408
 28 10.127057 0.000000 0.000001 1.602686 0.604750 0.226374
 29 2.683750 -0.427338 0.044205 -0.005738 0.043239 -0.157060
 30 1.438885 -0.000001 0.000000 0.000000 -0.000000 0.732589
 31 1.485305 0.000001 0.000000 0.000000 -0.000000 1.168627
time 5
  0 0.235347 -0.235347 3.532833 -0.000000 -0.000000 -1.571254
  1 0.000000 0.000000 0.000000 -1.570795 -1.570796 0.000000
  2 -0.000005 0.000007 3.713255 -6.281131 3.115177 6.261712
  3 18.045721 0.000000 0.000000 0.000000 -0.000000 -0.121501
  4 17.597597 0.000000 0.000000 -0.002613 0.026036 0.099967
  5 3.793090 6.407221 0.000000 0.000000 -0.000000 1.570796
  6 0.000005 -0.000003 -3.713255 6.280565 -3.123995 6.258640
  7 18.045725 0.000000 0.000000 0.000000 -0.000000 -0.127551
  8 17.597597 0.000000 0.000000 0.002950 -0.017289 0.103055
  9 3.793090 6.407221 0.000000 0.000000 -0.000000 1.570796
 10 0.935740 0.000000 0.000000 0.000000 -0.000000 0.000000
 11 0.935741 0.000000 0.000000 0.000000 -0.000000 0.000000
 12 1.293670 0.684478 -0.000001 -0.000004 -0.000001 -0.130234
 13 5.309685 -0.003834 0.000000 0.000000 -0.000000 -0.087251
 14 4.826790 -0.004591 0.000000 -0.172575 -0.025479 -0.146170
 15 5.792767 -0.005304 0.000000 -0.137310 -0.024796 -0.178702
 16 6.662317 -0.001453 0.000000 0.000000 -0.000001 0.034722
 17 2.046985 -0.000002 0.000000 0.300719 0.088563 -0.049744
 18 -3.459691 0.060178 4.341911 0.960539 -1.184446 2.182184
 19 4.827230 0.000000 0.000001 -0.820079 0.595407 -1.276963
 20 11.139763 0.000000 0.000000 0.000000 -0.000000 -0.903742
 21 10.314597 0.000001 0.000000 -3.444010 0.558643 -0.152953
 22 2.975834 -0.386307 -0.044143 -0.000797 -0.043611 0.000035
 23 1.438886 0.000000 0.000000 0.000000 -0.000000 0.872170
 24 1.485303 0.000000 0.000000 0.000000 -0.000000 0.906977
 25 -3.186314 0.059778 -4.140396 -0.901125 1.211470 2.237395
 26 4.972048 0.000000 0.000001 -0.229834 -1.277885 -0.183751
 27 11.585355 0.000000 0.000000 0.000000 -0.000000 -1.922408
 28 10.127057 0.000000 0.000001 1.602686 0.604750 0.226374
 29 2.683750 -0.427338 0.044205 -0.005738 0.043239 -0.157060
 30 1.438885 -0.000001 0.000000 0.000000 -0.000000 0.732589
 31 1.485305 0.000001 0.000000 0.000000 -0.000000 1.168627
time 6
  0 0.235347 -0.235347 3.532833 -0.000000 -0.000000 -1.571254
  1 0.000000 0.000000 0.000000 -1.570795 -1.570796 0.000000
  2 -0.000005 0.000007 3.713255 -6.281131 3.115177 6.261712
  3 18.045721 0.000000 0.000000 0.000000 -0.000000 -0.121501
  4 17.597597 0.000000 0.000000 -0.002613 0.026036 0.099967
  5 3.793090 6.407221 0.000000 0.000000 -0.000000 1.570796
  6 0.000005 -0.000003 -3.713255 6.280565 -3.123995 6.258640
  7 18.045725 0.000000 0.000000 0.000000 -0.000000 -0.127551
  8 17.597597 0.000000 0.000000 0.002950 -0.017289 0.103055
  9 3.793090 6.407221 0.000000 0.000000 -0.000000 1.570796
 10 0.935740 0.000000 0.000000 0.000000 -0.000000 0.000000
 11 0.935741 0.000000 0.000000 0.000000 -0.000000 0.000000
 12 1.293670 0.684478 -0.000001 -0.000004 -0.000001 -0.130234
 13 5.309685 -0.003834 0.000000 0.000000 -0.000000 -0.087251
 14 4.826790 -0.004591 0.000000 -0.172575 -0.025479 -0.146170
 15 5.792767 -0.005304 0.000000 -0.137505 -0.023718 -0.170854
 16 6.662317 -0.001453 0.000000 0.000000 -0.000001 0.034722
 17 2.046985 -0.000002 0.000000 0.300719 0.088563 -0.057655
 18 -3.459691 0.060178 4.341911 0.944720 -1.179792 2.199250
 19 4.827230 0.000000 0.000001 -0.810681 0.585365 -1.273375
 20 11.139763 0.000000 0.000000 0.000000 -0.000000 -0.903742
 21 10.314597 0.000001 0.000000 -3.444010 0.558643 -0.152953
 22 2.975834 -0.386307 -0.044143 -0.000797 -0.043611 0.000035
 23 1.438886 0.000000 0.000000 0.000000 -0.000000 0.872170
 24 1.485303 0.000000 0.000000 0.000000 -0.000000 0.906977
 25 -3.186314 0.059778 -4.140396 -0.884731 1.206552 2.254844
 26 4.972048 0.000000 0.000001 -0.211733 -1.266623 -0.202525
 27 11.585355 0.000000 0.000000 0.000000 -0.000000 -1.922408
 28 10.127057 0.000000 0.000001 1.602686 0.604750 0.226374
 29 2.683750 -0.427338 0.044205 -0.005738 0.043239 -0.157060
 30 1.438885 -0.000001 0.000000 0.000000 -0.000000 0.732589
 31 1.485305 0.000001 0.000000 0.000000 -0.000000 1.168627
time 7
  0 0.235347 -0.235347 3.532833 -0.000000 -0.000000 -1.571254
  1 0.000000 0.000000 0.000000 -1.570795 -1.570796 0.000000
  2 -0.000005 0.000007 3.713255 -6.281131 3.115177 6.261712
  3 18.045721 0.000000 0.000000 0.000000 -0.000000 -0.121501
  4 17.597597 0.000000 0.000000 -0.002613 0.026036 0.099967
  5 3.793090 6.407221 0.000000 0.000000 -0.000000 1.570796
  6 0.000005 -0.000003 -3.713255 6.280565 -3.123995 6.258640
  7 18.045725 0.000000 0.000000 0.000000 -0.000000 -0.127551
  8 17.597597 0.000000 0.000000 0.002950 -0.017289 0.103055
  9 3.793090 6.407221 0.000000 0.000000 -0.000000 1.570796
 10 0.935740 0.000000 0.000000 0.000000 -0.000000 0.000000
 11 0.935741 0.000000 0.000000 0.000000 -0.000000 0.000000
 12 1.293670 0.684478 -0.000001 -0.000004 -0.000001 -0.130234
 13 5.309685 -0.003834 0.000000 0.000000 -0.000000 -0.087251
 14 4.826790 -0.004591 0.000000 -0.172575 -0.025479 -0.146170
 15 5.792767 -0.005304 0.000000 -0.137685 -0.022663 -0.162860
 16 6.662317 -0.001453 0.000000 0.000000 -0.000001 0.034722
 17 2.046985 -0.000002 0.000000 0.300719 0.088563 -0.065520
 18 -3.459691 0.060178 4.341911 0.928805 -1.175061 2.216316
 19 4.827230 0.000000 0.000001 -0.801283 0.575153 -1.270137
 20 11.139763 0.000000 0.000000 0.000000 -0.000000 -0.903742
 21 10.314597 0.000001 0.000000 -3.444010 0.558643 -0.152953
 22 2.975834 -0.386307 -0.044143 -0.000797 -0.043611 0.000035
 23 1.438886 0.000000 0.000000 0.000000 -0.000000 0.872170
 24 1.485303 0.000000 0.000000 0.000000 -0.000000 0.906977
 25 -3.186314 0.059778 -4.140396 -0.868624 1.201408 2.272101
 26 4.972048 0.000000 0.000001 -0.194792 -1.254959 -0.220640
 27 11.585355 0.000000 0.000000 0.000000 -0.000000 -1.922408
 28 10.127057 0.000000 0.000001 1.602686 0.604750 0.226374
 29 2.683750 -0.427338 0.044205 -0.005738 0.043239 -0.157060
 30 1.438885 -0.000001 0.000000 0.000000 -0.000000 0.732589
 31 1.485305 0.000001 0.000000 0.000000 -0.000000 1.168627
time 8
  0 0.235347 -0.235347 3.532833 -0.000000 -0.000000 -1.571254
  1 0.000000 0.000000 0.000000 -1.570795 -1.570796 0.000000
  2 -0.000005 0.000007 3.713255 -6.281131 3.115177 6.261712
  3 18.045721 0.000000 0.000000 0.000000 -0.000000 -0.121501
  4 17.597597 0.000000 0.000000 -0.002613 0.026036 0.099967
  5 3.793090 6.407221 0.000000 0.000000 -0.000000 1.570796
  6 0.000005 -0.000003 -3.713255 6.280565 -3.123995 6.258640
  7 18.045725 0.000000 0.000000 0.000000 -0.000000 -0.127551
  8 17.597597 0.000000 0.000000 0.002950 -0.017289 0.103055
  9 3.793090 6.407221 0.000000 0.000000 -0.000000 1.570796
 10 0.935740 0.000000 0.000000 0.000000 -0.000000 0.000000
 11 0.935741 0.000000 0.000000 0.000000 -0.000000 0.000000
 12 1.293670 0.684478 -0.000001 -0.000004 -0.000001 -0.130234
 13 5.309685 -0.003834 0.000000 0.000000 -0.000000 -0.087251
 14 4.826790 -0.004591 0.000000 -0.172575 -0.025479 -0.146170
 15 5.792767 -0.005304 0.000000 -0.137864 -0.021512 -0.154929
 16 6.662317 -0.001453 0.000000 0.000000 -0.000001 0.034722
 17 2.046985 -0.000002 0.000000 0.300719 0.088563 -0.073521
 18 -3.459691 0.060178 4.341911 0.913753 -1.170215 2.232519
 19 4.827230 0.000000 0.000001 -0.792003 0.565026 -1.266899
 20 11.139763 0.000000 0.000000 0.000000 -0.000000 -0.903742
 21 10.314597 0.000001 0.000000 -3.444010 0.558643 -0.152953
 22 2.975834 -0.386307 -0.044143 -0.000797 -0.043611 0.000035
 23 1.438886 0.000000 0.000000 0.000000 -0.000000 0.872170
 24 1.485303 0.000000 0.000000 0.000000 -0.000000 0.906977
 25 -3.186314 0.059778 -4.140396 -0.852997 1.196179 2.288783
 26 4.972048 0.000000 0.000001 -0.179089 -1.243456 -0.237569
 27 11.585355 0.000000 0.000000 0.000000 -0.000000 -1.922408
 28 10.127057 0.000000 0.000001 1.602686 0.604750 0.226374
 29 2.683750 -0.427338 0.044205 -0.005738 0.043239 -0.157060
 30 1.438885 -0.000001 0.000000 0.000000 -0.000000 0.732589
 31 1.485305 0.000001 0.000000 0.000000 -0.000000 1.168627
time 9
  0 0.235347 -0.235347 3.532833 -0.000000 -0.000000 -1.571254
  1 0.000000 0.000000 0.000000 -1.570795 -1.570796 0.000000
  2 -0.000005 0.000007 3.713255 -6.281131 3.115177 6.261712
  3 18.045721 0.000000 0.000000 0.000000 -0.000000 -0.121501
  4 17.597597 0.000000 0.000000 -0.002613 0.026036 0.099967
  5 3.793090 6.407221 0.000000 0.000000 -0.000000 1.570796
  6 0.000005 -0.000003 -3.713255 6.280565 -3.123995 6.258640
  7 18.045725 0.000000 0.000000 0.000000 -0.000000 -0.127551
  8 17.597597 0.000000 0.000000 0.002950 -0.017289 0.103055
  9 3.793090 6.407221 0.000000 0.000000 -0.000000 1.570796
 10 0.935740 0.000000 0.000000 0.000000 -0.000000 0.000000
 11 0.935741 0.000000 0.000000 0.000000 -0.000000 0.000000
 12 1.293670 0.684478 -0.000001 -0.000004 -0.000001 -0.130234
 13 5.309685 -0.003834 0.000000 0.000000 -0.000000 -0.087251
 14 4.826790 -0.004591 0.000000 -0.172575 -0.025479 -0.146170
 15 5.792767 -0.005304 0.000000 -0.138027 -0.020506 -0.147309
 16 6.662317 -0.001453 0.000000 0.000000 -0.000001 0.034722
 17 2.046985 -0.000002 0.000000 0.300719 0.088563 -0.081207
 18 -3.459691 0.060178 4.341911 0.899372 -1.165484 2.248051
 19 4.827230 0.000000 0.000001 -0.783075 0.555580 -1.264186
 20 11.139763 0.000000 0.000000 0.000000 -0.000000 -0.903742
 21 10.314597 0.000001 0.000000 -3.444010 0.558643 -0.152953
 22 2.975834 -0.386307 -0.044143 -0.000797 -0.043611 0.000035
 23 1.438886 0.000000 0.000000 0.000000 -0.000000 0.872170
 24 1.485303 0.000000 0.000000 0.000000 -0.000000 0.906977
 25 -3.186314 0.059778 -4.140396 -0.838616 1.191035 2.304602
 26 4.972048 0.000000 0.000001 -0.165088 -1.232194 -0.252588
 27 11.585355 0.000000 0.000000 0.000000 -0.000000 -1.922408
 28 10.127057 0.000000 0.000001 1.602686 0.604750 0.226374
 29 2.683750 -0.427338 0.044205 -0.005738 0.043239 -0.157060
 30 1.438885 -0.000001 0.000000 0.000000 -0.000000 0.732589
 31 1.485305 0.000001 0.000000 0.000000 -0.000000 1.168627
time 10
  0 0.235347 -0.235347 3.532833 -0.000000 -0.000000 -1.571254
  1 0.000000 0.000000 0.000000 -1.570795 -1.570796 0.000000
  2 -0.000005 0.000007 3.713255 -6.281131 3.115177 6.261712
  3 18.045721 0.000000 0.000000 0.000000 -0.000000 -0.121501
  4 17.597597 0.000000 0.000000 -0.002613 0.026036 0.099967
  5 3.793090 6.407221 0.000000 0.000000 -0.000000 1.570796
  6 0.000005 -0.000003 -3.713255 6.280565 -3.123995 6.258640
  7 18.045725 0.000000 0.000000 0.000000 -0.000000 -0.127551
  8 17.597597 0.000000 0.000000 0.002950 -0.017289 0.103055
  9 3.793090 6.407221 0.000000 0.000000 -0.000000 1.570796
 10 0.935740 0.000000 0.000000 0.000000 -0.000000 0.000000
 11 0.935741 0.000000 0.000000 0.000000 -0.000000 0.000000
 12 1.293670 0.684478 -0.000001 -0.000004 -0.000001 -0.130234
 13 5.309685 -0.003834 0.000000 0.000000 -0.000000 -0.087251
 14 4.826790 -0.004591 0.000000 -0.172575 -0.025479 -0.146170
 15 5.792767 -0.005304 0.000000 -0.138174 -0.019523 -0.140229
 16 6.662317 -0.001453 0.000000 0.000000 -0.000001 0.034722
 17 2.046985 -0.000002 0.000000 0.300719 0.088563 -0.088534
 18 -3.459691 0.060178 4.341911 0.886525 -1.160984 2.261953
 19 4.827230 0.000000 0.000001 -0.775087 0.546304 -1.261648
 20 11.139763 0.000000 0.000000 0.000000 -0.000000 -0.903742
 21 10.314597 0.000001 0.000000 -3.444010 0.558643 -0.152953
 22 2.975834 -0.386307 -0.044143 -0.000797 -0.043611 0.000035
 23 1.438886 0.000000 0.000000 0.000000 -0.000000 0.872170
 24 1.485303 0.000000 0.000000 0.000000 -0.000000 0.906977
 25 -3.186314 0.059778 -4.140396 -0.825481 1.186230 2.318887
 26 4.972048 0.000000 0.000001 -0.153098 -1.221737 -0.265565
 27 11.585355 0.000000 0.000000 0.000000 -0.000000 -1.922408
 28 10.127057 0.000000 0.000001 1.602686 0.604750 0.226374
 29 2.683750 -0.427338 0.044205 -0.005738 0.043239 -0.157060
 30 1.438885 -0.000001 0.000000 0.000000 -0.000000 0.732589
 31 1.485305 0.000001 0.000000 0.000000 -0.000000 1.168627
time 11
  0 0.235347 -0.235347 3.532833 -0.000000 -0.000000 -1.571254
  1 0.000000 0.000000 0.000000 -1.570795 -1.570796 0.000000
  2 -0.000005 0.000007 3.713255 -6.281131 3.115177 6.261712
  3 18.045721 0.000000 0.000000 0.000000 -0.000000 -0.121501
  4 17.597597 0.000000 0.000000 -0.002613 0.026036 0.099967
  5 3.793090 6.407221 0.000000 0.000000 -0.000000 1.570796
  6 0.000005 -0.000003 -3.713255 6.280565 -3.123995 6.258640
  7 18.045725 0.000000 0.000000 0.000000 -0.000000 -0.127551
  8 17.597597 0.000000 0.000000 0.002950 -0.017289 0.103055
  9 3.793090 6.407221 0.000000 0.000000 -0.000000 1.570796
 10 0.935740 0.000000 0.000000 0.000000 -0.000000 0.000000
 11 0.935741 0.000000 0.000000 0.000000 -0.000000 0.000000
 12 1.293670 0.684478 -0.000001 -0.000004 -0.000001 -0.130234
 13 5.309685 -0.003834 0.000000 0.000000 -0.000000 -0.087251
 14 4.826790 -0.004591 0.000000 -0.172575 -0.025479 -0.146170
 15 5.792767 -0.005304 0.000000 -0.138288 -0.018600 -0.133979
 16 6.662317 -0.001453 0.000000 0.000000 -0.000001 0.034722
 17 2.046985 -0.000002 0.000000 0.300719 0.088563 -0.094691
 18 -3.459691 0.060178 4.341911 0.875691 -1.156945 2.274225
 19 4.827230 0.000000 0.000001 -0.767921 0.538049 -1.259548
 20 11.139763 0.000000 0.000000 0.000000 -0.000000 -0.903742
 21 10.314597 0.000001 0.000000 -3.444010 0.558643 -0.152953
 22 2.975834 -0.386307 -0.044143 -0.000797 -0.043611 0.000035
 23 1.438886 0.000000 0.000000 0.000000 -0.000000 0.872170
 24 1.485303 0.000000 0.000000 0.000000 -0.000000 0.906977
 25 -3.186314 0.059778 -4.140396 -0.813689 1.181934 2.330967
 26 4.972048 0.000000 0.000001 -0.143042 -1.212245 -0.276829
 27 11.585355 0.000000 0.000000 0.000000 -0.000000 -1.922408
 28 10.127057 0.000000 0.000001 1.602686 0.604750 0.226374
 29 2.683750 -0.427338 0.044205 -0.005738 0.043239 -0.157060
 30 1.438885 -0.000001 0.000000 0.000000 -0.000000 0.732589
 31 1.485305 0.000001 0.000000 0.000000 -0.000000 1.168627
time 12
  0 0.235347 -0.235347 3.532833 -0.000000 -0.000000 -1.571254
  1 0.000000 0.000000 0.000000 -1.570795 -1.570796 0.000000
  2 -0.000005 0.000007 3.713255 -6.281131 3.115177 6.261712
  3 18.045721 0.000000 0.000000 0.000000 -0.000000 -0.121501
  4 17.597597 0.000000 0.000000 -0.002613 0.026036 0.099967
  5 3.793090 6.407221 0.000000 0.000000 -0.000000 1.570796
  6 0.000005 -0.000003 -3.713255 6.280565 -3.123995 6.258640
  7 18.045725 0.000000 0.000000 0.000000 -0.000000 -0.127551
  8 17.597597 0.000000 0.000000 0.002950 -0.017289 0.103055
  9 3.793090 6.407221 0.000000 0.000000 -0.000000 1.570796
 10 0.935740 0.000000 0.000000 0.000000 -0.000000 0.000000
 11 0.935741 0.000000 0.000000 0.000000 -0.000000 0.000000
 12 1.293670 0.684478 -0.000001 -0.000004 -0.000001 -0.130234
 13 5.309685 -0.003834 0.000000 0.000000 -0.000000 -0.087251
 14 4.826790 -0.004591 0.000000 -0.172575 -0.025479 -0.146170
 15 5.792767 -0.005304 0.000000 -0.138386 -0.017905 -0.128664
 16 6.662317 -0.001453 0.000000 0.000000 -0.000001 0.034722
 17 2.046985 -0.000002 0.000000 0.300719 0.088563 -0.100040
 18 -3.459691 0.060178 4.341911 0.866104 -1.153522 2.284292
 19 4.827230 0.000000 0.000001 -0.761930 0.531241 -1.257973
 20 11.139763 0.000000 0.000000 0.000000 -0.000000 -0.903742
 21 10.314597 0.000001 0.000000 -3.444010 0.558643 -0.152953
 22 2.975834 -0.386307 -0.044143 -0.000797 -0.043611 0.000035
 23 1.438886 0.000000 0.000000 0.000000 -0.000000 0.872170
 24 1.485303 0.000000 0.000000 0.000000 -0.000000 0.906977
 25 -3.186314 0.059778 -4.140396 -0.804677 1.178203 2.341034
 26 4.972048 0.000000 0.000001 -0.134997 -1.204281 -0.285722
 27 11.585355 0.000000 0.000000 0.000000 -0.000000 -1.922408
 28 10.127057 0.000000 0.000001 1.602686 0.604750 0.226374
 29 2.683750 -0.427338 0.044205 -0.005738 0.043239 -0.157060
 30 1.438885 -0.000001 0.000000 0.000000 -0.000000 0.732589
 31 1.485305 0.000001 0.000000 0.000000 -0.000000 1.168627
time 13
  0 0.235347 -0.235347 3.532833 -0.000000 -0.000000 -1.571254
  1 0.000000 0.000000 0.000000 -1.570795 -1.570796 0.000000
  2 -0.000005 0.000007 3.713255 -6.281131 3.115177 6.261712
  3 18.045721 0.000000 0.000000 0.000000 -0.000000 -0.121501
  4 17.597597 0.000000 0.000000 -0.002613 0.026036 0.099967
  5 3.793090 6.407221 0.000000 0.000000 -0.000000 1.570796
  6 0.000005 -0.000003 -3.713255 6.280565 -3.123995 6.258640
  7 18.045725 0.000000 0.000000 0.000000 -0.000000 -0.127551
  8 17.597597 0.000000 0.000000 0.002950 -0.017289 0.103055
  9 3.793090 6.407221 0.000000 0.000000 -0.000000 1.570796
 10 0.935740 0.000000 0.000000 0.000000 -0.000000 0.000000
 11 0.935741 0.000000 0.000000 0.000000 -0.000000 0.000000
 12 1.293670 0.684478 -0.000001 -0.000004 -0.000001 -0.130234
 13 5.309685 -0.003834 0.000000 0.000000 -0.000000 -0.087251
 14 4.826790 -0.004591 0.000000 -0.172575 -0.025479 -0.146170
 15 5.792767 -0.005304 0.000000 -0.138451 -0.017342 -0.124553
 16 6.662317 -0.001453 0.000000 0.000000 -0.000001 0.034722
 17 2.046985 -0.000002 0.000000 0.300719 0.088563 -0.104175
 18 -3.459691 0.060178 4.341911 0.859393 -1.150868 2.292058
 19 4.827230 0.000000 0.000001 -0.757231 0.526050 -1.256660
 20 11.139763 0.000000 0.000000 0.000000 -0.000000 -0.903742
 21 10.314597 0.000001 0.000000 -3.444010 0.558643 -0.152953
 22 2.975834 -0.386307 -0.044143 -0.000797 -0.043611 0.000035
 23 1.438886 0.000000 0.000000 0.000000 -0.000000 0.872170
 24 1.485303 0.000000 0.000000 0.000000 -0.000000 0.906977
 25 -3.186314 0.059778 -4.140396 -0.797582 1.175405 2.349087
 26 4.972048 0.000000 0.000001 -0.129118 -1.198248 -0.292441
 27 11.585355 0.000000 0.000000 0.000000 -0.000000 -1.922408
 28 10.127057 0.000000 0.000001 1.602686 0.604750 0.226374
 29 2.683750 -0.427338 0.044205 -0.005738 0.043239 -0.157060
 30 1.438885 -0.000001 0.000000 0.000000 -0.000000 0.732589
 31 1.485305 0.000001 0.000000 0.000000 -0.000000 1.168627
time 14
  0 0.235347 -0.235347 3.532833 -0.000000 -0.000000 -1.571254
  1 0.000000 0.000000 0.000000 -1.570795 -1.570796 0.000000
  2 -0.000005 0.000007 3.713255 -6.281131 3.115177 6.261712
  3 18.045721 0.000000 0.000000 0.000000 -0.000000 -0.121501
  4 17.597597 0.000000 0.000000 -0.002613 0.026036 0.099967
  5 3.793090 6.407221 0.000000 0.000000 -0.000000 1.570796
  6 0.000005 -0.000003 -3.713255 6.280565 -3.123995 6.258640
  7 18.045725 0.000000 0.000000 0.000000 -0.000000 -0.127551
  8 17.597597 0.000000 0.000000 0.002950 -0.017289 0.103055
  9 3.793090 6.407221 0.000000 0.000000 -0.000000 1.570796
 10 0.935740 0.000000 0.000000 0.000000 -0.000000 0.000000
 11 0.935741 0.000000 0.000000 0.000000 -0.000000 0.000000
 12 1.293670 0.684478 -0.000001 -0.000004 -0.000001 -0.130234
 13 5.309685 -0.003834 0.000000 0.000000 -0.000000 -0.087251
 14 4.826790 -0.004591 0.000000 -0.172575 -0.025479 -0.146170
 15 5.792767 -0.005304 0.000000 -0.138500 -0.016922 -0.121937
 16 6.662317 -0.001453 0.000000 0.000000 -0.000001 0.034722
 17 2.046985 -0.000002 0.000000 0.300719 0.088563 -0.106782
 18 -3.459691 0.060178 4.341911 0.854791 -1.149099 2.296852
 19 4.827230 0.000000 0.000001 -0.754353 0.522731 -1.255960
 20 11.139763 0.000000 0.000000 0.000000 -0.000000 -0.903742
 21 10.314597 0.000001 0.000000 -3.444010 0.558643 -0.152953
 22 2.975834 -0.386307 -0.044143 -0.000797 -0.043611 0.000035
 23 1.438886 0.000000 0.000000 0.000000 -0.000000 0.872170
 24 1.485303 0.000000 0.000000 0.000000 -0.000000 0.906977
 25 -3.186314 0.059778 -4.140396 -0.793076 1.173483 2.353689
 26 4.972048 0.000000 0.000001 -0.125405 -1.194226 -0.296591
 27 11.585355 0.000000 0.000000 0.000000 -0.000000 -1.922408
 28 10.127057 0.000000 0.000001 1.602686 0.604750 0.226374
 29 2.683750 -0.427338 0.044205 -0.005738 0.043239 -0.157060
 30 1.438885 -0.000001 0.000000 0.000000 -0.000000 0.732589
 31 1.485305 0.000001 0.000000 0.000000 -0.000000 1.168627
time 15
  0 0.235347 -0.235347 3.532833 -0.000000 -0.000000 -1.571254
  1 0.000000 0.000000 0.000000 -1.570795 -1.570796 0.000000
  2 -0.000005 0.000007 3.713255 -6.281131 3.115177 6.261712
  3 18.045721 0.000000 0.000000 0.000000 -0.000000 -0.121501
  4 17.597597 0.000000 0.000000 -0.002613 0.026036 0.099967
  5 3.793090 6.407221 0.000000 0.000000 -0.000000 1.570796
  6 0.000005 -0.000003 -3.713255 6.280565 -3.123995 6.258640
  7 18.045725 0.000000 0.000000 0.000000 -0.000000 -0.127551
  8 17.597597 0.000000 0.000000 0.002950 -0.017289 0.103055
  9 3.793090 6.407221 0.000000 0.000000 -0.000000 1.570796
 10 0.935740 0.000000 0.000000 0.000000 -0.000000 0.000000
 11 0.935741 0.000000 0.000000 0.000000 -0.000000 0.000000
 12 1.293670 0.684478 -0.000001 -0.000004 -0.000001 -0.130234
 13 5.309685 -0.003834 0.000000 0.000000 -0.000000 -0.087251
 14 4.826790 -0.004591 0.000000 -0.172575 -0.025479 -0.146170
 15 5.792767 -0.005304 0.000000 -0.138516 -0.016802 -0.121044
 16 6.662317 -0.001453 0.000000 0.000000 -0.000001 0.034722
 17 2.046985 -0.000002 0.000000 0.300719 0.088563 -0.107726
 18 -3.459691 0.060178 4.341911 0.853257 -1.148522 2.298578
 19 4.827230 0.000000 0.000001 -0.753237 0.521795 -1.255610
 20 11.139763 0.000000 0.000000 0.000000 -0.000000 -0.903742
 21 10.314597 0.000001 0.000000 -3.444010 0.558643 -0.152953
 22 2.975834 -0.386307 -0.044143 -0.000797 -0.043611 0.000035
 23 1.438886 0.000000 0.000000 0.000000 -0.000000 0.872170
 24 1.485303 0.000000 0.000000 0.000000 -0.000000 0.906977
 25 -3.186314 0.059778 -4.140396 -0.791542 1.172833 2.355319
 26 4.972048 0.000000 0.000001 -0.124090 -1.192939 -0.298040
 27 11.585355 0.000000 0.000000 0.000000 -0.000000 -1.922408
 28 10.127057 0.000000 0.000001 1.602686 0.604750 0.226374
 29 2.683750 -0.427338 0.044205 -0.005738 0.043239 -0.157060
 30 1.438885 -0.000001 0.000000 0.000000 -0.000000 0.732589
 31 1.485305 0.000001 0.000000 0.000000 -0.000000 1.168627
time 16
  0 0.235347 -0.235347 3.532833 -0.000000 -0.000000 -1.571254
  1 0.000000 0.000000 0.000000 -1.570795 -1.570796 0.000000
  2 -0.000005 0.000007 3.713255 -6.281131 3.115177 6.261712
  3 18.045721 0.000000 0.000000 0.000000 -0.000000 -0.121501
  4 17.597597 0.000000 0.000000 -0.002613 0.026036 0.099967
  5 3.793090 6.407221 0.000000 0.000000 -0.000000 1.570796
  6 0.000005 -0.000003 -3.713255 6.280565 -3.123995 6.258640
  7 18.045725 0.000000 0.000000 0.000000 -0.000000 -0.127551
  8 17.597597 0.000000 0.000000 0.002950 -0.017289 0.103055
  9 3.793090 6.407221 0.000000 0.000000 -0.000000 1.570796
 10 0.935740 0.000000 0.000000 0.000000 -0.000000 0.000000
 11 0.935741 0.000000 0.000000 0.000000 -0.000000 0.000000
 12 1.293670 0.684478 -0.000001 -0.000004 -0.000001 -0.130234
 13 5.309685 -0.003834 0.000000 0.000000 -0.000000 -0.087251
 14 4.826790 -0.004591 0.000000 -0.172575 -0.025479 -0.146170
 15 5.792767 -0.005304 0.000000 -0.138500 -0.016922 -0.121937
 16 6.662317 -0.001453 0.000000 0.000000 -0.000001 0.034722
 17 2.046985 -0.000002 0.000000 0.300719 0.088563 -0.106782
 18 -3.459691 0.060178 4.341911 0.854791 -1.149099 2.296852
 19 4.827230 0.000000 0.000001 -0.754353 0.522731 -1.255960
 20 11.139763 0.000000 0.000000 0.000000 -0.000000 -0.903742
 21 10.314597 0.000001 0.000000 -3.444010 0.558643 -0.152953
 22 2.975834 -0.386307 -0.044143 -0.000797 -0.043611 0.000035
 23 1.438886 0.000000 0.000000 0.000000 -0.000000 0.872170
 24 1.485303 0.000000 0.000000 0.000000 -0.000000 0.906977
 25 -3.186314 0.059778 -4.140396 -0.793076 1.173483 2.353689
 26 4.972048 0.000000 0.000001 -0.125405 -1.194226 -0.296591
 27 11.585355 0.000000 0.000000 0.000000 -0.000000 -1.922408
 28 10.127057 0.000000 0.000001 1.602686 0.604750 0.226374
 29 2.683750 -0.427338 0.044205 -0.005738 0.043239 -0.157060
 30 1.438885 -0.000001 0.000000 0.000000 -0.000000 0.732589
 31 1.485305 0.000001 0.000000 0.000000 -0.000000 1.168627
time 17
  0 0.235347 -0.235347 3.532833 -0.000000 -0.000000 -1.571254
  1 0.000000 0.000000 0.000000 -1.570795 -1.570796 0.000000
  2 -0.000005 0.000007 3.713255 -6.281131 3.115177 6.261712
  3 18.045721 0.000000 0.000000 0.000000 -0.000000 -0.121501
  4 17.597597 0.000000 0.000000 -0.002613 0.026036 0.099967
  5 3.793090 6.407221 0.000000 0.000000 -0.000000 1.570796
  6 0.000005 -0.000003 -3.713255 6.280565 -3.123995 6.258640
  7 18.045725 0.000000 0.000000 0.000000 -0.000000 -0.127551
  8 17.597597 0.000000 0.000000 0.002950 -0.017289 0.103055
  9 3.793090 6.407221 0.000000 0.000000 -0.000000 1.570796
 10 0.935740 0.000000 0.000000 0.000000 -0.000000 0.000000
 11 0.935741 0.000000 0.000000 0.000000 -0.000000 0.000000
 12 1.293670 0.684478 -0.000001 -0.000004 -0.000001 -0.130234
 13 5.309685 -0.003834 0.000000 0.000000 -0.000000 -0.087251
 14 4.826790 -0.004591 0.000000 -0.172575 -0.025479 -0.146170
 15 5.792767 -0.005304 0.000000 -0.138451 -0.017342 -0.124553
 16 6.662317 -0.001453 0.000000 0.000000 -0.000001 0.034722
 17 2.046985 -0.000002 0.000000 0.300719 0.088563 -0.104175
 18 -3.459691 0.060178 4.341911 0.859393 -1.150868 2.292058
 19 4.827230 0.000000 0.000001 -0.757231 0.526050 -1.256660
 20 11.139763 0.000000 0.000000 0.000000 -0.000000 -0.903742
 21 10.314597 0.000001 0.000000 -3.444010 0.558643 -0.152953
 22 2.975834 -0.386307 -0.044143 -0.000797 -0.043611 0.000035
 23 1.438886 0.000000 0.000000 0.000000 -0.000000 0.872170
 24 1.485303 0.000000 0.000000 0.000000 -0.000000 0.906977
 25 -3.186314 0.059778 -4.140396 -0.797582 1.175405 2.349087
 26 4.972048 0.000000 0.000001 -0.129118 -1.198248 -0.292441
 27 11.585355 0.000000 0.000000 0.000000 -0.000000 -1.922408
 28 10.127057 0.000000 0.000001 1.602686 0.604750 0.226374
 29 2.683750 -0.427338 0.044205 -0.005738 0.043239 -0.157060
 30 1.438885 -0.000001 0.000000 0.000000 -0.000000 0.732589
 31 1.485305 0.000001 0.000000 0.000000 -0.000000 1.168627
time 18
  0 0.235347 -0.235347 3.532833 -0.000000 -0.000000 -1.571254
  1 0.000000 0.000000 0.000000 -1.570795 -1.570796 0.000000
  2 -0.000005 0.000007 3.713255 -6.281131 3.115177 6.261712
  3 18.045721 0.000000 0.000000 0.000000 -0.000000 -0.121501
  4 17.597597 0.000000 0.000000 -0.002613 0.026036 0.099967
  5 3.793090 6.407221 0.000000 0.000000 -0.000000 1.570796
  6 0.000005 -0.000003 -3.713255 6.280565 -3.123995 6.258640
  7 18.045725 0.000000 0.000000 0.000000 -0.000000 -0.127551
  8 17.597597 0.000000 0.000000 0.002950 -0.017289 0.103055
  9 3.793090 6.407221 0.000000 0.000000 -0.000000 1.570796
 10 0.935740 0.000000 0.000000 0.000000 -0.000000 0.000000
 11 0.935741 0.000000 0.000000 0.000000 -0.000000 0.000000
 12 1.293670 0.684478 -0.000001 -0.000004 -0.000001 -0.130234
 13 5.309685 -0.003834 0.000000 0.000000 -0.000000 -0.087251
 14 4.826790 -0.004591 0.000000 -0.172575 -0.025479 -0.146170
 15 5.792767 -0.005304 0.000000 -0.138386 -0.017905 -0.128664
 16 6.662317 -0.001453 0.000000 0.000000 -0.000001 0.034722
 17 2.046985 -0.000002 0.000000 0.300719 0.088563 -0.100040
 18 -3.459691 0.060178 4.341911 0.866104 -1.153522 2.284292
 19 4.827230 0.000000 0.000001 -0.761930 0.531241 -1.257973
 20 11.139763 0.000000 0.000000 0.000000 -0.000000 -0.903742
 21 10.314597 0.000001 0.000000 -3.444010 0.558643 -0.152953
 22 2.975834 -0.386307 -0.044143 -0.000797 -0.043611 0.000035
 23 1.438886 0.000000 0.000000 0.000000 -0.000000 0.872170
 24 1.485303 0.000000 0.000000 0.000000 -0.000000 0.906977
 25 -3.186314 0.059778 -4.140396 -0.804677 1.178203 2.341034
 26 4.972048 0.000000 0.000001 -0.134997 -1.204281 -0.285722
 27 11.585355 0.000000 0.000000 0.000000 -0.000000 -1.922408
 28 10.127057 0.000000 0.000001 1.602686 0.604750 0.226374
 29 2.683750 -0.427338 0.044205 -0.005738 0.043239 -0.157060
 30 1.438885 -0.000001 0.000000 0.000000 -0.000000 0.732589
 31 1.485305 0.000001 0.000000 0.000000 -0.000000 1.168627
time 19
  0 0.235347 -0.235347 3.532833 -0.000000 -0.000000 -1.571254
  1 0.000000 0.000000 0.000000 -1.570795 -1.570796 0.000000
  2 -0.000005 0.000007 3.713255 -6.281131 3.115177 6.261712
  3 18.045721 0.000000 0.000000 0.000000 -0.000000 -0.121501
  4 17.597597 0.000000 0.000000 -0.002613 0.026036 0.099967
  5 3.793090 6.407221 0.000000 0.000000 -0.000000 1.570796
  6 0.000005 -0.000003 -3.713255 6.280565 -3.123995 6.258640
  7 18.045725 0.000000 0.000000 0.000000 -0.000000 -0.127551
  8 17.597597 0.000000 0.000000 0.002950 -0.017289 0.103055
  9 3.793090 6.407221 0.000000 0.000000 -0.000000 1.570796
 10 0.935740 0.000000 0.000000 0.000000 -0.000000 0.000000
 11 0.935741 0.000000 0.000000 0.000000 -0.000000 0.000000
 12 1.293670 0.684478 -0.000001 -0.000004 -0.000001 -0.130234
 13 5.309685 -0.003834 0.000000 0.000000 -0.000000 -0.087251
 14 4.826790 -0.004591 0.000000 -0.172575 -0.025479 -0.146170
 15 5.792767 -0.005304 0.000000 -0.138288 -0.018600 -0.133979
 16 6.662317 -0.001453 0.000000 0.000000 -0.000001 0.034722
 17 2.046985 -0.000002 0.000000 0.300719 0.088563 -0.094691
 18 -3.459691 0.060178 4.341911 0.875691 -1.156945 2.274225
 19 4.827230 0.000000 0.000001 -0.767921 0.538049 -1.259548
 20 11.139763 0.000000 0.000000 0.000000 -0.000000 -0.903742
 21 10.314597 0.000001 0.000000 -3.444010 0.558643 -0.152953
 22 2.975834 -0.386307 -0.044143 -0.000797 -0.043611 0.000035
 23 1.438886 0.000000 0.000000 0.000000 -0.000000 0.872170
 24 1.485303 0.000000 0.000000 0.000000 -0.000000 0.906977
 25 -3.186314 0.059778 -4.140396 -0.813689 1.181934 2.330967
 26 4.972048 0.000000 0.000001 -0.143042 -1.212245 -0.276829
 27 11.585355 0.000000 0.000000 0.000000 -0.000000 -1.922408
 28 10.127057 0.000000 0.000001 1.602686 0.604750 0.226374
 29 2.683750 -0.427338 0.044205 -0.005738 0.043239 -0.157060
 30 1.438885 -0.000001 0.000000 0.000000 -0.000000 0.732589
 31 1.485305 0.000001 0.000000 0.000000 -0.000000 1.168627
time 20
  0 0.235347 -0.235347 3.532833 -0.000000 -0.000000 -1.571254
  1 0.000000 0.000000 0.000000 -1.570795 -1.570796 0.000000
  2 -0.000005 0.000007 3.713255 -6.281131 3.115177 6.261712
  3 18.045721 0.000000 0.000000 0.000000 -0.000000 -0.121501
  4 17.597597 0.000000 0.000000 -0.002613 0.026036 0.099967
  5 3.793090 6.407221 0.000000 0.000000 -0.000000 1.570796
  6 0.000005 -0.000003 -3.713255 6.280565 -3.123995 6.258640
  7 18.045725 0.000000 0.000000 0.000000 -0.000000 -0.127551
  8 17.597597 0.000000 0.000000 0.002950 -0.017289 0.103055
  9 3.793090 6.407221 0.000000 0.000000 -0.000000 1.570796
 10 0.935740 0.000000 0.000000 0.000000 -0.000000 0.000000
 11 0.935741 0.000000 0.000000 0.000000 -0.000000 0.000000
 12 1.293670 0.684478 -0.000001 -0.000004 -0.000001 -0.130234
 13 5.309685 -0.003834 0.000000 0.000000 -0.000000 -0.087251
 14 4.826790 -0.004591 0.000000 -0.172575 -0.025479 -0.146170
 15 5.792767 -0.005304 0.000000 -0.138174 -0.019523 -0.140229
 16 6.662317 -0.001453 0.000000 0.000000 -0.000001 0.034722
 17 2.046985 -0.000002 0.000000 0.300719 0.088563 -0.088534
 18 -3.459691 0.060178 4.341911 0.886525 -1.160984 2.261953
 19 4.827230 0.000000 0.000001 -0.775087 0.546304 -1.261648
 20 11.139763 0.000000 0.000000 0.000000 -0.000000 -0.903742
 21 10.314597 0.000001 0.000000 -3.444010 0.558643 -0.152953
 22 2.975834 -0.386307 -0.044143 -0.000797 -0.043611 0.000035
 23 1.438886 0.000000 0.000000 0.000000 -0.000000 0.872170
 24 1.485303 0.000000 0.000000 0.000000 -0.000000 0.906977
 25 -3.186314 0.059778 -4.140396 -0.825481 1.186230 2.318887
 26 4.972048 0.000000 0.000001 -0.153098 -1.221737 -0.265565
 27 11.585355 0.000000 0.000000 0.000000 -0.000000 -1.922408
 28 10.127057 0.000000 0.000001 1.602686 0.604750 0.226374
 29 2.683750 -0.427338 0.044205 -0.005738 0.043239 -0.157060
 30 1.438885 -0.000001 0.000000 0.000000 -0.000000 0.732589
 31 1.485305 0.000001 0.000000 0.000000 -0.000000 1.168627
time 21
  0 0.235347 -0.235347 3.532833 -0.000000 -0.000000 -1.571254
  1 0.000000 0.000000 0.000000 -1.570795 -1.570796 0.000000
  2 -0.000005 0.000007 3.713255 -6.281131 3.115177 6.261712
  3 18.045721 0.000000 0.000000 0.000000 -0.000000 -0.121501
  4 17.597597 0.000000 0.000000 -0.002613 0.026036 0.099967
  5 3.793090 6.407221 0.000000 0.000000 -0.000000 1.570796
  6 0.000005 -0.000003 -3.713255 6.280565 -3.123995 6.258640
  7 18.045725 0.000000 0.000000 0.000000 -0.000000 -0.127551
  8 17.597597 0.000000 0.000000 0.002950 -0.017289 0.103055
  9 3.793090 6.407221 0.000000 0.000000 -0.000000 1.570796
 10 0.935740 0.000000 0.000000 0.000000 -0.000000 0.000000
 11 0.935741 0.000000 0.000000 0.000000 -0.000000 0.000000
 12 1.293670 0.684478 -0.000001 -0.000004 -0.000001 -0.130234
 13 5.309685 -0.003834 0.000000 0.000000 -0.000000 -0.087251
 14 4.826790 -0.004591 0.000000 -0.172575 -0.025479 -0.146170
 15 5.792767 -0.005304 0.000000 -0.138027 -0.020506 -0.147309
 16 6.662317 -0.001453 0.000000 0.000000 -0.000001 0.034722
 17 2.046985 -0.000002 0.000000 0.300719 0.088563 -0.081207
 18 -3.459691 0.060178 4.341911 0.899372 -1.165484 2.248051
 19 4.827230 0.000000 0.000001 -0.783075 0.555580 -1.264186
 20 11.139763 0.000000 0.000000 0.000000 -0.000000 -0.903742
 21 10.314597 0.000001 0.000000 -3.444010 0.558643 -0.152953
 22 2.975834 -0.386307 -0.044143 -0.000797 -0.043611 0.000035
 23 1.438886 0.000000 0.000000 0.000000 -0.000000 0.872170
 24 1.485303 0.000000 0.000000 0.000000 -0.000000 0.906977
 25 -3.186314 0.059778 -4.140396 -0.838616 1.191035 2.304602
 26 4.972048 0.000000 0.000001 -0.165088 -1.232194 -0.252588
 27 11.585355 0.000000 0.000000 0.000000 -0.000000 -1.922408
 28 10.127057 0.000000 0.000001 1.602686 0.604750 0.226374
 29 2.683750 -0.427338 0.044205 -0.005738 0.043239 -0.157060
 30 1.438885 -0.000001 0.000000 0.000000 -0.000000 0.732589
 31 1.485305 0.000001 0.000000 0.000000 -0.000000 1.168627
time 22
  0 0.235347 -0.235347 3.532833 -0.000000 -0.000000 -1.571254
  1 0.000000 0.000000 0.000000 -1.570795 -1.570796 0.000000
  2 -0.000005 0.000007 3.713255 -6.281131 3.115177 6.261712
  3 18.045721 0.000000 0.000000 0.000000 -0.000000 -0.121501
  4 17.597597 0.000000 0.000000 -0.002613 0.026036 0.099967
  5 3.793090 6.407221 0.000000 0.000000 -0.000000 1.570796
  6 0.000005 -0.000003 -3.713255 6.280565 -3.123995 6.258640
  7 18.045725 0.000000 0.000000 0.000000 -0.000000 -0.127551
  8 17.597597 0.000000 0.000000 0.002950 -0.017289 0.103055
  9 3.793090 6.407221 0.000000 0.000000 -0.000000 1.570796
 10 0.935740 0.000000 0.000000 0.000000 -0.000000 0.000000
 11 0.935741 0.000000 0.000000 0.000000 -0.000000 0.000000
 12 1.293670 0.684478 -0.000001 -0.000004 -0.000001 -0.130234
 13 5.309685 -0.003834 0.000000 0.000000 -0.000000 -0.087251
 14 4.826790 -0.004591 0.000000 -0.172575 -0.025479 -0.146170
 15 5.792767 -0.005304 0.000000 -0.137864 -0.021512 -0.154929
 16 6.662317 -0.001453 0.000000 0.000000 -0.000001 0.034722
 17 2.046985 -0.000002 0.000000 0.300719 0.088563 -0.073521
 18 -3.459691 0.060178 4.341911 0.913753 -1.170215 2.232519
 19 4.827230 0.000000 0.000001 -0.792003 0.565026 -1.266899
 20 11.139763 0.000000 0.000000 0.000000 -0.000000 -0.903742
 21 10.314597 0.000001 0.000000 -3.444010 0.558643 -0.152953
 22 2.975834 -0.386307 -0.044143 -0.000797 -0.043611 0.000035
 23 1.438886 0.000000 0.000000 0.000000 -0.000000 0.872170
 24 1.485303 0.000000 0.000000 0.000000 -0.000000 0.906977
 25 -3.186314 0.059778 -4.140396 -0.852997 1.196179 2.288783
 26 4.972048 0.000000 0.000001 -0.179089 -1.243456 -0.237569
 27 11.585355 0.000000 0.000000 0.000000 -0.000000 -1.922408
 28 10.127057 0.000000 0.000001 1.602686 0.604750 0.226374
 29 2.683750 -0.427338 0.044205 -0.005738 0.043239 -0.157060
 30 1.438885 -0.000001 0.000000 0.000000 -0.000000 0.732589
 31 1.485305 0.000001 0.000000 0.000000 -0.000000 1.168627
time 23
  0 0.235347 -0.235347 3.532833 -0.000000 -0.000000 -1.571254
  1 0.000000 0.000000 0.000000 -1.570795 -1.570796 0.000000
  2 -0.000005 0.000007 3.713255 -6.281131 3.115177 6.261712
  3 18.045721 0.000000 0.000000 0.000000 -0.000000 -0.121501
  4 17.597597 0.000000 0.000000 -0.002613 0.026036 0.099967
  5 3.793090 6.407221 0.000000 0.000000 -0.000000 1.570796
  6 0.000005 -0.000003 -3.713255 6.280565 -3.123995 6.258640
  7 18.045725 0.000000 0.000000 0.000000 -0.000000 -0.127551
  8 17.597597 0.000000 0.000000 0.002950 -0.017289 0.103055
  9 3.793090 6.407221 0.000000 0.000000 -0.000000 1.570796
 10 0.935740 0.000000 0.000000 0.000000 -0.000000 0.000000
 11 0.935741 0.000000 0.000000 0.000000 -0.000000 0.000000
 12 1.293670 0.684478 -0.000001 -0.000004 -0.000001 -0.130234
 13 5.309685 -0.003834 0.000000 0.000000 -0.000000 -0.087251
 14 4.826790 -0.004591 0.000000 -0.172575 -0.025479 -0.146170
 15 5.792767 -0.005304 0.000000 -0.137685 -0.022663 -0.162860
 16 6.662317 -0.001453 0.000000 0.000000 -0.000001 0.034722
 17 2.046985 -0.000002 0.000000 0.300719 0.088563 -0.065520
 18 -3.459691 0.060178 4.341911 0.928805 -1.175061 2.216316
 19 4.827230 0.000000 0.000001 -0.801283 0.575153 -1.270137
 20 11.139763 0.000000 0.000000 0.000000 -0.000000 -0.903742
 21 10.314597 0.000001 0.000000 -3.444010 0.558643 -0.152953
 22 2.975834 -0.386307 -0.044143 -0.000797 -0.043611 0.000035
 23 1.438886 0.000000 0.000000 0.000000 -0.000000 0.872170
 24 1.485303 0.000000 0.000000 0.000000 -0.000000 0.906977
 25 -3.186314 0.059778 -4.140396 -0.868624 1.201408 2.272101
 26 4.972048 0.000000 0.000001 -0.194792 -1.254959 -0.220640
 27 11.585355 0.000000 0.000000 0.000000 -0.000000 -1.922408
 28 10.127057 0.000000 0.000001 1.602686 0.604750 0.226374
 29 2.683750 -0.427338 0.044205 -0.005738 0.043239 -0.157060
 30 1.438885 -0.000001 0.000000 0.000000 -0.000000 0.732589
 31 1.485305 0.000001 0.000000 0.000000 -0.000000 1.168627
time 24
  0 0.235347 -0.235347 3.532833 -0.000000 -0.000000 -1.571254
  1 0.000000 0.000000 0.000000 -1.570795 -1.570796 0.000000
  2 -0.000005 0.000007 3.713255 -6.281131 3.115177 6.261712
  3 18.045721 0.000000 0.000000 0.000000 -0.000000 -0.121501
  4 17.597597 0.000000 0.000000 -0.002613 0.026036 0.099967
  5 3.793090 6.407221 0.000000 0.000000 -0.000000 1.570796
  6 0.000005 -0.000003 -3.713255 6.280565 -3.123995 6.258640
  7 18.045725 0.000000 0.000000 0.000000 -0.000000 -0.127551
  8 17.597597 0.000000 0.000000 0.002950 -0.017289 0.103055
  9 3.793090 6.407221 0.000000 0.000000 -0.000000 1.570796
 10 0.935740 0.000000 0.000000 0.000000 -0.000000 0.000000
 11 0.935741 0.000000 0.000000 0.000000 -0.000000 0.000000
 12 1.293670 0.684478 -0.000001 -0.000004 -0.000001 -0.130234
 13 5.309685 -0.003834 0.000000 0.000000 -0.000000 -0.087251
 14 4.826790 -0.004591 0.000000 -0.172575 -0.025479 -0.146170
 15 5.792767 -0.005304 0.000000 -0.137505 -0.023718 -0.170854
 16 6.662317 -0.001453 0.000000 0.000000 -0.000001 0.034722
 17 2.046985 -0.000002 0.000000 0.300719 0.088563 -0.057655
 18 -3.459691 0.060178 4.341911 0.944720 -1.179792 2.199250
 19 4.827230 0.000000 0.000001 -0.810681 0.585365 -1.273375
 20 11.139763 0.000000 0.000000 0.000000 -0.000000 -0.903742
 21 10.314597 0.000001 0.000000 -3.444010 0.558643 -0.152953
 22 2.975834 -0.386307 -0.044143 -0.000797 -0.043611 0.000035
 23 1.438886 0.000000 0.000000 0.000000 -0.000000 0.872170
 24 1.485303 0.000000 0.000000 0.000000 -0.000000 0.906977
 25 -3.186314 0.059778 -4.140396 -0.884731 1.206552 2.254844
 26 4.972048 0.000000 0.000001 -0.211733 -1.266623 -0.202525
 27 11.585355 0.000000 0.000000 0.000000 -0.000000 -1.922408
 28 10.127057 0.000000 0.000001 1.602686 0.604750 0.226374
 29 2.683750 -0.427338 0.044205 -0.005738 0.043239 -0.157060
 30 1.438885 -0.000001 0.000000 0.000000 -0.000000 0.732589
 31 1.485305 0.000001 0.000000 0.000000 -0.000000 1.168627
time 25
  0 0.235347 -0.235347 3.532833 -0.000000 -0.000000 -1.571254
  1 0.000000 0.000000 0.000000 -1.570795 -1.570796 0.000000
  2 -0.000005 0.000007 3.713255 -6.281131 3.115177 6.261712
  3 18.045721 0.000000 0.000000 0.000000 -0.000000 -0.121501
  4 17.597597 0.000000 0.000000 -0.002613 0.026036 0.099967
  5 3.793090 6.407221 0.000000 0.000000 -0.000000 1.570796
  6 0.000005 -0.000003 -3.713255 6.280565 -3.123995 6.258640
  7 18.045725 0.000000 0.000000 0.000000 -0.000000 -0.127551
  8 17.597597 0.000000 0.000000 0.002950 -0.017289 0.103055
  9 3.793090 6.407221 0.000000 0.000000 -0.000000 1.570796
 10 0.935740 0.000000 0.000000 0.000000 -0.000000 0.000000
 11 0.935741 0.000000 0.000000 0.000000 -0.000000 0.000000
 12 1.293670 0.684478 -0.000001 -0.000004 -0.000001 -0.130234
 13 5.309685 -0.003834 0.000000 0.000000 -0.000000 -0.087251
 14 4.826790 -0.004591 0.000000 -0.172575 -0.025479 -0.146170
 15 5.792767 -0.005304 0.000000 -0.137310 -0.024796 -0.178702
 16 6.662317 -0.001453 0.000000 0.000000 -0.000001 0.034722
 17 2.046985 -0.000002 0.000000 0.300719 0.088563 -0.049744
 18 -3.459691 0.060178 4.341911 0.960539 -1.184446 2.182184
 19 4.827230 0.000000 0.000001 -0.820079 0.595407 -1.276963
 20 11.139763 0.000000 0.000000 0.000000 -0.000000 -0.903742
 21 10.314597 0.000001 0.000000 -3.444010 0.558643 -0.152953
 22 2.975834 -0.386307 -0.044143 -0.000797 -0.043611 0.000035
 23 1.438886 0.000000 0.000000 0.000000 -0.000000 0.872170
 24 1.485303 0.000000 0.000000 0.000000 -0.000000 0.906977
 25 -3.186314 0.059778 -4.140396 -0.901125 1.211470 2.237395
 26 4.972048 0.000000 0.000001 -0.229834 -1.277885 -0.183751
 27 11.585355 0.000000 0.000000 0.000000 -0.000000 -1.922408
 28 10.127057 0.000000 0.000001 1.602686 0.604750 0.226374
 29 2.683750 -0.427338 0.044205 -0.005738 0.043239 -0.157060
 30 1.438885 -0.000001 0.000000 0.000000 -0.000000 0.732589
 31 1.485305 0.000001 0.000000 0.000000 -0.000000 1.168627
time 26
  0 0.235347 -0.235347 3.532833 -0.000000 -0.000000 -1.571254
  1 0.000000 0.000000 0.000000 -1.570795 -1.570796 0.000000
  2 -0.000005 0.000007 3.713255 -6.281131 3.115177 6.261712
  3 18.045721 0.000000 0.000000 0.000000 -0.000000 -0.121501
  4 17.597597 0.000000 0.000000 -0.002613 0.026036 0.099967
  5 3.793090 6.407221 0.000000 0.000000 -0.000000 1.570796
  6 0.000005 -0.000003 -3.713255 6.280565 -3.123995 6.258640
  7 18.045725 0.000000 0.000000 0.000000 -0.000000 -0.127551
  8 17.597597 0.000000 0.000000 0.002950 -0.017289 0.103055
  9 3.793090 6.407221 0.000000 0.000000 -0.000000 1.570796
 10 0.935740 0.000000 0.000000 0.000000 -0.000000 0.000000
 11 0.935741 0.000000 0.000000 0.000000 -0.000000 0.000000
 12 1.293670 0.684478 -0.000001 -0.000004 -0.000001 -0.130234
 13 5.309685 -0.003834 0.000000 0.000000 -0.000000 -0.087251
 14 4.826790 -0.004591 0.000000 -0.172575 -0.025479 -0.146170
 15 5.792767 -0.005304 0.000000 -0.137130 -0.025875 -0.186156
 16 6.662317 -0.001453 0.000000 0.000000 -0.000001 0.034722
 17 2.046985 -0.000002 0.000000 0.300719 0.088563 -0.042193
 18 -3.459691 0.060178 4.341911 0.975687 -1.188677 2.165502
 19 4.827230 0.000000 0.000001 -0.828948 0.604938 -1.280288
 20 11.139763 0.000000 0.000000 0.000000 -0.000000 -0.903742
 21 10.314597 0.000001 0.000000 -3.444010 0.558643 -0.152953
 22 2.975834 -0.386307 -0.044143 -0.000797 -0.043611 0.000035
 23 1.438886 0.000000 0.000000 0.000000 -0.000000 0.872170
 24 1.485303 0.000000 0.000000 0.000000 -0.000000 0.906977
 25 -3.186314 0.059778 -4.140396 -0.917040 1.216077 2.220713
 26 4.972048 0.000000 0.000001 -0.248554 -1.288423 -0.164253
 27 11.585355 0.000000 0.000000 0.000000 -0.000000 -1.922408
 28 10.127057 0.000000 0.000001 1.602686 0.604750 0.226374
 29 2.683750 -0.427338 0.044205 -0.005738 0.043239 -0.157060
 30 1.438885 -0.000001 0.000000 0.000000 -0.000000 0.732589
 31 1.485305 0.000001 0.000000 0.000000 -0.000000 1.168627
time 27
  0 0.235347 -0.235347 3.532833 -0.000000 -0.000000 -1.571254
  1 0.000000 0.000000 0.000000 -1.570795 -1.570796 0.000000
  2 -0.000005 0.000007 3.713255 -6.281131 3.115177 6.261712
  3 18.045721 0.000000 0.000000 0.000000 -0.000000 -0.121501
  4 17.597597 0.000000 0.000000 -0.002613 0.026036 0.099967
  5 3.793090 6.407221 0.000000 0.000000 -0.000000 1.570796
  6 0.000005 -0.000003 -3.713255 6.280565 -3.123995 6.258640
  7 18.045725 0.000000 0.000000 0.000000 -0.000000 -0.127551
  8 17.597597 0.000000 0.000000 0.002950 -0.017289 0.103055
  9 3.793090 6.407221 0.000000 0.000000 -0.000000 1.570796
 10 0.935740 0.000000 0.000000 0.000000 -0.000000 0.000000
 11 0.935741 0.000000 0.000000 0.000000 -0.000000 0.000000
 12 1.293670 0.684478 -0.000001 -0.000004 -0.000001 -0.130234
 13 5.309685 -0.003834 0.000000 0.000000 -0.000000 -0.087251
 14 4.826790 -0.004591 0.000000 -0.172575 -0.025479 -0.146170
 15 5.792767 -0.005304 0.000000 -0.136951 -0.026822 -0.193008
 16 6.662317 -0.001453 0.000000 0.000000 -0.000001 0.034722
 17 2.046985 -0.000002 0.000000 0.300719 0.088563 -0.035316
 18 -3.459691 0.060178 4.341911 0.990068 -1.192523 2.150066
 19 4.827230 0.000000 0.000001 -0.837406 0.613959 -1.283701
 20 11.139763 0.000000 0.000000 0.000000 -0.000000 -0.903742
 21 10.314597 0.000001 0.000000 -3.444010 0.558643 -0.152953
 22 2.975834 -0.386307 -0.044143 -0.000797 -0.043611 0.000035
 23 1.438886 0.000000 0.000000 0.000000 -0.000000 0.872170
 24 1.485303 0.000000 0.000000 0.000000 -0.000000 0.906977
 25 -3.186314 0.059778 -4.140396 -0.931613 1.220260 2.204798
 26 4.972048 0.000000 0.000001 -0.266964 -1.298156 -0.145150
 27 11.585355 0.000000 0.000000 0.000000 -0.000000 -1.922408
 28 10.127057 0.000000 0.000001 1.602686 0.604750 0.226374
 29 2.683750 -0.427338 0.044205 -0.005738 0.043239 -0.157060
 30 1.438885 -0.000001 0.000000 0.000000 -0.000000 0.732589
 31 1.485305 0.000001 0.000000 0.000000 -0.000000 1.168627
time 28
  0 0.235347 -0.235347 3.532833 -0.000000 -0.000000 -1.571254
  1 0.000000 0.000000 0.000000 -1.570795 -1.570796 0.000000
  2 -0.000005 0.000007 3.713255 -6.281131 3.115177 6.261712
  3 18.045721 0.000000 0.000000 0.000000 -0.000000 -0.121501
  4 17.597597 0.000000 0.000000 -0.002613 0.026036 0.099967
  5 3.793090 6.407221 0.000000 0.000000 -0.000000 1.570796
  6 0.000005 -0.000003 -3.713255 6.280565 -3.123995 6.258640
  7 18.045725 0.000000 0.000000 0.000000 -0.000000 -0.127551
  8 17.597597 0.000000 0.000000 0.002950 -0.017289 0.103055
  9 3.793090 6.407221 0.000000 0.000000 -0.000000 1.570796
 10 0.935740 0.000000 0.000000 0.000000 -0.000000 0.000000
 11 0.935741 0.000000 0.000000 0.000000 -0.000000 0.000000
 12 1.293670 0.684478 -0.000001 -0.000004 -0.000001 -0.130234
 13 5.309685 -0.003834 0.000000 0.000000 -0.000000 -0.087251
 14 4.826790 -0.004591 0.000000 -0.172575 -0.025479 -0.146170
 15 5.792767 -0.005304 0.000000 -0.136788 -0.027601 -0.198946
 16 6.662317 -0.001453 0.000000 0.000000 -0.000001 0.034722
 17 2.046985 -0.000002 0.000000 0.300719 0.088563 -0.029248
 18 -3.459691 0.060178 4.341911 1.002915 -1.195754 2.136643
 19 4.827230 0.000000 0.000001 -0.844748 0.621533 -1.286764
 20 11.139763 0.000000 0.000000 0.000000 -0.000000 -0.903742
 21 10.314597 0.000001 0.000000 -3.444010 0.558643 -0.152953
 22 2.975834 -0.386307 -0.044143 -0.000797 -0.043611 0.000035
 23 1.438886 0.000000 0.000000 0.000000 -0.000000 0.872170
 24 1.485303 0.000000 0.000000 0.000000 -0.000000 0.906977
 25 -3.186314 0.059778 -4.140396 -0.945227 1.223878 2.190513
 26 4.972048 0.000000 0.000001 -0.284137 -1.306683 -0.127101
 27 11.585355 0.000000 0.000000 0.000000 -0.000000 -1.922408
 28 10.127057 0.000000 0.000001 1.602686 0.604750 0.226374
 29 2.683750 -0.427338 0.044205 -0.005738 0.043239 -0.157060
 30 1.438885 -0.000001 0.000000 0.000000 -0.000000 0.732589
 31 1.485305 0.000001 0.000000 0.000000 -0.000000 1.168627
time 29
  0 0.235347 -0.235347 3.532833 -0.000000 -0.000000 -1.571254
  1 0.000000 0.000000 0.000000 -1.570795 -1.570796 0.000000
  2 -0.000005 0.000007 3.713255 -6.281131 3.115177 6.261712
  3 18.045721 0.000000 0.000000 0.000000 -0.000000 -0.121501
  4 17.597597 0.000000 0.000000 -0.002613 0.026036 0.099967
  5 3.793090 6.407221 0.000000 0.000000 -0.000000 1.570796
  6 0.000005 -0.000003 -3.713255 6.280565 -3.123995 6.258640
  7 18.045725 0.000000 0.000000 0.000000 -0.000000 -0.127551
  8 17.597597 0.000000 0.000000 0.002950 -0.017289 0.103055
  9 3.793090 6.407221 0.000000 0.000000 -0.000000 1.570796
 10 0.935740 0.000000 0.000000 0.000000 -0.000000 0.000000
 11 0.935741 0.000000 0.000000 0.000000 -0.000000 0.000000
 12 1.293670 0.684478 -0.000001 -0.000004 -0.000001 -0.130234
 13 5.309685 -0.003834 0.000000 0.000000 -0.000000 -0.087251
 14 4.826790 -0.004591 0.000000 -0.172575 -0.025479 -0.146170
 15 5.792767 -0.005304 0.000000 -0.136641 -0.028320 -0.203908
 16 6.662317 -0.001453 0.000000 0.000000 -0.000001 0.034722
 17 2.046985 -0.000002 0.000000 0.300719 0.088563 -0.024213
 18 -3.459691 0.060178 4.341911 1.013461 -1.198408 2.125042
 19 4.827230 0.000000 0.000001 -0.850798 0.627490 -1.289302
 20 11.139763 0.000000 0.000000 0.000000 -0.000000 -0.903742
 21 10.314597 0.000001 0.000000 -3.444010 0.558643 -0.152953
 22 2.975834 -0.386307 -0.044143 -0.000797 -0.043611 0.000035
 23 1.438886 0.000000 0.000000 0.000000 -0.000000 0.872170
 24 1.485303 0.000000 0.000000 0.000000 -0.000000 0.906977
 25 -3.186314 0.059778 -4.140396 -0.956540 1.226704 2.178433
 26 4.972048 0.000000 0.000001 -0.299221 -1.313440 -0.111621
 27 11.585355 0.000000 0.000000 0.000000 -0.000000 -1.922408
 28 10.127057 0.000000 0.000001 1.602686 0.604750 0.226374
 29 2.683750 -0.427338 0.044205 -0.005738 0.043239 -0.157060
 30 1.438885 -0.000001 0.000000 0.000000 -0.000000 0.732589
 31 1.485305 0.000001 0.000000 0.000000 -0.000000 1.168627
time 30
  0 0.235347 -0.235347 3.532833 -0.000000 -0.000000 -1.571254
  1 0.000000 0.000000 0.000000 -1.570795 -1.570796 0.000000
  2 -0.000005 0.000007 3.713255 -6.281131 3.115177 6.261712
  3 18.045721 0.000000 0.000000 0.000000 -0.000000 -0.121501
  4 17.597597 0.000000 0.000000 -0.002613 0.026036 0.099967
  5 3.793090 6.407221 0.000000 0.000000 -0.000000 1.570796
  6 0.000005 -0.000003 -3.713255 6.280565 -3.123995 6.258640
  7 18.045725 0.000000 0.000000 0.000000 -0.000000 -0.127551
  8 17.597597 0.000000 0.000000 0.002950 -0.017289 0.103055
  9 3.793090 6.407221 0.000000 0.000000 -0.000000 1.570796
 10 0.935740 0.000000 0.000000 0.000000 -0.000000 0.000000
 11 0.935741 0.000000 0.000000 0.000000 -0.000000 0.000000
 12 1.293670 0.684478 -0.000001 -0.000004 -0.000001 -0.130234
 13 5.309685 -0.003834 0.000000 0.000000 -0.000000 -0.087251
 14 4.826790 -0.004591 0.000000 -0.172575 -0.025479 -0.146170
 15 5.792767 -0.005304 0.000000 -0.136543 -0.028823 -0.207521
 16 6.662317 -0.001453 0.000000 0.000000 -0.000001 0.034722
 17 2.046985 -0.000002 0.000000 0.300719 0.088563 -0.020618
 18 -3.459691 0.060178 4.341911 1.021706 -1.200331 2.116509
 19 4.827230 0.000000 0.000001 -0.855262 0.632426 -1.291402
 20 11.139763 0.000000 0.000000 0.000000 -0.000000 -0.903742
 21 10.314597 0.000001 0.000000 -3.444010 0.558643 -0.152953
 22 2.975834 -0.386307 -0.044143 -0.000797 -0.043611 0.000035
 23 1.438886 0.000000 0.000000 0.000000 -0.000000 0.872170
 24 1.485303 0.000000 0.000000 0.000000 -0.000000 0.906977
 25 -3.186314 0.059778 -4.140396 -0.964881 1.228796 2.169421
 26 4.972048 0.000000 0.000001 -0.310747 -1.318508 -0.099764
 27 11.585355 0.000000 0.000000 0.000000 -0.000000 -1.922408
 28 10.127057 0.000000 0.000001 1.602686 0.604750 0.226374
 29 2.683750 -0.427338 0.044205 -0.005738 0.043239 -0.157060
 30 1.438885 -0.000001 0.000000 0.000000 -0.000000 0.732589
 31 1.485305 0.000001 0.000000 0.000000 -0.000000 1.168627
end
