version 1
nodes
  0 "Bip01"  -1
  1 "Bip01 Pelvis"   0
  2 "Bip01 L Leg"   1
  3 "Bip01 L Leg1"   2
  4 "Bip01 L Foot"   3
  5 "Bip01 L Toe0"   4
  6 "Bip01 R Leg"   1
  7 "Bip01 R Leg1"   6
  8 "Bip01 R Foot"   7
  9 "Bip01 R Toe0"   8
 10 "Bip01 R Toe01"   9
 11 "Bip01 R Toe02"  10
 12 "Bip01 Spine"   1
 13 "Bip01 Spine1"  12
 14 "Bip01 Spine2"  13
 15 "Bip01 Spine3"  14
 16 "Bip01 Neck"  15
 17 "Bip01 Head"  16
 18 "Bip01 L Arm"  16
 19 "Bip01 L Arm1"  18
 20 "Bip01 L Arm2"  19
 21 "Bip01 L Hand"  20
 22 "Bip01 L Finger1"  21
 23 "Bip01 L Finger11"  22
 24 "Bip01 L Finger12"  23
 25 "Bip01 R Arm"  16
 26 "Bip01 R Arm1"  25
 27 "Bip01 R Arm2"  26
 28 "Bip01 R Hand"  27
 29 "Bip01 R Finger1"  28
 30 "Bip01 R Finger11"  29
 31 "Bip01 R Finger12"  30
end
skeleton
time 0
  0 0.235347 -0.235347 3.532833 -0.000000 -0.000000 -1.571254
  1 0.000000 0.000000 0.000000 -1.570795 -1.570796 0.000000
  2 -0.000005 0.000007 3.713255 -6.281131 3.115177 6.261712
  3 18.045721 0.000000 0.000000 0.000000 -0.000000 -0.121501
  4 17.597597 0.000000 0.000000 -0.002613 0.026036 0.099967
  5 3.793090 6.407221 0.000000 0.000000 -0.000000 1.570796
  6 0.000005 -0.000003 -3.713255 6.280565 -3.123995 6.258640
  7 18.045725 0.000000 0.000000 0.000000 -0.000000 -0.127551
  8 17.597597 0.000000 0.000000 0.002950 -0.017289 0.103055
  9 3.793090 6.407221 0.000000 0.000000 -0.000000 1.570796
 10 0.935740 0.000000 0.000000 0.000000 -0.000000 0.000000
 11 0.935741 0.000000 0.000000 0.000000 -0.000000 0.000000
 12 1.293670 0.684478 -0.000001 -0.000004 -0.000001 -0.007924
 13 5.309685 -0.003834 0.000000 -0.224662 -0.031052 -0.136031
 14 4.826790 -0.004591 0.000000 -0.120934 -0.016790 -0.138453
 15 5.792767 -0.005304 0.000000 -0.104177 -0.009875 -0.095402
 16 6.662317 -0.001453 0.000000 0.000000 -0.000001 0.471000
 17 2.046985 -0.000002 0.000000 0.589719 0.415217 -0.207735
 18 -3.112024 1.517254 4.341911 1.167624 -1.093559 1.546622
 19 4.827230 0.000000 0.000001 -0.792355 0.287853 -0.806240
 20 11.139763 0.000000 0.000000 0.000000 -0.000000 -1.371174
 21 10.314597 0.000001 0.000000 -2.987507 -0.064632 0.326449
 22 2.975834 -0.386307 -0.044143 -0.015250 -0.040890 0.340334
 23 1.438886 0.000000 0.000000 0.000000 -0.000000 0.662793
 24 1.485303 0.000000 0.000000 0.000000 -0.000000 0.688984
 25 -2.869898 1.399663 -4.140396 -0.700750 1.311553 1.985824
 26 4.972048 0.000000 0.000001 1.264969 -0.186381 -2.041553
 27 11.585355 0.000000 0.000000 0.000000 -0.000000 -0.621770
 28 10.127057 0.000000 0.000001 1.721618 0.262810 0.362604
 29 2.683750 -0.427338 0.044205 -0.005738 0.043239 -0.157060
 30 1.438885 -0.000001 0.000000 0.000000 -0.000000 0.732589
 31 1.485305 0.000001 0.000000 0.000000 -0.000000 1.168627
time 1
  0 0.235347 -0.235347 3.532833 -0.000000 -0.000000 -1.571254
  1 0.000000 0.000000 0.000000 -1.570795 -1.570796 0.000000
  2 -0.000005 0.000007 3.713255 -6.281131 3.115177 6.261712
  3 18.045721 0.000000 0.000000 0.000000 -0.000000 -0.121501
  4 17.597597 0.000000 0.000000 -0.002613 0.026036 0.099967
  5 3.793090 6.407221 0.000000 0.000000 -0.000000 1.570796
  6 0.000005 -0.000003 -3.713255 6.280565 -3.123995 6.258640
  7 18.045725 0.000000 0.000000 0.000000 -0.000000 -0.127551
  8 17.597597 0.000000 0.000000 0.002950 -0.017289 0.103055
  9 3.793090 6.407221 0.000000 0.000000 -0.000000 1.570796
 10 0.935740 0.000000 0.000000 0.000000 -0.000000 0.000000
 11 0.935741 0.000000 0.000000 0.000000 -0.000000 0.000000
 12 1.293670 0.684478 -0.000001 -0.000004 -0.000001 -0.007924
 13 5.309685 -0.003834 0.000000 -0.224662 -0.031052 -0.136031
 14 4.826790 -0.004591 0.000000 -0.120934 -0.016790 -0.138453
 15 5.792767 -0.005304 0.000000 -0.104177 -0.009875 -0.095402
 16 6.662317 -0.001453 0.000000 0.000000 -0.000001 0.471000
 17 2.046985 -0.000002 0.000000 0.589719 0.415217 -0.207735
 18 -3.112024 1.517254 4.341911 1.167624 -1.093559 1.546622
 19 4.827230 0.000000 0.000001 -0.758053 0.355593 -0.781037
 20 11.139763 0.000000 0.000000 0.000000 -0.000000 -1.542730
 21 10.314597 0.000001 0.000000 -3.196659 -0.064632 0.326449
 22 2.975834 -0.386307 -0.044143 -0.015250 -0.040890 0.340334
 23 1.438886 0.000000 0.000000 0.000000 -0.000000 0.662793
 24 1.485303 0.000000 0.000000 0.000000 -0.000000 0.688984
 25 -2.869898 1.399663 -4.140396 -0.416103 1.352706 2.262514
 26 4.972048 0.000000 0.000001 1.079395 -0.317580 -1.951703
 27 11.585355 0.000000 0.000000 0.000000 -0.000000 -0.993591
 28 10.127057 0.000000 0.000001 1.788378 0.210968 0.644713
 29 2.683750 -0.427338 0.044205 -0.005738 0.043239 -0.157060
 30 1.438885 -0.000001 0.000000 0.000000 -0.000000 0.732589
 31 1.485305 0.000001 0.000000 0.000000 -0.000000 1.168627
time 2
  0 0.235347 -0.235347 3.532833 -0.000000 -0.000000 -1.571254
  1 0.000000 0.000000 0.000000 -1.570795 -1.570796 0.000000
  2 -0.000005 0.000007 3.713255 -6.281131 3.115177 6.261712
  3 18.045721 0.000000 0.000000 0.000000 -0.000000 -0.121501
  4 17.597597 0.000000 0.000000 -0.002613 0.026036 0.099967
  5 3.793090 6.407221 0.000000 0.000000 -0.000000 1.570796
  6 0.000005 -0.000003 -3.713255 6.280565 -3.123995 6.258640
  7 18.045725 0.000000 0.000000 0.000000 -0.000000 -0.127551
  8 17.597597 0.000000 0.000000 0.002950 -0.017289 0.103055
  9 3.793090 6.407221 0.000000 0.000000 -0.000000 1.570796
 10 0.935740 0.000000 0.000000 0.000000 -0.000000 0.000000
 11 0.935741 0.000000 0.000000 0.000000 -0.000000 0.000000
 12 1.293670 0.684478 -0.000001 -0.000004 -0.000001 -0.007924
 13 5.309685 -0.003834 0.000000 -0.223695 -0.037404 -0.163680
 14 4.826790 -0.004591 0.000000 -0.196663 0.024580 -0.147140
 15 5.792767 -0.005304 0.000000 -0.104177 -0.009875 -0.095402
 16 6.662317 -0.001453 0.000000 0.000000 -0.000001 0.471000
 17 2.046985 -0.000002 0.000000 0.659384 0.351935 -0.156674
 18 -3.112024 1.517254 4.341911 1.167624 -1.093559 1.546622
 19 4.827230 0.000000 0.000001 -0.746482 0.477032 -0.678211
 20 11.139763 0.000000 0.000000 0.000000 -0.000000 -1.655278
 21 10.314597 0.000001 0.000000 -3.171133 -0.064632 0.326449
 22 2.975834 -0.386307 -0.044143 -0.015250 -0.040890 0.340334
 23 1.438886 0.000000 0.000000 0.000000 -0.000000 0.662793
 24 1.485303 0.000000 0.000000 0.000000 -0.000000 0.688984
 25 -2.869898 1.399663 -4.140396 -0.789529 1.290440 1.899922
 26 4.972048 0.000000 0.000001 1.076146 -0.341632 -1.929043
 27 11.585355 0.000000 0.000000 0.000000 -0.000000 -0.948609
 28 10.127057 0.000000 0.000001 1.781243 0.218142 0.610979
 29 2.683750 -0.427338 0.044205 -0.005738 0.043239 -0.157060
 30 1.438885 -0.000001 0.000000 0.000000 -0.000000 0.732589
 31 1.485305 0.000001 0.000000 0.000000 -0.000000 1.168627
time 3
  0 0.235347 -0.235347 3.532833 -0.000000 -0.000000 -1.571254
  1 0.000000 0.000000 0.000000 -1.570795 -1.570796 0.000000
  2 -0.000005 0.000007 3.713255 -6.281131 3.115177 6.261712
  3 18.045721 0.000000 0.000000 0.000000 -0.000000 -0.121501
  4 17.597597 0.000000 0.000000 -0.002613 0.026036 0.099967
  5 3.793090 6.407221 0.000000 0.000000 -0.000000 1.570796
  6 0.000005 -0.000003 -3.713255 6.280565 -3.123995 6.258640
  7 18.045725 0.000000 0.000000 0.000000 -0.000000 -0.127551
  8 17.597597 0.000000 0.000000 0.002950 -0.017289 0.103055
  9 3.793090 6.407221 0.000000 0.000000 -0.000000 1.570796
 10 0.935740 0.000000 0.000000 0.000000 -0.000000 0.000000
 11 0.935741 0.000000 0.000000 0.000000 -0.000000 0.000000
 12 1.293670 0.684478 -0.000001 -0.000004 -0.000001 -0.007924
 13 5.309685 -0.003834 0.000000 -0.223193 -0.040388 -0.177024
 14 4.826790 -0.004591 0.000000 -0.233362 0.044043 -0.153909
 15 5.792767 -0.005304 0.000000 -0.104177 -0.009875 -0.095402
 16 6.662317 -0.001453 0.000000 0.000000 -0.000001 0.471000
 17 2.046985 -0.000002 0.000000 0.690490 0.319494 -0.133346
 18 -3.112024 1.517254 4.341911 1.167624 -1.093559 1.546622
 19 4.827230 0.000000 0.000001 -0.764808 0.498137 -0.645132
 20 11.139763 0.000000 0.000000 0.000000 -0.000000 -1.609726
 21 10.314597 0.000001 0.000000 -3.124574 -0.064632 0.326449
 22 2.975834 -0.386307 -0.044143 -0.015250 -0.040890 0.340334
 23 1.438886 0.000000 0.000000 0.000000 -0.000000 0.662793
 24 1.485303 0.000000 0.000000 0.000000 -0.000000 0.688984
 25 -2.869898 1.399663 -4.140396 -1.011762 1.205506 1.688809
 26 4.972048 0.000000 0.000001 1.101828 -0.330129 -1.886160
 27 11.585355 0.000000 0.000000 0.000000 -0.000000 -0.874244
 28 10.127057 0.000000 0.000001 1.768885 0.229512 0.555240
 29 2.683750 -0.427338 0.044205 -0.005738 0.043239 -0.157060
 30 1.438885 -0.000001 0.000000 0.000000 -0.000000 0.732589
 31 1.485305 0.000001 0.000000 0.000000 -0.000000 1.168627
time 4
  0 0.235347 -0.235347 3.532833 -0.000000 -0.000000 -1.571254
  1 0.000000 0.000000 0.000000 -1.570795 -1.570796 0.000000
  2 -0.000005 0.000007 3.713255 -6.281131 3.115177 6.261712
  3 18.045721 0.000000 0.000000 0.000000 -0.000000 -0.121501
  4 17.597597 0.000000 0.000000 -0.002613 0.026036 0.099967
  5 3.793090 6.407221 0.000000 0.000000 -0.000000 1.570796
  6 0.000005 -0.000003 -3.713255 6.280565 -3.123995 6.258640
  7 18.045725 0.000000 0.000000 0.000000 -0.000000 -0.127551
  8 17.597597 0.000000 0.000000 0.002950 -0.017289 0.103055
  9 3.793090 6.407221 0.000000 0.000000 -0.000000 1.570796
 10 0.935740 0.000000 0.000000 0.000000 -0.000000 0.000000
 11 0.935741 0.000000 0.000000 0.000000 -0.000000 0.000000
 12 1.293670 0.684478 -0.000001 -0.000004 -0.000001 -0.007924
 13 5.309685 -0.003834 0.000000 -0.223487 -0.038698 -0.169601
 14 4.826790 -0.004591 0.000000 -0.212919 0.033269 -0.149896
 15 5.792767 -0.005304 0.000000 -0.104177 -0.009875 -0.095402
 16 6.662317 -0.001453 0.000000 0.000000 -0.000001 0.471000
 17 2.046985 -0.000002 0.000000 0.673386 0.337684 -0.146246
 18 -3.112024 1.517254 4.341911 1.167624 -1.093559 1.546622
 19 4.827230 0.000000 0.000001 -0.792003 0.423844 -0.687225
 20 11.139763 0.000000 0.000000 0.000000 -0.000000 -1.488768
 21 10.314597 0.000001 0.000000 -3.080713 -0.064632 0.326449
 22 2.975834 -0.386307 -0.044143 -0.015250 -0.040890 0.340334
 23 1.438886 0.000000 0.000000 0.000000 -0.000000 0.662793
 24 1.485303 0.000000 0.000000 0.000000 -0.000000 0.688984
 25 -2.869898 1.399663 -4.140396 -1.131987 1.125321 1.578555
 26 4.972048 0.000000 0.000001 1.141743 -0.273579 -1.811856
 27 11.585355 0.000000 0.000000 0.000000 -0.000000 -0.799391
 28 10.127057 0.000000 0.000001 1.755635 0.240341 0.498324
 29 2.683750 -0.427338 0.044205 -0.005738 0.043239 -0.157060
 30 1.438885 -0.000001 0.000000 0.000000 -0.000000 0.732589
 31 1.485305 0.000001 0.000000 0.000000 -0.000000 1.168627
time 5
  0 0.235347 -0.235347 3.532833 -0.000000 -0.000000 -1.571254
  1 0.000000 0.000000 0.000000 -1.570795 -1.570796 0.000000
  2 -0.000005 0.000007 3.713255 -6.281131 3.115177 6.261712
  3 18.045721 0.000000 0.000000 0.000000 -0.000000 -0.121501
  4 17.597597 0.000000 0.000000 -0.002613 0.026036 0.099967
  5 3.793090 6.407221 0.000000 0.000000 -0.000000 1.570796
  6 0.000005 -0.000003 -3.713255 6.280565 -3.123995 6.258640
  7 18.045725 0.000000 0.000000 0.000000 -0.000000 -0.127551
  8 17.597597 0.000000 0.000000 0.002950 -0.017289 0.103055
  9 3.793090 6.407221 0.000000 0.000000 -0.000000 1.570796
 10 0.935740 0.000000 0.000000 0.000000 -0.000000 0.000000
 11 0.935741 0.000000 0.000000 0.000000 -0.000000 0.000000
 12 1.293670 0.684478 -0.000001 -0.000004 -0.000001 -0.007924
 13 5.309685 -0.003834 0.000000 -0.223952 -0.035822 -0.156727
 14 4.826790 -0.004591 0.000000 -0.177583 0.014322 -0.144340
 15 5.792767 -0.005304 0.000000 -0.104177 -0.009875 -0.095402
 16 6.662317 -0.001453 0.000000 0.000000 -0.000001 0.471000
 17 2.046985 -0.000002 0.000000 0.642711 0.368369 -0.169170
 18 -3.112024 1.517254 4.341911 1.167624 -1.093559 1.546622
 19 4.827230 0.000000 0.000001 -0.803985 0.350317 -0.738419
 20 11.139763 0.000000 0.000000 0.000000 -0.000000 -1.392969
 21 10.314597 0.000001 0.000000 -3.042514 -0.064632 0.326449
 22 2.975834 -0.386307 -0.044143 -0.015250 -0.040890 0.340334
 23 1.438886 0.000000 0.000000 0.000000 -0.000000 0.662793
 24 1.485303 0.000000 0.000000 0.000000 -0.000000 0.688984
 25 -2.869898 1.399663 -4.140396 -1.194401 1.066814 1.523332
 26 4.972048 0.000000 0.000001 1.186222 -0.208100 -1.752241
 27 11.585355 0.000000 0.000000 0.000000 -0.000000 -0.721599
 28 10.127057 0.000000 0.000001 1.741238 0.250709 0.439054
 29 2.683750 -0.427338 0.044205 -0.005738 0.043239 -0.157060
 30 1.438885 -0.000001 0.000000 0.000000 -0.000000 0.732589
 31 1.485305 0.000001 0.000000 0.000000 -0.000000 1.168627
time 6
  0 0.235347 -0.235347 3.532833 -0.000000 -0.000000 -1.571254
  1 0.000000 0.000000 0.000000 -1.570795 -1.570796 0.000000
  2 -0.000005 0.000007 3.713255 -6.281131 3.115177 6.261712
  3 18.045721 0.000000 0.000000 0.000000 -0.000000 -0.121501
  4 17.597597 0.000000 0.000000 -0.002613 0.026036 0.099967
  5 3.793090 6.407221 0.000000 0.000000 -0.000000 1.570796
  6 0.000005 -0.000003 -3.713255 6.280565 -3.123995 6.258640
  7 18.045725 0.000000 0.000000 0.000000 -0.000000 -0.127551
  8 17.597597 0.000000 0.000000 0.002950 -0.017289 0.103055
  9 3.793090 6.407221 0.000000 0.000000 -0.000000 1.570796
 10 0.935740 0.000000 0.000000 0.000000 -0.000000 0.000000
 11 0.935741 0.000000 0.000000 0.000000 -0.000000 0.000000
 12 1.293670 0.684478 -0.000001 -0.000004 -0.000001 -0.007924
 13 5.309685 -0.003834 0.000000 -0.224393 -0.033042 -0.144541
 14 4.826790 -0.004591 0.000000 -0.144234 -0.003931 -0.140371
 15 5.792767 -0.005304 0.000000 -0.104177 -0.009875 -0.095402
 16 6.662317 -0.001453 0.000000 0.000000 -0.000001 0.471000
 17 2.046985 -0.000002 0.000000 0.612079 0.396306 -0.191644
 18 -3.112024 1.517254 4.341911 1.167624 -1.093559 1.546622
 19 4.827230 0.000000 0.000001 -0.799345 0.308958 -0.779199
 20 11.139763 0.000000 0.000000 0.000000 -0.000000 -1.368441
 21 10.314597 0.000001 0.000000 -3.010067 -0.064632 0.326449
 22 2.975834 -0.386307 -0.044143 -0.015250 -0.040890 0.340334
 23 1.438886 0.000000 0.000000 0.000000 -0.000000 0.662793
 24 1.485303 0.000000 0.000000 0.000000 -0.000000 0.688984
 25 -2.869898 1.399663 -4.140396 -1.081271 1.163760 1.624670
 26 4.972048 0.000000 0.000001 1.228999 -0.181876 -1.857703
 27 11.585355 0.000000 0.000000 0.000000 -0.000000 -0.658357
 28 10.127057 0.000000 0.000001 1.729071 0.258397 0.390846
 29 2.683750 -0.427338 0.044205 -0.005738 0.043239 -0.157060
 30 1.438885 -0.000001 0.000000 0.000000 -0.000000 0.732589
 31 1.485305 0.000001 0.000000 0.000000 -0.000000 1.168627
time 7
  0 0.235347 -0.235347 3.532833 -0.000000 -0.000000 -1.571254
  1 0.000000 0.000000 0.000000 -1.570795 -1.570796 0.000000
  2 -0.000005 0.000007 3.713255 -6.281131 3.115177 6.261712
  3 18.045721 0.000000 0.000000 0.000000 -0.000000 -0.121501
  4 17.597597 0.000000 0.000000 -0.002613 0.026036 0.099967
  5 3.793090 6.407221 0.000000 0.000000 -0.000000 1.570796
  6 0.000005 -0.000003 -3.713255 6.280565 -3.123995 6.258640
  7 18.045725 0.000000 0.000000 0.000000 -0.000000 -0.127551
  8 17.597597 0.000000 0.000000 0.002950 -0.017289 0.103055
  9 3.793090 6.407221 0.000000 0.000000 -0.000000 1.570796
 10 0.935740 0.000000 0.000000 0.000000 -0.000000 0.000000
 11 0.935741 0.000000 0.000000 0.000000 -0.000000 0.000000
 12 1.293670 0.684478 -0.000001 -0.000004 -0.000001 -0.007924
 13 5.309685 -0.003834 0.000000 -0.224662 -0.031052 -0.136031
 14 4.826790 -0.004591 0.000000 -0.120934 -0.016790 -0.138453
 15 5.792767 -0.005304 0.000000 -0.104177 -0.009875 -0.095402
 16 6.662317 -0.001453 0.000000 0.000000 -0.000001 0.471000
 17 2.046985 -0.000002 0.000000 0.589719 0.415217 -0.207735
 18 -3.112024 1.517254 4.341911 1.167624 -1.093559 1.546622
 19 4.827230 0.000000 0.000001 -0.792355 0.287853 -0.806240
 20 11.139763 0.000000 0.000000 0.000000 -0.000000 -1.371174
 21 10.314597 0.000001 0.000000 -2.987507 -0.064632 0.326449
 22 2.975834 -0.386307 -0.044143 -0.015250 -0.040890 0.340334
 23 1.438886 0.000000 0.000000 0.000000 -0.000000 0.662793
 24 1.485303 0.000000 0.000000 0.000000 -0.000000 0.688984
 25 -2.869898 1.399663 -4.140396 -0.700750 1.311553 1.985824
 26 4.972048 0.000000 0.000001 1.264969 -0.186381 -2.041553
 27 11.585355 0.000000 0.000000 0.000000 -0.000000 -0.621770
 28 10.127057 0.000000 0.000001 1.721618 0.262810 0.362604
 29 2.683750 -0.427338 0.044205 -0.005738 0.043239 -0.157060
 30 1.438885 -0.000001 0.000000 0.000000 -0.000000 0.732589
 31 1.485305 0.000001 0.000000 0.000000 -0.000000 1.168627
end
