version 1
nodes
  0 "Hands biped"  -1
  1 "Bip01 Pelvis"   0
  2 "Bip01 Spine"   1
  3 "Bip01 Spine1"   2
  4 "Bip01 Spine2"   3
  5 "Bip01 Spine3"   4
  6 "Bip01 Neck"   5
  7 "Bip01 L Arm"   6
  8 "Bip01 L Arm1"   7
  9 "Bip01 L Arm2"   8
 10 "Bip01 L Hand"   9
 11 "Bip01 L Finger0"  10
 12 "Bip01 L Finger01"  11
 13 "Bip01 L Finger02"  12
 14 "Bip01 L Finger1"  10
 15 "Bip01 L Finger11"  14
 16 "Bip01 L Finger12"  15
 17 "Bip01 L Finger2"  10
 18 "Bip01 L Finger21"  17
 19 "Bip01 L Finger22"  18
 20 "Bip01 L Finger3"  10
 21 "Bip01 L Finger31"  20
 22 "Bip01 L Finger32"  21
 23 "Bip01 L Finger4"  10
 24 "Bip01 L Finger41"  23
 25 "Bip01 L Finger42"  24
 26 "Bip01 R Arm"   6
 27 "Bip01 R Arm1"  26
 28 "Bip01 R Arm2"  27
 29 "Bip01 R Hand"  28
 30 "Bip01 R Finger0"  29
 31 "Bip01 R Finger01"  30
 32 "Bip01 R Finger02"  31
 33 "Bip01 R Finger1"  29
 34 "Bip01 R Finger11"  33
 35 "Bip01 R Finger12"  34
 36 "Bip01 R Finger2"  29
 37 "Bip01 R Finger21"  36
 38 "Bip01 R Finger22"  37
 39 "Bip01 R Finger3"  29
 40 "Bip01 R Finger31"  39
 41 "Bip01 R Finger32"  40
 42 "Bip01 R Finger4"  29
 43 "Bip01 R Finger41"  42
 44 "Bip01 R Finger42"  43
 45 "Bip02"  29
 46 "Bip02 Pelvis"  45
 47 "Bip02 L Leg"  46
 48 "Bip02 L Leg1"  47
 49 "Bip02 R Leg"  46
 50 "Bip02 R Leg1"  49
 51 "Bip02 Spine"  46
 52 "Bip02 Neck"  51
 53 "Bip02 L Arm"  52
 54 "Bip02 L Arm1"  53
 55 "Bip02 L Arm2"  54
 56 "Bip02 R Arm"  52
 57 "Bip02 R Arm1"  56
 58 "Bip02 R Arm2"  57
 59 "Bip02 Neck1"  52
 60 "Bip02 Head"  59
 61 "Dummy17"  52
 62 "Bone01"  61
 63 "Bone02"  62
 64 "Bone03"  63
 65 "Dummy18"  64
 66 "Bone04"  65
 67 "Bone05"  66
 68 "Bone08"  65
 69 "Bone09"  68
 70 "Dummy15"  51
 71 "Dummy13"  51
 72 "Bone12"  71
 73 "Dummy14"  51
 74 "Bone14"  73
end
skeleton
time 0
  0 0.001490 -0.001490 -24.602341 0.000000 0.000000 -1.570795
  1 0.000000 0.000000 0.000000 -1.570795 -1.570796 0.000000
  2 1.326317 -0.003921 0.000002 -0.000004 -0.000001 0.000796
  3 4.926312 -0.003923 0.000000 0.000000 0.000000 0.000000
  4 4.926314 -0.003923 0.000000 0.000000 0.000000 0.000000
  5 4.926313 -0.003923 0.000000 0.000000 0.000000 0.000000
  6 4.926317 -0.001509 0.000000 0.000000 0.000000 0.000000
  7 -0.000001 0.001503 1.894737 -0.000014 -1.370797 3.140810
  8 4.926316 0.000000 0.000002 0.000000 1.270796 0.000000
  9 11.368426 0.000000 0.000000 0.000000 0.000000 -0.200000
 10 11.368419 -0.000001 0.000000 -1.570000 0.000000 0.000000
 11 1.126230 0.104083 -1.358370 1.823541 0.487125 0.071487
 12 2.373626 0.000000 0.000000 0.000000 0.000000 0.113389
 13 1.071901 -0.000001 -0.000001 0.000000 0.000000 0.017444
 14 3.789472 -0.000906 -1.136842 0.011610 0.156576 0.079348
 15 1.136843 0.000001 0.000000 0.000000 0.000000 0.000000
 16 1.136841 -0.000001 0.000000 0.000000 0.000000 0.000000
 17 3.789472 -0.000302 -0.378948 0.005372 0.078320 0.078679
 18 1.326317 0.000000 0.000000 0.000000 0.000000 0.000000
 19 1.326316 0.000000 0.000000 0.000000 0.000000 0.008722
 20 3.789472 0.000302 0.378947 -0.000794 0.000062 0.078500
 21 1.136844 -0.000001 0.000000 0.000000 0.000000 0.000000
 22 1.136840 0.000000 0.000000 0.000000 0.000000 0.000000
 23 3.789472 0.000904 1.136841 -0.012516 -0.147755 0.079485
 24 0.947370 0.000000 0.000000 0.000000 0.000000 0.000000
 25 0.947371 0.000000 0.000000 0.000000 0.000000 0.000000
 26 -0.000001 0.001514 -1.894737 -0.000014 1.370797 3.140783
 27 4.926315 0.000000 0.000000 0.847774 -0.972114 -0.948166
 28 11.368422 0.000000 0.000000 0.000000 0.000000 -1.767148
 29 11.368423 -0.000001 0.000000 1.839324 -0.077830 0.250078
 30 1.126228 0.104083 1.358368 0.457502 -2.605423 -1.521515
 31 2.373624 0.000000 0.000002 0.000000 0.000000 0.401222
 32 1.071902 -0.000001 -0.000003 0.000000 0.000000 0.017444
 33 3.789474 -0.000905 1.136841 -0.037570 -0.414627 0.239217
 34 1.136845 0.000000 0.000001 0.000000 0.000000 0.148278
 35 1.136841 0.000001 0.000001 0.000000 0.000000 0.148278
 36 3.789474 -0.000302 0.378947 -0.005415 -0.148097 0.079058
 37 1.326317 0.000000 0.000001 0.000000 0.000000 0.305278
 38 1.326316 0.000002 0.000001 0.000000 0.000000 0.314000
 39 3.789474 0.000302 -0.378949 0.000795 0.043549 0.078535
 40 1.136841 0.000000 -0.000001 0.000000 0.000000 0.348889
 41 1.136842 0.000001 -0.000002 0.000000 0.000000 0.488444
 42 3.789473 0.000905 -1.136844 0.135879 0.229912 0.492740
 43 0.947368 0.000000 -0.000002 0.000000 0.000000 0.401222
 44 0.947368 -0.000001 0.000002 0.000000 0.000000 0.401222
 45 2.888322 2.959115 0.438626 1.711436 -1.155713 0.834015
 46 0.000002 0.000000 0.000000 -1.570795 -1.570796 0.000000
 47 0.000002 0.000002 0.810343 0.839466 -0.550772 -1.653111
 48 2.238523 -0.000003 0.000000 0.000000 0.000000 -0.668757
 49 0.000004 -0.000001 -0.810346 -1.559943 0.495269 -1.761756
 50 2.238524 0.000001 0.000000 0.000000 0.000000 -0.900299
 51 0.363078 0.000077 -0.000001 -0.000005 0.000001 1.596963
 52 3.612748 -0.000617 0.000000 0.000014 0.017442 0.623111
 53 -0.424214 1.681428 0.397813 -3.030145 -1.479118 -0.734819
 54 1.053449 -0.000001 0.000002 0.709239 -0.221181 -0.716249
 55 1.389162 0.000000 -0.000001 0.000000 0.000000 -1.018294
 56 -0.388415 1.672651 -0.079509 -0.729452 1.555518 1.788361
 57 1.053449 0.000000 0.000004 -1.056774 -0.018222 -0.931778
 58 1.389164 -0.000003 0.000000 0.000000 0.000000 -0.725735
 59 0.954035 -0.000843 0.000000 -0.000056 -0.069779 0.326557
 60 1.118276 0.000001 0.000000 -0.014631 -0.120360 0.088999
 61 -0.365877 0.111424 0.025617 -0.000003 -0.000001 -3.014593
 62 -0.118860 -0.103543 0.000000 0.000000 0.000000 0.000000
 63 -0.563063 -0.465608 0.000001 0.000000 0.000000 0.000000
 64 -0.703827 -0.487267 0.000000 0.000000 0.000000 0.000000
 65 -0.064971 0.054141 0.000000 0.000000 0.000000 0.000000
 66 -0.129936 0.129935 0.000000 0.000000 0.000000 0.000000
 67 -0.238220 0.140764 0.000000 0.000000 0.000000 0.000000
 68 0.010828 -0.119112 0.000000 0.000000 0.000000 0.000000
 69 0.064970 -0.292362 0.000000 0.000000 0.000000 0.000000
 70 0.677212 1.229350 0.017638 -0.000003 0.000000 -2.827593
 71 1.056408 -0.863682 1.828653 -2.827593 -1.570796 0.000000
 72 0.181778 -0.060313 0.059987 0.000000 0.000000 0.000000
 73 1.058720 -0.870805 -1.535927 -2.827593 -1.570796 0.000000
 74 -0.136287 -0.046929 0.056675 -1.570797 0.000000 0.000000
end
