version 1
nodes
  0 "Bip01"  -1
  1 "Bip01 Pelvis"   0
  2 "Bip01 L Leg"   1
  3 "Bip01 L Leg1"   2
  4 "Bip01 L Foot"   3
  5 "Bip01 L Toe0"   4
  6 "Bip01 R Leg"   1
  7 "Bip01 R Leg1"   6
  8 "Bip01 R Foot"   7
  9 "Bip01 R Toe0"   8
 10 "Bip01 R Toe01"   9
 11 "Bip01 R Toe02"  10
 12 "Bip01 Spine"   1
 13 "Bip01 Spine1"  12
 14 "Bip01 Spine2"  13
 15 "Bip01 Spine3"  14
 16 "Bip01 Neck"  15
 17 "Bip01 Head"  16
 18 "Bip01 L Arm"  16
 19 "Bip01 L Arm1"  18
 20 "Bip01 L Arm2"  19
 21 "Bip01 L Hand"  20
 22 "Bip01 L Finger1"  21
 23 "Bip01 L Finger11"  22
 24 "Bip01 L Finger12"  23
 25 "Bip01 R Arm"  16
 26 "Bip01 R Arm1"  25
 27 "Bip01 R Arm2"  26
 28 "Bip01 R Hand"  27
 29 "Bip01 R Finger1"  28
 30 "Bip01 R Finger11"  29
 31 "Bip01 R Finger12"  30
end
skeleton
time 0
  0 0.235347 -0.235347 2.060132 -0.000000 -0.000000 -1.571254
  1 0.429701 0.082034 0.000000 -1.570795 -1.570796 0.000000
  2 -0.000005 0.000007 3.713255 -0.006863 -3.079779 5.909078
  3 18.045721 0.000000 0.000000 0.000000 -0.000000 -0.458238
  4 17.597597 0.000000 0.000000 -0.232790 -0.055001 0.083404
  5 3.793090 6.407221 0.000000 0.000000 -0.000000 1.570796
  6 0.000005 -0.000003 -3.713255 0.344636 2.981624 6.241095
  7 18.045725 0.000000 0.000000 0.000000 -0.000000 -0.404290
  8 17.597597 0.000000 0.000000 0.082078 0.135687 0.310194
  9 3.793090 6.407221 0.000000 0.000000 -0.000000 1.570796
 10 0.935740 0.000000 0.000000 0.000000 -0.000000 0.000000
 11 0.935741 0.000000 0.000000 0.000000 -0.000000 0.000000
 12 1.293670 0.684478 -0.000001 -0.522750 -0.030106 -0.052271
 13 5.309685 -0.003834 0.000000 -0.173562 0.018277 0.103142
 14 4.826790 -0.004591 0.000000 -0.104711 -0.000815 -0.008721
 15 5.792767 -0.005304 0.000000 -0.095991 0.001738 0.017402
 16 6.662317 -0.001453 0.000000 0.000000 -0.000001 0.471000
 17 2.046985 -0.000002 0.000000 0.878633 -0.219517 -0.349590
 18 -3.112024 1.517254 4.341911 0.414350 -1.352874 2.264158
 19 4.827230 0.000000 0.000001 -0.466310 0.564005 -0.640056
 20 11.139763 0.000000 0.000000 0.000000 -0.000000 -0.828476
 21 10.314597 0.000001 0.000000 -3.729291 0.371878 -0.340395
 22 2.975834 -0.386307 -0.044143 -0.000797 -0.043611 0.000035
 23 1.438886 0.000000 0.000000 0.000000 -0.000000 0.462219
 24 1.485303 0.000000 0.000000 0.000000 -0.000000 0.758742
 25 -2.869898 1.399663 -4.140396 -1.294301 0.932079 1.438772
 26 4.972048 0.000000 0.000001 0.474868 -1.195352 -0.906175
 27 11.585355 0.000000 0.000000 0.000000 -0.000000 -1.342816
 28 10.127057 0.000000 0.000001 1.691423 0.171200 0.199583
 29 2.683750 -0.427338 0.044205 -0.005738 0.043239 -0.157060
 30 1.438885 -0.000001 0.000000 0.000000 -0.000000 0.732589
 31 1.485305 0.000001 0.000000 0.000000 -0.000000 1.168627
time 1
  0 0.235347 -0.235347 2.060132 -0.000000 -0.000000 -1.571254
  1 0.714866 -0.062502 0.000000 -1.570795 -1.570796 0.000000
  2 -0.000005 0.000007 3.713255 -0.006096 -3.075081 5.913488
  3 18.045721 0.000000 0.000000 0.000000 -0.000000 -0.465955
  4 17.597597 0.000000 0.000000 -0.232131 -0.059894 0.095254
  5 3.793090 6.407221 0.000000 0.000000 -0.000000 1.570796
  6 0.000005 -0.000003 -3.713255 0.346937 2.987567 6.253271
  7 18.045725 0.000000 0.000000 0.000000 -0.000000 -0.396321
  8 17.597597 0.000000 0.000000 0.081913 0.134188 0.315345
  9 3.793090 6.407221 0.000000 0.000000 -0.000000 1.570796
 10 0.935740 0.000000 0.000000 0.000000 -0.000000 0.000000
 11 0.935741 0.000000 0.000000 0.000000 -0.000000 0.000000
 12 1.293670 0.684478 -0.000001 -0.521569 -0.047556 -0.082522
 13 5.309685 -0.003834 0.000000 -0.173562 0.018277 0.103142
 14 4.826790 -0.004591 0.000000 -0.104711 -0.000815 -0.008721
 15 5.792767 -0.005304 0.000000 -0.235518 0.004255 0.016966
 16 6.662317 -0.001453 0.000000 0.000000 -0.000001 0.471000
 17 2.046985 -0.000002 0.000000 1.018136 -0.253691 -0.350669
 18 -3.112024 1.517254 4.341911 0.414350 -1.352874 2.264158
 19 4.827230 0.000000 0.000001 0.021319 0.860581 0.081386
 20 11.139763 0.000000 0.000000 0.000000 -0.000000 -1.677353
 21 10.314597 0.000001 0.000000 -3.545216 0.227418 0.096447
 22 2.975834 -0.386307 -0.044143 -0.000797 -0.043611 0.000035
 23 1.438886 0.000000 0.000000 0.000000 -0.000000 0.462219
 24 1.485303 0.000000 0.000000 0.000000 -0.000000 0.758742
 25 -2.869898 1.399663 -4.140396 -1.294301 0.932079 1.438772
 26 4.972048 0.000000 0.000001 -0.716395 -1.200581 0.184872
 27 11.585355 0.000000 0.000000 0.000000 -0.000000 -1.731706
 28 10.127057 0.000000 0.000001 1.691423 0.171200 0.199583
 29 2.683750 -0.427338 0.044205 -0.005738 0.043239 -0.157060
 30 1.438885 -0.000001 0.000000 0.000000 -0.000000 0.732589
 31 1.485305 0.000001 0.000000 0.000000 -0.000000 1.168627
time 2
  0 0.235347 -0.235347 2.060132 -0.000000 -0.000000 -1.571254
  1 0.675802 -0.039064 0.000000 -1.570795 -1.570796 0.000000
  2 -0.000005 0.000007 3.713255 -0.006096 -3.075369 5.912817
  3 18.045721 0.000000 0.000000 0.000000 -0.000000 -0.464917
  4 17.597597 0.000000 0.000000 -0.232207 -0.059212 0.093653
  5 3.793090 6.407221 0.000000 0.000000 -0.000000 1.570796
  6 0.000005 -0.000003 -3.713255 0.346458 2.986897 6.251353
  7 18.045725 0.000000 0.000000 0.000000 -0.000000 -0.397408
  8 17.597597 0.000000 0.000000 0.081913 0.134405 0.314727
  9 3.793090 6.407221 0.000000 0.000000 -0.000000 1.570796
 10 0.935740 0.000000 0.000000 0.000000 -0.000000 0.000000
 11 0.935741 0.000000 0.000000 0.000000 -0.000000 0.000000
 12 1.293670 0.684478 -0.000001 -0.521809 -0.045267 -0.078521
 13 5.309685 -0.003834 0.000000 -0.173562 0.018277 0.103142
 14 4.826790 -0.004591 0.000000 -0.104711 -0.000815 -0.008721
 15 5.792767 -0.005304 0.000000 -0.217077 0.003919 0.017070
 16 6.662317 -0.001453 0.000000 0.000000 -0.000001 0.471000
 17 2.046985 -0.000002 0.000000 0.999653 -0.248941 -0.350039
 18 -3.112024 1.517254 4.341911 0.414350 -1.352874 2.264158
 19 4.827230 0.000000 0.000001 -0.057329 0.834455 -0.017414
 20 11.139763 0.000000 0.000000 0.000000 -0.000000 -1.588562
 21 10.314597 0.000001 0.000000 -3.562473 0.242701 0.056112
 22 2.975834 -0.386307 -0.044143 -0.000797 -0.043611 0.000035
 23 1.438886 0.000000 0.000000 0.000000 -0.000000 0.462219
 24 1.485303 0.000000 0.000000 0.000000 -0.000000 0.758742
 25 -2.869898 1.399663 -4.140396 -1.294301 0.932079 1.438772
 26 4.972048 0.000000 0.000001 -0.581643 -1.228333 0.064127
 27 11.585355 0.000000 0.000000 0.000000 -0.000000 -1.680218
 28 10.127057 0.000000 0.000001 1.691423 0.171200 0.199583
 29 2.683750 -0.427338 0.044205 -0.005738 0.043239 -0.157060
 30 1.438885 -0.000001 0.000000 0.000000 -0.000000 0.732589
 31 1.485305 0.000001 0.000000 0.000000 -0.000000 1.168627
time 3
  0 0.235347 -0.235347 2.060132 -0.000000 -0.000000 -1.571254
  1 0.613300 -0.007813 0.000000 -1.570795 -1.570796 0.000000
  2 -0.000005 0.000007 3.713255 -0.006192 -3.076711 5.911858
  3 18.045721 0.000000 0.000000 0.000000 -0.000000 -0.463358
  4 17.597597 0.000000 0.000000 -0.232359 -0.058141 0.091045
  5 3.793090 6.407221 0.000000 0.000000 -0.000000 1.570796
  6 0.000005 -0.000003 -3.713255 0.346075 2.985458 6.248861
  7 18.045725 0.000000 0.000000 0.000000 -0.000000 -0.399219
  8 17.597597 0.000000 0.000000 0.081979 0.134760 0.313559
  9 3.793090 6.407221 0.000000 0.000000 -0.000000 1.570796
 10 0.935740 0.000000 0.000000 0.000000 -0.000000 0.000000
 11 0.935741 0.000000 0.000000 0.000000 -0.000000 0.000000
 12 1.293670 0.684478 -0.000001 -0.522112 -0.041384 -0.071774
 13 5.309685 -0.003834 0.000000 -0.173562 0.018277 0.103142
 14 4.826790 -0.004591 0.000000 -0.104711 -0.000815 -0.008721
 15 5.792767 -0.005304 0.000000 -0.185966 0.003368 0.017153
 16 6.662317 -0.001453 0.000000 0.000000 -0.000001 0.471000
 17 2.046985 -0.000002 0.000000 0.968504 -0.241084 -0.349590
 18 -3.112024 1.517254 4.341911 0.414350 -1.352874 2.264158
 19 4.827230 0.000000 0.000001 -0.179383 0.782288 -0.179310
 20 11.139763 0.000000 0.000000 0.000000 -0.000000 -1.427939
 21 10.314597 0.000001 0.000000 -3.595998 0.271506 -0.020903
 22 2.975834 -0.386307 -0.044143 -0.000797 -0.043611 0.000035
 23 1.438886 0.000000 0.000000 0.000000 -0.000000 0.462219
 24 1.485303 0.000000 0.000000 0.000000 -0.000000 0.758742
 25 -2.869898 1.399663 -4.140396 -1.294301 0.932079 1.438772
 26 4.972048 0.000000 0.000001 -0.310283 -1.257694 -0.184410
 27 11.585355 0.000000 0.000000 0.000000 -0.000000 -1.593611
 28 10.127057 0.000000 0.000001 1.691423 0.171200 0.199583
 29 2.683750 -0.427338 0.044205 -0.005738 0.043239 -0.157060
 30 1.438885 -0.000001 0.000000 0.000000 -0.000000 0.732589
 31 1.485305 0.000001 0.000000 0.000000 -0.000000 1.168627
time 4
  0 0.235347 -0.235347 2.060132 -0.000000 -0.000000 -1.571254
  1 0.546892 0.019532 0.000000 -1.570795 -1.570796 0.000000
  2 -0.000005 0.000007 3.713255 -0.006384 -3.077574 5.910612
  3 18.045721 0.000000 0.000000 0.000000 -0.000000 -0.461726
  4 17.597597 0.000000 0.000000 -0.232486 -0.057143 0.088620
  5 3.793090 6.407221 0.000000 0.000000 -0.000000 1.570796
  6 0.000005 -0.000003 -3.713255 0.345499 2.984500 6.246272
  7 18.045725 0.000000 0.000000 0.000000 -0.000000 -0.400885
  8 17.597597 0.000000 0.000000 0.082012 0.135056 0.312529
  9 3.793090 6.407221 0.000000 0.000000 -0.000000 1.570796
 10 0.935740 0.000000 0.000000 0.000000 -0.000000 0.000000
 11 0.935741 0.000000 0.000000 0.000000 -0.000000 0.000000
 12 1.293670 0.684478 -0.000001 -0.522287 -0.037752 -0.065530
 13 5.309685 -0.003834 0.000000 -0.173562 0.018277 0.103142
 14 4.826790 -0.004591 0.000000 -0.104711 -0.000815 -0.008721
 15 5.792767 -0.005304 0.000000 -0.157219 0.002804 0.017236
 16 6.662317 -0.001453 0.000000 0.000000 -0.000001 0.471000
 17 2.046985 -0.000002 0.000000 0.939811 -0.233993 -0.349095
 18 -3.112024 1.517254 4.341911 0.414350 -1.352874 2.264158
 19 4.827230 0.000000 0.000001 -0.280762 0.724675 -0.325016
 20 11.139763 0.000000 0.000000 0.000000 -0.000000 -1.263882
 21 10.314597 0.000001 0.000000 -3.624850 0.297659 -0.100298
 22 2.975834 -0.386307 -0.044143 -0.000797 -0.043611 0.000035
 23 1.438886 0.000000 0.000000 0.000000 -0.000000 0.462219
 24 1.485303 0.000000 0.000000 0.000000 -0.000000 0.758742
 25 -2.869898 1.399663 -4.140396 -1.294301 0.932079 1.438772
 26 4.972048 0.000000 0.000001 -0.032579 -1.261555 -0.441247
 27 11.585355 0.000000 0.000000 0.000000 -0.000000 -1.513231
 28 10.127057 0.000000 0.000001 1.691423 0.171200 0.199583
 29 2.683750 -0.427338 0.044205 -0.005738 0.043239 -0.157060
 30 1.438885 -0.000001 0.000000 0.000000 -0.000000 0.732589
 31 1.485305 0.000001 0.000000 0.000000 -0.000000 1.168627
time 5
  0 0.235347 -0.235347 2.060132 -0.000000 -0.000000 -1.571254
  1 0.503922 0.039064 0.000000 -1.570795 -1.570796 0.000000
  2 -0.000005 0.000007 3.713255 -0.006768 -3.078341 5.909844
  3 18.045721 0.000000 0.000000 0.000000 -0.000000 -0.460316
  4 17.597597 0.000000 0.000000 -0.232638 -0.056291 0.086561
  5 3.793090 6.407221 0.000000 0.000000 -0.000000 1.570796
  6 0.000005 -0.000003 -3.713255 0.345308 2.983157 6.244259
  7 18.045725 0.000000 0.000000 0.000000 -0.000000 -0.402334
  8 17.597597 0.000000 0.000000 0.082045 0.135332 0.311602
  9 3.793090 6.407221 0.000000 0.000000 -0.000000 1.570796
 10 0.935740 0.000000 0.000000 0.000000 -0.000000 0.000000
 11 0.935741 0.000000 0.000000 0.000000 -0.000000 0.000000
 12 1.293670 0.684478 -0.000001 -0.522543 -0.034708 -0.060273
 13 5.309685 -0.003834 0.000000 -0.173562 0.018277 0.103142
 14 4.826790 -0.004591 0.000000 -0.104711 -0.000815 -0.008721
 15 5.792767 -0.005304 0.000000 -0.132891 0.002409 0.017319
 16 6.662317 -0.001453 0.000000 0.000000 -0.000001 0.471000
 17 2.046985 -0.000002 0.000000 0.915512 -0.228139 -0.349095
 18 -3.112024 1.517254 4.341911 0.414350 -1.352874 2.264158
 19 4.827230 0.000000 0.000001 -0.358881 0.667998 -0.447619
 20 11.139763 0.000000 0.000000 0.000000 -0.000000 -1.109426
 21 10.314597 0.000001 0.000000 -3.647410 0.319268 -0.175695
 22 2.975834 -0.386307 -0.044143 -0.000797 -0.043611 0.000035
 23 1.438886 0.000000 0.000000 0.000000 -0.000000 0.462219
 24 1.485303 0.000000 0.000000 0.000000 -0.000000 0.758742
 25 -2.869898 1.399663 -4.140396 -1.294301 0.932079 1.438772
 26 4.972048 0.000000 0.000001 0.192678 -1.245869 -0.649404
 27 11.585355 0.000000 0.000000 0.000000 -0.000000 -1.445372
 28 10.127057 0.000000 0.000001 1.691423 0.171200 0.199583
 29 2.683750 -0.427338 0.044205 -0.005738 0.043239 -0.157060
 30 1.438885 -0.000001 0.000000 0.000000 -0.000000 0.732589
 31 1.485305 0.000001 0.000000 0.000000 -0.000000 1.168627
time 6
  0 0.235347 -0.235347 2.060132 -0.000000 -0.000000 -1.571254
  1 0.460952 0.070315 0.000000 -1.570795 -1.570796 0.000000
  2 -0.000005 0.000007 3.713255 -0.006863 -3.079108 5.909365
  3 18.045721 0.000000 0.000000 0.000000 -0.000000 -0.459277
  4 17.597597 0.000000 0.000000 -0.232714 -0.055561 0.084731
  5 3.793090 6.407221 0.000000 0.000000 -0.000000 1.570796
  6 0.000005 -0.000003 -3.713255 0.344732 2.982391 6.242533
  7 18.045725 0.000000 0.000000 0.000000 -0.000000 -0.403493
  8 17.597597 0.000000 0.000000 0.082045 0.135549 0.310812
  9 3.793090 6.407221 0.000000 0.000000 -0.000000 1.570796
 10 0.935740 0.000000 0.000000 0.000000 -0.000000 0.000000
 11 0.935741 0.000000 0.000000 0.000000 -0.000000 0.000000
 12 1.293670 0.684478 -0.000001 -0.522638 -0.032156 -0.055753
 13 5.309685 -0.003834 0.000000 -0.173562 0.018277 0.103142
 14 4.826790 -0.004591 0.000000 -0.104711 -0.000815 -0.008721
 15 5.792767 -0.005304 0.000000 -0.112052 0.001989 0.017340
 16 6.662317 -0.001453 0.000000 0.000000 -0.000001 0.471000
 17 2.046985 -0.000002 0.000000 0.894703 -0.223232 -0.349230
 18 -3.112024 1.517254 4.341911 0.414350 -1.352874 2.264158
 19 4.827230 0.000000 0.000001 -0.420848 0.612427 -0.554295
 20 11.139763 0.000000 0.000000 0.000000 -0.000000 -0.959946
 21 10.314597 0.000001 0.000000 -3.664937 0.337355 -0.248914
 22 2.975834 -0.386307 -0.044143 -0.000797 -0.043611 0.000035
 23 1.438886 0.000000 0.000000 0.000000 -0.000000 0.462219
 24 1.485303 0.000000 0.000000 0.000000 -0.000000 0.758742
 25 -2.869898 1.399663 -4.140396 -1.294301 0.932079 1.438772
 26 4.972048 0.000000 0.000001 0.362317 -1.220691 -0.804797
 27 11.585355 0.000000 0.000000 0.000000 -0.000000 -1.387588
 28 10.127057 0.000000 0.000001 1.691423 0.171200 0.199583
 29 2.683750 -0.427338 0.044205 -0.005738 0.043239 -0.157060
 30 1.438885 -0.000001 0.000000 0.000000 -0.000000 0.732589
 31 1.485305 0.000001 0.000000 0.000000 -0.000000 1.168627
time 7
  0 0.235347 -0.235347 2.060132 -0.000000 -0.000000 -1.571254
  1 0.429701 0.082034 0.000000 -1.570795 -1.570796 0.000000
  2 -0.000005 0.000007 3.713255 -0.006863 -3.079779 5.909078
  3 18.045721 0.000000 0.000000 0.000000 -0.000000 -0.458238
  4 17.597597 0.000000 0.000000 -0.232790 -0.055001 0.083404
  5 3.793090 6.407221 0.000000 0.000000 -0.000000 1.570796
  6 0.000005 -0.000003 -3.713255 0.344636 2.981624 6.241095
  7 18.045725 0.000000 0.000000 0.000000 -0.000000 -0.404290
  8 17.597597 0.000000 0.000000 0.082078 0.135687 0.310194
  9 3.793090 6.407221 0.000000 0.000000 -0.000000 1.570796
 10 0.935740 0.000000 0.000000 0.000000 -0.000000 0.000000
 11 0.935741 0.000000 0.000000 0.000000 -0.000000 0.000000
 12 1.293670 0.684478 -0.000001 -0.522750 -0.030106 -0.052271
 13 5.309685 -0.003834 0.000000 -0.173562 0.018277 0.103142
 14 4.826790 -0.004591 0.000000 -0.104711 -0.000815 -0.008721
 15 5.792767 -0.005304 0.000000 -0.095991 0.001738 0.017402
 16 6.662317 -0.001453 0.000000 0.000000 -0.000001 0.471000
 17 2.046985 -0.000002 0.000000 0.878633 -0.219517 -0.349590
 18 -3.112024 1.517254 4.341911 0.414350 -1.352874 2.264158
 19 4.827230 0.000000 0.000001 -0.466310 0.564005 -0.640056
 20 11.139763 0.000000 0.000000 0.000000 -0.000000 -0.828476
 21 10.314597 0.000001 0.000000 -3.677700 0.350986 -0.313531
 22 2.975834 -0.386307 -0.044143 -0.000797 -0.043611 0.000035
 23 1.438886 0.000000 0.000000 0.000000 -0.000000 0.462219
 24 1.485303 0.000000 0.000000 0.000000 -0.000000 0.758742
 25 -2.869898 1.399663 -4.140396 -1.294301 0.932079 1.438772
 26 4.972048 0.000000 0.000001 0.474868 -1.195352 -0.906175
 27 11.585355 0.000000 0.000000 0.000000 -0.000000 -1.342816
 28 10.127057 0.000000 0.000001 1.691423 0.171200 0.199583
 29 2.683750 -0.427338 0.044205 -0.005738 0.043239 -0.157060
 30 1.438885 -0.000001 0.000000 0.000000 -0.000000 0.732589
 31 1.485305 0.000001 0.000000 0.000000 -0.000000 1.168627
end
