version 1
nodes
  0 "Bip01"  -1
  1 "Bip01 Pelvis"   0
  2 "Bip01 L Leg"   1
  3 "Bip01 L Leg1"   2
  4 "Bip01 L Foot"   3
  5 "Bip01 L Toe0"   4
  6 "Bip01 R Leg"   1
  7 "Bip01 R Leg1"   6
  8 "Bip01 R Foot"   7
  9 "Bip01 R Toe0"   8
 10 "Bip01 R Toe01"   9
 11 "Bip01 R Toe02"  10
 12 "Bip01 Spine"   1
 13 "Bip01 Spine1"  12
 14 "Bip01 Spine2"  13
 15 "Bip01 Spine3"  14
 16 "Bip01 Neck"  15
 17 "Bip01 Head"  16
 18 "Bip01 L Arm"  16
 19 "Bip01 L Arm1"  18
 20 "Bip01 L Arm2"  19
 21 "Bip01 L Hand"  20
 22 "Bip01 L Finger1"  21
 23 "Bip01 L Finger11"  22
 24 "Bip01 L Finger12"  23
 25 "Bip01 R Arm"  16
 26 "Bip01 R Arm1"  25
 27 "Bip01 R Arm2"  26
 28 "Bip01 R Hand"  27
 29 "Bip01 R Finger1"  28
 30 "Bip01 R Finger11"  29
 31 "Bip01 R Finger12"  30
end
skeleton
time 0
  0 0.235347 -0.235347 3.532833 -0.000000 -0.000000 -1.571254
  1 0.000000 0.000000 0.000000 -1.570795 -1.570796 0.000000
  2 -0.000005 0.000007 3.713255 -6.281131 3.115177 6.261712
  3 18.045721 0.000000 0.000000 0.000000 -0.000000 -0.121501
  4 17.597597 0.000000 0.000000 -0.002613 0.026036 0.099967
  5 3.793090 6.407221 0.000000 0.000000 -0.000000 1.570796
  6 0.000005 -0.000003 -3.713255 6.280565 -3.123995 6.258640
  7 18.045725 0.000000 0.000000 0.000000 -0.000000 -0.127551
  8 17.597597 0.000000 0.000000 0.002950 -0.017289 0.103055
  9 3.793090 6.407221 0.000000 0.000000 -0.000000 1.570796
 10 0.935740 0.000000 0.000000 0.000000 -0.000000 0.000000
 11 0.935741 0.000000 0.000000 0.000000 -0.000000 0.000000
 12 1.293670 0.684478 -0.000001 -0.000004 -0.000001 0.306054
 13 5.309685 -0.003834 0.000000 0.000000 -0.000000 -0.000013
 14 4.826790 -0.004591 0.000000 -0.173330 0.019775 0.111663
 15 5.792767 -0.005304 0.000000 -0.138174 0.019451 0.138180
 16 6.662317 -0.001453 0.000000 0.000000 -0.000001 0.471000
 17 2.046985 -0.000002 0.000000 0.254577 -0.184691 -0.061026
 18 -3.112024 1.517254 4.341911 1.021706 -1.200331 1.679890
 19 4.827230 0.000000 0.000001 0.094622 0.640936 -0.848333
 20 11.139763 0.000000 0.000000 0.000000 -0.000000 -1.001223
 21 10.314597 0.000001 0.000000 -4.171504 0.083241 -0.332944
 22 2.975834 -0.386307 -0.044143 -0.000797 -0.043611 0.000035
 23 1.438886 0.000000 0.000000 0.000000 -0.000000 0.872170
 24 1.485303 0.000000 0.000000 0.000000 -0.000000 0.906977
 25 -2.869898 1.399663 -4.140396 0.672346 1.317206 3.326706
 26 4.972048 0.000000 0.000001 -1.089322 -1.024254 0.318132
 27 11.585355 0.000000 0.000000 0.000000 -0.000000 -1.839579
 28 10.127057 0.000000 0.000001 1.597654 0.255717 0.214724
 29 2.683750 -0.427338 0.044205 -0.005738 0.043239 -0.157060
 30 1.438885 -0.000001 0.000000 0.000000 -0.000000 0.732589
 31 1.485305 0.000001 0.000000 0.000000 -0.000000 1.168627
time 1
  0 0.235347 -0.235347 3.532833 -0.000000 -0.000000 -1.571254
  1 0.000000 0.000000 0.000000 -1.570795 -1.570796 0.000000
  2 -0.000005 0.000007 3.713255 -6.281131 3.115177 6.261712
  3 18.045721 0.000000 0.000000 0.000000 -0.000000 -0.121501
  4 17.597597 0.000000 0.000000 -0.002613 0.026036 0.099967
  5 3.793090 6.407221 0.000000 0.000000 -0.000000 1.570796
  6 0.000005 -0.000003 -3.713255 6.280565 -3.123995 6.258640
  7 18.045725 0.000000 0.000000 0.000000 -0.000000 -0.127551
  8 17.597597 0.000000 0.000000 0.002950 -0.017289 0.103055
  9 3.793090 6.407221 0.000000 0.000000 -0.000000 1.570796
 10 0.935740 0.000000 0.000000 0.000000 -0.000000 0.000000
 11 0.935741 0.000000 0.000000 0.000000 -0.000000 0.000000
 12 1.293670 0.684478 -0.000001 -0.000004 -0.000001 0.306439
 13 5.309685 -0.003834 0.000000 0.000000 -0.000000 -0.000013
 14 4.826790 -0.004591 0.000000 -0.173330 0.019775 0.111663
 15 5.792767 -0.005304 0.000000 -0.138157 0.019607 0.139280
 16 6.662317 -0.001453 0.000000 0.000000 -0.000001 0.471000
 17 2.046985 -0.000002 0.000000 0.254620 -0.184601 -0.062284
 18 -3.112024 1.517254 4.341911 1.015761 -1.198985 1.685834
 19 4.827230 0.000000 0.000001 0.096384 0.637787 -0.847633
 20 11.139763 0.000000 0.000000 0.000000 -0.000000 -1.001223
 21 10.314597 0.000001 0.000000 -4.171504 0.083241 -0.332944
 22 2.975834 -0.386307 -0.044143 -0.000797 -0.043611 0.000035
 23 1.438886 0.000000 0.000000 0.000000 -0.000000 0.872170
 24 1.485303 0.000000 0.000000 0.000000 -0.000000 0.906977
 25 -2.869898 1.399663 -4.140396 0.666306 1.315199 3.320474
 26 4.972048 0.000000 0.000001 -1.085532 -1.022565 0.314509
 27 11.585355 0.000000 0.000000 0.000000 -0.000000 -1.839579
 28 10.127057 0.000000 0.000001 1.597654 0.255717 0.214724
 29 2.683750 -0.427338 0.044205 -0.005738 0.043239 -0.157060
 30 1.438885 -0.000001 0.000000 0.000000 -0.000000 0.732589
 31 1.485305 0.000001 0.000000 0.000000 -0.000000 1.168627
time 2
  0 0.235347 -0.235347 3.532833 -0.000000 -0.000000 -1.571254
  1 0.000000 0.000000 0.000000 -1.570795 -1.570796 0.000000
  2 -0.000005 0.000007 3.713255 -6.281131 3.115177 6.261712
  3 18.045721 0.000000 0.000000 0.000000 -0.000000 -0.121501
  4 17.597597 0.000000 0.000000 -0.002613 0.026036 0.099967
  5 3.793090 6.407221 0.000000 0.000000 -0.000000 1.570796
  6 0.000005 -0.000003 -3.713255 6.280565 -3.123995 6.258640
  7 18.045725 0.000000 0.000000 0.000000 -0.000000 -0.127551
  8 17.597597 0.000000 0.000000 0.002950 -0.017289 0.103055
  9 3.793090 6.407221 0.000000 0.000000 -0.000000 1.570796
 10 0.935740 0.000000 0.000000 0.000000 -0.000000 0.000000
 11 0.935741 0.000000 0.000000 0.000000 -0.000000 0.000000
 12 1.293670 0.684478 -0.000001 -0.000004 -0.000001 0.306891
 13 5.309685 -0.003834 0.000000 0.000000 -0.000000 -0.000013
 14 4.826790 -0.004591 0.000000 -0.173330 0.019775 0.111663
 15 5.792767 -0.005304 0.000000 -0.138125 0.019811 0.140713
 16 6.662317 -0.001453 0.000000 0.000000 -0.000001 0.471000
 17 2.046985 -0.000002 0.000000 0.254879 -0.184466 -0.064442
 18 -3.112024 1.517254 4.341911 1.008188 -1.197177 1.693888
 19 4.827230 0.000000 0.000001 0.098851 0.633702 -0.846495
 20 11.139763 0.000000 0.000000 0.000000 -0.000000 -1.001223
 21 10.314597 0.000001 0.000000 -4.171504 0.083241 -0.332944
 22 2.975834 -0.386307 -0.044143 -0.000797 -0.043611 0.000035
 23 1.438886 0.000000 0.000000 0.000000 -0.000000 0.872170
 24 1.485303 0.000000 0.000000 0.000000 -0.000000 0.906977
 25 -2.869898 1.399663 -4.140396 0.658540 1.312486 3.311654
 26 4.972048 0.000000 0.000001 -1.080349 -1.020393 0.309766
 27 11.585355 0.000000 0.000000 0.000000 -0.000000 -1.839579
 28 10.127057 0.000000 0.000001 1.597654 0.255717 0.214724
 29 2.683750 -0.427338 0.044205 -0.005738 0.043239 -0.157060
 30 1.438885 -0.000001 0.000000 0.000000 -0.000000 0.732589
 31 1.485305 0.000001 0.000000 0.000000 -0.000000 1.168627
time 3
  0 0.235347 -0.235347 3.532833 -0.000000 -0.000000 -1.571254
  1 0.000000 0.000000 0.000000 -1.570795 -1.570796 0.000000
  2 -0.000005 0.000007 3.713255 -6.281131 3.115177 6.261712
  3 18.045721 0.000000 0.000000 0.000000 -0.000000 -0.121501
  4 17.597597 0.000000 0.000000 -0.002613 0.026036 0.099967
  5 3.793090 6.407221 0.000000 0.000000 -0.000000 1.570796
  6 0.000005 -0.000003 -3.713255 6.280565 -3.123995 6.258640
  7 18.045725 0.000000 0.000000 0.000000 -0.000000 -0.127551
  8 17.597597 0.000000 0.000000 0.002950 -0.017289 0.103055
  9 3.793090 6.407221 0.000000 0.000000 -0.000000 1.570796
 10 0.935740 0.000000 0.000000 0.000000 -0.000000 0.000000
 11 0.935741 0.000000 0.000000 0.000000 -0.000000 0.000000
 12 1.293670 0.684478 -0.000001 -0.000004 -0.000001 0.307527
 13 5.309685 -0.003834 0.000000 0.000000 -0.000000 -0.000013
 14 4.826790 -0.004591 0.000000 -0.173330 0.019775 0.111663
 15 5.792767 -0.005304 0.000000 -0.138092 0.020014 0.142540
 16 6.662317 -0.001453 0.000000 0.000000 -0.000001 0.471000
 17 2.046985 -0.000002 0.000000 0.255008 -0.184308 -0.066644
 18 -3.112024 1.517254 4.341911 0.999559 -1.194908 1.703667
 19 4.827230 0.000000 0.000001 0.101788 0.628596 -0.845095
 20 11.139763 0.000000 0.000000 0.000000 -0.000000 -1.001223
 21 10.314597 0.000001 0.000000 -4.171504 0.083241 -0.332944
 22 2.975834 -0.386307 -0.044143 -0.000797 -0.043611 0.000035
 23 1.438886 0.000000 0.000000 0.000000 -0.000000 0.872170
 24 1.485303 0.000000 0.000000 0.000000 -0.000000 0.906977
 25 -2.869898 1.399663 -4.140396 0.648857 1.309094 3.301875
 26 4.972048 0.000000 0.000001 -1.074006 -1.017497 0.303706
 27 11.585355 0.000000 0.000000 0.000000 -0.000000 -1.839579
 28 10.127057 0.000000 0.000001 1.597654 0.255717 0.214724
 29 2.683750 -0.427338 0.044205 -0.005738 0.043239 -0.157060
 30 1.438885 -0.000001 0.000000 0.000000 -0.000000 0.732589
 31 1.485305 0.000001 0.000000 0.000000 -0.000000 1.168627
time 4
  0 0.235347 -0.235347 3.532833 -0.000000 -0.000000 -1.571254
  1 0.000000 0.000000 0.000000 -1.570795 -1.570796 0.000000
  2 -0.000005 0.000007 3.713255 -6.281131 3.115177 6.261712
  3 18.045721 0.000000 0.000000 0.000000 -0.000000 -0.121501
  4 17.597597 0.000000 0.000000 -0.002613 0.026036 0.099967
  5 3.793090 6.407221 0.000000 0.000000 -0.000000 1.570796
  6 0.000005 -0.000003 -3.713255 6.280565 -3.123995 6.258640
  7 18.045725 0.000000 0.000000 0.000000 -0.000000 -0.127551
  8 17.597597 0.000000 0.000000 0.002950 -0.017289 0.103055
  9 3.793090 6.407221 0.000000 0.000000 -0.000000 1.570796
 10 0.935740 0.000000 0.000000 0.000000 -0.000000 0.000000
 11 0.935741 0.000000 0.000000 0.000000 -0.000000 0.000000
 12 1.293670 0.684478 -0.000001 -0.000004 -0.000001 0.308180
 13 5.309685 -0.003834 0.000000 0.000000 -0.000000 -0.000013
 14 4.826790 -0.004591 0.000000 -0.173330 0.019775 0.111663
 15 5.792767 -0.005304 0.000000 -0.138043 0.020350 0.144554
 16 6.662317 -0.001453 0.000000 0.000000 -0.000001 0.471000
 17 2.046985 -0.000002 0.000000 0.255094 -0.184150 -0.069611
 18 -3.112024 1.517254 4.341911 0.989301 -1.192254 1.714693
 19 4.827230 0.000000 0.000001 0.105136 0.623235 -0.843520
 20 11.139763 0.000000 0.000000 0.000000 -0.000000 -1.001223
 21 10.314597 0.000001 0.000000 -4.171504 0.083241 -0.332944
 22 2.975834 -0.386307 -0.044143 -0.000797 -0.043611 0.000035
 23 1.438886 0.000000 0.000000 0.000000 -0.000000 0.872170
 24 1.485303 0.000000 0.000000 0.000000 -0.000000 0.906977
 25 -2.869898 1.399663 -4.140396 0.638119 1.305222 3.290945
 26 4.972048 0.000000 0.000001 -1.067044 -1.014199 0.297316
 27 11.585355 0.000000 0.000000 0.000000 -0.000000 -1.839579
 28 10.127057 0.000000 0.000001 1.597654 0.255717 0.214724
 29 2.683750 -0.427338 0.044205 -0.005738 0.043239 -0.157060
 30 1.438885 -0.000001 0.000000 0.000000 -0.000000 0.732589
 31 1.485305 0.000001 0.000000 0.000000 -0.000000 1.168627
time 5
  0 0.235347 -0.235347 3.532833 -0.000000 -0.000000 -1.571254
  1 0.000000 0.000000 0.000000 -1.570795 -1.570796 0.000000
  2 -0.000005 0.000007 3.713255 -6.281131 3.115177 6.261712
  3 18.045721 0.000000 0.000000 0.000000 -0.000000 -0.121501
  4 17.597597 0.000000 0.000000 -0.002613 0.026036 0.099967
  5 3.793090 6.407221 0.000000 0.000000 -0.000000 1.570796
  6 0.000005 -0.000003 -3.713255 6.280565 -3.123995 6.258640
  7 18.045725 0.000000 0.000000 0.000000 -0.000000 -0.127551
  8 17.597597 0.000000 0.000000 0.002950 -0.017289 0.103055
  9 3.793090 6.407221 0.000000 0.000000 -0.000000 1.570796
 10 0.935740 0.000000 0.000000 0.000000 -0.000000 0.000000
 11 0.935741 0.000000 0.000000 0.000000 -0.000000 0.000000
 12 1.293670 0.684478 -0.000001 -0.000004 -0.000001 0.308950
 13 5.309685 -0.003834 0.000000 0.000000 -0.000000 -0.000013
 14 4.826790 -0.004591 0.000000 -0.173330 0.019775 0.111663
 15 5.792767 -0.005304 0.000000 -0.137994 0.020602 0.146838
 16 6.662317 -0.001453 0.000000 0.000000 -0.000001 0.471000
 17 2.046985 -0.000002 0.000000 0.255094 -0.183948 -0.072397
 18 -3.112024 1.517254 4.341911 0.978371 -1.189369 1.726869
 19 4.827230 0.000000 0.000001 0.108895 0.616597 -0.842032
 20 11.139763 0.000000 0.000000 0.000000 -0.000000 -1.001223
 21 10.314597 0.000001 0.000000 -4.171504 0.083241 -0.332944
 22 2.975834 -0.386307 -0.044143 -0.000797 -0.043611 0.000035
 23 1.438886 0.000000 0.000000 0.000000 -0.000000 0.872170
 24 1.485303 0.000000 0.000000 0.000000 -0.000000 0.906977
 25 -2.869898 1.399663 -4.140396 0.626806 1.301039 3.279153
 26 4.972048 0.000000 0.000001 -1.059463 -1.010740 0.290202
 27 11.585355 0.000000 0.000000 0.000000 -0.000000 -1.839579
 28 10.127057 0.000000 0.000001 1.597654 0.255717 0.214724
 29 2.683750 -0.427338 0.044205 -0.005738 0.043239 -0.157060
 30 1.438885 -0.000001 0.000000 0.000000 -0.000000 0.732589
 31 1.485305 0.000001 0.000000 0.000000 -0.000000 1.168627
time 6
  0 0.235347 -0.235347 3.532833 -0.000000 -0.000000 -1.571254
  1 0.000000 0.000000 0.000000 -1.570795 -1.570796 0.000000
  2 -0.000005 0.000007 3.713255 -6.281131 3.115177 6.261712
  3 18.045721 0.000000 0.000000 0.000000 -0.000000 -0.121501
  4 17.597597 0.000000 0.000000 -0.002613 0.026036 0.099967
  5 3.793090 6.407221 0.000000 0.000000 -0.000000 1.570796
  6 0.000005 -0.000003 -3.713255 6.280565 -3.123995 6.258640
  7 18.045725 0.000000 0.000000 0.000000 -0.000000 -0.127551
  8 17.597597 0.000000 0.000000 0.002950 -0.017289 0.103055
  9 3.793090 6.407221 0.000000 0.000000 -0.000000 1.570796
 10 0.935740 0.000000 0.000000 0.000000 -0.000000 0.000000
 11 0.935741 0.000000 0.000000 0.000000 -0.000000 0.000000
 12 1.293670 0.684478 -0.000001 -0.000004 -0.000001 0.309737
 13 5.309685 -0.003834 0.000000 0.000000 -0.000000 -0.000013
 14 4.826790 -0.004591 0.000000 -0.173330 0.019775 0.111663
 15 5.792767 -0.005304 0.000000 -0.137945 0.020937 0.149184
 16 6.662317 -0.001453 0.000000 0.000000 -0.000001 0.471000
 17 2.046985 -0.000002 0.000000 0.255396 -0.183745 -0.075724
 18 -3.112024 1.517254 4.341911 0.966675 -1.186215 1.739141
 19 4.827230 0.000000 0.000001 0.112596 0.609959 -0.840457
 20 11.139763 0.000000 0.000000 0.000000 -0.000000 -1.001223
 21 10.314597 0.000001 0.000000 -4.171504 0.083241 -0.332944
 22 2.975834 -0.386307 -0.044143 -0.000797 -0.043611 0.000035
 23 1.438886 0.000000 0.000000 0.000000 -0.000000 0.872170
 24 1.485303 0.000000 0.000000 0.000000 -0.000000 0.906977
 25 -2.869898 1.399663 -4.140396 0.614918 1.296545 3.267169
 26 4.972048 0.000000 0.000001 -1.051573 -1.006879 0.282824
 27 11.585355 0.000000 0.000000 0.000000 -0.000000 -1.839579
 28 10.127057 0.000000 0.000001 1.597654 0.255717 0.214724
 29 2.683750 -0.427338 0.044205 -0.005738 0.043239 -0.157060
 30 1.438885 -0.000001 0.000000 0.000000 -0.000000 0.732589
 31 1.485305 0.000001 0.000000 0.000000 -0.000000 1.168627
time 7
  0 0.235347 -0.235347 3.532833 -0.000000 -0.000000 -1.571254
  1 0.000000 0.000000 0.000000 -1.570795 -1.570796 0.000000
  2 -0.000005 0.000007 3.713255 -6.281131 3.115177 6.261712
  3 18.045721 0.000000 0.000000 0.000000 -0.000000 -0.121501
  4 17.597597 0.000000 0.000000 -0.002613 0.026036 0.099967
  5 3.793090 6.407221 0.000000 0.000000 -0.000000 1.570796
  6 0.000005 -0.000003 -3.713255 6.280565 -3.123995 6.258640
  7 18.045725 0.000000 0.000000 0.000000 -0.000000 -0.127551
  8 17.597597 0.000000 0.000000 0.002950 -0.017289 0.103055
  9 3.793090 6.407221 0.000000 0.000000 -0.000000 1.570796
 10 0.935740 0.000000 0.000000 0.000000 -0.000000 0.000000
 11 0.935741 0.000000 0.000000 0.000000 -0.000000 0.000000
 12 1.293670 0.684478 -0.000001 -0.000004 -0.000001 0.310574
 13 5.309685 -0.003834 0.000000 0.000000 -0.000000 -0.000013
 14 4.826790 -0.004591 0.000000 -0.173330 0.019775 0.111663
 15 5.792767 -0.005304 0.000000 -0.137897 0.021309 0.151572
 16 6.662317 -0.001453 0.000000 0.000000 -0.000001 0.471000
 17 2.046985 -0.000002 0.000000 0.255568 -0.183543 -0.078960
 18 -3.112024 1.517254 4.341911 0.955266 -1.183023 1.751030
 19 4.827230 0.000000 0.000001 0.116355 0.603236 -0.838794
 20 11.139763 0.000000 0.000000 0.000000 -0.000000 -1.001223
 21 10.314597 0.000001 0.000000 -4.171504 0.083241 -0.332944
 22 2.975834 -0.386307 -0.044143 -0.000797 -0.043611 0.000035
 23 1.438886 0.000000 0.000000 0.000000 -0.000000 0.872170
 24 1.485303 0.000000 0.000000 0.000000 -0.000000 0.906977
 25 -2.869898 1.399663 -4.140396 0.603509 1.291853 3.255376
 26 4.972048 0.000000 0.000001 -1.043683 -1.003098 0.275249
 27 11.585355 0.000000 0.000000 0.000000 -0.000000 -1.839579
 28 10.127057 0.000000 0.000001 1.597654 0.255717 0.214724
 29 2.683750 -0.427338 0.044205 -0.005738 0.043239 -0.157060
 30 1.438885 -0.000001 0.000000 0.000000 -0.000000 0.732589
 31 1.485305 0.000001 0.000000 0.000000 -0.000000 1.168627
time 8
  0 0.235347 -0.235347 3.532833 -0.000000 -0.000000 -1.571254
  1 0.000000 0.000000 0.000000 -1.570795 -1.570796 0.000000
  2 -0.000005 0.000007 3.713255 -6.281131 3.115177 6.261712
  3 18.045721 0.000000 0.000000 0.000000 -0.000000 -0.121501
  4 17.597597 0.000000 0.000000 -0.002613 0.026036 0.099967
  5 3.793090 6.407221 0.000000 0.000000 -0.000000 1.570796
  6 0.000005 -0.000003 -3.713255 6.280565 -3.123995 6.258640
  7 18.045725 0.000000 0.000000 0.000000 -0.000000 -0.127551
  8 17.597597 0.000000 0.000000 0.002950 -0.017289 0.103055
  9 3.793090 6.407221 0.000000 0.000000 -0.000000 1.570796
 10 0.935740 0.000000 0.000000 0.000000 -0.000000 0.000000
 11 0.935741 0.000000 0.000000 0.000000 -0.000000 0.000000
 12 1.293670 0.684478 -0.000001 -0.000004 -0.000001 0.311344
 13 5.309685 -0.003834 0.000000 0.000000 -0.000000 -0.000013
 14 4.826790 -0.004591 0.000000 -0.173330 0.019775 0.111663
 15 5.792767 -0.005304 0.000000 -0.137848 0.021596 0.153939
 16 6.662317 -0.001453 0.000000 0.000000 -0.000001 0.471000
 17 2.046985 -0.000002 0.000000 0.255611 -0.183340 -0.081971
 18 -3.112024 1.517254 4.341911 0.944528 -1.179792 1.763110
 19 4.827230 0.000000 0.000001 0.120173 0.596939 -0.837394
 20 11.139763 0.000000 0.000000 0.000000 -0.000000 -1.001223
 21 10.314597 0.000001 0.000000 -4.171504 0.083241 -0.332944
 22 2.975834 -0.386307 -0.044143 -0.000797 -0.043611 0.000035
 23 1.438886 0.000000 0.000000 0.000000 -0.000000 0.872170
 24 1.485303 0.000000 0.000000 0.000000 -0.000000 0.906977
 25 -2.869898 1.399663 -4.140396 0.592963 1.287246 3.243680
 26 4.972048 0.000000 0.000001 -1.035870 -0.999076 0.268069
 27 11.585355 0.000000 0.000000 0.000000 -0.000000 -1.839579
 28 10.127057 0.000000 0.000001 1.597654 0.255717 0.214724
 29 2.683750 -0.427338 0.044205 -0.005738 0.043239 -0.157060
 30 1.438885 -0.000001 0.000000 0.000000 -0.000000 0.732589
 31 1.485305 0.000001 0.000000 0.000000 -0.000000 1.168627
time 9
  0 0.235347 -0.235347 3.532833 -0.000000 -0.000000 -1.571254
  1 0.000000 0.000000 0.000000 -1.570795 -1.570796 0.000000
  2 -0.000005 0.000007 3.713255 -6.281131 3.115177 6.261712
  3 18.045721 0.000000 0.000000 0.000000 -0.000000 -0.121501
  4 17.597597 0.000000 0.000000 -0.002613 0.026036 0.099967
  5 3.793090 6.407221 0.000000 0.000000 -0.000000 1.570796
  6 0.000005 -0.000003 -3.713255 6.280565 -3.123995 6.258640
  7 18.045725 0.000000 0.000000 0.000000 -0.000000 -0.127551
  8 17.597597 0.000000 0.000000 0.002950 -0.017289 0.103055
  9 3.793090 6.407221 0.000000 0.000000 -0.000000 1.570796
 10 0.935740 0.000000 0.000000 0.000000 -0.000000 0.000000
 11 0.935741 0.000000 0.000000 0.000000 -0.000000 0.000000
 12 1.293670 0.684478 -0.000001 -0.000004 -0.000001 0.312131
 13 5.309685 -0.003834 0.000000 0.000000 -0.000000 -0.000013
 14 4.826790 -0.004591 0.000000 -0.173330 0.019775 0.111663
 15 5.792767 -0.005304 0.000000 -0.137799 0.021956 0.156202
 16 6.662317 -0.001453 0.000000 0.000000 -0.000001 0.471000
 17 2.046985 -0.000002 0.000000 0.255654 -0.183160 -0.085207
 18 -3.112024 1.517254 4.341911 0.934078 -1.176561 1.774711
 19 4.827230 0.000000 0.000001 0.123873 0.590216 -0.835819
 20 11.139763 0.000000 0.000000 0.000000 -0.000000 -1.001223
 21 10.314597 0.000001 0.000000 -4.171504 0.083241 -0.332944
 22 2.975834 -0.386307 -0.044143 -0.000797 -0.043611 0.000035
 23 1.438886 0.000000 0.000000 0.000000 -0.000000 0.872170
 24 1.485303 0.000000 0.000000 0.000000 -0.000000 0.906977
 25 -2.869898 1.399663 -4.140396 0.582416 1.282837 3.233421
 26 4.972048 0.000000 0.000001 -1.028444 -0.995376 0.261152
 27 11.585355 0.000000 0.000000 0.000000 -0.000000 -1.839579
 28 10.127057 0.000000 0.000001 1.597654 0.255717 0.214724
 29 2.683750 -0.427338 0.044205 -0.005738 0.043239 -0.157060
 30 1.438885 -0.000001 0.000000 0.000000 -0.000000 0.732589
 31 1.485305 0.000001 0.000000 0.000000 -0.000000 1.168627
time 10
  0 0.235347 -0.235347 3.532833 -0.000000 -0.000000 -1.571254
  1 0.000000 0.000000 0.000000 -1.570795 -1.570796 0.000000
  2 -0.000005 0.000007 3.713255 -6.281131 3.115177 6.261712
  3 18.045721 0.000000 0.000000 0.000000 -0.000000 -0.121501
  4 17.597597 0.000000 0.000000 -0.002613 0.026036 0.099967
  5 3.793090 6.407221 0.000000 0.000000 -0.000000 1.570796
  6 0.000005 -0.000003 -3.713255 6.280565 -3.123995 6.258640
  7 18.045725 0.000000 0.000000 0.000000 -0.000000 -0.127551
  8 17.597597 0.000000 0.000000 0.002950 -0.017289 0.103055
  9 3.793090 6.407221 0.000000 0.000000 -0.000000 1.570796
 10 0.935740 0.000000 0.000000 0.000000 -0.000000 0.000000
 11 0.935741 0.000000 0.000000 0.000000 -0.000000 0.000000
 12 1.293670 0.684478 -0.000001 -0.000004 -0.000001 0.312834
 13 5.309685 -0.003834 0.000000 0.000000 -0.000000 -0.000013
 14 4.826790 -0.004591 0.000000 -0.173330 0.019775 0.111663
 15 5.792767 -0.005304 0.000000 -0.137750 0.022207 0.158361
 16 6.662317 -0.001453 0.000000 0.000000 -0.000001 0.471000
 17 2.046985 -0.000002 0.000000 0.255956 -0.182980 -0.087859
 18 -3.112024 1.517254 4.341911 0.924299 -1.173638 1.784778
 19 4.827230 0.000000 0.000001 0.127221 0.584344 -0.834681
 20 11.139763 0.000000 0.000000 0.000000 -0.000000 -1.001223
 21 10.314597 0.000001 0.000000 -4.171504 0.083241 -0.332944
 22 2.975834 -0.386307 -0.044143 -0.000797 -0.043611 0.000035
 23 1.438886 0.000000 0.000000 0.000000 -0.000000 0.872170
 24 1.485303 0.000000 0.000000 0.000000 -0.000000 0.906977
 25 -2.869898 1.399663 -4.140396 0.573309 1.278597 3.223834
 26 4.972048 0.000000 0.000001 -1.021714 -0.991917 0.254631
 27 11.585355 0.000000 0.000000 0.000000 -0.000000 -1.839579
 28 10.127057 0.000000 0.000001 1.597654 0.255717 0.214724
 29 2.683750 -0.427338 0.044205 -0.005738 0.043239 -0.157060
 30 1.438885 -0.000001 0.000000 0.000000 -0.000000 0.732589
 31 1.485305 0.000001 0.000000 0.000000 -0.000000 1.168627
time 11
  0 0.235347 -0.235347 3.532833 -0.000000 -0.000000 -1.571254
  1 0.000000 0.000000 0.000000 -1.570795 -1.570796 0.000000
  2 -0.000005 0.000007 3.713255 -6.281131 3.115177 6.261712
  3 18.045721 0.000000 0.000000 0.000000 -0.000000 -0.121501
  4 17.597597 0.000000 0.000000 -0.002613 0.026036 0.099967
  5 3.793090 6.407221 0.000000 0.000000 -0.000000 1.570796
  6 0.000005 -0.000003 -3.713255 6.280565 -3.123995 6.258640
  7 18.045725 0.000000 0.000000 0.000000 -0.000000 -0.127551
  8 17.597597 0.000000 0.000000 0.002950 -0.017289 0.103055
  9 3.793090 6.407221 0.000000 0.000000 -0.000000 1.570796
 10 0.935740 0.000000 0.000000 0.000000 -0.000000 0.000000
 11 0.935741 0.000000 0.000000 0.000000 -0.000000 0.000000
 12 1.293670 0.684478 -0.000001 -0.000004 -0.000001 0.313487
 13 5.309685 -0.003834 0.000000 0.000000 -0.000000 -0.000013
 14 4.826790 -0.004591 0.000000 -0.173330 0.019775 0.111663
 15 5.792767 -0.005304 0.000000 -0.137717 0.022471 0.160230
 16 6.662317 -0.001453 0.000000 0.000000 -0.000001 0.471000
 17 2.046985 -0.000002 0.000000 0.256085 -0.182822 -0.090376
 18 -3.112024 1.517254 4.341911 0.915958 -1.170907 1.794078
 19 4.827230 0.000000 0.000001 0.130217 0.579238 -0.833456
 20 11.139763 0.000000 0.000000 0.000000 -0.000000 -1.001223
 21 10.314597 0.000001 0.000000 -4.171504 0.083241 -0.332944
 22 2.975834 -0.386307 -0.044143 -0.000797 -0.043611 0.000035
 23 1.438886 0.000000 0.000000 0.000000 -0.000000 0.872170
 24 1.485303 0.000000 0.000000 0.000000 -0.000000 0.906977
 25 -2.869898 1.399663 -4.140396 0.565735 1.274838 3.215589
 26 4.972048 0.000000 0.000001 -1.015835 -0.988699 0.248900
 27 11.585355 0.000000 0.000000 0.000000 -0.000000 -1.839579
 28 10.127057 0.000000 0.000001 1.597654 0.255717 0.214724
 29 2.683750 -0.427338 0.044205 -0.005738 0.043239 -0.157060
 30 1.438885 -0.000001 0.000000 0.000000 -0.000000 0.732589
 31 1.485305 0.000001 0.000000 0.000000 -0.000000 1.168627
time 12
  0 0.235347 -0.235347 3.532833 -0.000000 -0.000000 -1.571254
  1 0.000000 0.000000 0.000000 -1.570795 -1.570796 0.000000
  2 -0.000005 0.000007 3.713255 -6.281131 3.115177 6.261712
  3 18.045721 0.000000 0.000000 0.000000 -0.000000 -0.121501
  4 17.597597 0.000000 0.000000 -0.002613 0.026036 0.099967
  5 3.793090 6.407221 0.000000 0.000000 -0.000000 1.570796
  6 0.000005 -0.000003 -3.713255 6.280565 -3.123995 6.258640
  7 18.045725 0.000000 0.000000 0.000000 -0.000000 -0.127551
  8 17.597597 0.000000 0.000000 0.002950 -0.017289 0.103055
  9 3.793090 6.407221 0.000000 0.000000 -0.000000 1.570796
 10 0.935740 0.000000 0.000000 0.000000 -0.000000 0.000000
 11 0.935741 0.000000 0.000000 0.000000 -0.000000 0.000000
 12 1.293670 0.684478 -0.000001 -0.000004 -0.000001 0.314006
 13 5.309685 -0.003834 0.000000 0.000000 -0.000000 -0.000013
 14 4.826790 -0.004591 0.000000 -0.173330 0.019775 0.111663
 15 5.792767 -0.005304 0.000000 -0.137685 0.022735 0.161808
 16 6.662317 -0.001453 0.000000 0.000000 -0.000001 0.471000
 17 2.046985 -0.000002 0.000000 0.256128 -0.182687 -0.092714
 18 -3.112024 1.517254 4.341911 0.909055 -1.168638 1.801844
 19 4.827230 0.000000 0.000001 0.132625 0.574472 -0.832581
 20 11.139763 0.000000 0.000000 0.000000 -0.000000 -1.001223
 21 10.314597 0.000001 0.000000 -4.171504 0.083241 -0.332944
 22 2.975834 -0.386307 -0.044143 -0.000797 -0.043611 0.000035
 23 1.438886 0.000000 0.000000 0.000000 -0.000000 0.872170
 24 1.485303 0.000000 0.000000 0.000000 -0.000000 0.906977
 25 -2.869898 1.399663 -4.140396 0.558928 1.271729 3.208782
 26 4.972048 0.000000 0.000001 -1.010962 -0.985964 0.244289
 27 11.585355 0.000000 0.000000 0.000000 -0.000000 -1.839579
 28 10.127057 0.000000 0.000001 1.597654 0.255717 0.214724
 29 2.683750 -0.427338 0.044205 -0.005738 0.043239 -0.157060
 30 1.438885 -0.000001 0.000000 0.000000 -0.000000 0.732589
 31 1.485305 0.000001 0.000000 0.000000 -0.000000 1.168627
time 13
  0 0.235347 -0.235347 3.532833 -0.000000 -0.000000 -1.571254
  1 0.000000 0.000000 0.000000 -1.570795 -1.570796 0.000000
  2 -0.000005 0.000007 3.713255 -6.281131 3.115177 6.261712
  3 18.045721 0.000000 0.000000 0.000000 -0.000000 -0.121501
  4 17.597597 0.000000 0.000000 -0.002613 0.026036 0.099967
  5 3.793090 6.407221 0.000000 0.000000 -0.000000 1.570796
  6 0.000005 -0.000003 -3.713255 6.280565 -3.123995 6.258640
  7 18.045725 0.000000 0.000000 0.000000 -0.000000 -0.127551
  8 17.597597 0.000000 0.000000 0.002950 -0.017289 0.103055
  9 3.793090 6.407221 0.000000 0.000000 -0.000000 1.570796
 10 0.935740 0.000000 0.000000 0.000000 -0.000000 0.000000
 11 0.935741 0.000000 0.000000 0.000000 -0.000000 0.000000
 12 1.293670 0.684478 -0.000001 -0.000004 -0.000001 0.314391
 13 5.309685 -0.003834 0.000000 0.000000 -0.000000 -0.000013
 14 4.826790 -0.004591 0.000000 -0.173330 0.019775 0.111663
 15 5.792767 -0.005304 0.000000 -0.137652 0.022903 0.163033
 16 6.662317 -0.001453 0.000000 0.000000 -0.000001 0.471000
 17 2.046985 -0.000002 0.000000 0.256128 -0.182575 -0.094152
 18 -3.112024 1.517254 4.341911 0.903782 -1.166830 1.807213
 19 4.827230 0.000000 0.000001 0.134446 0.570983 -0.831881
 20 11.139763 0.000000 0.000000 0.000000 -0.000000 -1.001223
 21 10.314597 0.000001 0.000000 -4.171504 0.083241 -0.332944
 22 2.975834 -0.386307 -0.044143 -0.000797 -0.043611 0.000035
 23 1.438886 0.000000 0.000000 0.000000 -0.000000 0.872170
 24 1.485303 0.000000 0.000000 0.000000 -0.000000 0.906977
 25 -2.869898 1.399663 -4.140396 0.554326 1.269270 3.203605
 26 4.972048 0.000000 0.000001 -1.007094 -0.983953 0.240666
 27 11.585355 0.000000 0.000000 0.000000 -0.000000 -1.839579
 28 10.127057 0.000000 0.000001 1.597654 0.255717 0.214724
 29 2.683750 -0.427338 0.044205 -0.005738 0.043239 -0.157060
 30 1.438885 -0.000001 0.000000 0.000000 -0.000000 0.732589
 31 1.485305 0.000001 0.000000 0.000000 -0.000000 1.168627
time 14
  0 0.235347 -0.235347 3.532833 -0.000000 -0.000000 -1.571254
  1 0.000000 0.000000 0.000000 -1.570795 -1.570796 0.000000
  2 -0.000005 0.000007 3.713255 -6.281131 3.115177 6.261712
  3 18.045721 0.000000 0.000000 0.000000 -0.000000 -0.121501
  4 17.597597 0.000000 0.000000 -0.002613 0.026036 0.099967
  5 3.793090 6.407221 0.000000 0.000000 -0.000000 1.570796
  6 0.000005 -0.000003 -3.713255 6.280565 -3.123995 6.258640
  7 18.045725 0.000000 0.000000 0.000000 -0.000000 -0.127551
  8 17.597597 0.000000 0.000000 0.002950 -0.017289 0.103055
  9 3.793090 6.407221 0.000000 0.000000 -0.000000 1.570796
 10 0.935740 0.000000 0.000000 0.000000 -0.000000 0.000000
 11 0.935741 0.000000 0.000000 0.000000 -0.000000 0.000000
 12 1.293670 0.684478 -0.000001 -0.000004 -0.000001 0.314692
 13 5.309685 -0.003834 0.000000 0.000000 -0.000000 -0.000013
 14 4.826790 -0.004591 0.000000 -0.173330 0.019775 0.111663
 15 5.792767 -0.005304 0.000000 -0.137636 0.022962 0.163822
 16 6.662317 -0.001453 0.000000 0.000000 -0.000001 0.471000
 17 2.046985 -0.000002 0.000000 0.256128 -0.182507 -0.095366
 18 -3.112024 1.517254 4.341911 0.900139 -1.165676 1.811144
 19 4.827230 0.000000 0.000001 0.135738 0.569111 -0.831618
 20 11.139763 0.000000 0.000000 0.000000 -0.000000 -1.001223
 21 10.314597 0.000001 0.000000 -4.171504 0.083241 -0.332944
 22 2.975834 -0.386307 -0.044143 -0.000797 -0.043611 0.000035
 23 1.438886 0.000000 0.000000 0.000000 -0.000000 0.872170
 24 1.485303 0.000000 0.000000 0.000000 -0.000000 0.906977
 25 -2.869898 1.399663 -4.140396 0.551162 1.267659 3.200441
 26 4.972048 0.000000 0.000001 -1.004696 -0.982666 0.238558
 27 11.585355 0.000000 0.000000 0.000000 -0.000000 -1.839579
 28 10.127057 0.000000 0.000001 1.597654 0.255717 0.214724
 29 2.683750 -0.427338 0.044205 -0.005738 0.043239 -0.157060
 30 1.438885 -0.000001 0.000000 0.000000 -0.000000 0.732589
 31 1.485305 0.000001 0.000000 0.000000 -0.000000 1.168627
time 15
  0 0.235347 -0.235347 3.532833 -0.000000 -0.000000 -1.571254
  1 0.000000 0.000000 0.000000 -1.570795 -1.570796 0.000000
  2 -0.000005 0.000007 3.713255 -6.281131 3.115177 6.261712
  3 18.045721 0.000000 0.000000 0.000000 -0.000000 -0.121501
  4 17.597597 0.000000 0.000000 -0.002613 0.026036 0.099967
  5 3.793090 6.407221 0.000000 0.000000 -0.000000 1.570796
  6 0.000005 -0.000003 -3.713255 6.280565 -3.123995 6.258640
  7 18.045725 0.000000 0.000000 0.000000 -0.000000 -0.127551
  8 17.597597 0.000000 0.000000 0.002950 -0.017289 0.103055
  9 3.793090 6.407221 0.000000 0.000000 -0.000000 1.570796
 10 0.935740 0.000000 0.000000 0.000000 -0.000000 0.000000
 11 0.935741 0.000000 0.000000 0.000000 -0.000000 0.000000
 12 1.293670 0.684478 -0.000001 -0.000004 -0.000001 0.314776
 13 5.309685 -0.003834 0.000000 0.000000 -0.000000 -0.000013
 14 4.826790 -0.004591 0.000000 -0.173330 0.019775 0.111663
 15 5.792767 -0.005304 0.000000 -0.137619 0.022998 0.164071
 16 6.662317 -0.001453 0.000000 0.000000 -0.000001 0.471000
 17 2.046985 -0.000002 0.000000 0.256128 -0.182485 -0.095590
 18 -3.112024 1.517254 4.341911 0.899180 -1.165330 1.812582
 19 4.827230 0.000000 0.000001 0.136208 0.568345 -0.831443
 20 11.139763 0.000000 0.000000 0.000000 -0.000000 -1.001223
 21 10.314597 0.000001 0.000000 -4.171504 0.083241 -0.332944
 22 2.975834 -0.386307 -0.044143 -0.000797 -0.043611 0.000035
 23 1.438886 0.000000 0.000000 0.000000 -0.000000 0.872170
 24 1.485303 0.000000 0.000000 0.000000 -0.000000 0.906977
 25 -2.869898 1.399663 -4.140396 0.549820 1.267122 3.199099
 26 4.972048 0.000000 0.000001 -1.003845 -0.982103 0.237570
 27 11.585355 0.000000 0.000000 0.000000 -0.000000 -1.839579
 28 10.127057 0.000000 0.000001 1.597654 0.255717 0.214724
 29 2.683750 -0.427338 0.044205 -0.005738 0.043239 -0.157060
 30 1.438885 -0.000001 0.000000 0.000000 -0.000000 0.732589
 31 1.485305 0.000001 0.000000 0.000000 -0.000000 1.168627
time 16
  0 0.235347 -0.235347 3.532833 -0.000000 -0.000000 -1.571254
  1 0.000000 0.000000 0.000000 -1.570795 -1.570796 0.000000
  2 -0.000005 0.000007 3.713255 -6.281131 3.115177 6.261712
  3 18.045721 0.000000 0.000000 0.000000 -0.000000 -0.121501
  4 17.597597 0.000000 0.000000 -0.002613 0.026036 0.099967
  5 3.793090 6.407221 0.000000 0.000000 -0.000000 1.570796
  6 0.000005 -0.000003 -3.713255 6.280565 -3.123995 6.258640
  7 18.045725 0.000000 0.000000 0.000000 -0.000000 -0.127551
  8 17.597597 0.000000 0.000000 0.002950 -0.017289 0.103055
  9 3.793090 6.407221 0.000000 0.000000 -0.000000 1.570796
 10 0.935740 0.000000 0.000000 0.000000 -0.000000 0.000000
 11 0.935741 0.000000 0.000000 0.000000 -0.000000 0.000000
 12 1.293670 0.684478 -0.000001 -0.000004 -0.000001 0.314692
 13 5.309685 -0.003834 0.000000 0.000000 -0.000000 -0.000013
 14 4.826790 -0.004591 0.000000 -0.173330 0.019775 0.111663
 15 5.792767 -0.005304 0.000000 -0.137636 0.022962 0.163822
 16 6.662317 -0.001453 0.000000 0.000000 -0.000001 0.471000
 17 2.046985 -0.000002 0.000000 0.256128 -0.182507 -0.095366
 18 -3.112024 1.517254 4.341911 0.900139 -1.165676 1.811144
 19 4.827230 0.000000 0.000001 0.135738 0.569111 -0.831618
 20 11.139763 0.000000 0.000000 0.000000 -0.000000 -1.001223
 21 10.314597 0.000001 0.000000 -4.171504 0.083241 -0.332944
 22 2.975834 -0.386307 -0.044143 -0.000797 -0.043611 0.000035
 23 1.438886 0.000000 0.000000 0.000000 -0.000000 0.872170
 24 1.485303 0.000000 0.000000 0.000000 -0.000000 0.906977
 25 -2.869898 1.399663 -4.140396 0.551162 1.267659 3.200441
 26 4.972048 0.000000 0.000001 -1.004696 -0.982666 0.238558
 27 11.585355 0.000000 0.000000 0.000000 -0.000000 -1.839579
 28 10.127057 0.000000 0.000001 1.597654 0.255717 0.214724
 29 2.683750 -0.427338 0.044205 -0.005738 0.043239 -0.157060
 30 1.438885 -0.000001 0.000000 0.000000 -0.000000 0.732589
 31 1.485305 0.000001 0.000000 0.000000 -0.000000 1.168627
time 17
  0 0.235347 -0.235347 3.532833 -0.000000 -0.000000 -1.571254
  1 0.000000 0.000000 0.000000 -1.570795 -1.570796 0.000000
  2 -0.000005 0.000007 3.713255 -6.281131 3.115177 6.261712
  3 18.045721 0.000000 0.000000 0.000000 -0.000000 -0.121501
  4 17.597597 0.000000 0.000000 -0.002613 0.026036 0.099967
  5 3.793090 6.407221 0.000000 0.000000 -0.000000 1.570796
  6 0.000005 -0.000003 -3.713255 6.280565 -3.123995 6.258640
  7 18.045725 0.000000 0.000000 0.000000 -0.000000 -0.127551
  8 17.597597 0.000000 0.000000 0.002950 -0.017289 0.103055
  9 3.793090 6.407221 0.000000 0.000000 -0.000000 1.570796
 10 0.935740 0.000000 0.000000 0.000000 -0.000000 0.000000
 11 0.935741 0.000000 0.000000 0.000000 -0.000000 0.000000
 12 1.293670 0.684478 -0.000001 -0.000004 -0.000001 0.314391
 13 5.309685 -0.003834 0.000000 0.000000 -0.000000 -0.000013
 14 4.826790 -0.004591 0.000000 -0.173330 0.019775 0.111663
 15 5.792767 -0.005304 0.000000 -0.137652 0.022903 0.163033
 16 6.662317 -0.001453 0.000000 0.000000 -0.000001 0.471000
 17 2.046985 -0.000002 0.000000 0.256128 -0.182575 -0.094152
 18 -3.112024 1.517254 4.341911 0.903782 -1.166830 1.807213
 19 4.827230 0.000000 0.000001 0.134446 0.570983 -0.831881
 20 11.139763 0.000000 0.000000 0.000000 -0.000000 -1.001223
 21 10.314597 0.000001 0.000000 -4.171504 0.083241 -0.332944
 22 2.975834 -0.386307 -0.044143 -0.000797 -0.043611 0.000035
 23 1.438886 0.000000 0.000000 0.000000 -0.000000 0.872170
 24 1.485303 0.000000 0.000000 0.000000 -0.000000 0.906977
 25 -2.869898 1.399663 -4.140396 0.554326 1.269270 3.203605
 26 4.972048 0.000000 0.000001 -1.007094 -0.983953 0.240666
 27 11.585355 0.000000 0.000000 0.000000 -0.000000 -1.839579
 28 10.127057 0.000000 0.000001 1.597654 0.255717 0.214724
 29 2.683750 -0.427338 0.044205 -0.005738 0.043239 -0.157060
 30 1.438885 -0.000001 0.000000 0.000000 -0.000000 0.732589
 31 1.485305 0.000001 0.000000 0.000000 -0.000000 1.168627
time 18
  0 0.235347 -0.235347 3.532833 -0.000000 -0.000000 -1.571254
  1 0.000000 0.000000 0.000000 -1.570795 -1.570796 0.000000
  2 -0.000005 0.000007 3.713255 -6.281131 3.115177 6.261712
  3 18.045721 0.000000 0.000000 0.000000 -0.000000 -0.121501
  4 17.597597 0.000000 0.000000 -0.002613 0.026036 0.099967
  5 3.793090 6.407221 0.000000 0.000000 -0.000000 1.570796
  6 0.000005 -0.000003 -3.713255 6.280565 -3.123995 6.258640
  7 18.045725 0.000000 0.000000 0.000000 -0.000000 -0.127551
  8 17.597597 0.000000 0.000000 0.002950 -0.017289 0.103055
  9 3.793090 6.407221 0.000000 0.000000 -0.000000 1.570796
 10 0.935740 0.000000 0.000000 0.000000 -0.000000 0.000000
 11 0.935741 0.000000 0.000000 0.000000 -0.000000 0.000000
 12 1.293670 0.684478 -0.000001 -0.000004 -0.000001 0.314006
 13 5.309685 -0.003834 0.000000 0.000000 -0.000000 -0.000013
 14 4.826790 -0.004591 0.000000 -0.173330 0.019775 0.111663
 15 5.792767 -0.005304 0.000000 -0.137685 0.022735 0.161808
 16 6.662317 -0.001453 0.000000 0.000000 -0.000001 0.471000
 17 2.046985 -0.000002 0.000000 0.256128 -0.182687 -0.092714
 18 -3.112024 1.517254 4.341911 0.909055 -1.168638 1.801844
 19 4.827230 0.000000 0.000001 0.132625 0.574472 -0.832581
 20 11.139763 0.000000 0.000000 0.000000 -0.000000 -1.001223
 21 10.314597 0.000001 0.000000 -4.171504 0.083241 -0.332944
 22 2.975834 -0.386307 -0.044143 -0.000797 -0.043611 0.000035
 23 1.438886 0.000000 0.000000 0.000000 -0.000000 0.872170
 24 1.485303 0.000000 0.000000 0.000000 -0.000000 0.906977
 25 -2.869898 1.399663 -4.140396 0.558928 1.271729 3.208782
 26 4.972048 0.000000 0.000001 -1.010962 -0.985964 0.244289
 27 11.585355 0.000000 0.000000 0.000000 -0.000000 -1.839579
 28 10.127057 0.000000 0.000001 1.597654 0.255717 0.214724
 29 2.683750 -0.427338 0.044205 -0.005738 0.043239 -0.157060
 30 1.438885 -0.000001 0.000000 0.000000 -0.000000 0.732589
 31 1.485305 0.000001 0.000000 0.000000 -0.000000 1.168627
time 19
  0 0.235347 -0.235347 3.532833 -0.000000 -0.000000 -1.571254
  1 0.000000 0.000000 0.000000 -1.570795 -1.570796 0.000000
  2 -0.000005 0.000007 3.713255 -6.281131 3.115177 6.261712
  3 18.045721 0.000000 0.000000 0.000000 -0.000000 -0.121501
  4 17.597597 0.000000 0.000000 -0.002613 0.026036 0.099967
  5 3.793090 6.407221 0.000000 0.000000 -0.000000 1.570796
  6 0.000005 -0.000003 -3.713255 6.280565 -3.123995 6.258640
  7 18.045725 0.000000 0.000000 0.000000 -0.000000 -0.127551
  8 17.597597 0.000000 0.000000 0.002950 -0.017289 0.103055
  9 3.793090 6.407221 0.000000 0.000000 -0.000000 1.570796
 10 0.935740 0.000000 0.000000 0.000000 -0.000000 0.000000
 11 0.935741 0.000000 0.000000 0.000000 -0.000000 0.000000
 12 1.293670 0.684478 -0.000001 -0.000004 -0.000001 0.313487
 13 5.309685 -0.003834 0.000000 0.000000 -0.000000 -0.000013
 14 4.826790 -0.004591 0.000000 -0.173330 0.019775 0.111663
 15 5.792767 -0.005304 0.000000 -0.137717 0.022471 0.160230
 16 6.662317 -0.001453 0.000000 0.000000 -0.000001 0.471000
 17 2.046985 -0.000002 0.000000 0.256085 -0.182822 -0.090376
 18 -3.112024 1.517254 4.341911 0.915958 -1.170907 1.794078
 19 4.827230 0.000000 0.000001 0.130217 0.579238 -0.833456
 20 11.139763 0.000000 0.000000 0.000000 -0.000000 -1.001223
 21 10.314597 0.000001 0.000000 -4.171504 0.083241 -0.332944
 22 2.975834 -0.386307 -0.044143 -0.000797 -0.043611 0.000035
 23 1.438886 0.000000 0.000000 0.000000 -0.000000 0.872170
 24 1.485303 0.000000 0.000000 0.000000 -0.000000 0.906977
 25 -2.869898 1.399663 -4.140396 0.565735 1.274838 3.215589
 26 4.972048 0.000000 0.000001 -1.015835 -0.988699 0.248900
 27 11.585355 0.000000 0.000000 0.000000 -0.000000 -1.839579
 28 10.127057 0.000000 0.000001 1.597654 0.255717 0.214724
 29 2.683750 -0.427338 0.044205 -0.005738 0.043239 -0.157060
 30 1.438885 -0.000001 0.000000 0.000000 -0.000000 0.732589
 31 1.485305 0.000001 0.000000 0.000000 -0.000000 1.168627
time 20
  0 0.235347 -0.235347 3.532833 -0.000000 -0.000000 -1.571254
  1 0.000000 0.000000 0.000000 -1.570795 -1.570796 0.000000
  2 -0.000005 0.000007 3.713255 -6.281131 3.115177 6.261712
  3 18.045721 0.000000 0.000000 0.000000 -0.000000 -0.121501
  4 17.597597 0.000000 0.000000 -0.002613 0.026036 0.099967
  5 3.793090 6.407221 0.000000 0.000000 -0.000000 1.570796
  6 0.000005 -0.000003 -3.713255 6.280565 -3.123995 6.258640
  7 18.045725 0.000000 0.000000 0.000000 -0.000000 -0.127551
  8 17.597597 0.000000 0.000000 0.002950 -0.017289 0.103055
  9 3.793090 6.407221 0.000000 0.000000 -0.000000 1.570796
 10 0.935740 0.000000 0.000000 0.000000 -0.000000 0.000000
 11 0.935741 0.000000 0.000000 0.000000 -0.000000 0.000000
 12 1.293670 0.684478 -0.000001 -0.000004 -0.000001 0.312834
 13 5.309685 -0.003834 0.000000 0.000000 -0.000000 -0.000013
 14 4.826790 -0.004591 0.000000 -0.173330 0.019775 0.111663
 15 5.792767 -0.005304 0.000000 -0.137750 0.022207 0.158361
 16 6.662317 -0.001453 0.000000 0.000000 -0.000001 0.471000
 17 2.046985 -0.000002 0.000000 0.255956 -0.182980 -0.087859
 18 -3.112024 1.517254 4.341911 0.924299 -1.173638 1.784778
 19 4.827230 0.000000 0.000001 0.127221 0.584344 -0.834681
 20 11.139763 0.000000 0.000000 0.000000 -0.000000 -1.001223
 21 10.314597 0.000001 0.000000 -4.171504 0.083241 -0.332944
 22 2.975834 -0.386307 -0.044143 -0.000797 -0.043611 0.000035
 23 1.438886 0.000000 0.000000 0.000000 -0.000000 0.872170
 24 1.485303 0.000000 0.000000 0.000000 -0.000000 0.906977
 25 -2.869898 1.399663 -4.140396 0.573309 1.278597 3.223834
 26 4.972048 0.000000 0.000001 -1.021714 -0.991917 0.254631
 27 11.585355 0.000000 0.000000 0.000000 -0.000000 -1.839579
 28 10.127057 0.000000 0.000001 1.597654 0.255717 0.214724
 29 2.683750 -0.427338 0.044205 -0.005738 0.043239 -0.157060
 30 1.438885 -0.000001 0.000000 0.000000 -0.000000 0.732589
 31 1.485305 0.000001 0.000000 0.000000 -0.000000 1.168627
time 21
  0 0.235347 -0.235347 3.532833 -0.000000 -0.000000 -1.571254
  1 0.000000 0.000000 0.000000 -1.570795 -1.570796 0.000000
  2 -0.000005 0.000007 3.713255 -6.281131 3.115177 6.261712
  3 18.045721 0.000000 0.000000 0.000000 -0.000000 -0.121501
  4 17.597597 0.000000 0.000000 -0.002613 0.026036 0.099967
  5 3.793090 6.407221 0.000000 0.000000 -0.000000 1.570796
  6 0.000005 -0.000003 -3.713255 6.280565 -3.123995 6.258640
  7 18.045725 0.000000 0.000000 0.000000 -0.000000 -0.127551
  8 17.597597 0.000000 0.000000 0.002950 -0.017289 0.103055
  9 3.793090 6.407221 0.000000 0.000000 -0.000000 1.570796
 10 0.935740 0.000000 0.000000 0.000000 -0.000000 0.000000
 11 0.935741 0.000000 0.000000 0.000000 -0.000000 0.000000
 12 1.293670 0.684478 -0.000001 -0.000004 -0.000001 0.312131
 13 5.309685 -0.003834 0.000000 0.000000 -0.000000 -0.000013
 14 4.826790 -0.004591 0.000000 -0.173330 0.019775 0.111663
 15 5.792767 -0.005304 0.000000 -0.137799 0.021956 0.156202
 16 6.662317 -0.001453 0.000000 0.000000 -0.000001 0.471000
 17 2.046985 -0.000002 0.000000 0.255654 -0.183160 -0.085207
 18 -3.112024 1.517254 4.341911 0.934078 -1.176561 1.774711
 19 4.827230 0.000000 0.000001 0.123873 0.590216 -0.835819
 20 11.139763 0.000000 0.000000 0.000000 -0.000000 -1.001223
 21 10.314597 0.000001 0.000000 -4.171504 0.083241 -0.332944
 22 2.975834 -0.386307 -0.044143 -0.000797 -0.043611 0.000035
 23 1.438886 0.000000 0.000000 0.000000 -0.000000 0.872170
 24 1.485303 0.000000 0.000000 0.000000 -0.000000 0.906977
 25 -2.869898 1.399663 -4.140396 0.582416 1.282837 3.233421
 26 4.972048 0.000000 0.000001 -1.028444 -0.995376 0.261152
 27 11.585355 0.000000 0.000000 0.000000 -0.000000 -1.839579
 28 10.127057 0.000000 0.000001 1.597654 0.255717 0.214724
 29 2.683750 -0.427338 0.044205 -0.005738 0.043239 -0.157060
 30 1.438885 -0.000001 0.000000 0.000000 -0.000000 0.732589
 31 1.485305 0.000001 0.000000 0.000000 -0.000000 1.168627
time 22
  0 0.235347 -0.235347 3.532833 -0.000000 -0.000000 -1.571254
  1 0.000000 0.000000 0.000000 -1.570795 -1.570796 0.000000
  2 -0.000005 0.000007 3.713255 -6.281131 3.115177 6.261712
  3 18.045721 0.000000 0.000000 0.000000 -0.000000 -0.121501
  4 17.597597 0.000000 0.000000 -0.002613 0.026036 0.099967
  5 3.793090 6.407221 0.000000 0.000000 -0.000000 1.570796
  6 0.000005 -0.000003 -3.713255 6.280565 -3.123995 6.258640
  7 18.045725 0.000000 0.000000 0.000000 -0.000000 -0.127551
  8 17.597597 0.000000 0.000000 0.002950 -0.017289 0.103055
  9 3.793090 6.407221 0.000000 0.000000 -0.000000 1.570796
 10 0.935740 0.000000 0.000000 0.000000 -0.000000 0.000000
 11 0.935741 0.000000 0.000000 0.000000 -0.000000 0.000000
 12 1.293670 0.684478 -0.000001 -0.000004 -0.000001 0.311344
 13 5.309685 -0.003834 0.000000 0.000000 -0.000000 -0.000013
 14 4.826790 -0.004591 0.000000 -0.173330 0.019775 0.111663
 15 5.792767 -0.005304 0.000000 -0.137848 0.021596 0.153939
 16 6.662317 -0.001453 0.000000 0.000000 -0.000001 0.471000
 17 2.046985 -0.000002 0.000000 0.255611 -0.183340 -0.081971
 18 -3.112024 1.517254 4.341911 0.944528 -1.179792 1.763110
 19 4.827230 0.000000 0.000001 0.120173 0.596939 -0.837394
 20 11.139763 0.000000 0.000000 0.000000 -0.000000 -1.001223
 21 10.314597 0.000001 0.000000 -4.171504 0.083241 -0.332944
 22 2.975834 -0.386307 -0.044143 -0.000797 -0.043611 0.000035
 23 1.438886 0.000000 0.000000 0.000000 -0.000000 0.872170
 24 1.485303 0.000000 0.000000 0.000000 -0.000000 0.906977
 25 -2.869898 1.399663 -4.140396 0.592963 1.287246 3.243680
 26 4.972048 0.000000 0.000001 -1.035870 -0.999076 0.268069
 27 11.585355 0.000000 0.000000 0.000000 -0.000000 -1.839579
 28 10.127057 0.000000 0.000001 1.597654 0.255717 0.214724
 29 2.683750 -0.427338 0.044205 -0.005738 0.043239 -0.157060
 30 1.438885 -0.000001 0.000000 0.000000 -0.000000 0.732589
 31 1.485305 0.000001 0.000000 0.000000 -0.000000 1.168627
time 23
  0 0.235347 -0.235347 3.532833 -0.000000 -0.000000 -1.571254
  1 0.000000 0.000000 0.000000 -1.570795 -1.570796 0.000000
  2 -0.000005 0.000007 3.713255 -6.281131 3.115177 6.261712
  3 18.045721 0.000000 0.000000 0.000000 -0.000000 -0.121501
  4 17.597597 0.000000 0.000000 -0.002613 0.026036 0.099967
  5 3.793090 6.407221 0.000000 0.000000 -0.000000 1.570796
  6 0.000005 -0.000003 -3.713255 6.280565 -3.123995 6.258640
  7 18.045725 0.000000 0.000000 0.000000 -0.000000 -0.127551
  8 17.597597 0.000000 0.000000 0.002950 -0.017289 0.103055
  9 3.793090 6.407221 0.000000 0.000000 -0.000000 1.570796
 10 0.935740 0.000000 0.000000 0.000000 -0.000000 0.000000
 11 0.935741 0.000000 0.000000 0.000000 -0.000000 0.000000
 12 1.293670 0.684478 -0.000001 -0.000004 -0.000001 0.310574
 13 5.309685 -0.003834 0.000000 0.000000 -0.000000 -0.000013
 14 4.826790 -0.004591 0.000000 -0.173330 0.019775 0.111663
 15 5.792767 -0.005304 0.000000 -0.137897 0.021309 0.151572
 16 6.662317 -0.001453 0.000000 0.000000 -0.000001 0.471000
 17 2.046985 -0.000002 0.000000 0.255568 -0.183543 -0.078960
 18 -3.112024 1.517254 4.341911 0.955266 -1.183023 1.751030
 19 4.827230 0.000000 0.000001 0.116355 0.603236 -0.838794
 20 11.139763 0.000000 0.000000 0.000000 -0.000000 -1.001223
 21 10.314597 0.000001 0.000000 -4.171504 0.083241 -0.332944
 22 2.975834 -0.386307 -0.044143 -0.000797 -0.043611 0.000035
 23 1.438886 0.000000 0.000000 0.000000 -0.000000 0.872170
 24 1.485303 0.000000 0.000000 0.000000 -0.000000 0.906977
 25 -2.869898 1.399663 -4.140396 0.603509 1.291853 3.255376
 26 4.972048 0.000000 0.000001 -1.043683 -1.003098 0.275249
 27 11.585355 0.000000 0.000000 0.000000 -0.000000 -1.839579
 28 10.127057 0.000000 0.000001 1.597654 0.255717 0.214724
 29 2.683750 -0.427338 0.044205 -0.005738 0.043239 -0.157060
 30 1.438885 -0.000001 0.000000 0.000000 -0.000000 0.732589
 31 1.485305 0.000001 0.000000 0.000000 -0.000000 1.168627
time 24
  0 0.235347 -0.235347 3.532833 -0.000000 -0.000000 -1.571254
  1 0.000000 0.000000 0.000000 -1.570795 -1.570796 0.000000
  2 -0.000005 0.000007 3.713255 -6.281131 3.115177 6.261712
  3 18.045721 0.000000 0.000000 0.000000 -0.000000 -0.121501
  4 17.597597 0.000000 0.000000 -0.002613 0.026036 0.099967
  5 3.793090 6.407221 0.000000 0.000000 -0.000000 1.570796
  6 0.000005 -0.000003 -3.713255 6.280565 -3.123995 6.258640
  7 18.045725 0.000000 0.000000 0.000000 -0.000000 -0.127551
  8 17.597597 0.000000 0.000000 0.002950 -0.017289 0.103055
  9 3.793090 6.407221 0.000000 0.000000 -0.000000 1.570796
 10 0.935740 0.000000 0.000000 0.000000 -0.000000 0.000000
 11 0.935741 0.000000 0.000000 0.000000 -0.000000 0.000000
 12 1.293670 0.684478 -0.000001 -0.000004 -0.000001 0.309737
 13 5.309685 -0.003834 0.000000 0.000000 -0.000000 -0.000013
 14 4.826790 -0.004591 0.000000 -0.173330 0.019775 0.111663
 15 5.792767 -0.005304 0.000000 -0.137945 0.020937 0.149184
 16 6.662317 -0.001453 0.000000 0.000000 -0.000001 0.471000
 17 2.046985 -0.000002 0.000000 0.255396 -0.183745 -0.075724
 18 -3.112024 1.517254 4.341911 0.966675 -1.186215 1.739141
 19 4.827230 0.000000 0.000001 0.112596 0.609959 -0.840457
 20 11.139763 0.000000 0.000000 0.000000 -0.000000 -1.001223
 21 10.314597 0.000001 0.000000 -4.171504 0.083241 -0.332944
 22 2.975834 -0.386307 -0.044143 -0.000797 -0.043611 0.000035
 23 1.438886 0.000000 0.000000 0.000000 -0.000000 0.872170
 24 1.485303 0.000000 0.000000 0.000000 -0.000000 0.906977
 25 -2.869898 1.399663 -4.140396 0.614918 1.296545 3.267169
 26 4.972048 0.000000 0.000001 -1.051573 -1.006879 0.282824
 27 11.585355 0.000000 0.000000 0.000000 -0.000000 -1.839579
 28 10.127057 0.000000 0.000001 1.597654 0.255717 0.214724
 29 2.683750 -0.427338 0.044205 -0.005738 0.043239 -0.157060
 30 1.438885 -0.000001 0.000000 0.000000 -0.000000 0.732589
 31 1.485305 0.000001 0.000000 0.000000 -0.000000 1.168627
time 25
  0 0.235347 -0.235347 3.532833 -0.000000 -0.000000 -1.571254
  1 0.000000 0.000000 0.000000 -1.570795 -1.570796 0.000000
  2 -0.000005 0.000007 3.713255 -6.281131 3.115177 6.261712
  3 18.045721 0.000000 0.000000 0.000000 -0.000000 -0.121501
  4 17.597597 0.000000 0.000000 -0.002613 0.026036 0.099967
  5 3.793090 6.407221 0.000000 0.000000 -0.000000 1.570796
  6 0.000005 -0.000003 -3.713255 6.280565 -3.123995 6.258640
  7 18.045725 0.000000 0.000000 0.000000 -0.000000 -0.127551
  8 17.597597 0.000000 0.000000 0.002950 -0.017289 0.103055
  9 3.793090 6.407221 0.000000 0.000000 -0.000000 1.570796
 10 0.935740 0.000000 0.000000 0.000000 -0.000000 0.000000
 11 0.935741 0.000000 0.000000 0.000000 -0.000000 0.000000
 12 1.293670 0.684478 -0.000001 -0.000004 -0.000001 0.308950
 13 5.309685 -0.003834 0.000000 0.000000 -0.000000 -0.000013
 14 4.826790 -0.004591 0.000000 -0.173330 0.019775 0.111663
 15 5.792767 -0.005304 0.000000 -0.137994 0.020602 0.146838
 16 6.662317 -0.001453 0.000000 0.000000 -0.000001 0.471000
 17 2.046985 -0.000002 0.000000 0.255094 -0.183948 -0.072397
 18 -3.112024 1.517254 4.341911 0.978371 -1.189369 1.726869
 19 4.827230 0.000000 0.000001 0.108895 0.616597 -0.842032
 20 11.139763 0.000000 0.000000 0.000000 -0.000000 -1.001223
 21 10.314597 0.000001 0.000000 -4.171504 0.083241 -0.332944
 22 2.975834 -0.386307 -0.044143 -0.000797 -0.043611 0.000035
 23 1.438886 0.000000 0.000000 0.000000 -0.000000 0.872170
 24 1.485303 0.000000 0.000000 0.000000 -0.000000 0.906977
 25 -2.869898 1.399663 -4.140396 0.626806 1.301039 3.279153
 26 4.972048 0.000000 0.000001 -1.059463 -1.010740 0.290202
 27 11.585355 0.000000 0.000000 0.000000 -0.000000 -1.839579
 28 10.127057 0.000000 0.000001 1.597654 0.255717 0.214724
 29 2.683750 -0.427338 0.044205 -0.005738 0.043239 -0.157060
 30 1.438885 -0.000001 0.000000 0.000000 -0.000000 0.732589
 31 1.485305 0.000001 0.000000 0.000000 -0.000000 1.168627
time 26
  0 0.235347 -0.235347 3.532833 -0.000000 -0.000000 -1.571254
  1 0.000000 0.000000 0.000000 -1.570795 -1.570796 0.000000
  2 -0.000005 0.000007 3.713255 -6.281131 3.115177 6.261712
  3 18.045721 0.000000 0.000000 0.000000 -0.000000 -0.121501
  4 17.597597 0.000000 0.000000 -0.002613 0.026036 0.099967
  5 3.793090 6.407221 0.000000 0.000000 -0.000000 1.570796
  6 0.000005 -0.000003 -3.713255 6.280565 -3.123995 6.258640
  7 18.045725 0.000000 0.000000 0.000000 -0.000000 -0.127551
  8 17.597597 0.000000 0.000000 0.002950 -0.017289 0.103055
  9 3.793090 6.407221 0.000000 0.000000 -0.000000 1.570796
 10 0.935740 0.000000 0.000000 0.000000 -0.000000 0.000000
 11 0.935741 0.000000 0.000000 0.000000 -0.000000 0.000000
 12 1.293670 0.684478 -0.000001 -0.000004 -0.000001 0.308180
 13 5.309685 -0.003834 0.000000 0.000000 -0.000000 -0.000013
 14 4.826790 -0.004591 0.000000 -0.173330 0.019775 0.111663
 15 5.792767 -0.005304 0.000000 -0.138043 0.020350 0.144554
 16 6.662317 -0.001453 0.000000 0.000000 -0.000001 0.471000
 17 2.046985 -0.000002 0.000000 0.255094 -0.184150 -0.069611
 18 -3.112024 1.517254 4.341911 0.989301 -1.192254 1.714693
 19 4.827230 0.000000 0.000001 0.105136 0.623235 -0.843520
 20 11.139763 0.000000 0.000000 0.000000 -0.000000 -1.001223
 21 10.314597 0.000001 0.000000 -4.171504 0.083241 -0.332944
 22 2.975834 -0.386307 -0.044143 -0.000797 -0.043611 0.000035
 23 1.438886 0.000000 0.000000 0.000000 -0.000000 0.872170
 24 1.485303 0.000000 0.000000 0.000000 -0.000000 0.906977
 25 -2.869898 1.399663 -4.140396 0.638119 1.305222 3.290945
 26 4.972048 0.000000 0.000001 -1.067044 -1.014199 0.297316
 27 11.585355 0.000000 0.000000 0.000000 -0.000000 -1.839579
 28 10.127057 0.000000 0.000001 1.597654 0.255717 0.214724
 29 2.683750 -0.427338 0.044205 -0.005738 0.043239 -0.157060
 30 1.438885 -0.000001 0.000000 0.000000 -0.000000 0.732589
 31 1.485305 0.000001 0.000000 0.000000 -0.000000 1.168627
time 27
  0 0.235347 -0.235347 3.532833 -0.000000 -0.000000 -1.571254
  1 0.000000 0.000000 0.000000 -1.570795 -1.570796 0.000000
  2 -0.000005 0.000007 3.713255 -6.281131 3.115177 6.261712
  3 18.045721 0.000000 0.000000 0.000000 -0.000000 -0.121501
  4 17.597597 0.000000 0.000000 -0.002613 0.026036 0.099967
  5 3.793090 6.407221 0.000000 0.000000 -0.000000 1.570796
  6 0.000005 -0.000003 -3.713255 6.280565 -3.123995 6.258640
  7 18.045725 0.000000 0.000000 0.000000 -0.000000 -0.127551
  8 17.597597 0.000000 0.000000 0.002950 -0.017289 0.103055
  9 3.793090 6.407221 0.000000 0.000000 -0.000000 1.570796
 10 0.935740 0.000000 0.000000 0.000000 -0.000000 0.000000
 11 0.935741 0.000000 0.000000 0.000000 -0.000000 0.000000
 12 1.293670 0.684478 -0.000001 -0.000004 -0.000001 0.307527
 13 5.309685 -0.003834 0.000000 0.000000 -0.000000 -0.000013
 14 4.826790 -0.004591 0.000000 -0.173330 0.019775 0.111663
 15 5.792767 -0.005304 0.000000 -0.138092 0.020014 0.142540
 16 6.662317 -0.001453 0.000000 0.000000 -0.000001 0.471000
 17 2.046985 -0.000002 0.000000 0.255008 -0.184308 -0.066644
 18 -3.112024 1.517254 4.341911 0.999559 -1.194908 1.703667
 19 4.827230 0.000000 0.000001 0.101788 0.628596 -0.845095
 20 11.139763 0.000000 0.000000 0.000000 -0.000000 -1.001223
 21 10.314597 0.000001 0.000000 -4.171504 0.083241 -0.332944
 22 2.975834 -0.386307 -0.044143 -0.000797 -0.043611 0.000035
 23 1.438886 0.000000 0.000000 0.000000 -0.000000 0.872170
 24 1.485303 0.000000 0.000000 0.000000 -0.000000 0.906977
 25 -2.869898 1.399663 -4.140396 0.648857 1.309094 3.301875
 26 4.972048 0.000000 0.000001 -1.074006 -1.017497 0.303706
 27 11.585355 0.000000 0.000000 0.000000 -0.000000 -1.839579
 28 10.127057 0.000000 0.000001 1.597654 0.255717 0.214724
 29 2.683750 -0.427338 0.044205 -0.005738 0.043239 -0.157060
 30 1.438885 -0.000001 0.000000 0.000000 -0.000000 0.732589
 31 1.485305 0.000001 0.000000 0.000000 -0.000000 1.168627
time 28
  0 0.235347 -0.235347 3.532833 -0.000000 -0.000000 -1.571254
  1 0.000000 0.000000 0.000000 -1.570795 -1.570796 0.000000
  2 -0.000005 0.000007 3.713255 -6.281131 3.115177 6.261712
  3 18.045721 0.000000 0.000000 0.000000 -0.000000 -0.121501
  4 17.597597 0.000000 0.000000 -0.002613 0.026036 0.099967
  5 3.793090 6.407221 0.000000 0.000000 -0.000000 1.570796
  6 0.000005 -0.000003 -3.713255 6.280565 -3.123995 6.258640
  7 18.045725 0.000000 0.000000 0.000000 -0.000000 -0.127551
  8 17.597597 0.000000 0.000000 0.002950 -0.017289 0.103055
  9 3.793090 6.407221 0.000000 0.000000 -0.000000 1.570796
 10 0.935740 0.000000 0.000000 0.000000 -0.000000 0.000000
 11 0.935741 0.000000 0.000000 0.000000 -0.000000 0.000000
 12 1.293670 0.684478 -0.000001 -0.000004 -0.000001 0.306891
 13 5.309685 -0.003834 0.000000 0.000000 -0.000000 -0.000013
 14 4.826790 -0.004591 0.000000 -0.173330 0.019775 0.111663
 15 5.792767 -0.005304 0.000000 -0.138125 0.019811 0.140713
 16 6.662317 -0.001453 0.000000 0.000000 -0.000001 0.471000
 17 2.046985 -0.000002 0.000000 0.254879 -0.184466 -0.064442
 18 -3.112024 1.517254 4.341911 1.008188 -1.197177 1.693888
 19 4.827230 0.000000 0.000001 0.098851 0.633702 -0.846495
 20 11.139763 0.000000 0.000000 0.000000 -0.000000 -1.001223
 21 10.314597 0.000001 0.000000 -4.171504 0.083241 -0.332944
 22 2.975834 -0.386307 -0.044143 -0.000797 -0.043611 0.000035
 23 1.438886 0.000000 0.000000 0.000000 -0.000000 0.872170
 24 1.485303 0.000000 0.000000 0.000000 -0.000000 0.906977
 25 -2.869898 1.399663 -4.140396 0.658540 1.312486 3.311654
 26 4.972048 0.000000 0.000001 -1.080349 -1.020393 0.309766
 27 11.585355 0.000000 0.000000 0.000000 -0.000000 -1.839579
 28 10.127057 0.000000 0.000001 1.597654 0.255717 0.214724
 29 2.683750 -0.427338 0.044205 -0.005738 0.043239 -0.157060
 30 1.438885 -0.000001 0.000000 0.000000 -0.000000 0.732589
 31 1.485305 0.000001 0.000000 0.000000 -0.000000 1.168627
time 29
  0 0.235347 -0.235347 3.532833 -0.000000 -0.000000 -1.571254
  1 0.000000 0.000000 0.000000 -1.570795 -1.570796 0.000000
  2 -0.000005 0.000007 3.713255 -6.281131 3.115177 6.261712
  3 18.045721 0.000000 0.000000 0.000000 -0.000000 -0.121501
  4 17.597597 0.000000 0.000000 -0.002613 0.026036 0.099967
  5 3.793090 6.407221 0.000000 0.000000 -0.000000 1.570796
  6 0.000005 -0.000003 -3.713255 6.280565 -3.123995 6.258640
  7 18.045725 0.000000 0.000000 0.000000 -0.000000 -0.127551
  8 17.597597 0.000000 0.000000 0.002950 -0.017289 0.103055
  9 3.793090 6.407221 0.000000 0.000000 -0.000000 1.570796
 10 0.935740 0.000000 0.000000 0.000000 -0.000000 0.000000
 11 0.935741 0.000000 0.000000 0.000000 -0.000000 0.000000
 12 1.293670 0.684478 -0.000001 -0.000004 -0.000001 0.306439
 13 5.309685 -0.003834 0.000000 0.000000 -0.000000 -0.000013
 14 4.826790 -0.004591 0.000000 -0.173330 0.019775 0.111663
 15 5.792767 -0.005304 0.000000 -0.138157 0.019607 0.139280
 16 6.662317 -0.001453 0.000000 0.000000 -0.000001 0.471000
 17 2.046985 -0.000002 0.000000 0.254620 -0.184601 -0.062284
 18 -3.112024 1.517254 4.341911 1.015761 -1.198985 1.685834
 19 4.827230 0.000000 0.000001 0.096384 0.637787 -0.847633
 20 11.139763 0.000000 0.000000 0.000000 -0.000000 -1.001223
 21 10.314597 0.000001 0.000000 -4.171504 0.083241 -0.332944
 22 2.975834 -0.386307 -0.044143 -0.000797 -0.043611 0.000035
 23 1.438886 0.000000 0.000000 0.000000 -0.000000 0.872170
 24 1.485303 0.000000 0.000000 0.000000 -0.000000 0.906977
 25 -2.869898 1.399663 -4.140396 0.666306 1.315199 3.320474
 26 4.972048 0.000000 0.000001 -1.085532 -1.022565 0.314509
 27 11.585355 0.000000 0.000000 0.000000 -0.000000 -1.839579
 28 10.127057 0.000000 0.000001 1.597654 0.255717 0.214724
 29 2.683750 -0.427338 0.044205 -0.005738 0.043239 -0.157060
 30 1.438885 -0.000001 0.000000 0.000000 -0.000000 0.732589
 31 1.485305 0.000001 0.000000 0.000000 -0.000000 1.168627
time 30
  0 0.235347 -0.235347 3.532833 -0.000000 -0.000000 -1.571254
  1 0.000000 0.000000 0.000000 -1.570795 -1.570796 0.000000
  2 -0.000005 0.000007 3.713255 -6.281131 3.115177 6.261712
  3 18.045721 0.000000 0.000000 0.000000 -0.000000 -0.121501
  4 17.597597 0.000000 0.000000 -0.002613 0.026036 0.099967
  5 3.793090 6.407221 0.000000 0.000000 -0.000000 1.570796
  6 0.000005 -0.000003 -3.713255 6.280565 -3.123995 6.258640
  7 18.045725 0.000000 0.000000 0.000000 -0.000000 -0.127551
  8 17.597597 0.000000 0.000000 0.002950 -0.017289 0.103055
  9 3.793090 6.407221 0.000000 0.000000 -0.000000 1.570796
 10 0.935740 0.000000 0.000000 0.000000 -0.000000 0.000000
 11 0.935741 0.000000 0.000000 0.000000 -0.000000 0.000000
 12 1.293670 0.684478 -0.000001 -0.000004 -0.000001 0.306054
 13 5.309685 -0.003834 0.000000 0.000000 -0.000000 -0.000013
 14 4.826790 -0.004591 0.000000 -0.173330 0.019775 0.111663
 15 5.792767 -0.005304 0.000000 -0.138174 0.019451 0.138180
 16 6.662317 -0.001453 0.000000 0.000000 -0.000001 0.471000
 17 2.046985 -0.000002 0.000000 0.254577 -0.184691 -0.061026
 18 -3.112024 1.517254 4.341911 1.021706 -1.200331 1.679890
 19 4.827230 0.000000 0.000001 0.094622 0.640936 -0.848333
 20 11.139763 0.000000 0.000000 0.000000 -0.000000 -1.001223
 21 10.314597 0.000001 0.000000 -4.171504 0.083241 -0.332944
 22 2.975834 -0.386307 -0.044143 -0.000797 -0.043611 0.000035
 23 1.438886 0.000000 0.000000 0.000000 -0.000000 0.872170
 24 1.485303 0.000000 0.000000 0.000000 -0.000000 0.906977
 25 -2.869898 1.399663 -4.140396 0.672346 1.317206 3.326706
 26 4.972048 0.000000 0.000001 -1.089322 -1.024254 0.318132
 27 11.585355 0.000000 0.000000 0.000000 -0.000000 -1.839579
 28 10.127057 0.000000 0.000001 1.597654 0.255717 0.214724
 29 2.683750 -0.427338 0.044205 -0.005738 0.043239 -0.157060
 30 1.438885 -0.000001 0.000000 0.000000 -0.000000 0.732589
 31 1.485305 0.000001 0.000000 0.000000 -0.000000 1.168627
end
