version 1
nodes
  0 "Bip01"  -1
  1 "Bip01 Pelvis"   0
  2 "Bip01 L Leg"   1
  3 "Bip01 L Leg1"   2
  4 "Bip01 L Foot"   3
  5 "Bip01 L Toe0"   4
  6 "Bip01 R Leg"   1
  7 "Bip01 R Leg1"   6
  8 "Bip01 R Foot"   7
  9 "Bip01 R Toe0"   8
 10 "Bip01 R Toe01"   9
 11 "Bip01 R Toe02"  10
 12 "Bip01 Spine"   1
 13 "Bip01 Spine1"  12
 14 "Bip01 Spine2"  13
 15 "Bip01 Spine3"  14
 16 "Bip01 Neck"  15
 17 "Bip01 Head"  16
 18 "Bip01 L Arm"  16
 19 "Bip01 L Arm1"  18
 20 "Bip01 L Arm2"  19
 21 "Bip01 L Hand"  20
 22 "Bip01 L Finger1"  21
 23 "Bip01 L Finger11"  22
 24 "Bip01 L Finger12"  23
 25 "Bip01 R Arm"  16
 26 "Bip01 R Arm1"  25
 27 "Bip01 R Arm2"  26
 28 "Bip01 R Hand"  27
 29 "Bip01 R Finger1"  28
 30 "Bip01 R Finger11"  29
 31 "Bip01 R Finger12"  30
end
skeleton
time 0
  0 0.235347 -0.235347 -14.475529 -0.045585 0.257873 -1.742273
  1 0.000000 0.000000 0.000000 -1.570795 -1.570796 0.000000
  2 -0.000005 0.000007 3.713255 -3.368582 -0.221254 1.331540
  3 18.045721 0.000000 0.000000 0.000000 -0.000000 -1.349056
  4 17.597597 0.000000 0.000000 -0.205032 0.225938 -0.216505
  5 3.793090 6.407221 0.000000 0.000000 -0.000000 1.570796
  6 0.000005 -0.000003 -3.713255 6.216042 2.542639 5.445438
  7 18.045725 0.000000 0.000000 0.000000 -0.000000 -2.074575
  8 17.597597 0.000000 0.000000 -0.092072 0.087818 0.559914
  9 3.793090 6.407221 0.000000 0.000000 -0.000000 1.570796
 10 0.935740 0.000000 0.000000 0.000000 -0.000000 0.000000
 11 0.935741 0.000000 0.000000 0.000000 -0.000000 0.000000
 12 1.293670 0.684478 -0.000001 -0.000004 -0.000001 0.218783
 13 5.309685 -0.003834 0.000000 0.000000 -0.000000 0.488545
 14 4.826790 -0.004591 0.000000 -0.346841 0.088854 0.239851
 15 5.792767 -0.005304 0.000000 -0.226436 0.011889 0.050727
 16 6.662317 -0.001453 0.000000 0.000000 -0.000001 -0.139812
 17 2.046985 -0.000002 0.000000 0.579336 -0.019090 -0.046283
 18 -3.416721 -0.541403 4.341911 2.171704 -0.880746 0.983542
 19 4.827230 0.000000 0.000001 -1.039929 0.247260 -0.361508
 20 11.139763 0.000000 0.000000 0.000000 -0.000000 -0.958334
 21 10.314597 0.000001 0.000000 -3.815936 0.573839 -0.433385
 22 2.975834 -0.386307 -0.044143 -0.000797 -0.043611 0.000035
 23 1.438886 0.000000 0.000000 0.000000 -0.000000 0.872170
 24 1.485303 0.000000 0.000000 0.000000 -0.000000 0.906977
 25 -3.151157 -0.491020 -4.140396 -1.097090 1.152398 2.220809
 26 4.972048 0.000000 0.000001 0.742206 -0.275268 -1.500872
 27 11.585355 0.000000 0.000000 0.000000 -0.000000 -1.605853
 28 10.127057 0.000000 0.000001 1.947633 0.173826 0.692921
 29 2.683750 -0.427338 0.044205 -0.005738 0.043239 -0.157060
 30 1.438885 -0.000001 0.000000 0.000000 -0.000000 0.732589
 31 1.485305 0.000001 0.000000 0.000000 -0.000000 1.168627
time 1
  0 0.235347 -0.235347 -14.475529 -0.045585 0.257873 -1.742273
  1 0.000000 0.000000 0.000000 -1.570795 -1.570796 0.000000
  2 -0.000005 0.000007 3.713255 -3.368582 -0.221254 1.331540
  3 18.045721 0.000000 0.000000 0.000000 -0.000000 -1.349056
  4 17.597597 0.000000 0.000000 -0.205032 0.225938 -0.216505
  5 3.793090 6.407221 0.000000 0.000000 -0.000000 1.570796
  6 0.000005 -0.000003 -3.713255 6.216042 2.542639 5.445438
  7 18.045725 0.000000 0.000000 0.000000 -0.000000 -2.074575
  8 17.597597 0.000000 0.000000 -0.092072 0.087818 0.559914
  9 3.793090 6.407221 0.000000 0.000000 -0.000000 1.570796
 10 0.935740 0.000000 0.000000 0.000000 -0.000000 0.000000
 11 0.935741 0.000000 0.000000 0.000000 -0.000000 0.000000
 12 1.293670 0.684478 -0.000001 -0.000004 -0.000001 0.218783
 13 5.309685 -0.003834 0.000000 0.000000 -0.000000 0.488545
 14 4.826790 -0.004591 0.000000 -0.346841 0.088854 0.239851
 15 5.792767 -0.005304 0.000000 -0.226403 0.012548 0.053613
 16 6.662317 -0.001453 0.000000 0.000000 -0.000001 -0.139812
 17 2.046985 -0.000002 0.000000 0.579336 -0.019090 -0.049114
 18 -3.416721 -0.541403 4.341911 2.168636 -0.878592 0.985843
 19 4.827230 0.000000 0.000001 -1.040340 0.245558 -0.357920
 20 11.139763 0.000000 0.000000 0.000000 -0.000000 -0.958334
 21 10.314597 0.000001 0.000000 -3.815936 0.573839 -0.433385
 22 2.975834 -0.386307 -0.044143 -0.000797 -0.043611 0.000035
 23 1.438886 0.000000 0.000000 0.000000 -0.000000 0.872170
 24 1.485303 0.000000 0.000000 0.000000 -0.000000 0.906977
 25 -3.151157 -0.491020 -4.140396 -1.100925 1.149854 2.217645
 26 4.972048 0.000000 0.000001 0.741355 -0.271809 -1.498566
 27 11.585355 0.000000 0.000000 0.000000 -0.000000 -1.605853
 28 10.127057 0.000000 0.000001 1.947633 0.173826 0.692921
 29 2.683750 -0.427338 0.044205 -0.005738 0.043239 -0.157060
 30 1.438885 -0.000001 0.000000 0.000000 -0.000000 0.732589
 31 1.485305 0.000001 0.000000 0.000000 -0.000000 1.168627
time 2
  0 0.235347 -0.235347 -14.475529 -0.045585 0.257873 -1.742273
  1 0.000000 0.000000 0.000000 -1.570795 -1.570796 0.000000
  2 -0.000005 0.000007 3.713255 -3.368582 -0.221254 1.331540
  3 18.045721 0.000000 0.000000 0.000000 -0.000000 -1.349056
  4 17.597597 0.000000 0.000000 -0.205032 0.225938 -0.216505
  5 3.793090 6.407221 0.000000 0.000000 -0.000000 1.570796
  6 0.000005 -0.000003 -3.713255 6.216042 2.542639 5.445438
  7 18.045725 0.000000 0.000000 0.000000 -0.000000 -2.074575
  8 17.597597 0.000000 0.000000 -0.092072 0.087818 0.559914
  9 3.793090 6.407221 0.000000 0.000000 -0.000000 1.570796
 10 0.935740 0.000000 0.000000 0.000000 -0.000000 0.000000
 11 0.935741 0.000000 0.000000 0.000000 -0.000000 0.000000
 12 1.293670 0.684478 -0.000001 -0.000004 -0.000001 0.218783
 13 5.309685 -0.003834 0.000000 0.000000 -0.000000 0.488545
 14 4.826790 -0.004591 0.000000 -0.346841 0.088854 0.239851
 15 5.792767 -0.005304 0.000000 -0.226355 0.013435 0.057475
 16 6.662317 -0.001453 0.000000 0.000000 -0.000001 -0.139812
 17 2.046985 -0.000002 0.000000 0.579336 -0.019090 -0.053160
 18 -3.416721 -0.541403 4.341911 2.164513 -0.875592 0.989007
 19 4.827230 0.000000 0.000001 -1.040810 0.243090 -0.353107
 20 11.139763 0.000000 0.000000 0.000000 -0.000000 -0.958334
 21 10.314597 0.000001 0.000000 -3.815936 0.573839 -0.433385
 22 2.975834 -0.386307 -0.044143 -0.000797 -0.043611 0.000035
 23 1.438886 0.000000 0.000000 0.000000 -0.000000 0.872170
 24 1.485303 0.000000 0.000000 0.000000 -0.000000 0.906977
 25 -3.151157 -0.491020 -4.140396 -1.105527 1.146406 2.213331
 26 4.972048 0.000000 0.000001 0.740272 -0.267385 -1.495075
 27 11.585355 0.000000 0.000000 0.000000 -0.000000 -1.605853
 28 10.127057 0.000000 0.000001 1.947633 0.173826 0.692921
 29 2.683750 -0.427338 0.044205 -0.005738 0.043239 -0.157060
 30 1.438885 -0.000001 0.000000 0.000000 -0.000000 0.732589
 31 1.485305 0.000001 0.000000 0.000000 -0.000000 1.168627
time 3
  0 0.235347 -0.235347 -14.475529 -0.045585 0.257873 -1.742273
  1 0.000000 0.000000 0.000000 -1.570795 -1.570796 0.000000
  2 -0.000005 0.000007 3.713255 -3.368582 -0.221254 1.331540
  3 18.045721 0.000000 0.000000 0.000000 -0.000000 -1.349056
  4 17.597597 0.000000 0.000000 -0.205032 0.225938 -0.216505
  5 3.793090 6.407221 0.000000 0.000000 -0.000000 1.570796
  6 0.000005 -0.000003 -3.713255 6.216042 2.542639 5.445438
  7 18.045725 0.000000 0.000000 0.000000 -0.000000 -2.074575
  8 17.597597 0.000000 0.000000 -0.092072 0.087818 0.559914
  9 3.793090 6.407221 0.000000 0.000000 -0.000000 1.570796
 10 0.935740 0.000000 0.000000 0.000000 -0.000000 0.000000
 11 0.935741 0.000000 0.000000 0.000000 -0.000000 0.000000
 12 1.293670 0.684478 -0.000001 -0.000004 -0.000001 0.218783
 13 5.309685 -0.003834 0.000000 0.000000 -0.000000 0.488545
 14 4.826790 -0.004591 0.000000 -0.346841 0.088854 0.239851
 15 5.792767 -0.005304 0.000000 -0.226289 0.014465 0.062188
 16 6.662317 -0.001453 0.000000 0.000000 -0.000001 -0.139812
 17 2.046985 -0.000002 0.000000 0.579336 -0.019090 -0.057834
 18 -3.416721 -0.541403 4.341911 2.159624 -0.871938 0.992842
 19 4.827230 0.000000 0.000001 -1.041632 0.240026 -0.347156
 20 11.139763 0.000000 0.000000 0.000000 -0.000000 -0.958334
 21 10.314597 0.000001 0.000000 -3.815936 0.573839 -0.433385
 22 2.975834 -0.386307 -0.044143 -0.000797 -0.043611 0.000035
 23 1.438886 0.000000 0.000000 0.000000 -0.000000 0.872170
 24 1.485303 0.000000 0.000000 0.000000 -0.000000 0.906977
 25 -3.151157 -0.491020 -4.140396 -1.111183 1.142138 2.208633
 26 4.972048 0.000000 0.000001 0.738725 -0.261915 -1.490859
 27 11.585355 0.000000 0.000000 0.000000 -0.000000 -1.605853
 28 10.127057 0.000000 0.000001 1.947633 0.173826 0.692921
 29 2.683750 -0.427338 0.044205 -0.005738 0.043239 -0.157060
 30 1.438885 -0.000001 0.000000 0.000000 -0.000000 0.732589
 31 1.485305 0.000001 0.000000 0.000000 -0.000000 1.168627
time 4
  0 0.235347 -0.235347 -14.475529 -0.045585 0.257873 -1.742273
  1 0.000000 0.000000 0.000000 -1.570795 -1.570796 0.000000
  2 -0.000005 0.000007 3.713255 -3.368582 -0.221254 1.331540
  3 18.045721 0.000000 0.000000 0.000000 -0.000000 -1.349056
  4 17.597597 0.000000 0.000000 -0.205032 0.225938 -0.216505
  5 3.793090 6.407221 0.000000 0.000000 -0.000000 1.570796
  6 0.000005 -0.000003 -3.713255 6.216042 2.542639 5.445438
  7 18.045725 0.000000 0.000000 0.000000 -0.000000 -2.074575
  8 17.597597 0.000000 0.000000 -0.092072 0.087818 0.559914
  9 3.793090 6.407221 0.000000 0.000000 -0.000000 1.570796
 10 0.935740 0.000000 0.000000 0.000000 -0.000000 0.000000
 11 0.935741 0.000000 0.000000 0.000000 -0.000000 0.000000
 12 1.293670 0.684478 -0.000001 -0.000004 -0.000001 0.218783
 13 5.309685 -0.003834 0.000000 0.000000 -0.000000 0.488545
 14 4.826790 -0.004591 0.000000 -0.346841 0.088854 0.239851
 15 5.792767 -0.005304 0.000000 -0.226208 0.015760 0.067545
 16 6.662317 -0.001453 0.000000 0.000000 -0.000001 -0.139812
 17 2.046985 -0.000002 0.000000 0.579336 -0.019090 -0.063543
 18 -3.416721 -0.541403 4.341911 2.153584 -0.867784 0.996869
 19 4.827230 0.000000 0.000001 -1.042396 0.236537 -0.340243
 20 11.139763 0.000000 0.000000 0.000000 -0.000000 -0.958334
 21 10.314597 0.000001 0.000000 -3.815936 0.573839 -0.433385
 22 2.975834 -0.386307 -0.044143 -0.000797 -0.043611 0.000035
 23 1.438886 0.000000 0.000000 0.000000 -0.000000 0.872170
 24 1.485303 0.000000 0.000000 0.000000 -0.000000 0.906977
 25 -3.151157 -0.491020 -4.140396 -1.117511 1.137305 2.202497
 26 4.972048 0.000000 0.000001 0.737255 -0.255560 -1.485853
 27 11.585355 0.000000 0.000000 0.000000 -0.000000 -1.605853
 28 10.127057 0.000000 0.000001 1.947633 0.173826 0.692921
 29 2.683750 -0.427338 0.044205 -0.005738 0.043239 -0.157060
 30 1.438885 -0.000001 0.000000 0.000000 -0.000000 0.732589
 31 1.485305 0.000001 0.000000 0.000000 -0.000000 1.168627
time 5
  0 0.235347 -0.235347 -14.475529 -0.045585 0.257873 -1.742273
  1 0.000000 0.000000 0.000000 -1.570795 -1.570796 0.000000
  2 -0.000005 0.000007 3.713255 -3.368582 -0.221254 1.331540
  3 18.045721 0.000000 0.000000 0.000000 -0.000000 -1.349056
  4 17.597597 0.000000 0.000000 -0.205032 0.225938 -0.216505
  5 3.793090 6.407221 0.000000 0.000000 -0.000000 1.570796
  6 0.000005 -0.000003 -3.713255 6.216042 2.542639 5.445438
  7 18.045725 0.000000 0.000000 0.000000 -0.000000 -2.074575
  8 17.597597 0.000000 0.000000 -0.092072 0.087818 0.559914
  9 3.793090 6.407221 0.000000 0.000000 -0.000000 1.570796
 10 0.935740 0.000000 0.000000 0.000000 -0.000000 0.000000
 11 0.935741 0.000000 0.000000 0.000000 -0.000000 0.000000
 12 1.293670 0.684478 -0.000001 -0.000004 -0.000001 0.218783
 13 5.309685 -0.003834 0.000000 0.000000 -0.000000 0.488545
 14 4.826790 -0.004591 0.000000 -0.346841 0.088854 0.239851
 15 5.792767 -0.005304 0.000000 -0.226110 0.017054 0.073400
 16 6.662317 -0.001453 0.000000 0.000000 -0.000001 -0.139812
 17 2.046985 -0.000002 0.000000 0.579336 -0.019090 -0.069566
 18 -3.416721 -0.541403 4.341911 2.147927 -0.863207 1.001471
 19 4.827230 0.000000 0.000001 -1.043277 0.232963 -0.332892
 20 11.139763 0.000000 0.000000 0.000000 -0.000000 -0.958334
 21 10.314597 0.000001 0.000000 -3.815936 0.573839 -0.433385
 22 2.975834 -0.386307 -0.044143 -0.000797 -0.043611 0.000035
 23 1.438886 0.000000 0.000000 0.000000 -0.000000 0.872170
 24 1.485303 0.000000 0.000000 0.000000 -0.000000 0.906977
 25 -3.151157 -0.491020 -4.140396 -1.124222 1.131963 2.196553
 26 4.972048 0.000000 0.000001 0.735476 -0.248803 -1.480715
 27 11.585355 0.000000 0.000000 0.000000 -0.000000 -1.605853
 28 10.127057 0.000000 0.000001 1.947633 0.173826 0.692921
 29 2.683750 -0.427338 0.044205 -0.005738 0.043239 -0.157060
 30 1.438885 -0.000001 0.000000 0.000000 -0.000000 0.732589
 31 1.485305 0.000001 0.000000 0.000000 -0.000000 1.168627
time 6
  0 0.235347 -0.235347 -14.475529 -0.045585 0.257873 -1.742273
  1 0.000000 0.000000 0.000000 -1.570795 -1.570796 0.000000
  2 -0.000005 0.000007 3.713255 -3.368582 -0.221254 1.331540
  3 18.045721 0.000000 0.000000 0.000000 -0.000000 -1.349056
  4 17.597597 0.000000 0.000000 -0.205032 0.225938 -0.216505
  5 3.793090 6.407221 0.000000 0.000000 -0.000000 1.570796
  6 0.000005 -0.000003 -3.713255 6.216042 2.542639 5.445438
  7 18.045725 0.000000 0.000000 0.000000 -0.000000 -2.074575
  8 17.597597 0.000000 0.000000 -0.092072 0.087818 0.559914
  9 3.793090 6.407221 0.000000 0.000000 -0.000000 1.570796
 10 0.935740 0.000000 0.000000 0.000000 -0.000000 0.000000
 11 0.935741 0.000000 0.000000 0.000000 -0.000000 0.000000
 12 1.293670 0.684478 -0.000001 -0.000004 -0.000001 0.218783
 13 5.309685 -0.003834 0.000000 0.000000 -0.000000 0.488545
 14 4.826790 -0.004591 0.000000 -0.346841 0.088854 0.239851
 15 5.792767 -0.005304 0.000000 -0.225996 0.018480 0.079608
 16 6.662317 -0.001453 0.000000 0.000000 -0.000001 -0.139812
 17 2.046985 -0.000002 0.000000 0.579336 -0.019090 -0.075768
 18 -3.416721 -0.541403 4.341911 2.141504 -0.858438 1.006169
 19 4.827230 0.000000 0.000001 -1.044158 0.228878 -0.325191
 20 11.139763 0.000000 0.000000 0.000000 -0.000000 -0.958334
 21 10.314597 0.000001 0.000000 -3.815936 0.573839 -0.433385
 22 2.975834 -0.386307 -0.044143 -0.000797 -0.043611 0.000035
 23 1.438886 0.000000 0.000000 0.000000 -0.000000 0.872170
 24 1.485303 0.000000 0.000000 0.000000 -0.000000 0.906977
 25 -3.151157 -0.491020 -4.140396 -1.131029 1.126395 2.190513
 26 4.972048 0.000000 0.000001 0.733542 -0.241644 -1.475379
 27 11.585355 0.000000 0.000000 0.000000 -0.000000 -1.605853
 28 10.127057 0.000000 0.000001 1.947633 0.173826 0.692921
 29 2.683750 -0.427338 0.044205 -0.005738 0.043239 -0.157060
 30 1.438885 -0.000001 0.000000 0.000000 -0.000000 0.732589
 31 1.485305 0.000001 0.000000 0.000000 -0.000000 1.168627
time 7
  0 0.235347 -0.235347 -14.475529 -0.045585 0.257873 -1.742273
  1 0.000000 0.000000 0.000000 -1.570795 -1.570796 0.000000
  2 -0.000005 0.000007 3.713255 -3.368582 -0.221254 1.331540
  3 18.045721 0.000000 0.000000 0.000000 -0.000000 -1.349056
  4 17.597597 0.000000 0.000000 -0.205032 0.225938 -0.216505
  5 3.793090 6.407221 0.000000 0.000000 -0.000000 1.570796
  6 0.000005 -0.000003 -3.713255 6.216042 2.542639 5.445438
  7 18.045725 0.000000 0.000000 0.000000 -0.000000 -2.074575
  8 17.597597 0.000000 0.000000 -0.092072 0.087818 0.559914
  9 3.793090 6.407221 0.000000 0.000000 -0.000000 1.570796
 10 0.935740 0.000000 0.000000 0.000000 -0.000000 0.000000
 11 0.935741 0.000000 0.000000 0.000000 -0.000000 0.000000
 12 1.293670 0.684478 -0.000001 -0.000004 -0.000001 0.218783
 13 5.309685 -0.003834 0.000000 0.000000 -0.000000 0.488545
 14 4.826790 -0.004591 0.000000 -0.346841 0.088854 0.239851
 15 5.792767 -0.005304 0.000000 -0.225882 0.019918 0.085899
 16 6.662317 -0.001453 0.000000 0.000000 -0.000001 -0.139812
 17 2.046985 -0.000002 0.000000 0.579336 -0.019090 -0.082151
 18 -3.416721 -0.541403 4.341911 2.135272 -0.853476 1.010963
 19 4.827230 0.000000 0.000001 -1.045039 0.224793 -0.317315
 20 11.139763 0.000000 0.000000 0.000000 -0.000000 -0.958334
 21 10.314597 0.000001 0.000000 -3.815936 0.573839 -0.433385
 22 2.975834 -0.386307 -0.044143 -0.000797 -0.043611 0.000035
 23 1.438886 0.000000 0.000000 0.000000 -0.000000 0.872170
 24 1.485303 0.000000 0.000000 0.000000 -0.000000 0.906977
 25 -3.151157 -0.491020 -4.140396 -1.137932 1.120629 2.184090
 26 4.972048 0.000000 0.000001 0.731763 -0.234243 -1.469780
 27 11.585355 0.000000 0.000000 0.000000 -0.000000 -1.605853
 28 10.127057 0.000000 0.000001 1.947633 0.173826 0.692921
 29 2.683750 -0.427338 0.044205 -0.005738 0.043239 -0.157060
 30 1.438885 -0.000001 0.000000 0.000000 -0.000000 0.732589
 31 1.485305 0.000001 0.000000 0.000000 -0.000000 1.168627
time 8
  0 0.235347 -0.235347 -14.475529 -0.045585 0.257873 -1.742273
  1 0.000000 0.000000 0.000000 -1.570795 -1.570796 0.000000
  2 -0.000005 0.000007 3.713255 -3.368582 -0.221254 1.331540
  3 18.045721 0.000000 0.000000 0.000000 -0.000000 -1.349056
  4 17.597597 0.000000 0.000000 -0.205032 0.225938 -0.216505
  5 3.793090 6.407221 0.000000 0.000000 -0.000000 1.570796
  6 0.000005 -0.000003 -3.713255 6.216042 2.542639 5.445438
  7 18.045725 0.000000 0.000000 0.000000 -0.000000 -2.074575
  8 17.597597 0.000000 0.000000 -0.092072 0.087818 0.559914
  9 3.793090 6.407221 0.000000 0.000000 -0.000000 1.570796
 10 0.935740 0.000000 0.000000 0.000000 -0.000000 0.000000
 11 0.935741 0.000000 0.000000 0.000000 -0.000000 0.000000
 12 1.293670 0.684478 -0.000001 -0.000004 -0.000001 0.218783
 13 5.309685 -0.003834 0.000000 0.000000 -0.000000 0.488545
 14 4.826790 -0.004591 0.000000 -0.346841 0.088854 0.239851
 15 5.792767 -0.005304 0.000000 -0.225751 0.021381 0.092107
 16 6.662317 -0.001453 0.000000 0.000000 -0.000001 -0.139812
 17 2.046985 -0.000002 0.000000 0.579336 -0.019090 -0.088668
 18 -3.416721 -0.541403 4.341911 2.128657 -0.848630 1.016044
 19 4.827230 0.000000 0.000001 -1.046096 0.221049 -0.309439
 20 11.139763 0.000000 0.000000 0.000000 -0.000000 -0.958334
 21 10.314597 0.000001 0.000000 -3.815936 0.573839 -0.433385
 22 2.975834 -0.386307 -0.044143 -0.000797 -0.043611 0.000035
 23 1.438886 0.000000 0.000000 0.000000 -0.000000 0.872170
 24 1.485303 0.000000 0.000000 0.000000 -0.000000 0.906977
 25 -3.151157 -0.491020 -4.140396 -1.144547 1.114948 2.178433
 26 4.972048 0.000000 0.000001 0.729829 -0.227084 -1.464181
 27 11.585355 0.000000 0.000000 0.000000 -0.000000 -1.605853
 28 10.127057 0.000000 0.000001 1.947633 0.173826 0.692921
 29 2.683750 -0.427338 0.044205 -0.005738 0.043239 -0.157060
 30 1.438885 -0.000001 0.000000 0.000000 -0.000000 0.732589
 31 1.485305 0.000001 0.000000 0.000000 -0.000000 1.168627
time 9
  0 0.235347 -0.235347 -14.475529 -0.045585 0.257873 -1.742273
  1 0.000000 0.000000 0.000000 -1.570795 -1.570796 0.000000
  2 -0.000005 0.000007 3.713255 -3.368582 -0.221254 1.331540
  3 18.045721 0.000000 0.000000 0.000000 -0.000000 -1.349056
  4 17.597597 0.000000 0.000000 -0.205032 0.225938 -0.216505
  5 3.793090 6.407221 0.000000 0.000000 -0.000000 1.570796
  6 0.000005 -0.000003 -3.713255 6.216042 2.542639 5.445438
  7 18.045725 0.000000 0.000000 0.000000 -0.000000 -2.074575
  8 17.597597 0.000000 0.000000 -0.092072 0.087818 0.559914
  9 3.793090 6.407221 0.000000 0.000000 -0.000000 1.570796
 10 0.935740 0.000000 0.000000 0.000000 -0.000000 0.000000
 11 0.935741 0.000000 0.000000 0.000000 -0.000000 0.000000
 12 1.293670 0.684478 -0.000001 -0.000004 -0.000001 0.218783
 13 5.309685 -0.003834 0.000000 0.000000 -0.000000 0.488545
 14 4.826790 -0.004591 0.000000 -0.346841 0.088854 0.239851
 15 5.792767 -0.005304 0.000000 -0.225621 0.022771 0.098087
 16 6.662317 -0.001453 0.000000 0.000000 -0.000001 -0.139812
 17 2.046985 -0.000002 0.000000 0.579336 -0.019090 -0.094691
 18 -3.416721 -0.541403 4.341911 2.123192 -0.843899 1.020071
 19 4.827230 0.000000 0.000001 -1.046977 0.216879 -0.301913
 20 11.139763 0.000000 0.000000 0.000000 -0.000000 -0.958334
 21 10.314597 0.000001 0.000000 -3.815936 0.573839 -0.433385
 22 2.975834 -0.386307 -0.044143 -0.000797 -0.043611 0.000035
 23 1.438886 0.000000 0.000000 0.000000 -0.000000 0.872170
 24 1.485303 0.000000 0.000000 0.000000 -0.000000 0.906977
 25 -3.151157 -0.491020 -4.140396 -1.150779 1.109493 2.172489
 26 4.972048 0.000000 0.000001 0.728050 -0.220005 -1.458977
 27 11.585355 0.000000 0.000000 0.000000 -0.000000 -1.605853
 28 10.127057 0.000000 0.000001 1.947633 0.173826 0.692921
 29 2.683750 -0.427338 0.044205 -0.005738 0.043239 -0.157060
 30 1.438885 -0.000001 0.000000 0.000000 -0.000000 0.732589
 31 1.485305 0.000001 0.000000 0.000000 -0.000000 1.168627
time 10
  0 0.235347 -0.235347 -14.475529 -0.045585 0.257873 -1.742273
  1 0.000000 0.000000 0.000000 -1.570795 -1.570796 0.000000
  2 -0.000005 0.000007 3.713255 -3.368582 -0.221254 1.331540
  3 18.045721 0.000000 0.000000 0.000000 -0.000000 -1.349056
  4 17.597597 0.000000 0.000000 -0.205032 0.225938 -0.216505
  5 3.793090 6.407221 0.000000 0.000000 -0.000000 1.570796
  6 0.000005 -0.000003 -3.713255 6.216042 2.542639 5.445438
  7 18.045725 0.000000 0.000000 0.000000 -0.000000 -2.074575
  8 17.597597 0.000000 0.000000 -0.092072 0.087818 0.559914
  9 3.793090 6.407221 0.000000 0.000000 -0.000000 1.570796
 10 0.935740 0.000000 0.000000 0.000000 -0.000000 0.000000
 11 0.935741 0.000000 0.000000 0.000000 -0.000000 0.000000
 12 1.293670 0.684478 -0.000001 -0.000004 -0.000001 0.218783
 13 5.309685 -0.003834 0.000000 0.000000 -0.000000 0.488545
 14 4.826790 -0.004591 0.000000 -0.346841 0.088854 0.239851
 15 5.792767 -0.005304 0.000000 -0.225490 0.024005 0.103672
 16 6.662317 -0.001453 0.000000 0.000000 -0.000001 -0.139812
 17 2.046985 -0.000002 0.000000 0.579336 -0.019090 -0.100580
 18 -3.416721 -0.541403 4.341911 2.117727 -0.839437 1.024577
 19 4.827230 0.000000 0.000001 -1.047741 0.213475 -0.294912
 20 11.139763 0.000000 0.000000 0.000000 -0.000000 -0.958334
 21 10.314597 0.000001 0.000000 -3.815936 0.573839 -0.433385
 22 2.975834 -0.386307 -0.044143 -0.000797 -0.043611 0.000035
 23 1.438886 0.000000 0.000000 0.000000 -0.000000 0.872170
 24 1.485303 0.000000 0.000000 0.000000 -0.000000 0.906977
 25 -3.151157 -0.491020 -4.140396 -1.156148 1.104349 2.167408
 26 4.972048 0.000000 0.000001 0.726503 -0.213570 -1.453839
 27 11.585355 0.000000 0.000000 0.000000 -0.000000 -1.605853
 28 10.127057 0.000000 0.000001 1.947633 0.173826 0.692921
 29 2.683750 -0.427338 0.044205 -0.005738 0.043239 -0.157060
 30 1.438885 -0.000001 0.000000 0.000000 -0.000000 0.732589
 31 1.485305 0.000001 0.000000 0.000000 -0.000000 1.168627
time 11
  0 0.235347 -0.235347 -14.475529 -0.045585 0.257873 -1.742273
  1 0.000000 0.000000 0.000000 -1.570795 -1.570796 0.000000
  2 -0.000005 0.000007 3.713255 -3.368582 -0.221254 1.331540
  3 18.045721 0.000000 0.000000 0.000000 -0.000000 -1.349056
  4 17.597597 0.000000 0.000000 -0.205032 0.225938 -0.216505
  5 3.793090 6.407221 0.000000 0.000000 -0.000000 1.570796
  6 0.000005 -0.000003 -3.713255 6.216042 2.542639 5.445438
  7 18.045725 0.000000 0.000000 0.000000 -0.000000 -2.074575
  8 17.597597 0.000000 0.000000 -0.092072 0.087818 0.559914
  9 3.793090 6.407221 0.000000 0.000000 -0.000000 1.570796
 10 0.935740 0.000000 0.000000 0.000000 -0.000000 0.000000
 11 0.935741 0.000000 0.000000 0.000000 -0.000000 0.000000
 12 1.293670 0.684478 -0.000001 -0.000004 -0.000001 0.218783
 13 5.309685 -0.003834 0.000000 0.000000 -0.000000 0.488545
 14 4.826790 -0.004591 0.000000 -0.346841 0.088854 0.239851
 15 5.792767 -0.005304 0.000000 -0.225360 0.025192 0.108593
 16 6.662317 -0.001453 0.000000 0.000000 -0.000001 -0.139812
 17 2.046985 -0.000002 0.000000 0.579336 -0.019090 -0.105659
 18 -3.416721 -0.541403 4.341911 2.112838 -0.835514 1.027741
 19 4.827230 0.000000 0.000001 -1.048387 0.210071 -0.288611
 20 11.139763 0.000000 0.000000 0.000000 -0.000000 -0.958334
 21 10.314597 0.000001 0.000000 -3.815936 0.573839 -0.433385
 22 2.975834 -0.386307 -0.044143 -0.000797 -0.043611 0.000035
 23 1.438886 0.000000 0.000000 0.000000 -0.000000 0.872170
 24 1.485303 0.000000 0.000000 0.000000 -0.000000 0.906977
 25 -3.151157 -0.491020 -4.140396 -1.161421 1.099770 2.163285
 26 4.972048 0.000000 0.000001 0.725033 -0.207778 -1.449689
 27 11.585355 0.000000 0.000000 0.000000 -0.000000 -1.605853
 28 10.127057 0.000000 0.000001 1.947633 0.173826 0.692921
 29 2.683750 -0.427338 0.044205 -0.005738 0.043239 -0.157060
 30 1.438885 -0.000001 0.000000 0.000000 -0.000000 0.732589
 31 1.485305 0.000001 0.000000 0.000000 -0.000000 1.168627
time 12
  0 0.235347 -0.235347 -14.475529 -0.045585 0.257873 -1.742273
  1 0.000000 0.000000 0.000000 -1.570795 -1.570796 0.000000
  2 -0.000005 0.000007 3.713255 -3.368582 -0.221254 1.331540
  3 18.045721 0.000000 0.000000 0.000000 -0.000000 -1.349056
  4 17.597597 0.000000 0.000000 -0.205032 0.225938 -0.216505
  5 3.793090 6.407221 0.000000 0.000000 -0.000000 1.570796
  6 0.000005 -0.000003 -3.713255 6.216042 2.542639 5.445438
  7 18.045725 0.000000 0.000000 0.000000 -0.000000 -2.074575
  8 17.597597 0.000000 0.000000 -0.092072 0.087818 0.559914
  9 3.793090 6.407221 0.000000 0.000000 -0.000000 1.570796
 10 0.935740 0.000000 0.000000 0.000000 -0.000000 0.000000
 11 0.935741 0.000000 0.000000 0.000000 -0.000000 0.000000
 12 1.293670 0.684478 -0.000001 -0.000004 -0.000001 0.218783
 13 5.309685 -0.003834 0.000000 0.000000 -0.000000 0.488545
 14 4.826790 -0.004591 0.000000 -0.346841 0.088854 0.239851
 15 5.792767 -0.005304 0.000000 -0.225262 0.026102 0.112787
 16 6.662317 -0.001453 0.000000 0.000000 -0.000001 -0.139812
 17 2.046985 -0.000002 0.000000 0.579336 -0.019090 -0.109929
 18 -3.416721 -0.541403 4.341911 2.108907 -0.832168 1.030713
 19 4.827230 0.000000 0.000001 -1.049033 0.207518 -0.283448
 20 11.139763 0.000000 0.000000 0.000000 -0.000000 -0.958334
 21 10.314597 0.000001 0.000000 -3.815936 0.573839 -0.433385
 22 2.975834 -0.386307 -0.044143 -0.000797 -0.043611 0.000035
 23 1.438886 0.000000 0.000000 0.000000 -0.000000 0.872170
 24 1.485303 0.000000 0.000000 0.000000 -0.000000 0.906977
 25 -3.151157 -0.491020 -4.140396 -1.165256 1.095898 2.159546
 26 4.972048 0.000000 0.000001 0.723718 -0.203032 -1.446000
 27 11.585355 0.000000 0.000000 0.000000 -0.000000 -1.605853
 28 10.127057 0.000000 0.000001 1.947633 0.173826 0.692921
 29 2.683750 -0.427338 0.044205 -0.005738 0.043239 -0.157060
 30 1.438885 -0.000001 0.000000 0.000000 -0.000000 0.732589
 31 1.485305 0.000001 0.000000 0.000000 -0.000000 1.168627
time 13
  0 0.235347 -0.235347 -14.475529 -0.045585 0.257873 -1.742273
  1 0.000000 0.000000 0.000000 -1.570795 -1.570796 0.000000
  2 -0.000005 0.000007 3.713255 -3.368582 -0.221254 1.331540
  3 18.045721 0.000000 0.000000 0.000000 -0.000000 -1.349056
  4 17.597597 0.000000 0.000000 -0.205032 0.225938 -0.216505
  5 3.793090 6.407221 0.000000 0.000000 -0.000000 1.570796
  6 0.000005 -0.000003 -3.713255 6.216042 2.542639 5.445438
  7 18.045725 0.000000 0.000000 0.000000 -0.000000 -2.074575
  8 17.597597 0.000000 0.000000 -0.092072 0.087818 0.559914
  9 3.793090 6.407221 0.000000 0.000000 -0.000000 1.570796
 10 0.935740 0.000000 0.000000 0.000000 -0.000000 0.000000
 11 0.935741 0.000000 0.000000 0.000000 -0.000000 0.000000
 12 1.293670 0.684478 -0.000001 -0.000004 -0.000001 0.218783
 13 5.309685 -0.003834 0.000000 0.000000 -0.000000 0.488545
 14 4.826790 -0.004591 0.000000 -0.346841 0.088854 0.239851
 15 5.792767 -0.005304 0.000000 -0.225164 0.026833 0.116005
 16 6.662317 -0.001453 0.000000 0.000000 -0.000001 -0.139812
 17 2.046985 -0.000002 0.000000 0.579336 -0.019090 -0.113030
 18 -3.416721 -0.541403 4.341911 2.105839 -0.829668 1.033110
 19 4.827230 0.000000 0.000001 -1.049503 0.205050 -0.279510
 20 11.139763 0.000000 0.000000 0.000000 -0.000000 -0.958334
 21 10.314597 0.000001 0.000000 -3.815936 0.573839 -0.433385
 22 2.975834 -0.386307 -0.044143 -0.000797 -0.043611 0.000035
 23 1.438886 0.000000 0.000000 0.000000 -0.000000 0.872170
 24 1.485303 0.000000 0.000000 0.000000 -0.000000 0.906977
 25 -3.151157 -0.491020 -4.140396 -1.168228 1.092930 2.156574
 26 4.972048 0.000000 0.000001 0.722867 -0.199332 -1.442970
 27 11.585355 0.000000 0.000000 0.000000 -0.000000 -1.605853
 28 10.127057 0.000000 0.000001 1.947633 0.173826 0.692921
 29 2.683750 -0.427338 0.044205 -0.005738 0.043239 -0.157060
 30 1.438885 -0.000001 0.000000 0.000000 -0.000000 0.732589
 31 1.485305 0.000001 0.000000 0.000000 -0.000000 1.168627
time 14
  0 0.235347 -0.235347 -14.475529 -0.045585 0.257873 -1.742273
  1 0.000000 0.000000 0.000000 -1.570795 -1.570796 0.000000
  2 -0.000005 0.000007 3.713255 -3.368582 -0.221254 1.331540
  3 18.045721 0.000000 0.000000 0.000000 -0.000000 -1.349056
  4 17.597597 0.000000 0.000000 -0.205032 0.225938 -0.216505
  5 3.793090 6.407221 0.000000 0.000000 -0.000000 1.570796
  6 0.000005 -0.000003 -3.713255 6.216042 2.542639 5.445438
  7 18.045725 0.000000 0.000000 0.000000 -0.000000 -2.074575
  8 17.597597 0.000000 0.000000 -0.092072 0.087818 0.559914
  9 3.793090 6.407221 0.000000 0.000000 -0.000000 1.570796
 10 0.935740 0.000000 0.000000 0.000000 -0.000000 0.000000
 11 0.935741 0.000000 0.000000 0.000000 -0.000000 0.000000
 12 1.293670 0.684478 -0.000001 -0.000004 -0.000001 0.218783
 13 5.309685 -0.003834 0.000000 0.000000 -0.000000 0.488545
 14 4.826790 -0.004591 0.000000 -0.346841 0.088854 0.239851
 15 5.792767 -0.005304 0.000000 -0.225115 0.027349 0.118040
 16 6.662317 -0.001453 0.000000 0.000000 -0.000001 -0.139812
 17 2.046985 -0.000002 0.000000 0.579336 -0.019090 -0.115277
 18 -3.416721 -0.541403 4.341911 2.103634 -0.828014 1.034644
 19 4.827230 0.000000 0.000001 -1.049914 0.203688 -0.276797
 20 11.139763 0.000000 0.000000 0.000000 -0.000000 -0.958334
 21 10.314597 0.000001 0.000000 -3.815936 0.573839 -0.433385
 22 2.975834 -0.386307 -0.044143 -0.000797 -0.043611 0.000035
 23 1.438886 0.000000 0.000000 0.000000 -0.000000 0.872170
 24 1.485303 0.000000 0.000000 0.000000 -0.000000 0.906977
 25 -3.151157 -0.491020 -4.140396 -1.170529 1.091093 2.154944
 26 4.972048 0.000000 0.000001 0.722171 -0.196838 -1.441389
 27 11.585355 0.000000 0.000000 0.000000 -0.000000 -1.605853
 28 10.127057 0.000000 0.000001 1.947633 0.173826 0.692921
 29 2.683750 -0.427338 0.044205 -0.005738 0.043239 -0.157060
 30 1.438885 -0.000001 0.000000 0.000000 -0.000000 0.732589
 31 1.485305 0.000001 0.000000 0.000000 -0.000000 1.168627
time 15
  0 0.235347 -0.235347 -14.475529 -0.045585 0.257873 -1.742273
  1 0.000000 0.000000 0.000000 -1.570795 -1.570796 0.000000
  2 -0.000005 0.000007 3.713255 -3.368582 -0.221254 1.331540
  3 18.045721 0.000000 0.000000 0.000000 -0.000000 -1.349056
  4 17.597597 0.000000 0.000000 -0.205032 0.225938 -0.216505
  5 3.793090 6.407221 0.000000 0.000000 -0.000000 1.570796
  6 0.000005 -0.000003 -3.713255 6.216042 2.542639 5.445438
  7 18.045725 0.000000 0.000000 0.000000 -0.000000 -2.074575
  8 17.597597 0.000000 0.000000 -0.092072 0.087818 0.559914
  9 3.793090 6.407221 0.000000 0.000000 -0.000000 1.570796
 10 0.935740 0.000000 0.000000 0.000000 -0.000000 0.000000
 11 0.935741 0.000000 0.000000 0.000000 -0.000000 0.000000
 12 1.293670 0.684478 -0.000001 -0.000004 -0.000001 0.218783
 13 5.309685 -0.003834 0.000000 0.000000 -0.000000 0.488545
 14 4.826790 -0.004591 0.000000 -0.346841 0.088854 0.239851
 15 5.792767 -0.005304 0.000000 -0.225099 0.027517 0.118746
 16 6.662317 -0.001453 0.000000 0.000000 -0.000001 -0.139812
 17 2.046985 -0.000002 0.000000 0.579336 -0.019090 -0.116087
 18 -3.416721 -0.541403 4.341911 2.102867 -0.827437 1.034932
 19 4.827230 0.000000 0.000001 -1.049973 0.203348 -0.275922
 20 11.139763 0.000000 0.000000 0.000000 -0.000000 -0.958334
 21 10.314597 0.000001 0.000000 -3.815936 0.573839 -0.433385
 22 2.975834 -0.386307 -0.044143 -0.000797 -0.043611 0.000035
 23 1.438886 0.000000 0.000000 0.000000 -0.000000 0.872170
 24 1.485303 0.000000 0.000000 0.000000 -0.000000 0.906977
 25 -3.151157 -0.491020 -4.140396 -1.171296 1.090358 2.154369
 26 4.972048 0.000000 0.000001 0.721939 -0.196034 -1.440730
 27 11.585355 0.000000 0.000000 0.000000 -0.000000 -1.605853
 28 10.127057 0.000000 0.000001 1.947633 0.173826 0.692921
 29 2.683750 -0.427338 0.044205 -0.005738 0.043239 -0.157060
 30 1.438885 -0.000001 0.000000 0.000000 -0.000000 0.732589
 31 1.485305 0.000001 0.000000 0.000000 -0.000000 1.168627
time 16
  0 0.235347 -0.235347 -14.475529 -0.045585 0.257873 -1.742273
  1 0.000000 0.000000 0.000000 -1.570795 -1.570796 0.000000
  2 -0.000005 0.000007 3.713255 -3.368582 -0.221254 1.331540
  3 18.045721 0.000000 0.000000 0.000000 -0.000000 -1.349056
  4 17.597597 0.000000 0.000000 -0.205032 0.225938 -0.216505
  5 3.793090 6.407221 0.000000 0.000000 -0.000000 1.570796
  6 0.000005 -0.000003 -3.713255 6.216042 2.542639 5.445438
  7 18.045725 0.000000 0.000000 0.000000 -0.000000 -2.074575
  8 17.597597 0.000000 0.000000 -0.092072 0.087818 0.559914
  9 3.793090 6.407221 0.000000 0.000000 -0.000000 1.570796
 10 0.935740 0.000000 0.000000 0.000000 -0.000000 0.000000
 11 0.935741 0.000000 0.000000 0.000000 -0.000000 0.000000
 12 1.293670 0.684478 -0.000001 -0.000004 -0.000001 0.218783
 13 5.309685 -0.003834 0.000000 0.000000 -0.000000 0.488545
 14 4.826790 -0.004591 0.000000 -0.346841 0.088854 0.239851
 15 5.792767 -0.005304 0.000000 -0.225115 0.027349 0.118040
 16 6.662317 -0.001453 0.000000 0.000000 -0.000001 -0.139812
 17 2.046985 -0.000002 0.000000 0.579336 -0.019090 -0.115277
 18 -3.416721 -0.541403 4.341911 2.103634 -0.828014 1.034644
 19 4.827230 0.000000 0.000001 -1.049914 0.203688 -0.276797
 20 11.139763 0.000000 0.000000 0.000000 -0.000000 -0.958334
 21 10.314597 0.000001 0.000000 -3.815936 0.573839 -0.433385
 22 2.975834 -0.386307 -0.044143 -0.000797 -0.043611 0.000035
 23 1.438886 0.000000 0.000000 0.000000 -0.000000 0.872170
 24 1.485303 0.000000 0.000000 0.000000 -0.000000 0.906977
 25 -3.151157 -0.491020 -4.140396 -1.170529 1.091093 2.154944
 26 4.972048 0.000000 0.000001 0.722171 -0.196838 -1.441389
 27 11.585355 0.000000 0.000000 0.000000 -0.000000 -1.605853
 28 10.127057 0.000000 0.000001 1.947633 0.173826 0.692921
 29 2.683750 -0.427338 0.044205 -0.005738 0.043239 -0.157060
 30 1.438885 -0.000001 0.000000 0.000000 -0.000000 0.732589
 31 1.485305 0.000001 0.000000 0.000000 -0.000000 1.168627
time 17
  0 0.235347 -0.235347 -14.475529 -0.045585 0.257873 -1.742273
  1 0.000000 0.000000 0.000000 -1.570795 -1.570796 0.000000
  2 -0.000005 0.000007 3.713255 -3.368582 -0.221254 1.331540
  3 18.045721 0.000000 0.000000 0.000000 -0.000000 -1.349056
  4 17.597597 0.000000 0.000000 -0.205032 0.225938 -0.216505
  5 3.793090 6.407221 0.000000 0.000000 -0.000000 1.570796
  6 0.000005 -0.000003 -3.713255 6.216042 2.542639 5.445438
  7 18.045725 0.000000 0.000000 0.000000 -0.000000 -2.074575
  8 17.597597 0.000000 0.000000 -0.092072 0.087818 0.559914
  9 3.793090 6.407221 0.000000 0.000000 -0.000000 1.570796
 10 0.935740 0.000000 0.000000 0.000000 -0.000000 0.000000
 11 0.935741 0.000000 0.000000 0.000000 -0.000000 0.000000
 12 1.293670 0.684478 -0.000001 -0.000004 -0.000001 0.218783
 13 5.309685 -0.003834 0.000000 0.000000 -0.000000 0.488545
 14 4.826790 -0.004591 0.000000 -0.346841 0.088854 0.239851
 15 5.792767 -0.005304 0.000000 -0.225164 0.026833 0.116005
 16 6.662317 -0.001453 0.000000 0.000000 -0.000001 -0.139812
 17 2.046985 -0.000002 0.000000 0.579336 -0.019090 -0.113030
 18 -3.416721 -0.541403 4.341911 2.105839 -0.829668 1.033110
 19 4.827230 0.000000 0.000001 -1.049503 0.205050 -0.279510
 20 11.139763 0.000000 0.000000 0.000000 -0.000000 -0.958334
 21 10.314597 0.000001 0.000000 -3.815936 0.573839 -0.433385
 22 2.975834 -0.386307 -0.044143 -0.000797 -0.043611 0.000035
 23 1.438886 0.000000 0.000000 0.000000 -0.000000 0.872170
 24 1.485303 0.000000 0.000000 0.000000 -0.000000 0.906977
 25 -3.151157 -0.491020 -4.140396 -1.168228 1.092930 2.156574
 26 4.972048 0.000000 0.000001 0.722867 -0.199332 -1.442970
 27 11.585355 0.000000 0.000000 0.000000 -0.000000 -1.605853
 28 10.127057 0.000000 0.000001 1.947633 0.173826 0.692921
 29 2.683750 -0.427338 0.044205 -0.005738 0.043239 -0.157060
 30 1.438885 -0.000001 0.000000 0.000000 -0.000000 0.732589
 31 1.485305 0.000001 0.000000 0.000000 -0.000000 1.168627
time 18
  0 0.235347 -0.235347 -14.475529 -0.045585 0.257873 -1.742273
  1 0.000000 0.000000 0.000000 -1.570795 -1.570796 0.000000
  2 -0.000005 0.000007 3.713255 -3.368582 -0.221254 1.331540
  3 18.045721 0.000000 0.000000 0.000000 -0.000000 -1.349056
  4 17.597597 0.000000 0.000000 -0.205032 0.225938 -0.216505
  5 3.793090 6.407221 0.000000 0.000000 -0.000000 1.570796
  6 0.000005 -0.000003 -3.713255 6.216042 2.542639 5.445438
  7 18.045725 0.000000 0.000000 0.000000 -0.000000 -2.074575
  8 17.597597 0.000000 0.000000 -0.092072 0.087818 0.559914
  9 3.793090 6.407221 0.000000 0.000000 -0.000000 1.570796
 10 0.935740 0.000000 0.000000 0.000000 -0.000000 0.000000
 11 0.935741 0.000000 0.000000 0.000000 -0.000000 0.000000
 12 1.293670 0.684478 -0.000001 -0.000004 -0.000001 0.218783
 13 5.309685 -0.003834 0.000000 0.000000 -0.000000 0.488545
 14 4.826790 -0.004591 0.000000 -0.346841 0.088854 0.239851
 15 5.792767 -0.005304 0.000000 -0.225262 0.026102 0.112787
 16 6.662317 -0.001453 0.000000 0.000000 -0.000001 -0.139812
 17 2.046985 -0.000002 0.000000 0.579336 -0.019090 -0.109929
 18 -3.416721 -0.541403 4.341911 2.108907 -0.832168 1.030713
 19 4.827230 0.000000 0.000001 -1.049033 0.207518 -0.283448
 20 11.139763 0.000000 0.000000 0.000000 -0.000000 -0.958334
 21 10.314597 0.000001 0.000000 -3.815936 0.573839 -0.433385
 22 2.975834 -0.386307 -0.044143 -0.000797 -0.043611 0.000035
 23 1.438886 0.000000 0.000000 0.000000 -0.000000 0.872170
 24 1.485303 0.000000 0.000000 0.000000 -0.000000 0.906977
 25 -3.151157 -0.491020 -4.140396 -1.165256 1.095898 2.159546
 26 4.972048 0.000000 0.000001 0.723718 -0.203032 -1.446000
 27 11.585355 0.000000 0.000000 0.000000 -0.000000 -1.605853
 28 10.127057 0.000000 0.000001 1.947633 0.173826 0.692921
 29 2.683750 -0.427338 0.044205 -0.005738 0.043239 -0.157060
 30 1.438885 -0.000001 0.000000 0.000000 -0.000000 0.732589
 31 1.485305 0.000001 0.000000 0.000000 -0.000000 1.168627
time 19
  0 0.235347 -0.235347 -14.475529 -0.045585 0.257873 -1.742273
  1 0.000000 0.000000 0.000000 -1.570795 -1.570796 0.000000
  2 -0.000005 0.000007 3.713255 -3.368582 -0.221254 1.331540
  3 18.045721 0.000000 0.000000 0.000000 -0.000000 -1.349056
  4 17.597597 0.000000 0.000000 -0.205032 0.225938 -0.216505
  5 3.793090 6.407221 0.000000 0.000000 -0.000000 1.570796
  6 0.000005 -0.000003 -3.713255 6.216042 2.542639 5.445438
  7 18.045725 0.000000 0.000000 0.000000 -0.000000 -2.074575
  8 17.597597 0.000000 0.000000 -0.092072 0.087818 0.559914
  9 3.793090 6.407221 0.000000 0.000000 -0.000000 1.570796
 10 0.935740 0.000000 0.000000 0.000000 -0.000000 0.000000
 11 0.935741 0.000000 0.000000 0.000000 -0.000000 0.000000
 12 1.293670 0.684478 -0.000001 -0.000004 -0.000001 0.218783
 13 5.309685 -0.003834 0.000000 0.000000 -0.000000 0.488545
 14 4.826790 -0.004591 0.000000 -0.346841 0.088854 0.239851
 15 5.792767 -0.005304 0.000000 -0.225360 0.025192 0.108593
 16 6.662317 -0.001453 0.000000 0.000000 -0.000001 -0.139812
 17 2.046985 -0.000002 0.000000 0.579336 -0.019090 -0.105659
 18 -3.416721 -0.541403 4.341911 2.112838 -0.835514 1.027741
 19 4.827230 0.000000 0.000001 -1.048387 0.210071 -0.288611
 20 11.139763 0.000000 0.000000 0.000000 -0.000000 -0.958334
 21 10.314597 0.000001 0.000000 -3.815936 0.573839 -0.433385
 22 2.975834 -0.386307 -0.044143 -0.000797 -0.043611 0.000035
 23 1.438886 0.000000 0.000000 0.000000 -0.000000 0.872170
 24 1.485303 0.000000 0.000000 0.000000 -0.000000 0.906977
 25 -3.151157 -0.491020 -4.140396 -1.161421 1.099770 2.163285
 26 4.972048 0.000000 0.000001 0.725033 -0.207778 -1.449689
 27 11.585355 0.000000 0.000000 0.000000 -0.000000 -1.605853
 28 10.127057 0.000000 0.000001 1.947633 0.173826 0.692921
 29 2.683750 -0.427338 0.044205 -0.005738 0.043239 -0.157060
 30 1.438885 -0.000001 0.000000 0.000000 -0.000000 0.732589
 31 1.485305 0.000001 0.000000 0.000000 -0.000000 1.168627
time 20
  0 0.235347 -0.235347 -14.475529 -0.045585 0.257873 -1.742273
  1 0.000000 0.000000 0.000000 -1.570795 -1.570796 0.000000
  2 -0.000005 0.000007 3.713255 -3.368582 -0.221254 1.331540
  3 18.045721 0.000000 0.000000 0.000000 -0.000000 -1.349056
  4 17.597597 0.000000 0.000000 -0.205032 0.225938 -0.216505
  5 3.793090 6.407221 0.000000 0.000000 -0.000000 1.570796
  6 0.000005 -0.000003 -3.713255 6.216042 2.542639 5.445438
  7 18.045725 0.000000 0.000000 0.000000 -0.000000 -2.074575
  8 17.597597 0.000000 0.000000 -0.092072 0.087818 0.559914
  9 3.793090 6.407221 0.000000 0.000000 -0.000000 1.570796
 10 0.935740 0.000000 0.000000 0.000000 -0.000000 0.000000
 11 0.935741 0.000000 0.000000 0.000000 -0.000000 0.000000
 12 1.293670 0.684478 -0.000001 -0.000004 -0.000001 0.218783
 13 5.309685 -0.003834 0.000000 0.000000 -0.000000 0.488545
 14 4.826790 -0.004591 0.000000 -0.346841 0.088854 0.239851
 15 5.792767 -0.005304 0.000000 -0.225490 0.024005 0.103672
 16 6.662317 -0.001453 0.000000 0.000000 -0.000001 -0.139812
 17 2.046985 -0.000002 0.000000 0.579336 -0.019090 -0.100580
 18 -3.416721 -0.541403 4.341911 2.117727 -0.839437 1.024577
 19 4.827230 0.000000 0.000001 -1.047741 0.213475 -0.294912
 20 11.139763 0.000000 0.000000 0.000000 -0.000000 -0.958334
 21 10.314597 0.000001 0.000000 -3.815936 0.573839 -0.433385
 22 2.975834 -0.386307 -0.044143 -0.000797 -0.043611 0.000035
 23 1.438886 0.000000 0.000000 0.000000 -0.000000 0.872170
 24 1.485303 0.000000 0.000000 0.000000 -0.000000 0.906977
 25 -3.151157 -0.491020 -4.140396 -1.156148 1.104349 2.167408
 26 4.972048 0.000000 0.000001 0.726503 -0.213570 -1.453839
 27 11.585355 0.000000 0.000000 0.000000 -0.000000 -1.605853
 28 10.127057 0.000000 0.000001 1.947633 0.173826 0.692921
 29 2.683750 -0.427338 0.044205 -0.005738 0.043239 -0.157060
 30 1.438885 -0.000001 0.000000 0.000000 -0.000000 0.732589
 31 1.485305 0.000001 0.000000 0.000000 -0.000000 1.168627
time 21
  0 0.235347 -0.235347 -14.475529 -0.045585 0.257873 -1.742273
  1 0.000000 0.000000 0.000000 -1.570795 -1.570796 0.000000
  2 -0.000005 0.000007 3.713255 -3.368582 -0.221254 1.331540
  3 18.045721 0.000000 0.000000 0.000000 -0.000000 -1.349056
  4 17.597597 0.000000 0.000000 -0.205032 0.225938 -0.216505
  5 3.793090 6.407221 0.000000 0.000000 -0.000000 1.570796
  6 0.000005 -0.000003 -3.713255 6.216042 2.542639 5.445438
  7 18.045725 0.000000 0.000000 0.000000 -0.000000 -2.074575
  8 17.597597 0.000000 0.000000 -0.092072 0.087818 0.559914
  9 3.793090 6.407221 0.000000 0.000000 -0.000000 1.570796
 10 0.935740 0.000000 0.000000 0.000000 -0.000000 0.000000
 11 0.935741 0.000000 0.000000 0.000000 -0.000000 0.000000
 12 1.293670 0.684478 -0.000001 -0.000004 -0.000001 0.218783
 13 5.309685 -0.003834 0.000000 0.000000 -0.000000 0.488545
 14 4.826790 -0.004591 0.000000 -0.346841 0.088854 0.239851
 15 5.792767 -0.005304 0.000000 -0.225621 0.022771 0.098087
 16 6.662317 -0.001453 0.000000 0.000000 -0.000001 -0.139812
 17 2.046985 -0.000002 0.000000 0.579336 -0.019090 -0.094691
 18 -3.416721 -0.541403 4.341911 2.123192 -0.843899 1.020071
 19 4.827230 0.000000 0.000001 -1.046977 0.216879 -0.301913
 20 11.139763 0.000000 0.000000 0.000000 -0.000000 -0.958334
 21 10.314597 0.000001 0.000000 -3.815936 0.573839 -0.433385
 22 2.975834 -0.386307 -0.044143 -0.000797 -0.043611 0.000035
 23 1.438886 0.000000 0.000000 0.000000 -0.000000 0.872170
 24 1.485303 0.000000 0.000000 0.000000 -0.000000 0.906977
 25 -3.151157 -0.491020 -4.140396 -1.150779 1.109493 2.172489
 26 4.972048 0.000000 0.000001 0.728050 -0.220005 -1.458977
 27 11.585355 0.000000 0.000000 0.000000 -0.000000 -1.605853
 28 10.127057 0.000000 0.000001 1.947633 0.173826 0.692921
 29 2.683750 -0.427338 0.044205 -0.005738 0.043239 -0.157060
 30 1.438885 -0.000001 0.000000 0.000000 -0.000000 0.732589
 31 1.485305 0.000001 0.000000 0.000000 -0.000000 1.168627
time 22
  0 0.235347 -0.235347 -14.475529 -0.045585 0.257873 -1.742273
  1 0.000000 0.000000 0.000000 -1.570795 -1.570796 0.000000
  2 -0.000005 0.000007 3.713255 -3.368582 -0.221254 1.331540
  3 18.045721 0.000000 0.000000 0.000000 -0.000000 -1.349056
  4 17.597597 0.000000 0.000000 -0.205032 0.225938 -0.216505
  5 3.793090 6.407221 0.000000 0.000000 -0.000000 1.570796
  6 0.000005 -0.000003 -3.713255 6.216042 2.542639 5.445438
  7 18.045725 0.000000 0.000000 0.000000 -0.000000 -2.074575
  8 17.597597 0.000000 0.000000 -0.092072 0.087818 0.559914
  9 3.793090 6.407221 0.000000 0.000000 -0.000000 1.570796
 10 0.935740 0.000000 0.000000 0.000000 -0.000000 0.000000
 11 0.935741 0.000000 0.000000 0.000000 -0.000000 0.000000
 12 1.293670 0.684478 -0.000001 -0.000004 -0.000001 0.218783
 13 5.309685 -0.003834 0.000000 0.000000 -0.000000 0.488545
 14 4.826790 -0.004591 0.000000 -0.346841 0.088854 0.239851
 15 5.792767 -0.005304 0.000000 -0.225751 0.021381 0.092107
 16 6.662317 -0.001453 0.000000 0.000000 -0.000001 -0.139812
 17 2.046985 -0.000002 0.000000 0.579336 -0.019090 -0.088668
 18 -3.416721 -0.541403 4.341911 2.128657 -0.848630 1.016044
 19 4.827230 0.000000 0.000001 -1.046096 0.221049 -0.309439
 20 11.139763 0.000000 0.000000 0.000000 -0.000000 -0.958334
 21 10.314597 0.000001 0.000000 -3.815936 0.573839 -0.433385
 22 2.975834 -0.386307 -0.044143 -0.000797 -0.043611 0.000035
 23 1.438886 0.000000 0.000000 0.000000 -0.000000 0.872170
 24 1.485303 0.000000 0.000000 0.000000 -0.000000 0.906977
 25 -3.151157 -0.491020 -4.140396 -1.144547 1.114948 2.178433
 26 4.972048 0.000000 0.000001 0.729829 -0.227084 -1.464181
 27 11.585355 0.000000 0.000000 0.000000 -0.000000 -1.605853
 28 10.127057 0.000000 0.000001 1.947633 0.173826 0.692921
 29 2.683750 -0.427338 0.044205 -0.005738 0.043239 -0.157060
 30 1.438885 -0.000001 0.000000 0.000000 -0.000000 0.732589
 31 1.485305 0.000001 0.000000 0.000000 -0.000000 1.168627
time 23
  0 0.235347 -0.235347 -14.475529 -0.045585 0.257873 -1.742273
  1 0.000000 0.000000 0.000000 -1.570795 -1.570796 0.000000
  2 -0.000005 0.000007 3.713255 -3.368582 -0.221254 1.331540
  3 18.045721 0.000000 0.000000 0.000000 -0.000000 -1.349056
  4 17.597597 0.000000 0.000000 -0.205032 0.225938 -0.216505
  5 3.793090 6.407221 0.000000 0.000000 -0.000000 1.570796
  6 0.000005 -0.000003 -3.713255 6.216042 2.542639 5.445438
  7 18.045725 0.000000 0.000000 0.000000 -0.000000 -2.074575
  8 17.597597 0.000000 0.000000 -0.092072 0.087818 0.559914
  9 3.793090 6.407221 0.000000 0.000000 -0.000000 1.570796
 10 0.935740 0.000000 0.000000 0.000000 -0.000000 0.000000
 11 0.935741 0.000000 0.000000 0.000000 -0.000000 0.000000
 12 1.293670 0.684478 -0.000001 -0.000004 -0.000001 0.218783
 13 5.309685 -0.003834 0.000000 0.000000 -0.000000 0.488545
 14 4.826790 -0.004591 0.000000 -0.346841 0.088854 0.239851
 15 5.792767 -0.005304 0.000000 -0.225882 0.019918 0.085899
 16 6.662317 -0.001453 0.000000 0.000000 -0.000001 -0.139812
 17 2.046985 -0.000002 0.000000 0.579336 -0.019090 -0.082151
 18 -3.416721 -0.541403 4.341911 2.135272 -0.853476 1.010963
 19 4.827230 0.000000 0.000001 -1.045039 0.224793 -0.317315
 20 11.139763 0.000000 0.000000 0.000000 -0.000000 -0.958334
 21 10.314597 0.000001 0.000000 -3.815936 0.573839 -0.433385
 22 2.975834 -0.386307 -0.044143 -0.000797 -0.043611 0.000035
 23 1.438886 0.000000 0.000000 0.000000 -0.000000 0.872170
 24 1.485303 0.000000 0.000000 0.000000 -0.000000 0.906977
 25 -3.151157 -0.491020 -4.140396 -1.137932 1.120629 2.184090
 26 4.972048 0.000000 0.000001 0.731763 -0.234243 -1.469780
 27 11.585355 0.000000 0.000000 0.000000 -0.000000 -1.605853
 28 10.127057 0.000000 0.000001 1.947633 0.173826 0.692921
 29 2.683750 -0.427338 0.044205 -0.005738 0.043239 -0.157060
 30 1.438885 -0.000001 0.000000 0.000000 -0.000000 0.732589
 31 1.485305 0.000001 0.000000 0.000000 -0.000000 1.168627
time 24
  0 0.235347 -0.235347 -14.475529 -0.045585 0.257873 -1.742273
  1 0.000000 0.000000 0.000000 -1.570795 -1.570796 0.000000
  2 -0.000005 0.000007 3.713255 -3.368582 -0.221254 1.331540
  3 18.045721 0.000000 0.000000 0.000000 -0.000000 -1.349056
  4 17.597597 0.000000 0.000000 -0.205032 0.225938 -0.216505
  5 3.793090 6.407221 0.000000 0.000000 -0.000000 1.570796
  6 0.000005 -0.000003 -3.713255 6.216042 2.542639 5.445438
  7 18.045725 0.000000 0.000000 0.000000 -0.000000 -2.074575
  8 17.597597 0.000000 0.000000 -0.092072 0.087818 0.559914
  9 3.793090 6.407221 0.000000 0.000000 -0.000000 1.570796
 10 0.935740 0.000000 0.000000 0.000000 -0.000000 0.000000
 11 0.935741 0.000000 0.000000 0.000000 -0.000000 0.000000
 12 1.293670 0.684478 -0.000001 -0.000004 -0.000001 0.218783
 13 5.309685 -0.003834 0.000000 0.000000 -0.000000 0.488545
 14 4.826790 -0.004591 0.000000 -0.346841 0.088854 0.239851
 15 5.792767 -0.005304 0.000000 -0.225996 0.018480 0.079608
 16 6.662317 -0.001453 0.000000 0.000000 -0.000001 -0.139812
 17 2.046985 -0.000002 0.000000 0.579336 -0.019090 -0.075768
 18 -3.416721 -0.541403 4.341911 2.141504 -0.858438 1.006169
 19 4.827230 0.000000 0.000001 -1.044158 0.228878 -0.325191
 20 11.139763 0.000000 0.000000 0.000000 -0.000000 -0.958334
 21 10.314597 0.000001 0.000000 -3.815936 0.573839 -0.433385
 22 2.975834 -0.386307 -0.044143 -0.000797 -0.043611 0.000035
 23 1.438886 0.000000 0.000000 0.000000 -0.000000 0.872170
 24 1.485303 0.000000 0.000000 0.000000 -0.000000 0.906977
 25 -3.151157 -0.491020 -4.140396 -1.131029 1.126395 2.190513
 26 4.972048 0.000000 0.000001 0.733542 -0.241644 -1.475379
 27 11.585355 0.000000 0.000000 0.000000 -0.000000 -1.605853
 28 10.127057 0.000000 0.000001 1.947633 0.173826 0.692921
 29 2.683750 -0.427338 0.044205 -0.005738 0.043239 -0.157060
 30 1.438885 -0.000001 0.000000 0.000000 -0.000000 0.732589
 31 1.485305 0.000001 0.000000 0.000000 -0.000000 1.168627
time 25
  0 0.235347 -0.235347 -14.475529 -0.045585 0.257873 -1.742273
  1 0.000000 0.000000 0.000000 -1.570795 -1.570796 0.000000
  2 -0.000005 0.000007 3.713255 -3.368582 -0.221254 1.331540
  3 18.045721 0.000000 0.000000 0.000000 -0.000000 -1.349056
  4 17.597597 0.000000 0.000000 -0.205032 0.225938 -0.216505
  5 3.793090 6.407221 0.000000 0.000000 -0.000000 1.570796
  6 0.000005 -0.000003 -3.713255 6.216042 2.542639 5.445438
  7 18.045725 0.000000 0.000000 0.000000 -0.000000 -2.074575
  8 17.597597 0.000000 0.000000 -0.092072 0.087818 0.559914
  9 3.793090 6.407221 0.000000 0.000000 -0.000000 1.570796
 10 0.935740 0.000000 0.000000 0.000000 -0.000000 0.000000
 11 0.935741 0.000000 0.000000 0.000000 -0.000000 0.000000
 12 1.293670 0.684478 -0.000001 -0.000004 -0.000001 0.218783
 13 5.309685 -0.003834 0.000000 0.000000 -0.000000 0.488545
 14 4.826790 -0.004591 0.000000 -0.346841 0.088854 0.239851
 15 5.792767 -0.005304 0.000000 -0.226110 0.017054 0.073400
 16 6.662317 -0.001453 0.000000 0.000000 -0.000001 -0.139812
 17 2.046985 -0.000002 0.000000 0.579336 -0.019090 -0.069566
 18 -3.416721 -0.541403 4.341911 2.147927 -0.863207 1.001471
 19 4.827230 0.000000 0.000001 -1.043277 0.232963 -0.332892
 20 11.139763 0.000000 0.000000 0.000000 -0.000000 -0.958334
 21 10.314597 0.000001 0.000000 -3.815936 0.573839 -0.433385
 22 2.975834 -0.386307 -0.044143 -0.000797 -0.043611 0.000035
 23 1.438886 0.000000 0.000000 0.000000 -0.000000 0.872170
 24 1.485303 0.000000 0.000000 0.000000 -0.000000 0.906977
 25 -3.151157 -0.491020 -4.140396 -1.124222 1.131963 2.196553
 26 4.972048 0.000000 0.000001 0.735476 -0.248803 -1.480715
 27 11.585355 0.000000 0.000000 0.000000 -0.000000 -1.605853
 28 10.127057 0.000000 0.000001 1.947633 0.173826 0.692921
 29 2.683750 -0.427338 0.044205 -0.005738 0.043239 -0.157060
 30 1.438885 -0.000001 0.000000 0.000000 -0.000000 0.732589
 31 1.485305 0.000001 0.000000 0.000000 -0.000000 1.168627
time 26
  0 0.235347 -0.235347 -14.475529 -0.045585 0.257873 -1.742273
  1 0.000000 0.000000 0.000000 -1.570795 -1.570796 0.000000
  2 -0.000005 0.000007 3.713255 -3.368582 -0.221254 1.331540
  3 18.045721 0.000000 0.000000 0.000000 -0.000000 -1.349056
  4 17.597597 0.000000 0.000000 -0.205032 0.225938 -0.216505
  5 3.793090 6.407221 0.000000 0.000000 -0.000000 1.570796
  6 0.000005 -0.000003 -3.713255 6.216042 2.542639 5.445438
  7 18.045725 0.000000 0.000000 0.000000 -0.000000 -2.074575
  8 17.597597 0.000000 0.000000 -0.092072 0.087818 0.559914
  9 3.793090 6.407221 0.000000 0.000000 -0.000000 1.570796
 10 0.935740 0.000000 0.000000 0.000000 -0.000000 0.000000
 11 0.935741 0.000000 0.000000 0.000000 -0.000000 0.000000
 12 1.293670 0.684478 -0.000001 -0.000004 -0.000001 0.218783
 13 5.309685 -0.003834 0.000000 0.000000 -0.000000 0.488545
 14 4.826790 -0.004591 0.000000 -0.346841 0.088854 0.239851
 15 5.792767 -0.005304 0.000000 -0.226208 0.015760 0.067545
 16 6.662317 -0.001453 0.000000 0.000000 -0.000001 -0.139812
 17 2.046985 -0.000002 0.000000 0.579336 -0.019090 -0.063543
 18 -3.416721 -0.541403 4.341911 2.153584 -0.867784 0.996869
 19 4.827230 0.000000 0.000001 -1.042396 0.236537 -0.340243
 20 11.139763 0.000000 0.000000 0.000000 -0.000000 -0.958334
 21 10.314597 0.000001 0.000000 -3.815936 0.573839 -0.433385
 22 2.975834 -0.386307 -0.044143 -0.000797 -0.043611 0.000035
 23 1.438886 0.000000 0.000000 0.000000 -0.000000 0.872170
 24 1.485303 0.000000 0.000000 0.000000 -0.000000 0.906977
 25 -3.151157 -0.491020 -4.140396 -1.117511 1.137305 2.202497
 26 4.972048 0.000000 0.000001 0.737255 -0.255560 -1.485853
 27 11.585355 0.000000 0.000000 0.000000 -0.000000 -1.605853
 28 10.127057 0.000000 0.000001 1.947633 0.173826 0.692921
 29 2.683750 -0.427338 0.044205 -0.005738 0.043239 -0.157060
 30 1.438885 -0.000001 0.000000 0.000000 -0.000000 0.732589
 31 1.485305 0.000001 0.000000 0.000000 -0.000000 1.168627
time 27
  0 0.235347 -0.235347 -14.475529 -0.045585 0.257873 -1.742273
  1 0.000000 0.000000 0.000000 -1.570795 -1.570796 0.000000
  2 -0.000005 0.000007 3.713255 -3.368582 -0.221254 1.331540
  3 18.045721 0.000000 0.000000 0.000000 -0.000000 -1.349056
  4 17.597597 0.000000 0.000000 -0.205032 0.225938 -0.216505
  5 3.793090 6.407221 0.000000 0.000000 -0.000000 1.570796
  6 0.000005 -0.000003 -3.713255 6.216042 2.542639 5.445438
  7 18.045725 0.000000 0.000000 0.000000 -0.000000 -2.074575
  8 17.597597 0.000000 0.000000 -0.092072 0.087818 0.559914
  9 3.793090 6.407221 0.000000 0.000000 -0.000000 1.570796
 10 0.935740 0.000000 0.000000 0.000000 -0.000000 0.000000
 11 0.935741 0.000000 0.000000 0.000000 -0.000000 0.000000
 12 1.293670 0.684478 -0.000001 -0.000004 -0.000001 0.218783
 13 5.309685 -0.003834 0.000000 0.000000 -0.000000 0.488545
 14 4.826790 -0.004591 0.000000 -0.346841 0.088854 0.239851
 15 5.792767 -0.005304 0.000000 -0.226289 0.014465 0.062188
 16 6.662317 -0.001453 0.000000 0.000000 -0.000001 -0.139812
 17 2.046985 -0.000002 0.000000 0.579336 -0.019090 -0.057834
 18 -3.416721 -0.541403 4.341911 2.159624 -0.871938 0.992842
 19 4.827230 0.000000 0.000001 -1.041632 0.240026 -0.347156
 20 11.139763 0.000000 0.000000 0.000000 -0.000000 -0.958334
 21 10.314597 0.000001 0.000000 -3.815936 0.573839 -0.433385
 22 2.975834 -0.386307 -0.044143 -0.000797 -0.043611 0.000035
 23 1.438886 0.000000 0.000000 0.000000 -0.000000 0.872170
 24 1.485303 0.000000 0.000000 0.000000 -0.000000 0.906977
 25 -3.151157 -0.491020 -4.140396 -1.111183 1.142138 2.208633
 26 4.972048 0.000000 0.000001 0.738725 -0.261915 -1.490859
 27 11.585355 0.000000 0.000000 0.000000 -0.000000 -1.605853
 28 10.127057 0.000000 0.000001 1.947633 0.173826 0.692921
 29 2.683750 -0.427338 0.044205 -0.005738 0.043239 -0.157060
 30 1.438885 -0.000001 0.000000 0.000000 -0.000000 0.732589
 31 1.485305 0.000001 0.000000 0.000000 -0.000000 1.168627
time 28
  0 0.235347 -0.235347 -14.475529 -0.045585 0.257873 -1.742273
  1 0.000000 0.000000 0.000000 -1.570795 -1.570796 0.000000
  2 -0.000005 0.000007 3.713255 -3.368582 -0.221254 1.331540
  3 18.045721 0.000000 0.000000 0.000000 -0.000000 -1.349056
  4 17.597597 0.000000 0.000000 -0.205032 0.225938 -0.216505
  5 3.793090 6.407221 0.000000 0.000000 -0.000000 1.570796
  6 0.000005 -0.000003 -3.713255 6.216042 2.542639 5.445438
  7 18.045725 0.000000 0.000000 0.000000 -0.000000 -2.074575
  8 17.597597 0.000000 0.000000 -0.092072 0.087818 0.559914
  9 3.793090 6.407221 0.000000 0.000000 -0.000000 1.570796
 10 0.935740 0.000000 0.000000 0.000000 -0.000000 0.000000
 11 0.935741 0.000000 0.000000 0.000000 -0.000000 0.000000
 12 1.293670 0.684478 -0.000001 -0.000004 -0.000001 0.218783
 13 5.309685 -0.003834 0.000000 0.000000 -0.000000 0.488545
 14 4.826790 -0.004591 0.000000 -0.346841 0.088854 0.239851
 15 5.792767 -0.005304 0.000000 -0.226355 0.013435 0.057475
 16 6.662317 -0.001453 0.000000 0.000000 -0.000001 -0.139812
 17 2.046985 -0.000002 0.000000 0.579336 -0.019090 -0.053160
 18 -3.416721 -0.541403 4.341911 2.164513 -0.875592 0.989007
 19 4.827230 0.000000 0.000001 -1.040810 0.243090 -0.353107
 20 11.139763 0.000000 0.000000 0.000000 -0.000000 -0.958334
 21 10.314597 0.000001 0.000000 -3.815936 0.573839 -0.433385
 22 2.975834 -0.386307 -0.044143 -0.000797 -0.043611 0.000035
 23 1.438886 0.000000 0.000000 0.000000 -0.000000 0.872170
 24 1.485303 0.000000 0.000000 0.000000 -0.000000 0.906977
 25 -3.151157 -0.491020 -4.140396 -1.105527 1.146406 2.213331
 26 4.972048 0.000000 0.000001 0.740272 -0.267385 -1.495075
 27 11.585355 0.000000 0.000000 0.000000 -0.000000 -1.605853
 28 10.127057 0.000000 0.000001 1.947633 0.173826 0.692921
 29 2.683750 -0.427338 0.044205 -0.005738 0.043239 -0.157060
 30 1.438885 -0.000001 0.000000 0.000000 -0.000000 0.732589
 31 1.485305 0.000001 0.000000 0.000000 -0.000000 1.168627
time 29
  0 0.235347 -0.235347 -14.475529 -0.045585 0.257873 -1.742273
  1 0.000000 0.000000 0.000000 -1.570795 -1.570796 0.000000
  2 -0.000005 0.000007 3.713255 -3.368582 -0.221254 1.331540
  3 18.045721 0.000000 0.000000 0.000000 -0.000000 -1.349056
  4 17.597597 0.000000 0.000000 -0.205032 0.225938 -0.216505
  5 3.793090 6.407221 0.000000 0.000000 -0.000000 1.570796
  6 0.000005 -0.000003 -3.713255 6.216042 2.542639 5.445438
  7 18.045725 0.000000 0.000000 0.000000 -0.000000 -2.074575
  8 17.597597 0.000000 0.000000 -0.092072 0.087818 0.559914
  9 3.793090 6.407221 0.000000 0.000000 -0.000000 1.570796
 10 0.935740 0.000000 0.000000 0.000000 -0.000000 0.000000
 11 0.935741 0.000000 0.000000 0.000000 -0.000000 0.000000
 12 1.293670 0.684478 -0.000001 -0.000004 -0.000001 0.218783
 13 5.309685 -0.003834 0.000000 0.000000 -0.000000 0.488545
 14 4.826790 -0.004591 0.000000 -0.346841 0.088854 0.239851
 15 5.792767 -0.005304 0.000000 -0.226403 0.012548 0.053613
 16 6.662317 -0.001453 0.000000 0.000000 -0.000001 -0.139812
 17 2.046985 -0.000002 0.000000 0.579336 -0.019090 -0.049114
 18 -3.416721 -0.541403 4.341911 2.168636 -0.878592 0.985843
 19 4.827230 0.000000 0.000001 -1.040340 0.245558 -0.357920
 20 11.139763 0.000000 0.000000 0.000000 -0.000000 -0.958334
 21 10.314597 0.000001 0.000000 -3.815936 0.573839 -0.433385
 22 2.975834 -0.386307 -0.044143 -0.000797 -0.043611 0.000035
 23 1.438886 0.000000 0.000000 0.000000 -0.000000 0.872170
 24 1.485303 0.000000 0.000000 0.000000 -0.000000 0.906977
 25 -3.151157 -0.491020 -4.140396 -1.100925 1.149854 2.217645
 26 4.972048 0.000000 0.000001 0.741355 -0.271809 -1.498566
 27 11.585355 0.000000 0.000000 0.000000 -0.000000 -1.605853
 28 10.127057 0.000000 0.000001 1.947633 0.173826 0.692921
 29 2.683750 -0.427338 0.044205 -0.005738 0.043239 -0.157060
 30 1.438885 -0.000001 0.000000 0.000000 -0.000000 0.732589
 31 1.485305 0.000001 0.000000 0.000000 -0.000000 1.168627
time 30
  0 0.235347 -0.235347 -14.475529 -0.045585 0.257873 -1.742273
  1 0.000000 0.000000 0.000000 -1.570795 -1.570796 0.000000
  2 -0.000005 0.000007 3.713255 -3.368582 -0.221254 1.331540
  3 18.045721 0.000000 0.000000 0.000000 -0.000000 -1.349056
  4 17.597597 0.000000 0.000000 -0.205032 0.225938 -0.216505
  5 3.793090 6.407221 0.000000 0.000000 -0.000000 1.570796
  6 0.000005 -0.000003 -3.713255 6.216042 2.542639 5.445438
  7 18.045725 0.000000 0.000000 0.000000 -0.000000 -2.074575
  8 17.597597 0.000000 0.000000 -0.092072 0.087818 0.559914
  9 3.793090 6.407221 0.000000 0.000000 -0.000000 1.570796
 10 0.935740 0.000000 0.000000 0.000000 -0.000000 0.000000
 11 0.935741 0.000000 0.000000 0.000000 -0.000000 0.000000
 12 1.293670 0.684478 -0.000001 -0.000004 -0.000001 0.218783
 13 5.309685 -0.003834 0.000000 0.000000 -0.000000 0.488545
 14 4.826790 -0.004591 0.000000 -0.346841 0.088854 0.239851
 15 5.792767 -0.005304 0.000000 -0.226436 0.011889 0.050727
 16 6.662317 -0.001453 0.000000 0.000000 -0.000001 -0.139812
 17 2.046985 -0.000002 0.000000 0.579336 -0.019090 -0.046283
 18 -3.416721 -0.541403 4.341911 2.171704 -0.880746 0.983542
 19 4.827230 0.000000 0.000001 -1.039929 0.247260 -0.361508
 20 11.139763 0.000000 0.000000 0.000000 -0.000000 -0.958334
 21 10.314597 0.000001 0.000000 -3.815936 0.573839 -0.433385
 22 2.975834 -0.386307 -0.044143 -0.000797 -0.043611 0.000035
 23 1.438886 0.000000 0.000000 0.000000 -0.000000 0.872170
 24 1.485303 0.000000 0.000000 0.000000 -0.000000 0.906977
 25 -3.151157 -0.491020 -4.140396 -1.097090 1.152398 2.220809
 26 4.972048 0.000000 0.000001 0.742206 -0.275268 -1.500872
 27 11.585355 0.000000 0.000000 0.000000 -0.000000 -1.605853
 28 10.127057 0.000000 0.000001 1.947633 0.173826 0.692921
 29 2.683750 -0.427338 0.044205 -0.005738 0.043239 -0.157060
 30 1.438885 -0.000001 0.000000 0.000000 -0.000000 0.732589
 31 1.485305 0.000001 0.000000 0.000000 -0.000000 1.168627
end
