version 1
nodes
  0 "Bip01"  -1
  1 "Bip01 Pelvis"   0
  2 "Bip01 L Leg"   1
  3 "Bip01 L Leg1"   2
  4 "Bip01 L Foot"   3
  5 "Bip01 L Toe0"   4
  6 "Bip01 R Leg"   1
  7 "Bip01 R Leg1"   6
  8 "Bip01 R Foot"   7
  9 "Bip01 R Toe0"   8
 10 "Bip01 R Toe01"   9
 11 "Bip01 R Toe02"  10
 12 "Bip01 Spine"   1
 13 "Bip01 Spine1"  12
 14 "Bip01 Spine2"  13
 15 "Bip01 Spine3"  14
 16 "Bip01 Neck"  15
 17 "Bip01 Head"  16
 18 "Bip01 L Arm"  16
 19 "Bip01 L Arm1"  18
 20 "Bip01 L Arm2"  19
 21 "Bip01 L Hand"  20
 22 "Bip01 L Finger1"  21
 23 "Bip01 L Finger11"  22
 24 "Bip01 L Finger12"  23
 25 "Bip01 R Arm"  16
 26 "Bip01 R Arm1"  25
 27 "Bip01 R Arm2"  26
 28 "Bip01 R Hand"  27
 29 "Bip01 R Finger1"  28
 30 "Bip01 R Finger11"  29
 31 "Bip01 R Finger12"  30
end
skeleton
time 0
  0 0.235347 -0.235347 -14.506780 -0.000000 0.270322 -1.571254
  1 0.000000 0.000000 0.000000 -1.570795 -1.570796 0.000000
  2 -0.000005 0.000007 3.713255 -3.368582 -0.221254 1.331540
  3 18.045721 0.000000 0.000000 0.000000 -0.000000 -1.349056
  4 17.597597 0.000000 0.000000 -0.205032 0.225938 -0.216505
  5 3.793090 6.407221 0.000000 0.000000 -0.000000 1.570796
  6 0.000005 -0.000003 -3.713255 6.216042 2.542639 5.445438
  7 18.045725 0.000000 0.000000 0.000000 -0.000000 -2.074575
  8 17.597597 0.000000 0.000000 -0.092072 0.087818 0.559914
  9 3.793090 6.407221 0.000000 0.000000 -0.000000 1.570796
 10 0.935740 0.000000 0.000000 0.000000 -0.000000 0.000000
 11 0.935741 0.000000 0.000000 0.000000 -0.000000 0.000000
 12 1.293670 0.684478 -0.000001 -0.000004 -0.000001 0.009520
 13 5.309685 -0.003834 0.000000 -0.156851 -0.006639 -0.043089
 14 4.826790 -0.004591 0.000000 -0.060968 -0.003140 -0.052244
 15 5.792767 -0.005304 0.000000 -0.087121 -0.003679 -0.043412
 16 6.662317 -0.001453 0.000000 0.000000 -0.000001 0.296580
 17 2.046985 -0.000002 0.000000 0.289388 0.097366 -0.508795
 18 -3.322968 0.958643 4.341911 1.034649 -1.193023 1.842208
 19 4.827230 0.000000 0.000001 -0.704662 0.045486 -1.088201
 20 11.139763 0.000000 0.000000 0.000000 -0.000000 -1.630820
 21 10.314597 0.000001 0.000000 -0.172447 -0.528664 0.398548
 22 2.975834 -0.386307 -0.044143 -0.021458 -0.037954 0.497456
 23 1.438886 0.000000 0.000000 0.000000 -0.000000 0.889650
 24 1.485303 0.000000 0.000000 0.000000 -0.000000 1.116298
 25 -3.065217 0.884022 -4.140396 -0.000013 1.370795 2.843985
 26 4.972048 0.000000 0.000001 0.869996 -1.152638 -1.238897
 27 11.585355 0.000000 0.000000 0.000000 -0.000000 -1.866933
 28 10.127057 0.000000 0.000001 1.569752 -0.000000 -0.069778
 29 2.683750 -0.427338 0.044205 -0.005738 0.043239 -0.157060
 30 1.438885 -0.000001 0.000000 0.000000 -0.000000 0.732589
 31 1.485305 0.000001 0.000000 0.000000 -0.000000 1.168627
time 1
  0 0.235347 -0.235347 -14.506780 -0.000000 0.270322 -1.571254
  1 0.000000 0.000000 0.000000 -1.570795 -1.570796 0.000000
  2 -0.000005 0.000007 3.713255 -3.368582 -0.221254 1.331540
  3 18.045721 0.000000 0.000000 0.000000 -0.000000 -1.349056
  4 17.597597 0.000000 0.000000 -0.205032 0.225938 -0.216505
  5 3.793090 6.407221 0.000000 0.000000 -0.000000 1.570796
  6 0.000005 -0.000003 -3.713255 6.216042 2.542639 5.445438
  7 18.045725 0.000000 0.000000 0.000000 -0.000000 -2.074575
  8 17.597597 0.000000 0.000000 -0.092072 0.087818 0.559914
  9 3.793090 6.407221 0.000000 0.000000 -0.000000 1.570796
 10 0.935740 0.000000 0.000000 0.000000 -0.000000 0.000000
 11 0.935741 0.000000 0.000000 0.000000 -0.000000 0.000000
 12 1.293670 0.684478 -0.000001 -0.000004 -0.000001 0.009520
 13 5.309685 -0.003834 0.000000 -0.156851 -0.006639 -0.043089
 14 4.826790 -0.004591 0.000000 -0.060968 -0.003140 -0.052244
 15 5.792767 -0.005304 0.000000 -0.087137 -0.003547 -0.041938
 16 6.662317 -0.001453 0.000000 0.000000 -0.000001 0.296580
 17 2.046985 -0.000002 0.000000 0.289388 0.097366 -0.510323
 18 -3.322968 0.958643 4.341911 1.019501 -1.189446 1.858315
 19 4.827230 0.000000 0.000001 -0.698671 0.041146 -1.088201
 20 11.139763 0.000000 0.000000 0.000000 -0.000000 -1.630820
 21 10.314597 0.000001 0.000000 -0.172447 -0.528664 0.398548
 22 2.975834 -0.386307 -0.044143 -0.021458 -0.037954 0.497456
 23 1.438886 0.000000 0.000000 0.000000 -0.000000 0.889650
 24 1.485303 0.000000 0.000000 0.000000 -0.000000 1.116298
 25 -3.065217 0.884022 -4.140396 -0.000013 1.366103 2.843985
 26 4.972048 0.000000 0.000001 0.860172 -1.149742 -1.230136
 27 11.585355 0.000000 0.000000 0.000000 -0.000000 -1.866933
 28 10.127057 0.000000 0.000001 1.569752 -0.000000 -0.069778
 29 2.683750 -0.427338 0.044205 -0.005738 0.043239 -0.157060
 30 1.438885 -0.000001 0.000000 0.000000 -0.000000 0.732589
 31 1.485305 0.000001 0.000000 0.000000 -0.000000 1.168627
time 2
  0 0.235347 -0.235347 -14.506780 -0.000000 0.270322 -1.571254
  1 0.000000 0.000000 0.000000 -1.570795 -1.570796 0.000000
  2 -0.000005 0.000007 3.713255 -3.368582 -0.221254 1.331540
  3 18.045721 0.000000 0.000000 0.000000 -0.000000 -1.349056
  4 17.597597 0.000000 0.000000 -0.205032 0.225938 -0.216505
  5 3.793090 6.407221 0.000000 0.000000 -0.000000 1.570796
  6 0.000005 -0.000003 -3.713255 6.216042 2.542639 5.445438
  7 18.045725 0.000000 0.000000 0.000000 -0.000000 -2.074575
  8 17.597597 0.000000 0.000000 -0.092072 0.087818 0.559914
  9 3.793090 6.407221 0.000000 0.000000 -0.000000 1.570796
 10 0.935740 0.000000 0.000000 0.000000 -0.000000 0.000000
 11 0.935741 0.000000 0.000000 0.000000 -0.000000 0.000000
 12 1.293670 0.684478 -0.000001 -0.000004 -0.000001 0.009520
 13 5.309685 -0.003834 0.000000 -0.156851 -0.006639 -0.043089
 14 4.826790 -0.004591 0.000000 -0.060968 -0.003140 -0.052244
 15 5.792767 -0.005304 0.000000 -0.087137 -0.003428 -0.040007
 16 6.662317 -0.001453 0.000000 0.000000 -0.000001 0.296580
 17 2.046985 -0.000002 0.000000 0.289388 0.097366 -0.512211
 18 -3.322968 0.958643 4.341911 0.999847 -1.184446 1.879887
 19 4.827230 0.000000 0.000001 -0.690624 0.034593 -1.088376
 20 11.139763 0.000000 0.000000 0.000000 -0.000000 -1.630820
 21 10.314597 0.000001 0.000000 -0.172447 -0.528664 0.398548
 22 2.975834 -0.386307 -0.044143 -0.021458 -0.037954 0.497456
 23 1.438886 0.000000 0.000000 0.000000 -0.000000 0.889650
 24 1.485303 0.000000 0.000000 0.000000 -0.000000 1.116298
 25 -3.065217 0.884022 -4.140396 -0.000013 1.359687 2.843985
 26 4.972048 0.000000 0.000001 0.846944 -1.145720 -1.218740
 27 11.585355 0.000000 0.000000 0.000000 -0.000000 -1.866933
 28 10.127057 0.000000 0.000001 1.569752 -0.000000 -0.069778
 29 2.683750 -0.427338 0.044205 -0.005738 0.043239 -0.157060
 30 1.438885 -0.000001 0.000000 0.000000 -0.000000 0.732589
 31 1.485305 0.000001 0.000000 0.000000 -0.000000 1.168627
time 3
  0 0.235347 -0.235347 -14.506780 -0.000000 0.270322 -1.571254
  1 0.000000 0.000000 0.000000 -1.570795 -1.570796 0.000000
  2 -0.000005 0.000007 3.713255 -3.368582 -0.221254 1.331540
  3 18.045721 0.000000 0.000000 0.000000 -0.000000 -1.349056
  4 17.597597 0.000000 0.000000 -0.205032 0.225938 -0.216505
  5 3.793090 6.407221 0.000000 0.000000 -0.000000 1.570796
  6 0.000005 -0.000003 -3.713255 6.216042 2.542639 5.445438
  7 18.045725 0.000000 0.000000 0.000000 -0.000000 -2.074575
  8 17.597597 0.000000 0.000000 -0.092072 0.087818 0.559914
  9 3.793090 6.407221 0.000000 0.000000 -0.000000 1.570796
 10 0.935740 0.000000 0.000000 0.000000 -0.000000 0.000000
 11 0.935741 0.000000 0.000000 0.000000 -0.000000 0.000000
 12 1.293670 0.684478 -0.000001 -0.000004 -0.000001 0.009520
 13 5.309685 -0.003834 0.000000 -0.156851 -0.006639 -0.043089
 14 4.826790 -0.004591 0.000000 -0.060968 -0.003140 -0.052244
 15 5.792767 -0.005304 0.000000 -0.087137 -0.003212 -0.037557
 16 6.662317 -0.001453 0.000000 0.000000 -0.000001 0.296580
 17 2.046985 -0.000002 0.000000 0.289388 0.097366 -0.514728
 18 -3.322968 0.958643 4.341911 0.976454 -1.178138 1.904815
 19 4.827230 0.000000 0.000001 -0.680815 0.026934 -1.088551
 20 11.139763 0.000000 0.000000 0.000000 -0.000000 -1.630820
 21 10.314597 0.000001 0.000000 -0.172447 -0.528664 0.398548
 22 2.975834 -0.386307 -0.044143 -0.021458 -0.037954 0.497456
 23 1.438886 0.000000 0.000000 0.000000 -0.000000 0.889650
 24 1.485303 0.000000 0.000000 0.000000 -0.000000 1.116298
 25 -3.065217 0.884022 -4.140396 -0.000013 1.351773 2.843985
 26 4.972048 0.000000 0.000001 0.831241 -1.140813 -1.204841
 27 11.585355 0.000000 0.000000 0.000000 -0.000000 -1.866933
 28 10.127057 0.000000 0.000001 1.569752 -0.000000 -0.069778
 29 2.683750 -0.427338 0.044205 -0.005738 0.043239 -0.157060
 30 1.438885 -0.000001 0.000000 0.000000 -0.000000 0.732589
 31 1.485305 0.000001 0.000000 0.000000 -0.000000 1.168627
time 4
  0 0.235347 -0.235347 -14.506780 -0.000000 0.270322 -1.571254
  1 0.000000 0.000000 0.000000 -1.570795 -1.570796 0.000000
  2 -0.000005 0.000007 3.713255 -3.368582 -0.221254 1.331540
  3 18.045721 0.000000 0.000000 0.000000 -0.000000 -1.349056
  4 17.597597 0.000000 0.000000 -0.205032 0.225938 -0.216505
  5 3.793090 6.407221 0.000000 0.000000 -0.000000 1.570796
  6 0.000005 -0.000003 -3.713255 6.216042 2.542639 5.445438
  7 18.045725 0.000000 0.000000 0.000000 -0.000000 -2.074575
  8 17.597597 0.000000 0.000000 -0.092072 0.087818 0.559914
  9 3.793090 6.407221 0.000000 0.000000 -0.000000 1.570796
 10 0.935740 0.000000 0.000000 0.000000 -0.000000 0.000000
 11 0.935741 0.000000 0.000000 0.000000 -0.000000 0.000000
 12 1.293670 0.684478 -0.000001 -0.000004 -0.000001 0.009520
 13 5.309685 -0.003834 0.000000 -0.156851 -0.006639 -0.043089
 14 4.826790 -0.004591 0.000000 -0.060968 -0.003140 -0.052244
 15 5.792767 -0.005304 0.000000 -0.087154 -0.002924 -0.034837
 16 6.662317 -0.001453 0.000000 0.000000 -0.000001 0.296580
 17 2.046985 -0.000002 0.000000 0.289388 0.097366 -0.517380
 18 -3.322968 0.958643 4.341911 0.950760 -1.170638 1.932715
 19 4.827230 0.000000 0.000001 -0.669655 0.018339 -1.088901
 20 11.139763 0.000000 0.000000 0.000000 -0.000000 -1.630820
 21 10.314597 0.000001 0.000000 -0.172447 -0.528664 0.398548
 22 2.975834 -0.386307 -0.044143 -0.021458 -0.037954 0.497456
 23 1.438886 0.000000 0.000000 0.000000 -0.000000 0.889650
 24 1.485303 0.000000 0.000000 0.000000 -0.000000 1.116298
 25 -3.065217 0.884022 -4.140396 -0.000013 1.342785 2.843985
 26 4.972048 0.000000 0.000001 0.813527 -1.134941 -1.189360
 27 11.585355 0.000000 0.000000 0.000000 -0.000000 -1.866933
 28 10.127057 0.000000 0.000001 1.569752 -0.000000 -0.069778
 29 2.683750 -0.427338 0.044205 -0.005738 0.043239 -0.157060
 30 1.438885 -0.000001 0.000000 0.000000 -0.000000 0.732589
 31 1.485305 0.000001 0.000000 0.000000 -0.000000 1.168627
time 5
  0 0.235347 -0.235347 -14.506780 -0.000000 0.270322 -1.571254
  1 0.000000 0.000000 0.000000 -1.570795 -1.570796 0.000000
  2 -0.000005 0.000007 3.713255 -3.368582 -0.221254 1.331540
  3 18.045721 0.000000 0.000000 0.000000 -0.000000 -1.349056
  4 17.597597 0.000000 0.000000 -0.205032 0.225938 -0.216505
  5 3.793090 6.407221 0.000000 0.000000 -0.000000 1.570796
  6 0.000005 -0.000003 -3.713255 6.216042 2.542639 5.445438
  7 18.045725 0.000000 0.000000 0.000000 -0.000000 -2.074575
  8 17.597597 0.000000 0.000000 -0.092072 0.087818 0.559914
  9 3.793090 6.407221 0.000000 0.000000 -0.000000 1.570796
 10 0.935740 0.000000 0.000000 0.000000 -0.000000 0.000000
 11 0.935741 0.000000 0.000000 0.000000 -0.000000 0.000000
 12 1.293670 0.684478 -0.000001 -0.000004 -0.000001 0.009520
 13 5.309685 -0.003834 0.000000 -0.156851 -0.006639 -0.043089
 14 4.826790 -0.004591 0.000000 -0.060968 -0.003140 -0.052244
 15 5.792767 -0.005304 0.000000 -0.087154 -0.002709 -0.031847
 16 6.662317 -0.001453 0.000000 0.000000 -0.000001 0.296580
 17 2.046985 -0.000002 0.000000 0.289388 0.097366 -0.520526
 18 -3.322968 0.958643 4.341911 0.924107 -1.162176 1.961957
 19 4.827230 0.000000 0.000001 -0.657379 0.008978 -1.089514
 20 11.139763 0.000000 0.000000 0.000000 -0.000000 -1.630820
 21 10.314597 0.000001 0.000000 -0.172447 -0.528664 0.398548
 22 2.975834 -0.386307 -0.044143 -0.021458 -0.037954 0.497456
 23 1.438886 0.000000 0.000000 0.000000 -0.000000 0.889650
 24 1.485303 0.000000 0.000000 0.000000 -0.000000 1.116298
 25 -3.065217 0.884022 -4.140396 -0.000013 1.333034 2.843985
 26 4.972048 0.000000 0.000001 0.795039 -1.128425 -1.173288
 27 11.585355 0.000000 0.000000 0.000000 -0.000000 -1.866933
 28 10.127057 0.000000 0.000001 1.569752 -0.000000 -0.069778
 29 2.683750 -0.427338 0.044205 -0.005738 0.043239 -0.157060
 30 1.438885 -0.000001 0.000000 0.000000 -0.000000 0.732589
 31 1.485305 0.000001 0.000000 0.000000 -0.000000 1.168627
time 6
  0 0.235347 -0.235347 -14.506780 -0.000000 0.270322 -1.571254
  1 0.000000 0.000000 0.000000 -1.570795 -1.570796 0.000000
  2 -0.000005 0.000007 3.713255 -3.368582 -0.221254 1.331540
  3 18.045721 0.000000 0.000000 0.000000 -0.000000 -1.349056
  4 17.597597 0.000000 0.000000 -0.205032 0.225938 -0.216505
  5 3.793090 6.407221 0.000000 0.000000 -0.000000 1.570796
  6 0.000005 -0.000003 -3.713255 6.216042 2.542639 5.445438
  7 18.045725 0.000000 0.000000 0.000000 -0.000000 -2.074575
  8 17.597597 0.000000 0.000000 -0.092072 0.087818 0.559914
  9 3.793090 6.407221 0.000000 0.000000 -0.000000 1.570796
 10 0.935740 0.000000 0.000000 0.000000 -0.000000 0.000000
 11 0.935741 0.000000 0.000000 0.000000 -0.000000 0.000000
 12 1.293670 0.684478 -0.000001 -0.000004 -0.000001 0.009520
 13 5.309685 -0.003834 0.000000 -0.156851 -0.006639 -0.043089
 14 4.826790 -0.004591 0.000000 -0.060968 -0.003140 -0.052244
 15 5.792767 -0.005304 0.000000 -0.087170 -0.002433 -0.028712
 16 6.662317 -0.001453 0.000000 0.000000 -0.000001 0.296580
 17 2.046985 -0.000002 0.000000 0.289388 0.097366 -0.523492
 18 -3.322968 0.958643 4.341911 0.896975 -1.152945 1.991487
 19 4.827230 0.000000 0.000001 -0.644516 -0.001064 -1.090214
 20 11.139763 0.000000 0.000000 0.000000 -0.000000 -1.630820
 21 10.314597 0.000001 0.000000 -0.172447 -0.528664 0.398548
 22 2.975834 -0.386307 -0.044143 -0.021458 -0.037954 0.497456
 23 1.438886 0.000000 0.000000 0.000000 -0.000000 0.889650
 24 1.485303 0.000000 0.000000 0.000000 -0.000000 1.116298
 25 -3.065217 0.884022 -4.140396 -0.000013 1.322774 2.843985
 26 4.972048 0.000000 0.000001 0.775855 -1.121588 -1.156754
 27 11.585355 0.000000 0.000000 0.000000 -0.000000 -1.866933
 28 10.127057 0.000000 0.000001 1.569752 -0.000000 -0.069778
 29 2.683750 -0.427338 0.044205 -0.005738 0.043239 -0.157060
 30 1.438885 -0.000001 0.000000 0.000000 -0.000000 0.732589
 31 1.485305 0.000001 0.000000 0.000000 -0.000000 1.168627
time 7
  0 0.235347 -0.235347 -14.506780 -0.000000 0.270322 -1.571254
  1 0.000000 0.000000 0.000000 -1.570795 -1.570796 0.000000
  2 -0.000005 0.000007 3.713255 -3.368582 -0.221254 1.331540
  3 18.045721 0.000000 0.000000 0.000000 -0.000000 -1.349056
  4 17.597597 0.000000 0.000000 -0.205032 0.225938 -0.216505
  5 3.793090 6.407221 0.000000 0.000000 -0.000000 1.570796
  6 0.000005 -0.000003 -3.713255 6.216042 2.542639 5.445438
  7 18.045725 0.000000 0.000000 0.000000 -0.000000 -2.074575
  8 17.597597 0.000000 0.000000 -0.092072 0.087818 0.559914
  9 3.793090 6.407221 0.000000 0.000000 -0.000000 1.570796
 10 0.935740 0.000000 0.000000 0.000000 -0.000000 0.000000
 11 0.935741 0.000000 0.000000 0.000000 -0.000000 0.000000
 12 1.293670 0.684478 -0.000001 -0.000004 -0.000001 0.009520
 13 5.309685 -0.003834 0.000000 -0.156851 -0.006639 -0.043089
 14 4.826790 -0.004591 0.000000 -0.060968 -0.003140 -0.052244
 15 5.792767 -0.005304 0.000000 -0.087170 -0.002109 -0.025473
 16 6.662317 -0.001453 0.000000 0.000000 -0.000001 0.296580
 17 2.046985 -0.000002 0.000000 0.289388 0.097366 -0.526864
 18 -3.322968 0.958643 4.341911 0.870706 -1.143291 2.020633
 19 4.827230 0.000000 0.000001 -0.631359 -0.011191 -1.091089
 20 11.139763 0.000000 0.000000 0.000000 -0.000000 -1.630820
 21 10.314597 0.000001 0.000000 -0.172447 -0.528664 0.398548
 22 2.975834 -0.386307 -0.044143 -0.021458 -0.037954 0.497456
 23 1.438886 0.000000 0.000000 0.000000 -0.000000 0.889650
 24 1.485303 0.000000 0.000000 0.000000 -0.000000 1.116298
 25 -3.065217 0.884022 -4.140396 -0.000013 1.312288 2.843985
 26 4.972048 0.000000 0.000001 0.756826 -1.114509 -1.140681
 27 11.585355 0.000000 0.000000 0.000000 -0.000000 -1.866933
 28 10.127057 0.000000 0.000001 1.569752 -0.000000 -0.069778
 29 2.683750 -0.427338 0.044205 -0.005738 0.043239 -0.157060
 30 1.438885 -0.000001 0.000000 0.000000 -0.000000 0.732589
 31 1.485305 0.000001 0.000000 0.000000 -0.000000 1.168627
time 8
  0 0.235347 -0.235347 -14.506780 -0.000000 0.270322 -1.571254
  1 0.000000 0.000000 0.000000 -1.570795 -1.570796 0.000000
  2 -0.000005 0.000007 3.713255 -3.368582 -0.221254 1.331540
  3 18.045721 0.000000 0.000000 0.000000 -0.000000 -1.349056
  4 17.597597 0.000000 0.000000 -0.205032 0.225938 -0.216505
  5 3.793090 6.407221 0.000000 0.000000 -0.000000 1.570796
  6 0.000005 -0.000003 -3.713255 6.216042 2.542639 5.445438
  7 18.045725 0.000000 0.000000 0.000000 -0.000000 -2.074575
  8 17.597597 0.000000 0.000000 -0.092072 0.087818 0.559914
  9 3.793090 6.407221 0.000000 0.000000 -0.000000 1.570796
 10 0.935740 0.000000 0.000000 0.000000 -0.000000 0.000000
 11 0.935741 0.000000 0.000000 0.000000 -0.000000 0.000000
 12 1.293670 0.684478 -0.000001 -0.000004 -0.000001 0.009520
 13 5.309685 -0.003834 0.000000 -0.156851 -0.006639 -0.043089
 14 4.826790 -0.004591 0.000000 -0.060968 -0.003140 -0.052244
 15 5.792767 -0.005304 0.000000 -0.087186 -0.001882 -0.022317
 16 6.662317 -0.001453 0.000000 0.000000 -0.000001 0.296580
 17 2.046985 -0.000002 0.000000 0.289388 0.097366 -0.530100
 18 -3.322968 0.958643 4.341911 0.845779 -1.133368 2.047766
 19 4.827230 0.000000 0.000001 -0.618378 -0.021403 -1.092139
 20 11.139763 0.000000 0.000000 0.000000 -0.000000 -1.630820
 21 10.314597 0.000001 0.000000 -0.172447 -0.528664 0.398548
 22 2.975834 -0.386307 -0.044143 -0.021458 -0.037954 0.497456
 23 1.438886 0.000000 0.000000 0.000000 -0.000000 0.889650
 24 1.485303 0.000000 0.000000 0.000000 -0.000000 1.116298
 25 -3.065217 0.884022 -4.140396 -0.000013 1.301887 2.843985
 26 4.972048 0.000000 0.000001 0.738725 -1.107430 -1.125201
 27 11.585355 0.000000 0.000000 0.000000 -0.000000 -1.866933
 28 10.127057 0.000000 0.000001 1.569752 -0.000000 -0.069778
 29 2.683750 -0.427338 0.044205 -0.005738 0.043239 -0.157060
 30 1.438885 -0.000001 0.000000 0.000000 -0.000000 0.732589
 31 1.485305 0.000001 0.000000 0.000000 -0.000000 1.168627
time 9
  0 0.235347 -0.235347 -14.506780 -0.000000 0.270322 -1.571254
  1 0.000000 0.000000 0.000000 -1.570795 -1.570796 0.000000
  2 -0.000005 0.000007 3.713255 -3.368582 -0.221254 1.331540
  3 18.045721 0.000000 0.000000 0.000000 -0.000000 -1.349056
  4 17.597597 0.000000 0.000000 -0.205032 0.225938 -0.216505
  5 3.793090 6.407221 0.000000 0.000000 -0.000000 1.570796
  6 0.000005 -0.000003 -3.713255 6.216042 2.542639 5.445438
  7 18.045725 0.000000 0.000000 0.000000 -0.000000 -2.074575
  8 17.597597 0.000000 0.000000 -0.092072 0.087818 0.559914
  9 3.793090 6.407221 0.000000 0.000000 -0.000000 1.570796
 10 0.935740 0.000000 0.000000 0.000000 -0.000000 0.000000
 11 0.935741 0.000000 0.000000 0.000000 -0.000000 0.000000
 12 1.293670 0.684478 -0.000001 -0.000004 -0.000001 0.009520
 13 5.309685 -0.003834 0.000000 -0.156851 -0.006639 -0.043089
 14 4.826790 -0.004591 0.000000 -0.060968 -0.003140 -0.052244
 15 5.792767 -0.005304 0.000000 -0.087186 -0.001606 -0.019244
 16 6.662317 -0.001453 0.000000 0.000000 -0.000001 0.296580
 17 2.046985 -0.000002 0.000000 0.289388 0.097366 -0.532976
 18 -3.322968 0.958643 4.341911 0.822961 -1.123560 2.073269
 19 4.827230 0.000000 0.000001 -0.605750 -0.030764 -1.093277
 20 11.139763 0.000000 0.000000 0.000000 -0.000000 -1.630820
 21 10.314597 0.000001 0.000000 -0.172447 -0.528664 0.398548
 22 2.975834 -0.386307 -0.044143 -0.021458 -0.037954 0.497456
 23 1.438886 0.000000 0.000000 0.000000 -0.000000 0.889650
 24 1.485303 0.000000 0.000000 0.000000 -0.000000 1.116298
 25 -3.065217 0.884022 -4.140396 -0.000013 1.291938 2.843985
 26 4.972048 0.000000 0.000001 0.721707 -1.100271 -1.110775
 27 11.585355 0.000000 0.000000 0.000000 -0.000000 -1.866933
 28 10.127057 0.000000 0.000001 1.569752 -0.000000 -0.069778
 29 2.683750 -0.427338 0.044205 -0.005738 0.043239 -0.157060
 30 1.438885 -0.000001 0.000000 0.000000 -0.000000 0.732589
 31 1.485305 0.000001 0.000000 0.000000 -0.000000 1.168627
time 10
  0 0.235347 -0.235347 -14.506780 -0.000000 0.270322 -1.571254
  1 0.000000 0.000000 0.000000 -1.570795 -1.570796 0.000000
  2 -0.000005 0.000007 3.713255 -3.368582 -0.221254 1.331540
  3 18.045721 0.000000 0.000000 0.000000 -0.000000 -1.349056
  4 17.597597 0.000000 0.000000 -0.205032 0.225938 -0.216505
  5 3.793090 6.407221 0.000000 0.000000 -0.000000 1.570796
  6 0.000005 -0.000003 -3.713255 6.216042 2.542639 5.445438
  7 18.045725 0.000000 0.000000 0.000000 -0.000000 -2.074575
  8 17.597597 0.000000 0.000000 -0.092072 0.087818 0.559914
  9 3.793090 6.407221 0.000000 0.000000 -0.000000 1.570796
 10 0.935740 0.000000 0.000000 0.000000 -0.000000 0.000000
 11 0.935741 0.000000 0.000000 0.000000 -0.000000 0.000000
 12 1.293670 0.684478 -0.000001 -0.000004 -0.000001 0.009520
 13 5.309685 -0.003834 0.000000 -0.156851 -0.006639 -0.043089
 14 4.826790 -0.004591 0.000000 -0.060968 -0.003140 -0.052244
 15 5.792767 -0.005304 0.000000 -0.087186 -0.001306 -0.016379
 16 6.662317 -0.001453 0.000000 0.000000 -0.000001 0.296580
 17 2.046985 -0.000002 0.000000 0.289388 0.097366 -0.536033
 18 -3.322968 0.958643 4.341911 0.802732 -1.114252 2.095608
 19 4.827230 0.000000 0.000001 -0.594120 -0.039955 -1.094677
 20 11.139763 0.000000 0.000000 0.000000 -0.000000 -1.630820
 21 10.314597 0.000001 0.000000 -0.172447 -0.528664 0.398548
 22 2.975834 -0.386307 -0.044143 -0.021458 -0.037954 0.497456
 23 1.438886 0.000000 0.000000 0.000000 -0.000000 0.889650
 24 1.485303 0.000000 0.000000 0.000000 -0.000000 1.116298
 25 -3.065217 0.884022 -4.140396 -0.000013 1.282639 2.843985
 26 4.972048 0.000000 0.000001 0.706236 -1.093755 -1.097864
 27 11.585355 0.000000 0.000000 0.000000 -0.000000 -1.866933
 28 10.127057 0.000000 0.000001 1.569752 -0.000000 -0.069778
 29 2.683750 -0.427338 0.044205 -0.005738 0.043239 -0.157060
 30 1.438885 -0.000001 0.000000 0.000000 -0.000000 0.732589
 31 1.485305 0.000001 0.000000 0.000000 -0.000000 1.168627
time 11
  0 0.235347 -0.235347 -14.506780 -0.000000 0.270322 -1.571254
  1 0.000000 0.000000 0.000000 -1.570795 -1.570796 0.000000
  2 -0.000005 0.000007 3.713255 -3.368582 -0.221254 1.331540
  3 18.045721 0.000000 0.000000 0.000000 -0.000000 -1.349056
  4 17.597597 0.000000 0.000000 -0.205032 0.225938 -0.216505
  5 3.793090 6.407221 0.000000 0.000000 -0.000000 1.570796
  6 0.000005 -0.000003 -3.713255 6.216042 2.542639 5.445438
  7 18.045725 0.000000 0.000000 0.000000 -0.000000 -2.074575
  8 17.597597 0.000000 0.000000 -0.092072 0.087818 0.559914
  9 3.793090 6.407221 0.000000 0.000000 -0.000000 1.570796
 10 0.935740 0.000000 0.000000 0.000000 -0.000000 0.000000
 11 0.935741 0.000000 0.000000 0.000000 -0.000000 0.000000
 12 1.293670 0.684478 -0.000001 -0.000004 -0.000001 0.009520
 13 5.309685 -0.003834 0.000000 -0.156851 -0.006639 -0.043089
 14 4.826790 -0.004591 0.000000 -0.060968 -0.003140 -0.052244
 15 5.792767 -0.005304 0.000000 -0.087202 -0.001139 -0.013846
 16 6.662317 -0.001453 0.000000 0.000000 -0.000001 0.296580
 17 2.046985 -0.000002 0.000000 0.289388 0.097366 -0.538550
 18 -3.322968 0.958643 4.341911 0.785283 -1.105790 2.114975
 19 4.827230 0.000000 0.000001 -0.583724 -0.047614 -1.095902
 20 11.139763 0.000000 0.000000 0.000000 -0.000000 -1.630820
 21 10.314597 0.000001 0.000000 -0.172447 -0.528664 0.398548
 22 2.975834 -0.386307 -0.044143 -0.021458 -0.037954 0.497456
 23 1.438886 0.000000 0.000000 0.000000 -0.000000 0.889650
 24 1.485303 0.000000 0.000000 0.000000 -0.000000 1.116298
 25 -3.065217 0.884022 -4.140396 -0.000013 1.274386 2.843985
 26 4.972048 0.000000 0.000001 0.692776 -1.087722 -1.086534
 27 11.585355 0.000000 0.000000 0.000000 -0.000000 -1.866933
 28 10.127057 0.000000 0.000001 1.569752 -0.000000 -0.069778
 29 2.683750 -0.427338 0.044205 -0.005738 0.043239 -0.157060
 30 1.438885 -0.000001 0.000000 0.000000 -0.000000 0.732589
 31 1.485305 0.000001 0.000000 0.000000 -0.000000 1.168627
time 12
  0 0.235347 -0.235347 -14.506780 -0.000000 0.270322 -1.571254
  1 0.000000 0.000000 0.000000 -1.570795 -1.570796 0.000000
  2 -0.000005 0.000007 3.713255 -3.368582 -0.221254 1.331540
  3 18.045721 0.000000 0.000000 0.000000 -0.000000 -1.349056
  4 17.597597 0.000000 0.000000 -0.205032 0.225938 -0.216505
  5 3.793090 6.407221 0.000000 0.000000 -0.000000 1.570796
  6 0.000005 -0.000003 -3.713255 6.216042 2.542639 5.445438
  7 18.045725 0.000000 0.000000 0.000000 -0.000000 -2.074575
  8 17.597597 0.000000 0.000000 -0.092072 0.087818 0.559914
  9 3.793090 6.407221 0.000000 0.000000 -0.000000 1.570796
 10 0.935740 0.000000 0.000000 0.000000 -0.000000 0.000000
 11 0.935741 0.000000 0.000000 0.000000 -0.000000 0.000000
 12 1.293670 0.684478 -0.000001 -0.000004 -0.000001 0.009520
 13 5.309685 -0.003834 0.000000 -0.156851 -0.006639 -0.043089
 14 4.826790 -0.004591 0.000000 -0.060968 -0.003140 -0.052244
 15 5.792767 -0.005304 0.000000 -0.087202 -0.000947 -0.011728
 16 6.662317 -0.001453 0.000000 0.000000 -0.000001 0.296580
 17 2.046985 -0.000002 0.000000 0.289388 0.097366 -0.540573
 18 -3.322968 0.958643 4.341911 0.770998 -1.098559 2.130699
 19 4.827230 0.000000 0.000001 -0.574796 -0.054337 -1.096777
 20 11.139763 0.000000 0.000000 0.000000 -0.000000 -1.630820
 21 10.314597 0.000001 0.000000 -0.172447 -0.528664 0.398548
 22 2.975834 -0.386307 -0.044143 -0.021458 -0.037954 0.497456
 23 1.438886 0.000000 0.000000 0.000000 -0.000000 0.889650
 24 1.485303 0.000000 0.000000 0.000000 -0.000000 1.116298
 25 -3.065217 0.884022 -4.140396 -0.000013 1.267433 2.843985
 26 4.972048 0.000000 0.000001 0.681637 -1.082574 -1.077509
 27 11.585355 0.000000 0.000000 0.000000 -0.000000 -1.866933
 28 10.127057 0.000000 0.000001 1.569752 -0.000000 -0.069778
 29 2.683750 -0.427338 0.044205 -0.005738 0.043239 -0.157060
 30 1.438885 -0.000001 0.000000 0.000000 -0.000000 0.732589
 31 1.485305 0.000001 0.000000 0.000000 -0.000000 1.168627
time 13
  0 0.235347 -0.235347 -14.506780 -0.000000 0.270322 -1.571254
  1 0.000000 0.000000 0.000000 -1.570795 -1.570796 0.000000
  2 -0.000005 0.000007 3.713255 -3.368582 -0.221254 1.331540
  3 18.045721 0.000000 0.000000 0.000000 -0.000000 -1.349056
  4 17.597597 0.000000 0.000000 -0.205032 0.225938 -0.216505
  5 3.793090 6.407221 0.000000 0.000000 -0.000000 1.570796
  6 0.000005 -0.000003 -3.713255 6.216042 2.542639 5.445438
  7 18.045725 0.000000 0.000000 0.000000 -0.000000 -2.074575
  8 17.597597 0.000000 0.000000 -0.092072 0.087818 0.559914
  9 3.793090 6.407221 0.000000 0.000000 -0.000000 1.570796
 10 0.935740 0.000000 0.000000 0.000000 -0.000000 0.000000
 11 0.935741 0.000000 0.000000 0.000000 -0.000000 0.000000
 12 1.293670 0.684478 -0.000001 -0.000004 -0.000001 0.009520
 13 5.309685 -0.003834 0.000000 -0.156851 -0.006639 -0.043089
 14 4.826790 -0.004591 0.000000 -0.060968 -0.003140 -0.052244
 15 5.792767 -0.005304 0.000000 -0.087202 -0.000815 -0.010067
 16 6.662317 -0.001453 0.000000 0.000000 -0.000001 0.296580
 17 2.046985 -0.000002 0.000000 0.289388 0.097366 -0.542281
 18 -3.322968 0.958643 4.341911 0.760356 -1.092905 2.142875
 19 4.827230 0.000000 0.000001 -0.568100 -0.059358 -1.097915
 20 11.139763 0.000000 0.000000 0.000000 -0.000000 -1.630820
 21 10.314597 0.000001 0.000000 -0.172447 -0.528664 0.398548
 22 2.975834 -0.386307 -0.044143 -0.021458 -0.037954 0.497456
 23 1.438886 0.000000 0.000000 0.000000 -0.000000 0.889650
 24 1.485303 0.000000 0.000000 0.000000 -0.000000 1.116298
 25 -3.065217 0.884022 -4.140396 -0.000013 1.262091 2.843985
 26 4.972048 0.000000 0.000001 0.673283 -1.078632 -1.070461
 27 11.585355 0.000000 0.000000 0.000000 -0.000000 -1.866933
 28 10.127057 0.000000 0.000001 1.569752 -0.000000 -0.069778
 29 2.683750 -0.427338 0.044205 -0.005738 0.043239 -0.157060
 30 1.438885 -0.000001 0.000000 0.000000 -0.000000 0.732589
 31 1.485305 0.000001 0.000000 0.000000 -0.000000 1.168627
time 14
  0 0.235347 -0.235347 -14.506780 -0.000000 0.270322 -1.571254
  1 0.000000 0.000000 0.000000 -1.570795 -1.570796 0.000000
  2 -0.000005 0.000007 3.713255 -3.368582 -0.221254 1.331540
  3 18.045721 0.000000 0.000000 0.000000 -0.000000 -1.349056
  4 17.597597 0.000000 0.000000 -0.205032 0.225938 -0.216505
  5 3.793090 6.407221 0.000000 0.000000 -0.000000 1.570796
  6 0.000005 -0.000003 -3.713255 6.216042 2.542639 5.445438
  7 18.045725 0.000000 0.000000 0.000000 -0.000000 -2.074575
  8 17.597597 0.000000 0.000000 -0.092072 0.087818 0.559914
  9 3.793090 6.407221 0.000000 0.000000 -0.000000 1.570796
 10 0.935740 0.000000 0.000000 0.000000 -0.000000 0.000000
 11 0.935741 0.000000 0.000000 0.000000 -0.000000 0.000000
 12 1.293670 0.684478 -0.000001 -0.000004 -0.000001 0.009520
 13 5.309685 -0.003834 0.000000 -0.156851 -0.006639 -0.043089
 14 4.826790 -0.004591 0.000000 -0.060968 -0.003140 -0.052244
 15 5.792767 -0.005304 0.000000 -0.087202 -0.000671 -0.009029
 16 6.662317 -0.001453 0.000000 0.000000 -0.000001 0.296580
 17 2.046985 -0.000002 0.000000 0.289388 0.097366 -0.543224
 18 -3.322968 0.958643 4.341911 0.754124 -1.089290 2.149970
 19 4.827230 0.000000 0.000001 -0.563812 -0.062762 -1.098615
 20 11.139763 0.000000 0.000000 0.000000 -0.000000 -1.630820
 21 10.314597 0.000001 0.000000 -0.172447 -0.528664 0.398548
 22 2.975834 -0.386307 -0.044143 -0.021458 -0.037954 0.497456
 23 1.438886 0.000000 0.000000 0.000000 -0.000000 0.889650
 24 1.485303 0.000000 0.000000 0.000000 -0.000000 1.116298
 25 -3.065217 0.884022 -4.140396 -0.000013 1.258671 2.843985
 26 4.972048 0.000000 0.000001 0.667868 -1.076219 -1.066245
 27 11.585355 0.000000 0.000000 0.000000 -0.000000 -1.866933
 28 10.127057 0.000000 0.000001 1.569752 -0.000000 -0.069778
 29 2.683750 -0.427338 0.044205 -0.005738 0.043239 -0.157060
 30 1.438885 -0.000001 0.000000 0.000000 -0.000000 0.732589
 31 1.485305 0.000001 0.000000 0.000000 -0.000000 1.168627
time 15
  0 0.235347 -0.235347 -14.506780 -0.000000 0.270322 -1.571254
  1 0.000000 0.000000 0.000000 -1.570795 -1.570796 0.000000
  2 -0.000005 0.000007 3.713255 -3.368582 -0.221254 1.331540
  3 18.045721 0.000000 0.000000 0.000000 -0.000000 -1.349056
  4 17.597597 0.000000 0.000000 -0.205032 0.225938 -0.216505
  5 3.793090 6.407221 0.000000 0.000000 -0.000000 1.570796
  6 0.000005 -0.000003 -3.713255 6.216042 2.542639 5.445438
  7 18.045725 0.000000 0.000000 0.000000 -0.000000 -2.074575
  8 17.597597 0.000000 0.000000 -0.092072 0.087818 0.559914
  9 3.793090 6.407221 0.000000 0.000000 -0.000000 1.570796
 10 0.935740 0.000000 0.000000 0.000000 -0.000000 0.000000
 11 0.935741 0.000000 0.000000 0.000000 -0.000000 0.000000
 12 1.293670 0.684478 -0.000001 -0.000004 -0.000001 0.009520
 13 5.309685 -0.003834 0.000000 -0.156851 -0.006639 -0.043089
 14 4.826790 -0.004591 0.000000 -0.060968 -0.003140 -0.052244
 15 5.792767 -0.005304 0.000000 -0.087202 -0.000635 -0.008676
 16 6.662317 -0.001453 0.000000 0.000000 -0.000001 0.296580
 17 2.046985 -0.000002 0.000000 0.289388 0.097366 -0.543764
 18 -3.322968 0.958643 4.341911 0.751823 -1.087982 2.152942
 19 4.827230 0.000000 0.000001 -0.562285 -0.064124 -1.098790
 20 11.139763 0.000000 0.000000 0.000000 -0.000000 -1.630820
 21 10.314597 0.000001 0.000000 -0.172447 -0.528664 0.398548
 22 2.975834 -0.386307 -0.044143 -0.021458 -0.037954 0.497456
 23 1.438886 0.000000 0.000000 0.000000 -0.000000 0.889650
 24 1.485303 0.000000 0.000000 0.000000 -0.000000 1.116298
 25 -3.065217 0.884022 -4.140396 -0.000013 1.257484 2.843985
 26 4.972048 0.000000 0.000001 0.666089 -1.075254 -1.064664
 27 11.585355 0.000000 0.000000 0.000000 -0.000000 -1.866933
 28 10.127057 0.000000 0.000001 1.569752 -0.000000 -0.069778
 29 2.683750 -0.427338 0.044205 -0.005738 0.043239 -0.157060
 30 1.438885 -0.000001 0.000000 0.000000 -0.000000 0.732589
 31 1.485305 0.000001 0.000000 0.000000 -0.000000 1.168627
time 16
  0 0.235347 -0.235347 -14.506780 -0.000000 0.270322 -1.571254
  1 0.000000 0.000000 0.000000 -1.570795 -1.570796 0.000000
  2 -0.000005 0.000007 3.713255 -3.368582 -0.221254 1.331540
  3 18.045721 0.000000 0.000000 0.000000 -0.000000 -1.349056
  4 17.597597 0.000000 0.000000 -0.205032 0.225938 -0.216505
  5 3.793090 6.407221 0.000000 0.000000 -0.000000 1.570796
  6 0.000005 -0.000003 -3.713255 6.216042 2.542639 5.445438
  7 18.045725 0.000000 0.000000 0.000000 -0.000000 -2.074575
  8 17.597597 0.000000 0.000000 -0.092072 0.087818 0.559914
  9 3.793090 6.407221 0.000000 0.000000 -0.000000 1.570796
 10 0.935740 0.000000 0.000000 0.000000 -0.000000 0.000000
 11 0.935741 0.000000 0.000000 0.000000 -0.000000 0.000000
 12 1.293670 0.684478 -0.000001 -0.000004 -0.000001 0.009520
 13 5.309685 -0.003834 0.000000 -0.156851 -0.006639 -0.043089
 14 4.826790 -0.004591 0.000000 -0.060968 -0.003140 -0.052244
 15 5.792767 -0.005304 0.000000 -0.087202 -0.000671 -0.009029
 16 6.662317 -0.001453 0.000000 0.000000 -0.000001 0.296580
 17 2.046985 -0.000002 0.000000 0.289388 0.097366 -0.543224
 18 -3.322968 0.958643 4.341911 0.754124 -1.089290 2.149970
 19 4.827230 0.000000 0.000001 -0.563812 -0.062762 -1.098615
 20 11.139763 0.000000 0.000000 0.000000 -0.000000 -1.630820
 21 10.314597 0.000001 0.000000 -0.172447 -0.528664 0.398548
 22 2.975834 -0.386307 -0.044143 -0.021458 -0.037954 0.497456
 23 1.438886 0.000000 0.000000 0.000000 -0.000000 0.889650
 24 1.485303 0.000000 0.000000 0.000000 -0.000000 1.116298
 25 -3.065217 0.884022 -4.140396 -0.000013 1.258671 2.843985
 26 4.972048 0.000000 0.000001 0.667868 -1.076219 -1.066245
 27 11.585355 0.000000 0.000000 0.000000 -0.000000 -1.866933
 28 10.127057 0.000000 0.000001 1.569752 -0.000000 -0.069778
 29 2.683750 -0.427338 0.044205 -0.005738 0.043239 -0.157060
 30 1.438885 -0.000001 0.000000 0.000000 -0.000000 0.732589
 31 1.485305 0.000001 0.000000 0.000000 -0.000000 1.168627
time 17
  0 0.235347 -0.235347 -14.506780 -0.000000 0.270322 -1.571254
  1 0.000000 0.000000 0.000000 -1.570795 -1.570796 0.000000
  2 -0.000005 0.000007 3.713255 -3.368582 -0.221254 1.331540
  3 18.045721 0.000000 0.000000 0.000000 -0.000000 -1.349056
  4 17.597597 0.000000 0.000000 -0.205032 0.225938 -0.216505
  5 3.793090 6.407221 0.000000 0.000000 -0.000000 1.570796
  6 0.000005 -0.000003 -3.713255 6.216042 2.542639 5.445438
  7 18.045725 0.000000 0.000000 0.000000 -0.000000 -2.074575
  8 17.597597 0.000000 0.000000 -0.092072 0.087818 0.559914
  9 3.793090 6.407221 0.000000 0.000000 -0.000000 1.570796
 10 0.935740 0.000000 0.000000 0.000000 -0.000000 0.000000
 11 0.935741 0.000000 0.000000 0.000000 -0.000000 0.000000
 12 1.293670 0.684478 -0.000001 -0.000004 -0.000001 0.009520
 13 5.309685 -0.003834 0.000000 -0.156851 -0.006639 -0.043089
 14 4.826790 -0.004591 0.000000 -0.060968 -0.003140 -0.052244
 15 5.792767 -0.005304 0.000000 -0.087202 -0.000815 -0.010067
 16 6.662317 -0.001453 0.000000 0.000000 -0.000001 0.296580
 17 2.046985 -0.000002 0.000000 0.289388 0.097366 -0.542281
 18 -3.322968 0.958643 4.341911 0.760356 -1.092905 2.142875
 19 4.827230 0.000000 0.000001 -0.568100 -0.059358 -1.097915
 20 11.139763 0.000000 0.000000 0.000000 -0.000000 -1.630820
 21 10.314597 0.000001 0.000000 -0.172447 -0.528664 0.398548
 22 2.975834 -0.386307 -0.044143 -0.021458 -0.037954 0.497456
 23 1.438886 0.000000 0.000000 0.000000 -0.000000 0.889650
 24 1.485303 0.000000 0.000000 0.000000 -0.000000 1.116298
 25 -3.065217 0.884022 -4.140396 -0.000013 1.262091 2.843985
 26 4.972048 0.000000 0.000001 0.673283 -1.078632 -1.070461
 27 11.585355 0.000000 0.000000 0.000000 -0.000000 -1.866933
 28 10.127057 0.000000 0.000001 1.569752 -0.000000 -0.069778
 29 2.683750 -0.427338 0.044205 -0.005738 0.043239 -0.157060
 30 1.438885 -0.000001 0.000000 0.000000 -0.000000 0.732589
 31 1.485305 0.000001 0.000000 0.000000 -0.000000 1.168627
time 18
  0 0.235347 -0.235347 -14.506780 -0.000000 0.270322 -1.571254
  1 0.000000 0.000000 0.000000 -1.570795 -1.570796 0.000000
  2 -0.000005 0.000007 3.713255 -3.368582 -0.221254 1.331540
  3 18.045721 0.000000 0.000000 0.000000 -0.000000 -1.349056
  4 17.597597 0.000000 0.000000 -0.205032 0.225938 -0.216505
  5 3.793090 6.407221 0.000000 0.000000 -0.000000 1.570796
  6 0.000005 -0.000003 -3.713255 6.216042 2.542639 5.445438
  7 18.045725 0.000000 0.000000 0.000000 -0.000000 -2.074575
  8 17.597597 0.000000 0.000000 -0.092072 0.087818 0.559914
  9 3.793090 6.407221 0.000000 0.000000 -0.000000 1.570796
 10 0.935740 0.000000 0.000000 0.000000 -0.000000 0.000000
 11 0.935741 0.000000 0.000000 0.000000 -0.000000 0.000000
 12 1.293670 0.684478 -0.000001 -0.000004 -0.000001 0.009520
 13 5.309685 -0.003834 0.000000 -0.156851 -0.006639 -0.043089
 14 4.826790 -0.004591 0.000000 -0.060968 -0.003140 -0.052244
 15 5.792767 -0.005304 0.000000 -0.087202 -0.000947 -0.011728
 16 6.662317 -0.001453 0.000000 0.000000 -0.000001 0.296580
 17 2.046985 -0.000002 0.000000 0.289388 0.097366 -0.540573
 18 -3.322968 0.958643 4.341911 0.770998 -1.098559 2.130699
 19 4.827230 0.000000 0.000001 -0.574796 -0.054337 -1.096777
 20 11.139763 0.000000 0.000000 0.000000 -0.000000 -1.630820
 21 10.314597 0.000001 0.000000 -0.172447 -0.528664 0.398548
 22 2.975834 -0.386307 -0.044143 -0.021458 -0.037954 0.497456
 23 1.438886 0.000000 0.000000 0.000000 -0.000000 0.889650
 24 1.485303 0.000000 0.000000 0.000000 -0.000000 1.116298
 25 -3.065217 0.884022 -4.140396 -0.000013 1.267433 2.843985
 26 4.972048 0.000000 0.000001 0.681637 -1.082574 -1.077509
 27 11.585355 0.000000 0.000000 0.000000 -0.000000 -1.866933
 28 10.127057 0.000000 0.000001 1.569752 -0.000000 -0.069778
 29 2.683750 -0.427338 0.044205 -0.005738 0.043239 -0.157060
 30 1.438885 -0.000001 0.000000 0.000000 -0.000000 0.732589
 31 1.485305 0.000001 0.000000 0.000000 -0.000000 1.168627
time 19
  0 0.235347 -0.235347 -14.506780 -0.000000 0.270322 -1.571254
  1 0.000000 0.000000 0.000000 -1.570795 -1.570796 0.000000
  2 -0.000005 0.000007 3.713255 -3.368582 -0.221254 1.331540
  3 18.045721 0.000000 0.000000 0.000000 -0.000000 -1.349056
  4 17.597597 0.000000 0.000000 -0.205032 0.225938 -0.216505
  5 3.793090 6.407221 0.000000 0.000000 -0.000000 1.570796
  6 0.000005 -0.000003 -3.713255 6.216042 2.542639 5.445438
  7 18.045725 0.000000 0.000000 0.000000 -0.000000 -2.074575
  8 17.597597 0.000000 0.000000 -0.092072 0.087818 0.559914
  9 3.793090 6.407221 0.000000 0.000000 -0.000000 1.570796
 10 0.935740 0.000000 0.000000 0.000000 -0.000000 0.000000
 11 0.935741 0.000000 0.000000 0.000000 -0.000000 0.000000
 12 1.293670 0.684478 -0.000001 -0.000004 -0.000001 0.009520
 13 5.309685 -0.003834 0.000000 -0.156851 -0.006639 -0.043089
 14 4.826790 -0.004591 0.000000 -0.060968 -0.003140 -0.052244
 15 5.792767 -0.005304 0.000000 -0.087202 -0.001139 -0.013846
 16 6.662317 -0.001453 0.000000 0.000000 -0.000001 0.296580
 17 2.046985 -0.000002 0.000000 0.289388 0.097366 -0.538550
 18 -3.322968 0.958643 4.341911 0.785283 -1.105790 2.114975
 19 4.827230 0.000000 0.000001 -0.583724 -0.047614 -1.095902
 20 11.139763 0.000000 0.000000 0.000000 -0.000000 -1.630820
 21 10.314597 0.000001 0.000000 -0.172447 -0.528664 0.398548
 22 2.975834 -0.386307 -0.044143 -0.021458 -0.037954 0.497456
 23 1.438886 0.000000 0.000000 0.000000 -0.000000 0.889650
 24 1.485303 0.000000 0.000000 0.000000 -0.000000 1.116298
 25 -3.065217 0.884022 -4.140396 -0.000013 1.274386 2.843985
 26 4.972048 0.000000 0.000001 0.692776 -1.087722 -1.086534
 27 11.585355 0.000000 0.000000 0.000000 -0.000000 -1.866933
 28 10.127057 0.000000 0.000001 1.569752 -0.000000 -0.069778
 29 2.683750 -0.427338 0.044205 -0.005738 0.043239 -0.157060
 30 1.438885 -0.000001 0.000000 0.000000 -0.000000 0.732589
 31 1.485305 0.000001 0.000000 0.000000 -0.000000 1.168627
time 20
  0 0.235347 -0.235347 -14.506780 -0.000000 0.270322 -1.571254
  1 0.000000 0.000000 0.000000 -1.570795 -1.570796 0.000000
  2 -0.000005 0.000007 3.713255 -3.368582 -0.221254 1.331540
  3 18.045721 0.000000 0.000000 0.000000 -0.000000 -1.349056
  4 17.597597 0.000000 0.000000 -0.205032 0.225938 -0.216505
  5 3.793090 6.407221 0.000000 0.000000 -0.000000 1.570796
  6 0.000005 -0.000003 -3.713255 6.216042 2.542639 5.445438
  7 18.045725 0.000000 0.000000 0.000000 -0.000000 -2.074575
  8 17.597597 0.000000 0.000000 -0.092072 0.087818 0.559914
  9 3.793090 6.407221 0.000000 0.000000 -0.000000 1.570796
 10 0.935740 0.000000 0.000000 0.000000 -0.000000 0.000000
 11 0.935741 0.000000 0.000000 0.000000 -0.000000 0.000000
 12 1.293670 0.684478 -0.000001 -0.000004 -0.000001 0.009520
 13 5.309685 -0.003834 0.000000 -0.156851 -0.006639 -0.043089
 14 4.826790 -0.004591 0.000000 -0.060968 -0.003140 -0.052244
 15 5.792767 -0.005304 0.000000 -0.087186 -0.001306 -0.016379
 16 6.662317 -0.001453 0.000000 0.000000 -0.000001 0.296580
 17 2.046985 -0.000002 0.000000 0.289388 0.097366 -0.536033
 18 -3.322968 0.958643 4.341911 0.802732 -1.114252 2.095608
 19 4.827230 0.000000 0.000001 -0.594120 -0.039955 -1.094677
 20 11.139763 0.000000 0.000000 0.000000 -0.000000 -1.630820
 21 10.314597 0.000001 0.000000 -0.172447 -0.528664 0.398548
 22 2.975834 -0.386307 -0.044143 -0.021458 -0.037954 0.497456
 23 1.438886 0.000000 0.000000 0.000000 -0.000000 0.889650
 24 1.485303 0.000000 0.000000 0.000000 -0.000000 1.116298
 25 -3.065217 0.884022 -4.140396 -0.000013 1.282639 2.843985
 26 4.972048 0.000000 0.000001 0.706236 -1.093755 -1.097864
 27 11.585355 0.000000 0.000000 0.000000 -0.000000 -1.866933
 28 10.127057 0.000000 0.000001 1.569752 -0.000000 -0.069778
 29 2.683750 -0.427338 0.044205 -0.005738 0.043239 -0.157060
 30 1.438885 -0.000001 0.000000 0.000000 -0.000000 0.732589
 31 1.485305 0.000001 0.000000 0.000000 -0.000000 1.168627
time 21
  0 0.235347 -0.235347 -14.506780 -0.000000 0.270322 -1.571254
  1 0.000000 0.000000 0.000000 -1.570795 -1.570796 0.000000
  2 -0.000005 0.000007 3.713255 -3.368582 -0.221254 1.331540
  3 18.045721 0.000000 0.000000 0.000000 -0.000000 -1.349056
  4 17.597597 0.000000 0.000000 -0.205032 0.225938 -0.216505
  5 3.793090 6.407221 0.000000 0.000000 -0.000000 1.570796
  6 0.000005 -0.000003 -3.713255 6.216042 2.542639 5.445438
  7 18.045725 0.000000 0.000000 0.000000 -0.000000 -2.074575
  8 17.597597 0.000000 0.000000 -0.092072 0.087818 0.559914
  9 3.793090 6.407221 0.000000 0.000000 -0.000000 1.570796
 10 0.935740 0.000000 0.000000 0.000000 -0.000000 0.000000
 11 0.935741 0.000000 0.000000 0.000000 -0.000000 0.000000
 12 1.293670 0.684478 -0.000001 -0.000004 -0.000001 0.009520
 13 5.309685 -0.003834 0.000000 -0.156851 -0.006639 -0.043089
 14 4.826790 -0.004591 0.000000 -0.060968 -0.003140 -0.052244
 15 5.792767 -0.005304 0.000000 -0.087186 -0.001606 -0.019244
 16 6.662317 -0.001453 0.000000 0.000000 -0.000001 0.296580
 17 2.046985 -0.000002 0.000000 0.289388 0.097366 -0.532976
 18 -3.322968 0.958643 4.341911 0.822961 -1.123560 2.073269
 19 4.827230 0.000000 0.000001 -0.605750 -0.030764 -1.093277
 20 11.139763 0.000000 0.000000 0.000000 -0.000000 -1.630820
 21 10.314597 0.000001 0.000000 -0.172447 -0.528664 0.398548
 22 2.975834 -0.386307 -0.044143 -0.021458 -0.037954 0.497456
 23 1.438886 0.000000 0.000000 0.000000 -0.000000 0.889650
 24 1.485303 0.000000 0.000000 0.000000 -0.000000 1.116298
 25 -3.065217 0.884022 -4.140396 -0.000013 1.291938 2.843985
 26 4.972048 0.000000 0.000001 0.721707 -1.100271 -1.110775
 27 11.585355 0.000000 0.000000 0.000000 -0.000000 -1.866933
 28 10.127057 0.000000 0.000001 1.569752 -0.000000 -0.069778
 29 2.683750 -0.427338 0.044205 -0.005738 0.043239 -0.157060
 30 1.438885 -0.000001 0.000000 0.000000 -0.000000 0.732589
 31 1.485305 0.000001 0.000000 0.000000 -0.000000 1.168627
time 22
  0 0.235347 -0.235347 -14.506780 -0.000000 0.270322 -1.571254
  1 0.000000 0.000000 0.000000 -1.570795 -1.570796 0.000000
  2 -0.000005 0.000007 3.713255 -3.368582 -0.221254 1.331540
  3 18.045721 0.000000 0.000000 0.000000 -0.000000 -1.349056
  4 17.597597 0.000000 0.000000 -0.205032 0.225938 -0.216505
  5 3.793090 6.407221 0.000000 0.000000 -0.000000 1.570796
  6 0.000005 -0.000003 -3.713255 6.216042 2.542639 5.445438
  7 18.045725 0.000000 0.000000 0.000000 -0.000000 -2.074575
  8 17.597597 0.000000 0.000000 -0.092072 0.087818 0.559914
  9 3.793090 6.407221 0.000000 0.000000 -0.000000 1.570796
 10 0.935740 0.000000 0.000000 0.000000 -0.000000 0.000000
 11 0.935741 0.000000 0.000000 0.000000 -0.000000 0.000000
 12 1.293670 0.684478 -0.000001 -0.000004 -0.000001 0.009520
 13 5.309685 -0.003834 0.000000 -0.156851 -0.006639 -0.043089
 14 4.826790 -0.004591 0.000000 -0.060968 -0.003140 -0.052244
 15 5.792767 -0.005304 0.000000 -0.087186 -0.001882 -0.022317
 16 6.662317 -0.001453 0.000000 0.000000 -0.000001 0.296580
 17 2.046985 -0.000002 0.000000 0.289388 0.097366 -0.530100
 18 -3.322968 0.958643 4.341911 0.845779 -1.133368 2.047766
 19 4.827230 0.000000 0.000001 -0.618378 -0.021403 -1.092139
 20 11.139763 0.000000 0.000000 0.000000 -0.000000 -1.630820
 21 10.314597 0.000001 0.000000 -0.172447 -0.528664 0.398548
 22 2.975834 -0.386307 -0.044143 -0.021458 -0.037954 0.497456
 23 1.438886 0.000000 0.000000 0.000000 -0.000000 0.889650
 24 1.485303 0.000000 0.000000 0.000000 -0.000000 1.116298
 25 -3.065217 0.884022 -4.140396 -0.000013 1.301887 2.843985
 26 4.972048 0.000000 0.000001 0.738725 -1.107430 -1.125201
 27 11.585355 0.000000 0.000000 0.000000 -0.000000 -1.866933
 28 10.127057 0.000000 0.000001 1.569752 -0.000000 -0.069778
 29 2.683750 -0.427338 0.044205 -0.005738 0.043239 -0.157060
 30 1.438885 -0.000001 0.000000 0.000000 -0.000000 0.732589
 31 1.485305 0.000001 0.000000 0.000000 -0.000000 1.168627
time 23
  0 0.235347 -0.235347 -14.506780 -0.000000 0.270322 -1.571254
  1 0.000000 0.000000 0.000000 -1.570795 -1.570796 0.000000
  2 -0.000005 0.000007 3.713255 -3.368582 -0.221254 1.331540
  3 18.045721 0.000000 0.000000 0.000000 -0.000000 -1.349056
  4 17.597597 0.000000 0.000000 -0.205032 0.225938 -0.216505
  5 3.793090 6.407221 0.000000 0.000000 -0.000000 1.570796
  6 0.000005 -0.000003 -3.713255 6.216042 2.542639 5.445438
  7 18.045725 0.000000 0.000000 0.000000 -0.000000 -2.074575
  8 17.597597 0.000000 0.000000 -0.092072 0.087818 0.559914
  9 3.793090 6.407221 0.000000 0.000000 -0.000000 1.570796
 10 0.935740 0.000000 0.000000 0.000000 -0.000000 0.000000
 11 0.935741 0.000000 0.000000 0.000000 -0.000000 0.000000
 12 1.293670 0.684478 -0.000001 -0.000004 -0.000001 0.009520
 13 5.309685 -0.003834 0.000000 -0.156851 -0.006639 -0.043089
 14 4.826790 -0.004591 0.000000 -0.060968 -0.003140 -0.052244
 15 5.792767 -0.005304 0.000000 -0.087170 -0.002109 -0.025473
 16 6.662317 -0.001453 0.000000 0.000000 -0.000001 0.296580
 17 2.046985 -0.000002 0.000000 0.289388 0.097366 -0.526864
 18 -3.322968 0.958643 4.341911 0.870706 -1.143291 2.020633
 19 4.827230 0.000000 0.000001 -0.631359 -0.011191 -1.091089
 20 11.139763 0.000000 0.000000 0.000000 -0.000000 -1.630820
 21 10.314597 0.000001 0.000000 -0.172447 -0.528664 0.398548
 22 2.975834 -0.386307 -0.044143 -0.021458 -0.037954 0.497456
 23 1.438886 0.000000 0.000000 0.000000 -0.000000 0.889650
 24 1.485303 0.000000 0.000000 0.000000 -0.000000 1.116298
 25 -3.065217 0.884022 -4.140396 -0.000013 1.312288 2.843985
 26 4.972048 0.000000 0.000001 0.756826 -1.114509 -1.140681
 27 11.585355 0.000000 0.000000 0.000000 -0.000000 -1.866933
 28 10.127057 0.000000 0.000001 1.569752 -0.000000 -0.069778
 29 2.683750 -0.427338 0.044205 -0.005738 0.043239 -0.157060
 30 1.438885 -0.000001 0.000000 0.000000 -0.000000 0.732589
 31 1.485305 0.000001 0.000000 0.000000 -0.000000 1.168627
time 24
  0 0.235347 -0.235347 -14.506780 -0.000000 0.270322 -1.571254
  1 0.000000 0.000000 0.000000 -1.570795 -1.570796 0.000000
  2 -0.000005 0.000007 3.713255 -3.368582 -0.221254 1.331540
  3 18.045721 0.000000 0.000000 0.000000 -0.000000 -1.349056
  4 17.597597 0.000000 0.000000 -0.205032 0.225938 -0.216505
  5 3.793090 6.407221 0.000000 0.000000 -0.000000 1.570796
  6 0.000005 -0.000003 -3.713255 6.216042 2.542639 5.445438
  7 18.045725 0.000000 0.000000 0.000000 -0.000000 -2.074575
  8 17.597597 0.000000 0.000000 -0.092072 0.087818 0.559914
  9 3.793090 6.407221 0.000000 0.000000 -0.000000 1.570796
 10 0.935740 0.000000 0.000000 0.000000 -0.000000 0.000000
 11 0.935741 0.000000 0.000000 0.000000 -0.000000 0.000000
 12 1.293670 0.684478 -0.000001 -0.000004 -0.000001 0.009520
 13 5.309685 -0.003834 0.000000 -0.156851 -0.006639 -0.043089
 14 4.826790 -0.004591 0.000000 -0.060968 -0.003140 -0.052244
 15 5.792767 -0.005304 0.000000 -0.087170 -0.002433 -0.028712
 16 6.662317 -0.001453 0.000000 0.000000 -0.000001 0.296580
 17 2.046985 -0.000002 0.000000 0.289388 0.097366 -0.523492
 18 -3.322968 0.958643 4.341911 0.896975 -1.152945 1.991487
 19 4.827230 0.000000 0.000001 -0.644516 -0.001064 -1.090214
 20 11.139763 0.000000 0.000000 0.000000 -0.000000 -1.630820
 21 10.314597 0.000001 0.000000 -0.172447 -0.528664 0.398548
 22 2.975834 -0.386307 -0.044143 -0.021458 -0.037954 0.497456
 23 1.438886 0.000000 0.000000 0.000000 -0.000000 0.889650
 24 1.485303 0.000000 0.000000 0.000000 -0.000000 1.116298
 25 -3.065217 0.884022 -4.140396 -0.000013 1.322774 2.843985
 26 4.972048 0.000000 0.000001 0.775855 -1.121588 -1.156754
 27 11.585355 0.000000 0.000000 0.000000 -0.000000 -1.866933
 28 10.127057 0.000000 0.000001 1.569752 -0.000000 -0.069778
 29 2.683750 -0.427338 0.044205 -0.005738 0.043239 -0.157060
 30 1.438885 -0.000001 0.000000 0.000000 -0.000000 0.732589
 31 1.485305 0.000001 0.000000 0.000000 -0.000000 1.168627
time 25
  0 0.235347 -0.235347 -14.506780 -0.000000 0.270322 -1.571254
  1 0.000000 0.000000 0.000000 -1.570795 -1.570796 0.000000
  2 -0.000005 0.000007 3.713255 -3.368582 -0.221254 1.331540
  3 18.045721 0.000000 0.000000 0.000000 -0.000000 -1.349056
  4 17.597597 0.000000 0.000000 -0.205032 0.225938 -0.216505
  5 3.793090 6.407221 0.000000 0.000000 -0.000000 1.570796
  6 0.000005 -0.000003 -3.713255 6.216042 2.542639 5.445438
  7 18.045725 0.000000 0.000000 0.000000 -0.000000 -2.074575
  8 17.597597 0.000000 0.000000 -0.092072 0.087818 0.559914
  9 3.793090 6.407221 0.000000 0.000000 -0.000000 1.570796
 10 0.935740 0.000000 0.000000 0.000000 -0.000000 0.000000
 11 0.935741 0.000000 0.000000 0.000000 -0.000000 0.000000
 12 1.293670 0.684478 -0.000001 -0.000004 -0.000001 0.009520
 13 5.309685 -0.003834 0.000000 -0.156851 -0.006639 -0.043089
 14 4.826790 -0.004591 0.000000 -0.060968 -0.003140 -0.052244
 15 5.792767 -0.005304 0.000000 -0.087154 -0.002709 -0.031847
 16 6.662317 -0.001453 0.000000 0.000000 -0.000001 0.296580
 17 2.046985 -0.000002 0.000000 0.289388 0.097366 -0.520526
 18 -3.322968 0.958643 4.341911 0.924107 -1.162176 1.961957
 19 4.827230 0.000000 0.000001 -0.657379 0.008978 -1.089514
 20 11.139763 0.000000 0.000000 0.000000 -0.000000 -1.630820
 21 10.314597 0.000001 0.000000 -0.172447 -0.528664 0.398548
 22 2.975834 -0.386307 -0.044143 -0.021458 -0.037954 0.497456
 23 1.438886 0.000000 0.000000 0.000000 -0.000000 0.889650
 24 1.485303 0.000000 0.000000 0.000000 -0.000000 1.116298
 25 -3.065217 0.884022 -4.140396 -0.000013 1.333034 2.843985
 26 4.972048 0.000000 0.000001 0.795039 -1.128425 -1.173288
 27 11.585355 0.000000 0.000000 0.000000 -0.000000 -1.866933
 28 10.127057 0.000000 0.000001 1.569752 -0.000000 -0.069778
 29 2.683750 -0.427338 0.044205 -0.005738 0.043239 -0.157060
 30 1.438885 -0.000001 0.000000 0.000000 -0.000000 0.732589
 31 1.485305 0.000001 0.000000 0.000000 -0.000000 1.168627
time 26
  0 0.235347 -0.235347 -14.506780 -0.000000 0.270322 -1.571254
  1 0.000000 0.000000 0.000000 -1.570795 -1.570796 0.000000
  2 -0.000005 0.000007 3.713255 -3.368582 -0.221254 1.331540
  3 18.045721 0.000000 0.000000 0.000000 -0.000000 -1.349056
  4 17.597597 0.000000 0.000000 -0.205032 0.225938 -0.216505
  5 3.793090 6.407221 0.000000 0.000000 -0.000000 1.570796
  6 0.000005 -0.000003 -3.713255 6.216042 2.542639 5.445438
  7 18.045725 0.000000 0.000000 0.000000 -0.000000 -2.074575
  8 17.597597 0.000000 0.000000 -0.092072 0.087818 0.559914
  9 3.793090 6.407221 0.000000 0.000000 -0.000000 1.570796
 10 0.935740 0.000000 0.000000 0.000000 -0.000000 0.000000
 11 0.935741 0.000000 0.000000 0.000000 -0.000000 0.000000
 12 1.293670 0.684478 -0.000001 -0.000004 -0.000001 0.009520
 13 5.309685 -0.003834 0.000000 -0.156851 -0.006639 -0.043089
 14 4.826790 -0.004591 0.000000 -0.060968 -0.003140 -0.052244
 15 5.792767 -0.005304 0.000000 -0.087154 -0.002924 -0.034837
 16 6.662317 -0.001453 0.000000 0.000000 -0.000001 0.296580
 17 2.046985 -0.000002 0.000000 0.289388 0.097366 -0.517380
 18 -3.322968 0.958643 4.341911 0.950760 -1.170638 1.932715
 19 4.827230 0.000000 0.000001 -0.669655 0.018339 -1.088901
 20 11.139763 0.000000 0.000000 0.000000 -0.000000 -1.630820
 21 10.314597 0.000001 0.000000 -0.172447 -0.528664 0.398548
 22 2.975834 -0.386307 -0.044143 -0.021458 -0.037954 0.497456
 23 1.438886 0.000000 0.000000 0.000000 -0.000000 0.889650
 24 1.485303 0.000000 0.000000 0.000000 -0.000000 1.116298
 25 -3.065217 0.884022 -4.140396 -0.000013 1.342785 2.843985
 26 4.972048 0.000000 0.000001 0.813527 -1.134941 -1.189360
 27 11.585355 0.000000 0.000000 0.000000 -0.000000 -1.866933
 28 10.127057 0.000000 0.000001 1.569752 -0.000000 -0.069778
 29 2.683750 -0.427338 0.044205 -0.005738 0.043239 -0.157060
 30 1.438885 -0.000001 0.000000 0.000000 -0.000000 0.732589
 31 1.485305 0.000001 0.000000 0.000000 -0.000000 1.168627
time 27
  0 0.235347 -0.235347 -14.506780 -0.000000 0.270322 -1.571254
  1 0.000000 0.000000 0.000000 -1.570795 -1.570796 0.000000
  2 -0.000005 0.000007 3.713255 -3.368582 -0.221254 1.331540
  3 18.045721 0.000000 0.000000 0.000000 -0.000000 -1.349056
  4 17.597597 0.000000 0.000000 -0.205032 0.225938 -0.216505
  5 3.793090 6.407221 0.000000 0.000000 -0.000000 1.570796
  6 0.000005 -0.000003 -3.713255 6.216042 2.542639 5.445438
  7 18.045725 0.000000 0.000000 0.000000 -0.000000 -2.074575
  8 17.597597 0.000000 0.000000 -0.092072 0.087818 0.559914
  9 3.793090 6.407221 0.000000 0.000000 -0.000000 1.570796
 10 0.935740 0.000000 0.000000 0.000000 -0.000000 0.000000
 11 0.935741 0.000000 0.000000 0.000000 -0.000000 0.000000
 12 1.293670 0.684478 -0.000001 -0.000004 -0.000001 0.009520
 13 5.309685 -0.003834 0.000000 -0.156851 -0.006639 -0.043089
 14 4.826790 -0.004591 0.000000 -0.060968 -0.003140 -0.052244
 15 5.792767 -0.005304 0.000000 -0.087137 -0.003212 -0.037557
 16 6.662317 -0.001453 0.000000 0.000000 -0.000001 0.296580
 17 2.046985 -0.000002 0.000000 0.289388 0.097366 -0.514728
 18 -3.322968 0.958643 4.341911 0.976454 -1.178138 1.904815
 19 4.827230 0.000000 0.000001 -0.680815 0.026934 -1.088551
 20 11.139763 0.000000 0.000000 0.000000 -0.000000 -1.630820
 21 10.314597 0.000001 0.000000 -0.172447 -0.528664 0.398548
 22 2.975834 -0.386307 -0.044143 -0.021458 -0.037954 0.497456
 23 1.438886 0.000000 0.000000 0.000000 -0.000000 0.889650
 24 1.485303 0.000000 0.000000 0.000000 -0.000000 1.116298
 25 -3.065217 0.884022 -4.140396 -0.000013 1.351773 2.843985
 26 4.972048 0.000000 0.000001 0.831241 -1.140813 -1.204841
 27 11.585355 0.000000 0.000000 0.000000 -0.000000 -1.866933
 28 10.127057 0.000000 0.000001 1.569752 -0.000000 -0.069778
 29 2.683750 -0.427338 0.044205 -0.005738 0.043239 -0.157060
 30 1.438885 -0.000001 0.000000 0.000000 -0.000000 0.732589
 31 1.485305 0.000001 0.000000 0.000000 -0.000000 1.168627
time 28
  0 0.235347 -0.235347 -14.506780 -0.000000 0.270322 -1.571254
  1 0.000000 0.000000 0.000000 -1.570795 -1.570796 0.000000
  2 -0.000005 0.000007 3.713255 -3.368582 -0.221254 1.331540
  3 18.045721 0.000000 0.000000 0.000000 -0.000000 -1.349056
  4 17.597597 0.000000 0.000000 -0.205032 0.225938 -0.216505
  5 3.793090 6.407221 0.000000 0.000000 -0.000000 1.570796
  6 0.000005 -0.000003 -3.713255 6.216042 2.542639 5.445438
  7 18.045725 0.000000 0.000000 0.000000 -0.000000 -2.074575
  8 17.597597 0.000000 0.000000 -0.092072 0.087818 0.559914
  9 3.793090 6.407221 0.000000 0.000000 -0.000000 1.570796
 10 0.935740 0.000000 0.000000 0.000000 -0.000000 0.000000
 11 0.935741 0.000000 0.000000 0.000000 -0.000000 0.000000
 12 1.293670 0.684478 -0.000001 -0.000004 -0.000001 0.009520
 13 5.309685 -0.003834 0.000000 -0.156851 -0.006639 -0.043089
 14 4.826790 -0.004591 0.000000 -0.060968 -0.003140 -0.052244
 15 5.792767 -0.005304 0.000000 -0.087137 -0.003428 -0.040007
 16 6.662317 -0.001453 0.000000 0.000000 -0.000001 0.296580
 17 2.046985 -0.000002 0.000000 0.289388 0.097366 -0.512211
 18 -3.322968 0.958643 4.341911 0.999847 -1.184446 1.879887
 19 4.827230 0.000000 0.000001 -0.690624 0.034593 -1.088376
 20 11.139763 0.000000 0.000000 0.000000 -0.000000 -1.630820
 21 10.314597 0.000001 0.000000 -0.172447 -0.528664 0.398548
 22 2.975834 -0.386307 -0.044143 -0.021458 -0.037954 0.497456
 23 1.438886 0.000000 0.000000 0.000000 -0.000000 0.889650
 24 1.485303 0.000000 0.000000 0.000000 -0.000000 1.116298
 25 -3.065217 0.884022 -4.140396 -0.000013 1.359687 2.843985
 26 4.972048 0.000000 0.000001 0.846944 -1.145720 -1.218740
 27 11.585355 0.000000 0.000000 0.000000 -0.000000 -1.866933
 28 10.127057 0.000000 0.000001 1.569752 -0.000000 -0.069778
 29 2.683750 -0.427338 0.044205 -0.005738 0.043239 -0.157060
 30 1.438885 -0.000001 0.000000 0.000000 -0.000000 0.732589
 31 1.485305 0.000001 0.000000 0.000000 -0.000000 1.168627
time 29
  0 0.235347 -0.235347 -14.506780 -0.000000 0.270322 -1.571254
  1 0.000000 0.000000 0.000000 -1.570795 -1.570796 0.000000
  2 -0.000005 0.000007 3.713255 -3.368582 -0.221254 1.331540
  3 18.045721 0.000000 0.000000 0.000000 -0.000000 -1.349056
  4 17.597597 0.000000 0.000000 -0.205032 0.225938 -0.216505
  5 3.793090 6.407221 0.000000 0.000000 -0.000000 1.570796
  6 0.000005 -0.000003 -3.713255 6.216042 2.542639 5.445438
  7 18.045725 0.000000 0.000000 0.000000 -0.000000 -2.074575
  8 17.597597 0.000000 0.000000 -0.092072 0.087818 0.559914
  9 3.793090 6.407221 0.000000 0.000000 -0.000000 1.570796
 10 0.935740 0.000000 0.000000 0.000000 -0.000000 0.000000
 11 0.935741 0.000000 0.000000 0.000000 -0.000000 0.000000
 12 1.293670 0.684478 -0.000001 -0.000004 -0.000001 0.009520
 13 5.309685 -0.003834 0.000000 -0.156851 -0.006639 -0.043089
 14 4.826790 -0.004591 0.000000 -0.060968 -0.003140 -0.052244
 15 5.792767 -0.005304 0.000000 -0.087137 -0.003547 -0.041938
 16 6.662317 -0.001453 0.000000 0.000000 -0.000001 0.296580
 17 2.046985 -0.000002 0.000000 0.289388 0.097366 -0.510323
 18 -3.322968 0.958643 4.341911 1.019501 -1.189446 1.858315
 19 4.827230 0.000000 0.000001 -0.698671 0.041146 -1.088201
 20 11.139763 0.000000 0.000000 0.000000 -0.000000 -1.630820
 21 10.314597 0.000001 0.000000 -0.172447 -0.528664 0.398548
 22 2.975834 -0.386307 -0.044143 -0.021458 -0.037954 0.497456
 23 1.438886 0.000000 0.000000 0.000000 -0.000000 0.889650
 24 1.485303 0.000000 0.000000 0.000000 -0.000000 1.116298
 25 -3.065217 0.884022 -4.140396 -0.000013 1.366103 2.843985
 26 4.972048 0.000000 0.000001 0.860172 -1.149742 -1.230136
 27 11.585355 0.000000 0.000000 0.000000 -0.000000 -1.866933
 28 10.127057 0.000000 0.000001 1.569752 -0.000000 -0.069778
 29 2.683750 -0.427338 0.044205 -0.005738 0.043239 -0.157060
 30 1.438885 -0.000001 0.000000 0.000000 -0.000000 0.732589
 31 1.485305 0.000001 0.000000 0.000000 -0.000000 1.168627
time 30
  0 0.235347 -0.235347 -14.506780 -0.000000 0.270322 -1.571254
  1 0.000000 0.000000 0.000000 -1.570795 -1.570796 0.000000
  2 -0.000005 0.000007 3.713255 -3.368582 -0.221254 1.331540
  3 18.045721 0.000000 0.000000 0.000000 -0.000000 -1.349056
  4 17.597597 0.000000 0.000000 -0.205032 0.225938 -0.216505
  5 3.793090 6.407221 0.000000 0.000000 -0.000000 1.570796
  6 0.000005 -0.000003 -3.713255 6.216042 2.542639 5.445438
  7 18.045725 0.000000 0.000000 0.000000 -0.000000 -2.074575
  8 17.597597 0.000000 0.000000 -0.092072 0.087818 0.559914
  9 3.793090 6.407221 0.000000 0.000000 -0.000000 1.570796
 10 0.935740 0.000000 0.000000 0.000000 -0.000000 0.000000
 11 0.935741 0.000000 0.000000 0.000000 -0.000000 0.000000
 12 1.293670 0.684478 -0.000001 -0.000004 -0.000001 0.009520
 13 5.309685 -0.003834 0.000000 -0.156851 -0.006639 -0.043089
 14 4.826790 -0.004591 0.000000 -0.060968 -0.003140 -0.052244
 15 5.792767 -0.005304 0.000000 -0.087121 -0.003679 -0.043412
 16 6.662317 -0.001453 0.000000 0.000000 -0.000001 0.296580
 17 2.046985 -0.000002 0.000000 0.289388 0.097366 -0.508795
 18 -3.322968 0.958643 4.341911 1.034649 -1.193023 1.842208
 19 4.827230 0.000000 0.000001 -0.704662 0.045486 -1.088201
 20 11.139763 0.000000 0.000000 0.000000 -0.000000 -1.630820
 21 10.314597 0.000001 0.000000 -0.172447 -0.528664 0.398548
 22 2.975834 -0.386307 -0.044143 -0.021458 -0.037954 0.497456
 23 1.438886 0.000000 0.000000 0.000000 -0.000000 0.889650
 24 1.485303 0.000000 0.000000 0.000000 -0.000000 1.116298
 25 -3.065217 0.884022 -4.140396 -0.000013 1.370795 2.843985
 26 4.972048 0.000000 0.000001 0.869996 -1.152638 -1.238897
 27 11.585355 0.000000 0.000000 0.000000 -0.000000 -1.866933
 28 10.127057 0.000000 0.000001 1.569752 -0.000000 -0.069778
 29 2.683750 -0.427338 0.044205 -0.005738 0.043239 -0.157060
 30 1.438885 -0.000001 0.000000 0.000000 -0.000000 0.732589
 31 1.485305 0.000001 0.000000 0.000000 -0.000000 1.168627
end
