version 1
nodes
  0 "Bip01"  -1
  1 "Bip01 Pelvis"   0
  2 "Bip01 L Leg"   1
  3 "Bip01 L Leg1"   2
  4 "Bip01 L Foot"   3
  5 "Bip01 L Toe0"   4
  6 "Bip01 R Leg"   1
  7 "Bip01 R Leg1"   6
  8 "Bip01 R Foot"   7
  9 "Bip01 R Toe0"   8
 10 "Bip01 R Toe01"   9
 11 "Bip01 R Toe02"  10
 12 "Bip01 Spine"   1
 13 "Bip01 Spine1"  12
 14 "Bip01 Spine2"  13
 15 "Bip01 Spine3"  14
 16 "Bip01 Neck"  15
 17 "Bip01 Head"  16
 18 "Bip01 L Arm"  16
 19 "Bip01 L Arm1"  18
 20 "Bip01 L Arm2"  19
 21 "Bip01 L Hand"  20
 22 "Bip01 L Finger1"  21
 23 "Bip01 L Finger11"  22
 24 "Bip01 L Finger12"  23
 25 "Bip01 R Arm"  16
 26 "Bip01 R Arm1"  25
 27 "Bip01 R Arm2"  26
 28 "Bip01 R Hand"  27
 29 "Bip01 R Finger1"  28
 30 "Bip01 R Finger11"  29
 31 "Bip01 R Finger12"  30
end
skeleton
time 0
  0 0.235347 -0.235347 3.446893 -0.000000 -0.000000 -1.571254
  1 0.000000 0.000000 0.000000 -1.570795 -1.570796 0.000000
  2 -0.000005 0.000007 3.713255 -6.281131 3.115177 6.261712
  3 18.045721 0.000000 0.000000 0.000000 -0.000000 -0.121501
  4 17.597597 0.000000 0.000000 -0.002613 0.026036 0.099967
  5 3.793090 6.407221 0.000000 0.000000 -0.000000 1.570796
  6 0.000005 -0.000003 -3.713255 6.280565 -3.123995 6.258640
  7 18.045725 0.000000 0.000000 0.000000 -0.000000 -0.127551
  8 17.597597 0.000000 0.000000 0.002950 -0.017289 0.103055
  9 3.793090 6.407221 0.000000 0.000000 -0.000000 1.570796
 10 0.935740 0.000000 0.000000 0.000000 -0.000000 0.000000
 11 0.935741 0.000000 0.000000 0.000000 -0.000000 0.000000
 12 1.293670 0.684478 -0.000001 -0.000004 -0.000001 -0.130033
 13 5.309685 -0.003834 0.000000 -0.156753 0.008245 0.051664
 14 4.826790 -0.004591 0.000000 -0.287811 -0.002193 -0.008412
 15 5.792767 -0.005304 0.000000 -0.156583 0.011026 0.068853
 16 6.662317 -0.001453 0.000000 -0.000144 -0.183150 0.165793
 17 2.046985 -0.000002 0.000000 0.489422 0.328049 -0.515402
 18 -2.576851 0.513317 4.888803 1.549104 -1.223524 1.490918
 19 4.827230 0.000000 0.000001 -0.109428 1.291361 -0.809828
 20 11.139763 0.000000 0.000000 0.000000 -0.000000 -1.805529
 21 10.314597 0.000001 0.000000 -1.656915 -0.276267 -0.099909
 22 2.975834 -0.386307 -0.044143 -0.021458 -0.037954 0.497456
 23 1.438886 0.000000 0.000000 0.000000 -0.000000 0.889650
 24 1.485303 0.000000 0.000000 0.000000 -0.000000 1.116298
 25 -3.858210 0.473853 -3.507564 0.080425 1.189000 3.052509
 26 4.972048 0.000000 0.000001 -0.765902 -0.808431 0.341846
 27 11.585355 0.000000 0.000000 0.000000 -0.000000 -2.147530
 28 10.127057 0.000000 0.000001 1.569752 0.000000 -0.069778
 29 2.683750 -0.427338 0.044205 -0.005738 0.043239 -0.157060
 30 1.438885 -0.000001 0.000000 0.000000 -0.000000 0.732589
 31 1.485305 0.000001 0.000000 0.000000 -0.000000 1.168627
time 1
  0 0.235347 -0.235347 3.446893 -0.000000 -0.000000 -1.571254
  1 0.000000 0.000000 0.000000 -1.570795 -1.570796 0.000000
  2 -0.000005 0.000007 3.713255 -6.281131 3.115177 6.261712
  3 18.045721 0.000000 0.000000 0.000000 -0.000000 -0.121501
  4 17.597597 0.000000 0.000000 -0.002613 0.026036 0.099967
  5 3.793090 6.407221 0.000000 0.000000 -0.000000 1.570796
  6 0.000005 -0.000003 -3.713255 6.280565 -3.123995 6.258640
  7 18.045725 0.000000 0.000000 0.000000 -0.000000 -0.127551
  8 17.597597 0.000000 0.000000 0.002950 -0.017289 0.103055
  9 3.793090 6.407221 0.000000 0.000000 -0.000000 1.570796
 10 0.935740 0.000000 0.000000 0.000000 -0.000000 0.000000
 11 0.935741 0.000000 0.000000 0.000000 -0.000000 0.000000
 12 1.293670 0.684478 -0.000001 -0.000004 -0.000001 -0.130033
 13 5.309685 -0.003834 0.000000 -0.156753 0.008245 0.051664
 14 4.826790 -0.004591 0.000000 -0.081493 -0.000324 -0.004774
 15 5.792767 -0.005304 0.000000 -0.156583 0.011026 0.068853
 16 6.662317 -0.001453 0.000000 -0.000144 -0.183150 0.165793
 17 2.046985 -0.000002 0.000000 0.285338 0.268864 -0.542955
 18 -2.576851 0.513317 4.888803 1.549104 -1.223524 1.490918
 19 4.827230 0.000000 0.000001 0.116766 1.182517 -0.045505
 20 11.139763 0.000000 0.000000 0.000000 -0.000000 -1.805529
 21 10.314597 0.000001 0.000000 -1.656915 -0.276267 -0.099909
 22 2.975834 -0.386307 -0.044143 -0.021458 -0.037954 0.497456
 23 1.438886 0.000000 0.000000 0.000000 -0.000000 0.889650
 24 1.485303 0.000000 0.000000 0.000000 -0.000000 1.116298
 25 -3.858210 0.473853 -3.507564 -0.342664 1.167378 2.631050
 26 4.972048 0.000000 0.000001 0.139690 -0.974220 -0.311412
 27 11.585355 0.000000 0.000000 0.000000 -0.000000 -1.761368
 28 10.127057 0.000000 0.000001 2.089625 0.120089 0.132743
 29 2.683750 -0.427338 0.044205 -0.010209 0.042448 -0.260327
 30 1.438885 -0.000001 0.000000 0.000000 -0.000000 0.546905
 31 1.485305 0.000001 0.000000 0.000000 -0.000000 0.697077
time 2
  0 0.235347 -0.235347 3.446893 -0.000000 -0.000000 -1.571254
  1 0.000000 0.000000 0.000000 -1.570795 -1.570796 0.000000
  2 -0.000005 0.000007 3.713255 -6.281131 3.115177 6.261712
  3 18.045721 0.000000 0.000000 0.000000 -0.000000 -0.121501
  4 17.597597 0.000000 0.000000 -0.002613 0.026036 0.099967
  5 3.793090 6.407221 0.000000 0.000000 -0.000000 1.570796
  6 0.000005 -0.000003 -3.713255 6.280565 -3.123995 6.258640
  7 18.045725 0.000000 0.000000 0.000000 -0.000000 -0.127551
  8 17.597597 0.000000 0.000000 0.002950 -0.017289 0.103055
  9 3.793090 6.407221 0.000000 0.000000 -0.000000 1.570796
 10 0.935740 0.000000 0.000000 0.000000 -0.000000 0.000000
 11 0.935741 0.000000 0.000000 0.000000 -0.000000 0.000000
 12 1.293670 0.684478 -0.000001 -0.000004 -0.000001 -0.130033
 13 5.309685 -0.003834 0.000000 -0.156753 0.008245 0.051664
 14 4.826790 -0.004591 0.000000 0.189931 -0.000623 0.002678
 15 5.792767 -0.005304 0.000000 -0.156583 0.011026 0.068853
 16 6.662317 -0.001453 0.000000 -0.000144 -0.183150 0.165793
 17 2.046985 -0.000002 0.000000 0.023136 0.186492 -0.561653
 18 -2.576851 0.513317 4.888803 1.549104 -1.223524 1.490918
 19 4.827230 0.000000 0.000001 0.331271 0.941001 0.396077
 20 11.139763 0.000000 0.000000 0.000000 -0.000000 -1.805529
 21 10.314597 0.000001 0.000000 -1.656915 -0.276267 -0.099909
 22 2.975834 -0.386307 -0.044143 -0.021458 -0.037954 0.497456
 23 1.438886 0.000000 0.000000 0.000000 -0.000000 0.889650
 24 1.485303 0.000000 0.000000 0.000000 -0.000000 1.116298
 25 -3.858210 0.473853 -3.507564 -0.755494 1.054067 2.220042
 26 4.972048 0.000000 0.000001 0.916254 -0.454169 -0.756381
 27 11.585355 0.000000 0.000000 0.000000 -0.000000 -1.241518
 28 10.127057 0.000000 0.000001 2.793278 0.096239 0.440584
 29 2.683750 -0.427338 0.044205 -0.015805 0.040699 -0.396146
 30 1.438885 -0.000001 0.000000 0.000000 -0.000000 0.302732
 31 1.485305 0.000001 0.000000 0.000000 -0.000000 0.076713
time 3
  0 0.235347 -0.235347 3.446893 -0.000000 -0.000000 -1.571254
  1 0.000000 0.000000 0.000000 -1.570795 -1.570796 0.000000
  2 -0.000005 0.000007 3.713255 -6.281131 3.115177 6.261712
  3 18.045721 0.000000 0.000000 0.000000 -0.000000 -0.121501
  4 17.597597 0.000000 0.000000 -0.002613 0.026036 0.099967
  5 3.793090 6.407221 0.000000 0.000000 -0.000000 1.570796
  6 0.000005 -0.000003 -3.713255 6.280565 -3.123995 6.258640
  7 18.045725 0.000000 0.000000 0.000000 -0.000000 -0.127551
  8 17.597597 0.000000 0.000000 0.002950 -0.017289 0.103055
  9 3.793090 6.407221 0.000000 0.000000 -0.000000 1.570796
 10 0.935740 0.000000 0.000000 0.000000 -0.000000 0.000000
 11 0.935741 0.000000 0.000000 0.000000 -0.000000 0.000000
 12 1.293670 0.684478 -0.000001 -0.000004 -0.000001 -0.130033
 13 5.309685 -0.003834 0.000000 -0.156753 0.008245 0.051664
 14 4.826790 -0.004591 0.000000 0.322654 -0.005777 0.016414
 15 5.792767 -0.005304 0.000000 -0.156583 0.011026 0.068853
 16 6.662317 -0.001453 0.000000 -0.000144 -0.183150 0.165793
 17 2.046985 -0.000002 0.000000 -0.105553 0.146420 -0.573474
 18 -2.576851 0.513317 4.888803 1.549104 -1.223524 1.490918
 19 4.827230 0.000000 0.000001 0.374501 0.850369 0.376037
 20 11.139763 0.000000 0.000000 0.000000 -0.000000 -1.805529
 21 10.314597 0.000001 0.000000 -1.656915 -0.276267 -0.099909
 22 2.975834 -0.386307 -0.044143 -0.021458 -0.037954 0.497456
 23 1.438886 0.000000 0.000000 0.000000 -0.000000 0.889650
 24 1.485303 0.000000 0.000000 0.000000 -0.000000 1.116298
 25 -3.858210 0.473853 -3.507564 -0.890771 0.977556 2.085724
 26 4.972048 0.000000 0.000001 1.046674 -0.090495 -0.726738
 27 11.585355 0.000000 0.000000 0.000000 -0.000000 -0.933988
 28 10.127057 0.000000 0.000001 3.125803 0.010829 0.566772
 29 2.683750 -0.427338 0.044205 -0.018514 0.039500 -0.462568
 30 1.438885 -0.000001 0.000000 0.000000 -0.000000 0.183224
 31 1.485305 0.000001 0.000000 0.000000 -0.000000 -0.226739
time 4
  0 0.235347 -0.235347 3.446893 -0.000000 -0.000000 -1.571254
  1 0.000000 0.000000 0.000000 -1.570795 -1.570796 0.000000
  2 -0.000005 0.000007 3.713255 -6.281131 3.115177 6.261712
  3 18.045721 0.000000 0.000000 0.000000 -0.000000 -0.121501
  4 17.597597 0.000000 0.000000 -0.002613 0.026036 0.099967
  5 3.793090 6.407221 0.000000 0.000000 -0.000000 1.570796
  6 0.000005 -0.000003 -3.713255 6.280565 -3.123995 6.258640
  7 18.045725 0.000000 0.000000 0.000000 -0.000000 -0.127551
  8 17.597597 0.000000 0.000000 0.002950 -0.017289 0.103055
  9 3.793090 6.407221 0.000000 0.000000 -0.000000 1.570796
 10 0.935740 0.000000 0.000000 0.000000 -0.000000 0.000000
 11 0.935741 0.000000 0.000000 0.000000 -0.000000 0.000000
 12 1.293670 0.684478 -0.000001 -0.000004 -0.000001 -0.130033
 13 5.309685 -0.003834 0.000000 -0.156753 0.008245 0.051664
 14 4.826790 -0.004591 0.000000 0.315544 -0.013123 0.039543
 15 5.792767 -0.005304 0.000000 -0.156485 0.012332 0.077511
 16 6.662317 -0.001453 0.000000 -0.000144 -0.183150 0.165793
 17 2.046985 -0.000002 0.000000 -0.105467 0.148761 -0.606960
 18 -2.576851 0.513317 4.888803 1.549104 -1.223524 1.490918
 19 4.827230 0.000000 0.000001 0.370918 0.877686 0.261222
 20 11.139763 0.000000 0.000000 0.000000 -0.000000 -1.805529
 21 10.314597 0.000001 0.000000 -1.656915 -0.276267 -0.099909
 22 2.975834 -0.386307 -0.044143 -0.021458 -0.037954 0.497456
 23 1.438886 0.000000 0.000000 0.000000 -0.000000 0.889650
 24 1.485303 0.000000 0.000000 0.000000 -0.000000 1.116298
 25 -3.858210 0.473853 -3.507564 -0.884731 0.981711 2.092243
 26 4.972048 0.000000 0.000001 1.056653 -0.080440 -0.737805
 27 11.585355 0.000000 0.000000 0.000000 -0.000000 -0.828563
 28 10.127057 0.000000 0.000001 3.108858 0.016270 0.561006
 29 2.683750 -0.427338 0.044205 -0.018334 0.039572 -0.459117
 30 1.438885 -0.000001 0.000000 0.000000 -0.000000 0.189446
 31 1.485305 0.000001 0.000000 0.000000 -0.000000 -0.210949
time 5
  0 0.235347 -0.235347 3.446893 -0.000000 -0.000000 -1.571254
  1 0.000000 0.000000 0.000000 -1.570795 -1.570796 0.000000
  2 -0.000005 0.000007 3.713255 -6.281131 3.115177 6.261712
  3 18.045721 0.000000 0.000000 0.000000 -0.000000 -0.121501
  4 17.597597 0.000000 0.000000 -0.002613 0.026036 0.099967
  5 3.793090 6.407221 0.000000 0.000000 -0.000000 1.570796
  6 0.000005 -0.000003 -3.713255 6.280565 -3.123995 6.258640
  7 18.045725 0.000000 0.000000 0.000000 -0.000000 -0.127551
  8 17.597597 0.000000 0.000000 0.002950 -0.017289 0.103055
  9 3.793090 6.407221 0.000000 0.000000 -0.000000 1.570796
 10 0.935740 0.000000 0.000000 0.000000 -0.000000 0.000000
 11 0.935741 0.000000 0.000000 0.000000 -0.000000 0.000000
 12 1.293670 0.684478 -0.000001 -0.000004 -0.000001 -0.130033
 13 5.309685 -0.003834 0.000000 -0.156753 0.008245 0.051664
 14 4.826790 -0.004591 0.000000 0.257844 -0.018265 0.068360
 15 5.792767 -0.005304 0.000000 -0.156338 0.014142 0.088640
 16 6.662317 -0.001453 0.000000 -0.000144 -0.183150 0.165793
 17 2.046985 -0.000002 0.000000 -0.058981 0.166276 -0.649706
 18 -2.576851 0.513317 4.888803 1.549104 -1.223524 1.490918
 19 4.827230 0.000000 0.000001 0.335794 0.922279 0.134681
 20 11.139763 0.000000 0.000000 0.000000 -0.000000 -1.805529
 21 10.314597 0.000001 0.000000 -1.656915 -0.276267 -0.099909
 22 2.975834 -0.386307 -0.044143 -0.021458 -0.037954 0.497456
 23 1.438886 0.000000 0.000000 0.000000 -0.000000 0.889650
 24 1.485303 0.000000 0.000000 0.000000 -0.000000 1.116298
 25 -3.858210 0.473853 -3.507564 -0.830179 1.015741 2.146220
 26 4.972048 0.000000 0.000001 1.031590 -0.199573 -0.775945
 27 11.585355 0.000000 0.000000 0.000000 -0.000000 -0.789387
 28 10.127057 0.000000 0.000001 2.966484 0.057419 0.509346
 29 2.683750 -0.427338 0.044205 -0.017232 0.040123 -0.430430
 30 1.438885 -0.000001 0.000000 0.000000 -0.000000 0.240982
 31 1.485305 0.000001 0.000000 0.000000 -0.000000 -0.079927
time 6
  0 0.235347 -0.235347 3.446893 -0.000000 -0.000000 -1.571254
  1 0.000000 0.000000 0.000000 -1.570795 -1.570796 0.000000
  2 -0.000005 0.000007 3.713255 -6.281131 3.115177 6.261712
  3 18.045721 0.000000 0.000000 0.000000 -0.000000 -0.121501
  4 17.597597 0.000000 0.000000 -0.002613 0.026036 0.099967
  5 3.793090 6.407221 0.000000 0.000000 -0.000000 1.570796
  6 0.000005 -0.000003 -3.713255 6.280565 -3.123995 6.258640
  7 18.045725 0.000000 0.000000 0.000000 -0.000000 -0.127551
  8 17.597597 0.000000 0.000000 0.002950 -0.017289 0.103055
  9 3.793090 6.407221 0.000000 0.000000 -0.000000 1.570796
 10 0.935740 0.000000 0.000000 0.000000 -0.000000 0.000000
 11 0.935741 0.000000 0.000000 0.000000 -0.000000 0.000000
 12 1.293670 0.684478 -0.000001 -0.000004 -0.000001 -0.130033
 13 5.309685 -0.003834 0.000000 -0.156753 0.008245 0.051664
 14 4.826790 -0.004591 0.000000 0.181031 -0.017725 0.095942
 15 5.792767 -0.005304 0.000000 -0.156175 0.015820 0.099312
 16 6.662317 -0.001453 0.000000 -0.000144 -0.183150 0.165793
 17 2.046985 -0.000002 0.000000 0.006506 0.189486 -0.689215
 18 -2.576851 0.513317 4.888803 1.549104 -1.223524 1.490918
 19 4.827230 0.000000 0.000001 0.275648 0.962787 0.013040
 20 11.139763 0.000000 0.000000 0.000000 -0.000000 -1.805529
 21 10.314597 0.000001 0.000000 -1.656915 -0.276267 -0.099909
 22 2.975834 -0.386307 -0.044143 -0.021458 -0.037954 0.497456
 23 1.438886 0.000000 0.000000 0.000000 -0.000000 0.889650
 24 1.485303 0.000000 0.000000 0.000000 -0.000000 1.116298
 25 -3.858210 0.473853 -3.507564 -0.746290 1.058363 2.229821
 26 4.972048 0.000000 0.000001 0.973187 -0.368258 -0.808552
 27 11.585355 0.000000 0.000000 0.000000 -0.000000 -0.794843
 28 10.127057 0.000000 0.000001 2.772575 0.100002 0.432072
 29 2.683750 -0.427338 0.044205 -0.015674 0.040759 -0.392116
 30 1.438885 -0.000001 0.000000 0.000000 -0.000000 0.309952
 31 1.485305 0.000001 0.000000 0.000000 -0.000000 0.095064
time 7
  0 0.235347 -0.235347 3.446893 -0.000000 -0.000000 -1.571254
  1 0.000000 0.000000 0.000000 -1.570795 -1.570796 0.000000
  2 -0.000005 0.000007 3.713255 -6.281131 3.115177 6.261712
  3 18.045721 0.000000 0.000000 0.000000 -0.000000 -0.121501
  4 17.597597 0.000000 0.000000 -0.002613 0.026036 0.099967
  5 3.793090 6.407221 0.000000 0.000000 -0.000000 1.570796
  6 0.000005 -0.000003 -3.713255 6.280565 -3.123995 6.258640
  7 18.045725 0.000000 0.000000 0.000000 -0.000000 -0.127551
  8 17.597597 0.000000 0.000000 0.002950 -0.017289 0.103055
  9 3.793090 6.407221 0.000000 0.000000 -0.000000 1.570796
 10 0.935740 0.000000 0.000000 0.000000 -0.000000 0.000000
 11 0.935741 0.000000 0.000000 0.000000 -0.000000 0.000000
 12 1.293670 0.684478 -0.000001 -0.000004 -0.000001 -0.130033
 13 5.309685 -0.003834 0.000000 -0.156753 0.008245 0.051664
 14 4.826790 -0.004591 0.000000 0.097716 -0.011697 0.117902
 15 5.792767 -0.005304 0.000000 -0.156045 0.017174 0.107970
 16 6.662317 -0.001453 0.000000 -0.000144 -0.183150 0.165793
 17 2.046985 -0.000002 0.000000 0.080393 0.214700 -0.719060
 18 -2.576851 0.513317 4.888803 1.549104 -1.223524 1.490918
 19 4.827230 0.000000 0.000001 0.203637 0.996487 -0.100812
 20 11.139763 0.000000 0.000000 0.000000 -0.000000 -1.805529
 21 10.314597 0.000001 0.000000 -1.656915 -0.276267 -0.099909
 22 2.975834 -0.386307 -0.044143 -0.021458 -0.037954 0.497456
 23 1.438886 0.000000 0.000000 0.000000 -0.000000 0.889650
 24 1.485303 0.000000 0.000000 0.000000 -0.000000 1.116298
 25 -3.858210 0.473853 -3.507564 -0.638912 1.100194 2.336336
 26 4.972048 0.000000 0.000001 0.871543 -0.551985 -0.809606
 27 11.585355 0.000000 0.000000 0.000000 -0.000000 -0.841784
 28 10.127057 0.000000 0.000001 2.557644 0.128481 0.339814
 29 2.683750 -0.427338 0.044205 -0.013984 0.041382 -0.350350
 30 1.438885 -0.000001 0.000000 0.000000 -0.000000 0.385011
 31 1.485305 0.000001 0.000000 0.000000 -0.000000 0.285845
time 8
  0 0.235347 -0.235347 3.446893 -0.000000 -0.000000 -1.571254
  1 0.000000 0.000000 0.000000 -1.570795 -1.570796 0.000000
  2 -0.000005 0.000007 3.713255 -6.281131 3.115177 6.261712
  3 18.045721 0.000000 0.000000 0.000000 -0.000000 -0.121501
  4 17.597597 0.000000 0.000000 -0.002613 0.026036 0.099967
  5 3.793090 6.407221 0.000000 0.000000 -0.000000 1.570796
  6 0.000005 -0.000003 -3.713255 6.280565 -3.123995 6.258640
  7 18.045725 0.000000 0.000000 0.000000 -0.000000 -0.127551
  8 17.597597 0.000000 0.000000 0.002950 -0.017289 0.103055
  9 3.793090 6.407221 0.000000 0.000000 -0.000000 1.570796
 10 0.935740 0.000000 0.000000 0.000000 -0.000000 0.000000
 11 0.935741 0.000000 0.000000 0.000000 -0.000000 0.000000
 12 1.293670 0.684478 -0.000001 -0.000004 -0.000001 -0.130033
 13 5.309685 -0.003834 0.000000 -0.156753 0.008245 0.051664
 14 4.826790 -0.004591 0.000000 0.020115 -0.002577 0.126479
 15 5.792767 -0.005304 0.000000 -0.155963 0.017761 0.111977
 16 6.662317 -0.001453 0.000000 -0.000144 -0.183150 0.165793
 17 2.046985 -0.000002 0.000000 0.153031 0.238383 -0.728993
 18 -2.576851 0.513317 4.888803 1.549104 -1.223524 1.490918
 19 4.827230 0.000000 0.000001 0.144020 1.030442 -0.207226
 20 11.139763 0.000000 0.000000 0.000000 -0.000000 -1.805529
 21 10.314597 0.000001 0.000000 -1.656915 -0.276267 -0.099909
 22 2.975834 -0.386307 -0.044143 -0.021458 -0.037954 0.497456
 23 1.438886 0.000000 0.000000 0.000000 -0.000000 0.889650
 24 1.485303 0.000000 0.000000 0.000000 -0.000000 1.116298
 25 -3.858210 0.473853 -3.507564 -0.521180 1.133885 2.453493
 26 4.972048 0.000000 0.000001 0.719541 -0.719061 -0.754273
 27 11.585355 0.000000 0.000000 0.000000 -0.000000 -0.942173
 28 10.127057 0.000000 0.000001 2.354116 0.136711 0.249517
 29 2.683750 -0.427338 0.044205 -0.012354 0.041837 -0.311243
 30 1.438885 -0.000001 0.000000 0.000000 -0.000000 0.455311
 31 1.485305 0.000001 0.000000 0.000000 -0.000000 0.464423
time 9
  0 0.235347 -0.235347 3.446893 -0.000000 -0.000000 -1.571254
  1 0.000000 0.000000 0.000000 -1.570795 -1.570796 0.000000
  2 -0.000005 0.000007 3.713255 -6.281131 3.115177 6.261712
  3 18.045721 0.000000 0.000000 0.000000 -0.000000 -0.121501
  4 17.597597 0.000000 0.000000 -0.002613 0.026036 0.099967
  5 3.793090 6.407221 0.000000 0.000000 -0.000000 1.570796
  6 0.000005 -0.000003 -3.713255 6.280565 -3.123995 6.258640
  7 18.045725 0.000000 0.000000 0.000000 -0.000000 -0.127551
  8 17.597597 0.000000 0.000000 0.002950 -0.017289 0.103055
  9 3.793090 6.407221 0.000000 0.000000 -0.000000 1.570796
 10 0.935740 0.000000 0.000000 0.000000 -0.000000 0.000000
 11 0.935741 0.000000 0.000000 0.000000 -0.000000 0.000000
 12 1.293670 0.684478 -0.000001 -0.000004 -0.000001 -0.130033
 13 5.309685 -0.003834 0.000000 -0.156753 0.008245 0.051664
 14 4.826790 -0.004591 0.000000 -0.055303 0.006076 0.109480
 15 5.792767 -0.005304 0.000000 -0.156077 0.016814 0.105956
 16 6.662317 -0.001453 0.000000 -0.000144 -0.183150 0.165793
 17 2.046985 -0.000002 0.000000 0.230623 0.261795 -0.701350
 18 -2.576851 0.513317 4.888803 1.549104 -1.223524 1.490918
 19 4.827230 0.000000 0.000001 0.120408 1.082864 -0.295262
 20 11.139763 0.000000 0.000000 0.000000 -0.000000 -1.805529
 21 10.314597 0.000001 0.000000 -1.656915 -0.276267 -0.099909
 22 2.975834 -0.386307 -0.044143 -0.021458 -0.037954 0.497456
 23 1.438886 0.000000 0.000000 0.000000 -0.000000 0.889650
 24 1.485303 0.000000 0.000000 0.000000 -0.000000 1.116298
 25 -3.858210 0.473853 -3.507564 -0.390409 1.160114 2.583401
 26 4.972048 0.000000 0.000001 0.465044 -0.872623 -0.594466
 27 11.585355 0.000000 0.000000 0.000000 -0.000000 -1.159459
 28 10.127057 0.000000 0.000001 2.156512 0.127236 0.161809
 29 2.683750 -0.427338 0.044205 -0.010760 0.042329 -0.273242
 30 1.438885 -0.000001 0.000000 0.000000 -0.000000 0.523649
 31 1.485305 0.000001 0.000000 0.000000 -0.000000 0.637970
time 10
  0 0.235347 -0.235347 3.446893 -0.000000 -0.000000 -1.571254
  1 0.000000 0.000000 0.000000 -1.570795 -1.570796 0.000000
  2 -0.000005 0.000007 3.713255 -6.281131 3.115177 6.261712
  3 18.045721 0.000000 0.000000 0.000000 -0.000000 -0.121501
  4 17.597597 0.000000 0.000000 -0.002613 0.026036 0.099967
  5 3.793090 6.407221 0.000000 0.000000 -0.000000 1.570796
  6 0.000005 -0.000003 -3.713255 6.280565 -3.123995 6.258640
  7 18.045725 0.000000 0.000000 0.000000 -0.000000 -0.127551
  8 17.597597 0.000000 0.000000 0.002950 -0.017289 0.103055
  9 3.793090 6.407221 0.000000 0.000000 -0.000000 1.570796
 10 0.935740 0.000000 0.000000 0.000000 -0.000000 0.000000
 11 0.935741 0.000000 0.000000 0.000000 -0.000000 0.000000
 12 1.293670 0.684478 -0.000001 -0.000004 -0.000001 -0.130033
 13 5.309685 -0.003834 0.000000 -0.156753 0.008245 0.051664
 14 4.826790 -0.004591 0.000000 -0.141196 0.010187 0.070741
 15 5.792767 -0.005304 0.000000 -0.156306 0.014537 0.091443
 16 6.662317 -0.001453 0.000000 -0.000144 -0.183150 0.165793
 17 2.046985 -0.000002 0.000000 0.324285 0.287910 -0.640177
 18 -2.576851 0.513317 4.888803 1.549104 -1.223524 1.490918
 19 4.827230 0.000000 0.000001 0.104196 1.158008 -0.390737
 20 11.139763 0.000000 0.000000 0.000000 -0.000000 -1.805529
 21 10.314597 0.000001 0.000000 -1.656915 -0.276267 -0.099909
 22 2.975834 -0.386307 -0.044143 -0.021458 -0.037954 0.497456
 23 1.438886 0.000000 0.000000 0.000000 -0.000000 0.889650
 24 1.485303 0.000000 0.000000 0.000000 -0.000000 1.116298
 25 -3.858210 0.473853 -3.507564 -0.224836 1.180662 2.747920
 26 4.972048 0.000000 0.000001 0.009502 -0.970922 -0.246396
 27 11.585355 0.000000 0.000000 0.000000 -0.000000 -1.497420
 28 10.127057 0.000000 0.000001 1.935211 0.096266 0.067511
 29 2.683750 -0.427338 0.044205 -0.008878 0.042700 -0.230270
 30 1.438885 -0.000001 0.000000 0.000000 -0.000000 0.601003
 31 1.485305 0.000001 0.000000 0.000000 -0.000000 0.834341
time 11
  0 0.235347 -0.235347 3.446893 -0.000000 -0.000000 -1.571254
  1 0.000000 0.000000 0.000000 -1.570795 -1.570796 0.000000
  2 -0.000005 0.000007 3.713255 -6.281131 3.115177 6.261712
  3 18.045721 0.000000 0.000000 0.000000 -0.000000 -0.121501
  4 17.597597 0.000000 0.000000 -0.002613 0.026036 0.099967
  5 3.793090 6.407221 0.000000 0.000000 -0.000000 1.570796
  6 0.000005 -0.000003 -3.713255 6.280565 -3.123995 6.258640
  7 18.045725 0.000000 0.000000 0.000000 -0.000000 -0.127551
  8 17.597597 0.000000 0.000000 0.002950 -0.017289 0.103055
  9 3.793090 6.407221 0.000000 0.000000 -0.000000 1.570796
 10 0.935740 0.000000 0.000000 0.000000 -0.000000 0.000000
 11 0.935741 0.000000 0.000000 0.000000 -0.000000 0.000000
 12 1.293670 0.684478 -0.000001 -0.000004 -0.000001 -0.130033
 13 5.309685 -0.003834 0.000000 -0.156753 0.008245 0.051664
 14 4.826790 -0.004591 0.000000 -0.225037 0.005825 0.024726
 15 5.792767 -0.005304 0.000000 -0.156518 0.012045 0.075663
 16 6.662317 -0.001453 0.000000 -0.000144 -0.183150 0.165793
 17 2.046985 -0.000002 0.000000 0.418766 0.311750 -0.566417
 18 -2.576851 0.513317 4.888803 1.549104 -1.223524 1.490918
 19 4.827230 0.000000 0.000001 0.040702 1.239960 -0.555958
 20 11.139763 0.000000 0.000000 0.000000 -0.000000 -1.805529
 21 10.314597 0.000001 0.000000 -1.656915 -0.276267 -0.099909
 22 2.975834 -0.386307 -0.044143 -0.021458 -0.037954 0.497456
 23 1.438886 0.000000 0.000000 0.000000 -0.000000 0.889650
 24 1.485303 0.000000 0.000000 0.000000 -0.000000 1.116298
 25 -3.858210 0.473853 -3.507564 -0.051785 1.189678 2.920300
 26 4.972048 0.000000 0.000001 -0.487812 -0.924266 0.144558
 27 11.585355 0.000000 0.000000 0.000000 -0.000000 -1.870081
 28 10.127057 0.000000 0.000001 1.724612 0.047321 -0.015490
 29 2.683750 -0.427338 0.044205 -0.007117 0.043084 -0.188438
 30 1.438885 -0.000001 0.000000 0.000000 -0.000000 0.676162
 31 1.485305 0.000001 0.000000 0.000000 -0.000000 1.025308
time 12
  0 0.235347 -0.235347 3.446893 -0.000000 -0.000000 -1.571254
  1 0.000000 0.000000 0.000000 -1.570795 -1.570796 0.000000
  2 -0.000005 0.000007 3.713255 -6.281131 3.115177 6.261712
  3 18.045721 0.000000 0.000000 0.000000 -0.000000 -0.121501
  4 17.597597 0.000000 0.000000 -0.002613 0.026036 0.099967
  5 3.793090 6.407221 0.000000 0.000000 -0.000000 1.570796
  6 0.000005 -0.000003 -3.713255 6.280565 -3.123995 6.258640
  7 18.045725 0.000000 0.000000 0.000000 -0.000000 -0.127551
  8 17.597597 0.000000 0.000000 0.002950 -0.017289 0.103055
  9 3.793090 6.407221 0.000000 0.000000 -0.000000 1.570796
 10 0.935740 0.000000 0.000000 0.000000 -0.000000 0.000000
 11 0.935741 0.000000 0.000000 0.000000 -0.000000 0.000000
 12 1.293670 0.684478 -0.000001 -0.000004 -0.000001 -0.130033
 13 5.309685 -0.003834 0.000000 -0.156753 0.008245 0.051664
 14 4.826790 -0.004591 0.000000 -0.287811 -0.002193 -0.008412
 15 5.792767 -0.005304 0.000000 -0.156583 0.011026 0.068853
 16 6.662317 -0.001453 0.000000 -0.000144 -0.183150 0.165793
 17 2.046985 -0.000002 0.000000 0.489422 0.328049 -0.515402
 18 -2.576851 0.513317 4.888803 1.549104 -1.223524 1.490918
 19 4.827230 0.000000 0.000001 -0.109428 1.291361 -0.809828
 20 11.139763 0.000000 0.000000 0.000000 -0.000000 -1.805529
 21 10.314597 0.000001 0.000000 -1.656915 -0.276267 -0.099909
 22 2.975834 -0.386307 -0.044143 -0.021458 -0.037954 0.497456
 23 1.438886 0.000000 0.000000 0.000000 -0.000000 0.889650
 24 1.485303 0.000000 0.000000 0.000000 -0.000000 1.116298
 25 -3.858210 0.473853 -3.507564 0.080425 1.189000 3.052509
 26 4.972048 0.000000 0.000001 -0.765902 -0.808431 0.341846
 27 11.585355 0.000000 0.000000 0.000000 -0.000000 -2.147530
 28 10.127057 0.000000 0.000001 1.569752 0.000000 -0.069778
 29 2.683750 -0.427338 0.044205 -0.005738 0.043239 -0.157060
 30 1.438885 -0.000001 0.000000 0.000000 -0.000000 0.732589
 31 1.485305 0.000001 0.000000 0.000000 -0.000000 1.168627
end
