version 1
nodes
  0 "Bip01"  -1
  1 "Bip01 Pelvis"   0
  2 "Bip01 L Leg"   1
  3 "Bip01 L Leg1"   2
  4 "Bip01 L Foot"   3
  5 "Bip01 L Toe0"   4
  6 "Bip01 R Leg"   1
  7 "Bip01 R Leg1"   6
  8 "Bip01 R Foot"   7
  9 "Bip01 R Toe0"   8
 10 "Bip01 R Toe01"   9
 11 "Bip01 R Toe02"  10
 12 "Bip01 Spine"   1
 13 "Bip01 Spine1"  12
 14 "Bip01 Spine2"  13
 15 "Bip01 Spine3"  14
 16 "Bip01 Neck"  15
 17 "Bip01 Head"  16
 18 "Bip01 L Arm"  16
 19 "Bip01 L Arm1"  18
 20 "Bip01 L Arm2"  19
 21 "Bip01 L Hand"  20
 22 "Bip01 L Finger1"  21
 23 "Bip01 L Finger11"  22
 24 "Bip01 L Finger12"  23
 25 "Bip01 R Arm"  16
 26 "Bip01 R Arm1"  25
 27 "Bip01 R Arm2"  26
 28 "Bip01 R Hand"  27
 29 "Bip01 R Finger1"  28
 30 "Bip01 R Finger11"  29
 31 "Bip01 R Finger12"  30
end
skeleton
time 0
  0 0.235347 -0.235347 3.532833 -0.000000 -0.000000 -1.571254
  1 0.000000 0.000000 0.000000 -1.570795 -1.570796 0.000000
  2 -0.000005 0.000007 3.713255 -6.281131 3.115177 6.261712
  3 18.045721 0.000000 0.000000 0.000000 -0.000000 -0.121501
  4 17.597597 0.000000 0.000000 -0.002613 0.026036 0.099967
  5 3.793090 6.407221 0.000000 0.000000 -0.000000 1.570796
  6 0.000005 -0.000003 -3.713255 6.280565 -3.123995 6.258640
  7 18.045725 0.000000 0.000000 0.000000 -0.000000 -0.127551
  8 17.597597 0.000000 0.000000 0.002950 -0.017289 0.103055
  9 3.793090 6.407221 0.000000 0.000000 -0.000000 1.570796
 10 0.935740 0.000000 0.000000 0.000000 -0.000000 0.000000
 11 0.935741 0.000000 0.000000 0.000000 -0.000000 0.000000
 12 1.293670 0.684478 -0.000001 -0.000004 -0.000001 0.306054
 13 5.309685 -0.003834 0.000000 0.000000 -0.000000 -0.000013
 14 4.826790 -0.004591 0.000000 -0.173330 0.019775 0.111663
 15 5.792767 -0.005304 0.000000 -0.138174 0.019451 0.138180
 16 6.662317 -0.001453 0.000000 0.000000 -0.000001 0.471000
 17 2.046985 -0.000002 0.000000 0.254577 -0.184691 -0.061026
 18 -3.112024 1.517254 4.341911 -0.257721 -1.364220 2.922348
 19 4.827230 0.000000 0.000001 0.416909 1.127542 0.213791
 20 11.139763 0.000000 0.000000 0.000000 -0.000000 -0.883769
 21 10.314597 0.000001 0.000000 -1.642354 0.083241 -0.332944
 22 2.975834 -0.386307 -0.044143 -0.023088 -0.037007 0.541079
 23 1.438886 0.000000 0.000000 0.000000 -0.000000 1.700833
 24 1.485303 0.000000 0.000000 0.000000 -0.000000 1.229654
 25 -2.869898 1.399663 -4.140396 0.672346 1.317206 3.326706
 26 4.972048 0.000000 0.000001 0.424974 -1.223104 -0.973694
 27 11.585355 0.000000 0.000000 0.000000 -0.000000 -0.950567
 28 10.127057 0.000000 0.000001 1.537200 -0.015052 -0.019687
 29 2.683750 -0.427338 0.044205 -0.005738 0.043239 -0.157060
 30 1.438885 -0.000001 0.000000 0.000000 -0.000000 0.732589
 31 1.485305 0.000001 0.000000 0.000000 -0.000000 1.168627
time 1
  0 0.235347 -0.235347 3.532833 -0.000000 -0.000000 -1.571254
  1 0.000000 0.000000 0.000000 -1.570795 -1.570796 0.000000
  2 -0.000005 0.000007 3.713255 -6.281131 3.115177 6.261712
  3 18.045721 0.000000 0.000000 0.000000 -0.000000 -0.121501
  4 17.597597 0.000000 0.000000 -0.002613 0.026036 0.099967
  5 3.793090 6.407221 0.000000 0.000000 -0.000000 1.570796
  6 0.000005 -0.000003 -3.713255 6.280565 -3.123995 6.258640
  7 18.045725 0.000000 0.000000 0.000000 -0.000000 -0.127551
  8 17.597597 0.000000 0.000000 0.002950 -0.017289 0.103055
  9 3.793090 6.407221 0.000000 0.000000 -0.000000 1.570796
 10 0.935740 0.000000 0.000000 0.000000 -0.000000 0.000000
 11 0.935741 0.000000 0.000000 0.000000 -0.000000 0.000000
 12 1.293670 0.684478 -0.000001 -0.000004 -0.000001 0.306054
 13 5.309685 -0.003834 0.000000 0.000000 -0.000000 -0.000013
 14 4.826790 -0.004591 0.000000 -0.173199 0.020590 0.116315
 15 5.792767 -0.005304 0.000000 -0.138174 0.019451 0.138180
 16 6.662317 -0.001453 0.000000 0.000000 -0.000001 0.471000
 17 2.046985 -0.000002 0.000000 0.255094 -0.184128 -0.065565
 18 -3.112024 1.517254 4.341911 -0.251969 -1.359604 2.916116
 19 4.827230 0.000000 0.000001 0.403928 1.123287 0.201277
 20 11.139763 0.000000 0.000000 0.000000 -0.000000 -0.883769
 21 10.314597 0.000001 0.000000 -1.642354 0.083241 -0.332944
 22 2.975834 -0.386307 -0.044143 -0.023088 -0.037007 0.541079
 23 1.438886 0.000000 0.000000 0.000000 -0.000000 1.700833
 24 1.485303 0.000000 0.000000 0.000000 -0.000000 1.229654
 25 -2.869898 1.399663 -4.140396 0.662375 1.313786 3.316064
 26 4.972048 0.000000 0.000001 0.425129 -1.217795 -0.974419
 27 11.585355 0.000000 0.000000 0.000000 -0.000000 -0.950567
 28 10.127057 0.000000 0.000001 1.537200 -0.015052 -0.019687
 29 2.683750 -0.427338 0.044205 -0.005738 0.043239 -0.157060
 30 1.438885 -0.000001 0.000000 0.000000 -0.000000 0.732589
 31 1.485305 0.000001 0.000000 0.000000 -0.000000 1.168627
time 2
  0 0.235347 -0.235347 3.532833 -0.000000 -0.000000 -1.571254
  1 0.000000 0.000000 0.000000 -1.570795 -1.570796 0.000000
  2 -0.000005 0.000007 3.713255 -6.281131 3.115177 6.261712
  3 18.045721 0.000000 0.000000 0.000000 -0.000000 -0.121501
  4 17.597597 0.000000 0.000000 -0.002613 0.026036 0.099967
  5 3.793090 6.407221 0.000000 0.000000 -0.000000 1.570796
  6 0.000005 -0.000003 -3.713255 6.280565 -3.123995 6.258640
  7 18.045725 0.000000 0.000000 0.000000 -0.000000 -0.127551
  8 17.597597 0.000000 0.000000 0.002950 -0.017289 0.103055
  9 3.793090 6.407221 0.000000 0.000000 -0.000000 1.570796
 10 0.935740 0.000000 0.000000 0.000000 -0.000000 0.000000
 11 0.935741 0.000000 0.000000 0.000000 -0.000000 0.000000
 12 1.293670 0.684478 -0.000001 -0.000004 -0.000001 0.306054
 13 5.309685 -0.003834 0.000000 0.000000 -0.000000 -0.000013
 14 4.826790 -0.004591 0.000000 -0.173084 0.021644 0.122665
 15 5.792767 -0.005304 0.000000 -0.138174 0.019451 0.138180
 16 6.662317 -0.001453 0.000000 0.000000 -0.000001 0.471000
 17 2.046985 -0.000002 0.000000 0.255568 -0.183363 -0.072218
 18 -3.112024 1.517254 4.341911 -0.244874 -1.353335 2.909117
 19 4.827230 0.000000 0.000001 0.386601 1.117500 0.184475
 20 11.139763 0.000000 0.000000 0.000000 -0.000000 -0.883769
 21 10.314597 0.000001 0.000000 -1.642354 0.083241 -0.332944
 22 2.975834 -0.386307 -0.044143 -0.023088 -0.037007 0.541079
 23 1.438886 0.000000 0.000000 0.000000 -0.000000 1.700833
 24 1.485303 0.000000 0.000000 0.000000 -0.000000 1.229654
 25 -2.869898 1.399663 -4.140396 0.648665 1.309066 3.301875
 26 4.972048 0.000000 0.000001 0.424974 -1.210475 -0.975934
 27 11.585355 0.000000 0.000000 0.000000 -0.000000 -0.950567
 28 10.127057 0.000000 0.000001 1.537200 -0.015052 -0.019687
 29 2.683750 -0.427338 0.044205 -0.005738 0.043239 -0.157060
 30 1.438885 -0.000001 0.000000 0.000000 -0.000000 0.732589
 31 1.485305 0.000001 0.000000 0.000000 -0.000000 1.168627
time 3
  0 0.235347 -0.235347 3.532833 -0.000000 -0.000000 -1.571254
  1 0.000000 0.000000 0.000000 -1.570795 -1.570796 0.000000
  2 -0.000005 0.000007 3.713255 -6.281131 3.115177 6.261712
  3 18.045721 0.000000 0.000000 0.000000 -0.000000 -0.121501
  4 17.597597 0.000000 0.000000 -0.002613 0.026036 0.099967
  5 3.793090 6.407221 0.000000 0.000000 -0.000000 1.570796
  6 0.000005 -0.000003 -3.713255 6.280565 -3.123995 6.258640
  7 18.045725 0.000000 0.000000 0.000000 -0.000000 -0.127551
  8 17.597597 0.000000 0.000000 0.002950 -0.017289 0.103055
  9 3.793090 6.407221 0.000000 0.000000 -0.000000 1.570796
 10 0.935740 0.000000 0.000000 0.000000 -0.000000 0.000000
 11 0.935741 0.000000 0.000000 0.000000 -0.000000 0.000000
 12 1.293670 0.684478 -0.000001 -0.000004 -0.000001 0.306054
 13 5.309685 -0.003834 0.000000 0.000000 -0.000000 -0.000013
 14 4.826790 -0.004591 0.000000 -0.172887 0.022998 0.130426
 15 5.792767 -0.005304 0.000000 -0.138174 0.019451 0.138180
 16 6.662317 -0.001453 0.000000 0.000000 -0.000001 0.471000
 17 2.046985 -0.000002 0.000000 0.256128 -0.182417 -0.080083
 18 -3.112024 1.517254 4.341911 -0.236533 -1.345719 2.900584
 19 4.827230 0.000000 0.000001 0.366102 1.110692 0.164610
 20 11.139763 0.000000 0.000000 0.000000 -0.000000 -0.883769
 21 10.314597 0.000001 0.000000 -1.642354 0.083241 -0.332944
 22 2.975834 -0.386307 -0.044143 -0.023088 -0.037007 0.541079
 23 1.438886 0.000000 0.000000 0.000000 -0.000000 1.700833
 24 1.485303 0.000000 0.000000 0.000000 -0.000000 1.229654
 25 -2.869898 1.399663 -4.140396 0.632271 1.303300 3.285289
 26 4.972048 0.000000 0.000001 0.424974 -1.201707 -0.977515
 27 11.585355 0.000000 0.000000 0.000000 -0.000000 -0.950567
 28 10.127057 0.000000 0.000001 1.537200 -0.015052 -0.019687
 29 2.683750 -0.427338 0.044205 -0.005738 0.043239 -0.157060
 30 1.438885 -0.000001 0.000000 0.000000 -0.000000 0.732589
 31 1.485305 0.000001 0.000000 0.000000 -0.000000 1.168627
time 4
  0 0.235347 -0.235347 3.532833 -0.000000 -0.000000 -1.571254
  1 0.000000 0.000000 0.000000 -1.570795 -1.570796 0.000000
  2 -0.000005 0.000007 3.713255 -6.281131 3.115177 6.261712
  3 18.045721 0.000000 0.000000 0.000000 -0.000000 -0.121501
  4 17.597597 0.000000 0.000000 -0.002613 0.026036 0.099967
  5 3.793090 6.407221 0.000000 0.000000 -0.000000 1.570796
  6 0.000005 -0.000003 -3.713255 6.280565 -3.123995 6.258640
  7 18.045725 0.000000 0.000000 0.000000 -0.000000 -0.127551
  8 17.597597 0.000000 0.000000 0.002950 -0.017289 0.103055
  9 3.793090 6.407221 0.000000 0.000000 -0.000000 1.570796
 10 0.935740 0.000000 0.000000 0.000000 -0.000000 0.000000
 11 0.935741 0.000000 0.000000 0.000000 -0.000000 0.000000
 12 1.293670 0.684478 -0.000001 -0.000004 -0.000001 0.306054
 13 5.309685 -0.003834 0.000000 0.000000 -0.000000 -0.000013
 14 4.826790 -0.004591 0.000000 -0.172690 0.024544 0.139245
 15 5.792767 -0.005304 0.000000 -0.138174 0.019451 0.138180
 16 6.662317 -0.001453 0.000000 0.000000 -0.000001 0.471000
 17 2.046985 -0.000002 0.000000 0.256645 -0.181336 -0.088938
 18 -3.112024 1.517254 4.341911 -0.227713 -1.336988 2.891380
 19 4.827230 0.000000 0.000001 0.343371 1.102267 0.142557
 20 11.139763 0.000000 0.000000 0.000000 -0.000000 -0.883769
 21 10.314597 0.000001 0.000000 -1.642354 0.083241 -0.332944
 22 2.975834 -0.386307 -0.044143 -0.023088 -0.037007 0.541079
 23 1.438886 0.000000 0.000000 0.000000 -0.000000 1.700833
 24 1.485303 0.000000 0.000000 0.000000 -0.000000 1.229654
 25 -2.869898 1.399663 -4.140396 0.615301 1.296545 3.267169
 26 4.972048 0.000000 0.000001 0.424742 -1.191652 -0.979557
 27 11.585355 0.000000 0.000000 0.000000 -0.000000 -0.950567
 28 10.127057 0.000000 0.000001 1.537200 -0.015052 -0.019687
 29 2.683750 -0.427338 0.044205 -0.005738 0.043239 -0.157060
 30 1.438885 -0.000001 0.000000 0.000000 -0.000000 0.732589
 31 1.485305 0.000001 0.000000 0.000000 -0.000000 1.168627
time 5
  0 0.235347 -0.235347 3.532833 -0.000000 -0.000000 -1.571254
  1 0.000000 0.000000 0.000000 -1.570795 -1.570796 0.000000
  2 -0.000005 0.000007 3.713255 -6.281131 3.115177 6.261712
  3 18.045721 0.000000 0.000000 0.000000 -0.000000 -0.121501
  4 17.597597 0.000000 0.000000 -0.002613 0.026036 0.099967
  5 3.793090 6.407221 0.000000 0.000000 -0.000000 1.570796
  6 0.000005 -0.000003 -3.713255 6.280565 -3.123995 6.258640
  7 18.045725 0.000000 0.000000 0.000000 -0.000000 -0.127551
  8 17.597597 0.000000 0.000000 0.002950 -0.017289 0.103055
  9 3.793090 6.407221 0.000000 0.000000 -0.000000 1.570796
 10 0.935740 0.000000 0.000000 0.000000 -0.000000 0.000000
 11 0.935741 0.000000 0.000000 0.000000 -0.000000 0.000000
 12 1.293670 0.684478 -0.000001 -0.000004 -0.000001 0.306054
 13 5.309685 -0.003834 0.000000 0.000000 -0.000000 -0.000013
 14 4.826790 -0.004591 0.000000 -0.172460 0.026222 0.148836
 15 5.792767 -0.005304 0.000000 -0.138174 0.019451 0.138180
 16 6.662317 -0.001453 0.000000 0.000000 -0.000001 0.471000
 17 2.046985 -0.000002 0.000000 0.257464 -0.180166 -0.098917
 18 -3.112024 1.517254 4.341911 -0.218701 -1.327488 2.882080
 19 4.827230 0.000000 0.000001 0.319700 1.092906 0.119279
 20 11.139763 0.000000 0.000000 0.000000 -0.000000 -0.883769
 21 10.314597 0.000001 0.000000 -1.642354 0.083241 -0.332944
 22 2.975834 -0.386307 -0.044143 -0.023088 -0.037007 0.541079
 23 1.438886 0.000000 0.000000 0.000000 -0.000000 1.700833
 24 1.485303 0.000000 0.000000 0.000000 -0.000000 1.229654
 25 -2.869898 1.399663 -4.140396 0.597277 1.289083 3.248186
 26 4.972048 0.000000 0.000001 0.424510 -1.180551 -0.981599
 27 11.585355 0.000000 0.000000 0.000000 -0.000000 -0.950567
 28 10.127057 0.000000 0.000001 1.537200 -0.015052 -0.019687
 29 2.683750 -0.427338 0.044205 -0.005738 0.043239 -0.157060
 30 1.438885 -0.000001 0.000000 0.000000 -0.000000 0.732589
 31 1.485305 0.000001 0.000000 0.000000 -0.000000 1.168627
time 6
  0 0.235347 -0.235347 3.532833 -0.000000 -0.000000 -1.571254
  1 0.000000 0.000000 0.000000 -1.570795 -1.570796 0.000000
  2 -0.000005 0.000007 3.713255 -6.281131 3.115177 6.261712
  3 18.045721 0.000000 0.000000 0.000000 -0.000000 -0.121501
  4 17.597597 0.000000 0.000000 -0.002613 0.026036 0.099967
  5 3.793090 6.407221 0.000000 0.000000 -0.000000 1.570796
  6 0.000005 -0.000003 -3.713255 6.280565 -3.123995 6.258640
  7 18.045725 0.000000 0.000000 0.000000 -0.000000 -0.127551
  8 17.597597 0.000000 0.000000 0.002950 -0.017289 0.103055
  9 3.793090 6.407221 0.000000 0.000000 -0.000000 1.570796
 10 0.935740 0.000000 0.000000 0.000000 -0.000000 0.000000
 11 0.935741 0.000000 0.000000 0.000000 -0.000000 0.000000
 12 1.293670 0.684478 -0.000001 -0.000004 -0.000001 0.306054
 13 5.309685 -0.003834 0.000000 0.000000 -0.000000 -0.000013
 14 4.826790 -0.004591 0.000000 -0.172181 0.028032 0.158956
 15 5.792767 -0.005304 0.000000 -0.138174 0.019451 0.138180
 16 6.662317 -0.001453 0.000000 0.000000 -0.000001 0.471000
 17 2.046985 -0.000002 0.000000 0.258153 -0.178905 -0.109255
 18 -3.112024 1.517254 4.341911 -0.210168 -1.317411 2.873451
 19 4.827230 0.000000 0.000001 0.295736 1.082864 0.095913
 20 11.139763 0.000000 0.000000 0.000000 -0.000000 -0.883769
 21 10.314597 0.000001 0.000000 -1.642354 0.083241 -0.332944
 22 2.975834 -0.386307 -0.044143 -0.023088 -0.037007 0.541079
 23 1.438886 0.000000 0.000000 0.000000 -0.000000 1.700833
 24 1.485303 0.000000 0.000000 0.000000 -0.000000 1.229654
 25 -2.869898 1.399663 -4.140396 0.579349 1.281254 3.229778
 26 4.972048 0.000000 0.000001 0.424278 -1.169048 -0.983707
 27 11.585355 0.000000 0.000000 0.000000 -0.000000 -0.950567
 28 10.127057 0.000000 0.000001 1.537200 -0.015052 -0.019687
 29 2.683750 -0.427338 0.044205 -0.005738 0.043239 -0.157060
 30 1.438885 -0.000001 0.000000 0.000000 -0.000000 0.732589
 31 1.485305 0.000001 0.000000 0.000000 -0.000000 1.168627
time 7
  0 0.235347 -0.235347 3.532833 -0.000000 -0.000000 -1.571254
  1 0.000000 0.000000 0.000000 -1.570795 -1.570796 0.000000
  2 -0.000005 0.000007 3.713255 -6.281131 3.115177 6.261712
  3 18.045721 0.000000 0.000000 0.000000 -0.000000 -0.121501
  4 17.597597 0.000000 0.000000 -0.002613 0.026036 0.099967
  5 3.793090 6.407221 0.000000 0.000000 -0.000000 1.570796
  6 0.000005 -0.000003 -3.713255 6.280565 -3.123995 6.258640
  7 18.045725 0.000000 0.000000 0.000000 -0.000000 -0.127551
  8 17.597597 0.000000 0.000000 0.002950 -0.017289 0.103055
  9 3.793090 6.407221 0.000000 0.000000 -0.000000 1.570796
 10 0.935740 0.000000 0.000000 0.000000 -0.000000 0.000000
 11 0.935741 0.000000 0.000000 0.000000 -0.000000 0.000000
 12 1.293670 0.684478 -0.000001 -0.000004 -0.000001 0.306054
 13 5.309685 -0.003834 0.000000 0.000000 -0.000000 -0.000013
 14 4.826790 -0.004591 0.000000 -0.171869 0.029830 0.169363
 15 5.792767 -0.005304 0.000000 -0.138174 0.019451 0.138180
 16 6.662317 -0.001453 0.000000 0.000000 -0.000001 0.471000
 17 2.046985 -0.000002 0.000000 0.258756 -0.177622 -0.119592
 18 -3.112024 1.517254 4.341911 -0.202019 -1.307180 2.865014
 19 4.827230 0.000000 0.000001 0.272300 1.072652 0.072985
 20 11.139763 0.000000 0.000000 0.000000 -0.000000 -0.883769
 21 10.314597 0.000001 0.000000 -1.642354 0.083241 -0.332944
 22 2.975834 -0.386307 -0.044143 -0.023088 -0.037007 0.541079
 23 1.438886 0.000000 0.000000 0.000000 -0.000000 1.700833
 24 1.485303 0.000000 0.000000 0.000000 -0.000000 1.229654
 25 -2.869898 1.399663 -4.140396 0.561996 1.273114 3.211754
 26 4.972048 0.000000 0.000001 0.423814 -1.157384 -0.986210
 27 11.585355 0.000000 0.000000 0.000000 -0.000000 -0.950567
 28 10.127057 0.000000 0.000001 1.537200 -0.015052 -0.019687
 29 2.683750 -0.427338 0.044205 -0.005738 0.043239 -0.157060
 30 1.438885 -0.000001 0.000000 0.000000 -0.000000 0.732589
 31 1.485305 0.000001 0.000000 0.000000 -0.000000 1.168627
time 8
  0 0.235347 -0.235347 3.532833 -0.000000 -0.000000 -1.571254
  1 0.000000 0.000000 0.000000 -1.570795 -1.570796 0.000000
  2 -0.000005 0.000007 3.713255 -6.281131 3.115177 6.261712
  3 18.045721 0.000000 0.000000 0.000000 -0.000000 -0.121501
  4 17.597597 0.000000 0.000000 -0.002613 0.026036 0.099967
  5 3.793090 6.407221 0.000000 0.000000 -0.000000 1.570796
  6 0.000005 -0.000003 -3.713255 6.280565 -3.123995 6.258640
  7 18.045725 0.000000 0.000000 0.000000 -0.000000 -0.127551
  8 17.597597 0.000000 0.000000 0.002950 -0.017289 0.103055
  9 3.793090 6.407221 0.000000 0.000000 -0.000000 1.570796
 10 0.935740 0.000000 0.000000 0.000000 -0.000000 0.000000
 11 0.935741 0.000000 0.000000 0.000000 -0.000000 0.000000
 12 1.293670 0.684478 -0.000001 -0.000004 -0.000001 0.306054
 13 5.309685 -0.003834 0.000000 0.000000 -0.000000 -0.000013
 14 4.826790 -0.004591 0.000000 -0.171557 0.031555 0.179527
 15 5.792767 -0.005304 0.000000 -0.138174 0.019451 0.138180
 16 6.662317 -0.001453 0.000000 0.000000 -0.000001 0.471000
 17 2.046985 -0.000002 0.000000 0.259359 -0.176339 -0.129975
 18 -3.112024 1.517254 4.341911 -0.194541 -1.296988 2.857344
 19 4.827230 0.000000 0.000001 0.250039 1.061759 0.050932
 20 11.139763 0.000000 0.000000 0.000000 -0.000000 -0.883769
 21 10.314597 0.000001 0.000000 -1.642354 0.083241 -0.332944
 22 2.975834 -0.386307 -0.044143 -0.023088 -0.037007 0.541079
 23 1.438886 0.000000 0.000000 0.000000 -0.000000 1.700833
 24 1.485303 0.000000 0.000000 0.000000 -0.000000 1.229654
 25 -2.869898 1.399663 -4.140396 0.545793 1.264974 3.194497
 26 4.972048 0.000000 0.000001 0.423195 -1.145720 -0.988318
 27 11.585355 0.000000 0.000000 0.000000 -0.000000 -0.950567
 28 10.127057 0.000000 0.000001 1.537200 -0.015052 -0.019687
 29 2.683750 -0.427338 0.044205 -0.005738 0.043239 -0.157060
 30 1.438885 -0.000001 0.000000 0.000000 -0.000000 0.732589
 31 1.485305 0.000001 0.000000 0.000000 -0.000000 1.168627
time 9
  0 0.235347 -0.235347 3.532833 -0.000000 -0.000000 -1.571254
  1 0.000000 0.000000 0.000000 -1.570795 -1.570796 0.000000
  2 -0.000005 0.000007 3.713255 -6.281131 3.115177 6.261712
  3 18.045721 0.000000 0.000000 0.000000 -0.000000 -0.121501
  4 17.597597 0.000000 0.000000 -0.002613 0.026036 0.099967
  5 3.793090 6.407221 0.000000 0.000000 -0.000000 1.570796
  6 0.000005 -0.000003 -3.713255 6.280565 -3.123995 6.258640
  7 18.045725 0.000000 0.000000 0.000000 -0.000000 -0.127551
  8 17.597597 0.000000 0.000000 0.002950 -0.017289 0.103055
  9 3.793090 6.407221 0.000000 0.000000 -0.000000 1.570796
 10 0.935740 0.000000 0.000000 0.000000 -0.000000 0.000000
 11 0.935741 0.000000 0.000000 0.000000 -0.000000 0.000000
 12 1.293670 0.684478 -0.000001 -0.000004 -0.000001 0.306054
 13 5.309685 -0.003834 0.000000 0.000000 -0.000000 -0.000013
 14 4.826790 -0.004591 0.000000 -0.171245 0.033257 0.189427
 15 5.792767 -0.005304 0.000000 -0.138174 0.019451 0.138180
 16 6.662317 -0.001453 0.000000 0.000000 -0.000001 0.471000
 17 2.046985 -0.000002 0.000000 0.260178 -0.175123 -0.140134
 18 -3.112024 1.517254 4.341911 -0.187734 -1.287218 2.850441
 19 4.827230 0.000000 0.000001 0.229716 1.051547 0.030717
 20 11.139763 0.000000 0.000000 0.000000 -0.000000 -0.883769
 21 10.314597 0.000001 0.000000 -1.642354 0.083241 -0.332944
 22 2.975834 -0.386307 -0.044143 -0.023088 -0.037007 0.541079
 23 1.438886 0.000000 0.000000 0.000000 -0.000000 1.700833
 24 1.485303 0.000000 0.000000 0.000000 -0.000000 1.229654
 25 -2.869898 1.399663 -4.140396 0.531029 1.257060 3.179253
 26 4.972048 0.000000 0.000001 0.422576 -1.134619 -0.990426
 27 11.585355 0.000000 0.000000 0.000000 -0.000000 -0.950567
 28 10.127057 0.000000 0.000001 1.537200 -0.015052 -0.019687
 29 2.683750 -0.427338 0.044205 -0.005738 0.043239 -0.157060
 30 1.438885 -0.000001 0.000000 0.000000 -0.000000 0.732589
 31 1.485305 0.000001 0.000000 0.000000 -0.000000 1.168627
time 10
  0 0.235347 -0.235347 3.532833 -0.000000 -0.000000 -1.571254
  1 0.000000 0.000000 0.000000 -1.570795 -1.570796 0.000000
  2 -0.000005 0.000007 3.713255 -6.281131 3.115177 6.261712
  3 18.045721 0.000000 0.000000 0.000000 -0.000000 -0.121501
  4 17.597597 0.000000 0.000000 -0.002613 0.026036 0.099967
  5 3.793090 6.407221 0.000000 0.000000 -0.000000 1.570796
  6 0.000005 -0.000003 -3.713255 6.280565 -3.123995 6.258640
  7 18.045725 0.000000 0.000000 0.000000 -0.000000 -0.127551
  8 17.597597 0.000000 0.000000 0.002950 -0.017289 0.103055
  9 3.793090 6.407221 0.000000 0.000000 -0.000000 1.570796
 10 0.935740 0.000000 0.000000 0.000000 -0.000000 0.000000
 11 0.935741 0.000000 0.000000 0.000000 -0.000000 0.000000
 12 1.293670 0.684478 -0.000001 -0.000004 -0.000001 0.306054
 13 5.309685 -0.003834 0.000000 0.000000 -0.000000 -0.000013
 14 4.826790 -0.004591 0.000000 -0.170933 0.034839 0.198577
 15 5.792767 -0.005304 0.000000 -0.138174 0.019451 0.138180
 16 6.662317 -0.001453 0.000000 0.000000 -0.000001 0.471000
 17 2.046985 -0.000002 0.000000 0.260781 -0.173952 -0.149438
 18 -3.112024 1.517254 4.341911 -0.182173 -1.278102 2.844113
 19 4.827230 0.000000 0.000001 0.211508 1.041420 0.012515
 20 11.139763 0.000000 0.000000 0.000000 -0.000000 -0.883769
 21 10.314597 0.000001 0.000000 -1.642354 0.083241 -0.332944
 22 2.975834 -0.386307 -0.044143 -0.023088 -0.037007 0.541079
 23 1.438886 0.000000 0.000000 0.000000 -0.000000 1.700833
 24 1.485303 0.000000 0.000000 0.000000 -0.000000 1.229654
 25 -2.869898 1.399663 -4.140396 0.517990 1.249598 3.165543
 26 4.972048 0.000000 0.000001 0.422035 -1.124403 -0.992468
 27 11.585355 0.000000 0.000000 0.000000 -0.000000 -0.950567
 28 10.127057 0.000000 0.000001 1.537200 -0.015052 -0.019687
 29 2.683750 -0.427338 0.044205 -0.005738 0.043239 -0.157060
 30 1.438885 -0.000001 0.000000 0.000000 -0.000000 0.732589
 31 1.485305 0.000001 0.000000 0.000000 -0.000000 1.168627
time 11
  0 0.235347 -0.235347 3.532833 -0.000000 -0.000000 -1.571254
  1 0.000000 0.000000 0.000000 -1.570795 -1.570796 0.000000
  2 -0.000005 0.000007 3.713255 -6.281131 3.115177 6.261712
  3 18.045721 0.000000 0.000000 0.000000 -0.000000 -0.121501
  4 17.597597 0.000000 0.000000 -0.002613 0.026036 0.099967
  5 3.793090 6.407221 0.000000 0.000000 -0.000000 1.570796
  6 0.000005 -0.000003 -3.713255 6.280565 -3.123995 6.258640
  7 18.045725 0.000000 0.000000 0.000000 -0.000000 -0.127551
  8 17.597597 0.000000 0.000000 0.002950 -0.017289 0.103055
  9 3.793090 6.407221 0.000000 0.000000 -0.000000 1.570796
 10 0.935740 0.000000 0.000000 0.000000 -0.000000 0.000000
 11 0.935741 0.000000 0.000000 0.000000 -0.000000 0.000000
 12 1.293670 0.684478 -0.000001 -0.000004 -0.000001 0.306054
 13 5.309685 -0.003834 0.000000 0.000000 -0.000000 -0.000013
 14 4.826790 -0.004591 0.000000 -0.170654 0.036241 0.206713
 15 5.792767 -0.005304 0.000000 -0.138174 0.019451 0.138180
 16 6.662317 -0.001453 0.000000 0.000000 -0.000001 0.471000
 17 2.046985 -0.000002 0.000000 0.261298 -0.172939 -0.157528
 18 -3.112024 1.517254 4.341911 -0.177188 -1.269948 2.839319
 19 4.827230 0.000000 0.000001 0.195708 1.032825 -0.003237
 20 11.139763 0.000000 0.000000 0.000000 -0.000000 -0.883769
 21 10.314597 0.000001 0.000000 -1.642354 0.083241 -0.332944
 22 2.975834 -0.386307 -0.044143 -0.023088 -0.037007 0.541079
 23 1.438886 0.000000 0.000000 0.000000 -0.000000 1.700833
 24 1.485303 0.000000 0.000000 0.000000 -0.000000 1.229654
 25 -2.869898 1.399663 -4.140396 0.506773 1.242928 3.153847
 26 4.972048 0.000000 0.000001 0.421416 -1.115233 -0.994510
 27 11.585355 0.000000 0.000000 0.000000 -0.000000 -0.950567
 28 10.127057 0.000000 0.000001 1.537200 -0.015052 -0.019687
 29 2.683750 -0.427338 0.044205 -0.005738 0.043239 -0.157060
 30 1.438885 -0.000001 0.000000 0.000000 -0.000000 0.732589
 31 1.485305 0.000001 0.000000 0.000000 -0.000000 1.168627
time 12
  0 0.235347 -0.235347 3.532833 -0.000000 -0.000000 -1.571254
  1 0.000000 0.000000 0.000000 -1.570795 -1.570796 0.000000
  2 -0.000005 0.000007 3.713255 -6.281131 3.115177 6.261712
  3 18.045721 0.000000 0.000000 0.000000 -0.000000 -0.121501
  4 17.597597 0.000000 0.000000 -0.002613 0.026036 0.099967
  5 3.793090 6.407221 0.000000 0.000000 -0.000000 1.570796
  6 0.000005 -0.000003 -3.713255 6.280565 -3.123995 6.258640
  7 18.045725 0.000000 0.000000 0.000000 -0.000000 -0.127551
  8 17.597597 0.000000 0.000000 0.002950 -0.017289 0.103055
  9 3.793090 6.407221 0.000000 0.000000 -0.000000 1.570796
 10 0.935740 0.000000 0.000000 0.000000 -0.000000 0.000000
 11 0.935741 0.000000 0.000000 0.000000 -0.000000 0.000000
 12 1.293670 0.684478 -0.000001 -0.000004 -0.000001 0.306054
 13 5.309685 -0.003834 0.000000 0.000000 -0.000000 -0.000013
 14 4.826790 -0.004591 0.000000 -0.170391 0.037476 0.213570
 15 5.792767 -0.005304 0.000000 -0.138174 0.019451 0.138180
 16 6.662317 -0.001453 0.000000 0.000000 -0.000001 0.471000
 17 2.046985 -0.000002 0.000000 0.261729 -0.172061 -0.164226
 18 -3.112024 1.517254 4.341911 -0.173353 -1.263102 2.835292
 19 4.827230 0.000000 0.000001 0.182962 1.025251 -0.016014
 20 11.139763 0.000000 0.000000 0.000000 -0.000000 -0.883769
 21 10.314597 0.000001 0.000000 -1.642354 0.083241 -0.332944
 22 2.975834 -0.386307 -0.044143 -0.023088 -0.037007 0.541079
 23 1.438886 0.000000 0.000000 0.000000 -0.000000 1.700833
 24 1.485303 0.000000 0.000000 0.000000 -0.000000 1.229654
 25 -2.869898 1.399663 -4.140396 0.497761 1.237303 3.143876
 26 4.972048 0.000000 0.000001 0.420797 -1.107430 -0.996091
 27 11.585355 0.000000 0.000000 0.000000 -0.000000 -0.950567
 28 10.127057 0.000000 0.000001 1.537200 -0.015052 -0.019687
 29 2.683750 -0.427338 0.044205 -0.005738 0.043239 -0.157060
 30 1.438885 -0.000001 0.000000 0.000000 -0.000000 0.732589
 31 1.485305 0.000001 0.000000 0.000000 -0.000000 1.168627
time 13
  0 0.235347 -0.235347 3.532833 -0.000000 -0.000000 -1.571254
  1 0.000000 0.000000 0.000000 -1.570795 -1.570796 0.000000
  2 -0.000005 0.000007 3.713255 -6.281131 3.115177 6.261712
  3 18.045721 0.000000 0.000000 0.000000 -0.000000 -0.121501
  4 17.597597 0.000000 0.000000 -0.002613 0.026036 0.099967
  5 3.793090 6.407221 0.000000 0.000000 -0.000000 1.570796
  6 0.000005 -0.000003 -3.713255 6.280565 -3.123995 6.258640
  7 18.045725 0.000000 0.000000 0.000000 -0.000000 -0.127551
  8 17.597597 0.000000 0.000000 0.002950 -0.017289 0.103055
  9 3.793090 6.407221 0.000000 0.000000 -0.000000 1.570796
 10 0.935740 0.000000 0.000000 0.000000 -0.000000 0.000000
 11 0.935741 0.000000 0.000000 0.000000 -0.000000 0.000000
 12 1.293670 0.684478 -0.000001 -0.000004 -0.000001 0.306054
 13 5.309685 -0.003834 0.000000 0.000000 -0.000000 -0.000013
 14 4.826790 -0.004591 0.000000 -0.170194 0.038375 0.218773
 15 5.792767 -0.005304 0.000000 -0.138174 0.019451 0.138180
 16 6.662317 -0.001453 0.000000 0.000000 -0.000001 0.471000
 17 2.046985 -0.000002 0.000000 0.261858 -0.171386 -0.169574
 18 -3.112024 1.517254 4.341911 -0.170381 -1.257794 2.832320
 19 4.827230 0.000000 0.000001 0.173388 1.018953 -0.025640
 20 11.139763 0.000000 0.000000 0.000000 -0.000000 -0.883769
 21 10.314597 0.000001 0.000000 -1.642354 0.083241 -0.332944
 22 2.975834 -0.386307 -0.044143 -0.023088 -0.037007 0.541079
 23 1.438886 0.000000 0.000000 0.000000 -0.000000 1.700833
 24 1.485303 0.000000 0.000000 0.000000 -0.000000 1.229654
 25 -2.869898 1.399663 -4.140396 0.490954 1.232979 3.137165
 26 4.972048 0.000000 0.000001 0.420333 -1.101558 -0.997145
 27 11.585355 0.000000 0.000000 0.000000 -0.000000 -0.950567
 28 10.127057 0.000000 0.000001 1.537200 -0.015052 -0.019687
 29 2.683750 -0.427338 0.044205 -0.005738 0.043239 -0.157060
 30 1.438885 -0.000001 0.000000 0.000000 -0.000000 0.732589
 31 1.485305 0.000001 0.000000 0.000000 -0.000000 1.168627
time 14
  0 0.235347 -0.235347 3.532833 -0.000000 -0.000000 -1.571254
  1 0.000000 0.000000 0.000000 -1.570795 -1.570796 0.000000
  2 -0.000005 0.000007 3.713255 -6.281131 3.115177 6.261712
  3 18.045721 0.000000 0.000000 0.000000 -0.000000 -0.121501
  4 17.597597 0.000000 0.000000 -0.002613 0.026036 0.099967
  5 3.793090 6.407221 0.000000 0.000000 -0.000000 1.570796
  6 0.000005 -0.000003 -3.713255 6.280565 -3.123995 6.258640
  7 18.045725 0.000000 0.000000 0.000000 -0.000000 -0.127551
  8 17.597597 0.000000 0.000000 0.002950 -0.017289 0.103055
  9 3.793090 6.407221 0.000000 0.000000 -0.000000 1.570796
 10 0.935740 0.000000 0.000000 0.000000 -0.000000 0.000000
 11 0.935741 0.000000 0.000000 0.000000 -0.000000 0.000000
 12 1.293670 0.684478 -0.000001 -0.000004 -0.000001 0.306054
 13 5.309685 -0.003834 0.000000 0.000000 -0.000000 -0.000013
 14 4.826790 -0.004591 0.000000 -0.170079 0.038962 0.222235
 15 5.792767 -0.005304 0.000000 -0.138174 0.019451 0.138180
 16 6.662317 -0.001453 0.000000 0.000000 -0.000001 0.471000
 17 2.046985 -0.000002 0.000000 0.262246 -0.170958 -0.173035
 18 -3.112024 1.517254 4.341911 -0.168847 -1.254486 2.830307
 19 4.827230 0.000000 0.000001 0.167397 1.015209 -0.031766
 20 11.139763 0.000000 0.000000 0.000000 -0.000000 -0.883769
 21 10.314597 0.000001 0.000000 -1.642354 0.083241 -0.332944
 22 2.975834 -0.386307 -0.044143 -0.023088 -0.037007 0.541079
 23 1.438886 0.000000 0.000000 0.000000 -0.000000 1.700833
 24 1.485303 0.000000 0.000000 0.000000 -0.000000 1.229654
 25 -2.869898 1.399663 -4.140396 0.487023 1.230209 3.132563
 26 4.972048 0.000000 0.000001 0.420178 -1.097777 -0.998067
 27 11.585355 0.000000 0.000000 0.000000 -0.000000 -0.950567
 28 10.127057 0.000000 0.000001 1.537200 -0.015052 -0.019687
 29 2.683750 -0.427338 0.044205 -0.005738 0.043239 -0.157060
 30 1.438885 -0.000001 0.000000 0.000000 -0.000000 0.732589
 31 1.485305 0.000001 0.000000 0.000000 -0.000000 1.168627
time 15
  0 0.235347 -0.235347 3.532833 -0.000000 -0.000000 -1.571254
  1 0.000000 0.000000 0.000000 -1.570795 -1.570796 0.000000
  2 -0.000005 0.000007 3.713255 -6.281131 3.115177 6.261712
  3 18.045721 0.000000 0.000000 0.000000 -0.000000 -0.121501
  4 17.597597 0.000000 0.000000 -0.002613 0.026036 0.099967
  5 3.793090 6.407221 0.000000 0.000000 -0.000000 1.570796
  6 0.000005 -0.000003 -3.713255 6.280565 -3.123995 6.258640
  7 18.045725 0.000000 0.000000 0.000000 -0.000000 -0.127551
  8 17.597597 0.000000 0.000000 0.002950 -0.017289 0.103055
  9 3.793090 6.407221 0.000000 0.000000 -0.000000 1.570796
 10 0.935740 0.000000 0.000000 0.000000 -0.000000 0.000000
 11 0.935741 0.000000 0.000000 0.000000 -0.000000 0.000000
 12 1.293670 0.684478 -0.000001 -0.000004 -0.000001 0.306054
 13 5.309685 -0.003834 0.000000 0.000000 -0.000000 -0.000013
 14 4.826790 -0.004591 0.000000 -0.170030 0.039166 0.223359
 15 5.792767 -0.005304 0.000000 -0.138174 0.019451 0.138180
 16 6.662317 -0.001453 0.000000 0.000000 -0.000001 0.471000
 17 2.046985 -0.000002 0.000000 0.262332 -0.170801 -0.174429
 18 -3.112024 1.517254 4.341911 -0.168080 -1.253294 2.829540
 19 4.827230 0.000000 0.000001 0.165400 1.013847 -0.033866
 20 11.139763 0.000000 0.000000 0.000000 -0.000000 -0.883769
 21 10.314597 0.000001 0.000000 -1.642354 0.083241 -0.332944
 22 2.975834 -0.386307 -0.044143 -0.023088 -0.037007 0.541079
 23 1.438886 0.000000 0.000000 0.000000 -0.000000 1.700833
 24 1.485303 0.000000 0.000000 0.000000 -0.000000 1.229654
 25 -2.869898 1.399663 -4.140396 0.485489 1.229248 3.131029
 26 4.972048 0.000000 0.000001 0.420101 -1.096490 -0.998199
 27 11.585355 0.000000 0.000000 0.000000 -0.000000 -0.950567
 28 10.127057 0.000000 0.000001 1.537200 -0.015052 -0.019687
 29 2.683750 -0.427338 0.044205 -0.005738 0.043239 -0.157060
 30 1.438885 -0.000001 0.000000 0.000000 -0.000000 0.732589
 31 1.485305 0.000001 0.000000 0.000000 -0.000000 1.168627
time 16
  0 0.235347 -0.235347 3.532833 -0.000000 -0.000000 -1.571254
  1 0.000000 0.000000 0.000000 -1.570795 -1.570796 0.000000
  2 -0.000005 0.000007 3.713255 -6.281131 3.115177 6.261712
  3 18.045721 0.000000 0.000000 0.000000 -0.000000 -0.121501
  4 17.597597 0.000000 0.000000 -0.002613 0.026036 0.099967
  5 3.793090 6.407221 0.000000 0.000000 -0.000000 1.570796
  6 0.000005 -0.000003 -3.713255 6.280565 -3.123995 6.258640
  7 18.045725 0.000000 0.000000 0.000000 -0.000000 -0.127551
  8 17.597597 0.000000 0.000000 0.002950 -0.017289 0.103055
  9 3.793090 6.407221 0.000000 0.000000 -0.000000 1.570796
 10 0.935740 0.000000 0.000000 0.000000 -0.000000 0.000000
 11 0.935741 0.000000 0.000000 0.000000 -0.000000 0.000000
 12 1.293670 0.684478 -0.000001 -0.000004 -0.000001 0.306054
 13 5.309685 -0.003834 0.000000 0.000000 -0.000000 -0.000013
 14 4.826790 -0.004591 0.000000 -0.170079 0.038962 0.222235
 15 5.792767 -0.005304 0.000000 -0.138174 0.019451 0.138180
 16 6.662317 -0.001453 0.000000 0.000000 -0.000001 0.471000
 17 2.046985 -0.000002 0.000000 0.262246 -0.170958 -0.173035
 18 -3.112024 1.517254 4.341911 -0.168847 -1.254486 2.830307
 19 4.827230 0.000000 0.000001 0.167397 1.015209 -0.031766
 20 11.139763 0.000000 0.000000 0.000000 -0.000000 -0.883769
 21 10.314597 0.000001 0.000000 -1.642354 0.083241 -0.332944
 22 2.975834 -0.386307 -0.044143 -0.023088 -0.037007 0.541079
 23 1.438886 0.000000 0.000000 0.000000 -0.000000 1.700833
 24 1.485303 0.000000 0.000000 0.000000 -0.000000 1.229654
 25 -2.869898 1.399663 -4.140396 0.487023 1.230209 3.132563
 26 4.972048 0.000000 0.000001 0.420178 -1.097777 -0.998067
 27 11.585355 0.000000 0.000000 0.000000 -0.000000 -0.950567
 28 10.127057 0.000000 0.000001 1.537200 -0.015052 -0.019687
 29 2.683750 -0.427338 0.044205 -0.005738 0.043239 -0.157060
 30 1.438885 -0.000001 0.000000 0.000000 -0.000000 0.732589
 31 1.485305 0.000001 0.000000 0.000000 -0.000000 1.168627
time 17
  0 0.235347 -0.235347 3.532833 -0.000000 -0.000000 -1.571254
  1 0.000000 0.000000 0.000000 -1.570795 -1.570796 0.000000
  2 -0.000005 0.000007 3.713255 -6.281131 3.115177 6.261712
  3 18.045721 0.000000 0.000000 0.000000 -0.000000 -0.121501
  4 17.597597 0.000000 0.000000 -0.002613 0.026036 0.099967
  5 3.793090 6.407221 0.000000 0.000000 -0.000000 1.570796
  6 0.000005 -0.000003 -3.713255 6.280565 -3.123995 6.258640
  7 18.045725 0.000000 0.000000 0.000000 -0.000000 -0.127551
  8 17.597597 0.000000 0.000000 0.002950 -0.017289 0.103055
  9 3.793090 6.407221 0.000000 0.000000 -0.000000 1.570796
 10 0.935740 0.000000 0.000000 0.000000 -0.000000 0.000000
 11 0.935741 0.000000 0.000000 0.000000 -0.000000 0.000000
 12 1.293670 0.684478 -0.000001 -0.000004 -0.000001 0.306054
 13 5.309685 -0.003834 0.000000 0.000000 -0.000000 -0.000013
 14 4.826790 -0.004591 0.000000 -0.170194 0.038375 0.218773
 15 5.792767 -0.005304 0.000000 -0.138174 0.019451 0.138180
 16 6.662317 -0.001453 0.000000 0.000000 -0.000001 0.471000
 17 2.046985 -0.000002 0.000000 0.261858 -0.171386 -0.169574
 18 -3.112024 1.517254 4.341911 -0.170381 -1.257794 2.832320
 19 4.827230 0.000000 0.000001 0.173388 1.018953 -0.025640
 20 11.139763 0.000000 0.000000 0.000000 -0.000000 -0.883769
 21 10.314597 0.000001 0.000000 -1.642354 0.083241 -0.332944
 22 2.975834 -0.386307 -0.044143 -0.023088 -0.037007 0.541079
 23 1.438886 0.000000 0.000000 0.000000 -0.000000 1.700833
 24 1.485303 0.000000 0.000000 0.000000 -0.000000 1.229654
 25 -2.869898 1.399663 -4.140396 0.490954 1.232979 3.137165
 26 4.972048 0.000000 0.000001 0.420333 -1.101558 -0.997145
 27 11.585355 0.000000 0.000000 0.000000 -0.000000 -0.950567
 28 10.127057 0.000000 0.000001 1.537200 -0.015052 -0.019687
 29 2.683750 -0.427338 0.044205 -0.005738 0.043239 -0.157060
 30 1.438885 -0.000001 0.000000 0.000000 -0.000000 0.732589
 31 1.485305 0.000001 0.000000 0.000000 -0.000000 1.168627
time 18
  0 0.235347 -0.235347 3.532833 -0.000000 -0.000000 -1.571254
  1 0.000000 0.000000 0.000000 -1.570795 -1.570796 0.000000
  2 -0.000005 0.000007 3.713255 -6.281131 3.115177 6.261712
  3 18.045721 0.000000 0.000000 0.000000 -0.000000 -0.121501
  4 17.597597 0.000000 0.000000 -0.002613 0.026036 0.099967
  5 3.793090 6.407221 0.000000 0.000000 -0.000000 1.570796
  6 0.000005 -0.000003 -3.713255 6.280565 -3.123995 6.258640
  7 18.045725 0.000000 0.000000 0.000000 -0.000000 -0.127551
  8 17.597597 0.000000 0.000000 0.002950 -0.017289 0.103055
  9 3.793090 6.407221 0.000000 0.000000 -0.000000 1.570796
 10 0.935740 0.000000 0.000000 0.000000 -0.000000 0.000000
 11 0.935741 0.000000 0.000000 0.000000 -0.000000 0.000000
 12 1.293670 0.684478 -0.000001 -0.000004 -0.000001 0.306054
 13 5.309685 -0.003834 0.000000 0.000000 -0.000000 -0.000013
 14 4.826790 -0.004591 0.000000 -0.170391 0.037476 0.213570
 15 5.792767 -0.005304 0.000000 -0.138174 0.019451 0.138180
 16 6.662317 -0.001453 0.000000 0.000000 -0.000001 0.471000
 17 2.046985 -0.000002 0.000000 0.261729 -0.172061 -0.164226
 18 -3.112024 1.517254 4.341911 -0.173353 -1.263102 2.835292
 19 4.827230 0.000000 0.000001 0.182962 1.025251 -0.016014
 20 11.139763 0.000000 0.000000 0.000000 -0.000000 -0.883769
 21 10.314597 0.000001 0.000000 -1.642354 0.083241 -0.332944
 22 2.975834 -0.386307 -0.044143 -0.023088 -0.037007 0.541079
 23 1.438886 0.000000 0.000000 0.000000 -0.000000 1.700833
 24 1.485303 0.000000 0.000000 0.000000 -0.000000 1.229654
 25 -2.869898 1.399663 -4.140396 0.497761 1.237303 3.143876
 26 4.972048 0.000000 0.000001 0.420797 -1.107430 -0.996091
 27 11.585355 0.000000 0.000000 0.000000 -0.000000 -0.950567
 28 10.127057 0.000000 0.000001 1.537200 -0.015052 -0.019687
 29 2.683750 -0.427338 0.044205 -0.005738 0.043239 -0.157060
 30 1.438885 -0.000001 0.000000 0.000000 -0.000000 0.732589
 31 1.485305 0.000001 0.000000 0.000000 -0.000000 1.168627
time 19
  0 0.235347 -0.235347 3.532833 -0.000000 -0.000000 -1.571254
  1 0.000000 0.000000 0.000000 -1.570795 -1.570796 0.000000
  2 -0.000005 0.000007 3.713255 -6.281131 3.115177 6.261712
  3 18.045721 0.000000 0.000000 0.000000 -0.000000 -0.121501
  4 17.597597 0.000000 0.000000 -0.002613 0.026036 0.099967
  5 3.793090 6.407221 0.000000 0.000000 -0.000000 1.570796
  6 0.000005 -0.000003 -3.713255 6.280565 -3.123995 6.258640
  7 18.045725 0.000000 0.000000 0.000000 -0.000000 -0.127551
  8 17.597597 0.000000 0.000000 0.002950 -0.017289 0.103055
  9 3.793090 6.407221 0.000000 0.000000 -0.000000 1.570796
 10 0.935740 0.000000 0.000000 0.000000 -0.000000 0.000000
 11 0.935741 0.000000 0.000000 0.000000 -0.000000 0.000000
 12 1.293670 0.684478 -0.000001 -0.000004 -0.000001 0.306054
 13 5.309685 -0.003834 0.000000 0.000000 -0.000000 -0.000013
 14 4.826790 -0.004591 0.000000 -0.170654 0.036241 0.206713
 15 5.792767 -0.005304 0.000000 -0.138174 0.019451 0.138180
 16 6.662317 -0.001453 0.000000 0.000000 -0.000001 0.471000
 17 2.046985 -0.000002 0.000000 0.261298 -0.172939 -0.157528
 18 -3.112024 1.517254 4.341911 -0.177188 -1.269948 2.839319
 19 4.827230 0.000000 0.000001 0.195708 1.032825 -0.003237
 20 11.139763 0.000000 0.000000 0.000000 -0.000000 -0.883769
 21 10.314597 0.000001 0.000000 -1.642354 0.083241 -0.332944
 22 2.975834 -0.386307 -0.044143 -0.023088 -0.037007 0.541079
 23 1.438886 0.000000 0.000000 0.000000 -0.000000 1.700833
 24 1.485303 0.000000 0.000000 0.000000 -0.000000 1.229654
 25 -2.869898 1.399663 -4.140396 0.506773 1.242928 3.153847
 26 4.972048 0.000000 0.000001 0.421416 -1.115233 -0.994510
 27 11.585355 0.000000 0.000000 0.000000 -0.000000 -0.950567
 28 10.127057 0.000000 0.000001 1.537200 -0.015052 -0.019687
 29 2.683750 -0.427338 0.044205 -0.005738 0.043239 -0.157060
 30 1.438885 -0.000001 0.000000 0.000000 -0.000000 0.732589
 31 1.485305 0.000001 0.000000 0.000000 -0.000000 1.168627
time 20
  0 0.235347 -0.235347 3.532833 -0.000000 -0.000000 -1.571254
  1 0.000000 0.000000 0.000000 -1.570795 -1.570796 0.000000
  2 -0.000005 0.000007 3.713255 -6.281131 3.115177 6.261712
  3 18.045721 0.000000 0.000000 0.000000 -0.000000 -0.121501
  4 17.597597 0.000000 0.000000 -0.002613 0.026036 0.099967
  5 3.793090 6.407221 0.000000 0.000000 -0.000000 1.570796
  6 0.000005 -0.000003 -3.713255 6.280565 -3.123995 6.258640
  7 18.045725 0.000000 0.000000 0.000000 -0.000000 -0.127551
  8 17.597597 0.000000 0.000000 0.002950 -0.017289 0.103055
  9 3.793090 6.407221 0.000000 0.000000 -0.000000 1.570796
 10 0.935740 0.000000 0.000000 0.000000 -0.000000 0.000000
 11 0.935741 0.000000 0.000000 0.000000 -0.000000 0.000000
 12 1.293670 0.684478 -0.000001 -0.000004 -0.000001 0.306054
 13 5.309685 -0.003834 0.000000 0.000000 -0.000000 -0.000013
 14 4.826790 -0.004591 0.000000 -0.170933 0.034839 0.198577
 15 5.792767 -0.005304 0.000000 -0.138174 0.019451 0.138180
 16 6.662317 -0.001453 0.000000 0.000000 -0.000001 0.471000
 17 2.046985 -0.000002 0.000000 0.260781 -0.173952 -0.149438
 18 -3.112024 1.517254 4.341911 -0.182173 -1.278102 2.844113
 19 4.827230 0.000000 0.000001 0.211508 1.041420 0.012515
 20 11.139763 0.000000 0.000000 0.000000 -0.000000 -0.883769
 21 10.314597 0.000001 0.000000 -1.642354 0.083241 -0.332944
 22 2.975834 -0.386307 -0.044143 -0.023088 -0.037007 0.541079
 23 1.438886 0.000000 0.000000 0.000000 -0.000000 1.700833
 24 1.485303 0.000000 0.000000 0.000000 -0.000000 1.229654
 25 -2.869898 1.399663 -4.140396 0.517990 1.249598 3.165543
 26 4.972048 0.000000 0.000001 0.422035 -1.124403 -0.992468
 27 11.585355 0.000000 0.000000 0.000000 -0.000000 -0.950567
 28 10.127057 0.000000 0.000001 1.537200 -0.015052 -0.019687
 29 2.683750 -0.427338 0.044205 -0.005738 0.043239 -0.157060
 30 1.438885 -0.000001 0.000000 0.000000 -0.000000 0.732589
 31 1.485305 0.000001 0.000000 0.000000 -0.000000 1.168627
time 21
  0 0.235347 -0.235347 3.532833 -0.000000 -0.000000 -1.571254
  1 0.000000 0.000000 0.000000 -1.570795 -1.570796 0.000000
  2 -0.000005 0.000007 3.713255 -6.281131 3.115177 6.261712
  3 18.045721 0.000000 0.000000 0.000000 -0.000000 -0.121501
  4 17.597597 0.000000 0.000000 -0.002613 0.026036 0.099967
  5 3.793090 6.407221 0.000000 0.000000 -0.000000 1.570796
  6 0.000005 -0.000003 -3.713255 6.280565 -3.123995 6.258640
  7 18.045725 0.000000 0.000000 0.000000 -0.000000 -0.127551
  8 17.597597 0.000000 0.000000 0.002950 -0.017289 0.103055
  9 3.793090 6.407221 0.000000 0.000000 -0.000000 1.570796
 10 0.935740 0.000000 0.000000 0.000000 -0.000000 0.000000
 11 0.935741 0.000000 0.000000 0.000000 -0.000000 0.000000
 12 1.293670 0.684478 -0.000001 -0.000004 -0.000001 0.306054
 13 5.309685 -0.003834 0.000000 0.000000 -0.000000 -0.000013
 14 4.826790 -0.004591 0.000000 -0.171245 0.033257 0.189427
 15 5.792767 -0.005304 0.000000 -0.138174 0.019451 0.138180
 16 6.662317 -0.001453 0.000000 0.000000 -0.000001 0.471000
 17 2.046985 -0.000002 0.000000 0.260178 -0.175123 -0.140134
 18 -3.112024 1.517254 4.341911 -0.187734 -1.287218 2.850441
 19 4.827230 0.000000 0.000001 0.229716 1.051547 0.030717
 20 11.139763 0.000000 0.000000 0.000000 -0.000000 -0.883769
 21 10.314597 0.000001 0.000000 -1.642354 0.083241 -0.332944
 22 2.975834 -0.386307 -0.044143 -0.023088 -0.037007 0.541079
 23 1.438886 0.000000 0.000000 0.000000 -0.000000 1.700833
 24 1.485303 0.000000 0.000000 0.000000 -0.000000 1.229654
 25 -2.869898 1.399663 -4.140396 0.531029 1.257060 3.179253
 26 4.972048 0.000000 0.000001 0.422576 -1.134619 -0.990426
 27 11.585355 0.000000 0.000000 0.000000 -0.000000 -0.950567
 28 10.127057 0.000000 0.000001 1.537200 -0.015052 -0.019687
 29 2.683750 -0.427338 0.044205 -0.005738 0.043239 -0.157060
 30 1.438885 -0.000001 0.000000 0.000000 -0.000000 0.732589
 31 1.485305 0.000001 0.000000 0.000000 -0.000000 1.168627
time 22
  0 0.235347 -0.235347 3.532833 -0.000000 -0.000000 -1.571254
  1 0.000000 0.000000 0.000000 -1.570795 -1.570796 0.000000
  2 -0.000005 0.000007 3.713255 -6.281131 3.115177 6.261712
  3 18.045721 0.000000 0.000000 0.000000 -0.000000 -0.121501
  4 17.597597 0.000000 0.000000 -0.002613 0.026036 0.099967
  5 3.793090 6.407221 0.000000 0.000000 -0.000000 1.570796
  6 0.000005 -0.000003 -3.713255 6.280565 -3.123995 6.258640
  7 18.045725 0.000000 0.000000 0.000000 -0.000000 -0.127551
  8 17.597597 0.000000 0.000000 0.002950 -0.017289 0.103055
  9 3.793090 6.407221 0.000000 0.000000 -0.000000 1.570796
 10 0.935740 0.000000 0.000000 0.000000 -0.000000 0.000000
 11 0.935741 0.000000 0.000000 0.000000 -0.000000 0.000000
 12 1.293670 0.684478 -0.000001 -0.000004 -0.000001 0.306054
 13 5.309685 -0.003834 0.000000 0.000000 -0.000000 -0.000013
 14 4.826790 -0.004591 0.000000 -0.171557 0.031555 0.179527
 15 5.792767 -0.005304 0.000000 -0.138174 0.019451 0.138180
 16 6.662317 -0.001453 0.000000 0.000000 -0.000001 0.471000
 17 2.046985 -0.000002 0.000000 0.259359 -0.176339 -0.129975
 18 -3.112024 1.517254 4.341911 -0.194541 -1.296988 2.857344
 19 4.827230 0.000000 0.000001 0.250039 1.061759 0.050932
 20 11.139763 0.000000 0.000000 0.000000 -0.000000 -0.883769
 21 10.314597 0.000001 0.000000 -1.642354 0.083241 -0.332944
 22 2.975834 -0.386307 -0.044143 -0.023088 -0.037007 0.541079
 23 1.438886 0.000000 0.000000 0.000000 -0.000000 1.700833
 24 1.485303 0.000000 0.000000 0.000000 -0.000000 1.229654
 25 -2.869898 1.399663 -4.140396 0.545793 1.264974 3.194497
 26 4.972048 0.000000 0.000001 0.423195 -1.145720 -0.988318
 27 11.585355 0.000000 0.000000 0.000000 -0.000000 -0.950567
 28 10.127057 0.000000 0.000001 1.537200 -0.015052 -0.019687
 29 2.683750 -0.427338 0.044205 -0.005738 0.043239 -0.157060
 30 1.438885 -0.000001 0.000000 0.000000 -0.000000 0.732589
 31 1.485305 0.000001 0.000000 0.000000 -0.000000 1.168627
time 23
  0 0.235347 -0.235347 3.532833 -0.000000 -0.000000 -1.571254
  1 0.000000 0.000000 0.000000 -1.570795 -1.570796 0.000000
  2 -0.000005 0.000007 3.713255 -6.281131 3.115177 6.261712
  3 18.045721 0.000000 0.000000 0.000000 -0.000000 -0.121501
  4 17.597597 0.000000 0.000000 -0.002613 0.026036 0.099967
  5 3.793090 6.407221 0.000000 0.000000 -0.000000 1.570796
  6 0.000005 -0.000003 -3.713255 6.280565 -3.123995 6.258640
  7 18.045725 0.000000 0.000000 0.000000 -0.000000 -0.127551
  8 17.597597 0.000000 0.000000 0.002950 -0.017289 0.103055
  9 3.793090 6.407221 0.000000 0.000000 -0.000000 1.570796
 10 0.935740 0.000000 0.000000 0.000000 -0.000000 0.000000
 11 0.935741 0.000000 0.000000 0.000000 -0.000000 0.000000
 12 1.293670 0.684478 -0.000001 -0.000004 -0.000001 0.306054
 13 5.309685 -0.003834 0.000000 0.000000 -0.000000 -0.000013
 14 4.826790 -0.004591 0.000000 -0.171869 0.029830 0.169363
 15 5.792767 -0.005304 0.000000 -0.138174 0.019451 0.138180
 16 6.662317 -0.001453 0.000000 0.000000 -0.000001 0.471000
 17 2.046985 -0.000002 0.000000 0.258756 -0.177622 -0.119592
 18 -3.112024 1.517254 4.341911 -0.202019 -1.307180 2.865014
 19 4.827230 0.000000 0.000001 0.272300 1.072652 0.072985
 20 11.139763 0.000000 0.000000 0.000000 -0.000000 -0.883769
 21 10.314597 0.000001 0.000000 -1.642354 0.083241 -0.332944
 22 2.975834 -0.386307 -0.044143 -0.023088 -0.037007 0.541079
 23 1.438886 0.000000 0.000000 0.000000 -0.000000 1.700833
 24 1.485303 0.000000 0.000000 0.000000 -0.000000 1.229654
 25 -2.869898 1.399663 -4.140396 0.561996 1.273114 3.211754
 26 4.972048 0.000000 0.000001 0.423814 -1.157384 -0.986210
 27 11.585355 0.000000 0.000000 0.000000 -0.000000 -0.950567
 28 10.127057 0.000000 0.000001 1.537200 -0.015052 -0.019687
 29 2.683750 -0.427338 0.044205 -0.005738 0.043239 -0.157060
 30 1.438885 -0.000001 0.000000 0.000000 -0.000000 0.732589
 31 1.485305 0.000001 0.000000 0.000000 -0.000000 1.168627
time 24
  0 0.235347 -0.235347 3.532833 -0.000000 -0.000000 -1.571254
  1 0.000000 0.000000 0.000000 -1.570795 -1.570796 0.000000
  2 -0.000005 0.000007 3.713255 -6.281131 3.115177 6.261712
  3 18.045721 0.000000 0.000000 0.000000 -0.000000 -0.121501
  4 17.597597 0.000000 0.000000 -0.002613 0.026036 0.099967
  5 3.793090 6.407221 0.000000 0.000000 -0.000000 1.570796
  6 0.000005 -0.000003 -3.713255 6.280565 -3.123995 6.258640
  7 18.045725 0.000000 0.000000 0.000000 -0.000000 -0.127551
  8 17.597597 0.000000 0.000000 0.002950 -0.017289 0.103055
  9 3.793090 6.407221 0.000000 0.000000 -0.000000 1.570796
 10 0.935740 0.000000 0.000000 0.000000 -0.000000 0.000000
 11 0.935741 0.000000 0.000000 0.000000 -0.000000 0.000000
 12 1.293670 0.684478 -0.000001 -0.000004 -0.000001 0.306054
 13 5.309685 -0.003834 0.000000 0.000000 -0.000000 -0.000013
 14 4.826790 -0.004591 0.000000 -0.172181 0.028032 0.158956
 15 5.792767 -0.005304 0.000000 -0.138174 0.019451 0.138180
 16 6.662317 -0.001453 0.000000 0.000000 -0.000001 0.471000
 17 2.046985 -0.000002 0.000000 0.258153 -0.178905 -0.109255
 18 -3.112024 1.517254 4.341911 -0.210168 -1.317411 2.873451
 19 4.827230 0.000000 0.000001 0.295736 1.082864 0.095913
 20 11.139763 0.000000 0.000000 0.000000 -0.000000 -0.883769
 21 10.314597 0.000001 0.000000 -1.642354 0.083241 -0.332944
 22 2.975834 -0.386307 -0.044143 -0.023088 -0.037007 0.541079
 23 1.438886 0.000000 0.000000 0.000000 -0.000000 1.700833
 24 1.485303 0.000000 0.000000 0.000000 -0.000000 1.229654
 25 -2.869898 1.399663 -4.140396 0.579349 1.281254 3.229778
 26 4.972048 0.000000 0.000001 0.424278 -1.169048 -0.983707
 27 11.585355 0.000000 0.000000 0.000000 -0.000000 -0.950567
 28 10.127057 0.000000 0.000001 1.537200 -0.015052 -0.019687
 29 2.683750 -0.427338 0.044205 -0.005738 0.043239 -0.157060
 30 1.438885 -0.000001 0.000000 0.000000 -0.000000 0.732589
 31 1.485305 0.000001 0.000000 0.000000 -0.000000 1.168627
time 25
  0 0.235347 -0.235347 3.532833 -0.000000 -0.000000 -1.571254
  1 0.000000 0.000000 0.000000 -1.570795 -1.570796 0.000000
  2 -0.000005 0.000007 3.713255 -6.281131 3.115177 6.261712
  3 18.045721 0.000000 0.000000 0.000000 -0.000000 -0.121501
  4 17.597597 0.000000 0.000000 -0.002613 0.026036 0.099967
  5 3.793090 6.407221 0.000000 0.000000 -0.000000 1.570796
  6 0.000005 -0.000003 -3.713255 6.280565 -3.123995 6.258640
  7 18.045725 0.000000 0.000000 0.000000 -0.000000 -0.127551
  8 17.597597 0.000000 0.000000 0.002950 -0.017289 0.103055
  9 3.793090 6.407221 0.000000 0.000000 -0.000000 1.570796
 10 0.935740 0.000000 0.000000 0.000000 -0.000000 0.000000
 11 0.935741 0.000000 0.000000 0.000000 -0.000000 0.000000
 12 1.293670 0.684478 -0.000001 -0.000004 -0.000001 0.306054
 13 5.309685 -0.003834 0.000000 0.000000 -0.000000 -0.000013
 14 4.826790 -0.004591 0.000000 -0.172460 0.026222 0.148836
 15 5.792767 -0.005304 0.000000 -0.138174 0.019451 0.138180
 16 6.662317 -0.001453 0.000000 0.000000 -0.000001 0.471000
 17 2.046985 -0.000002 0.000000 0.257464 -0.180166 -0.098917
 18 -3.112024 1.517254 4.341911 -0.218701 -1.327488 2.882080
 19 4.827230 0.000000 0.000001 0.319700 1.092906 0.119279
 20 11.139763 0.000000 0.000000 0.000000 -0.000000 -0.883769
 21 10.314597 0.000001 0.000000 -1.642354 0.083241 -0.332944
 22 2.975834 -0.386307 -0.044143 -0.023088 -0.037007 0.541079
 23 1.438886 0.000000 0.000000 0.000000 -0.000000 1.700833
 24 1.485303 0.000000 0.000000 0.000000 -0.000000 1.229654
 25 -2.869898 1.399663 -4.140396 0.597277 1.289083 3.248186
 26 4.972048 0.000000 0.000001 0.424510 -1.180551 -0.981599
 27 11.585355 0.000000 0.000000 0.000000 -0.000000 -0.950567
 28 10.127057 0.000000 0.000001 1.537200 -0.015052 -0.019687
 29 2.683750 -0.427338 0.044205 -0.005738 0.043239 -0.157060
 30 1.438885 -0.000001 0.000000 0.000000 -0.000000 0.732589
 31 1.485305 0.000001 0.000000 0.000000 -0.000000 1.168627
time 26
  0 0.235347 -0.235347 3.532833 -0.000000 -0.000000 -1.571254
  1 0.000000 0.000000 0.000000 -1.570795 -1.570796 0.000000
  2 -0.000005 0.000007 3.713255 -6.281131 3.115177 6.261712
  3 18.045721 0.000000 0.000000 0.000000 -0.000000 -0.121501
  4 17.597597 0.000000 0.000000 -0.002613 0.026036 0.099967
  5 3.793090 6.407221 0.000000 0.000000 -0.000000 1.570796
  6 0.000005 -0.000003 -3.713255 6.280565 -3.123995 6.258640
  7 18.045725 0.000000 0.000000 0.000000 -0.000000 -0.127551
  8 17.597597 0.000000 0.000000 0.002950 -0.017289 0.103055
  9 3.793090 6.407221 0.000000 0.000000 -0.000000 1.570796
 10 0.935740 0.000000 0.000000 0.000000 -0.000000 0.000000
 11 0.935741 0.000000 0.000000 0.000000 -0.000000 0.000000
 12 1.293670 0.684478 -0.000001 -0.000004 -0.000001 0.306054
 13 5.309685 -0.003834 0.000000 0.000000 -0.000000 -0.000013
 14 4.826790 -0.004591 0.000000 -0.172690 0.024544 0.139245
 15 5.792767 -0.005304 0.000000 -0.138174 0.019451 0.138180
 16 6.662317 -0.001453 0.000000 0.000000 -0.000001 0.471000
 17 2.046985 -0.000002 0.000000 0.256645 -0.181336 -0.088938
 18 -3.112024 1.517254 4.341911 -0.227713 -1.336988 2.891380
 19 4.827230 0.000000 0.000001 0.343371 1.102267 0.142557
 20 11.139763 0.000000 0.000000 0.000000 -0.000000 -0.883769
 21 10.314597 0.000001 0.000000 -1.642354 0.083241 -0.332944
 22 2.975834 -0.386307 -0.044143 -0.023088 -0.037007 0.541079
 23 1.438886 0.000000 0.000000 0.000000 -0.000000 1.700833
 24 1.485303 0.000000 0.000000 0.000000 -0.000000 1.229654
 25 -2.869898 1.399663 -4.140396 0.615301 1.296545 3.267169
 26 4.972048 0.000000 0.000001 0.424742 -1.191652 -0.979557
 27 11.585355 0.000000 0.000000 0.000000 -0.000000 -0.950567
 28 10.127057 0.000000 0.000001 1.537200 -0.015052 -0.019687
 29 2.683750 -0.427338 0.044205 -0.005738 0.043239 -0.157060
 30 1.438885 -0.000001 0.000000 0.000000 -0.000000 0.732589
 31 1.485305 0.000001 0.000000 0.000000 -0.000000 1.168627
time 27
  0 0.235347 -0.235347 3.532833 -0.000000 -0.000000 -1.571254
  1 0.000000 0.000000 0.000000 -1.570795 -1.570796 0.000000
  2 -0.000005 0.000007 3.713255 -6.281131 3.115177 6.261712
  3 18.045721 0.000000 0.000000 0.000000 -0.000000 -0.121501
  4 17.597597 0.000000 0.000000 -0.002613 0.026036 0.099967
  5 3.793090 6.407221 0.000000 0.000000 -0.000000 1.570796
  6 0.000005 -0.000003 -3.713255 6.280565 -3.123995 6.258640
  7 18.045725 0.000000 0.000000 0.000000 -0.000000 -0.127551
  8 17.597597 0.000000 0.000000 0.002950 -0.017289 0.103055
  9 3.793090 6.407221 0.000000 0.000000 -0.000000 1.570796
 10 0.935740 0.000000 0.000000 0.000000 -0.000000 0.000000
 11 0.935741 0.000000 0.000000 0.000000 -0.000000 0.000000
 12 1.293670 0.684478 -0.000001 -0.000004 -0.000001 0.306054
 13 5.309685 -0.003834 0.000000 0.000000 -0.000000 -0.000013
 14 4.826790 -0.004591 0.000000 -0.172887 0.022998 0.130426
 15 5.792767 -0.005304 0.000000 -0.138174 0.019451 0.138180
 16 6.662317 -0.001453 0.000000 0.000000 -0.000001 0.471000
 17 2.046985 -0.000002 0.000000 0.256128 -0.182417 -0.080083
 18 -3.112024 1.517254 4.341911 -0.236533 -1.345719 2.900584
 19 4.827230 0.000000 0.000001 0.366102 1.110692 0.164610
 20 11.139763 0.000000 0.000000 0.000000 -0.000000 -0.883769
 21 10.314597 0.000001 0.000000 -1.642354 0.083241 -0.332944
 22 2.975834 -0.386307 -0.044143 -0.023088 -0.037007 0.541079
 23 1.438886 0.000000 0.000000 0.000000 -0.000000 1.700833
 24 1.485303 0.000000 0.000000 0.000000 -0.000000 1.229654
 25 -2.869898 1.399663 -4.140396 0.632271 1.303300 3.285289
 26 4.972048 0.000000 0.000001 0.424974 -1.201707 -0.977515
 27 11.585355 0.000000 0.000000 0.000000 -0.000000 -0.950567
 28 10.127057 0.000000 0.000001 1.537200 -0.015052 -0.019687
 29 2.683750 -0.427338 0.044205 -0.005738 0.043239 -0.157060
 30 1.438885 -0.000001 0.000000 0.000000 -0.000000 0.732589
 31 1.485305 0.000001 0.000000 0.000000 -0.000000 1.168627
time 28
  0 0.235347 -0.235347 3.532833 -0.000000 -0.000000 -1.571254
  1 0.000000 0.000000 0.000000 -1.570795 -1.570796 0.000000
  2 -0.000005 0.000007 3.713255 -6.281131 3.115177 6.261712
  3 18.045721 0.000000 0.000000 0.000000 -0.000000 -0.121501
  4 17.597597 0.000000 0.000000 -0.002613 0.026036 0.099967
  5 3.793090 6.407221 0.000000 0.000000 -0.000000 1.570796
  6 0.000005 -0.000003 -3.713255 6.280565 -3.123995 6.258640
  7 18.045725 0.000000 0.000000 0.000000 -0.000000 -0.127551
  8 17.597597 0.000000 0.000000 0.002950 -0.017289 0.103055
  9 3.793090 6.407221 0.000000 0.000000 -0.000000 1.570796
 10 0.935740 0.000000 0.000000 0.000000 -0.000000 0.000000
 11 0.935741 0.000000 0.000000 0.000000 -0.000000 0.000000
 12 1.293670 0.684478 -0.000001 -0.000004 -0.000001 0.306054
 13 5.309685 -0.003834 0.000000 0.000000 -0.000000 -0.000013
 14 4.826790 -0.004591 0.000000 -0.173084 0.021644 0.122665
 15 5.792767 -0.005304 0.000000 -0.138174 0.019451 0.138180
 16 6.662317 -0.001453 0.000000 0.000000 -0.000001 0.471000
 17 2.046985 -0.000002 0.000000 0.255568 -0.183363 -0.072218
 18 -3.112024 1.517254 4.341911 -0.244874 -1.353335 2.909117
 19 4.827230 0.000000 0.000001 0.386601 1.117500 0.184475
 20 11.139763 0.000000 0.000000 0.000000 -0.000000 -0.883769
 21 10.314597 0.000001 0.000000 -1.642354 0.083241 -0.332944
 22 2.975834 -0.386307 -0.044143 -0.023088 -0.037007 0.541079
 23 1.438886 0.000000 0.000000 0.000000 -0.000000 1.700833
 24 1.485303 0.000000 0.000000 0.000000 -0.000000 1.229654
 25 -2.869898 1.399663 -4.140396 0.648665 1.309066 3.301875
 26 4.972048 0.000000 0.000001 0.424974 -1.210475 -0.975934
 27 11.585355 0.000000 0.000000 0.000000 -0.000000 -0.950567
 28 10.127057 0.000000 0.000001 1.537200 -0.015052 -0.019687
 29 2.683750 -0.427338 0.044205 -0.005738 0.043239 -0.157060
 30 1.438885 -0.000001 0.000000 0.000000 -0.000000 0.732589
 31 1.485305 0.000001 0.000000 0.000000 -0.000000 1.168627
time 29
  0 0.235347 -0.235347 3.532833 -0.000000 -0.000000 -1.571254
  1 0.000000 0.000000 0.000000 -1.570795 -1.570796 0.000000
  2 -0.000005 0.000007 3.713255 -6.281131 3.115177 6.261712
  3 18.045721 0.000000 0.000000 0.000000 -0.000000 -0.121501
  4 17.597597 0.000000 0.000000 -0.002613 0.026036 0.099967
  5 3.793090 6.407221 0.000000 0.000000 -0.000000 1.570796
  6 0.000005 -0.000003 -3.713255 6.280565 -3.123995 6.258640
  7 18.045725 0.000000 0.000000 0.000000 -0.000000 -0.127551
  8 17.597597 0.000000 0.000000 0.002950 -0.017289 0.103055
  9 3.793090 6.407221 0.000000 0.000000 -0.000000 1.570796
 10 0.935740 0.000000 0.000000 0.000000 -0.000000 0.000000
 11 0.935741 0.000000 0.000000 0.000000 -0.000000 0.000000
 12 1.293670 0.684478 -0.000001 -0.000004 -0.000001 0.306054
 13 5.309685 -0.003834 0.000000 0.000000 -0.000000 -0.000013
 14 4.826790 -0.004591 0.000000 -0.173199 0.020590 0.116315
 15 5.792767 -0.005304 0.000000 -0.138174 0.019451 0.138180
 16 6.662317 -0.001453 0.000000 0.000000 -0.000001 0.471000
 17 2.046985 -0.000002 0.000000 0.255094 -0.184128 -0.065565
 18 -3.112024 1.517254 4.341911 -0.251969 -1.359604 2.916116
 19 4.827230 0.000000 0.000001 0.403928 1.123287 0.201277
 20 11.139763 0.000000 0.000000 0.000000 -0.000000 -0.883769
 21 10.314597 0.000001 0.000000 -1.642354 0.083241 -0.332944
 22 2.975834 -0.386307 -0.044143 -0.023088 -0.037007 0.541079
 23 1.438886 0.000000 0.000000 0.000000 -0.000000 1.700833
 24 1.485303 0.000000 0.000000 0.000000 -0.000000 1.229654
 25 -2.869898 1.399663 -4.140396 0.662375 1.313786 3.316064
 26 4.972048 0.000000 0.000001 0.425129 -1.217795 -0.974419
 27 11.585355 0.000000 0.000000 0.000000 -0.000000 -0.950567
 28 10.127057 0.000000 0.000001 1.537200 -0.015052 -0.019687
 29 2.683750 -0.427338 0.044205 -0.005738 0.043239 -0.157060
 30 1.438885 -0.000001 0.000000 0.000000 -0.000000 0.732589
 31 1.485305 0.000001 0.000000 0.000000 -0.000000 1.168627
time 30
  0 0.235347 -0.235347 3.532833 -0.000000 -0.000000 -1.571254
  1 0.000000 0.000000 0.000000 -1.570795 -1.570796 0.000000
  2 -0.000005 0.000007 3.713255 -6.281131 3.115177 6.261712
  3 18.045721 0.000000 0.000000 0.000000 -0.000000 -0.121501
  4 17.597597 0.000000 0.000000 -0.002613 0.026036 0.099967
  5 3.793090 6.407221 0.000000 0.000000 -0.000000 1.570796
  6 0.000005 -0.000003 -3.713255 6.280565 -3.123995 6.258640
  7 18.045725 0.000000 0.000000 0.000000 -0.000000 -0.127551
  8 17.597597 0.000000 0.000000 0.002950 -0.017289 0.103055
  9 3.793090 6.407221 0.000000 0.000000 -0.000000 1.570796
 10 0.935740 0.000000 0.000000 0.000000 -0.000000 0.000000
 11 0.935741 0.000000 0.000000 0.000000 -0.000000 0.000000
 12 1.293670 0.684478 -0.000001 -0.000004 -0.000001 0.306054
 13 5.309685 -0.003834 0.000000 0.000000 -0.000000 -0.000013
 14 4.826790 -0.004591 0.000000 -0.173330 0.019775 0.111663
 15 5.792767 -0.005304 0.000000 -0.138174 0.019451 0.138180
 16 6.662317 -0.001453 0.000000 0.000000 -0.000001 0.471000
 17 2.046985 -0.000002 0.000000 0.254577 -0.184691 -0.061026
 18 -3.112024 1.517254 4.341911 -0.257721 -1.364220 2.922348
 19 4.827230 0.000000 0.000001 0.416909 1.127542 0.213791
 20 11.139763 0.000000 0.000000 0.000000 -0.000000 -0.883769
 21 10.314597 0.000001 0.000000 -1.642354 0.083241 -0.332944
 22 2.975834 -0.386307 -0.044143 -0.023088 -0.037007 0.541079
 23 1.438886 0.000000 0.000000 0.000000 -0.000000 1.700833
 24 1.485303 0.000000 0.000000 0.000000 -0.000000 1.229654
 25 -2.869898 1.399663 -4.140396 0.672346 1.317206 3.326706
 26 4.972048 0.000000 0.000001 0.424974 -1.223104 -0.973694
 27 11.585355 0.000000 0.000000 0.000000 -0.000000 -0.950567
 28 10.127057 0.000000 0.000001 1.537200 -0.015052 -0.019687
 29 2.683750 -0.427338 0.044205 -0.005738 0.043239 -0.157060
 30 1.438885 -0.000001 0.000000 0.000000 -0.000000 0.732589
 31 1.485305 0.000001 0.000000 0.000000 -0.000000 1.168627
end
