version 1
nodes
  0 "Bip01"  -1
  1 "Bip01 Pelvis"   0
  2 "Bip01 L Leg"   1
  3 "Bip01 L Leg1"   2
  4 "Bip01 L Foot"   3
  5 "Bip01 L Toe0"   4
  6 "Bip01 R Leg"   1
  7 "Bip01 R Leg1"   6
  8 "Bip01 R Foot"   7
  9 "Bip01 R Toe0"   8
 10 "Bip01 R Toe01"   9
 11 "Bip01 R Toe02"  10
 12 "Bip01 Spine"   1
 13 "Bip01 Spine1"  12
 14 "Bip01 Spine2"  13
 15 "Bip01 Spine3"  14
 16 "Bip01 Neck"  15
 17 "Bip01 Head"  16
 18 "Bip01 L Arm"  16
 19 "Bip01 L Arm1"  18
 20 "Bip01 L Arm2"  19
 21 "Bip01 L Hand"  20
 22 "Bip01 L Finger1"  21
 23 "Bip01 L Finger11"  22
 24 "Bip01 L Finger12"  23
 25 "Bip01 R Arm"  16
 26 "Bip01 R Arm1"  25
 27 "Bip01 R Arm2"  26
 28 "Bip01 R Hand"  27
 29 "Bip01 R Finger1"  28
 30 "Bip01 R Finger11"  29
 31 "Bip01 R Finger12"  30
end
skeleton
time 0
  0 0.235347 -0.235347 3.532833 -0.000000 -0.000000 -1.571254
  1 0.000000 0.000000 0.000000 -1.570795 -1.570796 0.000000
  2 -0.000005 0.000007 3.713255 -6.279788 3.158894 6.191818
  3 18.045721 0.000000 0.000000 0.000000 -0.000000 -0.243566
  4 17.597597 0.000000 0.000000 -0.001675 -0.017562 0.152217
  5 3.793090 6.407221 0.000000 0.000000 -0.000000 1.570796
  6 0.000005 -0.000003 -3.713255 0.355278 3.115745 -0.017353
  7 18.045725 0.000000 0.000000 0.000000 -0.000000 -0.267080
  8 17.597597 0.000000 0.000000 0.202624 0.017977 0.241823
  9 3.793090 6.407221 0.000000 0.000000 -0.000000 1.570796
 10 0.935740 0.000000 0.000000 0.000000 -0.000000 0.000000
 11 0.935741 0.000000 0.000000 0.000000 -0.000000 0.000000
 12 1.293670 0.684478 -0.000001 -0.000004 -0.000001 -0.147611
 13 5.309685 -0.003834 0.000000 -0.261194 -0.017785 -0.067442
 14 4.826790 -0.004591 0.000000 0.000000 -0.000000 -0.095944
 15 5.792767 -0.005304 0.000000 0.000000 -0.000000 0.017444
 16 6.662317 -0.001453 0.000000 0.000000 -0.000001 0.209256
 17 2.046985 -0.000002 0.000000 0.257593 0.047186 -0.238929
 18 -3.393283 0.661759 4.341911 1.008188 -1.207639 1.954191
 19 4.827230 0.000000 0.000001 -0.599935 0.994955 -1.252197
 20 11.139763 0.000000 0.000000 0.000000 -0.000000 -1.932794
 21 10.314597 0.000001 0.000000 -1.068466 -0.403205 -0.135282
 22 2.975834 -0.386307 -0.044143 0.001097 -0.043611 -0.043588
 23 1.438886 0.000000 0.000000 0.000000 -0.000000 1.334476
 24 1.485303 0.000000 0.000000 0.000000 -0.000000 0.793621
 25 -3.131625 0.610576 -4.140396 -1.212809 1.046068 1.768863
 26 4.972048 0.000000 0.000001 -0.265572 -1.071634 0.470561
 27 11.585355 0.000000 0.000000 0.000000 -0.000000 -2.415255
 28 10.127057 0.000000 0.000001 1.510254 0.765311 -0.200791
 29 2.683750 -0.427338 0.044205 -0.005738 0.043239 -0.157060
 30 1.438885 -0.000001 0.000000 0.000000 -0.000000 0.732589
 31 1.485305 0.000001 0.000000 0.000000 -0.000000 1.168627
time 1
  0 0.235347 -0.235347 3.532833 -0.000000 -0.000000 -1.571254
  1 0.000000 0.000000 0.000000 -1.570795 -1.570796 0.000000
  2 -0.000005 0.000007 3.713255 -6.279788 3.158894 6.191818
  3 18.045721 0.000000 0.000000 0.000000 -0.000000 -0.243566
  4 17.597597 0.000000 0.000000 -0.001675 -0.017562 0.152217
  5 3.793090 6.407221 0.000000 0.000000 -0.000000 1.570796
  6 0.000005 -0.000003 -3.713255 0.355278 3.115745 -0.017353
  7 18.045725 0.000000 0.000000 0.000000 -0.000000 -0.267080
  8 17.597597 0.000000 0.000000 0.202624 0.017977 0.241823
  9 3.793090 6.407221 0.000000 0.000000 -0.000000 1.570796
 10 0.935740 0.000000 0.000000 0.000000 -0.000000 0.000000
 11 0.935741 0.000000 0.000000 0.000000 -0.000000 0.000000
 12 1.293670 0.684478 -0.000001 -0.000004 -0.000001 -0.147611
 13 5.309685 -0.003834 0.000000 -0.261194 -0.017785 -0.067442
 14 4.826790 -0.004591 0.000000 0.000000 -0.000000 -0.094577
 15 5.792767 -0.005304 0.000000 0.000000 -0.000000 0.017444
 16 6.662317 -0.001453 0.000000 0.000000 -0.000001 0.209256
 17 2.046985 -0.000002 0.000000 0.257593 0.047186 -0.240367
 18 -3.393283 0.661759 4.341911 1.001764 -1.206062 1.961094
 19 4.827230 0.000000 0.000001 -0.594825 0.992402 -1.248259
 20 11.139763 0.000000 0.000000 0.000000 -0.000000 -1.932794
 21 10.314597 0.000001 0.000000 -1.068466 -0.403205 -0.135282
 22 2.975834 -0.386307 -0.044143 0.001097 -0.043611 -0.043588
 23 1.438886 0.000000 0.000000 0.000000 -0.000000 1.334476
 24 1.485303 0.000000 0.000000 0.000000 -0.000000 0.793621
 25 -3.131625 0.610576 -4.140396 -1.208207 1.045079 1.774232
 26 4.972048 0.000000 0.000001 -0.259770 -1.069060 0.465291
 27 11.585355 0.000000 0.000000 0.000000 -0.000000 -2.415255
 28 10.127057 0.000000 0.000001 1.510254 0.765311 -0.200791
 29 2.683750 -0.427338 0.044205 -0.005738 0.043239 -0.157060
 30 1.438885 -0.000001 0.000000 0.000000 -0.000000 0.732589
 31 1.485305 0.000001 0.000000 0.000000 -0.000000 1.168627
time 2
  0 0.235347 -0.235347 3.532833 -0.000000 -0.000000 -1.571254
  1 0.000000 0.000000 0.000000 -1.570795 -1.570796 0.000000
  2 -0.000005 0.000007 3.713255 -6.279788 3.158894 6.191818
  3 18.045721 0.000000 0.000000 0.000000 -0.000000 -0.243566
  4 17.597597 0.000000 0.000000 -0.001675 -0.017562 0.152217
  5 3.793090 6.407221 0.000000 0.000000 -0.000000 1.570796
  6 0.000005 -0.000003 -3.713255 0.355278 3.115745 -0.017353
  7 18.045725 0.000000 0.000000 0.000000 -0.000000 -0.267080
  8 17.597597 0.000000 0.000000 0.202624 0.017977 0.241823
  9 3.793090 6.407221 0.000000 0.000000 -0.000000 1.570796
 10 0.935740 0.000000 0.000000 0.000000 -0.000000 0.000000
 11 0.935741 0.000000 0.000000 0.000000 -0.000000 0.000000
 12 1.293670 0.684478 -0.000001 -0.000004 -0.000001 -0.147611
 13 5.309685 -0.003834 0.000000 -0.261194 -0.017785 -0.067442
 14 4.826790 -0.004591 0.000000 0.000000 -0.000000 -0.092504
 15 5.792767 -0.005304 0.000000 0.000000 -0.000000 0.017444
 16 6.662317 -0.001453 0.000000 0.000000 -0.000001 0.209256
 17 2.046985 -0.000002 0.000000 0.257593 0.047186 -0.242390
 18 -3.393283 0.661759 4.341911 0.993040 -1.203908 1.970490
 19 4.827230 0.000000 0.000001 -0.587953 0.989168 -1.242921
 20 11.139763 0.000000 0.000000 0.000000 -0.000000 -1.932794
 21 10.314597 0.000001 0.000000 -1.068466 -0.403205 -0.135282
 22 2.975834 -0.386307 -0.044143 0.001097 -0.043611 -0.043588
 23 1.438886 0.000000 0.000000 0.000000 -0.000000 1.334476
 24 1.485303 0.000000 0.000000 0.000000 -0.000000 0.793621
 25 -3.131625 0.610576 -4.140396 -1.201496 1.043694 1.781806
 26 4.972048 0.000000 0.000001 -0.252112 -1.065440 0.458177
 27 11.585355 0.000000 0.000000 0.000000 -0.000000 -2.415255
 28 10.127057 0.000000 0.000001 1.510254 0.765311 -0.200791
 29 2.683750 -0.427338 0.044205 -0.005738 0.043239 -0.157060
 30 1.438885 -0.000001 0.000000 0.000000 -0.000000 0.732589
 31 1.485305 0.000001 0.000000 0.000000 -0.000000 1.168627
time 3
  0 0.235347 -0.235347 3.532833 -0.000000 -0.000000 -1.571254
  1 0.000000 0.000000 0.000000 -1.570795 -1.570796 0.000000
  2 -0.000005 0.000007 3.713255 -6.279788 3.158894 6.191818
  3 18.045721 0.000000 0.000000 0.000000 -0.000000 -0.243566
  4 17.597597 0.000000 0.000000 -0.001675 -0.017562 0.152217
  5 3.793090 6.407221 0.000000 0.000000 -0.000000 1.570796
  6 0.000005 -0.000003 -3.713255 0.355278 3.115745 -0.017353
  7 18.045725 0.000000 0.000000 0.000000 -0.000000 -0.267080
  8 17.597597 0.000000 0.000000 0.202624 0.017977 0.241823
  9 3.793090 6.407221 0.000000 0.000000 -0.000000 1.570796
 10 0.935740 0.000000 0.000000 0.000000 -0.000000 0.000000
 11 0.935741 0.000000 0.000000 0.000000 -0.000000 0.000000
 12 1.293670 0.684478 -0.000001 -0.000004 -0.000001 -0.147611
 13 5.309685 -0.003834 0.000000 -0.261194 -0.017785 -0.067442
 14 4.826790 -0.004591 0.000000 0.000000 -0.000000 -0.090101
 15 5.792767 -0.005304 0.000000 0.000000 -0.000000 0.017444
 16 6.662317 -0.001453 0.000000 0.000000 -0.000001 0.209256
 17 2.046985 -0.000002 0.000000 0.257593 0.047186 -0.244772
 18 -3.393283 0.661759 4.341911 0.982494 -1.201254 1.981899
 19 4.827230 0.000000 0.000001 -0.579847 0.985594 -1.236620
 20 11.139763 0.000000 0.000000 0.000000 -0.000000 -1.932794
 21 10.314597 0.000001 0.000000 -1.068466 -0.403205 -0.135282
 22 2.975834 -0.386307 -0.044143 0.001097 -0.043611 -0.043588
 23 1.438886 0.000000 0.000000 0.000000 -0.000000 1.334476
 24 1.485303 0.000000 0.000000 0.000000 -0.000000 0.793621
 25 -3.131625 0.610576 -4.140396 -1.193922 1.041885 1.790339
 26 4.972048 0.000000 0.000001 -0.242907 -1.060855 0.449679
 27 11.585355 0.000000 0.000000 0.000000 -0.000000 -2.415255
 28 10.127057 0.000000 0.000001 1.510254 0.765311 -0.200791
 29 2.683750 -0.427338 0.044205 -0.005738 0.043239 -0.157060
 30 1.438885 -0.000001 0.000000 0.000000 -0.000000 0.732589
 31 1.485305 0.000001 0.000000 0.000000 -0.000000 1.168627
time 4
  0 0.235347 -0.235347 3.532833 -0.000000 -0.000000 -1.571254
  1 0.000000 0.000000 0.000000 -1.570795 -1.570796 0.000000
  2 -0.000005 0.000007 3.713255 -6.279788 3.158894 6.191818
  3 18.045721 0.000000 0.000000 0.000000 -0.000000 -0.243566
  4 17.597597 0.000000 0.000000 -0.001675 -0.017562 0.152217
  5 3.793090 6.407221 0.000000 0.000000 -0.000000 1.570796
  6 0.000005 -0.000003 -3.713255 0.355278 3.115745 -0.017353
  7 18.045725 0.000000 0.000000 0.000000 -0.000000 -0.267080
  8 17.597597 0.000000 0.000000 0.202624 0.017977 0.241823
  9 3.793090 6.407221 0.000000 0.000000 -0.000000 1.570796
 10 0.935740 0.000000 0.000000 0.000000 -0.000000 0.000000
 11 0.935741 0.000000 0.000000 0.000000 -0.000000 0.000000
 12 1.293670 0.684478 -0.000001 -0.000004 -0.000001 -0.147611
 13 5.309685 -0.003834 0.000000 -0.261194 -0.017785 -0.067442
 14 4.826790 -0.004591 0.000000 0.000000 -0.000000 -0.087345
 15 5.792767 -0.005304 0.000000 0.000000 -0.000000 0.017444
 16 6.662317 -0.001453 0.000000 0.000000 -0.000001 0.209256
 17 2.046985 -0.000002 0.000000 0.257593 0.047186 -0.247559
 18 -3.393283 0.661759 4.341911 0.970893 -1.198177 1.994363
 19 4.827230 0.000000 0.000001 -0.570567 0.980743 -1.229444
 20 11.139763 0.000000 0.000000 0.000000 -0.000000 -1.932794
 21 10.314597 0.000001 0.000000 -1.068466 -0.403205 -0.135282
 22 2.975834 -0.386307 -0.044143 0.001097 -0.043611 -0.043588
 23 1.438886 0.000000 0.000000 0.000000 -0.000000 1.334476
 24 1.485303 0.000000 0.000000 0.000000 -0.000000 0.793621
 25 -3.131625 0.610576 -4.140396 -1.185389 1.039822 1.800693
 26 4.972048 0.000000 0.000001 -0.232464 -1.055787 0.440062
 27 11.585355 0.000000 0.000000 0.000000 -0.000000 -2.415255
 28 10.127057 0.000000 0.000001 1.510254 0.765311 -0.200791
 29 2.683750 -0.427338 0.044205 -0.005738 0.043239 -0.157060
 30 1.438885 -0.000001 0.000000 0.000000 -0.000000 0.732589
 31 1.485305 0.000001 0.000000 0.000000 -0.000000 1.168627
time 5
  0 0.235347 -0.235347 3.532833 -0.000000 -0.000000 -1.571254
  1 0.000000 0.000000 0.000000 -1.570795 -1.570796 0.000000
  2 -0.000005 0.000007 3.713255 -6.279788 3.158894 6.191818
  3 18.045721 0.000000 0.000000 0.000000 -0.000000 -0.243566
  4 17.597597 0.000000 0.000000 -0.001675 -0.017562 0.152217
  5 3.793090 6.407221 0.000000 0.000000 -0.000000 1.570796
  6 0.000005 -0.000003 -3.713255 0.355278 3.115745 -0.017353
  7 18.045725 0.000000 0.000000 0.000000 -0.000000 -0.267080
  8 17.597597 0.000000 0.000000 0.202624 0.017977 0.241823
  9 3.793090 6.407221 0.000000 0.000000 -0.000000 1.570796
 10 0.935740 0.000000 0.000000 0.000000 -0.000000 0.000000
 11 0.935741 0.000000 0.000000 0.000000 -0.000000 0.000000
 12 1.293670 0.684478 -0.000001 -0.000004 -0.000001 -0.147611
 13 5.309685 -0.003834 0.000000 -0.261194 -0.017785 -0.067442
 14 4.826790 -0.004591 0.000000 0.000000 -0.000000 -0.084391
 15 5.792767 -0.005304 0.000000 0.000000 -0.000000 0.017444
 16 6.662317 -0.001453 0.000000 0.000000 -0.000001 0.209256
 17 2.046985 -0.000002 0.000000 0.257593 0.047186 -0.250390
 18 -3.393283 0.661759 4.341911 0.958238 -1.194754 2.007786
 19 4.827230 0.000000 0.000001 -0.560523 0.975722 -1.221743
 20 11.139763 0.000000 0.000000 0.000000 -0.000000 -1.932794
 21 10.314597 0.000001 0.000000 -1.068466 -0.403205 -0.135282
 22 2.975834 -0.386307 -0.044143 0.001097 -0.043611 -0.043588
 23 1.438886 0.000000 0.000000 0.000000 -0.000000 1.334476
 24 1.485303 0.000000 0.000000 0.000000 -0.000000 0.793621
 25 -3.131625 0.610576 -4.140396 -1.175802 1.037589 1.811527
 26 4.972048 0.000000 0.000001 -0.221325 -1.050156 0.429720
 27 11.585355 0.000000 0.000000 0.000000 -0.000000 -2.415255
 28 10.127057 0.000000 0.000001 1.510254 0.765311 -0.200791
 29 2.683750 -0.427338 0.044205 -0.005738 0.043239 -0.157060
 30 1.438885 -0.000001 0.000000 0.000000 -0.000000 0.732589
 31 1.485305 0.000001 0.000000 0.000000 -0.000000 1.168627
time 6
  0 0.235347 -0.235347 3.532833 -0.000000 -0.000000 -1.571254
  1 0.000000 0.000000 0.000000 -1.570795 -1.570796 0.000000
  2 -0.000005 0.000007 3.713255 -6.279788 3.158894 6.191818
  3 18.045721 0.000000 0.000000 0.000000 -0.000000 -0.243566
  4 17.597597 0.000000 0.000000 -0.001675 -0.017562 0.152217
  5 3.793090 6.407221 0.000000 0.000000 -0.000000 1.570796
  6 0.000005 -0.000003 -3.713255 0.355278 3.115745 -0.017353
  7 18.045725 0.000000 0.000000 0.000000 -0.000000 -0.267080
  8 17.597597 0.000000 0.000000 0.202624 0.017977 0.241823
  9 3.793090 6.407221 0.000000 0.000000 -0.000000 1.570796
 10 0.935740 0.000000 0.000000 0.000000 -0.000000 0.000000
 11 0.935741 0.000000 0.000000 0.000000 -0.000000 0.000000
 12 1.293670 0.684478 -0.000001 -0.000004 -0.000001 -0.147611
 13 5.309685 -0.003834 0.000000 -0.261194 -0.017785 -0.067442
 14 4.826790 -0.004591 0.000000 0.000000 -0.000000 -0.081238
 15 5.792767 -0.005304 0.000000 0.000000 -0.000000 0.017444
 16 6.662317 -0.001453 0.000000 0.000000 -0.000001 0.209256
 17 2.046985 -0.000002 0.000000 0.257593 0.047186 -0.253582
 18 -3.393283 0.661759 4.341911 0.945295 -1.191023 2.022167
 19 4.827230 0.000000 0.000001 -0.550244 0.970446 -1.213867
 20 11.139763 0.000000 0.000000 0.000000 -0.000000 -1.932794
 21 10.314597 0.000001 0.000000 -1.068466 -0.403205 -0.135282
 22 2.975834 -0.386307 -0.044143 0.001097 -0.043611 -0.043588
 23 1.438886 0.000000 0.000000 0.000000 -0.000000 1.334476
 24 1.485303 0.000000 0.000000 0.000000 -0.000000 0.793621
 25 -3.131625 0.610576 -4.140396 -1.166023 1.035130 1.823319
 26 4.972048 0.000000 0.000001 -0.210031 -1.044123 0.419378
 27 11.585355 0.000000 0.000000 0.000000 -0.000000 -2.415255
 28 10.127057 0.000000 0.000001 1.510254 0.765311 -0.200791
 29 2.683750 -0.427338 0.044205 -0.005738 0.043239 -0.157060
 30 1.438885 -0.000001 0.000000 0.000000 -0.000000 0.732589
 31 1.485305 0.000001 0.000000 0.000000 -0.000000 1.168627
time 7
  0 0.235347 -0.235347 3.532833 -0.000000 -0.000000 -1.571254
  1 0.000000 0.000000 0.000000 -1.570795 -1.570796 0.000000
  2 -0.000005 0.000007 3.713255 -6.279788 3.158894 6.191818
  3 18.045721 0.000000 0.000000 0.000000 -0.000000 -0.243566
  4 17.597597 0.000000 0.000000 -0.001675 -0.017562 0.152217
  5 3.793090 6.407221 0.000000 0.000000 -0.000000 1.570796
  6 0.000005 -0.000003 -3.713255 0.355278 3.115745 -0.017353
  7 18.045725 0.000000 0.000000 0.000000 -0.000000 -0.267080
  8 17.597597 0.000000 0.000000 0.202624 0.017977 0.241823
  9 3.793090 6.407221 0.000000 0.000000 -0.000000 1.570796
 10 0.935740 0.000000 0.000000 0.000000 -0.000000 0.000000
 11 0.935741 0.000000 0.000000 0.000000 -0.000000 0.000000
 12 1.293670 0.684478 -0.000001 -0.000004 -0.000001 -0.147611
 13 5.309685 -0.003834 0.000000 -0.261194 -0.017785 -0.067442
 14 4.826790 -0.004591 0.000000 0.000000 -0.000000 -0.077997
 15 5.792767 -0.005304 0.000000 0.000000 -0.000000 0.017444
 16 6.662317 -0.001453 0.000000 0.000000 -0.000001 0.209256
 17 2.046985 -0.000002 0.000000 0.257593 0.047186 -0.256953
 18 -3.393283 0.661759 4.341911 0.932352 -1.187215 2.036069
 19 4.827230 0.000000 0.000001 -0.539789 0.965340 -1.206166
 20 11.139763 0.000000 0.000000 0.000000 -0.000000 -1.932794
 21 10.314597 0.000001 0.000000 -1.068466 -0.403205 -0.135282
 22 2.975834 -0.386307 -0.044143 0.001097 -0.043611 -0.043588
 23 1.438886 0.000000 0.000000 0.000000 -0.000000 1.334476
 24 1.485303 0.000000 0.000000 0.000000 -0.000000 0.793621
 25 -3.131625 0.610576 -4.140396 -1.156148 1.032558 1.834632
 26 4.972048 0.000000 0.000001 -0.198660 -1.037929 0.408970
 27 11.585355 0.000000 0.000000 0.000000 -0.000000 -2.415255
 28 10.127057 0.000000 0.000001 1.510254 0.765311 -0.200791
 29 2.683750 -0.427338 0.044205 -0.005738 0.043239 -0.157060
 30 1.438885 -0.000001 0.000000 0.000000 -0.000000 0.732589
 31 1.485305 0.000001 0.000000 0.000000 -0.000000 1.168627
time 8
  0 0.235347 -0.235347 3.532833 -0.000000 -0.000000 -1.571254
  1 0.000000 0.000000 0.000000 -1.570795 -1.570796 0.000000
  2 -0.000005 0.000007 3.713255 -6.279788 3.158894 6.191818
  3 18.045721 0.000000 0.000000 0.000000 -0.000000 -0.243566
  4 17.597597 0.000000 0.000000 -0.001675 -0.017562 0.152217
  5 3.793090 6.407221 0.000000 0.000000 -0.000000 1.570796
  6 0.000005 -0.000003 -3.713255 0.355278 3.115745 -0.017353
  7 18.045725 0.000000 0.000000 0.000000 -0.000000 -0.267080
  8 17.597597 0.000000 0.000000 0.202624 0.017977 0.241823
  9 3.793090 6.407221 0.000000 0.000000 -0.000000 1.570796
 10 0.935740 0.000000 0.000000 0.000000 -0.000000 0.000000
 11 0.935741 0.000000 0.000000 0.000000 -0.000000 0.000000
 12 1.293670 0.684478 -0.000001 -0.000004 -0.000001 -0.147611
 13 5.309685 -0.003834 0.000000 -0.261194 -0.017785 -0.067442
 14 4.826790 -0.004591 0.000000 0.000000 -0.000000 -0.074800
 15 5.792767 -0.005304 0.000000 0.000000 -0.000000 0.017444
 16 6.662317 -0.001453 0.000000 0.000000 -0.000001 0.209256
 17 2.046985 -0.000002 0.000000 0.257593 0.047186 -0.260144
 18 -3.393283 0.661759 4.341911 0.919793 -1.183369 2.049300
 19 4.827230 0.000000 0.000001 -0.529745 0.959638 -1.198465
 20 11.139763 0.000000 0.000000 0.000000 -0.000000 -1.932794
 21 10.314597 0.000001 0.000000 -1.068466 -0.403205 -0.135282
 22 2.975834 -0.386307 -0.044143 0.001097 -0.043611 -0.043588
 23 1.438886 0.000000 0.000000 0.000000 -0.000000 1.334476
 24 1.485303 0.000000 0.000000 0.000000 -0.000000 0.793621
 25 -3.131625 0.610576 -4.140396 -1.146369 1.029901 1.845945
 26 4.972048 0.000000 0.000001 -0.187521 -1.031735 0.398760
 27 11.585355 0.000000 0.000000 0.000000 -0.000000 -2.415255
 28 10.127057 0.000000 0.000001 1.510254 0.765311 -0.200791
 29 2.683750 -0.427338 0.044205 -0.005738 0.043239 -0.157060
 30 1.438885 -0.000001 0.000000 0.000000 -0.000000 0.732589
 31 1.485305 0.000001 0.000000 0.000000 -0.000000 1.168627
time 9
  0 0.235347 -0.235347 3.532833 -0.000000 -0.000000 -1.571254
  1 0.000000 0.000000 0.000000 -1.570795 -1.570796 0.000000
  2 -0.000005 0.000007 3.713255 -6.279788 3.158894 6.191818
  3 18.045721 0.000000 0.000000 0.000000 -0.000000 -0.243566
  4 17.597597 0.000000 0.000000 -0.001675 -0.017562 0.152217
  5 3.793090 6.407221 0.000000 0.000000 -0.000000 1.570796
  6 0.000005 -0.000003 -3.713255 0.355278 3.115745 -0.017353
  7 18.045725 0.000000 0.000000 0.000000 -0.000000 -0.267080
  8 17.597597 0.000000 0.000000 0.202624 0.017977 0.241823
  9 3.793090 6.407221 0.000000 0.000000 -0.000000 1.570796
 10 0.935740 0.000000 0.000000 0.000000 -0.000000 0.000000
 11 0.935741 0.000000 0.000000 0.000000 -0.000000 0.000000
 12 1.293670 0.684478 -0.000001 -0.000004 -0.000001 -0.147611
 13 5.309685 -0.003834 0.000000 -0.261194 -0.017785 -0.067442
 14 4.826790 -0.004591 0.000000 0.000000 -0.000000 -0.071735
 15 5.792767 -0.005304 0.000000 0.000000 -0.000000 0.017444
 16 6.662317 -0.001453 0.000000 0.000000 -0.000001 0.209256
 17 2.046985 -0.000002 0.000000 0.257593 0.047186 -0.263021
 18 -3.393283 0.661759 4.341911 0.907713 -1.179638 2.062435
 19 4.827230 0.000000 0.000001 -0.520171 0.954362 -1.191377
 20 11.139763 0.000000 0.000000 0.000000 -0.000000 -1.932794
 21 10.314597 0.000001 0.000000 -1.068466 -0.403205 -0.135282
 22 2.975834 -0.386307 -0.044143 0.001097 -0.043611 -0.043588
 23 1.438886 0.000000 0.000000 0.000000 -0.000000 1.334476
 24 1.485303 0.000000 0.000000 0.000000 -0.000000 0.793621
 25 -3.131625 0.610576 -4.140396 -1.137165 1.027414 1.856683
 26 4.972048 0.000000 0.000001 -0.177310 -1.025863 0.389274
 27 11.585355 0.000000 0.000000 0.000000 -0.000000 -2.415255
 28 10.127057 0.000000 0.000001 1.510254 0.765311 -0.200791
 29 2.683750 -0.427338 0.044205 -0.005738 0.043239 -0.157060
 30 1.438885 -0.000001 0.000000 0.000000 -0.000000 0.732589
 31 1.485305 0.000001 0.000000 0.000000 -0.000000 1.168627
time 10
  0 0.235347 -0.235347 3.532833 -0.000000 -0.000000 -1.571254
  1 0.000000 0.000000 0.000000 -1.570795 -1.570796 0.000000
  2 -0.000005 0.000007 3.713255 -6.279788 3.158894 6.191818
  3 18.045721 0.000000 0.000000 0.000000 -0.000000 -0.243566
  4 17.597597 0.000000 0.000000 -0.001675 -0.017562 0.152217
  5 3.793090 6.407221 0.000000 0.000000 -0.000000 1.570796
  6 0.000005 -0.000003 -3.713255 0.355278 3.115745 -0.017353
  7 18.045725 0.000000 0.000000 0.000000 -0.000000 -0.267080
  8 17.597597 0.000000 0.000000 0.202624 0.017977 0.241823
  9 3.793090 6.407221 0.000000 0.000000 -0.000000 1.570796
 10 0.935740 0.000000 0.000000 0.000000 -0.000000 0.000000
 11 0.935741 0.000000 0.000000 0.000000 -0.000000 0.000000
 12 1.293670 0.684478 -0.000001 -0.000004 -0.000001 -0.147611
 13 5.309685 -0.003834 0.000000 -0.261194 -0.017785 -0.067442
 14 4.826790 -0.004591 0.000000 0.000000 -0.000000 -0.068891
 15 5.792767 -0.005304 0.000000 0.000000 -0.000000 0.017444
 16 6.662317 -0.001453 0.000000 0.000000 -0.000001 0.209256
 17 2.046985 -0.000002 0.000000 0.257593 0.047186 -0.266077
 18 -3.393283 0.661759 4.341911 0.897071 -1.176138 2.074036
 19 4.827230 0.000000 0.000001 -0.511302 0.949511 -1.184901
 20 11.139763 0.000000 0.000000 0.000000 -0.000000 -1.932794
 21 10.314597 0.000001 0.000000 -1.068466 -0.403205 -0.135282
 22 2.975834 -0.386307 -0.044143 0.001097 -0.043611 -0.043588
 23 1.438886 0.000000 0.000000 0.000000 -0.000000 1.334476
 24 1.485303 0.000000 0.000000 0.000000 -0.000000 0.793621
 25 -3.131625 0.610576 -4.140396 -1.128632 1.024955 1.866654
 26 4.972048 0.000000 0.000001 -0.167950 -1.020232 0.380645
 27 11.585355 0.000000 0.000000 0.000000 -0.000000 -2.415255
 28 10.127057 0.000000 0.000001 1.510254 0.765311 -0.200791
 29 2.683750 -0.427338 0.044205 -0.005738 0.043239 -0.157060
 30 1.438885 -0.000001 0.000000 0.000000 -0.000000 0.732589
 31 1.485305 0.000001 0.000000 0.000000 -0.000000 1.168627
time 11
  0 0.235347 -0.235347 3.532833 -0.000000 -0.000000 -1.571254
  1 0.000000 0.000000 0.000000 -1.570795 -1.570796 0.000000
  2 -0.000005 0.000007 3.713255 -6.279788 3.158894 6.191818
  3 18.045721 0.000000 0.000000 0.000000 -0.000000 -0.243566
  4 17.597597 0.000000 0.000000 -0.001675 -0.017562 0.152217
  5 3.793090 6.407221 0.000000 0.000000 -0.000000 1.570796
  6 0.000005 -0.000003 -3.713255 0.355278 3.115745 -0.017353
  7 18.045725 0.000000 0.000000 0.000000 -0.000000 -0.267080
  8 17.597597 0.000000 0.000000 0.202624 0.017977 0.241823
  9 3.793090 6.407221 0.000000 0.000000 -0.000000 1.570796
 10 0.935740 0.000000 0.000000 0.000000 -0.000000 0.000000
 11 0.935741 0.000000 0.000000 0.000000 -0.000000 0.000000
 12 1.293670 0.684478 -0.000001 -0.000004 -0.000001 -0.147611
 13 5.309685 -0.003834 0.000000 -0.261194 -0.017785 -0.067442
 14 4.826790 -0.004591 0.000000 0.000000 -0.000000 -0.066267
 15 5.792767 -0.005304 0.000000 0.000000 -0.000000 0.017444
 16 6.662317 -0.001453 0.000000 0.000000 -0.000001 0.209256
 17 2.046985 -0.000002 0.000000 0.257593 0.047186 -0.268414
 18 -3.393283 0.661759 4.341911 0.887292 -1.172907 2.084103
 19 4.827230 0.000000 0.000001 -0.503490 0.945086 -1.178862
 20 11.139763 0.000000 0.000000 0.000000 -0.000000 -1.932794
 21 10.314597 0.000001 0.000000 -1.068466 -0.403205 -0.135282
 22 2.975834 -0.386307 -0.044143 0.001097 -0.043611 -0.043588
 23 1.438886 0.000000 0.000000 0.000000 -0.000000 1.334476
 24 1.485303 0.000000 0.000000 0.000000 -0.000000 0.793621
 25 -3.131625 0.610576 -4.140396 -1.121058 1.022722 1.875474
 26 4.972048 0.000000 0.000001 -0.159673 -1.015084 0.372938
 27 11.585355 0.000000 0.000000 0.000000 -0.000000 -2.415255
 28 10.127057 0.000000 0.000001 1.510254 0.765311 -0.200791
 29 2.683750 -0.427338 0.044205 -0.005738 0.043239 -0.157060
 30 1.438885 -0.000001 0.000000 0.000000 -0.000000 0.732589
 31 1.485305 0.000001 0.000000 0.000000 -0.000000 1.168627
time 12
  0 0.235347 -0.235347 3.532833 -0.000000 -0.000000 -1.571254
  1 0.000000 0.000000 0.000000 -1.570795 -1.570796 0.000000
  2 -0.000005 0.000007 3.713255 -6.279788 3.158894 6.191818
  3 18.045721 0.000000 0.000000 0.000000 -0.000000 -0.243566
  4 17.597597 0.000000 0.000000 -0.001675 -0.017562 0.152217
  5 3.793090 6.407221 0.000000 0.000000 -0.000000 1.570796
  6 0.000005 -0.000003 -3.713255 0.355278 3.115745 -0.017353
  7 18.045725 0.000000 0.000000 0.000000 -0.000000 -0.267080
  8 17.597597 0.000000 0.000000 0.202624 0.017977 0.241823
  9 3.793090 6.407221 0.000000 0.000000 -0.000000 1.570796
 10 0.935740 0.000000 0.000000 0.000000 -0.000000 0.000000
 11 0.935741 0.000000 0.000000 0.000000 -0.000000 0.000000
 12 1.293670 0.684478 -0.000001 -0.000004 -0.000001 -0.147611
 13 5.309685 -0.003834 0.000000 -0.261194 -0.017785 -0.067442
 14 4.826790 -0.004591 0.000000 0.000000 -0.000000 -0.064128
 15 5.792767 -0.005304 0.000000 0.000000 -0.000000 0.017444
 16 6.662317 -0.001453 0.000000 0.000000 -0.000001 0.209256
 17 2.046985 -0.000002 0.000000 0.257593 0.047186 -0.270752
 18 -3.393283 0.661759 4.341911 0.879718 -1.170215 2.092636
 19 4.827230 0.000000 0.000001 -0.497029 0.941682 -1.174487
 20 11.139763 0.000000 0.000000 0.000000 -0.000000 -1.932794
 21 10.314597 0.000001 0.000000 -1.068466 -0.403205 -0.135282
 22 2.975834 -0.386307 -0.044143 0.001097 -0.043611 -0.043588
 23 1.438886 0.000000 0.000000 0.000000 -0.000000 1.334476
 24 1.485303 0.000000 0.000000 0.000000 -0.000000 0.793621
 25 -3.131625 0.610576 -4.140396 -1.114635 1.020885 1.882952
 26 4.972048 0.000000 0.000001 -0.152866 -1.010901 0.366746
 27 11.585355 0.000000 0.000000 0.000000 -0.000000 -2.415255
 28 10.127057 0.000000 0.000001 1.510254 0.765311 -0.200791
 29 2.683750 -0.427338 0.044205 -0.005738 0.043239 -0.157060
 30 1.438885 -0.000001 0.000000 0.000000 -0.000000 0.732589
 31 1.485305 0.000001 0.000000 0.000000 -0.000000 1.168627
time 13
  0 0.235347 -0.235347 3.532833 -0.000000 -0.000000 -1.571254
  1 0.000000 0.000000 0.000000 -1.570795 -1.570796 0.000000
  2 -0.000005 0.000007 3.713255 -6.279788 3.158894 6.191818
  3 18.045721 0.000000 0.000000 0.000000 -0.000000 -0.243566
  4 17.597597 0.000000 0.000000 -0.001675 -0.017562 0.152217
  5 3.793090 6.407221 0.000000 0.000000 -0.000000 1.570796
  6 0.000005 -0.000003 -3.713255 0.355278 3.115745 -0.017353
  7 18.045725 0.000000 0.000000 0.000000 -0.000000 -0.267080
  8 17.597597 0.000000 0.000000 0.202624 0.017977 0.241823
  9 3.793090 6.407221 0.000000 0.000000 -0.000000 1.570796
 10 0.935740 0.000000 0.000000 0.000000 -0.000000 0.000000
 11 0.935741 0.000000 0.000000 0.000000 -0.000000 0.000000
 12 1.293670 0.684478 -0.000001 -0.000004 -0.000001 -0.147611
 13 5.309685 -0.003834 0.000000 -0.261194 -0.017785 -0.067442
 14 4.826790 -0.004591 0.000000 0.000000 -0.000000 -0.062563
 15 5.792767 -0.005304 0.000000 0.000000 -0.000000 0.017444
 16 6.662317 -0.001453 0.000000 0.000000 -0.000001 0.209256
 17 2.046985 -0.000002 0.000000 0.257593 0.047186 -0.272370
 18 -3.393283 0.661759 4.341911 0.873678 -1.168138 2.099060
 19 4.827230 0.000000 0.000001 -0.492154 0.938533 -1.170899
 20 11.139763 0.000000 0.000000 0.000000 -0.000000 -1.932794
 21 10.314597 0.000001 0.000000 -1.068466 -0.403205 -0.135282
 22 2.975834 -0.386307 -0.044143 0.001097 -0.043611 -0.043588
 23 1.438886 0.000000 0.000000 0.000000 -0.000000 1.334476
 24 1.485303 0.000000 0.000000 0.000000 -0.000000 0.793621
 25 -3.131625 0.610576 -4.140396 -1.110033 1.019415 1.888513
 26 4.972048 0.000000 0.000001 -0.147683 -1.007603 0.362003
 27 11.585355 0.000000 0.000000 0.000000 -0.000000 -2.415255
 28 10.127057 0.000000 0.000001 1.510254 0.765311 -0.200791
 29 2.683750 -0.427338 0.044205 -0.005738 0.043239 -0.157060
 30 1.438885 -0.000001 0.000000 0.000000 -0.000000 0.732589
 31 1.485305 0.000001 0.000000 0.000000 -0.000000 1.168627
time 14
  0 0.235347 -0.235347 3.532833 -0.000000 -0.000000 -1.571254
  1 0.000000 0.000000 0.000000 -1.570795 -1.570796 0.000000
  2 -0.000005 0.000007 3.713255 -6.279788 3.158894 6.191818
  3 18.045721 0.000000 0.000000 0.000000 -0.000000 -0.243566
  4 17.597597 0.000000 0.000000 -0.001675 -0.017562 0.152217
  5 3.793090 6.407221 0.000000 0.000000 -0.000000 1.570796
  6 0.000005 -0.000003 -3.713255 0.355278 3.115745 -0.017353
  7 18.045725 0.000000 0.000000 0.000000 -0.000000 -0.267080
  8 17.597597 0.000000 0.000000 0.202624 0.017977 0.241823
  9 3.793090 6.407221 0.000000 0.000000 -0.000000 1.570796
 10 0.935740 0.000000 0.000000 0.000000 -0.000000 0.000000
 11 0.935741 0.000000 0.000000 0.000000 -0.000000 0.000000
 12 1.293670 0.684478 -0.000001 -0.000004 -0.000001 -0.147611
 13 5.309685 -0.003834 0.000000 -0.261194 -0.017785 -0.067442
 14 4.826790 -0.004591 0.000000 0.000000 -0.000000 -0.061438
 15 5.792767 -0.005304 0.000000 0.000000 -0.000000 0.017444
 16 6.662317 -0.001453 0.000000 0.000000 -0.000001 0.209256
 17 2.046985 -0.000002 0.000000 0.257593 0.047186 -0.273359
 18 -3.393283 0.661759 4.341911 0.869939 -1.166753 2.103374
 19 4.827230 0.000000 0.000001 -0.489041 0.936661 -1.168624
 20 11.139763 0.000000 0.000000 0.000000 -0.000000 -1.932794
 21 10.314597 0.000001 0.000000 -1.068466 -0.403205 -0.135282
 22 2.975834 -0.386307 -0.044143 0.001097 -0.043611 -0.043588
 23 1.438886 0.000000 0.000000 0.000000 -0.000000 1.334476
 24 1.485303 0.000000 0.000000 0.000000 -0.000000 0.793621
 25 -3.131625 0.610576 -4.140396 -1.106965 1.018454 1.892060
 26 4.972048 0.000000 0.000001 -0.144357 -1.005431 0.358973
 27 11.585355 0.000000 0.000000 0.000000 -0.000000 -2.415255
 28 10.127057 0.000000 0.000001 1.510254 0.765311 -0.200791
 29 2.683750 -0.427338 0.044205 -0.005738 0.043239 -0.157060
 30 1.438885 -0.000001 0.000000 0.000000 -0.000000 0.732589
 31 1.485305 0.000001 0.000000 0.000000 -0.000000 1.168627
time 15
  0 0.235347 -0.235347 3.532833 -0.000000 -0.000000 -1.571254
  1 0.000000 0.000000 0.000000 -1.570795 -1.570796 0.000000
  2 -0.000005 0.000007 3.713255 -6.279788 3.158894 6.191818
  3 18.045721 0.000000 0.000000 0.000000 -0.000000 -0.243566
  4 17.597597 0.000000 0.000000 -0.001675 -0.017562 0.152217
  5 3.793090 6.407221 0.000000 0.000000 -0.000000 1.570796
  6 0.000005 -0.000003 -3.713255 0.355278 3.115745 -0.017353
  7 18.045725 0.000000 0.000000 0.000000 -0.000000 -0.267080
  8 17.597597 0.000000 0.000000 0.202624 0.017977 0.241823
  9 3.793090 6.407221 0.000000 0.000000 -0.000000 1.570796
 10 0.935740 0.000000 0.000000 0.000000 -0.000000 0.000000
 11 0.935741 0.000000 0.000000 0.000000 -0.000000 0.000000
 12 1.293670 0.684478 -0.000001 -0.000004 -0.000001 -0.147611
 13 5.309685 -0.003834 0.000000 -0.261194 -0.017785 -0.067442
 14 4.826790 -0.004591 0.000000 0.000000 -0.000000 -0.061130
 15 5.792767 -0.005304 0.000000 0.000000 -0.000000 0.017444
 16 6.662317 -0.001453 0.000000 0.000000 -0.000001 0.209256
 17 2.046985 -0.000002 0.000000 0.257593 0.047186 -0.273808
 18 -3.393283 0.661759 4.341911 0.868405 -1.166253 2.104908
 19 4.827230 0.000000 0.000001 -0.487925 0.936065 -1.167924
 20 11.139763 0.000000 0.000000 0.000000 -0.000000 -1.932794
 21 10.314597 0.000001 0.000000 -1.068466 -0.403205 -0.135282
 22 2.975834 -0.386307 -0.044143 0.001097 -0.043611 -0.043588
 23 1.438886 0.000000 0.000000 0.000000 -0.000000 1.334476
 24 1.485303 0.000000 0.000000 0.000000 -0.000000 0.793621
 25 -3.131625 0.610576 -4.140396 -1.105527 1.018143 1.893594
 26 4.972048 0.000000 0.000001 -0.143274 -1.004707 0.357919
 27 11.585355 0.000000 0.000000 0.000000 -0.000000 -2.415255
 28 10.127057 0.000000 0.000001 1.510254 0.765311 -0.200791
 29 2.683750 -0.427338 0.044205 -0.005738 0.043239 -0.157060
 30 1.438885 -0.000001 0.000000 0.000000 -0.000000 0.732589
 31 1.485305 0.000001 0.000000 0.000000 -0.000000 1.168627
time 16
  0 0.235347 -0.235347 3.532833 -0.000000 -0.000000 -1.571254
  1 0.000000 0.000000 0.000000 -1.570795 -1.570796 0.000000
  2 -0.000005 0.000007 3.713255 -6.279788 3.158894 6.191818
  3 18.045721 0.000000 0.000000 0.000000 -0.000000 -0.243566
  4 17.597597 0.000000 0.000000 -0.001675 -0.017562 0.152217
  5 3.793090 6.407221 0.000000 0.000000 -0.000000 1.570796
  6 0.000005 -0.000003 -3.713255 0.355278 3.115745 -0.017353
  7 18.045725 0.000000 0.000000 0.000000 -0.000000 -0.267080
  8 17.597597 0.000000 0.000000 0.202624 0.017977 0.241823
  9 3.793090 6.407221 0.000000 0.000000 -0.000000 1.570796
 10 0.935740 0.000000 0.000000 0.000000 -0.000000 0.000000
 11 0.935741 0.000000 0.000000 0.000000 -0.000000 0.000000
 12 1.293670 0.684478 -0.000001 -0.000004 -0.000001 -0.147611
 13 5.309685 -0.003834 0.000000 -0.261194 -0.017785 -0.067442
 14 4.826790 -0.004591 0.000000 0.000000 -0.000000 -0.061438
 15 5.792767 -0.005304 0.000000 0.000000 -0.000000 0.017444
 16 6.662317 -0.001453 0.000000 0.000000 -0.000001 0.209256
 17 2.046985 -0.000002 0.000000 0.257593 0.047186 -0.273359
 18 -3.393283 0.661759 4.341911 0.869939 -1.166753 2.103374
 19 4.827230 0.000000 0.000001 -0.489041 0.936661 -1.168624
 20 11.139763 0.000000 0.000000 0.000000 -0.000000 -1.932794
 21 10.314597 0.000001 0.000000 -1.068466 -0.403205 -0.135282
 22 2.975834 -0.386307 -0.044143 0.001097 -0.043611 -0.043588
 23 1.438886 0.000000 0.000000 0.000000 -0.000000 1.334476
 24 1.485303 0.000000 0.000000 0.000000 -0.000000 0.793621
 25 -3.131625 0.610576 -4.140396 -1.106965 1.018454 1.892060
 26 4.972048 0.000000 0.000001 -0.144357 -1.005431 0.358973
 27 11.585355 0.000000 0.000000 0.000000 -0.000000 -2.415255
 28 10.127057 0.000000 0.000001 1.510254 0.765311 -0.200791
 29 2.683750 -0.427338 0.044205 -0.005738 0.043239 -0.157060
 30 1.438885 -0.000001 0.000000 0.000000 -0.000000 0.732589
 31 1.485305 0.000001 0.000000 0.000000 -0.000000 1.168627
time 17
  0 0.235347 -0.235347 3.532833 -0.000000 -0.000000 -1.571254
  1 0.000000 0.000000 0.000000 -1.570795 -1.570796 0.000000
  2 -0.000005 0.000007 3.713255 -6.279788 3.158894 6.191818
  3 18.045721 0.000000 0.000000 0.000000 -0.000000 -0.243566
  4 17.597597 0.000000 0.000000 -0.001675 -0.017562 0.152217
  5 3.793090 6.407221 0.000000 0.000000 -0.000000 1.570796
  6 0.000005 -0.000003 -3.713255 0.355278 3.115745 -0.017353
  7 18.045725 0.000000 0.000000 0.000000 -0.000000 -0.267080
  8 17.597597 0.000000 0.000000 0.202624 0.017977 0.241823
  9 3.793090 6.407221 0.000000 0.000000 -0.000000 1.570796
 10 0.935740 0.000000 0.000000 0.000000 -0.000000 0.000000
 11 0.935741 0.000000 0.000000 0.000000 -0.000000 0.000000
 12 1.293670 0.684478 -0.000001 -0.000004 -0.000001 -0.147611
 13 5.309685 -0.003834 0.000000 -0.261194 -0.017785 -0.067442
 14 4.826790 -0.004591 0.000000 0.000000 -0.000000 -0.062563
 15 5.792767 -0.005304 0.000000 0.000000 -0.000000 0.017444
 16 6.662317 -0.001453 0.000000 0.000000 -0.000001 0.209256
 17 2.046985 -0.000002 0.000000 0.257593 0.047186 -0.272370
 18 -3.393283 0.661759 4.341911 0.873678 -1.168138 2.099060
 19 4.827230 0.000000 0.000001 -0.492154 0.938533 -1.170899
 20 11.139763 0.000000 0.000000 0.000000 -0.000000 -1.932794
 21 10.314597 0.000001 0.000000 -1.068466 -0.403205 -0.135282
 22 2.975834 -0.386307 -0.044143 0.001097 -0.043611 -0.043588
 23 1.438886 0.000000 0.000000 0.000000 -0.000000 1.334476
 24 1.485303 0.000000 0.000000 0.000000 -0.000000 0.793621
 25 -3.131625 0.610576 -4.140396 -1.110033 1.019415 1.888513
 26 4.972048 0.000000 0.000001 -0.147683 -1.007603 0.362003
 27 11.585355 0.000000 0.000000 0.000000 -0.000000 -2.415255
 28 10.127057 0.000000 0.000001 1.510254 0.765311 -0.200791
 29 2.683750 -0.427338 0.044205 -0.005738 0.043239 -0.157060
 30 1.438885 -0.000001 0.000000 0.000000 -0.000000 0.732589
 31 1.485305 0.000001 0.000000 0.000000 -0.000000 1.168627
time 18
  0 0.235347 -0.235347 3.532833 -0.000000 -0.000000 -1.571254
  1 0.000000 0.000000 0.000000 -1.570795 -1.570796 0.000000
  2 -0.000005 0.000007 3.713255 -6.279788 3.158894 6.191818
  3 18.045721 0.000000 0.000000 0.000000 -0.000000 -0.243566
  4 17.597597 0.000000 0.000000 -0.001675 -0.017562 0.152217
  5 3.793090 6.407221 0.000000 0.000000 -0.000000 1.570796
  6 0.000005 -0.000003 -3.713255 0.355278 3.115745 -0.017353
  7 18.045725 0.000000 0.000000 0.000000 -0.000000 -0.267080
  8 17.597597 0.000000 0.000000 0.202624 0.017977 0.241823
  9 3.793090 6.407221 0.000000 0.000000 -0.000000 1.570796
 10 0.935740 0.000000 0.000000 0.000000 -0.000000 0.000000
 11 0.935741 0.000000 0.000000 0.000000 -0.000000 0.000000
 12 1.293670 0.684478 -0.000001 -0.000004 -0.000001 -0.147611
 13 5.309685 -0.003834 0.000000 -0.261194 -0.017785 -0.067442
 14 4.826790 -0.004591 0.000000 0.000000 -0.000000 -0.064128
 15 5.792767 -0.005304 0.000000 0.000000 -0.000000 0.017444
 16 6.662317 -0.001453 0.000000 0.000000 -0.000001 0.209256
 17 2.046985 -0.000002 0.000000 0.257593 0.047186 -0.270752
 18 -3.393283 0.661759 4.341911 0.879718 -1.170215 2.092636
 19 4.827230 0.000000 0.000001 -0.497029 0.941682 -1.174487
 20 11.139763 0.000000 0.000000 0.000000 -0.000000 -1.932794
 21 10.314597 0.000001 0.000000 -1.068466 -0.403205 -0.135282
 22 2.975834 -0.386307 -0.044143 0.001097 -0.043611 -0.043588
 23 1.438886 0.000000 0.000000 0.000000 -0.000000 1.334476
 24 1.485303 0.000000 0.000000 0.000000 -0.000000 0.793621
 25 -3.131625 0.610576 -4.140396 -1.114635 1.020885 1.882952
 26 4.972048 0.000000 0.000001 -0.152866 -1.010901 0.366746
 27 11.585355 0.000000 0.000000 0.000000 -0.000000 -2.415255
 28 10.127057 0.000000 0.000001 1.510254 0.765311 -0.200791
 29 2.683750 -0.427338 0.044205 -0.005738 0.043239 -0.157060
 30 1.438885 -0.000001 0.000000 0.000000 -0.000000 0.732589
 31 1.485305 0.000001 0.000000 0.000000 -0.000000 1.168627
time 19
  0 0.235347 -0.235347 3.532833 -0.000000 -0.000000 -1.571254
  1 0.000000 0.000000 0.000000 -1.570795 -1.570796 0.000000
  2 -0.000005 0.000007 3.713255 -6.279788 3.158894 6.191818
  3 18.045721 0.000000 0.000000 0.000000 -0.000000 -0.243566
  4 17.597597 0.000000 0.000000 -0.001675 -0.017562 0.152217
  5 3.793090 6.407221 0.000000 0.000000 -0.000000 1.570796
  6 0.000005 -0.000003 -3.713255 0.355278 3.115745 -0.017353
  7 18.045725 0.000000 0.000000 0.000000 -0.000000 -0.267080
  8 17.597597 0.000000 0.000000 0.202624 0.017977 0.241823
  9 3.793090 6.407221 0.000000 0.000000 -0.000000 1.570796
 10 0.935740 0.000000 0.000000 0.000000 -0.000000 0.000000
 11 0.935741 0.000000 0.000000 0.000000 -0.000000 0.000000
 12 1.293670 0.684478 -0.000001 -0.000004 -0.000001 -0.147611
 13 5.309685 -0.003834 0.000000 -0.261194 -0.017785 -0.067442
 14 4.826790 -0.004591 0.000000 0.000000 -0.000000 -0.066267
 15 5.792767 -0.005304 0.000000 0.000000 -0.000000 0.017444
 16 6.662317 -0.001453 0.000000 0.000000 -0.000001 0.209256
 17 2.046985 -0.000002 0.000000 0.257593 0.047186 -0.268414
 18 -3.393283 0.661759 4.341911 0.887292 -1.172907 2.084103
 19 4.827230 0.000000 0.000001 -0.503490 0.945086 -1.178862
 20 11.139763 0.000000 0.000000 0.000000 -0.000000 -1.932794
 21 10.314597 0.000001 0.000000 -1.068466 -0.403205 -0.135282
 22 2.975834 -0.386307 -0.044143 0.001097 -0.043611 -0.043588
 23 1.438886 0.000000 0.000000 0.000000 -0.000000 1.334476
 24 1.485303 0.000000 0.000000 0.000000 -0.000000 0.793621
 25 -3.131625 0.610576 -4.140396 -1.121058 1.022722 1.875474
 26 4.972048 0.000000 0.000001 -0.159673 -1.015084 0.372938
 27 11.585355 0.000000 0.000000 0.000000 -0.000000 -2.415255
 28 10.127057 0.000000 0.000001 1.510254 0.765311 -0.200791
 29 2.683750 -0.427338 0.044205 -0.005738 0.043239 -0.157060
 30 1.438885 -0.000001 0.000000 0.000000 -0.000000 0.732589
 31 1.485305 0.000001 0.000000 0.000000 -0.000000 1.168627
time 20
  0 0.235347 -0.235347 3.532833 -0.000000 -0.000000 -1.571254
  1 0.000000 0.000000 0.000000 -1.570795 -1.570796 0.000000
  2 -0.000005 0.000007 3.713255 -6.279788 3.158894 6.191818
  3 18.045721 0.000000 0.000000 0.000000 -0.000000 -0.243566
  4 17.597597 0.000000 0.000000 -0.001675 -0.017562 0.152217
  5 3.793090 6.407221 0.000000 0.000000 -0.000000 1.570796
  6 0.000005 -0.000003 -3.713255 0.355278 3.115745 -0.017353
  7 18.045725 0.000000 0.000000 0.000000 -0.000000 -0.267080
  8 17.597597 0.000000 0.000000 0.202624 0.017977 0.241823
  9 3.793090 6.407221 0.000000 0.000000 -0.000000 1.570796
 10 0.935740 0.000000 0.000000 0.000000 -0.000000 0.000000
 11 0.935741 0.000000 0.000000 0.000000 -0.000000 0.000000
 12 1.293670 0.684478 -0.000001 -0.000004 -0.000001 -0.147611
 13 5.309685 -0.003834 0.000000 -0.261194 -0.017785 -0.067442
 14 4.826790 -0.004591 0.000000 0.000000 -0.000000 -0.068891
 15 5.792767 -0.005304 0.000000 0.000000 -0.000000 0.017444
 16 6.662317 -0.001453 0.000000 0.000000 -0.000001 0.209256
 17 2.046985 -0.000002 0.000000 0.257593 0.047186 -0.266077
 18 -3.393283 0.661759 4.341911 0.897071 -1.176138 2.074036
 19 4.827230 0.000000 0.000001 -0.511302 0.949511 -1.184901
 20 11.139763 0.000000 0.000000 0.000000 -0.000000 -1.932794
 21 10.314597 0.000001 0.000000 -1.068466 -0.403205 -0.135282
 22 2.975834 -0.386307 -0.044143 0.001097 -0.043611 -0.043588
 23 1.438886 0.000000 0.000000 0.000000 -0.000000 1.334476
 24 1.485303 0.000000 0.000000 0.000000 -0.000000 0.793621
 25 -3.131625 0.610576 -4.140396 -1.128632 1.024955 1.866654
 26 4.972048 0.000000 0.000001 -0.167950 -1.020232 0.380645
 27 11.585355 0.000000 0.000000 0.000000 -0.000000 -2.415255
 28 10.127057 0.000000 0.000001 1.510254 0.765311 -0.200791
 29 2.683750 -0.427338 0.044205 -0.005738 0.043239 -0.157060
 30 1.438885 -0.000001 0.000000 0.000000 -0.000000 0.732589
 31 1.485305 0.000001 0.000000 0.000000 -0.000000 1.168627
time 21
  0 0.235347 -0.235347 3.532833 -0.000000 -0.000000 -1.571254
  1 0.000000 0.000000 0.000000 -1.570795 -1.570796 0.000000
  2 -0.000005 0.000007 3.713255 -6.279788 3.158894 6.191818
  3 18.045721 0.000000 0.000000 0.000000 -0.000000 -0.243566
  4 17.597597 0.000000 0.000000 -0.001675 -0.017562 0.152217
  5 3.793090 6.407221 0.000000 0.000000 -0.000000 1.570796
  6 0.000005 -0.000003 -3.713255 0.355278 3.115745 -0.017353
  7 18.045725 0.000000 0.000000 0.000000 -0.000000 -0.267080
  8 17.597597 0.000000 0.000000 0.202624 0.017977 0.241823
  9 3.793090 6.407221 0.000000 0.000000 -0.000000 1.570796
 10 0.935740 0.000000 0.000000 0.000000 -0.000000 0.000000
 11 0.935741 0.000000 0.000000 0.000000 -0.000000 0.000000
 12 1.293670 0.684478 -0.000001 -0.000004 -0.000001 -0.147611
 13 5.309685 -0.003834 0.000000 -0.261194 -0.017785 -0.067442
 14 4.826790 -0.004591 0.000000 0.000000 -0.000000 -0.071735
 15 5.792767 -0.005304 0.000000 0.000000 -0.000000 0.017444
 16 6.662317 -0.001453 0.000000 0.000000 -0.000001 0.209256
 17 2.046985 -0.000002 0.000000 0.257593 0.047186 -0.263021
 18 -3.393283 0.661759 4.341911 0.907713 -1.179638 2.062435
 19 4.827230 0.000000 0.000001 -0.520171 0.954362 -1.191377
 20 11.139763 0.000000 0.000000 0.000000 -0.000000 -1.932794
 21 10.314597 0.000001 0.000000 -1.068466 -0.403205 -0.135282
 22 2.975834 -0.386307 -0.044143 0.001097 -0.043611 -0.043588
 23 1.438886 0.000000 0.000000 0.000000 -0.000000 1.334476
 24 1.485303 0.000000 0.000000 0.000000 -0.000000 0.793621
 25 -3.131625 0.610576 -4.140396 -1.137165 1.027414 1.856683
 26 4.972048 0.000000 0.000001 -0.177310 -1.025863 0.389274
 27 11.585355 0.000000 0.000000 0.000000 -0.000000 -2.415255
 28 10.127057 0.000000 0.000001 1.510254 0.765311 -0.200791
 29 2.683750 -0.427338 0.044205 -0.005738 0.043239 -0.157060
 30 1.438885 -0.000001 0.000000 0.000000 -0.000000 0.732589
 31 1.485305 0.000001 0.000000 0.000000 -0.000000 1.168627
time 22
  0 0.235347 -0.235347 3.532833 -0.000000 -0.000000 -1.571254
  1 0.000000 0.000000 0.000000 -1.570795 -1.570796 0.000000
  2 -0.000005 0.000007 3.713255 -6.279788 3.158894 6.191818
  3 18.045721 0.000000 0.000000 0.000000 -0.000000 -0.243566
  4 17.597597 0.000000 0.000000 -0.001675 -0.017562 0.152217
  5 3.793090 6.407221 0.000000 0.000000 -0.000000 1.570796
  6 0.000005 -0.000003 -3.713255 0.355278 3.115745 -0.017353
  7 18.045725 0.000000 0.000000 0.000000 -0.000000 -0.267080
  8 17.597597 0.000000 0.000000 0.202624 0.017977 0.241823
  9 3.793090 6.407221 0.000000 0.000000 -0.000000 1.570796
 10 0.935740 0.000000 0.000000 0.000000 -0.000000 0.000000
 11 0.935741 0.000000 0.000000 0.000000 -0.000000 0.000000
 12 1.293670 0.684478 -0.000001 -0.000004 -0.000001 -0.147611
 13 5.309685 -0.003834 0.000000 -0.261194 -0.017785 -0.067442
 14 4.826790 -0.004591 0.000000 0.000000 -0.000000 -0.074800
 15 5.792767 -0.005304 0.000000 0.000000 -0.000000 0.017444
 16 6.662317 -0.001453 0.000000 0.000000 -0.000001 0.209256
 17 2.046985 -0.000002 0.000000 0.257593 0.047186 -0.260144
 18 -3.393283 0.661759 4.341911 0.919793 -1.183369 2.049300
 19 4.827230 0.000000 0.000001 -0.529745 0.959638 -1.198465
 20 11.139763 0.000000 0.000000 0.000000 -0.000000 -1.932794
 21 10.314597 0.000001 0.000000 -1.068466 -0.403205 -0.135282
 22 2.975834 -0.386307 -0.044143 0.001097 -0.043611 -0.043588
 23 1.438886 0.000000 0.000000 0.000000 -0.000000 1.334476
 24 1.485303 0.000000 0.000000 0.000000 -0.000000 0.793621
 25 -3.131625 0.610576 -4.140396 -1.146369 1.029901 1.845945
 26 4.972048 0.000000 0.000001 -0.187521 -1.031735 0.398760
 27 11.585355 0.000000 0.000000 0.000000 -0.000000 -2.415255
 28 10.127057 0.000000 0.000001 1.510254 0.765311 -0.200791
 29 2.683750 -0.427338 0.044205 -0.005738 0.043239 -0.157060
 30 1.438885 -0.000001 0.000000 0.000000 -0.000000 0.732589
 31 1.485305 0.000001 0.000000 0.000000 -0.000000 1.168627
time 23
  0 0.235347 -0.235347 3.532833 -0.000000 -0.000000 -1.571254
  1 0.000000 0.000000 0.000000 -1.570795 -1.570796 0.000000
  2 -0.000005 0.000007 3.713255 -6.279788 3.158894 6.191818
  3 18.045721 0.000000 0.000000 0.000000 -0.000000 -0.243566
  4 17.597597 0.000000 0.000000 -0.001675 -0.017562 0.152217
  5 3.793090 6.407221 0.000000 0.000000 -0.000000 1.570796
  6 0.000005 -0.000003 -3.713255 0.355278 3.115745 -0.017353
  7 18.045725 0.000000 0.000000 0.000000 -0.000000 -0.267080
  8 17.597597 0.000000 0.000000 0.202624 0.017977 0.241823
  9 3.793090 6.407221 0.000000 0.000000 -0.000000 1.570796
 10 0.935740 0.000000 0.000000 0.000000 -0.000000 0.000000
 11 0.935741 0.000000 0.000000 0.000000 -0.000000 0.000000
 12 1.293670 0.684478 -0.000001 -0.000004 -0.000001 -0.147611
 13 5.309685 -0.003834 0.000000 -0.261194 -0.017785 -0.067442
 14 4.826790 -0.004591 0.000000 0.000000 -0.000000 -0.077997
 15 5.792767 -0.005304 0.000000 0.000000 -0.000000 0.017444
 16 6.662317 -0.001453 0.000000 0.000000 -0.000001 0.209256
 17 2.046985 -0.000002 0.000000 0.257593 0.047186 -0.256953
 18 -3.393283 0.661759 4.341911 0.932352 -1.187215 2.036069
 19 4.827230 0.000000 0.000001 -0.539789 0.965340 -1.206166
 20 11.139763 0.000000 0.000000 0.000000 -0.000000 -1.932794
 21 10.314597 0.000001 0.000000 -1.068466 -0.403205 -0.135282
 22 2.975834 -0.386307 -0.044143 0.001097 -0.043611 -0.043588
 23 1.438886 0.000000 0.000000 0.000000 -0.000000 1.334476
 24 1.485303 0.000000 0.000000 0.000000 -0.000000 0.793621
 25 -3.131625 0.610576 -4.140396 -1.156148 1.032558 1.834632
 26 4.972048 0.000000 0.000001 -0.198660 -1.037929 0.408970
 27 11.585355 0.000000 0.000000 0.000000 -0.000000 -2.415255
 28 10.127057 0.000000 0.000001 1.510254 0.765311 -0.200791
 29 2.683750 -0.427338 0.044205 -0.005738 0.043239 -0.157060
 30 1.438885 -0.000001 0.000000 0.000000 -0.000000 0.732589
 31 1.485305 0.000001 0.000000 0.000000 -0.000000 1.168627
time 24
  0 0.235347 -0.235347 3.532833 -0.000000 -0.000000 -1.571254
  1 0.000000 0.000000 0.000000 -1.570795 -1.570796 0.000000
  2 -0.000005 0.000007 3.713255 -6.279788 3.158894 6.191818
  3 18.045721 0.000000 0.000000 0.000000 -0.000000 -0.243566
  4 17.597597 0.000000 0.000000 -0.001675 -0.017562 0.152217
  5 3.793090 6.407221 0.000000 0.000000 -0.000000 1.570796
  6 0.000005 -0.000003 -3.713255 0.355278 3.115745 -0.017353
  7 18.045725 0.000000 0.000000 0.000000 -0.000000 -0.267080
  8 17.597597 0.000000 0.000000 0.202624 0.017977 0.241823
  9 3.793090 6.407221 0.000000 0.000000 -0.000000 1.570796
 10 0.935740 0.000000 0.000000 0.000000 -0.000000 0.000000
 11 0.935741 0.000000 0.000000 0.000000 -0.000000 0.000000
 12 1.293670 0.684478 -0.000001 -0.000004 -0.000001 -0.147611
 13 5.309685 -0.003834 0.000000 -0.261194 -0.017785 -0.067442
 14 4.826790 -0.004591 0.000000 0.000000 -0.000000 -0.081238
 15 5.792767 -0.005304 0.000000 0.000000 -0.000000 0.017444
 16 6.662317 -0.001453 0.000000 0.000000 -0.000001 0.209256
 17 2.046985 -0.000002 0.000000 0.257593 0.047186 -0.253582
 18 -3.393283 0.661759 4.341911 0.945295 -1.191023 2.022167
 19 4.827230 0.000000 0.000001 -0.550244 0.970446 -1.213867
 20 11.139763 0.000000 0.000000 0.000000 -0.000000 -1.932794
 21 10.314597 0.000001 0.000000 -1.068466 -0.403205 -0.135282
 22 2.975834 -0.386307 -0.044143 0.001097 -0.043611 -0.043588
 23 1.438886 0.000000 0.000000 0.000000 -0.000000 1.334476
 24 1.485303 0.000000 0.000000 0.000000 -0.000000 0.793621
 25 -3.131625 0.610576 -4.140396 -1.166023 1.035130 1.823319
 26 4.972048 0.000000 0.000001 -0.210031 -1.044123 0.419378
 27 11.585355 0.000000 0.000000 0.000000 -0.000000 -2.415255
 28 10.127057 0.000000 0.000001 1.510254 0.765311 -0.200791
 29 2.683750 -0.427338 0.044205 -0.005738 0.043239 -0.157060
 30 1.438885 -0.000001 0.000000 0.000000 -0.000000 0.732589
 31 1.485305 0.000001 0.000000 0.000000 -0.000000 1.168627
time 25
  0 0.235347 -0.235347 3.532833 -0.000000 -0.000000 -1.571254
  1 0.000000 0.000000 0.000000 -1.570795 -1.570796 0.000000
  2 -0.000005 0.000007 3.713255 -6.279788 3.158894 6.191818
  3 18.045721 0.000000 0.000000 0.000000 -0.000000 -0.243566
  4 17.597597 0.000000 0.000000 -0.001675 -0.017562 0.152217
  5 3.793090 6.407221 0.000000 0.000000 -0.000000 1.570796
  6 0.000005 -0.000003 -3.713255 0.355278 3.115745 -0.017353
  7 18.045725 0.000000 0.000000 0.000000 -0.000000 -0.267080
  8 17.597597 0.000000 0.000000 0.202624 0.017977 0.241823
  9 3.793090 6.407221 0.000000 0.000000 -0.000000 1.570796
 10 0.935740 0.000000 0.000000 0.000000 -0.000000 0.000000
 11 0.935741 0.000000 0.000000 0.000000 -0.000000 0.000000
 12 1.293670 0.684478 -0.000001 -0.000004 -0.000001 -0.147611
 13 5.309685 -0.003834 0.000000 -0.261194 -0.017785 -0.067442
 14 4.826790 -0.004591 0.000000 0.000000 -0.000000 -0.084391
 15 5.792767 -0.005304 0.000000 0.000000 -0.000000 0.017444
 16 6.662317 -0.001453 0.000000 0.000000 -0.000001 0.209256
 17 2.046985 -0.000002 0.000000 0.257593 0.047186 -0.250390
 18 -3.393283 0.661759 4.341911 0.958238 -1.194754 2.007786
 19 4.827230 0.000000 0.000001 -0.560523 0.975722 -1.221743
 20 11.139763 0.000000 0.000000 0.000000 -0.000000 -1.932794
 21 10.314597 0.000001 0.000000 -1.068466 -0.403205 -0.135282
 22 2.975834 -0.386307 -0.044143 0.001097 -0.043611 -0.043588
 23 1.438886 0.000000 0.000000 0.000000 -0.000000 1.334476
 24 1.485303 0.000000 0.000000 0.000000 -0.000000 0.793621
 25 -3.131625 0.610576 -4.140396 -1.175802 1.037589 1.811527
 26 4.972048 0.000000 0.000001 -0.221325 -1.050156 0.429720
 27 11.585355 0.000000 0.000000 0.000000 -0.000000 -2.415255
 28 10.127057 0.000000 0.000001 1.510254 0.765311 -0.200791
 29 2.683750 -0.427338 0.044205 -0.005738 0.043239 -0.157060
 30 1.438885 -0.000001 0.000000 0.000000 -0.000000 0.732589
 31 1.485305 0.000001 0.000000 0.000000 -0.000000 1.168627
time 26
  0 0.235347 -0.235347 3.532833 -0.000000 -0.000000 -1.571254
  1 0.000000 0.000000 0.000000 -1.570795 -1.570796 0.000000
  2 -0.000005 0.000007 3.713255 -6.279788 3.158894 6.191818
  3 18.045721 0.000000 0.000000 0.000000 -0.000000 -0.243566
  4 17.597597 0.000000 0.000000 -0.001675 -0.017562 0.152217
  5 3.793090 6.407221 0.000000 0.000000 -0.000000 1.570796
  6 0.000005 -0.000003 -3.713255 0.355278 3.115745 -0.017353
  7 18.045725 0.000000 0.000000 0.000000 -0.000000 -0.267080
  8 17.597597 0.000000 0.000000 0.202624 0.017977 0.241823
  9 3.793090 6.407221 0.000000 0.000000 -0.000000 1.570796
 10 0.935740 0.000000 0.000000 0.000000 -0.000000 0.000000
 11 0.935741 0.000000 0.000000 0.000000 -0.000000 0.000000
 12 1.293670 0.684478 -0.000001 -0.000004 -0.000001 -0.147611
 13 5.309685 -0.003834 0.000000 -0.261194 -0.017785 -0.067442
 14 4.826790 -0.004591 0.000000 0.000000 -0.000000 -0.087345
 15 5.792767 -0.005304 0.000000 0.000000 -0.000000 0.017444
 16 6.662317 -0.001453 0.000000 0.000000 -0.000001 0.209256
 17 2.046985 -0.000002 0.000000 0.257593 0.047186 -0.247559
 18 -3.393283 0.661759 4.341911 0.970893 -1.198177 1.994363
 19 4.827230 0.000000 0.000001 -0.570567 0.980743 -1.229444
 20 11.139763 0.000000 0.000000 0.000000 -0.000000 -1.932794
 21 10.314597 0.000001 0.000000 -1.068466 -0.403205 -0.135282
 22 2.975834 -0.386307 -0.044143 0.001097 -0.043611 -0.043588
 23 1.438886 0.000000 0.000000 0.000000 -0.000000 1.334476
 24 1.485303 0.000000 0.000000 0.000000 -0.000000 0.793621
 25 -3.131625 0.610576 -4.140396 -1.185389 1.039822 1.800693
 26 4.972048 0.000000 0.000001 -0.232464 -1.055787 0.440062
 27 11.585355 0.000000 0.000000 0.000000 -0.000000 -2.415255
 28 10.127057 0.000000 0.000001 1.510254 0.765311 -0.200791
 29 2.683750 -0.427338 0.044205 -0.005738 0.043239 -0.157060
 30 1.438885 -0.000001 0.000000 0.000000 -0.000000 0.732589
 31 1.485305 0.000001 0.000000 0.000000 -0.000000 1.168627
time 27
  0 0.235347 -0.235347 3.532833 -0.000000 -0.000000 -1.571254
  1 0.000000 0.000000 0.000000 -1.570795 -1.570796 0.000000
  2 -0.000005 0.000007 3.713255 -6.279788 3.158894 6.191818
  3 18.045721 0.000000 0.000000 0.000000 -0.000000 -0.243566
  4 17.597597 0.000000 0.000000 -0.001675 -0.017562 0.152217
  5 3.793090 6.407221 0.000000 0.000000 -0.000000 1.570796
  6 0.000005 -0.000003 -3.713255 0.355278 3.115745 -0.017353
  7 18.045725 0.000000 0.000000 0.000000 -0.000000 -0.267080
  8 17.597597 0.000000 0.000000 0.202624 0.017977 0.241823
  9 3.793090 6.407221 0.000000 0.000000 -0.000000 1.570796
 10 0.935740 0.000000 0.000000 0.000000 -0.000000 0.000000
 11 0.935741 0.000000 0.000000 0.000000 -0.000000 0.000000
 12 1.293670 0.684478 -0.000001 -0.000004 -0.000001 -0.147611
 13 5.309685 -0.003834 0.000000 -0.261194 -0.017785 -0.067442
 14 4.826790 -0.004591 0.000000 0.000000 -0.000000 -0.090101
 15 5.792767 -0.005304 0.000000 0.000000 -0.000000 0.017444
 16 6.662317 -0.001453 0.000000 0.000000 -0.000001 0.209256
 17 2.046985 -0.000002 0.000000 0.257593 0.047186 -0.244772
 18 -3.393283 0.661759 4.341911 0.982494 -1.201254 1.981899
 19 4.827230 0.000000 0.000001 -0.579847 0.985594 -1.236620
 20 11.139763 0.000000 0.000000 0.000000 -0.000000 -1.932794
 21 10.314597 0.000001 0.000000 -1.068466 -0.403205 -0.135282
 22 2.975834 -0.386307 -0.044143 0.001097 -0.043611 -0.043588
 23 1.438886 0.000000 0.000000 0.000000 -0.000000 1.334476
 24 1.485303 0.000000 0.000000 0.000000 -0.000000 0.793621
 25 -3.131625 0.610576 -4.140396 -1.193922 1.041885 1.790339
 26 4.972048 0.000000 0.000001 -0.242907 -1.060855 0.449679
 27 11.585355 0.000000 0.000000 0.000000 -0.000000 -2.415255
 28 10.127057 0.000000 0.000001 1.510254 0.765311 -0.200791
 29 2.683750 -0.427338 0.044205 -0.005738 0.043239 -0.157060
 30 1.438885 -0.000001 0.000000 0.000000 -0.000000 0.732589
 31 1.485305 0.000001 0.000000 0.000000 -0.000000 1.168627
time 28
  0 0.235347 -0.235347 3.532833 -0.000000 -0.000000 -1.571254
  1 0.000000 0.000000 0.000000 -1.570795 -1.570796 0.000000
  2 -0.000005 0.000007 3.713255 -6.279788 3.158894 6.191818
  3 18.045721 0.000000 0.000000 0.000000 -0.000000 -0.243566
  4 17.597597 0.000000 0.000000 -0.001675 -0.017562 0.152217
  5 3.793090 6.407221 0.000000 0.000000 -0.000000 1.570796
  6 0.000005 -0.000003 -3.713255 0.355278 3.115745 -0.017353
  7 18.045725 0.000000 0.000000 0.000000 -0.000000 -0.267080
  8 17.597597 0.000000 0.000000 0.202624 0.017977 0.241823
  9 3.793090 6.407221 0.000000 0.000000 -0.000000 1.570796
 10 0.935740 0.000000 0.000000 0.000000 -0.000000 0.000000
 11 0.935741 0.000000 0.000000 0.000000 -0.000000 0.000000
 12 1.293670 0.684478 -0.000001 -0.000004 -0.000001 -0.147611
 13 5.309685 -0.003834 0.000000 -0.261194 -0.017785 -0.067442
 14 4.826790 -0.004591 0.000000 0.000000 -0.000000 -0.092504
 15 5.792767 -0.005304 0.000000 0.000000 -0.000000 0.017444
 16 6.662317 -0.001453 0.000000 0.000000 -0.000001 0.209256
 17 2.046985 -0.000002 0.000000 0.257593 0.047186 -0.242390
 18 -3.393283 0.661759 4.341911 0.993040 -1.203908 1.970490
 19 4.827230 0.000000 0.000001 -0.587953 0.989168 -1.242921
 20 11.139763 0.000000 0.000000 0.000000 -0.000000 -1.932794
 21 10.314597 0.000001 0.000000 -1.068466 -0.403205 -0.135282
 22 2.975834 -0.386307 -0.044143 0.001097 -0.043611 -0.043588
 23 1.438886 0.000000 0.000000 0.000000 -0.000000 1.334476
 24 1.485303 0.000000 0.000000 0.000000 -0.000000 0.793621
 25 -3.131625 0.610576 -4.140396 -1.201496 1.043694 1.781806
 26 4.972048 0.000000 0.000001 -0.252112 -1.065440 0.458177
 27 11.585355 0.000000 0.000000 0.000000 -0.000000 -2.415255
 28 10.127057 0.000000 0.000001 1.510254 0.765311 -0.200791
 29 2.683750 -0.427338 0.044205 -0.005738 0.043239 -0.157060
 30 1.438885 -0.000001 0.000000 0.000000 -0.000000 0.732589
 31 1.485305 0.000001 0.000000 0.000000 -0.000000 1.168627
time 29
  0 0.235347 -0.235347 3.532833 -0.000000 -0.000000 -1.571254
  1 0.000000 0.000000 0.000000 -1.570795 -1.570796 0.000000
  2 -0.000005 0.000007 3.713255 -6.279788 3.158894 6.191818
  3 18.045721 0.000000 0.000000 0.000000 -0.000000 -0.243566
  4 17.597597 0.000000 0.000000 -0.001675 -0.017562 0.152217
  5 3.793090 6.407221 0.000000 0.000000 -0.000000 1.570796
  6 0.000005 -0.000003 -3.713255 0.355278 3.115745 -0.017353
  7 18.045725 0.000000 0.000000 0.000000 -0.000000 -0.267080
  8 17.597597 0.000000 0.000000 0.202624 0.017977 0.241823
  9 3.793090 6.407221 0.000000 0.000000 -0.000000 1.570796
 10 0.935740 0.000000 0.000000 0.000000 -0.000000 0.000000
 11 0.935741 0.000000 0.000000 0.000000 -0.000000 0.000000
 12 1.293670 0.684478 -0.000001 -0.000004 -0.000001 -0.147611
 13 5.309685 -0.003834 0.000000 -0.261194 -0.017785 -0.067442
 14 4.826790 -0.004591 0.000000 0.000000 -0.000000 -0.094577
 15 5.792767 -0.005304 0.000000 0.000000 -0.000000 0.017444
 16 6.662317 -0.001453 0.000000 0.000000 -0.000001 0.209256
 17 2.046985 -0.000002 0.000000 0.257593 0.047186 -0.240367
 18 -3.393283 0.661759 4.341911 1.001764 -1.206062 1.961094
 19 4.827230 0.000000 0.000001 -0.594825 0.992402 -1.248259
 20 11.139763 0.000000 0.000000 0.000000 -0.000000 -1.932794
 21 10.314597 0.000001 0.000000 -1.068466 -0.403205 -0.135282
 22 2.975834 -0.386307 -0.044143 0.001097 -0.043611 -0.043588
 23 1.438886 0.000000 0.000000 0.000000 -0.000000 1.334476
 24 1.485303 0.000000 0.000000 0.000000 -0.000000 0.793621
 25 -3.131625 0.610576 -4.140396 -1.208207 1.045079 1.774232
 26 4.972048 0.000000 0.000001 -0.259770 -1.069060 0.465291
 27 11.585355 0.000000 0.000000 0.000000 -0.000000 -2.415255
 28 10.127057 0.000000 0.000001 1.510254 0.765311 -0.200791
 29 2.683750 -0.427338 0.044205 -0.005738 0.043239 -0.157060
 30 1.438885 -0.000001 0.000000 0.000000 -0.000000 0.732589
 31 1.485305 0.000001 0.000000 0.000000 -0.000000 1.168627
time 30
  0 0.235347 -0.235347 3.532833 -0.000000 -0.000000 -1.571254
  1 0.000000 0.000000 0.000000 -1.570795 -1.570796 0.000000
  2 -0.000005 0.000007 3.713255 -6.279788 3.158894 6.191818
  3 18.045721 0.000000 0.000000 0.000000 -0.000000 -0.243566
  4 17.597597 0.000000 0.000000 -0.001675 -0.017562 0.152217
  5 3.793090 6.407221 0.000000 0.000000 -0.000000 1.570796
  6 0.000005 -0.000003 -3.713255 0.355278 3.115745 -0.017353
  7 18.045725 0.000000 0.000000 0.000000 -0.000000 -0.267080
  8 17.597597 0.000000 0.000000 0.202624 0.017977 0.241823
  9 3.793090 6.407221 0.000000 0.000000 -0.000000 1.570796
 10 0.935740 0.000000 0.000000 0.000000 -0.000000 0.000000
 11 0.935741 0.000000 0.000000 0.000000 -0.000000 0.000000
 12 1.293670 0.684478 -0.000001 -0.000004 -0.000001 -0.147611
 13 5.309685 -0.003834 0.000000 -0.261194 -0.017785 -0.067442
 14 4.826790 -0.004591 0.000000 0.000000 -0.000000 -0.095944
 15 5.792767 -0.005304 0.000000 0.000000 -0.000000 0.017444
 16 6.662317 -0.001453 0.000000 0.000000 -0.000001 0.209256
 17 2.046985 -0.000002 0.000000 0.257593 0.047186 -0.238929
 18 -3.393283 0.661759 4.341911 1.008188 -1.207639 1.954191
 19 4.827230 0.000000 0.000001 -0.599935 0.994955 -1.252197
 20 11.139763 0.000000 0.000000 0.000000 -0.000000 -1.932794
 21 10.314597 0.000001 0.000000 -1.068466 -0.403205 -0.135282
 22 2.975834 -0.386307 -0.044143 0.001097 -0.043611 -0.043588
 23 1.438886 0.000000 0.000000 0.000000 -0.000000 1.334476
 24 1.485303 0.000000 0.000000 0.000000 -0.000000 0.793621
 25 -3.131625 0.610576 -4.140396 -1.212809 1.046068 1.768863
 26 4.972048 0.000000 0.000001 -0.265572 -1.071634 0.470561
 27 11.585355 0.000000 0.000000 0.000000 -0.000000 -2.415255
 28 10.127057 0.000000 0.000001 1.510254 0.765311 -0.200791
 29 2.683750 -0.427338 0.044205 -0.005738 0.043239 -0.157060
 30 1.438885 -0.000001 0.000000 0.000000 -0.000000 0.732589
 31 1.485305 0.000001 0.000000 0.000000 -0.000000 1.168627
end
