version 1
nodes
  0 "Bip01"  -1
  1 "Bip01 Pelvis"   0
  2 "Bip01 L Leg"   1
  3 "Bip01 L Leg1"   2
  4 "Bip01 L Foot"   3
  5 "Bip01 L Toe0"   4
  6 "Bip01 R Leg"   1
  7 "Bip01 R Leg1"   6
  8 "Bip01 R Foot"   7
  9 "Bip01 R Toe0"   8
 10 "Bip01 R Toe01"   9
 11 "Bip01 R Toe02"  10
 12 "Bip01 Spine"   1
 13 "Bip01 Spine1"  12
 14 "Bip01 Spine2"  13
 15 "Bip01 Spine3"  14
 16 "Bip01 Neck"  15
 17 "Bip01 Head"  16
 18 "Bip01 L Arm"  16
 19 "Bip01 L Arm1"  18
 20 "Bip01 L Arm2"  19
 21 "Bip01 L Hand"  20
 22 "Bip01 L Finger1"  21
 23 "Bip01 L Finger11"  22
 24 "Bip01 L Finger12"  23
 25 "Bip01 R Arm"  16
 26 "Bip01 R Arm1"  25
 27 "Bip01 R Arm2"  26
 28 "Bip01 R Hand"  27
 29 "Bip01 R Finger1"  28
 30 "Bip01 R Finger11"  29
 31 "Bip01 R Finger12"  30
end
skeleton
time 0
  0 0.233849 0.368164 39.526119 -0.000000 -0.000000 -1.570795
  1 0.000000 0.000000 0.000000 -1.570795 -1.570796 0.000000
  2 -0.000005 0.000007 3.713255 -3.139539 0.026088 3.120120
  3 18.045721 0.000000 0.000000 0.000000 -0.000000 -0.121501
  4 17.597597 0.000000 0.000000 -0.002613 0.026036 0.099967
  5 3.793090 6.407221 0.000000 0.000000 -0.000000 1.570796
  6 0.000005 -0.000003 -3.713255 3.139069 -0.017355 3.117144
  7 18.045725 0.000000 0.000000 0.000000 -0.000000 -0.127551
  8 17.597597 0.000000 0.000000 0.002950 -0.017289 0.103055
  9 3.793090 6.407221 0.000000 0.000000 -0.000000 1.570796
 10 0.935740 0.000000 0.000000 0.000000 -0.000000 0.000000
 11 0.935741 0.000000 0.000000 0.000000 -0.000000 0.000000
 12 1.293670 0.684478 -0.000001 -0.000004 -0.000001 0.114185
 13 5.309685 -0.003834 0.000000 0.000000 -0.000000 -0.069778
 14 4.826790 -0.004591 0.000000 0.000000 -0.000000 -0.095944
 15 5.792767 -0.005304 0.000000 0.000000 -0.000000 0.017444
 16 6.662317 -0.001453 0.000000 0.000000 -0.000001 0.471000
 17 2.046985 -0.000002 0.000000 0.000000 -0.000000 -0.157798
 18 -3.112024 1.517254 4.341911 -0.000014 -1.370797 2.669810
 19 4.827230 0.000000 0.000001 0.112067 1.260129 0.113678
 20 11.139763 0.000000 0.000000 0.000000 -0.000000 -0.200000
 21 10.314597 0.000001 0.000000 -1.570000 -0.000000 -0.069778
 22 2.975834 -0.386307 -0.044143 -0.000797 -0.043611 0.000035
 23 1.438886 0.000000 0.000000 0.000000 -0.000000 0.314000
 24 1.485303 0.000000 0.000000 0.000000 -0.000000 0.104667
 25 -2.869898 1.399663 -4.140396 -0.000013 1.370795 2.669783
 26 4.972048 0.000000 0.000001 -0.115194 -1.268795 0.116957
 27 11.585355 0.000000 0.000000 0.000000 -0.000000 -0.200000
 28 10.127057 0.000000 0.000001 1.569752 -0.000000 -0.069778
 29 2.683750 -0.427338 0.044205 0.001045 0.043611 0.000046
 30 1.438885 -0.000001 0.000000 0.000000 -0.000000 0.331445
 31 1.485305 0.000001 0.000000 0.000000 -0.000000 0.000000
end
triangles
DM_Base.bmp
 11 -0.8090 3.0796 2.8538 0.6671 0.3316 0.6671 0.5833 0.6250
 11 -4.7190 3.0796 2.8538 -0.4076 0.8172 0.4076 0.5833 0.6250
 11 -4.7690 -7.2104 2.8638 -0.6678 -0.3310 0.6667 0.5000 0.6250
DM_Base.bmp
 11 -4.7690 -7.2104 2.8638 -0.6678 -0.3310 0.6667 0.5000 0.6250
 11 -4.7190 3.0796 2.8538 -0.4076 0.8172 0.4076 0.5833 0.6250
 11 -4.7190 3.0796 -0.0862 -0.6658 0.3345 -0.6669 0.5833 0.5000
DM_Base.bmp
 11 -4.7190 3.0796 2.8538 -0.4076 0.8172 0.4076 0.5833 0.6250
 11 -0.8090 3.0796 -0.0862 0.4089 0.8158 -0.4089 0.5833 0.5000
 11 -4.7190 3.0796 -0.0862 -0.6658 0.3345 -0.6669 0.5833 0.5000
DM_Base.bmp
 11 -4.7190 3.0796 -0.0862 -0.6658 0.3345 -0.6669 0.5833 0.5000
 11 -0.8090 3.0796 -0.0862 0.4089 0.8158 -0.4089 0.5833 0.5000
 11 -0.8590 -7.2104 -0.0762 0.6659 -0.3362 -0.6659 0.5000 0.5000
DM_Base.bmp
 11 -0.8090 3.0796 -0.0862 0.4089 0.8158 -0.4089 0.5833 0.5000
 11 -0.8090 3.0796 2.8538 0.6671 0.3316 0.6671 0.5833 0.6250
 11 -0.8590 -7.2104 -0.0762 0.6659 -0.3362 -0.6659 0.5000 0.5000
DM_Base.bmp
 11 -0.8590 -7.2104 -0.0762 0.6659 -0.3362 -0.6659 0.5000 0.5000
 11 -0.8090 3.0796 2.8538 0.6671 0.3316 0.6671 0.5833 0.6250
 11 -0.8590 -7.2104 2.8638 0.4078 -0.8169 0.4079 0.5000 0.6250
DM_Base.bmp
 11 -0.8090 3.0796 2.8538 0.6671 0.3316 0.6671 0.5833 0.6250
 11 -4.7690 -7.2104 2.8638 -0.6678 -0.3310 0.6667 0.5000 0.6250
 11 -0.8590 -7.2104 2.8638 0.4078 -0.8169 0.4079 0.5000 0.6250
DM_Base.bmp
 11 -0.8590 -7.2104 2.8638 0.4078 -0.8169 0.4079 0.5000 0.6250
 11 -4.7690 -7.2104 2.8638 -0.6678 -0.3310 0.6667 0.5000 0.6250
 11 -4.7590 -7.2104 -0.0762 -0.4083 -0.8158 -0.4097 0.5000 0.5000
DM_Base.bmp
 11 -4.7690 -7.2104 2.8638 -0.6678 -0.3310 0.6667 0.5000 0.6250
 11 -4.7190 3.0796 -0.0862 -0.6658 0.3345 -0.6669 0.5833 0.5000
 11 -4.7590 -7.2104 -0.0762 -0.4083 -0.8158 -0.4097 0.5000 0.5000
DM_Base.bmp
 11 -4.7590 -7.2104 -0.0762 -0.4083 -0.8158 -0.4097 0.5000 0.5000
 11 -4.7190 3.0796 -0.0862 -0.6658 0.3345 -0.6669 0.5833 0.5000
 11 -0.8590 -7.2104 -0.0762 0.6659 -0.3362 -0.6659 0.5000 0.5000
DM_Base.bmp
  5 5.1051 3.0311 2.8138 0.6667 0.3315 0.6675 0.5833 0.6250
  5 1.1951 3.0311 2.8038 -0.4085 0.8168 0.4074 0.5833 0.6250
  5 1.1451 -7.2589 2.8138 -0.6678 -0.3306 0.6669 0.5000 0.6250
DM_Base.bmp
  5 1.1451 -7.2589 2.8138 -0.6678 -0.3306 0.6669 0.5000 0.6250
  5 1.1951 3.0311 2.8038 -0.4085 0.8168 0.4074 0.5833 0.6250
  5 1.1951 3.0311 -0.1362 -0.6657 0.3355 -0.6665 0.5833 0.5000
DM_Base.bmp
  5 1.1951 3.0311 2.8038 -0.4085 0.8168 0.4074 0.5833 0.6250
  5 5.1051 3.0311 -0.1262 0.4096 0.8156 -0.4086 0.5833 0.5000
  5 1.1951 3.0311 -0.1362 -0.6657 0.3355 -0.6665 0.5833 0.5000
DM_Base.bmp
  5 1.1951 3.0311 -0.1362 -0.6657 0.3355 -0.6665 0.5833 0.5000
  5 5.1051 3.0311 -0.1262 0.4096 0.8156 -0.4086 0.5833 0.5000
  5 5.0551 -7.2589 -0.1262 0.6665 -0.3357 -0.6656 0.5000 0.5000
DM_Base.bmp
  5 5.1051 3.0311 -0.1262 0.4096 0.8156 -0.4086 0.5833 0.5000
  5 5.1051 3.0311 2.8138 0.6667 0.3315 0.6675 0.5833 0.6250
  5 5.0551 -7.2589 -0.1262 0.6665 -0.3357 -0.6656 0.5000 0.5000
DM_Base.bmp
  5 5.0551 -7.2589 -0.1262 0.6665 -0.3357 -0.6656 0.5000 0.5000
  5 5.1051 3.0311 2.8138 0.6667 0.3315 0.6675 0.5833 0.6250
  5 5.0551 -7.2589 2.8138 0.4077 -0.8170 0.4077 0.5000 0.6250
DM_Base.bmp
  5 5.1051 3.0311 2.8138 0.6667 0.3315 0.6675 0.5833 0.6250
  5 1.1451 -7.2589 2.8138 -0.6678 -0.3306 0.6669 0.5000 0.6250
  5 5.0551 -7.2589 2.8138 0.4077 -0.8170 0.4077 0.5000 0.6250
DM_Base.bmp
  5 5.0551 -7.2589 2.8138 0.4077 -0.8170 0.4077 0.5000 0.6250
  5 1.1451 -7.2589 2.8138 -0.6678 -0.3306 0.6669 0.5000 0.6250
  5 1.1451 -7.2589 -0.1262 -0.4086 -0.8161 -0.4086 0.5000 0.5000
DM_Base.bmp
  5 1.1451 -7.2589 2.8138 -0.6678 -0.3306 0.6669 0.5000 0.6250
  5 1.1951 3.0311 -0.1362 -0.6657 0.3355 -0.6665 0.5833 0.5000
  5 1.1451 -7.2589 -0.1262 -0.4086 -0.8161 -0.4086 0.5000 0.5000
DM_Base.bmp
  5 1.1451 -7.2589 -0.1262 -0.4086 -0.8161 -0.4086 0.5000 0.5000
  5 1.1951 3.0311 -0.1362 -0.6657 0.3355 -0.6665 0.5833 0.5000
  5 5.0551 -7.2589 -0.1262 0.6665 -0.3357 -0.6656 0.5000 0.5000
DM_Base.bmp
 16 8.7039 3.4321 63.5528 0.7439 0.1593 0.6491 0.1667 0.6250
 16 -8.6961 3.4762 63.5293 -0.4441 0.7774 0.4454 0.1667 0.6250
 16 -8.7061 -4.1260 61.1378 -0.6573 -0.5174 0.5480 0.1667 0.6250
DM_Base.bmp
 16 -8.7061 -4.1260 61.1378 -0.6573 -0.5174 0.5480 0.1667 0.6250
 16 -8.6961 3.4762 63.5293 -0.4441 0.7774 0.4454 0.1667 0.6250
 15 -6.2161 5.0727 42.9934 -0.6351 0.3338 -0.6966 0.1667 0.5625
DM_Base.bmp
 16 -8.6961 3.4762 63.5293 -0.4441 0.7774 0.4454 0.1667 0.6250
 15 6.2639 5.0224 42.9851 0.4113 0.8204 -0.3972 0.1667 0.5625
 15 -6.2161 5.0727 42.9934 -0.6351 0.3338 -0.6966 0.1667 0.5625
DM_Base.bmp
 15 -6.2161 5.0727 42.9934 -0.6351 0.3338 -0.6966 0.1667 0.5625
 15 6.2639 5.0224 42.9851 0.4113 0.8204 -0.3972 0.1667 0.5625
 15 6.2138 -4.1629 42.9882 0.6287 -0.3065 -0.7147 0.1667 0.5625
DM_Base.bmp
 15 6.2639 5.0224 42.9851 0.4113 0.8204 -0.3972 0.1667 0.5625
 16 8.7039 3.4321 63.5528 0.7439 0.1593 0.6491 0.1667 0.6250
 15 6.2138 -4.1629 42.9882 0.6287 -0.3065 -0.7147 0.1667 0.5625
DM_Base.bmp
 15 6.2138 -4.1629 42.9882 0.6287 -0.3065 -0.7147 0.1667 0.5625
 16 8.7039 3.4321 63.5528 0.7439 0.1593 0.6491 0.1667 0.6250
 16 8.6539 -4.1671 61.1076 0.3786 -0.8706 0.3142 0.1667 0.6250
DM_Base.bmp
 16 8.7039 3.4321 63.5528 0.7439 0.1593 0.6491 0.1667 0.6250
 16 -8.7061 -4.1260 61.1378 -0.6573 -0.5174 0.5480 0.1667 0.6250
 16 8.6539 -4.1671 61.1076 0.3786 -0.8706 0.3142 0.1667 0.6250
DM_Base.bmp
 16 8.6539 -4.1671 61.1076 0.3786 -0.8706 0.3142 0.1667 0.6250
 16 -8.7061 -4.1260 61.1378 -0.6573 -0.5174 0.5480 0.1667 0.6250
 15 -6.2662 -4.1129 42.9865 -0.3982 -0.7975 -0.4533 0.1667 0.5625
DM_Base.bmp
 16 -8.7061 -4.1260 61.1378 -0.6573 -0.5174 0.5480 0.1667 0.6250
 15 -6.2161 5.0727 42.9934 -0.6351 0.3338 -0.6966 0.1667 0.5625
 15 -6.2662 -4.1129 42.9865 -0.3982 -0.7975 -0.4533 0.1667 0.5625
DM_Base.bmp
 15 -6.2662 -4.1129 42.9865 -0.3982 -0.7975 -0.4533 0.1667 0.5625
 15 -6.2161 5.0727 42.9934 -0.6351 0.3338 -0.6966 0.1667 0.5625
 15 6.2138 -4.1629 42.9882 0.6287 -0.3065 -0.7147 0.1667 0.5625
DM_Base.bmp
 12 6.1039 3.7803 41.8734 0.6684 0.3311 0.6660 0.1667 0.5625
 12 -6.1661 3.8254 41.9189 -0.4046 0.8185 0.4079 0.1667 0.5625
  1 -6.2161 -4.1119 41.9161 -0.6678 -0.3292 0.6676 0.1667 0.5625
DM_Base.bmp
  1 -6.2161 -4.1119 41.9161 -0.6678 -0.3292 0.6676 0.1667 0.5625
 12 -6.1661 3.8254 41.9189 -0.4046 0.8185 0.4079 0.1667 0.5625
 12 -6.1661 3.8265 38.4866 -0.6651 0.3365 -0.6666 0.1667 0.5625
DM_Base.bmp
 12 -6.1661 3.8254 41.9189 -0.4046 0.8185 0.4079 0.1667 0.5625
 12 6.1039 3.7734 38.5107 0.4114 0.8147 -0.4087 0.1667 0.5625
 12 -6.1661 3.8265 38.4866 -0.6651 0.3365 -0.6666 0.1667 0.5625
DM_Base.bmp
 12 -6.1661 3.8265 38.4866 -0.6651 0.3365 -0.6666 0.1667 0.5625
 12 6.1039 3.7734 38.5107 0.4114 0.8147 -0.4087 0.1667 0.5625
  1 6.0539 -4.1618 38.4961 0.6655 -0.3366 -0.6662 0.1667 0.5625
DM_Base.bmp
 12 6.1039 3.7734 38.5107 0.4114 0.8147 -0.4087 0.1667 0.5625
 12 6.1039 3.7803 41.8734 0.6684 0.3311 0.6660 0.1667 0.5625
  1 6.0539 -4.1618 38.4961 0.6655 -0.3366 -0.6662 0.1667 0.5625
DM_Base.bmp
  1 6.0539 -4.1618 38.4961 0.6655 -0.3366 -0.6662 0.1667 0.5625
 12 6.1039 3.7803 41.8734 0.6684 0.3311 0.6660 0.1667 0.5625
  1 6.0539 -4.1618 41.9161 0.4059 -0.8175 0.4085 0.1667 0.5625
DM_Base.bmp
 12 6.1039 3.7803 41.8734 0.6684 0.3311 0.6660 0.1667 0.5625
  1 -6.2161 -4.1119 41.9161 -0.6678 -0.3292 0.6676 0.1667 0.5625
  1 6.0539 -4.1618 41.9161 0.4059 -0.8175 0.4085 0.1667 0.5625
DM_Base.bmp
  1 6.0539 -4.1618 41.9161 0.4059 -0.8175 0.4085 0.1667 0.5625
  1 -6.2161 -4.1119 41.9161 -0.6678 -0.3292 0.6676 0.1667 0.5625
  1 -6.2161 -4.1119 38.4961 -0.4110 -0.8151 -0.4083 0.1667 0.5625
DM_Base.bmp
  1 -6.2161 -4.1119 41.9161 -0.6678 -0.3292 0.6676 0.1667 0.5625
 12 -6.1661 3.8265 38.4866 -0.6651 0.3365 -0.6666 0.1667 0.5625
  1 -6.2161 -4.1119 38.4961 -0.4110 -0.8151 -0.4083 0.1667 0.5625
DM_Base.bmp
  1 -6.2161 -4.1119 38.4961 -0.4110 -0.8151 -0.4083 0.1667 0.5625
 12 -6.1661 3.8265 38.4866 -0.6651 0.3365 -0.6666 0.1667 0.5625
  1 6.0539 -4.1618 38.4961 0.6655 -0.3366 -0.6662 0.1667 0.5625
DM_Base.bmp
 16 1.9839 -3.4395 64.7253 0.4449 -0.8712 -0.2074 0.1667 0.5000
 16 -2.0361 -3.4081 64.7289 -0.8949 -0.4344 -0.1022 0.0000 0.5000
 16 -2.0361 -2.6780 61.5823 -0.4192 -0.6876 -0.5929 0.0000 0.3750
DM_Base.bmp
 16 -2.0361 -2.6780 61.5823 -0.4192 -0.6876 -0.5929 0.0000 0.3750
 16 -2.0361 -3.4081 64.7289 -0.8949 -0.4344 -0.1022 0.0000 0.5000
 16 -2.0361 1.2387 62.8375 -0.6695 0.5192 -0.5313 0.0000 0.4375
DM_Base.bmp
 16 -2.0361 -3.4081 64.7289 -0.8949 -0.4344 -0.1022 0.0000 0.5000
 16 -2.0361 0.0035 66.4987 -0.4448 0.8460 0.2939 0.0000 0.6250
 16 -2.0361 1.2387 62.8375 -0.6695 0.5192 -0.5313 0.0000 0.4375
DM_Base.bmp
 16 -2.0361 1.2387 62.8375 -0.6695 0.5192 -0.5313 0.0000 0.4375
 16 -2.0361 0.0035 66.4987 -0.4448 0.8460 0.2939 0.0000 0.6250
 16 1.9839 1.2478 62.8417 0.4149 0.9015 -0.1228 0.1667 0.4375
DM_Base.bmp
 16 -2.0361 0.0035 66.4987 -0.4448 0.8460 0.2939 0.0000 0.6250
 16 1.9839 -0.0249 66.4413 0.8953 0.4200 0.1487 0.1667 0.5625
 16 1.9839 1.2478 62.8417 0.4149 0.9015 -0.1228 0.1667 0.4375
DM_Base.bmp
 16 1.9839 1.2478 62.8417 0.4149 0.9015 -0.1228 0.1667 0.4375
 16 1.9839 -0.0249 66.4413 0.8953 0.4200 0.1487 0.1667 0.5625
 16 1.9839 -2.6865 61.6004 0.6780 -0.1252 -0.7244 0.1667 0.3750
DM_Base.bmp
 16 1.9839 -0.0249 66.4413 0.8953 0.4200 0.1487 0.1667 0.5625
 16 1.9839 -3.4395 64.7253 0.4449 -0.8712 -0.2074 0.1667 0.5000
 16 1.9839 -2.6865 61.6004 0.6780 -0.1252 -0.7244 0.1667 0.3750
DM_Base.bmp
 16 1.9839 -2.6865 61.6004 0.6780 -0.1252 -0.7244 0.1667 0.3750
 16 1.9839 -3.4395 64.7253 0.4449 -0.8712 -0.2074 0.1667 0.5000
 16 -2.0361 -2.6780 61.5823 -0.4192 -0.6876 -0.5929 0.0000 0.3750
DM_Base.bmp
 24 9.0426 -4.1873 38.6552 0.0017 -1.0000 0.0009 0.9167 0.5625
 24 12.8799 -4.1808 38.6536 0.4439 -0.8943 0.0562 0.9167 0.6875
 20 7.8916 -4.1811 48.3134 0.0007 -1.0000 0.0004 0.7500 0.3750
DM_Base.bmp
 20 7.8916 -4.1811 48.3134 0.0007 -1.0000 0.0004 0.7500 0.3750
 24 12.8799 -4.1808 38.6536 0.4439 -0.8943 0.0562 0.9167 0.6875
 20 11.6469 -4.1899 48.3761 0.8866 -0.4488 0.1116 0.6667 0.4375
DM_Base.bmp
 24 12.8799 -4.1808 38.6536 0.4439 -0.8943 0.0562 0.9167 0.6875
 24 12.8850 0.1567 38.6857 0.9922 -0.0021 0.1249 0.9167 0.5625
 20 11.6469 -4.1899 48.3761 0.8866 -0.4488 0.1116 0.6667 0.4375
DM_Base.bmp
 20 11.6469 -4.1899 48.3761 0.8866 -0.4488 0.1116 0.6667 0.4375
 24 12.8850 0.1567 38.6857 0.9922 -0.0021 0.1249 0.9167 0.5625
 20 11.6606 0.1089 48.3427 0.9922 -0.0022 0.1248 0.7500 0.3750
DM_Base.bmp
 20 7.8316 -4.1897 48.7705 0.0007 -1.0000 0.0004 0.9167 0.5625
 20 11.5934 -4.2104 48.7747 0.4411 -0.8959 0.0520 0.9167 0.6875
 18 6.5644 -4.2235 58.5075 -0.0028 -1.0000 -0.0028 0.7500 0.3750
DM_Base.bmp
 18 6.5644 -4.2235 58.5075 -0.0028 -1.0000 -0.0028 0.7500 0.3750
 20 11.5934 -4.2104 48.7747 0.4411 -0.8959 0.0520 0.9167 0.6875
 18 10.3886 -4.2239 58.4975 0.8868 -0.4490 0.1093 0.6667 0.4375
DM_Base.bmp
 20 11.5934 -4.2104 48.7747 0.4411 -0.8959 0.0520 0.9167 0.6875
 20 11.6108 0.1101 48.7989 0.9922 -0.0022 0.1248 0.9167 0.5625
 18 10.3886 -4.2239 58.4975 0.8868 -0.4490 0.1093 0.6667 0.4375
DM_Base.bmp
 18 10.3886 -4.2239 58.4975 0.8868 -0.4490 0.1093 0.6667 0.4375
 20 11.6108 0.1101 48.7989 0.9922 -0.0022 0.1248 0.9167 0.5625
 18 10.3988 0.1187 58.4970 0.9923 -0.0001 0.1240 0.7500 0.3750
DM_Base.bmp
 17 -2.6161 -6.1826 64.0496 -0.0015 0.0054 -1.0000 0.2500 0.0625
 17 -2.6161 0.9917 64.0980 -0.0015 0.0054 -1.0000 0.2500 0.0625
 17 2.9039 -6.2114 64.0413 -0.0015 0.0054 -1.0000 0.7500 0.0625
DM_Base.bmp
 17 2.9039 -6.2114 64.0413 -0.0015 0.0054 -1.0000 0.7500 0.0625
 17 -2.6161 0.9917 64.0980 -0.0015 0.0054 -1.0000 0.2500 0.0625
 17 2.9039 0.9464 64.0746 -0.0015 0.0054 -1.0000 0.7500 0.0625
DM_Base.bmp
 16 -2.0361 -2.6780 61.5823 -0.4192 -0.6876 -0.5929 0.0000 0.3750
 16 -2.0361 1.2387 62.8375 -0.6695 0.5192 -0.5313 0.0000 0.4375
 16 1.9839 -2.6865 61.6004 0.6780 -0.1252 -0.7244 0.1667 0.3750
DM_Base.bmp
 16 1.9839 -2.6865 61.6004 0.6780 -0.1252 -0.7244 0.1667 0.3750
 16 -2.0361 1.2387 62.8375 -0.6695 0.5192 -0.5313 0.0000 0.4375
 16 1.9839 1.2478 62.8417 0.4149 0.9015 -0.1228 0.1667 0.4375
DM_Base.bmp
  7 -6.1572 -3.2024 20.8926 -0.0001 -1.0000 0.0000 0.3333 0.9375
  8 -6.1090 -3.2017 2.5769 -0.0000 -1.0000 0.0000 0.3333 0.5000
  7 -0.0561 -3.2029 20.8856 -0.0001 -1.0000 0.0000 0.4167 0.9375
DM_Base.bmp
  7 -0.0561 -3.2029 20.8856 -0.0001 -1.0000 0.0000 0.4167 0.9375
  8 -6.1090 -3.2017 2.5769 -0.0000 -1.0000 0.0000 0.3333 0.5000
  8 -0.0390 -3.2017 2.5769 -0.0000 -1.0000 0.0000 0.4167 0.5000
DM_Base.bmp
  7 -0.0380 4.2372 20.8816 0.0001 1.0000 0.0000 0.4167 0.5000
  8 -0.0390 4.2383 2.5769 0.0000 1.0000 -0.0000 0.4167 0.1250
  7 -6.1090 4.2378 20.8892 0.0001 1.0000 0.0000 0.5000 0.5000
DM_Base.bmp
  7 -6.1090 4.2378 20.8892 0.0001 1.0000 0.0000 0.5000 0.5000
  8 -0.0390 4.2383 2.5769 0.0000 1.0000 -0.0000 0.4167 0.1250
  8 -6.1090 4.2383 2.5769 0.0000 1.0000 -0.0000 0.5000 0.1250
DM_Base.bmp
  7 -6.1090 4.2378 20.8892 -1.0000 0.0051 0.0000 0.3333 0.4375
  8 -6.1090 4.2383 2.5769 -1.0000 0.0026 -0.0010 0.3333 0.1250
  7 -6.1572 -3.2024 20.8926 -1.0000 0.0051 0.0000 0.4167 0.4375
DM_Base.bmp
  7 -6.1572 -3.2024 20.8926 -1.0000 0.0051 0.0000 0.4167 0.4375
  8 -6.1090 4.2383 2.5769 -1.0000 0.0026 -0.0010 0.3333 0.1250
  8 -6.1090 -3.2017 2.5769 -1.0000 0.0026 -0.0010 0.4167 0.1250
DM_Base.bmp
  7 -6.1090 4.2378 20.8892 0.0012 0.0003 1.0000 0.0000 1.0000
  7 -6.1572 -3.2024 20.8926 0.0012 0.0003 1.0000 0.0000 0.0625
  7 -0.0380 4.2372 20.8816 0.4481 0.0003 0.8940 0.9167 1.0000
DM_Base.bmp
  7 -0.0380 4.2372 20.8816 0.4481 0.0003 0.8940 0.9167 1.0000
  7 -6.1572 -3.2024 20.8926 0.0012 0.0003 1.0000 0.0000 0.0625
  7 -0.0561 -3.2029 20.8856 0.0012 0.0003 1.0000 0.9167 0.0625
DM_Base.bmp
  8 -6.1090 -3.2017 2.5769 -0.0000 0.0000 -1.0000 0.0000 1.0000
  8 -6.1090 4.2383 2.5769 -0.0000 0.0000 -1.0000 0.0000 0.0625
  8 -0.0390 -3.2017 2.5769 -0.0000 0.0000 -1.0000 0.9167 1.0000
DM_Base.bmp
  8 -0.0390 -3.2017 2.5769 -0.0000 0.0000 -1.0000 0.9167 1.0000
  8 -6.1090 4.2383 2.5769 -0.0000 0.0000 -1.0000 0.0000 0.0625
  8 -0.0390 4.2383 2.5769 0.7071 0.0000 -0.7071 0.9167 0.0625
DM_Base.bmp
  3 0.2398 -3.2533 20.8372 0.0015 -1.0000 -0.0001 0.4167 0.9375
  4 0.2751 -3.2517 2.5269 0.0007 -1.0000 0.0002 0.4167 0.5000
  3 6.3418 -3.2444 20.8316 0.0015 -1.0000 -0.0001 0.5000 0.9375
DM_Base.bmp
  3 6.3418 -3.2444 20.8316 0.0015 -1.0000 -0.0001 0.5000 0.9375
  4 0.2751 -3.2517 2.5269 0.0007 -1.0000 0.0002 0.4167 0.5000
  4 6.3551 -3.2517 2.5269 0.0007 -1.0000 0.0002 0.5000 0.5000
DM_Base.bmp
  3 6.3613 4.1925 20.8338 0.0003 1.0000 -0.0002 0.3333 0.5000
  4 6.3651 4.1883 2.5269 0.0002 1.0000 -0.0003 0.3333 0.1250
  3 0.2891 4.1944 20.8297 0.0003 1.0000 -0.0002 0.4167 0.5000
DM_Base.bmp
  3 0.2891 4.1944 20.8297 0.0003 1.0000 -0.0002 0.4167 0.5000
  4 6.3651 4.1883 2.5269 0.0002 1.0000 -0.0003 0.3333 0.1250
  4 0.2851 4.1883 2.5269 0.0002 1.0000 -0.0003 0.4167 0.1250
DM_Base.bmp
  3 0.2891 4.1944 20.8297 -1.0000 0.0053 0.0002 0.3333 0.4375
  4 0.2851 4.1883 2.5269 -1.0000 0.0026 -0.0009 0.3333 0.1250
  3 0.2398 -3.2533 20.8372 -1.0000 0.0053 0.0002 0.4167 0.4375
DM_Base.bmp
  3 0.2398 -3.2533 20.8372 -1.0000 0.0053 0.0002 0.4167 0.4375
  4 0.2851 4.1883 2.5269 -1.0000 0.0026 -0.0009 0.3333 0.1250
  4 0.2751 -3.2517 2.5269 -1.0000 0.0026 -0.0009 0.4167 0.1250
DM_Base.bmp
  3 0.2891 4.1944 20.8297 -0.0006 0.0008 1.0000 0.0000 1.0000
  3 0.2398 -3.2533 20.8372 -0.0006 0.0008 1.0000 0.0000 0.0625
  3 6.3613 4.1925 20.8338 0.4473 -0.0004 0.8944 0.9167 1.0000
DM_Base.bmp
  3 6.3613 4.1925 20.8338 0.4473 -0.0004 0.8944 0.9167 1.0000
  3 0.2398 -3.2533 20.8372 -0.0006 0.0008 1.0000 0.0000 0.0625
  3 6.3418 -3.2444 20.8316 -0.0006 0.0008 1.0000 0.9167 0.0625
DM_Base.bmp
  4 0.2751 -3.2517 2.5269 -0.0000 0.0000 -1.0000 0.0000 1.0000
  4 0.2851 4.1883 2.5269 -0.0000 0.0000 -1.0000 0.0000 0.0625
  4 6.3551 -3.2517 2.5269 -0.0000 0.0000 -1.0000 0.9167 1.0000
DM_Base.bmp
  4 6.3551 -3.2517 2.5269 -0.0000 0.0000 -1.0000 0.9167 1.0000
  4 0.2851 4.1883 2.5269 -0.0000 0.0000 -1.0000 0.0000 0.0625
  4 6.3651 4.1883 2.5269 0.7072 -0.0009 -0.7070 0.9167 0.0625
DM_Base.bmp
  6 -6.1598 -3.1989 39.5568 -0.0073 -1.0000 0.0005 0.3333 0.9375
  7 -6.1499 -3.2088 21.0530 -0.0001 -1.0000 0.0000 0.3333 0.5000
  6 -0.0888 -3.2535 39.5635 -0.0073 -1.0000 0.0005 0.4167 0.9375
DM_Base.bmp
  6 -0.0888 -3.2535 39.5635 -0.0073 -1.0000 0.0005 0.4167 0.9375
  7 -6.1499 -3.2088 21.0530 -0.0001 -1.0000 0.0000 0.3333 0.5000
  7 -0.0891 -3.2006 21.0562 -0.0001 -1.0000 0.0000 0.4167 0.5000
DM_Base.bmp
  6 -0.0400 4.2177 39.5117 0.0041 1.0000 0.0012 0.4167 0.5000
  7 -0.0409 4.2396 21.0528 0.0001 1.0000 0.0000 0.4167 0.1250
  6 -6.1109 4.2422 39.5058 0.0041 1.0000 0.0012 0.5000 0.5000
DM_Base.bmp
  6 -6.1109 4.2422 39.5058 0.0041 1.0000 0.0012 0.5000 0.5000
  7 -0.0409 4.2396 21.0528 0.0001 1.0000 0.0000 0.4167 0.1250
  7 -6.1118 4.2312 21.0494 0.0001 1.0000 0.0000 0.5000 0.1250
DM_Base.bmp
  6 -6.1109 4.2422 39.5058 -1.0000 0.0052 0.0000 0.3333 0.4375
  7 -6.1118 4.2312 21.0494 -1.0000 0.0051 0.0000 0.3333 0.1250
  6 -6.1598 -3.1989 39.5568 -1.0000 0.0052 0.0000 0.4167 0.4375
DM_Base.bmp
  6 -6.1598 -3.1989 39.5568 -1.0000 0.0052 0.0000 0.4167 0.4375
  7 -6.1118 4.2312 21.0494 -1.0000 0.0051 0.0000 0.3333 0.1250
  7 -6.1499 -3.2088 21.0530 -1.0000 0.0051 0.0000 0.4167 0.1250
DM_Base.bmp
  6 -6.1109 4.2422 39.5058 0.0007 0.0042 1.0000 0.0000 1.0000
  6 -6.1598 -3.1989 39.5568 0.0007 0.0042 1.0000 0.0000 0.0625
  6 -0.0400 4.2177 39.5117 0.4465 0.0027 0.8948 0.9167 1.0000
DM_Base.bmp
  6 -0.0400 4.2177 39.5117 0.4465 0.0027 0.8948 0.9167 1.0000
  6 -6.1598 -3.1989 39.5568 0.0007 0.0042 1.0000 0.0000 0.0625
  6 -0.0888 -3.2535 39.5635 0.0007 0.0042 1.0000 0.9167 0.0625
DM_Base.bmp
  7 -6.1499 -3.2088 21.0530 0.0006 -0.0004 -1.0000 0.0000 1.0000
  7 -6.1118 4.2312 21.0494 0.0006 -0.0004 -1.0000 0.0000 0.0625
  7 -0.0891 -3.2006 21.0562 0.0006 -0.0004 -1.0000 0.9167 1.0000
DM_Base.bmp
  7 -0.0891 -3.2006 21.0562 0.0006 -0.0004 -1.0000 0.9167 1.0000
  7 -6.1118 4.2312 21.0494 0.0006 -0.0004 -1.0000 0.0000 0.0625
  7 -0.0409 4.2396 21.0528 0.7073 -0.0039 -0.7069 0.9167 0.0625
DM_Base.bmp
  2 0.2371 -3.2345 39.5502 -0.0021 -1.0000 0.0008 0.4167 0.9375
  3 0.2340 -3.2494 20.9986 0.0015 -1.0000 -0.0001 0.4167 0.5000
  2 6.3089 -3.2472 39.5421 -0.0021 -1.0000 0.0008 0.5000 0.9375
DM_Base.bmp
  2 6.3089 -3.2472 39.5421 -0.0021 -1.0000 0.0008 0.5000 0.9375
  3 0.2340 -3.2494 20.9986 0.0015 -1.0000 -0.0001 0.4167 0.5000
  3 6.3562 -3.2515 21.0014 0.0015 -1.0000 -0.0001 0.5000 0.5000
DM_Base.bmp
  2 6.3578 4.1940 39.5211 0.0038 1.0000 -0.0004 0.3333 0.5000
  3 6.3654 4.1864 20.9940 0.0003 1.0000 -0.0002 0.3333 0.1250
  2 0.2863 4.2268 39.5388 0.0038 1.0000 -0.0004 0.4167 0.5000
DM_Base.bmp
  2 0.2863 4.2268 39.5388 0.0038 1.0000 -0.0004 0.4167 0.5000
  3 6.3654 4.1864 20.9940 0.0003 1.0000 -0.0002 0.3333 0.1250
  3 0.2832 4.1884 20.9901 0.0003 1.0000 -0.0002 0.4167 0.1250
DM_Base.bmp
  2 0.2863 4.2268 39.5388 -1.0000 0.0053 0.0002 0.3333 0.4375
  3 0.2832 4.1884 20.9901 -1.0000 0.0053 0.0002 0.3333 0.1250
  2 0.2371 -3.2345 39.5502 -1.0000 0.0053 0.0002 0.4167 0.4375
DM_Base.bmp
  2 0.2371 -3.2345 39.5502 -1.0000 0.0053 0.0002 0.4167 0.4375
  3 0.2832 4.1884 20.9901 -1.0000 0.0053 0.0002 0.3333 0.1250
  3 0.2340 -3.2494 20.9986 -1.0000 0.0053 0.0002 0.4167 0.1250
DM_Base.bmp
  2 0.2863 4.2268 39.5388 0.0030 0.0015 1.0000 0.0000 1.0000
  2 0.2371 -3.2345 39.5502 0.0030 0.0015 1.0000 0.0000 0.0625
  2 6.3578 4.1940 39.5211 0.4487 0.0014 0.8937 0.9167 1.0000
DM_Base.bmp
  2 6.3578 4.1940 39.5211 0.4487 0.0014 0.8937 0.9167 1.0000
  2 0.2371 -3.2345 39.5502 0.0030 0.0015 1.0000 0.0000 0.0625
  2 6.3089 -3.2472 39.5421 0.0030 0.0015 1.0000 0.9167 0.0625
DM_Base.bmp
  3 0.2340 -3.2494 20.9986 0.0005 -0.0010 -1.0000 0.0000 1.0000
  3 0.2832 4.1884 20.9901 0.0005 -0.0010 -1.0000 0.0000 0.0625
  3 6.3562 -3.2515 21.0014 0.0005 -0.0010 -1.0000 0.9167 1.0000
DM_Base.bmp
  3 6.3562 -3.2515 21.0014 0.0005 -0.0010 -1.0000 0.9167 1.0000
  3 0.2832 4.1884 20.9901 0.0005 -0.0010 -1.0000 0.0000 0.0625
  3 6.3654 4.1864 20.9940 0.7075 -0.0015 -0.7068 0.9167 0.0625
DM_Base.bmp
 27 -10.9881 -4.1685 48.3871 -0.0039 -1.0000 0.0017 0.8333 0.5625
 31 -12.1641 -4.1830 38.6716 -0.0009 -1.0000 0.0002 0.6667 0.4375
 27 -7.2259 -4.1873 48.3211 -0.0039 -1.0000 0.0017 0.8333 0.5000
DM_Base.bmp
 27 -7.2259 -4.1873 48.3211 -0.0039 -1.0000 0.0017 0.8333 0.5000
 31 -12.1641 -4.1830 38.6716 -0.0009 -1.0000 0.0002 0.6667 0.4375
 31 -8.3721 -4.1761 38.6795 -0.0009 -1.0000 0.0002 0.7500 0.4375
DM_Base.bmp
 27 -7.2259 -4.1873 48.3211 0.9930 -0.0090 -0.1181 0.6667 0.4375
 31 -8.3721 -4.1761 38.6795 0.9929 -0.0066 -0.1192 0.9167 0.6875
 27 -7.1716 0.1685 48.3614 0.9930 -0.0090 -0.1181 0.7500 0.3750
DM_Base.bmp
 27 -7.1716 0.1685 48.3614 0.9930 -0.0090 -0.1181 0.7500 0.3750
 31 -8.3721 -4.1761 38.6795 0.9929 -0.0066 -0.1192 0.9167 0.6875
 31 -8.3420 0.1689 38.6960 0.9929 -0.0066 -0.1192 0.9167 0.5625
DM_Base.bmp
 27 -7.1716 0.1685 48.3614 -0.0013 1.0000 0.0002 0.5833 0.0625
 31 -8.3420 0.1689 38.6960 -0.0013 1.0000 0.0002 0.7500 0.2500
 27 -11.0002 0.1636 48.3671 -0.0013 1.0000 0.0002 0.5833 0.1250
DM_Base.bmp
 27 -11.0002 0.1636 48.3671 -0.0013 1.0000 0.0002 0.5833 0.1250
 31 -8.3420 0.1689 38.6960 -0.0013 1.0000 0.0002 0.7500 0.2500
 31 -12.1678 0.1641 38.7005 -0.0013 1.0000 0.0002 0.7500 0.3125
DM_Base.bmp
 27 -11.0002 0.1636 48.3671 -0.9928 0.0001 0.1199 0.7500 0.3750
 31 -12.1678 0.1641 38.7005 -0.9928 -0.0008 0.1196 0.9167 0.5625
 27 -10.9881 -4.1685 48.3871 -0.9928 0.0001 0.1199 0.6667 0.4375
DM_Base.bmp
 27 -10.9881 -4.1685 48.3871 -0.9928 0.0001 0.1199 0.6667 0.4375
 31 -12.1678 0.1641 38.7005 -0.9928 -0.0008 0.1196 0.9167 0.5625
 31 -12.1641 -4.1830 38.6716 -0.9928 -0.0008 0.1196 0.9167 0.6875
DM_Base.bmp
 27 -11.0002 0.1636 48.3671 0.0015 0.0030 1.0000 0.0000 1.0000
 27 -10.9881 -4.1685 48.3871 0.0015 0.0030 1.0000 0.0000 0.0625
 27 -7.1716 0.1685 48.3614 0.0015 0.0030 1.0000 0.9167 1.0000
DM_Base.bmp
 27 -7.1716 0.1685 48.3614 0.0015 0.0030 1.0000 0.9167 1.0000
 27 -10.9881 -4.1685 48.3871 0.0015 0.0030 1.0000 0.0000 0.0625
 27 -7.2259 -4.1873 48.3211 0.0015 0.0030 1.0000 0.9167 0.0625
DM_Base.bmp
 31 -12.1641 -4.1830 38.6716 0.0026 0.0061 -1.0000 0.0000 1.0000
 31 -12.1678 0.1641 38.7005 0.0026 0.0061 -1.0000 0.0000 0.0625
 31 -8.3721 -4.1761 38.6795 0.0026 0.0061 -1.0000 0.9167 1.0000
DM_Base.bmp
 31 -8.3721 -4.1761 38.6795 0.0026 0.0061 -1.0000 0.9167 1.0000
 31 -12.1678 0.1641 38.7005 0.0026 0.0061 -1.0000 0.0000 0.0625
 31 -8.3420 0.1689 38.6960 0.0026 0.0061 -1.0000 0.9167 0.0625
DM_Base.bmp
 20 7.8916 -4.1811 48.3134 -0.9930 0.0001 -0.1184 0.6667 0.4375
 20 7.8872 0.1531 48.3529 -0.9930 0.0001 -0.1184 0.7500 0.3750
 24 9.0426 -4.1873 38.6552 -0.9929 0.0010 -0.1189 0.9167 0.6875
DM_Base.bmp
 24 9.0426 -4.1873 38.6552 -0.9929 0.0010 -0.1189 0.9167 0.6875
 20 7.8872 0.1531 48.3529 -0.9930 0.0001 -0.1184 0.7500 0.3750
 24 9.0479 0.1599 38.6850 -0.9929 0.0010 -0.1189 0.9167 0.5625
DM_Base.bmp
 20 7.8872 0.1531 48.3529 0.0112 0.9999 0.0011 0.7500 0.2500
 20 11.6606 0.1089 48.3427 0.0112 0.9999 0.0011 0.7500 0.3125
 24 9.0479 0.1599 38.6850 0.0060 1.0000 0.0025 0.5833 0.0625
DM_Base.bmp
 24 9.0479 0.1599 38.6850 0.0060 1.0000 0.0025 0.5833 0.0625
 20 11.6606 0.1089 48.3427 0.0112 0.9999 0.0011 0.7500 0.3125
 24 12.8850 0.1567 38.6857 0.0060 1.0000 0.0025 0.5000 0.1250
DM_Base.bmp
 20 11.6606 0.1089 48.3427 -0.0001 0.0060 1.0000 0.0000 1.0000
 20 7.8872 0.1531 48.3529 -0.0001 0.0060 1.0000 0.9167 1.0000
 20 11.6469 -4.1899 48.3761 -0.0001 0.0060 1.0000 0.0000 0.0625
DM_Base.bmp
 20 11.6469 -4.1899 48.3761 -0.0001 0.0060 1.0000 0.0000 0.0625
 20 7.8872 0.1531 48.3529 -0.0001 0.0060 1.0000 0.9167 1.0000
 20 7.8916 -4.1811 48.3134 -0.0001 0.0060 1.0000 0.9167 0.0625
DM_Base.bmp
 24 12.8799 -4.1808 38.6536 -0.0004 0.0069 -1.0000 0.0000 1.0000
 24 9.0426 -4.1873 38.6552 -0.0004 0.0069 -1.0000 0.9167 1.0000
 24 12.8850 0.1567 38.6857 -0.0004 0.0069 -1.0000 0.0000 0.0625
DM_Base.bmp
 24 12.8850 0.1567 38.6857 -0.0004 0.0069 -1.0000 0.0000 0.0625
 24 9.0426 -4.1873 38.6552 -0.0004 0.0069 -1.0000 0.9167 1.0000
 24 9.0479 0.1599 38.6850 -0.0004 0.0069 -1.0000 0.9167 0.0625
DM_Base.bmp
 26 -9.9936 -4.1732 58.4988 -0.0000 -1.0000 0.0010 0.8333 0.5625
 27 -11.1690 -4.1832 48.7877 -0.0039 -1.0000 0.0017 0.6667 0.4375
 26 -6.2224 -4.1732 58.5225 -0.0000 -1.0000 0.0010 0.8333 0.5000
DM_Base.bmp
 26 -6.2224 -4.1732 58.5225 -0.0000 -1.0000 0.0010 0.8333 0.5000
 27 -11.1690 -4.1832 48.7877 -0.0039 -1.0000 0.0017 0.6667 0.4375
 27 -7.3921 -4.1823 48.7675 -0.0039 -1.0000 0.0017 0.7500 0.4375
DM_Base.bmp
 26 -6.2224 -4.1732 58.5225 0.9929 0.0000 -0.1191 0.6667 0.4375
 27 -7.3921 -4.1823 48.7675 0.9930 -0.0090 -0.1181 0.9167 0.6875
 26 -6.2224 0.1668 58.5225 0.9929 0.0000 -0.1191 0.7500 0.3750
DM_Base.bmp
 26 -6.2224 0.1668 58.5225 0.9929 0.0000 -0.1191 0.7500 0.3750
 27 -7.3921 -4.1823 48.7675 0.9930 -0.0090 -0.1181 0.9167 0.6875
 27 -7.3377 0.1638 48.8097 0.9930 -0.0090 -0.1181 0.9167 0.5625
DM_Base.bmp
 26 -6.2224 0.1668 58.5225 -0.0000 1.0000 -0.0003 0.5833 0.0625
 27 -7.3377 0.1638 48.8097 -0.0013 1.0000 0.0002 0.7500 0.2500
 26 -9.9936 0.1668 58.4988 -0.0000 1.0000 -0.0003 0.5833 0.1250
DM_Base.bmp
 26 -9.9936 0.1668 58.4988 -0.0000 1.0000 -0.0003 0.5833 0.1250
 27 -7.3377 0.1638 48.8097 -0.0013 1.0000 0.0002 0.7500 0.2500
 27 -11.1565 0.1687 48.8125 -0.0013 1.0000 0.0002 0.7500 0.3125
DM_Base.bmp
 26 -9.9936 0.1668 58.4988 -0.9929 -0.0000 0.1192 0.7500 0.3750
 27 -11.1565 0.1687 48.8125 -0.9928 0.0001 0.1199 0.9167 0.5625
 26 -9.9936 -4.1732 58.4988 -0.9929 -0.0000 0.1192 0.6667 0.4375
DM_Base.bmp
 26 -9.9936 -4.1732 58.4988 -0.9929 -0.0000 0.1192 0.6667 0.4375
 27 -11.1565 0.1687 48.8125 -0.9928 0.0001 0.1199 0.9167 0.5625
 27 -11.1690 -4.1832 48.7877 -0.9928 0.0001 0.1199 0.9167 0.6875
DM_Base.bmp
 26 -9.9936 0.1668 58.4988 -0.0034 0.0000 1.0000 0.0000 1.0000
 26 -9.9936 -4.1732 58.4988 -0.0034 0.0000 1.0000 0.0000 0.0625
 26 -6.2224 0.1668 58.5225 -0.0034 0.0000 1.0000 0.9167 1.0000
DM_Base.bmp
 26 -6.2224 0.1668 58.5225 -0.0034 0.0000 1.0000 0.9167 1.0000
 26 -9.9936 -4.1732 58.4988 -0.0034 0.0000 1.0000 0.0000 0.0625
 26 -6.2224 -4.1732 58.5225 -0.0034 0.0000 1.0000 0.9167 0.0625
DM_Base.bmp
 27 -11.1690 -4.1832 48.7877 -0.0030 0.0052 -1.0000 0.0000 1.0000
 27 -11.1565 0.1687 48.8125 -0.0030 0.0052 -1.0000 0.0000 0.0625
 27 -7.3921 -4.1823 48.7675 -0.0030 0.0052 -1.0000 0.9167 1.0000
DM_Base.bmp
 27 -7.3921 -4.1823 48.7675 -0.0030 0.0052 -1.0000 0.9167 1.0000
 27 -11.1565 0.1687 48.8125 -0.0030 0.0052 -1.0000 0.0000 0.0625
 27 -7.3377 0.1638 48.8097 -0.0030 0.0052 -1.0000 0.9167 0.0625
DM_Base.bmp
 18 6.5644 -4.2235 58.5075 -0.9919 0.0030 -0.1271 0.6667 0.4375
 18 6.5864 0.1194 58.5148 -0.9919 0.0030 -0.1271 0.7500 0.3750
 20 7.8316 -4.1897 48.7705 -0.9930 0.0001 -0.1184 0.9167 0.6875
DM_Base.bmp
 20 7.8316 -4.1897 48.7705 -0.9930 0.0001 -0.1184 0.9167 0.6875
 18 6.5864 0.1194 58.5148 -0.9919 0.0030 -0.1271 0.7500 0.3750
 20 7.8383 0.1426 48.8013 -0.9930 0.0001 -0.1184 0.9167 0.5625
DM_Base.bmp
 18 6.5864 0.1194 58.5148 0.0002 1.0000 0.0024 0.7500 0.2500
 18 10.3988 0.1187 58.4970 0.0002 1.0000 0.0024 0.7500 0.3125
 20 7.8383 0.1426 48.8013 0.0112 0.9999 0.0011 0.5833 0.0625
DM_Base.bmp
 20 7.8383 0.1426 48.8013 0.0112 0.9999 0.0011 0.5833 0.0625
 18 10.3988 0.1187 58.4970 0.0002 1.0000 0.0024 0.7500 0.3125
 20 11.6108 0.1101 48.7989 0.0112 0.9999 0.0011 0.5000 0.1250
DM_Base.bmp
 18 10.3988 0.1187 58.4970 0.0047 -0.0003 1.0000 0.0000 1.0000
 18 6.5864 0.1194 58.5148 0.0047 -0.0003 1.0000 0.9167 1.0000
 18 10.3886 -4.2239 58.4975 0.0047 -0.0003 1.0000 0.0000 0.0625
DM_Base.bmp
 18 10.3886 -4.2239 58.4975 0.0047 -0.0003 1.0000 0.0000 0.0625
 18 6.5864 0.1194 58.5148 0.0047 -0.0003 1.0000 0.9167 1.0000
 18 6.5644 -4.2235 58.5075 0.0047 -0.0003 1.0000 0.9167 0.0625
DM_Base.bmp
 20 11.5934 -4.2104 48.7747 0.0014 0.0051 -1.0000 0.0000 1.0000
 20 7.8316 -4.1897 48.7705 0.0014 0.0051 -1.0000 0.9167 1.0000
 20 11.6108 0.1101 48.7989 0.0014 0.0051 -1.0000 0.0000 0.0625
DM_Base.bmp
 20 11.6108 0.1101 48.7989 0.0014 0.0051 -1.0000 0.0000 0.0625
 20 7.8316 -4.1897 48.7705 0.0014 0.0051 -1.0000 0.9167 1.0000
 20 7.8383 0.1426 48.8013 0.0014 0.0051 -1.0000 0.9167 0.0625
DM_Base.bmp
 11 -4.7590 -7.2104 -0.0762 -0.4083 -0.8158 -0.4097 0.5000 0.5000
 11 -0.8590 -7.2104 -0.0762 0.6659 -0.3362 -0.6659 0.5000 0.5000
 11 -0.8590 -7.2104 2.8638 0.4078 -0.8169 0.4079 0.5000 0.6250
DM_Base.bmp
 11 -0.8090 3.0796 -0.0862 0.4089 0.8158 -0.4089 0.5833 0.5000
 11 -4.7190 3.0796 2.8538 -0.4076 0.8172 0.4076 0.5833 0.6250
 11 -0.8090 3.0796 2.8538 0.6671 0.3316 0.6671 0.5833 0.6250
DM_Base.bmp
  5 1.1451 -7.2589 -0.1262 -0.4086 -0.8161 -0.4086 0.5000 0.5000
  5 5.0551 -7.2589 -0.1262 0.6665 -0.3357 -0.6656 0.5000 0.5000
  5 5.0551 -7.2589 2.8138 0.4077 -0.8170 0.4077 0.5000 0.6250
DM_Base.bmp
  5 5.1051 3.0311 -0.1262 0.4096 0.8156 -0.4086 0.5833 0.5000
  5 1.1951 3.0311 2.8038 -0.4085 0.8168 0.4074 0.5833 0.6250
  5 5.1051 3.0311 2.8138 0.6667 0.3315 0.6675 0.5833 0.6250
DM_Base.bmp
 15 -6.2662 -4.1129 42.9865 -0.3982 -0.7975 -0.4533 0.1667 0.5625
 15 6.2138 -4.1629 42.9882 0.6287 -0.3065 -0.7147 0.1667 0.5625
 16 8.6539 -4.1671 61.1076 0.3786 -0.8706 0.3142 0.1667 0.6250
DM_Base.bmp
 15 6.2639 5.0224 42.9851 0.4113 0.8204 -0.3972 0.1667 0.5625
 16 -8.6961 3.4762 63.5293 -0.4441 0.7774 0.4454 0.1667 0.6250
 16 8.7039 3.4321 63.5528 0.7439 0.1593 0.6491 0.1667 0.6250
DM_Base.bmp
  1 -6.2161 -4.1119 38.4961 -0.4110 -0.8151 -0.4083 0.1667 0.5625
  1 6.0539 -4.1618 38.4961 0.6655 -0.3366 -0.6662 0.1667 0.5625
  1 6.0539 -4.1618 41.9161 0.4059 -0.8175 0.4085 0.1667 0.5625
DM_Base.bmp
 12 6.1039 3.7734 38.5107 0.4114 0.8147 -0.4087 0.1667 0.5625
 12 -6.1661 3.8254 41.9189 -0.4046 0.8185 0.4079 0.1667 0.5625
 12 6.1039 3.7803 41.8734 0.6684 0.3311 0.6660 0.1667 0.5625
DM_Base.bmp
  7 -0.0561 -3.2029 20.8856 1.0000 -0.0011 0.0004 0.4167 0.4375
  8 -0.0390 -3.2017 2.5769 1.0000 -0.0011 0.0004 0.4167 0.1250
  7 -0.0380 4.2372 20.8816 1.0000 -0.0011 0.0004 0.3333 0.4375
DM_Base.bmp
  8 -0.0390 -3.2017 2.5769 1.0000 -0.0011 0.0004 0.0000 0.0625
  8 -0.0390 4.2383 2.5769 0.7071 0.0000 -0.7071 0.9167 0.0625
  7 -0.0380 4.2372 20.8816 0.4481 0.0003 0.8940 0.9167 1.0000
DM_Base.bmp
  3 6.3418 -3.2444 20.8316 1.0000 -0.0026 0.0007 0.4167 0.4375
  4 6.3551 -3.2517 2.5269 1.0000 -0.0026 0.0007 0.4167 0.1250
  3 6.3613 4.1925 20.8338 1.0000 -0.0026 0.0007 0.3333 0.4375
DM_Base.bmp
  4 6.3551 -3.2517 2.5269 1.0000 -0.0026 0.0007 0.0000 0.0625
  4 6.3651 4.1883 2.5269 0.7072 -0.0009 -0.7070 0.9167 0.0625
  3 6.3613 4.1925 20.8338 0.4473 -0.0004 0.8944 0.9167 1.0000
DM_Base.bmp
  6 -0.0888 -3.2535 39.5635 1.0000 -0.0052 -0.0000 0.4167 0.4375
  7 -0.0891 -3.2006 21.0562 1.0000 -0.0011 0.0004 0.4167 0.1250
  6 -0.0400 4.2177 39.5117 1.0000 -0.0052 -0.0000 0.3333 0.4375
DM_Base.bmp
  7 -0.0891 -3.2006 21.0562 1.0000 -0.0011 0.0004 0.0000 0.0625
  7 -0.0409 4.2396 21.0528 0.7073 -0.0039 -0.7069 0.9167 0.0625
  6 -0.0400 4.2177 39.5117 0.4465 0.0027 0.8948 0.9167 1.0000
DM_Base.bmp
  2 6.3089 -3.2472 39.5421 1.0000 -0.0052 0.0020 0.4167 0.4375
  3 6.3562 -3.2515 21.0014 1.0000 -0.0026 0.0007 0.4167 0.1250
  2 6.3578 4.1940 39.5211 1.0000 -0.0052 0.0020 0.3333 0.4375
DM_Base.bmp
  3 6.3562 -3.2515 21.0014 1.0000 -0.0026 0.0007 0.0000 0.0625
  3 6.3654 4.1864 20.9940 0.7075 -0.0015 -0.7068 0.9167 0.0625
  2 6.3578 4.1940 39.5211 0.4487 0.0014 0.8937 0.9167 1.0000
DM_Face.bmp
 17 -2.6161 0.9917 64.0980 0.0070 1.0000 -0.0017 0.0000 0.6875
 17 -2.6161 1.0083 72.4248 0.0071 0.8950 0.4460 0.0000 0.9375
 17 2.9039 0.9464 64.0746 0.0070 1.0000 -0.0017 0.0833 0.6250
DM_Face.bmp
 17 2.9039 0.9464 64.0746 0.0070 1.0000 -0.0017 0.0833 0.6250
 17 -2.6161 1.0083 72.4248 0.0071 0.8950 0.4460 0.0000 0.9375
 17 2.9039 0.9630 72.4014 0.0047 0.4476 0.8942 0.0833 0.9375
DM_Face.bmp
 17 -2.6161 1.0083 72.4248 0.0071 0.8950 0.4460 0.0000 0.9375
 17 -2.6161 -6.1674 72.4176 0.0017 0.0001 1.0000 0.0000 0.8125
 17 2.9039 0.9630 72.4014 0.0047 0.4476 0.8942 0.0833 0.9375
DM_Face.bmp
 17 2.9039 0.9630 72.4014 0.0047 0.4476 0.8942 0.0833 0.9375
 17 -2.6161 -6.1674 72.4176 0.0017 0.0001 1.0000 0.0000 0.8125
 17 2.9039 -6.2058 72.4066 0.0017 0.0001 1.0000 0.0833 0.8125
DM_Face.bmp
 17 -2.6161 -6.1674 72.4176 -0.0052 -1.0000 0.0003 0.1667 0.9375
 17 -2.6161 -6.1826 64.0496 -0.0052 -1.0000 0.0003 0.1667 0.0625
 17 2.9039 -6.2058 72.4066 -0.0052 -1.0000 0.0003 0.9167 1.0000
DM_Face.bmp
 17 2.9039 -6.2058 72.4066 -0.0052 -1.0000 0.0003 0.9167 1.0000
 17 -2.6161 -6.1826 64.0496 -0.0052 -1.0000 0.0003 0.1667 0.0625
 17 2.9039 -6.2114 64.0413 -0.0052 -1.0000 0.0003 0.9167 0.0625
DM_Face.bmp
 17 2.9039 -6.2058 72.4066 1.0000 -0.0000 -0.0000 0.0000 0.9375
 17 2.9039 -6.2114 64.0413 1.0000 -0.0000 -0.0000 0.0000 0.3125
 17 2.9039 0.9630 72.4014 1.0000 -0.0000 -0.0000 0.1667 0.9375
DM_Face.bmp
 17 2.9039 0.9630 72.4014 1.0000 -0.0000 -0.0000 0.1667 0.9375
 17 2.9039 -6.2114 64.0413 1.0000 -0.0000 -0.0000 0.0000 0.3125
 17 2.9039 0.9464 64.0746 1.0000 -0.0000 -0.0000 0.1667 0.3125
DM_Face.bmp
 17 -2.6161 1.0083 72.4248 -1.0000 0.0000 0.0000 0.1667 0.9375
 17 -2.6161 0.9917 64.0980 -1.0000 0.0000 0.0000 0.1667 0.3125
 17 -2.6161 -6.1674 72.4176 -1.0000 0.0000 0.0000 0.0000 0.9375
DM_Face.bmp
 17 -2.6161 -6.1674 72.4176 -1.0000 0.0000 0.0000 0.0000 0.9375
 17 -2.6161 0.9917 64.0980 -1.0000 0.0000 0.0000 0.1667 0.3125
 17 -2.6161 -6.1826 64.0496 -1.0000 0.0000 0.0000 0.0000 0.3125
DM_Base2.bmp
 11 -0.2190 3.1896 3.6438 0.6684 0.3215 0.6707 0.5833 0.6250
 11 -5.2690 3.4896 3.5738 -0.4104 0.8146 0.4099 0.5833 0.6250
 11 -5.3590 -7.3304 3.6538 -0.6689 -0.3208 0.6705 0.5000 0.6250
DM_Base2.bmp
 11 -5.3590 -7.3304 3.6538 -0.6689 -0.3208 0.6705 0.5000 0.6250
 11 -5.2690 3.4896 3.5738 -0.4104 0.8146 0.4099 0.5833 0.6250
 11 -5.3190 3.1896 -0.8862 -0.6670 0.3244 -0.6708 0.5833 0.5000
DM_Base2.bmp
 11 -5.2690 3.4896 3.5738 -0.4104 0.8146 0.4099 0.5833 0.6250
 11 -0.2690 3.4896 -0.8162 0.4125 0.8128 -0.4114 0.5833 0.5000
 11 -5.3190 3.1896 -0.8862 -0.6670 0.3244 -0.6708 0.5833 0.5000
DM_Base2.bmp
 11 -5.3190 3.1896 -0.8862 -0.6670 0.3244 -0.6708 0.5833 0.5000
 11 -0.2690 3.4896 -0.8162 0.4125 0.8128 -0.4114 0.5833 0.5000
 11 -0.2590 -7.3304 -0.8762 0.6671 -0.3260 -0.6699 0.5000 0.5000
DM_Base2.bmp
 11 -0.2690 3.4896 -0.8162 0.4125 0.8128 -0.4114 0.5833 0.5000
 11 -0.2190 3.1896 3.6438 0.6684 0.3215 0.6707 0.5833 0.6250
 11 -0.2590 -7.3304 -0.8762 0.6671 -0.3260 -0.6699 0.5000 0.5000
DM_Base2.bmp
 11 -0.2590 -7.3304 -0.8762 0.6671 -0.3260 -0.6699 0.5000 0.5000
 11 -0.2190 3.1896 3.6438 0.6684 0.3215 0.6707 0.5833 0.6250
 11 -0.3090 -7.6304 3.5838 0.4106 -0.8142 0.4105 0.5000 0.6250
DM_Base2.bmp
 11 -0.2190 3.1896 3.6438 0.6684 0.3215 0.6707 0.5833 0.6250
 11 -5.3590 -7.3304 3.6538 -0.6689 -0.3208 0.6705 0.5000 0.6250
 11 -0.3090 -7.6304 3.5838 0.4106 -0.8142 0.4105 0.5000 0.6250
DM_Base2.bmp
 11 -0.3090 -7.6304 3.5838 0.4106 -0.8142 0.4105 0.5000 0.6250
 11 -5.3590 -7.3304 3.6538 -0.6689 -0.3208 0.6705 0.5000 0.6250
 11 -5.2990 -7.6304 -0.8062 -0.4119 -0.8130 -0.4115 0.5000 0.5000
DM_Base2.bmp
 11 -5.3590 -7.3304 3.6538 -0.6689 -0.3208 0.6705 0.5000 0.6250
 11 -5.3190 3.1896 -0.8862 -0.6670 0.3244 -0.6708 0.5833 0.5000
 11 -5.2990 -7.6304 -0.8062 -0.4119 -0.8130 -0.4115 0.5000 0.5000
DM_Base2.bmp
 11 -5.2990 -7.6304 -0.8062 -0.4119 -0.8130 -0.4115 0.5000 0.5000
 11 -5.3190 3.1896 -0.8862 -0.6670 0.3244 -0.6708 0.5833 0.5000
 11 -0.2590 -7.3304 -0.8762 0.6671 -0.3260 -0.6699 0.5000 0.5000
DM_Base2.bmp
  5 5.6951 3.1511 3.6138 0.6680 0.3214 0.6712 0.5833 0.6250
  5 0.6451 3.4511 3.5338 -0.4111 0.8143 0.4097 0.5833 0.6250
  5 0.5551 -7.3689 3.6138 -0.6691 -0.3205 0.6705 0.5000 0.6250
DM_Base2.bmp
  5 0.5551 -7.3689 3.6138 -0.6691 -0.3205 0.6705 0.5000 0.6250
  5 0.6451 3.4511 3.5338 -0.4111 0.8143 0.4097 0.5833 0.6250
  5 0.5951 3.1511 -0.9262 -0.6667 0.3252 -0.6707 0.5833 0.5000
DM_Base2.bmp
  5 0.6451 3.4511 3.5338 -0.4111 0.8143 0.4097 0.5833 0.6250
  5 5.6451 3.4511 -0.8462 0.4132 0.8127 -0.4109 0.5833 0.5000
  5 0.5951 3.1511 -0.9262 -0.6667 0.3252 -0.6707 0.5833 0.5000
DM_Base2.bmp
  5 0.5951 3.1511 -0.9262 -0.6667 0.3252 -0.6707 0.5833 0.5000
  5 5.6451 3.4511 -0.8462 0.4132 0.8127 -0.4109 0.5833 0.5000
  5 5.6551 -7.3689 -0.9162 0.6676 -0.3256 -0.6696 0.5000 0.5000
DM_Base2.bmp
  5 5.6451 3.4511 -0.8462 0.4132 0.8127 -0.4109 0.5833 0.5000
  5 5.6951 3.1511 3.6138 0.6680 0.3214 0.6712 0.5833 0.6250
  5 5.6551 -7.3689 -0.9162 0.6676 -0.3256 -0.6696 0.5000 0.5000
DM_Base2.bmp
  5 5.6551 -7.3689 -0.9162 0.6676 -0.3256 -0.6696 0.5000 0.5000
  5 5.6951 3.1511 3.6138 0.6680 0.3214 0.6712 0.5833 0.6250
  5 5.6051 -7.6689 3.5438 0.4104 -0.8144 0.4104 0.5000 0.6250
DM_Base2.bmp
  5 5.6951 3.1511 3.6138 0.6680 0.3214 0.6712 0.5833 0.6250
  5 0.5551 -7.3689 3.6138 -0.6691 -0.3205 0.6705 0.5000 0.6250
  5 5.6051 -7.6689 3.5438 0.4104 -0.8144 0.4104 0.5000 0.6250
DM_Base2.bmp
  5 5.6051 -7.6689 3.5438 0.4104 -0.8144 0.4104 0.5000 0.6250
  5 0.5551 -7.3689 3.6138 -0.6691 -0.3205 0.6705 0.5000 0.6250
  5 0.6051 -7.6689 -0.8462 -0.4123 -0.8131 -0.4109 0.5000 0.5000
DM_Base2.bmp
  5 0.5551 -7.3689 3.6138 -0.6691 -0.3205 0.6705 0.5000 0.6250
  5 0.5951 3.1511 -0.9262 -0.6667 0.3252 -0.6707 0.5833 0.5000
  5 0.6051 -7.6689 -0.8462 -0.4123 -0.8131 -0.4109 0.5000 0.5000
DM_Base2.bmp
  5 0.6051 -7.6689 -0.8462 -0.4123 -0.8131 -0.4109 0.5000 0.5000
  5 0.5951 3.1511 -0.9262 -0.6667 0.3252 -0.6707 0.5833 0.5000
  5 5.6551 -7.3689 -0.9162 0.6676 -0.3256 -0.6696 0.5000 0.5000
DM_Base2.bmp
 16 9.3539 3.9914 64.0568 0.7330 0.1793 0.6562 0.1667 0.6250
 16 -8.9461 4.4005 63.7953 -0.4399 0.7826 0.4404 0.1667 0.6250
 16 -9.2861 -4.8311 61.5370 -0.6630 -0.4953 0.5613 0.1667 0.6250
DM_Base2.bmp
 16 -9.2861 -4.8311 61.5370 -0.6630 -0.4953 0.5613 0.1667 0.6250
 16 -8.9461 4.4005 63.7953 -0.4399 0.7826 0.4404 0.1667 0.6250
 15 -6.8861 5.6053 42.4750 -0.6394 0.3304 -0.6943 0.1667 0.5625
DM_Base2.bmp
 16 -8.9461 4.4005 63.7953 -0.4399 0.7826 0.4404 0.1667 0.6250
 15 6.5539 5.9684 42.8528 0.4028 0.8271 -0.3920 0.1667 0.5625
 15 -6.8861 5.6053 42.4750 -0.6394 0.3304 -0.6943 0.1667 0.5625
DM_Base2.bmp
 15 -6.8861 5.6053 42.4750 -0.6394 0.3304 -0.6943 0.1667 0.5625
 15 6.5539 5.9684 42.8528 0.4028 0.8271 -0.3920 0.1667 0.5625
 15 6.9038 -4.6227 42.4136 0.6348 -0.3035 -0.7105 0.1667 0.5625
DM_Base2.bmp
 15 6.5539 5.9684 42.8528 0.4028 0.8271 -0.3920 0.1667 0.5625
 16 9.3539 3.9914 64.0568 0.7330 0.1793 0.6562 0.1667 0.6250
 15 6.9038 -4.6227 42.4136 0.6348 -0.3035 -0.7105 0.1667 0.5625
DM_Base2.bmp
 15 6.9038 -4.6227 42.4136 0.6348 -0.3035 -0.7105 0.1667 0.5625
 16 9.3539 3.9914 64.0568 0.7330 0.1793 0.6562 0.1667 0.6250
 16 8.8839 -5.1150 61.2940 0.3831 -0.8690 0.3131 0.1667 0.6250
DM_Base2.bmp
 16 9.3539 3.9914 64.0568 0.7330 0.1793 0.6562 0.1667 0.6250
 16 -9.2861 -4.8311 61.5370 -0.6630 -0.4953 0.5613 0.1667 0.6250
 16 8.8839 -5.1150 61.2940 0.3831 -0.8690 0.3131 0.1667 0.6250
DM_Base2.bmp
 16 8.8839 -5.1150 61.2940 0.3831 -0.8690 0.3131 0.1667 0.6250
 16 -9.2861 -4.8311 61.5370 -0.6630 -0.4953 0.5613 0.1667 0.6250
 15 -6.5462 -5.0416 42.7481 -0.3884 -0.8024 -0.4532 0.1667 0.5625
DM_Base2.bmp
 16 -9.2861 -4.8311 61.5370 -0.6630 -0.4953 0.5613 0.1667 0.6250
 15 -6.8861 5.6053 42.4750 -0.6394 0.3304 -0.6943 0.1667 0.5625
 15 -6.5462 -5.0416 42.7481 -0.3884 -0.8024 -0.4532 0.1667 0.5625
DM_Base2.bmp
 15 -6.5462 -5.0416 42.7481 -0.3884 -0.8024 -0.4532 0.1667 0.5625
 15 -6.8861 5.6053 42.4750 -0.6394 0.3304 -0.6943 0.1667 0.5625
 15 6.9038 -4.6227 42.4136 0.6348 -0.3035 -0.7105 0.1667 0.5625
DM_Base2.bmp
 12 6.3639 3.9835 42.8227 0.6623 0.3215 0.6767 0.1667 0.5625
 12 -6.3761 4.4556 42.6555 -0.4058 0.8179 0.4079 0.1667 0.5625
  1 -6.4761 -4.3219 42.8561 -0.6616 -0.3198 0.6783 0.1667 0.5625
DM_Base2.bmp
  1 -6.4761 -4.3219 42.8561 -0.6616 -0.3198 0.6783 0.1667 0.5625
 12 -6.3761 4.4556 42.6555 -0.4058 0.8179 0.4079 0.1667 0.5625
 12 -6.4362 4.0253 37.5431 -0.6592 0.3268 -0.6772 0.1667 0.5625
DM_Base2.bmp
 12 -6.3761 4.4556 42.6555 -0.4058 0.8179 0.4079 0.1667 0.5625
 12 6.3039 4.4132 37.7587 0.4130 0.8144 -0.4078 0.1667 0.5625
 12 -6.4362 4.0253 37.5431 -0.6592 0.3268 -0.6772 0.1667 0.5625
DM_Base2.bmp
 12 -6.4362 4.0253 37.5431 -0.6592 0.3268 -0.6772 0.1667 0.5625
 12 6.3039 4.4132 37.7587 0.4130 0.8144 -0.4078 0.1667 0.5625
  1 6.3239 -4.3618 37.5561 0.6595 -0.3268 -0.6769 0.1667 0.5625
DM_Base2.bmp
 12 6.3039 4.4132 37.7587 0.4130 0.8144 -0.4078 0.1667 0.5625
 12 6.3639 3.9835 42.8227 0.6623 0.3215 0.6767 0.1667 0.5625
  1 6.3239 -4.3618 37.5561 0.6595 -0.3268 -0.6769 0.1667 0.5625
DM_Base2.bmp
  1 6.3239 -4.3618 37.5561 0.6595 -0.3268 -0.6769 0.1667 0.5625
 12 6.3639 3.9835 42.8227 0.6623 0.3215 0.6767 0.1667 0.5625
  1 6.2639 -4.7918 42.6561 0.4073 -0.8170 0.4083 0.1667 0.5625
DM_Base2.bmp
 12 6.3639 3.9835 42.8227 0.6623 0.3215 0.6767 0.1667 0.5625
  1 -6.4761 -4.3219 42.8561 -0.6616 -0.3198 0.6783 0.1667 0.5625
  1 6.2639 -4.7918 42.6561 0.4073 -0.8170 0.4083 0.1667 0.5625
DM_Base2.bmp
  1 6.2639 -4.7918 42.6561 0.4073 -0.8170 0.4083 0.1667 0.5625
  1 -6.4761 -4.3219 42.8561 -0.6616 -0.3198 0.6783 0.1667 0.5625
  1 -6.4161 -4.7519 37.7561 -0.4125 -0.8147 -0.4075 0.1667 0.5625
DM_Base2.bmp
  1 -6.4761 -4.3219 42.8561 -0.6616 -0.3198 0.6783 0.1667 0.5625
 12 -6.4362 4.0253 37.5431 -0.6592 0.3268 -0.6772 0.1667 0.5625
  1 -6.4161 -4.7519 37.7561 -0.4125 -0.8147 -0.4075 0.1667 0.5625
DM_Base2.bmp
  1 -6.4161 -4.7519 37.7561 -0.4125 -0.8147 -0.4075 0.1667 0.5625
 12 -6.4362 4.0253 37.5431 -0.6592 0.3268 -0.6772 0.1667 0.5625
  1 6.3239 -4.3618 37.5561 0.6595 -0.3268 -0.6769 0.1667 0.5625
DM_Base2.bmp
 16 2.4039 -4.3221 64.5118 0.4326 -0.8719 -0.2294 0.1667 0.5000
 16 -2.9361 -3.8225 64.6237 -0.9113 -0.3991 -0.1010 0.0000 0.5000
 16 -2.4361 -3.2953 60.9188 -0.4069 -0.6484 -0.6435 0.0000 0.3750
DM_Base2.bmp
 16 -2.4361 -3.2953 60.9188 -0.4069 -0.6484 -0.6435 0.0000 0.3750
 16 -2.9361 -3.8225 64.6237 -0.9113 -0.3991 -0.1010 0.0000 0.5000
 16 -2.6361 1.7868 62.2547 -0.6480 0.5201 -0.5565 0.0000 0.4375
DM_Base2.bmp
 16 -2.9361 -3.8225 64.6237 -0.9113 -0.3991 -0.1010 0.0000 0.5000
 16 -2.4561 0.8522 66.7847 -0.4338 0.8554 0.2831 0.0000 0.6250
 16 -2.6361 1.7868 62.2547 -0.6480 0.5201 -0.5565 0.0000 0.4375
DM_Base2.bmp
 16 -2.6361 1.7868 62.2547 -0.6480 0.5201 -0.5565 0.0000 0.4375
 16 -2.4561 0.8522 66.7847 -0.4338 0.8554 0.2831 0.0000 0.6250
 16 2.4039 2.1474 62.6879 0.4052 0.8996 -0.1629 0.1667 0.4375
DM_Base2.bmp
 16 -2.4561 0.8522 66.7847 -0.4338 0.8554 0.2831 0.0000 0.6250
 16 2.8639 0.4360 66.6124 0.9100 0.3899 0.1407 0.1667 0.5625
 16 2.4039 2.1474 62.6879 0.4052 0.8996 -0.1629 0.1667 0.4375
DM_Base2.bmp
 16 2.4039 2.1474 62.6879 0.4052 0.8996 -0.1629 0.1667 0.4375
 16 2.8639 0.4360 66.6124 0.9100 0.3899 0.1407 0.1667 0.5625
 16 2.6139 -2.7431 60.8234 0.6601 -0.1057 -0.7437 0.1667 0.3750
DM_Base2.bmp
 16 2.8639 0.4360 66.6124 0.9100 0.3899 0.1407 0.1667 0.5625
 16 2.4039 -4.3221 64.5118 0.4326 -0.8719 -0.2294 0.1667 0.5000
 16 2.6139 -2.7431 60.8234 0.6601 -0.1057 -0.7437 0.1667 0.3750
DM_Base2.bmp
 16 2.6139 -2.7431 60.8234 0.6601 -0.1057 -0.7437 0.1667 0.3750
 16 2.4039 -4.3221 64.5118 0.4326 -0.8719 -0.2294 0.1667 0.5000
 16 -2.4361 -3.2953 60.9188 -0.4069 -0.6484 -0.6435 0.0000 0.3750
DM_Base2.bmp
 24 8.2120 -4.5523 38.2249 -0.0915 -0.9943 -0.0551 0.9167 0.5625
 24 13.3660 -5.0441 38.5216 0.4349 -0.8996 0.0394 0.9167 0.6875
 20 7.3931 -5.0494 48.4566 0.0007 -1.0000 0.0004 0.7500 0.3750
DM_Base2.bmp
 20 7.3931 -5.0494 48.4566 0.0007 -1.0000 0.0004 0.7500 0.3750
 24 13.3660 -5.0441 38.5216 0.4349 -0.8996 0.0394 0.9167 0.6875
 20 12.4651 -4.5498 48.8057 0.8933 -0.4304 0.1294 0.6667 0.4375
DM_Base2.bmp
 24 13.3660 -5.0441 38.5216 0.4349 -0.8996 0.0394 0.9167 0.6875
 24 13.7635 0.5425 38.4498 0.9925 -0.0022 0.1225 0.9167 0.5625
 20 12.4651 -4.5498 48.8057 0.8933 -0.4304 0.1294 0.6667 0.4375
DM_Base2.bmp
 20 12.4651 -4.5498 48.8057 0.8933 -0.4304 0.1294 0.6667 0.4375
 24 13.7635 0.5425 38.4498 0.9925 -0.0022 0.1225 0.9167 0.5625
 20 12.1364 0.9547 48.5916 0.9858 0.0654 0.1549 0.7500 0.3750
DM_Base2.bmp
 20 6.9933 -4.5436 48.3406 -0.0993 -0.9932 -0.0606 0.9167 0.5625
 20 12.0806 -5.0640 48.6427 0.4314 -0.9015 0.0350 0.9167 0.6875
 18 6.0744 -5.0796 58.6367 -0.0036 -1.0000 -0.0032 0.7500 0.3750
DM_Base2.bmp
 18 6.0744 -5.0796 58.6367 -0.0036 -1.0000 -0.0032 0.7500 0.3750
 20 12.0806 -5.0640 48.6427 0.4314 -0.9015 0.0350 0.9167 0.6875
 18 11.2173 -4.5892 58.9241 0.8929 -0.4321 0.1269 0.6667 0.4375
DM_Base2.bmp
 20 12.0806 -5.0640 48.6427 0.4314 -0.9015 0.0350 0.9167 0.6875
 20 12.5020 0.5015 48.5597 0.9927 -0.0042 0.1204 0.9167 0.5625
 18 11.2173 -4.5892 58.9241 0.8929 -0.4321 0.1269 0.6667 0.4375
DM_Base2.bmp
 18 11.2173 -4.5892 58.9241 0.8929 -0.4321 0.1269 0.6667 0.4375
 20 12.5020 0.5015 48.5597 0.9927 -0.0042 0.1204 0.9167 0.5625
 18 10.8722 0.9577 58.7393 0.9859 0.0655 0.1538 0.7500 0.3750
DM_Base2.bmp
 17 -2.6161 -6.1777 63.0523 -0.0015 0.0054 -1.0000 0.2500 0.0625
 17 -2.6161 0.9898 63.0884 -0.0015 0.0054 -1.0000 0.2500 0.0625
 17 2.9039 -6.2065 63.0441 -0.0015 0.0054 -1.0000 0.7500 0.0625
DM_Base2.bmp
 17 2.9039 -6.2065 63.0441 -0.0015 0.0054 -1.0000 0.7500 0.0625
 17 -2.6161 0.9898 63.0884 -0.0015 0.0054 -1.0000 0.2500 0.0625
 17 2.9039 0.9513 63.0773 -0.0015 0.0054 -1.0000 0.7500 0.0625
DM_Base2.bmp
 16 -2.4361 -3.2953 60.9188 -0.4069 -0.6484 -0.6435 0.0000 0.3750
 16 -2.6361 1.7868 62.2547 -0.6480 0.5201 -0.5565 0.0000 0.4375
 16 2.6139 -2.7431 60.8234 0.6601 -0.1057 -0.7437 0.1667 0.3750
DM_Base2.bmp
 16 2.6139 -2.7431 60.8234 0.6601 -0.1057 -0.7437 0.1667 0.3750
 16 -2.6361 1.7868 62.2547 -0.6480 0.5201 -0.5565 0.0000 0.4375
 16 2.4039 2.1474 62.6879 0.4052 0.8996 -0.1629 0.1667 0.4375
DM_Base2.bmp
  7 -7.0410 -3.5672 21.1717 -0.0634 -0.9977 0.0241 0.3333 0.9375
  8 -6.6290 -4.0517 2.3969 0.0000 -1.0000 -0.0000 0.3333 0.5000
  7 0.4637 -4.0516 21.0479 0.0000 -1.0000 -0.0000 0.4167 0.9375
DM_Base2.bmp
  7 0.4637 -4.0516 21.0479 0.0000 -1.0000 -0.0000 0.4167 0.9375
  8 -6.6290 -4.0517 2.3969 0.0000 -1.0000 -0.0000 0.3333 0.5000
  8 0.8410 -3.5717 2.2769 0.0635 -0.9977 -0.0242 0.4167 0.5000
DM_Base2.bmp
  7 0.8460 4.5931 21.1748 0.0638 0.9977 0.0242 0.4167 0.5000
  8 0.4710 5.0783 2.3969 0.0003 1.0000 0.0000 0.4167 0.1250
  7 -6.6245 5.0725 21.0573 0.0003 1.0000 0.0000 0.5000 0.5000
DM_Base2.bmp
  7 -6.6245 5.0725 21.0573 0.0003 1.0000 0.0000 0.5000 0.5000
  8 0.4710 5.0783 2.3969 0.0003 1.0000 0.0000 0.4167 0.1250
  8 -6.9990 4.5983 2.2769 -0.0633 0.9977 -0.0242 0.5000 0.1250
DM_Base2.bmp
  7 -6.6245 5.0725 21.0573 -0.9987 0.0476 0.0185 0.3333 0.4375
  8 -6.9990 4.5983 2.2769 -1.0000 0.0023 -0.0011 0.3333 0.1250
  7 -7.0410 -3.5672 21.1717 -1.0000 0.0023 -0.0011 0.4167 0.4375
DM_Base2.bmp
  7 -7.0410 -3.5672 21.1717 -1.0000 0.0023 -0.0011 0.4167 0.4375
  8 -6.9990 4.5983 2.2769 -1.0000 0.0023 -0.0011 0.3333 0.1250
  8 -6.6290 -4.0517 2.3969 -0.9989 -0.0430 -0.0207 0.4167 0.1250
DM_Base2.bmp
  7 -6.6245 5.0725 21.0573 -0.0146 0.0152 0.9998 0.0000 1.0000
  7 -7.0410 -3.5672 21.1717 -0.0146 0.0152 0.9998 0.0000 0.0625
  7 0.8460 4.5931 21.1748 0.4508 0.0197 0.8924 0.9167 1.0000
DM_Base2.bmp
  7 0.8460 4.5931 21.1748 0.4508 0.0197 0.8924 0.9167 1.0000
  7 -7.0410 -3.5672 21.1717 -0.0146 0.0152 0.9998 0.0000 0.0625
  7 0.4637 -4.0516 21.0479 0.0163 -0.0146 0.9998 0.9167 0.0625
DM_Base2.bmp
  8 -6.6290 -4.0517 2.3969 -0.0154 -0.0148 -0.9998 0.0000 1.0000
  8 -6.9990 4.5983 2.2769 -0.0154 -0.0148 -0.9998 0.0000 0.0625
  8 0.8410 -3.5717 2.2769 -0.0154 -0.0148 -0.9998 0.9167 1.0000
DM_Base2.bmp
  8 0.8410 -3.5717 2.2769 -0.0154 -0.0148 -0.9998 0.9167 1.0000
  8 -6.9990 4.5983 2.2769 -0.0154 -0.0148 -0.9998 0.0000 0.0625
  8 0.4710 5.0783 2.3969 0.7051 0.0402 -0.7079 0.9167 0.0625
DM_Base2.bmp
  3 -0.6436 -3.6103 21.1358 -0.0623 -0.9978 0.0241 0.4167 0.9375
  4 -0.2349 -4.0917 2.3569 0.0005 -1.0000 0.0002 0.4167 0.5000
  3 6.8541 -4.0777 20.9961 0.0005 -1.0000 0.0002 0.5000 0.9375
DM_Base2.bmp
  3 6.8541 -4.0777 20.9961 0.0005 -1.0000 0.0002 0.5000 0.9375
  4 -0.2349 -4.0917 2.3569 0.0005 -1.0000 0.0002 0.4167 0.5000
  4 7.2351 -3.6117 2.2369 0.0634 -0.9977 -0.0237 0.5000 0.5000
DM_Base2.bmp
  3 7.2405 4.5592 21.1395 0.0640 0.9977 0.0241 0.3333 0.5000
  4 6.8751 5.0383 2.3569 0.0005 1.0000 -0.0002 0.3333 0.1250
  3 -0.2242 5.0435 21.0086 0.0005 1.0000 -0.0002 0.4167 0.5000
DM_Base2.bmp
  3 -0.2242 5.0435 21.0086 0.0005 1.0000 -0.0002 0.4167 0.5000
  4 6.8751 5.0383 2.3569 0.0005 1.0000 -0.0002 0.3333 0.1250
  4 -0.6049 4.5583 2.2369 -0.0631 0.9977 -0.0245 0.4167 0.1250
DM_Base2.bmp
  3 -0.2242 5.0435 21.0086 -0.9987 0.0477 0.0187 0.3333 0.4375
  4 -0.6049 4.5583 2.2369 -1.0000 0.0023 -0.0009 0.3333 0.1250
  3 -0.6436 -3.6103 21.1358 -1.0000 0.0023 -0.0009 0.4167 0.4375
DM_Base2.bmp
  3 -0.6436 -3.6103 21.1358 -1.0000 0.0023 -0.0009 0.4167 0.4375
  4 -0.6049 4.5583 2.2369 -1.0000 0.0023 -0.0009 0.3333 0.1250
  4 -0.2349 -4.0917 2.3569 -0.9989 -0.0430 -0.0206 0.4167 0.1250
DM_Base2.bmp
  3 -0.2242 5.0435 21.0086 -0.0161 0.0157 0.9997 0.0000 1.0000
  3 -0.6436 -3.6103 21.1358 -0.0161 0.0157 0.9997 0.0000 0.0625
  3 7.2405 4.5592 21.1395 0.4502 0.0190 0.8927 0.9167 1.0000
DM_Base2.bmp
  3 7.2405 4.5592 21.1395 0.4502 0.0190 0.8927 0.9167 1.0000
  3 -0.6436 -3.6103 21.1358 -0.0161 0.0157 0.9997 0.0000 0.0625
  3 6.8541 -4.0777 20.9961 0.0161 -0.0154 0.9998 0.9167 0.0625
DM_Base2.bmp
  4 -0.2349 -4.0917 2.3569 -0.0153 -0.0149 -0.9998 0.0000 1.0000
  4 -0.6049 4.5583 2.2369 -0.0153 -0.0149 -0.9998 0.0000 0.0625
  4 7.2351 -3.6117 2.2369 -0.0153 -0.0149 -0.9998 0.9167 1.0000
DM_Base2.bmp
  4 7.2351 -3.6117 2.2369 -0.0153 -0.0149 -0.9998 0.9167 1.0000
  4 -0.6049 4.5583 2.2369 -0.0153 -0.0149 -0.9998 0.0000 0.0625
  4 6.8751 5.0383 2.3569 0.7053 0.0393 -0.7079 0.9167 0.0625
DM_Base2.bmp
  6 -7.0436 -3.5646 39.8305 -0.0703 -0.9972 0.0244 0.3333 0.9375
  7 -6.6645 -4.0476 20.8770 0.0000 -1.0000 -0.0000 0.3333 0.5000
  6 0.4309 -4.0885 39.7230 -0.0032 -1.0000 -0.0008 0.4167 0.9375
DM_Base2.bmp
  6 0.4309 -4.0885 39.7230 -0.0032 -1.0000 -0.0008 0.4167 0.9375
  7 -6.6645 -4.0476 20.8770 0.0000 -1.0000 -0.0000 0.3333 0.5000
  7 0.7972 -3.5681 20.7618 0.0640 -0.9976 -0.0261 0.4167 0.5000
DM_Base2.bmp
  6 0.8442 4.5670 39.7986 0.0674 0.9974 0.0253 0.4167 0.5000
  7 0.4697 5.0745 20.8764 0.0003 1.0000 0.0000 0.4167 0.1250
  6 -6.6264 5.0753 39.6765 0.0017 1.0000 0.0004 0.5000 0.5000
DM_Base2.bmp
  6 -6.6264 5.0753 39.6765 0.0017 1.0000 0.0004 0.5000 0.5000
  7 0.4697 5.0745 20.8764 0.0003 1.0000 0.0000 0.4167 0.1250
  7 -6.9978 4.5898 20.7497 -0.0640 0.9977 -0.0244 0.5000 0.1250
DM_Base2.bmp
  6 -6.6264 5.0753 39.6765 -0.9987 0.0481 0.0184 0.3333 0.4375
  7 -6.9978 4.5898 20.7497 -1.0000 0.0023 -0.0011 0.3333 0.1250
  6 -7.0436 -3.5646 39.8305 -1.0000 0.0044 -0.0003 0.4167 0.4375
DM_Base2.bmp
  6 -7.0436 -3.5646 39.8305 -1.0000 0.0044 -0.0003 0.4167 0.4375
  7 -6.9978 4.5898 20.7497 -1.0000 0.0023 -0.0011 0.3333 0.1250
  7 -6.6645 -4.0476 20.8770 -0.9990 -0.0394 -0.0190 0.4167 0.1250
DM_Base2.bmp
  6 -6.6264 5.0753 39.6765 -0.0146 0.0184 0.9997 0.0000 1.0000
  6 -7.0436 -3.5646 39.8305 -0.0146 0.0184 0.9997 0.0000 0.0625
  6 0.8442 4.5670 39.7986 0.4498 0.0216 0.8929 0.9167 1.0000
DM_Base2.bmp
  6 0.8442 4.5670 39.7986 0.4498 0.0216 0.8929 0.9167 1.0000
  6 -7.0436 -3.5646 39.8305 -0.0146 0.0184 0.9997 0.0000 0.0625
  6 0.4309 -4.0885 39.7230 0.0135 -0.0088 0.9999 0.9167 0.0625
DM_Base2.bmp
  7 -6.6645 -4.0476 20.8770 -0.0147 -0.0149 -0.9998 0.0000 1.0000
  7 -6.9978 4.5898 20.7497 -0.0147 -0.0149 -0.9998 0.0000 0.0625
  7 0.7972 -3.5681 20.7618 -0.0147 -0.0149 -0.9998 0.9167 1.0000
DM_Base2.bmp
  7 0.7972 -3.5681 20.7618 -0.0147 -0.0149 -0.9998 0.9167 1.0000
  7 -6.9978 4.5898 20.7497 -0.0147 -0.0149 -0.9998 0.0000 0.0625
  7 0.4697 5.0745 20.8764 0.7054 0.0366 -0.7078 0.9167 0.0625
DM_Base2.bmp
  2 -0.6466 -3.5866 39.8410 -0.0660 -0.9975 0.0249 0.4167 0.9375
  3 -0.2725 -4.0848 20.8373 0.0005 -1.0000 0.0002 0.4167 0.5000
  2 6.8212 -4.0849 39.7068 -0.0019 -1.0000 0.0007 0.5000 0.9375
DM_Base2.bmp
  2 6.8212 -4.0849 39.7068 -0.0019 -1.0000 0.0007 0.5000 0.9375
  3 -0.2725 -4.0848 20.8373 0.0005 -1.0000 0.0002 0.4167 0.5000
  3 7.2383 -3.6099 20.7215 0.0622 -0.9978 -0.0234 0.5000 0.5000
DM_Base2.bmp
  2 7.2366 4.5585 39.8105 0.0672 0.9975 0.0236 0.3333 0.5000
  3 6.8737 5.0339 20.8347 0.0005 1.0000 -0.0002 0.3333 0.1250
  2 -0.2274 5.0617 39.7044 0.0024 1.0000 -0.0008 0.4167 0.5000
DM_Base2.bmp
  2 -0.2274 5.0617 39.7044 0.0024 1.0000 -0.0008 0.4167 0.5000
  3 6.8737 5.0339 20.8347 0.0005 1.0000 -0.0002 0.3333 0.1250
  3 -0.6034 4.5630 20.7088 -0.0624 0.9977 -0.0253 0.4167 0.1250
DM_Base2.bmp
  2 -0.2274 5.0617 39.7044 -0.9987 0.0481 0.0184 0.3333 0.4375
  3 -0.6034 4.5630 20.7088 -1.0000 0.0023 -0.0009 0.3333 0.1250
  2 -0.6466 -3.5866 39.8410 -1.0000 0.0049 0.0000 0.4167 0.4375
DM_Base2.bmp
  2 -0.6466 -3.5866 39.8410 -1.0000 0.0049 0.0000 0.4167 0.4375
  3 -0.6034 4.5630 20.7088 -1.0000 0.0023 -0.0009 0.3333 0.1250
  3 -0.2725 -4.0848 20.8373 -0.9991 -0.0383 -0.0184 0.4167 0.1250
DM_Base2.bmp
  2 -0.2274 5.0617 39.7044 -0.0130 0.0162 0.9998 0.0000 1.0000
  2 -0.6466 -3.5866 39.8410 -0.0130 0.0162 0.9998 0.0000 0.0625
  2 7.2366 4.5585 39.8105 0.4514 0.0204 0.8921 0.9167 1.0000
DM_Base2.bmp
  2 7.2366 4.5585 39.8105 0.4514 0.0204 0.8921 0.9167 1.0000
  2 -0.6466 -3.5866 39.8410 -0.0130 0.0162 0.9998 0.0000 0.0625
  2 6.8212 -4.0849 39.7068 0.0166 -0.0125 0.9998 0.9167 0.0625
DM_Base2.bmp
  3 -0.2725 -4.0848 20.8373 -0.0147 -0.0155 -0.9998 0.0000 1.0000
  3 -0.6034 4.5630 20.7088 -0.0147 -0.0155 -0.9998 0.0000 0.0625
  3 7.2383 -3.6099 20.7215 -0.0147 -0.0155 -0.9998 0.9167 1.0000
DM_Base2.bmp
  3 7.2383 -3.6099 20.7215 -0.0147 -0.0155 -0.9998 0.9167 1.0000
  3 -0.6034 4.5630 20.7088 -0.0147 -0.0155 -0.9998 0.0000 0.0625
  3 6.8737 5.0339 20.8347 0.7055 0.0386 -0.7076 0.9167 0.0625
DM_Base2.bmp
 27 -11.8207 -4.5403 48.8028 -0.0959 -0.9938 0.0569 0.8333 0.5625
 31 -12.6639 -5.0473 38.5320 -0.0009 -1.0000 0.0001 0.6667 0.4375
 27 -6.7298 -5.0478 48.4569 -0.0009 -1.0000 0.0001 0.8333 0.5000
DM_Base2.bmp
 27 -6.7298 -5.0478 48.4569 -0.0009 -1.0000 0.0001 0.8333 0.5000
 31 -12.6639 -5.0473 38.5320 -0.0009 -1.0000 0.0001 0.6667 0.4375
 31 -7.5372 -4.5428 38.2490 0.0942 -0.9939 -0.0568 0.7500 0.4375
DM_Base2.bmp
 27 -6.7298 -5.0478 48.4569 0.9936 -0.0763 -0.0827 0.6667 0.4375
 31 -7.5372 -4.5428 38.2490 0.9931 -0.0064 -0.1171 0.9167 0.6875
 27 -6.2829 0.5518 48.6044 0.9931 -0.0064 -0.1171 0.7500 0.3750
DM_Base2.bmp
 27 -6.2829 0.5518 48.6044 0.9931 -0.0064 -0.1171 0.7500 0.3750
 31 -7.5372 -4.5428 38.2490 0.9931 -0.0064 -0.1171 0.9167 0.6875
 31 -7.8648 1.0052 38.4467 0.9865 0.0636 -0.1508 0.9167 0.5625
DM_Base2.bmp
 27 -6.2829 0.5518 48.6044 0.0869 0.9957 0.0314 0.5833 0.0625
 31 -7.8648 1.0052 38.4467 -0.0003 1.0000 0.0004 0.7500 0.2500
 27 -11.4779 0.9996 48.6139 -0.0003 1.0000 0.0004 0.5833 0.1250
DM_Base2.bmp
 27 -11.4779 0.9996 48.6139 -0.0003 1.0000 0.0004 0.5833 0.1250
 31 -7.8648 1.0052 38.4467 -0.0003 1.0000 0.0004 0.7500 0.2500
 31 -13.0550 0.5483 38.4507 -0.0876 0.9957 -0.0307 0.7500 0.3125
DM_Base2.bmp
 27 -11.4779 0.9996 48.6139 -0.9864 0.0671 0.1502 0.7500 0.3750
 31 -13.0550 0.5483 38.4507 -0.9931 -0.0010 0.1174 0.9167 0.5625
 27 -11.8207 -4.5403 48.8028 -0.9931 -0.0010 0.1174 0.6667 0.4375
DM_Base2.bmp
 27 -11.8207 -4.5403 48.8028 -0.9931 -0.0010 0.1174 0.6667 0.4375
 31 -13.0550 0.5483 38.4507 -0.9931 -0.0010 0.1174 0.9167 0.5625
 31 -12.6639 -5.0473 38.5320 -0.9941 -0.0692 0.0839 0.9167 0.6875
DM_Base2.bmp
 27 -11.4779 0.9996 48.6139 0.0048 0.0344 0.9994 0.0000 1.0000
 27 -11.8207 -4.5403 48.8028 0.0343 0.0023 0.9994 0.0000 0.0625
 27 -6.2829 0.5518 48.6044 0.0343 0.0023 0.9994 0.9167 1.0000
DM_Base2.bmp
 27 -6.2829 0.5518 48.6044 0.0343 0.0023 0.9994 0.9167 1.0000
 27 -11.8207 -4.5403 48.8028 0.0343 0.0023 0.9994 0.0000 0.0625
 27 -6.7298 -5.0478 48.4569 0.0637 -0.0297 0.9975 0.9167 0.0625
DM_Base2.bmp
 31 -12.6639 -5.0473 38.5320 -0.0531 -0.0184 -0.9984 0.0000 1.0000
 31 -13.0550 0.5483 38.4507 -0.0290 0.0078 -0.9996 0.0000 0.0625
 31 -7.5372 -4.5428 38.2490 -0.0290 0.0078 -0.9996 0.9167 1.0000
DM_Base2.bmp
 31 -7.5372 -4.5428 38.2490 -0.0290 0.0078 -0.9996 0.9167 1.0000
 31 -13.0550 0.5483 38.4507 -0.0290 0.0078 -0.9996 0.0000 0.0625
 31 -7.8648 1.0052 38.4467 -0.0048 0.0339 -0.9994 0.9167 0.0625
DM_Base2.bmp
 20 7.3931 -5.0494 48.4566 -0.9942 -0.0691 -0.0827 0.6667 0.4375
 20 6.9967 0.5462 48.5860 -0.9932 -0.0001 -0.1167 0.7500 0.3750
 24 8.2120 -4.5523 38.2249 -0.9932 -0.0001 -0.1167 0.9167 0.6875
DM_Base2.bmp
 24 8.2120 -4.5523 38.2249 -0.9932 -0.0001 -0.1167 0.9167 0.6875
 20 6.9967 0.5462 48.5860 -0.9932 -0.0001 -0.1167 0.7500 0.3750
 24 8.5667 0.9970 38.4337 -0.9863 0.0690 -0.1499 0.9167 0.5625
DM_Base2.bmp
 20 6.9967 0.5462 48.5860 -0.0794 0.9963 0.0322 0.7500 0.2500
 20 12.1364 0.9547 48.5916 0.0038 1.0000 0.0029 0.7500 0.3125
 24 8.5667 0.9970 38.4337 0.0038 1.0000 0.0029 0.5833 0.0625
DM_Base2.bmp
 24 8.5667 0.9970 38.4337 0.0038 1.0000 0.0029 0.5833 0.0625
 20 12.1364 0.9547 48.5916 0.0038 1.0000 0.0029 0.7500 0.3125
 24 13.7635 0.5425 38.4498 0.0871 0.9959 -0.0265 0.5000 0.1250
DM_Base2.bmp
 20 12.1364 0.9547 48.5916 -0.0046 0.0369 0.9993 0.0000 1.0000
 20 6.9967 0.5462 48.5860 -0.0350 0.0043 0.9994 0.9167 1.0000
 20 12.4651 -4.5498 48.8057 -0.0350 0.0043 0.9994 0.0000 0.0625
DM_Base2.bmp
 20 12.4651 -4.5498 48.8057 -0.0350 0.0043 0.9994 0.0000 0.0625
 20 6.9967 0.5462 48.5860 -0.0350 0.0043 0.9994 0.9167 1.0000
 20 7.3931 -5.0494 48.4566 -0.0653 -0.0284 0.9975 0.9167 0.0625
DM_Base2.bmp
 24 13.3660 -5.0441 38.5216 0.0552 -0.0179 -0.9983 0.0000 1.0000
 24 8.2120 -4.5523 38.2249 0.0300 0.0096 -0.9995 0.9167 1.0000
 24 13.7635 0.5425 38.4498 0.0300 0.0096 -0.9995 0.0000 0.0625
DM_Base2.bmp
 24 13.7635 0.5425 38.4498 0.0300 0.0096 -0.9995 0.0000 0.0625
 24 8.2120 -4.5523 38.2249 0.0300 0.0096 -0.9995 0.9167 1.0000
 24 8.5667 0.9970 38.4337 0.0047 0.0372 -0.9993 0.9167 0.0625
DM_Base2.bmp
 26 -10.8154 -4.5332 58.9230 -0.0941 -0.9939 0.0569 0.8333 0.5625
 27 -11.6538 -5.0446 48.6632 -0.0009 -1.0000 0.0001 0.6667 0.4375
 26 -5.7268 -5.0332 58.6536 -0.0003 -1.0000 0.0011 0.8333 0.5000
DM_Base2.bmp
 26 -5.7268 -5.0332 58.6536 -0.0003 -1.0000 0.0011 0.8333 0.5000
 27 -11.6538 -5.0446 48.6632 -0.0009 -1.0000 0.0001 0.6667 0.4375
 27 -6.5599 -4.5460 48.3479 0.0935 -0.9941 -0.0547 0.7500 0.4375
DM_Base2.bmp
 26 -5.7268 -5.0332 58.6536 0.9941 -0.0690 -0.0836 0.6667 0.4375
 27 -6.5599 -4.5460 48.3479 0.9931 -0.0064 -0.1171 0.9167 0.6875
 26 -5.3248 0.5468 58.7540 0.9934 -0.0049 -0.1150 0.7500 0.3750
DM_Base2.bmp
 26 -5.3248 0.5468 58.7540 0.9934 -0.0049 -0.1150 0.7500 0.3750
 27 -6.5599 -4.5460 48.3479 0.9931 -0.0064 -0.1171 0.9167 0.6875
 27 -6.8602 1.0007 48.5606 0.9875 0.0593 -0.1458 0.9167 0.5625
DM_Base2.bmp
 26 -5.3248 0.5468 58.7540 0.0885 0.9956 0.0310 0.5833 0.0625
 27 -6.8602 1.0007 48.5606 -0.0003 1.0000 0.0004 0.7500 0.2500
 26 -10.4712 1.0068 58.7477 0.0017 1.0000 0.0002 0.5833 0.1250
DM_Base2.bmp
 26 -10.4712 1.0068 58.7477 0.0017 1.0000 0.0002 0.5833 0.1250
 27 -6.8602 1.0007 48.5606 -0.0003 1.0000 0.0004 0.7500 0.2500
 27 -12.0354 0.5502 48.5666 -0.0851 0.9959 -0.0307 0.7500 0.3125
DM_Base2.bmp
 26 -10.4712 1.0068 58.7477 -0.9865 0.0670 0.1492 0.7500 0.3750
 27 -12.0354 0.5502 48.5666 -0.9931 -0.0010 0.1174 0.9167 0.5625
 26 -10.8154 -4.5332 58.9230 -0.9931 0.0005 0.1172 0.6667 0.4375
DM_Base2.bmp
 26 -10.8154 -4.5332 58.9230 -0.9931 0.0005 0.1172 0.6667 0.4375
 27 -12.0354 0.5502 48.5666 -0.9931 -0.0010 0.1174 0.9167 0.5625
 27 -11.6538 -5.0446 48.6632 -0.9942 -0.0660 0.0846 0.9167 0.6875
DM_Base2.bmp
 26 -10.4712 1.0068 58.7477 0.0011 0.0320 0.9995 0.0000 1.0000
 26 -10.8154 -4.5332 58.9230 0.0266 0.0045 0.9996 0.0000 0.0625
 26 -5.3248 0.5468 58.7540 0.0266 0.0045 0.9996 0.9167 1.0000
DM_Base2.bmp
 26 -5.3248 0.5468 58.7540 0.0266 0.0045 0.9996 0.9167 1.0000
 26 -10.8154 -4.5332 58.9230 0.0266 0.0045 0.9996 0.0000 0.0625
 26 -5.7268 -5.0332 58.6536 0.0520 -0.0230 0.9984 0.9167 0.0625
DM_Base2.bmp
 27 -11.6538 -5.0446 48.6632 -0.0571 -0.0191 -0.9982 0.0000 1.0000
 27 -12.0354 0.5502 48.5666 -0.0309 0.0090 -0.9995 0.0000 0.0625
 27 -6.5599 -4.5460 48.3479 -0.0309 0.0090 -0.9995 0.9167 1.0000
DM_Base2.bmp
 27 -6.5599 -4.5460 48.3479 -0.0309 0.0090 -0.9995 0.9167 1.0000
 27 -12.0354 0.5502 48.5666 -0.0309 0.0090 -0.9995 0.0000 0.0625
 27 -6.8602 1.0007 48.5606 -0.0047 0.0372 -0.9993 0.9167 0.0625
DM_Base2.bmp
 18 6.0744 -5.0796 58.6367 -0.9936 -0.0657 -0.0915 0.6667 0.4375
 18 5.6888 0.5180 58.7544 -0.9922 0.0021 -0.1243 0.7500 0.3750
 20 6.9933 -4.5436 48.3406 -0.9932 -0.0001 -0.1167 0.9167 0.6875
DM_Base2.bmp
 20 6.9933 -4.5436 48.3406 -0.9932 -0.0001 -0.1167 0.9167 0.6875
 18 5.6888 0.5180 58.7544 -0.9922 0.0021 -0.1243 0.7500 0.3750
 20 7.3533 0.9892 48.5449 -0.9852 0.0699 -0.1565 0.9167 0.5625
DM_Base2.bmp
 18 5.6888 0.5180 58.7544 -0.0856 0.9958 0.0324 0.7500 0.2500
 18 10.8722 0.9577 58.7393 0.0045 1.0000 0.0012 0.7500 0.3125
 20 7.3533 0.9892 48.5449 0.0038 1.0000 0.0029 0.5833 0.0625
DM_Base2.bmp
 20 7.3533 0.9892 48.5449 0.0038 1.0000 0.0029 0.5833 0.0625
 18 10.8722 0.9577 58.7393 0.0045 1.0000 0.0012 0.7500 0.3125
 20 12.5020 0.5015 48.5597 0.0945 0.9951 -0.0300 0.5000 0.1250
DM_Base2.bmp
 18 10.8722 0.9577 58.7393 -0.0018 0.0316 0.9995 0.0000 1.0000
 18 5.6888 0.5180 58.7544 -0.0278 0.0035 0.9996 0.9167 1.0000
 18 11.2173 -4.5892 58.9241 -0.0278 0.0035 0.9996 0.0000 0.0625
DM_Base2.bmp
 18 11.2173 -4.5892 58.9241 -0.0278 0.0035 0.9996 0.0000 0.0625
 18 5.6888 0.5180 58.7544 -0.0278 0.0035 0.9996 0.9167 1.0000
 18 6.0744 -5.0796 58.6367 -0.0537 -0.0246 0.9983 0.9167 0.0625
DM_Base2.bmp
 20 12.0806 -5.0640 48.6427 0.0572 -0.0187 -0.9982 0.0000 1.0000
 20 6.9933 -4.5436 48.3406 0.0315 0.0094 -0.9995 0.9167 1.0000
 20 12.5020 0.5015 48.5597 0.0315 0.0094 -0.9995 0.0000 0.0625
DM_Base2.bmp
 20 12.5020 0.5015 48.5597 0.0315 0.0094 -0.9995 0.0000 0.0625
 20 6.9933 -4.5436 48.3406 0.0315 0.0094 -0.9995 0.9167 1.0000
 20 7.3533 0.9892 48.5449 0.0058 0.0374 -0.9993 0.9167 0.0625
DM_Base2.bmp
 11 -5.2990 -7.6304 -0.8062 -0.4119 -0.8130 -0.4115 0.5000 0.5000
 11 -0.2590 -7.3304 -0.8762 0.6671 -0.3260 -0.6699 0.5000 0.5000
 11 -0.3090 -7.6304 3.5838 0.4106 -0.8142 0.4105 0.5000 0.6250
DM_Base2.bmp
 11 -0.2690 3.4896 -0.8162 0.4125 0.8128 -0.4114 0.5833 0.5000
 11 -5.2690 3.4896 3.5738 -0.4104 0.8146 0.4099 0.5833 0.6250
 11 -0.2190 3.1896 3.6438 0.6684 0.3215 0.6707 0.5833 0.6250
DM_Base2.bmp
  5 0.6051 -7.6689 -0.8462 -0.4123 -0.8131 -0.4109 0.5000 0.5000
  5 5.6551 -7.3689 -0.9162 0.6676 -0.3256 -0.6696 0.5000 0.5000
  5 5.6051 -7.6689 3.5438 0.4104 -0.8144 0.4104 0.5000 0.6250
DM_Base2.bmp
  5 5.6451 3.4511 -0.8462 0.4132 0.8127 -0.4109 0.5833 0.5000
  5 0.6451 3.4511 3.5338 -0.4111 0.8143 0.4097 0.5833 0.6250
  5 5.6951 3.1511 3.6138 0.6680 0.3214 0.6712 0.5833 0.6250
DM_Base2.bmp
 15 -6.5462 -5.0416 42.7481 -0.3884 -0.8024 -0.4532 0.1667 0.5625
 15 6.9038 -4.6227 42.4136 0.6348 -0.3035 -0.7105 0.1667 0.5625
 16 8.8839 -5.1150 61.2940 0.3831 -0.8690 0.3131 0.1667 0.6250
DM_Base2.bmp
 15 6.5539 5.9684 42.8528 0.4028 0.8271 -0.3920 0.1667 0.5625
 16 -8.9461 4.4005 63.7953 -0.4399 0.7826 0.4404 0.1667 0.6250
 16 9.3539 3.9914 64.0568 0.7330 0.1793 0.6562 0.1667 0.6250
DM_Base2.bmp
  1 -6.4161 -4.7519 37.7561 -0.4125 -0.8147 -0.4075 0.1667 0.5625
  1 6.3239 -4.3618 37.5561 0.6595 -0.3268 -0.6769 0.1667 0.5625
  1 6.2639 -4.7918 42.6561 0.4073 -0.8170 0.4083 0.1667 0.5625
DM_Base2.bmp
 12 6.3039 4.4132 37.7587 0.4130 0.8144 -0.4078 0.1667 0.5625
 12 -6.3761 4.4556 42.6555 -0.4058 0.8179 0.4079 0.1667 0.5625
 12 6.3639 3.9835 42.8227 0.6623 0.3215 0.6767 0.1667 0.5625
DM_Base2.bmp
  7 0.4637 -4.0516 21.0479 0.9988 -0.0441 0.0190 0.4167 0.4375
  8 0.8410 -3.5717 2.2769 0.9988 -0.0441 0.0190 0.4167 0.1250
  7 0.8460 4.5931 21.1748 0.9988 -0.0441 0.0190 0.3333 0.4375
DM_Base2.bmp
  8 0.8410 -3.5717 2.2769 0.9989 0.0430 -0.0187 0.0000 0.0625
  8 0.4710 5.0783 2.3969 0.7051 0.0402 -0.7079 0.9167 0.0625
  7 0.8460 4.5931 21.1748 0.4508 0.0197 0.8924 0.9167 1.0000
DM_Base2.bmp
  3 6.8541 -4.0777 20.9961 0.9988 -0.0454 0.0193 0.4167 0.4375
  4 7.2351 -3.6117 2.2369 0.9988 -0.0454 0.0193 0.4167 0.1250
  3 7.2405 4.5592 21.1395 0.9988 -0.0454 0.0193 0.3333 0.4375
DM_Base2.bmp
  4 7.2351 -3.6117 2.2369 0.9990 0.0418 -0.0184 0.0000 0.0625
  4 6.8751 5.0383 2.3569 0.7053 0.0393 -0.7079 0.9167 0.0625
  3 7.2405 4.5592 21.1395 0.4502 0.0190 0.8927 0.9167 1.0000
DM_Base2.bmp
  6 0.4309 -4.0885 39.7230 0.9987 -0.0477 0.0182 0.4167 0.4375
  7 0.7972 -3.5681 20.7618 0.9988 -0.0441 0.0190 0.4167 0.1250
  6 0.8442 4.5670 39.7986 0.9987 -0.0477 0.0182 0.3333 0.4375
DM_Base2.bmp
  7 0.7972 -3.5681 20.7618 0.9991 0.0383 -0.0186 0.0000 0.0625
  7 0.4697 5.0745 20.8764 0.7054 0.0366 -0.7078 0.9167 0.0625
  6 0.8442 4.5670 39.7986 0.4498 0.0216 0.8929 0.9167 1.0000
DM_Base2.bmp
  2 6.8212 -4.0849 39.7068 0.9986 -0.0480 0.0203 0.4167 0.4375
  3 7.2383 -3.6099 20.7215 0.9988 -0.0454 0.0193 0.4167 0.1250
  2 7.2366 4.5585 39.8105 0.9986 -0.0480 0.0203 0.3333 0.4375
DM_Base2.bmp
  3 7.2383 -3.6099 20.7215 0.9990 0.0417 -0.0181 0.0000 0.0625
  3 6.8737 5.0339 20.8347 0.7055 0.0386 -0.7076 0.9167 0.0625
  2 7.2366 4.5585 39.8105 0.4514 0.0204 0.8921 0.9167 1.0000
DM_Face2.bmp
 17 -3.5461 1.3461 64.0955 -0.0625 0.9969 -0.0482 0.0000 0.6875
 17 -3.1161 1.7979 72.7551 -0.0049 0.8945 0.4471 0.0000 0.9375
 17 3.4539 1.7884 64.0766 0.0063 1.0000 0.0040 0.0833 0.6250
DM_Face2.bmp
 17 3.4539 1.7884 64.0766 0.0063 1.0000 0.0040 0.0833 0.6250
 17 -3.1161 1.7979 72.7551 -0.0049 0.8945 0.4471 0.0000 0.9375
 17 3.7039 1.2675 72.9360 0.0342 0.4358 0.8994 0.0833 0.9375
DM_Face2.bmp
 17 -3.1161 1.7979 72.7551 -0.0049 0.8945 0.4471 0.0000 0.9375
 17 -3.4061 -6.4741 72.9434 0.0015 0.0001 1.0000 0.0000 0.8125
 17 3.7039 1.2675 72.9360 0.0342 0.4358 0.8994 0.0833 0.9375
DM_Face2.bmp
 17 3.7039 1.2675 72.9360 0.0342 0.4358 0.8994 0.0833 0.9375
 17 -3.4061 -6.4741 72.9434 0.0015 0.0001 1.0000 0.0000 0.8125
 17 3.4139 -6.9918 72.7534 0.0015 0.0001 1.0000 0.0833 0.8125
DM_Face2.bmp
 17 -3.4061 -6.4741 72.9434 -0.0732 -0.9956 0.0577 0.1667 0.9375
 17 -3.1561 -7.0150 64.0503 -0.0048 -1.0000 0.0060 0.1667 0.0625
 17 3.4139 -6.9918 72.7534 -0.0048 -1.0000 0.0060 0.9167 1.0000
DM_Face2.bmp
 17 3.4139 -6.9918 72.7534 -0.0048 -1.0000 0.0060 0.9167 1.0000
 17 -3.1561 -7.0150 64.0503 -0.0048 -1.0000 0.0060 0.1667 0.0625
 17 3.8439 -6.5631 64.0341 0.0635 -0.9969 -0.0458 0.9167 0.0625
DM_Face2.bmp
 17 3.4139 -6.9918 72.7534 0.9983 -0.0355 0.0467 0.0000 0.9375
 17 3.8439 -6.5631 64.0341 0.9999 0.0053 0.0108 0.0000 0.3125
 17 3.7039 1.2675 72.9360 0.9999 0.0053 0.0108 0.1667 0.9375
DM_Face2.bmp
 17 3.7039 1.2675 72.9360 0.9999 0.0053 0.0108 0.1667 0.9375
 17 3.8439 -6.5631 64.0341 0.9999 0.0053 0.0108 0.0000 0.3125
 17 3.4539 1.7884 64.0766 0.9986 0.0460 -0.0252 0.1667 0.3125
DM_Face2.bmp
 17 -3.1161 1.7979 72.7551 -0.9983 0.0355 0.0471 0.1667 0.9375
 17 -3.5461 1.3461 64.0955 -0.9999 -0.0052 0.0111 0.1667 0.3125
 17 -3.4061 -6.4741 72.9434 -0.9999 -0.0052 0.0111 0.0000 0.9375
DM_Face2.bmp
 17 -3.4061 -6.4741 72.9434 -0.9999 -0.0052 0.0111 0.0000 0.9375
 17 -3.5461 1.3461 64.0955 -0.9999 -0.0052 0.0111 0.1667 0.3125
 17 -3.1561 -7.0150 64.0503 -0.9986 -0.0459 -0.0249 0.0000 0.3125
end
