version 1
nodes
  0 "Bip01"  -1
  1 "Bip01 Pelvis"   0
  2 "Bip01 L Leg"   1
  3 "Bip01 L Leg1"   2
  4 "Bip01 L Foot"   3
  5 "Bip01 L Toe0"   4
  6 "Bip01 R Leg"   1
  7 "Bip01 R Leg1"   6
  8 "Bip01 R Foot"   7
  9 "Bip01 R Toe0"   8
 10 "Bip01 R Toe01"   9
 11 "Bip01 R Toe02"  10
 12 "Bip01 Spine"   1
 13 "Bip01 Spine1"  12
 14 "Bip01 Spine2"  13
 15 "Bip01 Spine3"  14
 16 "Bip01 Neck"  15
 17 "Bip01 Head"  16
 18 "Bip01 L Arm"  16
 19 "Bip01 L Arm1"  18
 20 "Bip01 L Arm2"  19
 21 "Bip01 L Hand"  20
 22 "Bip01 L Finger1"  21
 23 "Bip01 L Finger11"  22
 24 "Bip01 L Finger12"  23
 25 "Bip01 R Arm"  16
 26 "Bip01 R Arm1"  25
 27 "Bip01 R Arm2"  26
 28 "Bip01 R Hand"  27
 29 "Bip01 R Finger1"  28
 30 "Bip01 R Finger11"  29
 31 "Bip01 R Finger12"  30
end
skeleton
time 0
  0 0.235347 -0.235347 -14.475529 -0.045585 0.257873 -1.742273
  1 0.000000 0.000000 0.000000 -1.570795 -1.570796 0.000000
  2 -0.000005 0.000007 3.713255 -3.368582 -0.221254 1.331540
  3 18.045721 0.000000 0.000000 0.000000 -0.000000 -1.349056
  4 17.597597 0.000000 0.000000 -0.205032 0.225938 -0.216505
  5 3.793090 6.407221 0.000000 0.000000 -0.000000 1.570796
  6 0.000005 -0.000003 -3.713255 6.216042 2.542639 5.445438
  7 18.045725 0.000000 0.000000 0.000000 -0.000000 -2.074575
  8 17.597597 0.000000 0.000000 -0.092072 0.087818 0.559914
  9 3.793090 6.407221 0.000000 0.000000 -0.000000 1.570796
 10 0.935740 0.000000 0.000000 0.000000 -0.000000 0.000000
 11 0.935741 0.000000 0.000000 0.000000 -0.000000 0.000000
 12 1.293670 0.684478 -0.000001 -0.000004 -0.000001 0.218783
 13 5.309685 -0.003834 0.000000 0.000000 -0.000000 0.349014
 14 4.826790 -0.004591 0.000000 -0.173330 0.019775 0.111663
 15 5.792767 -0.005304 0.000000 -0.139446 -0.004746 -0.034588
 16 6.662317 -0.001453 0.000000 0.000000 -0.000001 -0.139812
 17 2.046985 -0.000002 0.000000 0.211796 0.232845 -0.710340
 18 -3.416721 -0.541403 4.341911 2.184455 -0.889746 0.973571
 19 4.827230 0.000000 0.000001 -1.238634 -0.496095 -0.859622
 20 11.139763 0.000000 0.000000 0.000000 -0.000000 -0.961067
 21 10.314597 0.000001 0.000000 -3.445898 0.666515 -0.277489
 22 2.975834 -0.386307 -0.044143 -0.000797 -0.043611 0.000035
 23 1.438886 0.000000 0.000000 0.000000 -0.000000 0.872170
 24 1.485303 0.000000 0.000000 0.000000 -0.000000 0.906977
 25 -3.151157 -0.491020 -4.140396 -1.093255 1.155394 2.224644
 26 4.972048 0.000000 0.000001 0.918652 -0.285082 -1.303452
 27 11.585355 0.000000 0.000000 0.000000 -0.000000 -1.922408
 28 10.127057 0.000000 0.000001 1.661547 0.465169 -0.038358
 29 2.683750 -0.427338 0.044205 -0.005738 0.043239 -0.157060
 30 1.438885 -0.000001 0.000000 0.000000 -0.000000 0.732589
 31 1.485305 0.000001 0.000000 0.000000 -0.000000 1.168627
time 1
  0 0.235347 -0.235347 -14.475529 -0.045585 0.257873 -1.742273
  1 0.000000 0.000000 0.000000 -1.570795 -1.570796 0.000000
  2 -0.000005 0.000007 3.713255 -3.368582 -0.221254 1.331540
  3 18.045721 0.000000 0.000000 0.000000 -0.000000 -1.349056
  4 17.597597 0.000000 0.000000 -0.205032 0.225938 -0.216505
  5 3.793090 6.407221 0.000000 0.000000 -0.000000 1.570796
  6 0.000005 -0.000003 -3.713255 6.216042 2.542639 5.445438
  7 18.045725 0.000000 0.000000 0.000000 -0.000000 -2.074575
  8 17.597597 0.000000 0.000000 -0.092072 0.087818 0.559914
  9 3.793090 6.407221 0.000000 0.000000 -0.000000 1.570796
 10 0.935740 0.000000 0.000000 0.000000 -0.000000 0.000000
 11 0.935741 0.000000 0.000000 0.000000 -0.000000 0.000000
 12 1.293670 0.684478 -0.000001 -0.000004 -0.000001 0.218783
 13 5.309685 -0.003834 0.000000 0.000000 -0.000000 0.349014
 14 4.826790 -0.004591 0.000000 -0.173281 0.019906 0.112721
 15 5.792767 -0.005304 0.000000 -0.139462 -0.004243 -0.030996
 16 6.662317 -0.001453 0.000000 0.000000 -0.000001 -0.139812
 17 2.046985 -0.000002 0.000000 0.211494 0.232935 -0.715015
 18 -3.416721 -0.541403 4.341911 2.181483 -0.891208 0.976735
 19 4.827230 0.000000 0.000001 -1.236989 -0.502137 -0.858834
 20 11.139763 0.000000 0.000000 0.000000 -0.000000 -0.961067
 21 10.314597 0.000001 0.000000 -3.445898 0.666515 -0.277489
 22 2.975834 -0.386307 -0.044143 -0.000797 -0.043611 0.000035
 23 1.438886 0.000000 0.000000 0.000000 -0.000000 0.872170
 24 1.485303 0.000000 0.000000 0.000000 -0.000000 0.906977
 25 -3.151157 -0.491020 -4.140396 -1.094885 1.154122 2.223014
 26 4.972048 0.000000 0.000001 0.918265 -0.280175 -1.302859
 27 11.585355 0.000000 0.000000 0.000000 -0.000000 -1.922408
 28 10.127057 0.000000 0.000001 1.662184 0.465115 -0.037142
 29 2.683750 -0.427338 0.044205 -0.005738 0.043239 -0.157060
 30 1.438885 -0.000001 0.000000 0.000000 -0.000000 0.732589
 31 1.485305 0.000001 0.000000 0.000000 -0.000000 1.168627
time 2
  0 0.235347 -0.235347 -14.475529 -0.045585 0.257873 -1.742273
  1 0.000000 0.000000 0.000000 -1.570795 -1.570796 0.000000
  2 -0.000005 0.000007 3.713255 -3.368582 -0.221254 1.331540
  3 18.045721 0.000000 0.000000 0.000000 -0.000000 -1.349056
  4 17.597597 0.000000 0.000000 -0.205032 0.225938 -0.216505
  5 3.793090 6.407221 0.000000 0.000000 -0.000000 1.570796
  6 0.000005 -0.000003 -3.713255 6.216042 2.542639 5.445438
  7 18.045725 0.000000 0.000000 0.000000 -0.000000 -2.074575
  8 17.597597 0.000000 0.000000 -0.092072 0.087818 0.559914
  9 3.793090 6.407221 0.000000 0.000000 -0.000000 1.570796
 10 0.935740 0.000000 0.000000 0.000000 -0.000000 0.000000
 11 0.935741 0.000000 0.000000 0.000000 -0.000000 0.000000
 12 1.293670 0.684478 -0.000001 -0.000004 -0.000001 0.218783
 13 5.309685 -0.003834 0.000000 0.000000 -0.000000 0.349014
 14 4.826790 -0.004591 0.000000 -0.173248 0.020170 0.114132
 15 5.792767 -0.005304 0.000000 -0.139478 -0.003500 -0.026096
 16 6.662317 -0.001453 0.000000 0.000000 -0.000001 -0.139812
 17 2.046985 -0.000002 0.000000 0.211451 0.233070 -0.721532
 18 -3.416721 -0.541403 4.341911 2.178319 -0.893208 0.981241
 19 4.827230 0.000000 0.000001 -1.234640 -0.510477 -0.857609
 20 11.139763 0.000000 0.000000 0.000000 -0.000000 -0.961067
 21 10.314597 0.000001 0.000000 -3.445898 0.666515 -0.277489
 22 2.975834 -0.386307 -0.044143 -0.000797 -0.043611 0.000035
 23 1.438886 0.000000 0.000000 0.000000 -0.000000 0.872170
 24 1.485303 0.000000 0.000000 0.000000 -0.000000 0.906977
 25 -3.151157 -0.491020 -4.140396 -1.097090 1.152398 2.220809
 26 4.972048 0.000000 0.000001 0.917956 -0.273418 -1.301937
 27 11.585355 0.000000 0.000000 0.000000 -0.000000 -1.922408
 28 10.127057 0.000000 0.000001 1.662821 0.465034 -0.035534
 29 2.683750 -0.427338 0.044205 -0.005738 0.043239 -0.157060
 30 1.438885 -0.000001 0.000000 0.000000 -0.000000 0.732589
 31 1.485305 0.000001 0.000000 0.000000 -0.000000 1.168627
time 3
  0 0.235347 -0.235347 -14.475529 -0.045585 0.257873 -1.742273
  1 0.000000 0.000000 0.000000 -1.570795 -1.570796 0.000000
  2 -0.000005 0.000007 3.713255 -3.368582 -0.221254 1.331540
  3 18.045721 0.000000 0.000000 0.000000 -0.000000 -1.349056
  4 17.597597 0.000000 0.000000 -0.205032 0.225938 -0.216505
  5 3.793090 6.407221 0.000000 0.000000 -0.000000 1.570796
  6 0.000005 -0.000003 -3.713255 6.216042 2.542639 5.445438
  7 18.045725 0.000000 0.000000 0.000000 -0.000000 -2.074575
  8 17.597597 0.000000 0.000000 -0.092072 0.087818 0.559914
  9 3.793090 6.407221 0.000000 0.000000 -0.000000 1.570796
 10 0.935740 0.000000 0.000000 0.000000 -0.000000 0.000000
 11 0.935741 0.000000 0.000000 0.000000 -0.000000 0.000000
 12 1.293670 0.684478 -0.000001 -0.000004 -0.000001 0.218783
 13 5.309685 -0.003834 0.000000 0.000000 -0.000000 0.349014
 14 4.826790 -0.004591 0.000000 -0.173199 0.020530 0.115940
 15 5.792767 -0.005304 0.000000 -0.139511 -0.002709 -0.020116
 16 6.662317 -0.001453 0.000000 0.000000 -0.000001 -0.139812
 17 2.046985 -0.000002 0.000000 0.211322 0.233227 -0.729443
 18 -3.416721 -0.541403 4.341911 2.174005 -0.895554 0.986802
 19 4.827230 0.000000 0.000001 -1.231703 -0.520604 -0.856384
 20 11.139763 0.000000 0.000000 0.000000 -0.000000 -0.961067
 21 10.314597 0.000001 0.000000 -3.445898 0.666515 -0.277489
 22 2.975834 -0.386307 -0.044143 -0.000797 -0.043611 0.000035
 23 1.438886 0.000000 0.000000 0.000000 -0.000000 0.872170
 24 1.485303 0.000000 0.000000 0.000000 -0.000000 0.906977
 25 -3.151157 -0.491020 -4.140396 -1.100158 1.150278 2.218412
 26 4.972048 0.000000 0.000001 0.917337 -0.265374 -1.300949
 27 11.585355 0.000000 0.000000 0.000000 -0.000000 -1.922408
 28 10.127057 0.000000 0.000001 1.663840 0.464763 -0.033612
 29 2.683750 -0.427338 0.044205 -0.005738 0.043239 -0.157060
 30 1.438885 -0.000001 0.000000 0.000000 -0.000000 0.732589
 31 1.485305 0.000001 0.000000 0.000000 -0.000000 1.168627
time 4
  0 0.235347 -0.235347 -14.475529 -0.045585 0.257873 -1.742273
  1 0.000000 0.000000 0.000000 -1.570795 -1.570796 0.000000
  2 -0.000005 0.000007 3.713255 -3.368582 -0.221254 1.331540
  3 18.045721 0.000000 0.000000 0.000000 -0.000000 -1.349056
  4 17.597597 0.000000 0.000000 -0.205032 0.225938 -0.216505
  5 3.793090 6.407221 0.000000 0.000000 -0.000000 1.570796
  6 0.000005 -0.000003 -3.713255 6.216042 2.542639 5.445438
  7 18.045725 0.000000 0.000000 0.000000 -0.000000 -2.074575
  8 17.597597 0.000000 0.000000 -0.092072 0.087818 0.559914
  9 3.793090 6.407221 0.000000 0.000000 -0.000000 1.570796
 10 0.935740 0.000000 0.000000 0.000000 -0.000000 0.000000
 11 0.935741 0.000000 0.000000 0.000000 -0.000000 0.000000
 12 1.293670 0.684478 -0.000001 -0.000004 -0.000001 0.218783
 13 5.309685 -0.003834 0.000000 0.000000 -0.000000 0.349014
 14 4.826790 -0.004591 0.000000 -0.173199 0.020841 0.118013
 15 5.792767 -0.005304 0.000000 -0.139527 -0.001750 -0.013285
 16 6.662317 -0.001453 0.000000 0.000000 -0.000001 -0.139812
 17 2.046985 -0.000002 0.000000 0.210934 0.233407 -0.738252
 18 -3.416721 -0.541403 4.341911 2.168636 -0.898285 0.993609
 19 4.827230 0.000000 0.000001 -1.228531 -0.532433 -0.854896
 20 11.139763 0.000000 0.000000 0.000000 -0.000000 -0.961067
 21 10.314597 0.000001 0.000000 -3.445898 0.666515 -0.277489
 22 2.975834 -0.386307 -0.044143 -0.000797 -0.043611 0.000035
 23 1.438886 0.000000 0.000000 0.000000 -0.000000 0.872170
 24 1.485303 0.000000 0.000000 0.000000 -0.000000 0.906977
 25 -3.151157 -0.491020 -4.140396 -1.103226 1.147904 2.215536
 26 4.972048 0.000000 0.000001 0.916950 -0.256043 -1.299829
 27 11.585355 0.000000 0.000000 0.000000 -0.000000 -1.922408
 28 10.127057 0.000000 0.000001 1.664796 0.464655 -0.031180
 29 2.683750 -0.427338 0.044205 -0.005738 0.043239 -0.157060
 30 1.438885 -0.000001 0.000000 0.000000 -0.000000 0.732589
 31 1.485305 0.000001 0.000000 0.000000 -0.000000 1.168627
time 5
  0 0.235347 -0.235347 -14.475529 -0.045585 0.257873 -1.742273
  1 0.000000 0.000000 0.000000 -1.570795 -1.570796 0.000000
  2 -0.000005 0.000007 3.713255 -3.368582 -0.221254 1.331540
  3 18.045721 0.000000 0.000000 0.000000 -0.000000 -1.349056
  4 17.597597 0.000000 0.000000 -0.205032 0.225938 -0.216505
  5 3.793090 6.407221 0.000000 0.000000 -0.000000 1.570796
  6 0.000005 -0.000003 -3.713255 6.216042 2.542639 5.445438
  7 18.045725 0.000000 0.000000 0.000000 -0.000000 -2.074575
  8 17.597597 0.000000 0.000000 -0.092072 0.087818 0.559914
  9 3.793090 6.407221 0.000000 0.000000 -0.000000 1.570796
 10 0.935740 0.000000 0.000000 0.000000 -0.000000 0.000000
 11 0.935741 0.000000 0.000000 0.000000 -0.000000 0.000000
 12 1.293670 0.684478 -0.000001 -0.000004 -0.000001 0.218783
 13 5.309685 -0.003834 0.000000 0.000000 -0.000000 0.349014
 14 4.826790 -0.004591 0.000000 -0.173133 0.021273 0.120173
 15 5.792767 -0.005304 0.000000 -0.139527 -0.000659 -0.005852
 16 6.662317 -0.001453 0.000000 0.000000 -0.000001 -0.139812
 17 2.046985 -0.000002 0.000000 0.210848 0.233610 -0.748276
 18 -3.416721 -0.541403 4.341911 2.163363 -0.901285 1.000512
 19 4.827230 0.000000 0.000001 -1.225007 -0.545028 -0.853321
 20 11.139763 0.000000 0.000000 0.000000 -0.000000 -0.961067
 21 10.314597 0.000001 0.000000 -3.445898 0.666515 -0.277489
 22 2.975834 -0.386307 -0.044143 -0.000797 -0.043611 0.000035
 23 1.438886 0.000000 0.000000 0.000000 -0.000000 0.872170
 24 1.485303 0.000000 0.000000 0.000000 -0.000000 0.906977
 25 -3.151157 -0.491020 -4.140396 -1.106965 1.145219 2.211893
 26 4.972048 0.000000 0.000001 0.916254 -0.245907 -1.298314
 27 11.585355 0.000000 0.000000 0.000000 -0.000000 -1.922408
 28 10.127057 0.000000 0.000001 1.666006 0.464357 -0.028709
 29 2.683750 -0.427338 0.044205 -0.005738 0.043239 -0.157060
 30 1.438885 -0.000001 0.000000 0.000000 -0.000000 0.732589
 31 1.485305 0.000001 0.000000 0.000000 -0.000000 1.168627
time 6
  0 0.235347 -0.235347 -14.475529 -0.045585 0.257873 -1.742273
  1 0.000000 0.000000 0.000000 -1.570795 -1.570796 0.000000
  2 -0.000005 0.000007 3.713255 -3.368582 -0.221254 1.331540
  3 18.045721 0.000000 0.000000 0.000000 -0.000000 -1.349056
  4 17.597597 0.000000 0.000000 -0.205032 0.225938 -0.216505
  5 3.793090 6.407221 0.000000 0.000000 -0.000000 1.570796
  6 0.000005 -0.000003 -3.713255 6.216042 2.542639 5.445438
  7 18.045725 0.000000 0.000000 0.000000 -0.000000 -2.074575
  8 17.597597 0.000000 0.000000 -0.092072 0.087818 0.559914
  9 3.793090 6.407221 0.000000 0.000000 -0.000000 1.570796
 10 0.935740 0.000000 0.000000 0.000000 -0.000000 0.000000
 11 0.935741 0.000000 0.000000 0.000000 -0.000000 0.000000
 12 1.293670 0.684478 -0.000001 -0.000004 -0.000001 0.218783
 13 5.309685 -0.003834 0.000000 0.000000 -0.000000 0.349014
 14 4.826790 -0.004591 0.000000 -0.173084 0.021632 0.122510
 15 5.792767 -0.005304 0.000000 -0.139527 0.000384 0.001996
 16 6.662317 -0.001453 0.000000 0.000000 -0.000001 -0.139812
 17 2.046985 -0.000002 0.000000 0.210417 0.233813 -0.758569
 18 -3.416721 -0.541403 4.341911 2.157323 -0.904362 1.007607
 19 4.827230 0.000000 0.000001 -1.221248 -0.557878 -0.851746
 20 11.139763 0.000000 0.000000 0.000000 -0.000000 -0.961067
 21 10.314597 0.000001 0.000000 -3.445898 0.666515 -0.277489
 22 2.975834 -0.386307 -0.044143 -0.000797 -0.043611 0.000035
 23 1.438886 0.000000 0.000000 0.000000 -0.000000 0.872170
 24 1.485303 0.000000 0.000000 0.000000 -0.000000 0.906977
 25 -3.151157 -0.491020 -4.140396 -1.110800 1.142449 2.208633
 26 4.972048 0.000000 0.000001 0.915635 -0.235289 -1.297194
 27 11.585355 0.000000 0.000000 0.000000 -0.000000 -1.922408
 28 10.127057 0.000000 0.000001 1.667089 0.464222 -0.026002
 29 2.683750 -0.427338 0.044205 -0.005738 0.043239 -0.157060
 30 1.438885 -0.000001 0.000000 0.000000 -0.000000 0.732589
 31 1.485305 0.000001 0.000000 0.000000 -0.000000 1.168627
time 7
  0 0.235347 -0.235347 -14.475529 -0.045585 0.257873 -1.742273
  1 0.000000 0.000000 0.000000 -1.570795 -1.570796 0.000000
  2 -0.000005 0.000007 3.713255 -3.368582 -0.221254 1.331540
  3 18.045721 0.000000 0.000000 0.000000 -0.000000 -1.349056
  4 17.597597 0.000000 0.000000 -0.205032 0.225938 -0.216505
  5 3.793090 6.407221 0.000000 0.000000 -0.000000 1.570796
  6 0.000005 -0.000003 -3.713255 6.216042 2.542639 5.445438
  7 18.045725 0.000000 0.000000 0.000000 -0.000000 -2.074575
  8 17.597597 0.000000 0.000000 -0.092072 0.087818 0.559914
  9 3.793090 6.407221 0.000000 0.000000 -0.000000 1.570796
 10 0.935740 0.000000 0.000000 0.000000 -0.000000 0.000000
 11 0.935741 0.000000 0.000000 0.000000 -0.000000 0.000000
 12 1.293670 0.684478 -0.000001 -0.000004 -0.000001 0.218783
 13 5.309685 -0.003834 0.000000 0.000000 -0.000000 0.349014
 14 4.826790 -0.004591 0.000000 -0.173051 0.022100 0.124958
 15 5.792767 -0.005304 0.000000 -0.139527 0.001462 0.009969
 16 6.662317 -0.001453 0.000000 0.000000 -0.000001 -0.139812
 17 2.046985 -0.000002 0.000000 0.210288 0.234015 -0.769087
 18 -3.416721 -0.541403 4.341911 2.151283 -0.907439 1.015277
 19 4.827230 0.000000 0.000001 -1.217489 -0.571409 -0.850258
 20 11.139763 0.000000 0.000000 0.000000 -0.000000 -0.961067
 21 10.314597 0.000001 0.000000 -3.445898 0.666515 -0.277489
 22 2.975834 -0.386307 -0.044143 -0.000797 -0.043611 0.000035
 23 1.438886 0.000000 0.000000 0.000000 -0.000000 0.872170
 24 1.485303 0.000000 0.000000 0.000000 -0.000000 0.906977
 25 -3.151157 -0.491020 -4.140396 -1.114443 1.139651 2.205565
 26 4.972048 0.000000 0.000001 0.914939 -0.224349 -1.295745
 27 11.585355 0.000000 0.000000 0.000000 -0.000000 -1.922408
 28 10.127057 0.000000 0.000001 1.668363 0.463978 -0.023335
 29 2.683750 -0.427338 0.044205 -0.005738 0.043239 -0.157060
 30 1.438885 -0.000001 0.000000 0.000000 -0.000000 0.732589
 31 1.485305 0.000001 0.000000 0.000000 -0.000000 1.168627
time 8
  0 0.235347 -0.235347 -14.475529 -0.045585 0.257873 -1.742273
  1 0.000000 0.000000 0.000000 -1.570795 -1.570796 0.000000
  2 -0.000005 0.000007 3.713255 -3.368582 -0.221254 1.331540
  3 18.045721 0.000000 0.000000 0.000000 -0.000000 -1.349056
  4 17.597597 0.000000 0.000000 -0.205032 0.225938 -0.216505
  5 3.793090 6.407221 0.000000 0.000000 -0.000000 1.570796
  6 0.000005 -0.000003 -3.713255 6.216042 2.542639 5.445438
  7 18.045725 0.000000 0.000000 0.000000 -0.000000 -2.074575
  8 17.597597 0.000000 0.000000 -0.092072 0.087818 0.559914
  9 3.793090 6.407221 0.000000 0.000000 -0.000000 1.570796
 10 0.935740 0.000000 0.000000 0.000000 -0.000000 0.000000
 11 0.935741 0.000000 0.000000 0.000000 -0.000000 0.000000
 12 1.293670 0.684478 -0.000001 -0.000004 -0.000001 0.218783
 13 5.309685 -0.003834 0.000000 0.000000 -0.000000 0.349014
 14 4.826790 -0.004591 0.000000 -0.172969 0.022459 0.127339
 15 5.792767 -0.005304 0.000000 -0.139511 0.002613 0.017818
 16 6.662317 -0.001453 0.000000 0.000000 -0.000001 -0.139812
 17 2.046985 -0.000002 0.000000 0.209900 0.234218 -0.779425
 18 -3.416721 -0.541403 4.341911 2.145626 -0.910516 1.023043
 19 4.827230 0.000000 0.000001 -1.213671 -0.584855 -0.849033
 20 11.139763 0.000000 0.000000 0.000000 -0.000000 -0.961067
 21 10.314597 0.000001 0.000000 -3.445898 0.666515 -0.277489
 22 2.975834 -0.386307 -0.044143 -0.000797 -0.043611 0.000035
 23 1.438886 0.000000 0.000000 0.000000 -0.000000 0.872170
 24 1.485303 0.000000 0.000000 0.000000 -0.000000 0.906977
 25 -3.151157 -0.491020 -4.140396 -1.118086 1.136796 2.202018
 26 4.972048 0.000000 0.000001 0.914243 -0.213570 -1.294230
 27 11.585355 0.000000 0.000000 0.000000 -0.000000 -1.922408
 28 10.127057 0.000000 0.000001 1.669446 0.463626 -0.020707
 29 2.683750 -0.427338 0.044205 -0.005738 0.043239 -0.157060
 30 1.438885 -0.000001 0.000000 0.000000 -0.000000 0.732589
 31 1.485305 0.000001 0.000000 0.000000 -0.000000 1.168627
time 9
  0 0.235347 -0.235347 -14.475529 -0.045585 0.257873 -1.742273
  1 0.000000 0.000000 0.000000 -1.570795 -1.570796 0.000000
  2 -0.000005 0.000007 3.713255 -3.368582 -0.221254 1.331540
  3 18.045721 0.000000 0.000000 0.000000 -0.000000 -1.349056
  4 17.597597 0.000000 0.000000 -0.205032 0.225938 -0.216505
  5 3.793090 6.407221 0.000000 0.000000 -0.000000 1.570796
  6 0.000005 -0.000003 -3.713255 6.216042 2.542639 5.445438
  7 18.045725 0.000000 0.000000 0.000000 -0.000000 -2.074575
  8 17.597597 0.000000 0.000000 -0.092072 0.087818 0.559914
  9 3.793090 6.407221 0.000000 0.000000 -0.000000 1.570796
 10 0.935740 0.000000 0.000000 0.000000 -0.000000 0.000000
 11 0.935741 0.000000 0.000000 0.000000 -0.000000 0.000000
 12 1.293670 0.684478 -0.000001 -0.000004 -0.000001 0.218783
 13 5.309685 -0.003834 0.000000 0.000000 -0.000000 0.349014
 14 4.826790 -0.004591 0.000000 -0.172936 0.022903 0.129588
 15 5.792767 -0.005304 0.000000 -0.139478 0.003631 0.025438
 16 6.662317 -0.001453 0.000000 0.000000 -0.000001 -0.139812
 17 2.046985 -0.000002 0.000000 0.209771 0.234420 -0.789538
 18 -3.416721 -0.541403 4.341911 2.139778 -0.913439 1.030234
 19 4.827230 0.000000 0.000001 -1.210147 -0.598131 -0.847808
 20 11.139763 0.000000 0.000000 0.000000 -0.000000 -0.961067
 21 10.314597 0.000001 0.000000 -3.445898 0.666515 -0.277489
 22 2.975834 -0.386307 -0.044143 -0.000797 -0.043611 0.000035
 23 1.438886 0.000000 0.000000 0.000000 -0.000000 0.872170
 24 1.485303 0.000000 0.000000 0.000000 -0.000000 0.906977
 25 -3.151157 -0.491020 -4.140396 -1.121346 1.134111 2.198854
 26 4.972048 0.000000 0.000001 0.913469 -0.203354 -1.293176
 27 11.585355 0.000000 0.000000 0.000000 -0.000000 -1.922408
 28 10.127057 0.000000 0.000001 1.670720 0.463518 -0.018118
 29 2.683750 -0.427338 0.044205 -0.005738 0.043239 -0.157060
 30 1.438885 -0.000001 0.000000 0.000000 -0.000000 0.732589
 31 1.485305 0.000001 0.000000 0.000000 -0.000000 1.168627
time 10
  0 0.235347 -0.235347 -14.475529 -0.045585 0.257873 -1.742273
  1 0.000000 0.000000 0.000000 -1.570795 -1.570796 0.000000
  2 -0.000005 0.000007 3.713255 -3.368582 -0.221254 1.331540
  3 18.045721 0.000000 0.000000 0.000000 -0.000000 -1.349056
  4 17.597597 0.000000 0.000000 -0.205032 0.225938 -0.216505
  5 3.793090 6.407221 0.000000 0.000000 -0.000000 1.570796
  6 0.000005 -0.000003 -3.713255 6.216042 2.542639 5.445438
  7 18.045725 0.000000 0.000000 0.000000 -0.000000 -2.074575
  8 17.597597 0.000000 0.000000 -0.092072 0.087818 0.559914
  9 3.793090 6.407221 0.000000 0.000000 -0.000000 1.570796
 10 0.935740 0.000000 0.000000 0.000000 -0.000000 0.000000
 11 0.935741 0.000000 0.000000 0.000000 -0.000000 0.000000
 12 1.293670 0.684478 -0.000001 -0.000004 -0.000001 0.218783
 13 5.309685 -0.003834 0.000000 0.000000 -0.000000 0.349014
 14 4.826790 -0.004591 0.000000 -0.172887 0.023226 0.131638
 15 5.792767 -0.005304 0.000000 -0.139446 0.004674 0.032518
 16 6.662317 -0.001453 0.000000 0.000000 -0.000001 -0.139812
 17 2.046985 -0.000002 0.000000 0.209383 0.234601 -0.798842
 18 -3.416721 -0.541403 4.341911 2.134313 -0.916093 1.037137
 19 4.827230 0.000000 0.000001 -1.206799 -0.610130 -0.846670
 20 11.139763 0.000000 0.000000 0.000000 -0.000000 -0.961067
 21 10.314597 0.000001 0.000000 -3.445898 0.666515 -0.277489
 22 2.975834 -0.386307 -0.044143 -0.000797 -0.043611 0.000035
 23 1.438886 0.000000 0.000000 0.000000 -0.000000 0.872170
 24 1.485303 0.000000 0.000000 0.000000 -0.000000 0.906977
 25 -3.151157 -0.491020 -4.140396 -1.124318 1.131567 2.195978
 26 4.972048 0.000000 0.000001 0.912928 -0.193701 -1.291990
 27 11.585355 0.000000 0.000000 0.000000 -0.000000 -1.922408
 28 10.127057 0.000000 0.000001 1.671612 0.463220 -0.015725
 29 2.683750 -0.427338 0.044205 -0.005738 0.043239 -0.157060
 30 1.438885 -0.000001 0.000000 0.000000 -0.000000 0.732589
 31 1.485305 0.000001 0.000000 0.000000 -0.000000 1.168627
time 11
  0 0.235347 -0.235347 -14.475529 -0.045585 0.257873 -1.742273
  1 0.000000 0.000000 0.000000 -1.570795 -1.570796 0.000000
  2 -0.000005 0.000007 3.713255 -3.368582 -0.221254 1.331540
  3 18.045721 0.000000 0.000000 0.000000 -0.000000 -1.349056
  4 17.597597 0.000000 0.000000 -0.205032 0.225938 -0.216505
  5 3.793090 6.407221 0.000000 0.000000 -0.000000 1.570796
  6 0.000005 -0.000003 -3.713255 6.216042 2.542639 5.445438
  7 18.045725 0.000000 0.000000 0.000000 -0.000000 -2.074575
  8 17.597597 0.000000 0.000000 -0.092072 0.087818 0.559914
  9 3.793090 6.407221 0.000000 0.000000 -0.000000 1.570796
 10 0.935740 0.000000 0.000000 0.000000 -0.000000 0.000000
 11 0.935741 0.000000 0.000000 0.000000 -0.000000 0.000000
 12 1.293670 0.684478 -0.000001 -0.000004 -0.000001 0.218783
 13 5.309685 -0.003834 0.000000 0.000000 -0.000000 0.349014
 14 4.826790 -0.004591 0.000000 -0.172854 0.023610 0.133579
 15 5.792767 -0.005304 0.000000 -0.139413 0.005561 0.038830
 16 6.662317 -0.001453 0.000000 0.000000 -0.000001 -0.139812
 17 2.046985 -0.000002 0.000000 0.209297 0.234781 -0.806978
 18 -3.416721 -0.541403 4.341911 2.129424 -0.918439 1.043369
 19 4.827230 0.000000 0.000001 -1.203862 -0.620853 -0.845795
 20 11.139763 0.000000 0.000000 0.000000 -0.000000 -0.961067
 21 10.314597 0.000001 0.000000 -3.445898 0.666515 -0.277489
 22 2.975834 -0.386307 -0.044143 -0.000797 -0.043611 0.000035
 23 1.438886 0.000000 0.000000 0.000000 -0.000000 0.872170
 24 1.485303 0.000000 0.000000 0.000000 -0.000000 0.906977
 25 -3.151157 -0.491020 -4.140396 -1.127386 1.129306 2.193485
 26 4.972048 0.000000 0.000001 0.912309 -0.185094 -1.290936
 27 11.585355 0.000000 0.000000 0.000000 -0.000000 -1.922408
 28 10.127057 0.000000 0.000001 1.672695 0.463112 -0.013607
 29 2.683750 -0.427338 0.044205 -0.005738 0.043239 -0.157060
 30 1.438885 -0.000001 0.000000 0.000000 -0.000000 0.732589
 31 1.485305 0.000001 0.000000 0.000000 -0.000000 1.168627
time 12
  0 0.235347 -0.235347 -14.475529 -0.045585 0.257873 -1.742273
  1 0.000000 0.000000 0.000000 -1.570795 -1.570796 0.000000
  2 -0.000005 0.000007 3.713255 -3.368582 -0.221254 1.331540
  3 18.045721 0.000000 0.000000 0.000000 -0.000000 -1.349056
  4 17.597597 0.000000 0.000000 -0.205032 0.225938 -0.216505
  5 3.793090 6.407221 0.000000 0.000000 -0.000000 1.570796
  6 0.000005 -0.000003 -3.713255 6.216042 2.542639 5.445438
  7 18.045725 0.000000 0.000000 0.000000 -0.000000 -2.074575
  8 17.597597 0.000000 0.000000 -0.092072 0.087818 0.559914
  9 3.793090 6.407221 0.000000 0.000000 -0.000000 1.570796
 10 0.935740 0.000000 0.000000 0.000000 -0.000000 0.000000
 11 0.935741 0.000000 0.000000 0.000000 -0.000000 0.000000
 12 1.293670 0.684478 -0.000001 -0.000004 -0.000001 0.218783
 13 5.309685 -0.003834 0.000000 0.000000 -0.000000 0.349014
 14 4.826790 -0.004591 0.000000 -0.172805 0.023837 0.135122
 15 5.792767 -0.005304 0.000000 -0.139397 0.006304 0.044083
 16 6.662317 -0.001453 0.000000 0.000000 -0.000001 -0.139812
 17 2.046985 -0.000002 0.000000 0.208952 0.234916 -0.813944
 18 -3.416721 -0.541403 4.341911 2.124918 -0.920478 1.048642
 19 4.827230 0.000000 0.000001 -1.201219 -0.629618 -0.845095
 20 11.139763 0.000000 0.000000 0.000000 -0.000000 -0.961067
 21 10.314597 0.000001 0.000000 -3.445898 0.666515 -0.277489
 22 2.975834 -0.386307 -0.044143 -0.000797 -0.043611 0.000035
 23 1.438886 0.000000 0.000000 0.000000 -0.000000 0.872170
 24 1.485303 0.000000 0.000000 0.000000 -0.000000 0.906977
 25 -3.151157 -0.491020 -4.140396 -1.129687 1.127469 2.191376
 26 4.972048 0.000000 0.000001 0.911690 -0.177854 -1.290014
 27 11.585355 0.000000 0.000000 0.000000 -0.000000 -1.922408
 28 10.127057 0.000000 0.000001 1.673523 0.462841 -0.011842
 29 2.683750 -0.427338 0.044205 -0.005738 0.043239 -0.157060
 30 1.438885 -0.000001 0.000000 0.000000 -0.000000 0.732589
 31 1.485305 0.000001 0.000000 0.000000 -0.000000 1.168627
time 13
  0 0.235347 -0.235347 -14.475529 -0.045585 0.257873 -1.742273
  1 0.000000 0.000000 0.000000 -1.570795 -1.570796 0.000000
  2 -0.000005 0.000007 3.713255 -3.368582 -0.221254 1.331540
  3 18.045721 0.000000 0.000000 0.000000 -0.000000 -1.349056
  4 17.597597 0.000000 0.000000 -0.205032 0.225938 -0.216505
  5 3.793090 6.407221 0.000000 0.000000 -0.000000 1.570796
  6 0.000005 -0.000003 -3.713255 6.216042 2.542639 5.445438
  7 18.045725 0.000000 0.000000 0.000000 -0.000000 -2.074575
  8 17.597597 0.000000 0.000000 -0.092072 0.087818 0.559914
  9 3.793090 6.407221 0.000000 0.000000 -0.000000 1.570796
 10 0.935740 0.000000 0.000000 0.000000 -0.000000 0.000000
 11 0.935741 0.000000 0.000000 0.000000 -0.000000 0.000000
 12 1.293670 0.684478 -0.000001 -0.000004 -0.000001 0.218783
 13 5.309685 -0.003834 0.000000 0.000000 -0.000000 0.349014
 14 4.826790 -0.004591 0.000000 -0.172772 0.024041 0.136379
 15 5.792767 -0.005304 0.000000 -0.139364 0.006819 0.048194
 16 6.662317 -0.001453 0.000000 0.000000 -0.000001 -0.139812
 17 2.046985 -0.000002 0.000000 0.208866 0.235006 -0.819473
 18 -3.416721 -0.541403 4.341911 2.121850 -0.921978 1.052669
 19 4.827230 0.000000 0.000001 -1.199398 -0.636426 -0.844570
 20 11.139763 0.000000 0.000000 0.000000 -0.000000 -0.961067
 21 10.314597 0.000001 0.000000 -3.445898 0.666515 -0.277489
 22 2.975834 -0.386307 -0.044143 -0.000797 -0.043611 0.000035
 23 1.438886 0.000000 0.000000 0.000000 -0.000000 0.872170
 24 1.485303 0.000000 0.000000 0.000000 -0.000000 0.906977
 25 -3.151157 -0.491020 -4.140396 -1.131221 1.125971 2.189842
 26 4.972048 0.000000 0.000001 0.911226 -0.172384 -1.289355
 27 11.585355 0.000000 0.000000 0.000000 -0.000000 -1.922408
 28 10.127057 0.000000 0.000001 1.674096 0.462814 -0.010469
 29 2.683750 -0.427338 0.044205 -0.005738 0.043239 -0.157060
 30 1.438885 -0.000001 0.000000 0.000000 -0.000000 0.732589
 31 1.485305 0.000001 0.000000 0.000000 -0.000000 1.168627
time 14
  0 0.235347 -0.235347 -14.475529 -0.045585 0.257873 -1.742273
  1 0.000000 0.000000 0.000000 -1.570795 -1.570796 0.000000
  2 -0.000005 0.000007 3.713255 -3.368582 -0.221254 1.331540
  3 18.045721 0.000000 0.000000 0.000000 -0.000000 -1.349056
  4 17.597597 0.000000 0.000000 -0.205032 0.225938 -0.216505
  5 3.793090 6.407221 0.000000 0.000000 -0.000000 1.570796
  6 0.000005 -0.000003 -3.713255 6.216042 2.542639 5.445438
  7 18.045725 0.000000 0.000000 0.000000 -0.000000 -2.074575
  8 17.597597 0.000000 0.000000 -0.092072 0.087818 0.559914
  9 3.793090 6.407221 0.000000 0.000000 -0.000000 1.570796
 10 0.935740 0.000000 0.000000 0.000000 -0.000000 0.000000
 11 0.935741 0.000000 0.000000 0.000000 -0.000000 0.000000
 12 1.293670 0.684478 -0.000001 -0.000004 -0.000001 0.218783
 13 5.309685 -0.003834 0.000000 0.000000 -0.000000 0.349014
 14 4.826790 -0.004591 0.000000 -0.172739 0.024233 0.137084
 15 5.792767 -0.005304 0.000000 -0.139348 0.007239 0.050727
 16 6.662317 -0.001453 0.000000 0.000000 -0.000001 -0.139812
 17 2.046985 -0.000002 0.000000 0.208866 0.235073 -0.822934
 18 -3.416721 -0.541403 4.341911 2.119549 -0.922901 1.055449
 19 4.827230 0.000000 0.000001 -1.198106 -0.641277 -0.844220
 20 11.139763 0.000000 0.000000 0.000000 -0.000000 -0.961067
 21 10.314597 0.000001 0.000000 -3.445898 0.666515 -0.277489
 22 2.975834 -0.386307 -0.044143 -0.000797 -0.043611 0.000035
 23 1.438886 0.000000 0.000000 0.000000 -0.000000 0.872170
 24 1.485303 0.000000 0.000000 0.000000 -0.000000 0.906977
 25 -3.151157 -0.491020 -4.140396 -1.132659 1.125038 2.188979
 26 4.972048 0.000000 0.000001 0.911071 -0.168925 -1.288894
 27 11.585355 0.000000 0.000000 0.000000 -0.000000 -1.922408
 28 10.127057 0.000000 0.000001 1.674542 0.462733 -0.009567
 29 2.683750 -0.427338 0.044205 -0.005738 0.043239 -0.157060
 30 1.438885 -0.000001 0.000000 0.000000 -0.000000 0.732589
 31 1.485305 0.000001 0.000000 0.000000 -0.000000 1.168627
time 15
  0 0.235347 -0.235347 -14.475529 -0.045585 0.257873 -1.742273
  1 0.000000 0.000000 0.000000 -1.570795 -1.570796 0.000000
  2 -0.000005 0.000007 3.713255 -3.368582 -0.221254 1.331540
  3 18.045721 0.000000 0.000000 0.000000 -0.000000 -1.349056
  4 17.597597 0.000000 0.000000 -0.205032 0.225938 -0.216505
  5 3.793090 6.407221 0.000000 0.000000 -0.000000 1.570796
  6 0.000005 -0.000003 -3.713255 6.216042 2.542639 5.445438
  7 18.045725 0.000000 0.000000 0.000000 -0.000000 -2.074575
  8 17.597597 0.000000 0.000000 -0.092072 0.087818 0.559914
  9 3.793090 6.407221 0.000000 0.000000 -0.000000 1.570796
 10 0.935740 0.000000 0.000000 0.000000 -0.000000 0.000000
 11 0.935741 0.000000 0.000000 0.000000 -0.000000 0.000000
 12 1.293670 0.684478 -0.000001 -0.000004 -0.000001 0.218783
 13 5.309685 -0.003834 0.000000 0.000000 -0.000000 0.349014
 14 4.826790 -0.004591 0.000000 -0.172739 0.024281 0.137415
 15 5.792767 -0.005304 0.000000 -0.139331 0.007371 0.051703
 16 6.662317 -0.001453 0.000000 0.000000 -0.000001 -0.139812
 17 2.046985 -0.000002 0.000000 0.208866 0.235096 -0.824148
 18 -3.416721 -0.541403 4.341911 2.119261 -0.923247 1.056216
 19 4.827230 0.000000 0.000001 -1.197636 -0.642809 -0.844045
 20 11.139763 0.000000 0.000000 0.000000 -0.000000 -0.961067
 21 10.314597 0.000001 0.000000 -3.445898 0.666515 -0.277489
 22 2.975834 -0.386307 -0.044143 -0.000797 -0.043611 0.000035
 23 1.438886 0.000000 0.000000 0.000000 -0.000000 0.872170
 24 1.485303 0.000000 0.000000 0.000000 -0.000000 0.906977
 25 -3.151157 -0.491020 -4.140396 -1.132659 1.124699 2.188404
 26 4.972048 0.000000 0.000001 0.910994 -0.167638 -1.288499
 27 11.585355 0.000000 0.000000 0.000000 -0.000000 -1.922408
 28 10.127057 0.000000 0.000001 1.674606 0.462706 -0.009253
 29 2.683750 -0.427338 0.044205 -0.005738 0.043239 -0.157060
 30 1.438885 -0.000001 0.000000 0.000000 -0.000000 0.732589
 31 1.485305 0.000001 0.000000 0.000000 -0.000000 1.168627
time 16
  0 0.235347 -0.235347 -14.475529 -0.045585 0.257873 -1.742273
  1 0.000000 0.000000 0.000000 -1.570795 -1.570796 0.000000
  2 -0.000005 0.000007 3.713255 -3.368582 -0.221254 1.331540
  3 18.045721 0.000000 0.000000 0.000000 -0.000000 -1.349056
  4 17.597597 0.000000 0.000000 -0.205032 0.225938 -0.216505
  5 3.793090 6.407221 0.000000 0.000000 -0.000000 1.570796
  6 0.000005 -0.000003 -3.713255 6.216042 2.542639 5.445438
  7 18.045725 0.000000 0.000000 0.000000 -0.000000 -2.074575
  8 17.597597 0.000000 0.000000 -0.092072 0.087818 0.559914
  9 3.793090 6.407221 0.000000 0.000000 -0.000000 1.570796
 10 0.935740 0.000000 0.000000 0.000000 -0.000000 0.000000
 11 0.935741 0.000000 0.000000 0.000000 -0.000000 0.000000
 12 1.293670 0.684478 -0.000001 -0.000004 -0.000001 0.218783
 13 5.309685 -0.003834 0.000000 0.000000 -0.000000 0.349014
 14 4.826790 -0.004591 0.000000 -0.172739 0.024233 0.137084
 15 5.792767 -0.005304 0.000000 -0.139348 0.007239 0.050727
 16 6.662317 -0.001453 0.000000 0.000000 -0.000001 -0.139812
 17 2.046985 -0.000002 0.000000 0.208866 0.235073 -0.822934
 18 -3.416721 -0.541403 4.341911 2.119549 -0.922901 1.055449
 19 4.827230 0.000000 0.000001 -1.198106 -0.641277 -0.844220
 20 11.139763 0.000000 0.000000 0.000000 -0.000000 -0.961067
 21 10.314597 0.000001 0.000000 -3.445898 0.666515 -0.277489
 22 2.975834 -0.386307 -0.044143 -0.000797 -0.043611 0.000035
 23 1.438886 0.000000 0.000000 0.000000 -0.000000 0.872170
 24 1.485303 0.000000 0.000000 0.000000 -0.000000 0.906977
 25 -3.151157 -0.491020 -4.140396 -1.132659 1.125038 2.188979
 26 4.972048 0.000000 0.000001 0.911071 -0.168925 -1.288894
 27 11.585355 0.000000 0.000000 0.000000 -0.000000 -1.922408
 28 10.127057 0.000000 0.000001 1.674542 0.462733 -0.009567
 29 2.683750 -0.427338 0.044205 -0.005738 0.043239 -0.157060
 30 1.438885 -0.000001 0.000000 0.000000 -0.000000 0.732589
 31 1.485305 0.000001 0.000000 0.000000 -0.000000 1.168627
time 17
  0 0.235347 -0.235347 -14.475529 -0.045585 0.257873 -1.742273
  1 0.000000 0.000000 0.000000 -1.570795 -1.570796 0.000000
  2 -0.000005 0.000007 3.713255 -3.368582 -0.221254 1.331540
  3 18.045721 0.000000 0.000000 0.000000 -0.000000 -1.349056
  4 17.597597 0.000000 0.000000 -0.205032 0.225938 -0.216505
  5 3.793090 6.407221 0.000000 0.000000 -0.000000 1.570796
  6 0.000005 -0.000003 -3.713255 6.216042 2.542639 5.445438
  7 18.045725 0.000000 0.000000 0.000000 -0.000000 -2.074575
  8 17.597597 0.000000 0.000000 -0.092072 0.087818 0.559914
  9 3.793090 6.407221 0.000000 0.000000 -0.000000 1.570796
 10 0.935740 0.000000 0.000000 0.000000 -0.000000 0.000000
 11 0.935741 0.000000 0.000000 0.000000 -0.000000 0.000000
 12 1.293670 0.684478 -0.000001 -0.000004 -0.000001 0.218783
 13 5.309685 -0.003834 0.000000 0.000000 -0.000000 0.349014
 14 4.826790 -0.004591 0.000000 -0.172772 0.024041 0.136379
 15 5.792767 -0.005304 0.000000 -0.139364 0.006819 0.048194
 16 6.662317 -0.001453 0.000000 0.000000 -0.000001 -0.139812
 17 2.046985 -0.000002 0.000000 0.208866 0.235006 -0.819473
 18 -3.416721 -0.541403 4.341911 2.121850 -0.921978 1.052669
 19 4.827230 0.000000 0.000001 -1.199398 -0.636426 -0.844570
 20 11.139763 0.000000 0.000000 0.000000 -0.000000 -0.961067
 21 10.314597 0.000001 0.000000 -3.445898 0.666515 -0.277489
 22 2.975834 -0.386307 -0.044143 -0.000797 -0.043611 0.000035
 23 1.438886 0.000000 0.000000 0.000000 -0.000000 0.872170
 24 1.485303 0.000000 0.000000 0.000000 -0.000000 0.906977
 25 -3.151157 -0.491020 -4.140396 -1.131221 1.125971 2.189842
 26 4.972048 0.000000 0.000001 0.911226 -0.172384 -1.289355
 27 11.585355 0.000000 0.000000 0.000000 -0.000000 -1.922408
 28 10.127057 0.000000 0.000001 1.674096 0.462814 -0.010469
 29 2.683750 -0.427338 0.044205 -0.005738 0.043239 -0.157060
 30 1.438885 -0.000001 0.000000 0.000000 -0.000000 0.732589
 31 1.485305 0.000001 0.000000 0.000000 -0.000000 1.168627
time 18
  0 0.235347 -0.235347 -14.475529 -0.045585 0.257873 -1.742273
  1 0.000000 0.000000 0.000000 -1.570795 -1.570796 0.000000
  2 -0.000005 0.000007 3.713255 -3.368582 -0.221254 1.331540
  3 18.045721 0.000000 0.000000 0.000000 -0.000000 -1.349056
  4 17.597597 0.000000 0.000000 -0.205032 0.225938 -0.216505
  5 3.793090 6.407221 0.000000 0.000000 -0.000000 1.570796
  6 0.000005 -0.000003 -3.713255 6.216042 2.542639 5.445438
  7 18.045725 0.000000 0.000000 0.000000 -0.000000 -2.074575
  8 17.597597 0.000000 0.000000 -0.092072 0.087818 0.559914
  9 3.793090 6.407221 0.000000 0.000000 -0.000000 1.570796
 10 0.935740 0.000000 0.000000 0.000000 -0.000000 0.000000
 11 0.935741 0.000000 0.000000 0.000000 -0.000000 0.000000
 12 1.293670 0.684478 -0.000001 -0.000004 -0.000001 0.218783
 13 5.309685 -0.003834 0.000000 0.000000 -0.000000 0.349014
 14 4.826790 -0.004591 0.000000 -0.172805 0.023837 0.135122
 15 5.792767 -0.005304 0.000000 -0.139397 0.006304 0.044083
 16 6.662317 -0.001453 0.000000 0.000000 -0.000001 -0.139812
 17 2.046985 -0.000002 0.000000 0.208952 0.234916 -0.813944
 18 -3.416721 -0.541403 4.341911 2.124918 -0.920478 1.048642
 19 4.827230 0.000000 0.000001 -1.201219 -0.629618 -0.845095
 20 11.139763 0.000000 0.000000 0.000000 -0.000000 -0.961067
 21 10.314597 0.000001 0.000000 -3.445898 0.666515 -0.277489
 22 2.975834 -0.386307 -0.044143 -0.000797 -0.043611 0.000035
 23 1.438886 0.000000 0.000000 0.000000 -0.000000 0.872170
 24 1.485303 0.000000 0.000000 0.000000 -0.000000 0.906977
 25 -3.151157 -0.491020 -4.140396 -1.129687 1.127469 2.191376
 26 4.972048 0.000000 0.000001 0.911690 -0.177854 -1.290014
 27 11.585355 0.000000 0.000000 0.000000 -0.000000 -1.922408
 28 10.127057 0.000000 0.000001 1.673523 0.462841 -0.011842
 29 2.683750 -0.427338 0.044205 -0.005738 0.043239 -0.157060
 30 1.438885 -0.000001 0.000000 0.000000 -0.000000 0.732589
 31 1.485305 0.000001 0.000000 0.000000 -0.000000 1.168627
time 19
  0 0.235347 -0.235347 -14.475529 -0.045585 0.257873 -1.742273
  1 0.000000 0.000000 0.000000 -1.570795 -1.570796 0.000000
  2 -0.000005 0.000007 3.713255 -3.368582 -0.221254 1.331540
  3 18.045721 0.000000 0.000000 0.000000 -0.000000 -1.349056
  4 17.597597 0.000000 0.000000 -0.205032 0.225938 -0.216505
  5 3.793090 6.407221 0.000000 0.000000 -0.000000 1.570796
  6 0.000005 -0.000003 -3.713255 6.216042 2.542639 5.445438
  7 18.045725 0.000000 0.000000 0.000000 -0.000000 -2.074575
  8 17.597597 0.000000 0.000000 -0.092072 0.087818 0.559914
  9 3.793090 6.407221 0.000000 0.000000 -0.000000 1.570796
 10 0.935740 0.000000 0.000000 0.000000 -0.000000 0.000000
 11 0.935741 0.000000 0.000000 0.000000 -0.000000 0.000000
 12 1.293670 0.684478 -0.000001 -0.000004 -0.000001 0.218783
 13 5.309685 -0.003834 0.000000 0.000000 -0.000000 0.349014
 14 4.826790 -0.004591 0.000000 -0.172854 0.023610 0.133579
 15 5.792767 -0.005304 0.000000 -0.139413 0.005561 0.038830
 16 6.662317 -0.001453 0.000000 0.000000 -0.000001 -0.139812
 17 2.046985 -0.000002 0.000000 0.209297 0.234781 -0.806978
 18 -3.416721 -0.541403 4.341911 2.129424 -0.918439 1.043369
 19 4.827230 0.000000 0.000001 -1.203862 -0.620853 -0.845795
 20 11.139763 0.000000 0.000000 0.000000 -0.000000 -0.961067
 21 10.314597 0.000001 0.000000 -3.445898 0.666515 -0.277489
 22 2.975834 -0.386307 -0.044143 -0.000797 -0.043611 0.000035
 23 1.438886 0.000000 0.000000 0.000000 -0.000000 0.872170
 24 1.485303 0.000000 0.000000 0.000000 -0.000000 0.906977
 25 -3.151157 -0.491020 -4.140396 -1.127386 1.129306 2.193485
 26 4.972048 0.000000 0.000001 0.912309 -0.185094 -1.290936
 27 11.585355 0.000000 0.000000 0.000000 -0.000000 -1.922408
 28 10.127057 0.000000 0.000001 1.672695 0.463112 -0.013607
 29 2.683750 -0.427338 0.044205 -0.005738 0.043239 -0.157060
 30 1.438885 -0.000001 0.000000 0.000000 -0.000000 0.732589
 31 1.485305 0.000001 0.000000 0.000000 -0.000000 1.168627
time 20
  0 0.235347 -0.235347 -14.475529 -0.045585 0.257873 -1.742273
  1 0.000000 0.000000 0.000000 -1.570795 -1.570796 0.000000
  2 -0.000005 0.000007 3.713255 -3.368582 -0.221254 1.331540
  3 18.045721 0.000000 0.000000 0.000000 -0.000000 -1.349056
  4 17.597597 0.000000 0.000000 -0.205032 0.225938 -0.216505
  5 3.793090 6.407221 0.000000 0.000000 -0.000000 1.570796
  6 0.000005 -0.000003 -3.713255 6.216042 2.542639 5.445438
  7 18.045725 0.000000 0.000000 0.000000 -0.000000 -2.074575
  8 17.597597 0.000000 0.000000 -0.092072 0.087818 0.559914
  9 3.793090 6.407221 0.000000 0.000000 -0.000000 1.570796
 10 0.935740 0.000000 0.000000 0.000000 -0.000000 0.000000
 11 0.935741 0.000000 0.000000 0.000000 -0.000000 0.000000
 12 1.293670 0.684478 -0.000001 -0.000004 -0.000001 0.218783
 13 5.309685 -0.003834 0.000000 0.000000 -0.000000 0.349014
 14 4.826790 -0.004591 0.000000 -0.172887 0.023226 0.131638
 15 5.792767 -0.005304 0.000000 -0.139446 0.004674 0.032518
 16 6.662317 -0.001453 0.000000 0.000000 -0.000001 -0.139812
 17 2.046985 -0.000002 0.000000 0.209383 0.234601 -0.798842
 18 -3.416721 -0.541403 4.341911 2.134313 -0.916093 1.037137
 19 4.827230 0.000000 0.000001 -1.206799 -0.610130 -0.846670
 20 11.139763 0.000000 0.000000 0.000000 -0.000000 -0.961067
 21 10.314597 0.000001 0.000000 -3.445898 0.666515 -0.277489
 22 2.975834 -0.386307 -0.044143 -0.000797 -0.043611 0.000035
 23 1.438886 0.000000 0.000000 0.000000 -0.000000 0.872170
 24 1.485303 0.000000 0.000000 0.000000 -0.000000 0.906977
 25 -3.151157 -0.491020 -4.140396 -1.124318 1.131567 2.195978
 26 4.972048 0.000000 0.000001 0.912928 -0.193701 -1.291990
 27 11.585355 0.000000 0.000000 0.000000 -0.000000 -1.922408
 28 10.127057 0.000000 0.000001 1.671612 0.463220 -0.015725
 29 2.683750 -0.427338 0.044205 -0.005738 0.043239 -0.157060
 30 1.438885 -0.000001 0.000000 0.000000 -0.000000 0.732589
 31 1.485305 0.000001 0.000000 0.000000 -0.000000 1.168627
time 21
  0 0.235347 -0.235347 -14.475529 -0.045585 0.257873 -1.742273
  1 0.000000 0.000000 0.000000 -1.570795 -1.570796 0.000000
  2 -0.000005 0.000007 3.713255 -3.368582 -0.221254 1.331540
  3 18.045721 0.000000 0.000000 0.000000 -0.000000 -1.349056
  4 17.597597 0.000000 0.000000 -0.205032 0.225938 -0.216505
  5 3.793090 6.407221 0.000000 0.000000 -0.000000 1.570796
  6 0.000005 -0.000003 -3.713255 6.216042 2.542639 5.445438
  7 18.045725 0.000000 0.000000 0.000000 -0.000000 -2.074575
  8 17.597597 0.000000 0.000000 -0.092072 0.087818 0.559914
  9 3.793090 6.407221 0.000000 0.000000 -0.000000 1.570796
 10 0.935740 0.000000 0.000000 0.000000 -0.000000 0.000000
 11 0.935741 0.000000 0.000000 0.000000 -0.000000 0.000000
 12 1.293670 0.684478 -0.000001 -0.000004 -0.000001 0.218783
 13 5.309685 -0.003834 0.000000 0.000000 -0.000000 0.349014
 14 4.826790 -0.004591 0.000000 -0.172936 0.022903 0.129588
 15 5.792767 -0.005304 0.000000 -0.139478 0.003631 0.025438
 16 6.662317 -0.001453 0.000000 0.000000 -0.000001 -0.139812
 17 2.046985 -0.000002 0.000000 0.209771 0.234420 -0.789538
 18 -3.416721 -0.541403 4.341911 2.139778 -0.913439 1.030234
 19 4.827230 0.000000 0.000001 -1.210147 -0.598131 -0.847808
 20 11.139763 0.000000 0.000000 0.000000 -0.000000 -0.961067
 21 10.314597 0.000001 0.000000 -3.445898 0.666515 -0.277489
 22 2.975834 -0.386307 -0.044143 -0.000797 -0.043611 0.000035
 23 1.438886 0.000000 0.000000 0.000000 -0.000000 0.872170
 24 1.485303 0.000000 0.000000 0.000000 -0.000000 0.906977
 25 -3.151157 -0.491020 -4.140396 -1.121346 1.134111 2.198854
 26 4.972048 0.000000 0.000001 0.913469 -0.203354 -1.293176
 27 11.585355 0.000000 0.000000 0.000000 -0.000000 -1.922408
 28 10.127057 0.000000 0.000001 1.670720 0.463518 -0.018118
 29 2.683750 -0.427338 0.044205 -0.005738 0.043239 -0.157060
 30 1.438885 -0.000001 0.000000 0.000000 -0.000000 0.732589
 31 1.485305 0.000001 0.000000 0.000000 -0.000000 1.168627
time 22
  0 0.235347 -0.235347 -14.475529 -0.045585 0.257873 -1.742273
  1 0.000000 0.000000 0.000000 -1.570795 -1.570796 0.000000
  2 -0.000005 0.000007 3.713255 -3.368582 -0.221254 1.331540
  3 18.045721 0.000000 0.000000 0.000000 -0.000000 -1.349056
  4 17.597597 0.000000 0.000000 -0.205032 0.225938 -0.216505
  5 3.793090 6.407221 0.000000 0.000000 -0.000000 1.570796
  6 0.000005 -0.000003 -3.713255 6.216042 2.542639 5.445438
  7 18.045725 0.000000 0.000000 0.000000 -0.000000 -2.074575
  8 17.597597 0.000000 0.000000 -0.092072 0.087818 0.559914
  9 3.793090 6.407221 0.000000 0.000000 -0.000000 1.570796
 10 0.935740 0.000000 0.000000 0.000000 -0.000000 0.000000
 11 0.935741 0.000000 0.000000 0.000000 -0.000000 0.000000
 12 1.293670 0.684478 -0.000001 -0.000004 -0.000001 0.218783
 13 5.309685 -0.003834 0.000000 0.000000 -0.000000 0.349014
 14 4.826790 -0.004591 0.000000 -0.172969 0.022459 0.127339
 15 5.792767 -0.005304 0.000000 -0.139511 0.002613 0.017818
 16 6.662317 -0.001453 0.000000 0.000000 -0.000001 -0.139812
 17 2.046985 -0.000002 0.000000 0.209900 0.234218 -0.779425
 18 -3.416721 -0.541403 4.341911 2.145626 -0.910516 1.023043
 19 4.827230 0.000000 0.000001 -1.213671 -0.584855 -0.849033
 20 11.139763 0.000000 0.000000 0.000000 -0.000000 -0.961067
 21 10.314597 0.000001 0.000000 -3.445898 0.666515 -0.277489
 22 2.975834 -0.386307 -0.044143 -0.000797 -0.043611 0.000035
 23 1.438886 0.000000 0.000000 0.000000 -0.000000 0.872170
 24 1.485303 0.000000 0.000000 0.000000 -0.000000 0.906977
 25 -3.151157 -0.491020 -4.140396 -1.118086 1.136796 2.202018
 26 4.972048 0.000000 0.000001 0.914243 -0.213570 -1.294230
 27 11.585355 0.000000 0.000000 0.000000 -0.000000 -1.922408
 28 10.127057 0.000000 0.000001 1.669446 0.463626 -0.020707
 29 2.683750 -0.427338 0.044205 -0.005738 0.043239 -0.157060
 30 1.438885 -0.000001 0.000000 0.000000 -0.000000 0.732589
 31 1.485305 0.000001 0.000000 0.000000 -0.000000 1.168627
time 23
  0 0.235347 -0.235347 -14.475529 -0.045585 0.257873 -1.742273
  1 0.000000 0.000000 0.000000 -1.570795 -1.570796 0.000000
  2 -0.000005 0.000007 3.713255 -3.368582 -0.221254 1.331540
  3 18.045721 0.000000 0.000000 0.000000 -0.000000 -1.349056
  4 17.597597 0.000000 0.000000 -0.205032 0.225938 -0.216505
  5 3.793090 6.407221 0.000000 0.000000 -0.000000 1.570796
  6 0.000005 -0.000003 -3.713255 6.216042 2.542639 5.445438
  7 18.045725 0.000000 0.000000 0.000000 -0.000000 -2.074575
  8 17.597597 0.000000 0.000000 -0.092072 0.087818 0.559914
  9 3.793090 6.407221 0.000000 0.000000 -0.000000 1.570796
 10 0.935740 0.000000 0.000000 0.000000 -0.000000 0.000000
 11 0.935741 0.000000 0.000000 0.000000 -0.000000 0.000000
 12 1.293670 0.684478 -0.000001 -0.000004 -0.000001 0.218783
 13 5.309685 -0.003834 0.000000 0.000000 -0.000000 0.349014
 14 4.826790 -0.004591 0.000000 -0.173051 0.022100 0.124958
 15 5.792767 -0.005304 0.000000 -0.139527 0.001462 0.009969
 16 6.662317 -0.001453 0.000000 0.000000 -0.000001 -0.139812
 17 2.046985 -0.000002 0.000000 0.210288 0.234015 -0.769087
 18 -3.416721 -0.541403 4.341911 2.151283 -0.907439 1.015277
 19 4.827230 0.000000 0.000001 -1.217489 -0.571409 -0.850258
 20 11.139763 0.000000 0.000000 0.000000 -0.000000 -0.961067
 21 10.314597 0.000001 0.000000 -3.445898 0.666515 -0.277489
 22 2.975834 -0.386307 -0.044143 -0.000797 -0.043611 0.000035
 23 1.438886 0.000000 0.000000 0.000000 -0.000000 0.872170
 24 1.485303 0.000000 0.000000 0.000000 -0.000000 0.906977
 25 -3.151157 -0.491020 -4.140396 -1.114443 1.139651 2.205565
 26 4.972048 0.000000 0.000001 0.914939 -0.224349 -1.295745
 27 11.585355 0.000000 0.000000 0.000000 -0.000000 -1.922408
 28 10.127057 0.000000 0.000001 1.668363 0.463978 -0.023335
 29 2.683750 -0.427338 0.044205 -0.005738 0.043239 -0.157060
 30 1.438885 -0.000001 0.000000 0.000000 -0.000000 0.732589
 31 1.485305 0.000001 0.000000 0.000000 -0.000000 1.168627
time 24
  0 0.235347 -0.235347 -14.475529 -0.045585 0.257873 -1.742273
  1 0.000000 0.000000 0.000000 -1.570795 -1.570796 0.000000
  2 -0.000005 0.000007 3.713255 -3.368582 -0.221254 1.331540
  3 18.045721 0.000000 0.000000 0.000000 -0.000000 -1.349056
  4 17.597597 0.000000 0.000000 -0.205032 0.225938 -0.216505
  5 3.793090 6.407221 0.000000 0.000000 -0.000000 1.570796
  6 0.000005 -0.000003 -3.713255 6.216042 2.542639 5.445438
  7 18.045725 0.000000 0.000000 0.000000 -0.000000 -2.074575
  8 17.597597 0.000000 0.000000 -0.092072 0.087818 0.559914
  9 3.793090 6.407221 0.000000 0.000000 -0.000000 1.570796
 10 0.935740 0.000000 0.000000 0.000000 -0.000000 0.000000
 11 0.935741 0.000000 0.000000 0.000000 -0.000000 0.000000
 12 1.293670 0.684478 -0.000001 -0.000004 -0.000001 0.218783
 13 5.309685 -0.003834 0.000000 0.000000 -0.000000 0.349014
 14 4.826790 -0.004591 0.000000 -0.173084 0.021632 0.122510
 15 5.792767 -0.005304 0.000000 -0.139527 0.000384 0.001996
 16 6.662317 -0.001453 0.000000 0.000000 -0.000001 -0.139812
 17 2.046985 -0.000002 0.000000 0.210417 0.233813 -0.758569
 18 -3.416721 -0.541403 4.341911 2.157323 -0.904362 1.007607
 19 4.827230 0.000000 0.000001 -1.221248 -0.557878 -0.851746
 20 11.139763 0.000000 0.000000 0.000000 -0.000000 -0.961067
 21 10.314597 0.000001 0.000000 -3.445898 0.666515 -0.277489
 22 2.975834 -0.386307 -0.044143 -0.000797 -0.043611 0.000035
 23 1.438886 0.000000 0.000000 0.000000 -0.000000 0.872170
 24 1.485303 0.000000 0.000000 0.000000 -0.000000 0.906977
 25 -3.151157 -0.491020 -4.140396 -1.110800 1.142449 2.208633
 26 4.972048 0.000000 0.000001 0.915635 -0.235289 -1.297194
 27 11.585355 0.000000 0.000000 0.000000 -0.000000 -1.922408
 28 10.127057 0.000000 0.000001 1.667089 0.464222 -0.026002
 29 2.683750 -0.427338 0.044205 -0.005738 0.043239 -0.157060
 30 1.438885 -0.000001 0.000000 0.000000 -0.000000 0.732589
 31 1.485305 0.000001 0.000000 0.000000 -0.000000 1.168627
time 25
  0 0.235347 -0.235347 -14.475529 -0.045585 0.257873 -1.742273
  1 0.000000 0.000000 0.000000 -1.570795 -1.570796 0.000000
  2 -0.000005 0.000007 3.713255 -3.368582 -0.221254 1.331540
  3 18.045721 0.000000 0.000000 0.000000 -0.000000 -1.349056
  4 17.597597 0.000000 0.000000 -0.205032 0.225938 -0.216505
  5 3.793090 6.407221 0.000000 0.000000 -0.000000 1.570796
  6 0.000005 -0.000003 -3.713255 6.216042 2.542639 5.445438
  7 18.045725 0.000000 0.000000 0.000000 -0.000000 -2.074575
  8 17.597597 0.000000 0.000000 -0.092072 0.087818 0.559914
  9 3.793090 6.407221 0.000000 0.000000 -0.000000 1.570796
 10 0.935740 0.000000 0.000000 0.000000 -0.000000 0.000000
 11 0.935741 0.000000 0.000000 0.000000 -0.000000 0.000000
 12 1.293670 0.684478 -0.000001 -0.000004 -0.000001 0.218783
 13 5.309685 -0.003834 0.000000 0.000000 -0.000000 0.349014
 14 4.826790 -0.004591 0.000000 -0.173133 0.021273 0.120173
 15 5.792767 -0.005304 0.000000 -0.139527 -0.000659 -0.005852
 16 6.662317 -0.001453 0.000000 0.000000 -0.000001 -0.139812
 17 2.046985 -0.000002 0.000000 0.210848 0.233610 -0.748276
 18 -3.416721 -0.541403 4.341911 2.163363 -0.901285 1.000512
 19 4.827230 0.000000 0.000001 -1.225007 -0.545028 -0.853321
 20 11.139763 0.000000 0.000000 0.000000 -0.000000 -0.961067
 21 10.314597 0.000001 0.000000 -3.445898 0.666515 -0.277489
 22 2.975834 -0.386307 -0.044143 -0.000797 -0.043611 0.000035
 23 1.438886 0.000000 0.000000 0.000000 -0.000000 0.872170
 24 1.485303 0.000000 0.000000 0.000000 -0.000000 0.906977
 25 -3.151157 -0.491020 -4.140396 -1.106965 1.145219 2.211893
 26 4.972048 0.000000 0.000001 0.916254 -0.245907 -1.298314
 27 11.585355 0.000000 0.000000 0.000000 -0.000000 -1.922408
 28 10.127057 0.000000 0.000001 1.666006 0.464357 -0.028709
 29 2.683750 -0.427338 0.044205 -0.005738 0.043239 -0.157060
 30 1.438885 -0.000001 0.000000 0.000000 -0.000000 0.732589
 31 1.485305 0.000001 0.000000 0.000000 -0.000000 1.168627
time 26
  0 0.235347 -0.235347 -14.475529 -0.045585 0.257873 -1.742273
  1 0.000000 0.000000 0.000000 -1.570795 -1.570796 0.000000
  2 -0.000005 0.000007 3.713255 -3.368582 -0.221254 1.331540
  3 18.045721 0.000000 0.000000 0.000000 -0.000000 -1.349056
  4 17.597597 0.000000 0.000000 -0.205032 0.225938 -0.216505
  5 3.793090 6.407221 0.000000 0.000000 -0.000000 1.570796
  6 0.000005 -0.000003 -3.713255 6.216042 2.542639 5.445438
  7 18.045725 0.000000 0.000000 0.000000 -0.000000 -2.074575
  8 17.597597 0.000000 0.000000 -0.092072 0.087818 0.559914
  9 3.793090 6.407221 0.000000 0.000000 -0.000000 1.570796
 10 0.935740 0.000000 0.000000 0.000000 -0.000000 0.000000
 11 0.935741 0.000000 0.000000 0.000000 -0.000000 0.000000
 12 1.293670 0.684478 -0.000001 -0.000004 -0.000001 0.218783
 13 5.309685 -0.003834 0.000000 0.000000 -0.000000 0.349014
 14 4.826790 -0.004591 0.000000 -0.173199 0.020841 0.118013
 15 5.792767 -0.005304 0.000000 -0.139527 -0.001750 -0.013285
 16 6.662317 -0.001453 0.000000 0.000000 -0.000001 -0.139812
 17 2.046985 -0.000002 0.000000 0.210934 0.233407 -0.738252
 18 -3.416721 -0.541403 4.341911 2.168636 -0.898285 0.993609
 19 4.827230 0.000000 0.000001 -1.228531 -0.532433 -0.854896
 20 11.139763 0.000000 0.000000 0.000000 -0.000000 -0.961067
 21 10.314597 0.000001 0.000000 -3.445898 0.666515 -0.277489
 22 2.975834 -0.386307 -0.044143 -0.000797 -0.043611 0.000035
 23 1.438886 0.000000 0.000000 0.000000 -0.000000 0.872170
 24 1.485303 0.000000 0.000000 0.000000 -0.000000 0.906977
 25 -3.151157 -0.491020 -4.140396 -1.103226 1.147904 2.215536
 26 4.972048 0.000000 0.000001 0.916950 -0.256043 -1.299829
 27 11.585355 0.000000 0.000000 0.000000 -0.000000 -1.922408
 28 10.127057 0.000000 0.000001 1.664796 0.464655 -0.031180
 29 2.683750 -0.427338 0.044205 -0.005738 0.043239 -0.157060
 30 1.438885 -0.000001 0.000000 0.000000 -0.000000 0.732589
 31 1.485305 0.000001 0.000000 0.000000 -0.000000 1.168627
time 27
  0 0.235347 -0.235347 -14.475529 -0.045585 0.257873 -1.742273
  1 0.000000 0.000000 0.000000 -1.570795 -1.570796 0.000000
  2 -0.000005 0.000007 3.713255 -3.368582 -0.221254 1.331540
  3 18.045721 0.000000 0.000000 0.000000 -0.000000 -1.349056
  4 17.597597 0.000000 0.000000 -0.205032 0.225938 -0.216505
  5 3.793090 6.407221 0.000000 0.000000 -0.000000 1.570796
  6 0.000005 -0.000003 -3.713255 6.216042 2.542639 5.445438
  7 18.045725 0.000000 0.000000 0.000000 -0.000000 -2.074575
  8 17.597597 0.000000 0.000000 -0.092072 0.087818 0.559914
  9 3.793090 6.407221 0.000000 0.000000 -0.000000 1.570796
 10 0.935740 0.000000 0.000000 0.000000 -0.000000 0.000000
 11 0.935741 0.000000 0.000000 0.000000 -0.000000 0.000000
 12 1.293670 0.684478 -0.000001 -0.000004 -0.000001 0.218783
 13 5.309685 -0.003834 0.000000 0.000000 -0.000000 0.349014
 14 4.826790 -0.004591 0.000000 -0.173199 0.020530 0.115940
 15 5.792767 -0.005304 0.000000 -0.139511 -0.002709 -0.020116
 16 6.662317 -0.001453 0.000000 0.000000 -0.000001 -0.139812
 17 2.046985 -0.000002 0.000000 0.211322 0.233227 -0.729443
 18 -3.416721 -0.541403 4.341911 2.174005 -0.895554 0.986802
 19 4.827230 0.000000 0.000001 -1.231703 -0.520604 -0.856384
 20 11.139763 0.000000 0.000000 0.000000 -0.000000 -0.961067
 21 10.314597 0.000001 0.000000 -3.445898 0.666515 -0.277489
 22 2.975834 -0.386307 -0.044143 -0.000797 -0.043611 0.000035
 23 1.438886 0.000000 0.000000 0.000000 -0.000000 0.872170
 24 1.485303 0.000000 0.000000 0.000000 -0.000000 0.906977
 25 -3.151157 -0.491020 -4.140396 -1.100158 1.150278 2.218412
 26 4.972048 0.000000 0.000001 0.917337 -0.265374 -1.300949
 27 11.585355 0.000000 0.000000 0.000000 -0.000000 -1.922408
 28 10.127057 0.000000 0.000001 1.663840 0.464763 -0.033612
 29 2.683750 -0.427338 0.044205 -0.005738 0.043239 -0.157060
 30 1.438885 -0.000001 0.000000 0.000000 -0.000000 0.732589
 31 1.485305 0.000001 0.000000 0.000000 -0.000000 1.168627
time 28
  0 0.235347 -0.235347 -14.475529 -0.045585 0.257873 -1.742273
  1 0.000000 0.000000 0.000000 -1.570795 -1.570796 0.000000
  2 -0.000005 0.000007 3.713255 -3.368582 -0.221254 1.331540
  3 18.045721 0.000000 0.000000 0.000000 -0.000000 -1.349056
  4 17.597597 0.000000 0.000000 -0.205032 0.225938 -0.216505
  5 3.793090 6.407221 0.000000 0.000000 -0.000000 1.570796
  6 0.000005 -0.000003 -3.713255 6.216042 2.542639 5.445438
  7 18.045725 0.000000 0.000000 0.000000 -0.000000 -2.074575
  8 17.597597 0.000000 0.000000 -0.092072 0.087818 0.559914
  9 3.793090 6.407221 0.000000 0.000000 -0.000000 1.570796
 10 0.935740 0.000000 0.000000 0.000000 -0.000000 0.000000
 11 0.935741 0.000000 0.000000 0.000000 -0.000000 0.000000
 12 1.293670 0.684478 -0.000001 -0.000004 -0.000001 0.218783
 13 5.309685 -0.003834 0.000000 0.000000 -0.000000 0.349014
 14 4.826790 -0.004591 0.000000 -0.173248 0.020170 0.114132
 15 5.792767 -0.005304 0.000000 -0.139478 -0.003500 -0.026096
 16 6.662317 -0.001453 0.000000 0.000000 -0.000001 -0.139812
 17 2.046985 -0.000002 0.000000 0.211451 0.233070 -0.721532
 18 -3.416721 -0.541403 4.341911 2.178319 -0.893208 0.981241
 19 4.827230 0.000000 0.000001 -1.234640 -0.510477 -0.857609
 20 11.139763 0.000000 0.000000 0.000000 -0.000000 -0.961067
 21 10.314597 0.000001 0.000000 -3.445898 0.666515 -0.277489
 22 2.975834 -0.386307 -0.044143 -0.000797 -0.043611 0.000035
 23 1.438886 0.000000 0.000000 0.000000 -0.000000 0.872170
 24 1.485303 0.000000 0.000000 0.000000 -0.000000 0.906977
 25 -3.151157 -0.491020 -4.140396 -1.097090 1.152398 2.220809
 26 4.972048 0.000000 0.000001 0.917956 -0.273418 -1.301937
 27 11.585355 0.000000 0.000000 0.000000 -0.000000 -1.922408
 28 10.127057 0.000000 0.000001 1.662821 0.465034 -0.035534
 29 2.683750 -0.427338 0.044205 -0.005738 0.043239 -0.157060
 30 1.438885 -0.000001 0.000000 0.000000 -0.000000 0.732589
 31 1.485305 0.000001 0.000000 0.000000 -0.000000 1.168627
time 29
  0 0.235347 -0.235347 -14.475529 -0.045585 0.257873 -1.742273
  1 0.000000 0.000000 0.000000 -1.570795 -1.570796 0.000000
  2 -0.000005 0.000007 3.713255 -3.368582 -0.221254 1.331540
  3 18.045721 0.000000 0.000000 0.000000 -0.000000 -1.349056
  4 17.597597 0.000000 0.000000 -0.205032 0.225938 -0.216505
  5 3.793090 6.407221 0.000000 0.000000 -0.000000 1.570796
  6 0.000005 -0.000003 -3.713255 6.216042 2.542639 5.445438
  7 18.045725 0.000000 0.000000 0.000000 -0.000000 -2.074575
  8 17.597597 0.000000 0.000000 -0.092072 0.087818 0.559914
  9 3.793090 6.407221 0.000000 0.000000 -0.000000 1.570796
 10 0.935740 0.000000 0.000000 0.000000 -0.000000 0.000000
 11 0.935741 0.000000 0.000000 0.000000 -0.000000 0.000000
 12 1.293670 0.684478 -0.000001 -0.000004 -0.000001 0.218783
 13 5.309685 -0.003834 0.000000 0.000000 -0.000000 0.349014
 14 4.826790 -0.004591 0.000000 -0.173281 0.019906 0.112721
 15 5.792767 -0.005304 0.000000 -0.139462 -0.004243 -0.030996
 16 6.662317 -0.001453 0.000000 0.000000 -0.000001 -0.139812
 17 2.046985 -0.000002 0.000000 0.211494 0.232935 -0.715015
 18 -3.416721 -0.541403 4.341911 2.181483 -0.891208 0.976735
 19 4.827230 0.000000 0.000001 -1.236989 -0.502137 -0.858834
 20 11.139763 0.000000 0.000000 0.000000 -0.000000 -0.961067
 21 10.314597 0.000001 0.000000 -3.445898 0.666515 -0.277489
 22 2.975834 -0.386307 -0.044143 -0.000797 -0.043611 0.000035
 23 1.438886 0.000000 0.000000 0.000000 -0.000000 0.872170
 24 1.485303 0.000000 0.000000 0.000000 -0.000000 0.906977
 25 -3.151157 -0.491020 -4.140396 -1.094885 1.154122 2.223014
 26 4.972048 0.000000 0.000001 0.918265 -0.280175 -1.302859
 27 11.585355 0.000000 0.000000 0.000000 -0.000000 -1.922408
 28 10.127057 0.000000 0.000001 1.662184 0.465115 -0.037142
 29 2.683750 -0.427338 0.044205 -0.005738 0.043239 -0.157060
 30 1.438885 -0.000001 0.000000 0.000000 -0.000000 0.732589
 31 1.485305 0.000001 0.000000 0.000000 -0.000000 1.168627
time 30
  0 0.235347 -0.235347 -14.475529 -0.045585 0.257873 -1.742273
  1 0.000000 0.000000 0.000000 -1.570795 -1.570796 0.000000
  2 -0.000005 0.000007 3.713255 -3.368582 -0.221254 1.331540
  3 18.045721 0.000000 0.000000 0.000000 -0.000000 -1.349056
  4 17.597597 0.000000 0.000000 -0.205032 0.225938 -0.216505
  5 3.793090 6.407221 0.000000 0.000000 -0.000000 1.570796
  6 0.000005 -0.000003 -3.713255 6.216042 2.542639 5.445438
  7 18.045725 0.000000 0.000000 0.000000 -0.000000 -2.074575
  8 17.597597 0.000000 0.000000 -0.092072 0.087818 0.559914
  9 3.793090 6.407221 0.000000 0.000000 -0.000000 1.570796
 10 0.935740 0.000000 0.000000 0.000000 -0.000000 0.000000
 11 0.935741 0.000000 0.000000 0.000000 -0.000000 0.000000
 12 1.293670 0.684478 -0.000001 -0.000004 -0.000001 0.218783
 13 5.309685 -0.003834 0.000000 0.000000 -0.000000 0.349014
 14 4.826790 -0.004591 0.000000 -0.173330 0.019775 0.111663
 15 5.792767 -0.005304 0.000000 -0.139446 -0.004746 -0.034588
 16 6.662317 -0.001453 0.000000 0.000000 -0.000001 -0.139812
 17 2.046985 -0.000002 0.000000 0.211796 0.232845 -0.710340
 18 -3.416721 -0.541403 4.341911 2.184455 -0.889746 0.973571
 19 4.827230 0.000000 0.000001 -1.238634 -0.496095 -0.859622
 20 11.139763 0.000000 0.000000 0.000000 -0.000000 -0.961067
 21 10.314597 0.000001 0.000000 -3.445898 0.666515 -0.277489
 22 2.975834 -0.386307 -0.044143 -0.000797 -0.043611 0.000035
 23 1.438886 0.000000 0.000000 0.000000 -0.000000 0.872170
 24 1.485303 0.000000 0.000000 0.000000 -0.000000 0.906977
 25 -3.151157 -0.491020 -4.140396 -1.093255 1.155394 2.224644
 26 4.972048 0.000000 0.000001 0.918652 -0.285082 -1.303452
 27 11.585355 0.000000 0.000000 0.000000 -0.000000 -1.922408
 28 10.127057 0.000000 0.000001 1.661547 0.465169 -0.038358
 29 2.683750 -0.427338 0.044205 -0.005738 0.043239 -0.157060
 30 1.438885 -0.000001 0.000000 0.000000 -0.000000 0.732589
 31 1.485305 0.000001 0.000000 0.000000 -0.000000 1.168627
end
