version 1
nodes
  0 "Bip01"  -1
  1 "Bip01 Pelvis"   0
  2 "Bip01 L Leg"   1
  3 "Bip01 L Leg1"   2
  4 "Bip01 L Foot"   3
  5 "Bip01 L Toe0"   4
  6 "Bip01 R Leg"   1
  7 "Bip01 R Leg1"   6
  8 "Bip01 R Foot"   7
  9 "Bip01 R Toe0"   8
 10 "Bip01 R Toe01"   9
 11 "Bip01 R Toe02"  10
 12 "Bip01 Spine"   1
 13 "Bip01 Spine1"  12
 14 "Bip01 Spine2"  13
 15 "Bip01 Spine3"  14
 16 "Bip01 Neck"  15
 17 "Bip01 Head"  16
 18 "Bip01 L Arm"  16
 19 "Bip01 L Arm1"  18
 20 "Bip01 L Arm2"  19
 21 "Bip01 L Hand"  20
 22 "Bip01 L Finger1"  21
 23 "Bip01 L Finger11"  22
 24 "Bip01 L Finger12"  23
 25 "Bip01 R Arm"  16
 26 "Bip01 R Arm1"  25
 27 "Bip01 R Arm2"  26
 28 "Bip01 R Hand"  27
 29 "Bip01 R Finger1"  28
 30 "Bip01 R Finger11"  29
 31 "Bip01 R Finger12"  30
end
skeleton
time 0
  0 0.235347 -0.235347 -13.307525 -0.000000 0.270322 -1.571254
  1 -5.808771 0.261727 0.000000 -1.570795 -1.570796 0.000000
  2 -0.000005 0.000007 3.713255 -3.389770 -0.209750 1.567109
  3 18.045721 0.000000 0.000000 0.000000 -0.000000 -1.744563
  4 17.597597 0.000000 0.000000 -0.164903 0.191688 0.413694
  5 3.793090 6.407221 0.000000 0.000000 -0.000000 1.570796
  6 0.000005 -0.000003 -3.713255 0.311943 2.936853 5.354742
  7 18.045725 0.000000 0.000000 0.000000 -0.000000 -1.993292
  8 17.597597 0.000000 0.000000 0.131015 -0.129891 1.055680
  9 3.793090 6.407221 0.000000 0.000000 -0.000000 1.570796
 10 0.935740 0.000000 0.000000 0.000000 -0.000000 0.000000
 11 0.935741 0.000000 0.000000 0.000000 -0.000000 0.000000
 12 1.293670 0.684478 -0.000001 -0.000004 -0.000001 0.436868
 13 5.309685 -0.003834 0.000000 -0.032957 0.011325 0.331197
 14 4.826790 -0.004591 0.000000 -0.141853 0.043240 0.293451
 15 5.792767 -0.005304 0.000000 0.000000 -0.000000 0.191831
 16 6.662317 -0.001453 0.000000 0.000000 -0.000001 0.471000
 17 2.046985 -0.000002 0.000000 0.170824 -0.061931 -0.678337
 18 -3.112024 1.517254 4.341911 1.374615 -0.765743 1.378264
 19 4.827230 0.000000 0.000001 -0.191659 -0.515498 -0.765022
 20 11.139763 0.000000 0.000000 0.000000 -0.000000 -0.544933
 21 10.314597 0.000001 0.000000 -2.965845 -0.000000 -0.069778
 22 2.975834 -0.386307 -0.044143 -0.012063 -0.041921 0.261905
 23 1.438886 0.000000 0.000000 0.000000 -0.000000 0.924779
 24 1.485303 0.000000 0.000000 0.000000 -0.000000 0.540939
 25 -2.869898 1.399663 -4.140396 -1.206002 1.054067 1.512882
 26 4.972048 0.000000 0.000001 0.696644 0.249931 -1.462139
 27 11.585355 0.000000 0.000000 0.000000 -0.000000 -0.532575
 28 10.127057 0.000000 0.000001 2.168743 0.289746 0.489341
 29 2.683750 -0.427338 0.044205 0.001045 0.043611 0.000046
 30 1.438885 -0.000001 0.000000 0.000000 -0.000000 0.767689
 31 1.485305 0.000001 0.000000 0.000000 -0.000000 1.221538
time 1
  0 0.235347 -0.235347 -13.280180 -0.000000 0.270322 -1.571254
  1 -5.699393 0.316416 0.000000 -1.570795 -1.570796 0.000000
  2 -0.000005 0.000007 3.713255 -3.388811 -0.210517 1.569219
  3 18.045721 0.000000 0.000000 0.000000 -0.000000 -1.747679
  4 17.597597 0.000000 0.000000 -0.164016 0.189984 0.418361
  5 3.793090 6.407221 0.000000 0.000000 -0.000000 1.570796
  6 0.000005 -0.000003 -3.713255 0.312615 2.937811 5.359823
  7 18.045725 0.000000 0.000000 0.000000 -0.000000 -1.991626
  8 17.597597 0.000000 0.000000 0.131048 -0.129319 1.059183
  9 3.793090 6.407221 0.000000 0.000000 -0.000000 1.570796
 10 0.935740 0.000000 0.000000 0.000000 -0.000000 0.000000
 11 0.935741 0.000000 0.000000 0.000000 -0.000000 0.000000
 12 1.293670 0.684478 -0.000001 -0.000004 -0.000001 0.436868
 13 5.309685 -0.003834 0.000000 -0.033116 0.010918 0.317562
 14 4.826790 -0.004591 0.000000 -0.219848 0.059024 0.257512
 15 5.792767 -0.005304 0.000000 0.000000 -0.000000 0.172750
 16 6.662317 -0.001453 0.000000 0.000000 -0.000001 0.471000
 17 2.046985 -0.000002 0.000000 0.241609 -0.098919 -0.569789
 18 -3.112024 1.517254 4.341911 1.283152 -0.949786 1.447582
 19 4.827230 0.000000 0.000001 -0.373624 -0.460438 -0.642069
 20 11.139763 0.000000 0.000000 0.000000 -0.000000 -1.487857
 21 10.314597 0.000001 0.000000 -2.965845 -0.000000 -0.069778
 22 2.975834 -0.386307 -0.044143 -0.012063 -0.041921 0.261905
 23 1.438886 0.000000 0.000000 0.000000 -0.000000 0.924779
 24 1.485303 0.000000 0.000000 0.000000 -0.000000 0.540939
 25 -2.869898 1.399663 -4.140396 -1.037457 1.191374 1.665416
 26 4.972048 0.000000 0.000001 0.663923 -0.105055 -1.464642
 27 11.585355 0.000000 0.000000 0.000000 -0.000000 -1.545760
 28 10.127057 0.000000 0.000001 2.105678 0.401416 0.303962
 29 2.683750 -0.427338 0.044205 0.001045 0.043611 0.000046
 30 1.438885 -0.000001 0.000000 0.000000 -0.000000 0.767689
 31 1.485305 0.000001 0.000000 0.000000 -0.000000 1.221538
time 2
  0 0.235347 -0.235347 -13.225491 -0.000000 0.270322 -1.571254
  1 -5.543138 0.335948 0.000000 -1.570795 -1.570796 0.000000
  2 -0.000005 0.000007 3.713255 -0.245589 -2.929552 4.713207
  3 18.045721 0.000000 0.000000 0.000000 -0.000000 -1.752577
  4 17.597597 0.000000 0.000000 -0.162647 0.187282 0.425956
  5 3.793090 6.407221 0.000000 0.000000 -0.000000 1.570796
  6 0.000005 -0.000003 -3.713255 0.313382 2.940017 5.368548
  7 18.045725 0.000000 0.000000 0.000000 -0.000000 -1.988728
  8 17.597597 0.000000 0.000000 0.131081 -0.128254 1.064849
  9 3.793090 6.407221 0.000000 0.000000 -0.000000 1.570796
 10 0.935740 0.000000 0.000000 0.000000 -0.000000 0.000000
 11 0.935741 0.000000 0.000000 0.000000 -0.000000 0.000000
 12 1.293670 0.684478 -0.000001 -0.000004 -0.000001 0.436868
 13 5.309685 -0.003834 0.000000 -0.033312 0.010307 0.299293
 14 4.826790 -0.004591 0.000000 -0.298254 0.065927 0.210439
 15 5.792767 -0.005304 0.000000 0.000000 -0.000000 0.147191
 16 6.662317 -0.001453 0.000000 0.000000 -0.000001 0.471000
 17 2.046985 -0.000002 0.000000 0.304984 -0.149527 -0.428248
 18 -3.112024 1.517254 4.341911 1.086804 -1.159830 1.619488
 19 4.827230 0.000000 0.000001 -0.491273 -0.674381 -0.878962
 20 11.139763 0.000000 0.000000 0.000000 -0.000000 -1.325062
 21 10.314597 0.000001 0.000000 -2.965845 -0.000000 -0.069778
 22 2.975834 -0.386307 -0.044143 -0.012063 -0.041921 0.261905
 23 1.438886 0.000000 0.000000 0.000000 -0.000000 0.924779
 24 1.485303 0.000000 0.000000 0.000000 -0.000000 0.540939
 25 -2.869898 1.399663 -4.140396 -0.613410 1.327805 2.069905
 26 4.972048 0.000000 0.000001 0.752494 0.005712 -1.818048
 27 11.585355 0.000000 0.000000 0.000000 -0.000000 -1.483709
 28 10.127057 0.000000 0.000001 1.988020 0.523427 0.041936
 29 2.683750 -0.427338 0.044205 0.001045 0.043611 0.000046
 30 1.438885 -0.000001 0.000000 0.000000 -0.000000 0.767689
 31 1.485305 0.000001 0.000000 0.000000 -0.000000 1.221538
time 3
  0 0.235347 -0.235347 -13.217678 -0.000000 0.270322 -1.571254
  1 -5.468917 0.187506 0.000000 -1.570795 -1.570796 0.000000
  2 -0.000005 0.000007 3.713255 -0.244630 -2.928785 4.715413
  3 18.045721 0.000000 0.000000 0.000000 -0.000000 -1.755842
  4 17.597597 0.000000 0.000000 -0.161760 0.185505 0.431126
  5 3.793090 6.407221 0.000000 0.000000 -0.000000 1.570796
  6 0.000005 -0.000003 -3.713255 0.313669 2.941359 5.374012
  7 18.045725 0.000000 0.000000 0.000000 -0.000000 -1.986772
  8 17.597597 0.000000 0.000000 0.131131 -0.127465 1.068695
  9 3.793090 6.407221 0.000000 0.000000 -0.000000 1.570796
 10 0.935740 0.000000 0.000000 0.000000 -0.000000 0.000000
 11 0.935741 0.000000 0.000000 0.000000 -0.000000 0.000000
 12 1.293670 0.684478 -0.000001 -0.000004 -0.000001 0.436868
 13 5.309685 -0.003834 0.000000 -0.033410 0.009875 0.287614
 14 4.826790 -0.004591 0.000000 -0.145564 0.028284 0.189802
 15 5.792767 -0.005304 0.000000 0.000000 -0.000000 0.130830
 16 6.662317 -0.001453 0.000000 0.000000 -0.000001 0.471000
 17 2.046985 -0.000002 0.000000 0.157899 -0.090815 -0.331431
 18 -3.112024 1.517254 4.341911 1.153819 -1.106790 1.558990
 19 4.827230 0.000000 0.000001 -0.243523 -0.347084 -1.011016
 20 11.139763 0.000000 0.000000 0.000000 -0.000000 -1.102208
 21 10.314597 0.000001 0.000000 -2.965845 -0.000000 -0.069778
 22 2.975834 -0.386307 -0.044143 -0.012063 -0.041921 0.261905
 23 1.438886 0.000000 0.000000 0.000000 -0.000000 0.924779
 24 1.485303 0.000000 0.000000 0.000000 -0.000000 0.540939
 25 -2.869898 1.399663 -4.140396 -0.744085 1.302000 1.944215
 26 4.972048 0.000000 0.000001 0.723254 -0.226521 -1.515825
 27 11.585355 0.000000 0.000000 0.000000 -0.000000 -1.353029
 28 10.127057 0.000000 0.000001 1.949799 0.550580 -0.032906
 29 2.683750 -0.427338 0.044205 0.001045 0.043611 0.000046
 30 1.438885 -0.000001 0.000000 0.000000 -0.000000 0.767689
 31 1.485305 0.000001 0.000000 0.000000 -0.000000 1.221538
time 4
  0 0.235347 -0.235347 -13.225491 -0.000000 0.270322 -1.571254
  1 -5.531419 0.199225 0.000000 -1.570795 -1.570796 0.000000
  2 -0.000005 0.000007 3.713255 -0.245397 -2.929073 4.713879
  3 18.045721 0.000000 0.000000 0.000000 -0.000000 -1.753467
  4 17.597597 0.000000 0.000000 -0.162368 0.186722 0.427557
  5 3.793090 6.407221 0.000000 0.000000 -0.000000 1.570796
  6 0.000005 -0.000003 -3.713255 0.313477 2.940592 5.370178
  7 18.045725 0.000000 0.000000 0.000000 -0.000000 -1.988221
  8 17.597597 0.000000 0.000000 0.131114 -0.128037 1.066051
  9 3.793090 6.407221 0.000000 0.000000 -0.000000 1.570796
 10 0.935740 0.000000 0.000000 0.000000 -0.000000 0.000000
 11 0.935741 0.000000 0.000000 0.000000 -0.000000 0.000000
 12 1.293670 0.684478 -0.000001 -0.000004 -0.000001 0.436868
 13 5.309685 -0.003834 0.000000 -0.033349 0.010223 0.296486
 14 4.826790 -0.004591 0.000000 -0.145022 0.030848 0.207595
 15 5.792767 -0.005304 0.000000 0.000000 -0.000000 0.143246
 16 6.662317 -0.001453 0.000000 0.000000 -0.000001 0.471000
 17 2.046985 -0.000002 0.000000 0.161906 -0.083295 -0.409955
 18 -3.112024 1.517254 4.341911 1.270401 -0.969748 1.457937
 19 4.827230 0.000000 0.000001 -0.172041 -0.294321 -0.918167
 20 11.139763 0.000000 0.000000 0.000000 -0.000000 -0.734359
 21 10.314597 0.000001 0.000000 -2.965845 -0.000000 -0.069778
 22 2.975834 -0.386307 -0.044143 -0.012063 -0.041921 0.261905
 23 1.438886 0.000000 0.000000 0.000000 -0.000000 0.924779
 24 1.485303 0.000000 0.000000 0.000000 -0.000000 0.540939
 25 -2.869898 1.399663 -4.140396 -0.964593 1.228937 1.733390
 26 4.972048 0.000000 0.000001 0.732846 -0.095965 -1.497578
 27 11.585355 0.000000 0.000000 0.000000 -0.000000 -0.995340
 28 10.127057 0.000000 0.000001 2.079687 0.435174 0.239750
 29 2.683750 -0.427338 0.044205 0.001045 0.043611 0.000046
 30 1.438885 -0.000001 0.000000 0.000000 -0.000000 0.767689
 31 1.485305 0.000001 0.000000 0.000000 -0.000000 1.221538
time 5
  0 0.235347 -0.235347 -13.256742 -0.000000 0.270322 -1.571254
  1 -5.625172 0.218757 0.000000 -1.570795 -1.570796 0.000000
  2 -0.000005 0.000007 3.713255 -3.387469 -0.211284 1.570848
  3 18.045721 0.000000 0.000000 0.000000 -0.000000 -1.750573
  4 17.597597 0.000000 0.000000 -0.163154 0.188329 0.422982
  5 3.793090 6.407221 0.000000 0.000000 -0.000000 1.570796
  6 0.000005 -0.000003 -3.713255 0.312998 2.939250 5.365000
  7 18.045725 0.000000 0.000000 0.000000 -0.000000 -1.989887
  8 17.597597 0.000000 0.000000 0.131048 -0.128747 1.062651
  9 3.793090 6.407221 0.000000 0.000000 -0.000000 1.570796
 10 0.935740 0.000000 0.000000 0.000000 -0.000000 0.000000
 11 0.935741 0.000000 0.000000 0.000000 -0.000000 0.000000
 12 1.293670 0.684478 -0.000001 -0.000004 -0.000001 0.436868
 13 5.309685 -0.003834 0.000000 -0.033214 0.010546 0.307748
 14 4.826790 -0.004591 0.000000 -0.144234 0.034504 0.232399
 15 5.792767 -0.005304 0.000000 0.000000 -0.000000 0.159005
 16 6.662317 -0.001453 0.000000 0.000000 -0.000001 0.471000
 17 2.046985 -0.000002 0.000000 0.165740 -0.075033 -0.502772
 18 -3.112024 1.517254 4.341911 1.320255 -0.884900 1.418244
 19 4.827230 0.000000 0.000001 -0.181556 -0.368529 -0.852096
 20 11.139763 0.000000 0.000000 0.000000 -0.000000 -0.655449
 21 10.314597 0.000001 0.000000 -2.965845 -0.000000 -0.069778
 22 2.975834 -0.386307 -0.044143 -0.012063 -0.041921 0.261905
 23 1.438886 0.000000 0.000000 0.000000 -0.000000 0.924779
 24 1.485303 0.000000 0.000000 0.000000 -0.000000 0.540939
 25 -2.869898 1.399663 -4.140396 -1.108499 1.144060 1.599647
 26 4.972048 0.000000 0.000001 0.735012 0.079155 -1.495009
 27 11.585355 0.000000 0.000000 0.000000 -0.000000 -0.645276
 28 10.127057 0.000000 0.000001 2.168743 0.289746 0.489341
 29 2.683750 -0.427338 0.044205 0.001045 0.043611 0.000046
 30 1.438885 -0.000001 0.000000 0.000000 -0.000000 0.767689
 31 1.485305 0.000001 0.000000 0.000000 -0.000000 1.221538
time 6
  0 0.235347 -0.235347 -13.284086 -0.000000 0.270322 -1.571254
  1 -5.734550 0.242195 0.000000 -1.570795 -1.570796 0.000000
  2 -0.000005 0.000007 3.713255 -3.389003 -0.210517 1.568547
  3 18.045721 0.000000 0.000000 0.000000 -0.000000 -1.747011
  4 17.597597 0.000000 0.000000 -0.164168 0.190276 0.417446
  5 3.793090 6.407221 0.000000 0.000000 -0.000000 1.570796
  6 0.000005 -0.000003 -3.713255 0.312519 2.937716 5.358768
  7 18.045725 0.000000 0.000000 0.000000 -0.000000 -1.991988
  8 17.597597 0.000000 0.000000 0.131015 -0.129457 1.058496
  9 3.793090 6.407221 0.000000 0.000000 -0.000000 1.570796
 10 0.935740 0.000000 0.000000 0.000000 -0.000000 0.000000
 11 0.935741 0.000000 0.000000 0.000000 -0.000000 0.000000
 12 1.293670 0.684478 -0.000001 -0.000004 -0.000001 0.436868
 13 5.309685 -0.003834 0.000000 -0.033067 0.011050 0.321329
 14 4.826790 -0.004591 0.000000 -0.142904 0.039525 0.267500
 15 5.792767 -0.005304 0.000000 0.000000 -0.000000 0.178065
 16 6.662317 -0.001453 0.000000 0.000000 -0.000001 0.471000
 17 2.046985 -0.000002 0.000000 0.168842 -0.067357 -0.604983
 18 -3.112024 1.517254 4.341911 1.354194 -0.814398 1.392741
 19 4.827230 0.000000 0.000001 -0.188311 -0.453885 -0.800114
 20 11.139763 0.000000 0.000000 0.000000 -0.000000 -0.589714
 21 10.314597 0.000001 0.000000 -2.965845 -0.000000 -0.069778
 22 2.975834 -0.386307 -0.044143 -0.012063 -0.041921 0.261905
 23 1.438886 0.000000 0.000000 0.000000 -0.000000 0.924779
 24 1.485303 0.000000 0.000000 0.000000 -0.000000 0.540939
 25 -2.869898 1.399663 -4.140396 -1.170433 1.091206 1.544520
 26 4.972048 0.000000 0.000001 0.714513 0.179304 -1.473930
 27 11.585355 0.000000 0.000000 0.000000 -0.000000 -0.578467
 28 10.127057 0.000000 0.000001 2.168743 0.289746 0.489341
 29 2.683750 -0.427338 0.044205 0.001045 0.043611 0.000046
 30 1.438885 -0.000001 0.000000 0.000000 -0.000000 0.767689
 31 1.485305 0.000001 0.000000 0.000000 -0.000000 1.221538
time 7
  0 0.235347 -0.235347 -13.307525 -0.000000 0.270322 -1.571254
  1 -5.808771 0.261727 0.000000 -1.570795 -1.570796 0.000000
  2 -0.000005 0.000007 3.713255 -3.389770 -0.209750 1.567109
  3 18.045721 0.000000 0.000000 0.000000 -0.000000 -1.744563
  4 17.597597 0.000000 0.000000 -0.164903 0.191688 0.413694
  5 3.793090 6.407221 0.000000 0.000000 -0.000000 1.570796
  6 0.000005 -0.000003 -3.713255 0.311943 2.936853 5.354742
  7 18.045725 0.000000 0.000000 0.000000 -0.000000 -1.993292
  8 17.597597 0.000000 0.000000 0.131015 -0.129891 1.055680
  9 3.793090 6.407221 0.000000 0.000000 -0.000000 1.570796
 10 0.935740 0.000000 0.000000 0.000000 -0.000000 0.000000
 11 0.935741 0.000000 0.000000 0.000000 -0.000000 0.000000
 12 1.293670 0.684478 -0.000001 -0.000004 -0.000001 0.436868
 13 5.309685 -0.003834 0.000000 -0.032957 0.011325 0.331197
 14 4.826790 -0.004591 0.000000 -0.141853 0.043240 0.293451
 15 5.792767 -0.005304 0.000000 0.000000 -0.000000 0.191831
 16 6.662317 -0.001453 0.000000 0.000000 -0.000001 0.471000
 17 2.046985 -0.000002 0.000000 0.170824 -0.061931 -0.678337
 18 -3.112024 1.517254 4.341911 1.374615 -0.765743 1.378264
 19 4.827230 0.000000 0.000001 -0.191659 -0.515498 -0.765022
 20 11.139763 0.000000 0.000000 0.000000 -0.000000 -0.544933
 21 10.314597 0.000001 0.000000 -2.965845 -0.000000 -0.069778
 22 2.975834 -0.386307 -0.044143 -0.012063 -0.041921 0.261905
 23 1.438886 0.000000 0.000000 0.000000 -0.000000 0.924779
 24 1.485303 0.000000 0.000000 0.000000 -0.000000 0.540939
 25 -2.869898 1.399663 -4.140396 -1.206002 1.054067 1.512882
 26 4.972048 0.000000 0.000001 0.696644 0.249931 -1.462139
 27 11.585355 0.000000 0.000000 0.000000 -0.000000 -0.532575
 28 10.127057 0.000000 0.000001 2.168743 0.289746 0.489341
 29 2.683750 -0.427338 0.044205 0.001045 0.043611 0.000046
 30 1.438885 -0.000001 0.000000 0.000000 -0.000000 0.767689
 31 1.485305 0.000001 0.000000 0.000000 -0.000000 1.221538
end
