version 1
nodes
  0 "Bip01"  -1
  1 "Bip01 Pelvis"   0
  2 "Bip01 L Leg"   1
  3 "Bip01 L Leg1"   2
  4 "Bip01 L Foot"   3
  5 "Bip01 L Toe0"   4
  6 "Bip01 R Leg"   1
  7 "Bip01 R Leg1"   6
  8 "Bip01 R Foot"   7
  9 "Bip01 R Toe0"   8
 10 "Bip01 R Toe01"   9
 11 "Bip01 R Toe02"  10
 12 "Bip01 Spine"   1
 13 "Bip01 Spine1"  12
 14 "Bip01 Spine2"  13
 15 "Bip01 Spine3"  14
 16 "Bip01 Neck"  15
 17 "Bip01 Head"  16
 18 "Bip01 L Arm"  16
 19 "Bip01 L Arm1"  18
 20 "Bip01 L Arm2"  19
 21 "Bip01 L Hand"  20
 22 "Bip01 L Finger1"  21
 23 "Bip01 L Finger11"  22
 24 "Bip01 L Finger12"  23
 25 "Bip01 R Arm"  16
 26 "Bip01 R Arm1"  25
 27 "Bip01 R Arm2"  26
 28 "Bip01 R Hand"  27
 29 "Bip01 R Finger1"  28
 30 "Bip01 R Finger11"  29
 31 "Bip01 R Finger12"  30
end
skeleton
time 0
  0 0.235347 -0.235347 3.532833 -0.000000 -0.000000 -1.571254
  1 0.000000 0.000000 0.000000 -1.570795 -1.570796 0.000000
  2 -0.000005 0.000007 3.713255 -6.281131 3.115177 6.261712
  3 18.045721 0.000000 0.000000 0.000000 -0.000000 -0.121501
  4 17.597597 0.000000 0.000000 -0.002613 0.026036 0.099967
  5 3.793090 6.407221 0.000000 0.000000 -0.000000 1.570796
  6 0.000005 -0.000003 -3.713255 6.280565 -3.123995 6.258640
  7 18.045725 0.000000 0.000000 0.000000 -0.000000 -0.127551
  8 17.597597 0.000000 0.000000 0.002950 -0.017289 0.103055
  9 3.793090 6.407221 0.000000 0.000000 -0.000000 1.570796
 10 0.935740 0.000000 0.000000 0.000000 -0.000000 0.000000
 11 0.935741 0.000000 0.000000 0.000000 -0.000000 0.000000
 12 1.293670 0.684478 -0.000001 -0.000004 -0.000001 -0.007924
 13 5.309685 -0.003834 0.000000 -0.224662 -0.031052 -0.136031
 14 4.826790 -0.004591 0.000000 -0.120934 -0.016790 -0.138453
 15 5.792767 -0.005304 0.000000 -0.104177 -0.009875 -0.095402
 16 6.662317 -0.001453 0.000000 0.000000 -0.000001 0.471000
 17 2.046985 -0.000002 0.000000 0.589719 0.415217 -0.207735
 18 -3.112024 1.517254 4.341911 1.167624 -1.093559 1.546622
 19 4.827230 0.000000 0.000001 -0.792355 0.287853 -0.806240
 20 11.139763 0.000000 0.000000 0.000000 -0.000000 -1.371174
 21 10.314597 0.000001 0.000000 -2.987507 -0.064632 0.326449
 22 2.975834 -0.386307 -0.044143 -0.015250 -0.040890 0.340334
 23 1.438886 0.000000 0.000000 0.000000 -0.000000 0.662793
 24 1.485303 0.000000 0.000000 0.000000 -0.000000 0.688984
 25 -2.869898 1.399663 -4.140396 -0.700750 1.311553 1.985824
 26 4.972048 0.000000 0.000001 1.264969 -0.186381 -2.041553
 27 11.585355 0.000000 0.000000 0.000000 -0.000000 -0.621770
 28 10.127057 0.000000 0.000001 1.721618 0.262810 0.362604
 29 2.683750 -0.427338 0.044205 -0.005738 0.043239 -0.157060
 30 1.438885 -0.000001 0.000000 0.000000 -0.000000 0.732589
 31 1.485305 0.000001 0.000000 0.000000 -0.000000 1.168627
time 1
  0 0.235347 -0.235347 3.532833 -0.000000 -0.000000 -1.571254
  1 0.000000 0.000000 0.000000 -1.570795 -1.570796 0.000000
  2 -0.000005 0.000007 3.713255 -6.281131 3.115177 6.261712
  3 18.045721 0.000000 0.000000 0.000000 -0.000000 -0.121501
  4 17.597597 0.000000 0.000000 -0.002613 0.026036 0.099967
  5 3.793090 6.407221 0.000000 0.000000 -0.000000 1.570796
  6 0.000005 -0.000003 -3.713255 6.280565 -3.123995 6.258640
  7 18.045725 0.000000 0.000000 0.000000 -0.000000 -0.127551
  8 17.597597 0.000000 0.000000 0.002950 -0.017289 0.103055
  9 3.793090 6.407221 0.000000 0.000000 -0.000000 1.570796
 10 0.935740 0.000000 0.000000 0.000000 -0.000000 0.000000
 11 0.935741 0.000000 0.000000 0.000000 -0.000000 0.000000
 12 1.293670 0.684478 -0.000001 -0.000004 -0.000001 -0.007924
 13 5.309685 -0.003834 0.000000 -0.224662 -0.031052 -0.136031
 14 4.826790 -0.004591 0.000000 -0.120934 -0.016707 -0.137439
 15 5.792767 -0.005304 0.000000 -0.104177 -0.009875 -0.095402
 16 6.662317 -0.001453 0.000000 0.000000 -0.000001 0.471000
 17 2.046985 -0.000002 0.000000 0.589719 0.415329 -0.208814
 18 -3.112024 1.517254 4.341911 1.165324 -1.092982 1.549211
 19 4.827230 0.000000 0.000001 -0.791474 0.285555 -0.806240
 20 11.139763 0.000000 0.000000 0.000000 -0.000000 -1.371174
 21 10.314597 0.000001 0.000000 -2.987507 -0.064632 0.326449
 22 2.975834 -0.386307 -0.044143 -0.015250 -0.040890 0.340334
 23 1.438886 0.000000 0.000000 0.000000 -0.000000 0.662793
 24 1.485303 0.000000 0.000000 0.000000 -0.000000 0.688984
 25 -2.869898 1.399663 -4.140396 -0.696340 1.310253 1.990234
 26 4.972048 0.000000 0.000001 1.262803 -0.186381 -2.041290
 27 11.585355 0.000000 0.000000 0.000000 -0.000000 -0.621770
 28 10.127057 0.000000 0.000001 1.721618 0.262810 0.362604
 29 2.683750 -0.427338 0.044205 -0.005738 0.043239 -0.157060
 30 1.438885 -0.000001 0.000000 0.000000 -0.000000 0.732589
 31 1.485305 0.000001 0.000000 0.000000 -0.000000 1.168627
time 2
  0 0.235347 -0.235347 3.532833 -0.000000 -0.000000 -1.571254
  1 0.000000 0.000000 0.000000 -1.570795 -1.570796 0.000000
  2 -0.000005 0.000007 3.713255 -6.281131 3.115177 6.261712
  3 18.045721 0.000000 0.000000 0.000000 -0.000000 -0.121501
  4 17.597597 0.000000 0.000000 -0.002613 0.026036 0.099967
  5 3.793090 6.407221 0.000000 0.000000 -0.000000 1.570796
  6 0.000005 -0.000003 -3.713255 6.280565 -3.123995 6.258640
  7 18.045725 0.000000 0.000000 0.000000 -0.000000 -0.127551
  8 17.597597 0.000000 0.000000 0.002950 -0.017289 0.103055
  9 3.793090 6.407221 0.000000 0.000000 -0.000000 1.570796
 10 0.935740 0.000000 0.000000 0.000000 -0.000000 0.000000
 11 0.935741 0.000000 0.000000 0.000000 -0.000000 0.000000
 12 1.293670 0.684478 -0.000001 -0.000004 -0.000001 -0.007924
 13 5.309685 -0.003834 0.000000 -0.224662 -0.031052 -0.136031
 14 4.826790 -0.004591 0.000000 -0.120983 -0.016527 -0.135962
 15 5.792767 -0.005304 0.000000 -0.104177 -0.009875 -0.095402
 16 6.662317 -0.001453 0.000000 0.000000 -0.000001 0.471000
 17 2.046985 -0.000002 0.000000 0.589762 0.415487 -0.210252
 18 -3.112024 1.517254 4.341911 1.161489 -1.092213 1.553142
 19 4.827230 0.000000 0.000001 -0.790358 0.282747 -0.806065
 20 11.139763 0.000000 0.000000 0.000000 -0.000000 -1.371174
 21 10.314597 0.000001 0.000000 -2.987507 -0.064632 0.326449
 22 2.975834 -0.386307 -0.044143 -0.015250 -0.040890 0.340334
 23 1.438886 0.000000 0.000000 0.000000 -0.000000 0.662793
 24 1.485303 0.000000 0.000000 0.000000 -0.000000 0.688984
 25 -2.869898 1.399663 -4.140396 -0.690492 1.308246 1.996370
 26 4.972048 0.000000 0.000001 1.259941 -0.186220 -2.041026
 27 11.585355 0.000000 0.000000 0.000000 -0.000000 -0.621770
 28 10.127057 0.000000 0.000001 1.721618 0.262810 0.362604
 29 2.683750 -0.427338 0.044205 -0.005738 0.043239 -0.157060
 30 1.438885 -0.000001 0.000000 0.000000 -0.000000 0.732589
 31 1.485305 0.000001 0.000000 0.000000 -0.000000 1.168627
time 3
  0 0.235347 -0.235347 3.532833 -0.000000 -0.000000 -1.571254
  1 0.000000 0.000000 0.000000 -1.570795 -1.570796 0.000000
  2 -0.000005 0.000007 3.713255 -6.281131 3.115177 6.261712
  3 18.045721 0.000000 0.000000 0.000000 -0.000000 -0.121501
  4 17.597597 0.000000 0.000000 -0.002613 0.026036 0.099967
  5 3.793090 6.407221 0.000000 0.000000 -0.000000 1.570796
  6 0.000005 -0.000003 -3.713255 6.280565 -3.123995 6.258640
  7 18.045725 0.000000 0.000000 0.000000 -0.000000 -0.127551
  8 17.597597 0.000000 0.000000 0.002950 -0.017289 0.103055
  9 3.793090 6.407221 0.000000 0.000000 -0.000000 1.570796
 10 0.935740 0.000000 0.000000 0.000000 -0.000000 0.000000
 11 0.935741 0.000000 0.000000 0.000000 -0.000000 0.000000
 12 1.293670 0.684478 -0.000001 -0.000004 -0.000001 -0.007924
 13 5.309685 -0.003834 0.000000 -0.224662 -0.031052 -0.136031
 14 4.826790 -0.004591 0.000000 -0.121016 -0.016263 -0.134154
 15 5.792767 -0.005304 0.000000 -0.104177 -0.009875 -0.095402
 16 6.662317 -0.001453 0.000000 0.000000 -0.000001 0.471000
 17 2.046985 -0.000002 0.000000 0.589805 0.415667 -0.212050
 18 -3.112024 1.517254 4.341911 1.157654 -1.091213 1.558223
 19 4.827230 0.000000 0.000001 -0.788890 0.279428 -0.806065
 20 11.139763 0.000000 0.000000 0.000000 -0.000000 -1.371174
 21 10.314597 0.000001 0.000000 -2.987507 -0.064632 0.326449
 22 2.975834 -0.386307 -0.044143 -0.015250 -0.040890 0.340334
 23 1.438886 0.000000 0.000000 0.000000 -0.000000 0.662793
 24 1.485303 0.000000 0.000000 0.000000 -0.000000 0.688984
 25 -2.869898 1.399663 -4.140396 -0.683397 1.305957 2.003944
 26 4.972048 0.000000 0.000001 1.256228 -0.186059 -2.040697
 27 11.585355 0.000000 0.000000 0.000000 -0.000000 -0.621770
 28 10.127057 0.000000 0.000001 1.721618 0.262810 0.362604
 29 2.683750 -0.427338 0.044205 -0.005738 0.043239 -0.157060
 30 1.438885 -0.000001 0.000000 0.000000 -0.000000 0.732589
 31 1.485305 0.000001 0.000000 0.000000 -0.000000 1.168627
time 4
  0 0.235347 -0.235347 3.532833 -0.000000 -0.000000 -1.571254
  1 0.000000 0.000000 0.000000 -1.570795 -1.570796 0.000000
  2 -0.000005 0.000007 3.713255 -6.281131 3.115177 6.261712
  3 18.045721 0.000000 0.000000 0.000000 -0.000000 -0.121501
  4 17.597597 0.000000 0.000000 -0.002613 0.026036 0.099967
  5 3.793090 6.407221 0.000000 0.000000 -0.000000 1.570796
  6 0.000005 -0.000003 -3.713255 6.280565 -3.123995 6.258640
  7 18.045725 0.000000 0.000000 0.000000 -0.000000 -0.127551
  8 17.597597 0.000000 0.000000 0.002950 -0.017289 0.103055
  9 3.793090 6.407221 0.000000 0.000000 -0.000000 1.570796
 10 0.935740 0.000000 0.000000 0.000000 -0.000000 0.000000
 11 0.935741 0.000000 0.000000 0.000000 -0.000000 0.000000
 12 1.293670 0.684478 -0.000001 -0.000004 -0.000001 -0.007924
 13 5.309685 -0.003834 0.000000 -0.224662 -0.031052 -0.136031
 14 4.826790 -0.004591 0.000000 -0.121049 -0.016011 -0.132037
 15 5.792767 -0.005304 0.000000 -0.104177 -0.009875 -0.095402
 16 6.662317 -0.001453 0.000000 0.000000 -0.000001 0.471000
 17 2.046985 -0.000002 0.000000 0.590021 0.415892 -0.214073
 18 -3.112024 1.517254 4.341911 1.152477 -1.090136 1.563592
 19 4.827230 0.000000 0.000001 -0.787304 0.275428 -0.806065
 20 11.139763 0.000000 0.000000 0.000000 -0.000000 -1.371174
 21 10.314597 0.000001 0.000000 -2.987507 -0.064632 0.326449
 22 2.975834 -0.386307 -0.044143 -0.015250 -0.040890 0.340334
 23 1.438886 0.000000 0.000000 0.000000 -0.000000 0.662793
 24 1.485303 0.000000 0.000000 0.000000 -0.000000 0.688984
 25 -2.869898 1.399663 -4.140396 -0.675344 1.303300 2.012189
 26 4.972048 0.000000 0.000001 1.252051 -0.185818 -2.040236
 27 11.585355 0.000000 0.000000 0.000000 -0.000000 -0.621770
 28 10.127057 0.000000 0.000001 1.721618 0.262810 0.362604
 29 2.683750 -0.427338 0.044205 -0.005738 0.043239 -0.157060
 30 1.438885 -0.000001 0.000000 0.000000 -0.000000 0.732589
 31 1.485305 0.000001 0.000000 0.000000 -0.000000 1.168627
time 5
  0 0.235347 -0.235347 3.532833 -0.000000 -0.000000 -1.571254
  1 0.000000 0.000000 0.000000 -1.570795 -1.570796 0.000000
  2 -0.000005 0.000007 3.713255 -6.281131 3.115177 6.261712
  3 18.045721 0.000000 0.000000 0.000000 -0.000000 -0.121501
  4 17.597597 0.000000 0.000000 -0.002613 0.026036 0.099967
  5 3.793090 6.407221 0.000000 0.000000 -0.000000 1.570796
  6 0.000005 -0.000003 -3.713255 6.280565 -3.123995 6.258640
  7 18.045725 0.000000 0.000000 0.000000 -0.000000 -0.127551
  8 17.597597 0.000000 0.000000 0.002950 -0.017289 0.103055
  9 3.793090 6.407221 0.000000 0.000000 -0.000000 1.570796
 10 0.935740 0.000000 0.000000 0.000000 -0.000000 0.000000
 11 0.935741 0.000000 0.000000 0.000000 -0.000000 0.000000
 12 1.293670 0.684478 -0.000001 -0.000004 -0.000001 -0.007924
 13 5.309685 -0.003834 0.000000 -0.224662 -0.031052 -0.136031
 14 4.826790 -0.004591 0.000000 -0.121065 -0.015784 -0.129788
 15 5.792767 -0.005304 0.000000 -0.104177 -0.009875 -0.095402
 16 6.662317 -0.001453 0.000000 0.000000 -0.000001 0.471000
 17 2.046985 -0.000002 0.000000 0.590064 0.416117 -0.216320
 18 -3.112024 1.517254 4.341911 1.147204 -1.088905 1.569345
 19 4.827230 0.000000 0.000001 -0.785542 0.271173 -0.805890
 20 11.139763 0.000000 0.000000 0.000000 -0.000000 -1.371174
 21 10.314597 0.000001 0.000000 -2.987507 -0.064632 0.326449
 22 2.975834 -0.386307 -0.044143 -0.015250 -0.040890 0.340334
 23 1.438886 0.000000 0.000000 0.000000 -0.000000 0.662793
 24 1.485303 0.000000 0.000000 0.000000 -0.000000 0.688984
 25 -2.869898 1.399663 -4.140396 -0.666907 1.300304 2.020818
 26 4.972048 0.000000 0.000001 1.247487 -0.185657 -2.039972
 27 11.585355 0.000000 0.000000 0.000000 -0.000000 -0.621770
 28 10.127057 0.000000 0.000001 1.721618 0.262810 0.362604
 29 2.683750 -0.427338 0.044205 -0.005738 0.043239 -0.157060
 30 1.438885 -0.000001 0.000000 0.000000 -0.000000 0.732589
 31 1.485305 0.000001 0.000000 0.000000 -0.000000 1.168627
time 6
  0 0.235347 -0.235347 3.532833 -0.000000 -0.000000 -1.571254
  1 0.000000 0.000000 0.000000 -1.570795 -1.570796 0.000000
  2 -0.000005 0.000007 3.713255 -6.281131 3.115177 6.261712
  3 18.045721 0.000000 0.000000 0.000000 -0.000000 -0.121501
  4 17.597597 0.000000 0.000000 -0.002613 0.026036 0.099967
  5 3.793090 6.407221 0.000000 0.000000 -0.000000 1.570796
  6 0.000005 -0.000003 -3.713255 6.280565 -3.123995 6.258640
  7 18.045725 0.000000 0.000000 0.000000 -0.000000 -0.127551
  8 17.597597 0.000000 0.000000 0.002950 -0.017289 0.103055
  9 3.793090 6.407221 0.000000 0.000000 -0.000000 1.570796
 10 0.935740 0.000000 0.000000 0.000000 -0.000000 0.000000
 11 0.935741 0.000000 0.000000 0.000000 -0.000000 0.000000
 12 1.293670 0.684478 -0.000001 -0.000004 -0.000001 -0.007924
 13 5.309685 -0.003834 0.000000 -0.224662 -0.031052 -0.136031
 14 4.826790 -0.004591 0.000000 -0.121098 -0.015460 -0.127451
 15 5.792767 -0.005304 0.000000 -0.104177 -0.009875 -0.095402
 16 6.662317 -0.001453 0.000000 0.000000 -0.000001 0.471000
 17 2.046985 -0.000002 0.000000 0.590107 0.416365 -0.218477
 18 -3.112024 1.517254 4.341911 1.141931 -1.087559 1.575960
 19 4.827230 0.000000 0.000001 -0.783662 0.266748 -0.805890
 20 11.139763 0.000000 0.000000 0.000000 -0.000000 -1.371174
 21 10.314597 0.000001 0.000000 -2.987507 -0.064632 0.326449
 22 2.975834 -0.386307 -0.044143 -0.015250 -0.040890 0.340334
 23 1.438886 0.000000 0.000000 0.000000 -0.000000 0.662793
 24 1.485303 0.000000 0.000000 0.000000 -0.000000 0.688984
 25 -2.869898 1.399663 -4.140396 -0.657991 1.297167 2.029830
 26 4.972048 0.000000 0.000001 1.242691 -0.185496 -2.039577
 27 11.585355 0.000000 0.000000 0.000000 -0.000000 -0.621770
 28 10.127057 0.000000 0.000001 1.721618 0.262810 0.362604
 29 2.683750 -0.427338 0.044205 -0.005738 0.043239 -0.157060
 30 1.438885 -0.000001 0.000000 0.000000 -0.000000 0.732589
 31 1.485305 0.000001 0.000000 0.000000 -0.000000 1.168627
time 7
  0 0.235347 -0.235347 3.532833 -0.000000 -0.000000 -1.571254
  1 0.000000 0.000000 0.000000 -1.570795 -1.570796 0.000000
  2 -0.000005 0.000007 3.713255 -6.281131 3.115177 6.261712
  3 18.045721 0.000000 0.000000 0.000000 -0.000000 -0.121501
  4 17.597597 0.000000 0.000000 -0.002613 0.026036 0.099967
  5 3.793090 6.407221 0.000000 0.000000 -0.000000 1.570796
  6 0.000005 -0.000003 -3.713255 6.280565 -3.123995 6.258640
  7 18.045725 0.000000 0.000000 0.000000 -0.000000 -0.127551
  8 17.597597 0.000000 0.000000 0.002950 -0.017289 0.103055
  9 3.793090 6.407221 0.000000 0.000000 -0.000000 1.570796
 10 0.935740 0.000000 0.000000 0.000000 -0.000000 0.000000
 11 0.935741 0.000000 0.000000 0.000000 -0.000000 0.000000
 12 1.293670 0.684478 -0.000001 -0.000004 -0.000001 -0.007924
 13 5.309685 -0.003834 0.000000 -0.224662 -0.031052 -0.136031
 14 4.826790 -0.004591 0.000000 -0.121164 -0.015161 -0.125114
 15 5.792767 -0.005304 0.000000 -0.104177 -0.009875 -0.095402
 16 6.662317 -0.001453 0.000000 0.000000 -0.000001 0.471000
 17 2.046985 -0.000002 0.000000 0.590150 0.416612 -0.220950
 18 -3.112024 1.517254 4.341911 1.136466 -1.086251 1.582096
 19 4.827230 0.000000 0.000001 -0.781724 0.262493 -0.805890
 20 11.139763 0.000000 0.000000 0.000000 -0.000000 -1.371174
 21 10.314597 0.000001 0.000000 -2.987507 -0.064632 0.326449
 22 2.975834 -0.386307 -0.044143 -0.015250 -0.040890 0.340334
 23 1.438886 0.000000 0.000000 0.000000 -0.000000 0.662793
 24 1.485303 0.000000 0.000000 0.000000 -0.000000 0.688984
 25 -2.869898 1.399663 -4.140396 -0.649554 1.293973 2.038842
 26 4.972048 0.000000 0.000001 1.237740 -0.185174 -2.039116
 27 11.585355 0.000000 0.000000 0.000000 -0.000000 -0.621770
 28 10.127057 0.000000 0.000001 1.721618 0.262810 0.362604
 29 2.683750 -0.427338 0.044205 -0.005738 0.043239 -0.157060
 30 1.438885 -0.000001 0.000000 0.000000 -0.000000 0.732589
 31 1.485305 0.000001 0.000000 0.000000 -0.000000 1.168627
time 8
  0 0.235347 -0.235347 3.532833 -0.000000 -0.000000 -1.571254
  1 0.000000 0.000000 0.000000 -1.570795 -1.570796 0.000000
  2 -0.000005 0.000007 3.713255 -6.281131 3.115177 6.261712
  3 18.045721 0.000000 0.000000 0.000000 -0.000000 -0.121501
  4 17.597597 0.000000 0.000000 -0.002613 0.026036 0.099967
  5 3.793090 6.407221 0.000000 0.000000 -0.000000 1.570796
  6 0.000005 -0.000003 -3.713255 6.280565 -3.123995 6.258640
  7 18.045725 0.000000 0.000000 0.000000 -0.000000 -0.127551
  8 17.597597 0.000000 0.000000 0.002950 -0.017289 0.103055
  9 3.793090 6.407221 0.000000 0.000000 -0.000000 1.570796
 10 0.935740 0.000000 0.000000 0.000000 -0.000000 0.000000
 11 0.935741 0.000000 0.000000 0.000000 -0.000000 0.000000
 12 1.293670 0.684478 -0.000001 -0.000004 -0.000001 -0.007924
 13 5.309685 -0.003834 0.000000 -0.224662 -0.031052 -0.136031
 14 4.826790 -0.004591 0.000000 -0.121180 -0.014921 -0.122733
 15 5.792767 -0.005304 0.000000 -0.104177 -0.009875 -0.095402
 16 6.662317 -0.001453 0.000000 0.000000 -0.000001 0.471000
 17 2.046985 -0.000002 0.000000 0.590193 0.416860 -0.223422
 18 -3.112024 1.517254 4.341911 1.130522 -1.084905 1.588328
 19 4.827230 0.000000 0.000001 -0.779903 0.257642 -0.805890
 20 11.139763 0.000000 0.000000 0.000000 -0.000000 -1.371174
 21 10.314597 0.000001 0.000000 -2.987507 -0.064632 0.326449
 22 2.975834 -0.386307 -0.044143 -0.015250 -0.040890 0.340334
 23 1.438886 0.000000 0.000000 0.000000 -0.000000 0.662793
 24 1.485303 0.000000 0.000000 0.000000 -0.000000 0.688984
 25 -2.869898 1.399663 -4.140396 -0.641117 1.290779 2.047662
 26 4.972048 0.000000 0.000001 1.232944 -0.184933 -2.038655
 27 11.585355 0.000000 0.000000 0.000000 -0.000000 -0.621770
 28 10.127057 0.000000 0.000001 1.721618 0.262810 0.362604
 29 2.683750 -0.427338 0.044205 -0.005738 0.043239 -0.157060
 30 1.438885 -0.000001 0.000000 0.000000 -0.000000 0.732589
 31 1.485305 0.000001 0.000000 0.000000 -0.000000 1.168627
time 9
  0 0.235347 -0.235347 3.532833 -0.000000 -0.000000 -1.571254
  1 0.000000 0.000000 0.000000 -1.570795 -1.570796 0.000000
  2 -0.000005 0.000007 3.713255 -6.281131 3.115177 6.261712
  3 18.045721 0.000000 0.000000 0.000000 -0.000000 -0.121501
  4 17.597597 0.000000 0.000000 -0.002613 0.026036 0.099967
  5 3.793090 6.407221 0.000000 0.000000 -0.000000 1.570796
  6 0.000005 -0.000003 -3.713255 6.280565 -3.123995 6.258640
  7 18.045725 0.000000 0.000000 0.000000 -0.000000 -0.127551
  8 17.597597 0.000000 0.000000 0.002950 -0.017289 0.103055
  9 3.793090 6.407221 0.000000 0.000000 -0.000000 1.570796
 10 0.935740 0.000000 0.000000 0.000000 -0.000000 0.000000
 11 0.935741 0.000000 0.000000 0.000000 -0.000000 0.000000
 12 1.293670 0.684478 -0.000001 -0.000004 -0.000001 -0.007924
 13 5.309685 -0.003834 0.000000 -0.224662 -0.031052 -0.136031
 14 4.826790 -0.004591 0.000000 -0.121213 -0.014597 -0.120440
 15 5.792767 -0.005304 0.000000 -0.104177 -0.009875 -0.095402
 16 6.662317 -0.001453 0.000000 0.000000 -0.000001 0.471000
 17 2.046985 -0.000002 0.000000 0.590236 0.417085 -0.225714
 18 -3.112024 1.517254 4.341911 1.125728 -1.083598 1.593985
 19 4.827230 0.000000 0.000001 -0.777965 0.253302 -0.805890
 20 11.139763 0.000000 0.000000 0.000000 -0.000000 -1.371174
 21 10.314597 0.000001 0.000000 -2.987507 -0.064632 0.326449
 22 2.975834 -0.386307 -0.044143 -0.015250 -0.040890 0.340334
 23 1.438886 0.000000 0.000000 0.000000 -0.000000 0.662793
 24 1.485303 0.000000 0.000000 0.000000 -0.000000 0.688984
 25 -2.869898 1.399663 -4.140396 -0.633064 1.287783 2.055907
 26 4.972048 0.000000 0.000001 1.228303 -0.184772 -2.038391
 27 11.585355 0.000000 0.000000 0.000000 -0.000000 -0.621770
 28 10.127057 0.000000 0.000001 1.721618 0.262810 0.362604
 29 2.683750 -0.427338 0.044205 -0.005738 0.043239 -0.157060
 30 1.438885 -0.000001 0.000000 0.000000 -0.000000 0.732589
 31 1.485305 0.000001 0.000000 0.000000 -0.000000 1.168627
time 10
  0 0.235347 -0.235347 3.532833 -0.000000 -0.000000 -1.571254
  1 0.000000 0.000000 0.000000 -1.570795 -1.570796 0.000000
  2 -0.000005 0.000007 3.713255 -6.281131 3.115177 6.261712
  3 18.045721 0.000000 0.000000 0.000000 -0.000000 -0.121501
  4 17.597597 0.000000 0.000000 -0.002613 0.026036 0.099967
  5 3.793090 6.407221 0.000000 0.000000 -0.000000 1.570796
  6 0.000005 -0.000003 -3.713255 6.280565 -3.123995 6.258640
  7 18.045725 0.000000 0.000000 0.000000 -0.000000 -0.127551
  8 17.597597 0.000000 0.000000 0.002950 -0.017289 0.103055
  9 3.793090 6.407221 0.000000 0.000000 -0.000000 1.570796
 10 0.935740 0.000000 0.000000 0.000000 -0.000000 0.000000
 11 0.935741 0.000000 0.000000 0.000000 -0.000000 0.000000
 12 1.293670 0.684478 -0.000001 -0.000004 -0.000001 -0.007924
 13 5.309685 -0.003834 0.000000 -0.224662 -0.031052 -0.136031
 14 4.826790 -0.004591 0.000000 -0.121246 -0.014382 -0.118301
 15 5.792767 -0.005304 0.000000 -0.104177 -0.009875 -0.095402
 16 6.662317 -0.001453 0.000000 0.000000 -0.000001 0.471000
 17 2.046985 -0.000002 0.000000 0.590236 0.417310 -0.227827
 18 -3.112024 1.517254 4.341911 1.120743 -1.082328 1.599450
 19 4.827230 0.000000 0.000001 -0.776379 0.249302 -0.805890
 20 11.139763 0.000000 0.000000 0.000000 -0.000000 -1.371174
 21 10.314597 0.000001 0.000000 -2.987507 -0.064632 0.326449
 22 2.975834 -0.386307 -0.044143 -0.015250 -0.040890 0.340334
 23 1.438886 0.000000 0.000000 0.000000 -0.000000 0.662793
 24 1.485303 0.000000 0.000000 0.000000 -0.000000 0.688984
 25 -2.869898 1.399663 -4.140396 -0.626065 1.284872 2.063577
 26 4.972048 0.000000 0.000001 1.223971 -0.184611 -2.038128
 27 11.585355 0.000000 0.000000 0.000000 -0.000000 -0.621770
 28 10.127057 0.000000 0.000001 1.721618 0.262810 0.362604
 29 2.683750 -0.427338 0.044205 -0.005738 0.043239 -0.157060
 30 1.438885 -0.000001 0.000000 0.000000 -0.000000 0.732589
 31 1.485305 0.000001 0.000000 0.000000 -0.000000 1.168627
time 11
  0 0.235347 -0.235347 3.532833 -0.000000 -0.000000 -1.571254
  1 0.000000 0.000000 0.000000 -1.570795 -1.570796 0.000000
  2 -0.000005 0.000007 3.713255 -6.281131 3.115177 6.261712
  3 18.045721 0.000000 0.000000 0.000000 -0.000000 -0.121501
  4 17.597597 0.000000 0.000000 -0.002613 0.026036 0.099967
  5 3.793090 6.407221 0.000000 0.000000 -0.000000 1.570796
  6 0.000005 -0.000003 -3.713255 6.280565 -3.123995 6.258640
  7 18.045725 0.000000 0.000000 0.000000 -0.000000 -0.127551
  8 17.597597 0.000000 0.000000 0.002950 -0.017289 0.103055
  9 3.793090 6.407221 0.000000 0.000000 -0.000000 1.570796
 10 0.935740 0.000000 0.000000 0.000000 -0.000000 0.000000
 11 0.935741 0.000000 0.000000 0.000000 -0.000000 0.000000
 12 1.293670 0.684478 -0.000001 -0.000004 -0.000001 -0.007924
 13 5.309685 -0.003834 0.000000 -0.224662 -0.031052 -0.136031
 14 4.826790 -0.004591 0.000000 -0.121246 -0.014154 -0.116427
 15 5.792767 -0.005304 0.000000 -0.104177 -0.009875 -0.095402
 16 6.662317 -0.001453 0.000000 0.000000 -0.000001 0.471000
 17 2.046985 -0.000002 0.000000 0.590236 0.417513 -0.229535
 18 -3.112024 1.517254 4.341911 1.116237 -1.081251 1.604627
 19 4.827230 0.000000 0.000001 -0.774852 0.245643 -0.805890
 20 11.139763 0.000000 0.000000 0.000000 -0.000000 -1.371174
 21 10.314597 0.000001 0.000000 -2.987507 -0.064632 0.326449
 22 2.975834 -0.386307 -0.044143 -0.015250 -0.040890 0.340334
 23 1.438886 0.000000 0.000000 0.000000 -0.000000 0.662793
 24 1.485303 0.000000 0.000000 0.000000 -0.000000 0.688984
 25 -2.869898 1.399663 -4.140396 -0.619450 1.282243 2.069809
 26 4.972048 0.000000 0.000001 1.220026 -0.184370 -2.037667
 27 11.585355 0.000000 0.000000 0.000000 -0.000000 -0.621770
 28 10.127057 0.000000 0.000001 1.721618 0.262810 0.362604
 29 2.683750 -0.427338 0.044205 -0.005738 0.043239 -0.157060
 30 1.438885 -0.000001 0.000000 0.000000 -0.000000 0.732589
 31 1.485305 0.000001 0.000000 0.000000 -0.000000 1.168627
time 12
  0 0.235347 -0.235347 3.532833 -0.000000 -0.000000 -1.571254
  1 0.000000 0.000000 0.000000 -1.570795 -1.570796 0.000000
  2 -0.000005 0.000007 3.713255 -6.281131 3.115177 6.261712
  3 18.045721 0.000000 0.000000 0.000000 -0.000000 -0.121501
  4 17.597597 0.000000 0.000000 -0.002613 0.026036 0.099967
  5 3.793090 6.407221 0.000000 0.000000 -0.000000 1.570796
  6 0.000005 -0.000003 -3.713255 6.280565 -3.123995 6.258640
  7 18.045725 0.000000 0.000000 0.000000 -0.000000 -0.127551
  8 17.597597 0.000000 0.000000 0.002950 -0.017289 0.103055
  9 3.793090 6.407221 0.000000 0.000000 -0.000000 1.570796
 10 0.935740 0.000000 0.000000 0.000000 -0.000000 0.000000
 11 0.935741 0.000000 0.000000 0.000000 -0.000000 0.000000
 12 1.293670 0.684478 -0.000001 -0.000004 -0.000001 -0.007924
 13 5.309685 -0.003834 0.000000 -0.224662 -0.031052 -0.136031
 14 4.826790 -0.004591 0.000000 -0.121295 -0.013914 -0.114773
 15 5.792767 -0.005304 0.000000 -0.104177 -0.009875 -0.095402
 16 6.662317 -0.001453 0.000000 0.000000 -0.000001 0.471000
 17 2.046985 -0.000002 0.000000 0.590236 0.417670 -0.231243
 18 -3.112024 1.517254 4.341911 1.112977 -1.080328 1.608462
 19 4.827230 0.000000 0.000001 -0.773677 0.243005 -0.805890
 20 11.139763 0.000000 0.000000 0.000000 -0.000000 -1.371174
 21 10.314597 0.000001 0.000000 -2.987507 -0.064632 0.326449
 22 2.975834 -0.386307 -0.044143 -0.015250 -0.040890 0.340334
 23 1.438886 0.000000 0.000000 0.000000 -0.000000 0.662793
 24 1.485303 0.000000 0.000000 0.000000 -0.000000 0.688984
 25 -2.869898 1.399663 -4.140396 -0.614177 1.280067 2.075657
 26 4.972048 0.000000 0.000001 1.217009 -0.184370 -2.037601
 27 11.585355 0.000000 0.000000 0.000000 -0.000000 -0.621770
 28 10.127057 0.000000 0.000001 1.721618 0.262810 0.362604
 29 2.683750 -0.427338 0.044205 -0.005738 0.043239 -0.157060
 30 1.438885 -0.000001 0.000000 0.000000 -0.000000 0.732589
 31 1.485305 0.000001 0.000000 0.000000 -0.000000 1.168627
time 13
  0 0.235347 -0.235347 3.532833 -0.000000 -0.000000 -1.571254
  1 0.000000 0.000000 0.000000 -1.570795 -1.570796 0.000000
  2 -0.000005 0.000007 3.713255 -6.281131 3.115177 6.261712
  3 18.045721 0.000000 0.000000 0.000000 -0.000000 -0.121501
  4 17.597597 0.000000 0.000000 -0.002613 0.026036 0.099967
  5 3.793090 6.407221 0.000000 0.000000 -0.000000 1.570796
  6 0.000005 -0.000003 -3.713255 6.280565 -3.123995 6.258640
  7 18.045725 0.000000 0.000000 0.000000 -0.000000 -0.127551
  8 17.597597 0.000000 0.000000 0.002950 -0.017289 0.103055
  9 3.793090 6.407221 0.000000 0.000000 -0.000000 1.570796
 10 0.935740 0.000000 0.000000 0.000000 -0.000000 0.000000
 11 0.935741 0.000000 0.000000 0.000000 -0.000000 0.000000
 12 1.293670 0.684478 -0.000001 -0.000004 -0.000001 -0.007924
 13 5.309685 -0.003834 0.000000 -0.224662 -0.031052 -0.136031
 14 4.826790 -0.004591 0.000000 -0.121328 -0.013758 -0.113605
 15 5.792767 -0.005304 0.000000 -0.104177 -0.009875 -0.095402
 16 6.662317 -0.001453 0.000000 0.000000 -0.000001 0.471000
 17 2.046985 -0.000002 0.000000 0.590236 0.417805 -0.232321
 18 -3.112024 1.517254 4.341911 1.110197 -1.079597 1.611530
 19 4.827230 0.000000 0.000001 -0.772620 0.240537 -0.805890
 20 11.139763 0.000000 0.000000 0.000000 -0.000000 -1.371174
 21 10.314597 0.000001 0.000000 -2.987507 -0.064632 0.326449
 22 2.975834 -0.386307 -0.044143 -0.015250 -0.040890 0.340334
 23 1.438886 0.000000 0.000000 0.000000 -0.000000 0.662793
 24 1.485303 0.000000 0.000000 0.000000 -0.000000 0.688984
 25 -2.869898 1.399663 -4.140396 -0.610342 1.278371 2.079396
 26 4.972048 0.000000 0.000001 1.214379 -0.184209 -2.037469
 27 11.585355 0.000000 0.000000 0.000000 -0.000000 -0.621770
 28 10.127057 0.000000 0.000001 1.721618 0.262810 0.362604
 29 2.683750 -0.427338 0.044205 -0.005738 0.043239 -0.157060
 30 1.438885 -0.000001 0.000000 0.000000 -0.000000 0.732589
 31 1.485305 0.000001 0.000000 0.000000 -0.000000 1.168627
time 14
  0 0.235347 -0.235347 3.532833 -0.000000 -0.000000 -1.571254
  1 0.000000 0.000000 0.000000 -1.570795 -1.570796 0.000000
  2 -0.000005 0.000007 3.713255 -6.281131 3.115177 6.261712
  3 18.045721 0.000000 0.000000 0.000000 -0.000000 -0.121501
  4 17.597597 0.000000 0.000000 -0.002613 0.026036 0.099967
  5 3.793090 6.407221 0.000000 0.000000 -0.000000 1.570796
  6 0.000005 -0.000003 -3.713255 6.280565 -3.123995 6.258640
  7 18.045725 0.000000 0.000000 0.000000 -0.000000 -0.127551
  8 17.597597 0.000000 0.000000 0.002950 -0.017289 0.103055
  9 3.793090 6.407221 0.000000 0.000000 -0.000000 1.570796
 10 0.935740 0.000000 0.000000 0.000000 -0.000000 0.000000
 11 0.935741 0.000000 0.000000 0.000000 -0.000000 0.000000
 12 1.293670 0.684478 -0.000001 -0.000004 -0.000001 -0.007924
 13 5.309685 -0.003834 0.000000 -0.224662 -0.031052 -0.136031
 14 4.826790 -0.004591 0.000000 -0.121328 -0.013662 -0.112833
 15 5.792767 -0.005304 0.000000 -0.104177 -0.009875 -0.095402
 16 6.662317 -0.001453 0.000000 0.000000 -0.000001 0.471000
 17 2.046985 -0.000002 0.000000 0.590236 0.417896 -0.233085
 18 -3.112024 1.517254 4.341911 1.108471 -1.079097 1.613927
 19 4.827230 0.000000 0.000001 -0.772091 0.238835 -0.806065
 20 11.139763 0.000000 0.000000 0.000000 -0.000000 -1.371174
 21 10.314597 0.000001 0.000000 -2.987507 -0.064632 0.326449
 22 2.975834 -0.386307 -0.044143 -0.015250 -0.040890 0.340334
 23 1.438886 0.000000 0.000000 0.000000 -0.000000 0.662793
 24 1.485303 0.000000 0.000000 0.000000 -0.000000 0.688984
 25 -2.869898 1.399663 -4.140396 -0.608137 1.277297 2.081985
 26 4.972048 0.000000 0.000001 1.212832 -0.184048 -2.037074
 27 11.585355 0.000000 0.000000 0.000000 -0.000000 -0.621770
 28 10.127057 0.000000 0.000001 1.721618 0.262810 0.362604
 29 2.683750 -0.427338 0.044205 -0.005738 0.043239 -0.157060
 30 1.438885 -0.000001 0.000000 0.000000 -0.000000 0.732589
 31 1.485305 0.000001 0.000000 0.000000 -0.000000 1.168627
time 15
  0 0.235347 -0.235347 3.532833 -0.000000 -0.000000 -1.571254
  1 0.000000 0.000000 0.000000 -1.570795 -1.570796 0.000000
  2 -0.000005 0.000007 3.713255 -6.281131 3.115177 6.261712
  3 18.045721 0.000000 0.000000 0.000000 -0.000000 -0.121501
  4 17.597597 0.000000 0.000000 -0.002613 0.026036 0.099967
  5 3.793090 6.407221 0.000000 0.000000 -0.000000 1.570796
  6 0.000005 -0.000003 -3.713255 6.280565 -3.123995 6.258640
  7 18.045725 0.000000 0.000000 0.000000 -0.000000 -0.127551
  8 17.597597 0.000000 0.000000 0.002950 -0.017289 0.103055
  9 3.793090 6.407221 0.000000 0.000000 -0.000000 1.570796
 10 0.935740 0.000000 0.000000 0.000000 -0.000000 0.000000
 11 0.935741 0.000000 0.000000 0.000000 -0.000000 0.000000
 12 1.293670 0.684478 -0.000001 -0.000004 -0.000001 -0.007924
 13 5.309685 -0.003834 0.000000 -0.224662 -0.031052 -0.136031
 14 4.826790 -0.004591 0.000000 -0.121328 -0.013626 -0.112480
 15 5.792767 -0.005304 0.000000 -0.104177 -0.009875 -0.095402
 16 6.662317 -0.001453 0.000000 0.000000 -0.000001 0.471000
 17 2.046985 -0.000002 0.000000 0.590236 0.417918 -0.233580
 18 -3.112024 1.517254 4.341911 1.107800 -1.078905 1.614694
 19 4.827230 0.000000 0.000001 -0.771915 0.238324 -0.806065
 20 11.139763 0.000000 0.000000 0.000000 -0.000000 -1.371174
 21 10.314597 0.000001 0.000000 -2.987507 -0.064632 0.326449
 22 2.975834 -0.386307 -0.044143 -0.015250 -0.040890 0.340334
 23 1.438886 0.000000 0.000000 0.000000 -0.000000 0.662793
 24 1.485303 0.000000 0.000000 0.000000 -0.000000 0.688984
 25 -2.869898 1.399663 -4.140396 -0.607274 1.276958 2.083231
 26 4.972048 0.000000 0.000001 1.212368 -0.184048 -2.037074
 27 11.585355 0.000000 0.000000 0.000000 -0.000000 -0.621770
 28 10.127057 0.000000 0.000001 1.721618 0.262810 0.362604
 29 2.683750 -0.427338 0.044205 -0.005738 0.043239 -0.157060
 30 1.438885 -0.000001 0.000000 0.000000 -0.000000 0.732589
 31 1.485305 0.000001 0.000000 0.000000 -0.000000 1.168627
time 16
  0 0.235347 -0.235347 3.532833 -0.000000 -0.000000 -1.571254
  1 0.000000 0.000000 0.000000 -1.570795 -1.570796 0.000000
  2 -0.000005 0.000007 3.713255 -6.281131 3.115177 6.261712
  3 18.045721 0.000000 0.000000 0.000000 -0.000000 -0.121501
  4 17.597597 0.000000 0.000000 -0.002613 0.026036 0.099967
  5 3.793090 6.407221 0.000000 0.000000 -0.000000 1.570796
  6 0.000005 -0.000003 -3.713255 6.280565 -3.123995 6.258640
  7 18.045725 0.000000 0.000000 0.000000 -0.000000 -0.127551
  8 17.597597 0.000000 0.000000 0.002950 -0.017289 0.103055
  9 3.793090 6.407221 0.000000 0.000000 -0.000000 1.570796
 10 0.935740 0.000000 0.000000 0.000000 -0.000000 0.000000
 11 0.935741 0.000000 0.000000 0.000000 -0.000000 0.000000
 12 1.293670 0.684478 -0.000001 -0.000004 -0.000001 -0.007924
 13 5.309685 -0.003834 0.000000 -0.224662 -0.031052 -0.136031
 14 4.826790 -0.004591 0.000000 -0.121328 -0.013662 -0.112833
 15 5.792767 -0.005304 0.000000 -0.104177 -0.009875 -0.095402
 16 6.662317 -0.001453 0.000000 0.000000 -0.000001 0.471000
 17 2.046985 -0.000002 0.000000 0.590236 0.417896 -0.233085
 18 -3.112024 1.517254 4.341911 1.108471 -1.079097 1.613927
 19 4.827230 0.000000 0.000001 -0.772091 0.238835 -0.806065
 20 11.139763 0.000000 0.000000 0.000000 -0.000000 -1.371174
 21 10.314597 0.000001 0.000000 -2.987507 -0.064632 0.326449
 22 2.975834 -0.386307 -0.044143 -0.015250 -0.040890 0.340334
 23 1.438886 0.000000 0.000000 0.000000 -0.000000 0.662793
 24 1.485303 0.000000 0.000000 0.000000 -0.000000 0.688984
 25 -2.869898 1.399663 -4.140396 -0.608137 1.277297 2.081985
 26 4.972048 0.000000 0.000001 1.212832 -0.184048 -2.037074
 27 11.585355 0.000000 0.000000 0.000000 -0.000000 -0.621770
 28 10.127057 0.000000 0.000001 1.721618 0.262810 0.362604
 29 2.683750 -0.427338 0.044205 -0.005738 0.043239 -0.157060
 30 1.438885 -0.000001 0.000000 0.000000 -0.000000 0.732589
 31 1.485305 0.000001 0.000000 0.000000 -0.000000 1.168627
time 17
  0 0.235347 -0.235347 3.532833 -0.000000 -0.000000 -1.571254
  1 0.000000 0.000000 0.000000 -1.570795 -1.570796 0.000000
  2 -0.000005 0.000007 3.713255 -6.281131 3.115177 6.261712
  3 18.045721 0.000000 0.000000 0.000000 -0.000000 -0.121501
  4 17.597597 0.000000 0.000000 -0.002613 0.026036 0.099967
  5 3.793090 6.407221 0.000000 0.000000 -0.000000 1.570796
  6 0.000005 -0.000003 -3.713255 6.280565 -3.123995 6.258640
  7 18.045725 0.000000 0.000000 0.000000 -0.000000 -0.127551
  8 17.597597 0.000000 0.000000 0.002950 -0.017289 0.103055
  9 3.793090 6.407221 0.000000 0.000000 -0.000000 1.570796
 10 0.935740 0.000000 0.000000 0.000000 -0.000000 0.000000
 11 0.935741 0.000000 0.000000 0.000000 -0.000000 0.000000
 12 1.293670 0.684478 -0.000001 -0.000004 -0.000001 -0.007924
 13 5.309685 -0.003834 0.000000 -0.224662 -0.031052 -0.136031
 14 4.826790 -0.004591 0.000000 -0.121328 -0.013758 -0.113605
 15 5.792767 -0.005304 0.000000 -0.104177 -0.009875 -0.095402
 16 6.662317 -0.001453 0.000000 0.000000 -0.000001 0.471000
 17 2.046985 -0.000002 0.000000 0.590236 0.417805 -0.232321
 18 -3.112024 1.517254 4.341911 1.110197 -1.079597 1.611530
 19 4.827230 0.000000 0.000001 -0.772620 0.240537 -0.805890
 20 11.139763 0.000000 0.000000 0.000000 -0.000000 -1.371174
 21 10.314597 0.000001 0.000000 -2.987507 -0.064632 0.326449
 22 2.975834 -0.386307 -0.044143 -0.015250 -0.040890 0.340334
 23 1.438886 0.000000 0.000000 0.000000 -0.000000 0.662793
 24 1.485303 0.000000 0.000000 0.000000 -0.000000 0.688984
 25 -2.869898 1.399663 -4.140396 -0.610342 1.278371 2.079396
 26 4.972048 0.000000 0.000001 1.214379 -0.184209 -2.037469
 27 11.585355 0.000000 0.000000 0.000000 -0.000000 -0.621770
 28 10.127057 0.000000 0.000001 1.721618 0.262810 0.362604
 29 2.683750 -0.427338 0.044205 -0.005738 0.043239 -0.157060
 30 1.438885 -0.000001 0.000000 0.000000 -0.000000 0.732589
 31 1.485305 0.000001 0.000000 0.000000 -0.000000 1.168627
time 18
  0 0.235347 -0.235347 3.532833 -0.000000 -0.000000 -1.571254
  1 0.000000 0.000000 0.000000 -1.570795 -1.570796 0.000000
  2 -0.000005 0.000007 3.713255 -6.281131 3.115177 6.261712
  3 18.045721 0.000000 0.000000 0.000000 -0.000000 -0.121501
  4 17.597597 0.000000 0.000000 -0.002613 0.026036 0.099967
  5 3.793090 6.407221 0.000000 0.000000 -0.000000 1.570796
  6 0.000005 -0.000003 -3.713255 6.280565 -3.123995 6.258640
  7 18.045725 0.000000 0.000000 0.000000 -0.000000 -0.127551
  8 17.597597 0.000000 0.000000 0.002950 -0.017289 0.103055
  9 3.793090 6.407221 0.000000 0.000000 -0.000000 1.570796
 10 0.935740 0.000000 0.000000 0.000000 -0.000000 0.000000
 11 0.935741 0.000000 0.000000 0.000000 -0.000000 0.000000
 12 1.293670 0.684478 -0.000001 -0.000004 -0.000001 -0.007924
 13 5.309685 -0.003834 0.000000 -0.224662 -0.031052 -0.136031
 14 4.826790 -0.004591 0.000000 -0.121295 -0.013914 -0.114773
 15 5.792767 -0.005304 0.000000 -0.104177 -0.009875 -0.095402
 16 6.662317 -0.001453 0.000000 0.000000 -0.000001 0.471000
 17 2.046985 -0.000002 0.000000 0.590236 0.417670 -0.231243
 18 -3.112024 1.517254 4.341911 1.112977 -1.080328 1.608462
 19 4.827230 0.000000 0.000001 -0.773677 0.243005 -0.805890
 20 11.139763 0.000000 0.000000 0.000000 -0.000000 -1.371174
 21 10.314597 0.000001 0.000000 -2.987507 -0.064632 0.326449
 22 2.975834 -0.386307 -0.044143 -0.015250 -0.040890 0.340334
 23 1.438886 0.000000 0.000000 0.000000 -0.000000 0.662793
 24 1.485303 0.000000 0.000000 0.000000 -0.000000 0.688984
 25 -2.869898 1.399663 -4.140396 -0.614177 1.280067 2.075657
 26 4.972048 0.000000 0.000001 1.217009 -0.184370 -2.037601
 27 11.585355 0.000000 0.000000 0.000000 -0.000000 -0.621770
 28 10.127057 0.000000 0.000001 1.721618 0.262810 0.362604
 29 2.683750 -0.427338 0.044205 -0.005738 0.043239 -0.157060
 30 1.438885 -0.000001 0.000000 0.000000 -0.000000 0.732589
 31 1.485305 0.000001 0.000000 0.000000 -0.000000 1.168627
time 19
  0 0.235347 -0.235347 3.532833 -0.000000 -0.000000 -1.571254
  1 0.000000 0.000000 0.000000 -1.570795 -1.570796 0.000000
  2 -0.000005 0.000007 3.713255 -6.281131 3.115177 6.261712
  3 18.045721 0.000000 0.000000 0.000000 -0.000000 -0.121501
  4 17.597597 0.000000 0.000000 -0.002613 0.026036 0.099967
  5 3.793090 6.407221 0.000000 0.000000 -0.000000 1.570796
  6 0.000005 -0.000003 -3.713255 6.280565 -3.123995 6.258640
  7 18.045725 0.000000 0.000000 0.000000 -0.000000 -0.127551
  8 17.597597 0.000000 0.000000 0.002950 -0.017289 0.103055
  9 3.793090 6.407221 0.000000 0.000000 -0.000000 1.570796
 10 0.935740 0.000000 0.000000 0.000000 -0.000000 0.000000
 11 0.935741 0.000000 0.000000 0.000000 -0.000000 0.000000
 12 1.293670 0.684478 -0.000001 -0.000004 -0.000001 -0.007924
 13 5.309685 -0.003834 0.000000 -0.224662 -0.031052 -0.136031
 14 4.826790 -0.004591 0.000000 -0.121246 -0.014154 -0.116427
 15 5.792767 -0.005304 0.000000 -0.104177 -0.009875 -0.095402
 16 6.662317 -0.001453 0.000000 0.000000 -0.000001 0.471000
 17 2.046985 -0.000002 0.000000 0.590236 0.417513 -0.229535
 18 -3.112024 1.517254 4.341911 1.116237 -1.081251 1.604627
 19 4.827230 0.000000 0.000001 -0.774852 0.245643 -0.805890
 20 11.139763 0.000000 0.000000 0.000000 -0.000000 -1.371174
 21 10.314597 0.000001 0.000000 -2.987507 -0.064632 0.326449
 22 2.975834 -0.386307 -0.044143 -0.015250 -0.040890 0.340334
 23 1.438886 0.000000 0.000000 0.000000 -0.000000 0.662793
 24 1.485303 0.000000 0.000000 0.000000 -0.000000 0.688984
 25 -2.869898 1.399663 -4.140396 -0.619450 1.282243 2.069809
 26 4.972048 0.000000 0.000001 1.220026 -0.184370 -2.037667
 27 11.585355 0.000000 0.000000 0.000000 -0.000000 -0.621770
 28 10.127057 0.000000 0.000001 1.721618 0.262810 0.362604
 29 2.683750 -0.427338 0.044205 -0.005738 0.043239 -0.157060
 30 1.438885 -0.000001 0.000000 0.000000 -0.000000 0.732589
 31 1.485305 0.000001 0.000000 0.000000 -0.000000 1.168627
time 20
  0 0.235347 -0.235347 3.532833 -0.000000 -0.000000 -1.571254
  1 0.000000 0.000000 0.000000 -1.570795 -1.570796 0.000000
  2 -0.000005 0.000007 3.713255 -6.281131 3.115177 6.261712
  3 18.045721 0.000000 0.000000 0.000000 -0.000000 -0.121501
  4 17.597597 0.000000 0.000000 -0.002613 0.026036 0.099967
  5 3.793090 6.407221 0.000000 0.000000 -0.000000 1.570796
  6 0.000005 -0.000003 -3.713255 6.280565 -3.123995 6.258640
  7 18.045725 0.000000 0.000000 0.000000 -0.000000 -0.127551
  8 17.597597 0.000000 0.000000 0.002950 -0.017289 0.103055
  9 3.793090 6.407221 0.000000 0.000000 -0.000000 1.570796
 10 0.935740 0.000000 0.000000 0.000000 -0.000000 0.000000
 11 0.935741 0.000000 0.000000 0.000000 -0.000000 0.000000
 12 1.293670 0.684478 -0.000001 -0.000004 -0.000001 -0.007924
 13 5.309685 -0.003834 0.000000 -0.224662 -0.031052 -0.136031
 14 4.826790 -0.004591 0.000000 -0.121246 -0.014382 -0.118301
 15 5.792767 -0.005304 0.000000 -0.104177 -0.009875 -0.095402
 16 6.662317 -0.001453 0.000000 0.000000 -0.000001 0.471000
 17 2.046985 -0.000002 0.000000 0.590236 0.417310 -0.227827
 18 -3.112024 1.517254 4.341911 1.120743 -1.082328 1.599450
 19 4.827230 0.000000 0.000001 -0.776379 0.249302 -0.805890
 20 11.139763 0.000000 0.000000 0.000000 -0.000000 -1.371174
 21 10.314597 0.000001 0.000000 -2.987507 -0.064632 0.326449
 22 2.975834 -0.386307 -0.044143 -0.015250 -0.040890 0.340334
 23 1.438886 0.000000 0.000000 0.000000 -0.000000 0.662793
 24 1.485303 0.000000 0.000000 0.000000 -0.000000 0.688984
 25 -2.869898 1.399663 -4.140396 -0.626065 1.284872 2.063577
 26 4.972048 0.000000 0.000001 1.223971 -0.184611 -2.038128
 27 11.585355 0.000000 0.000000 0.000000 -0.000000 -0.621770
 28 10.127057 0.000000 0.000001 1.721618 0.262810 0.362604
 29 2.683750 -0.427338 0.044205 -0.005738 0.043239 -0.157060
 30 1.438885 -0.000001 0.000000 0.000000 -0.000000 0.732589
 31 1.485305 0.000001 0.000000 0.000000 -0.000000 1.168627
time 21
  0 0.235347 -0.235347 3.532833 -0.000000 -0.000000 -1.571254
  1 0.000000 0.000000 0.000000 -1.570795 -1.570796 0.000000
  2 -0.000005 0.000007 3.713255 -6.281131 3.115177 6.261712
  3 18.045721 0.000000 0.000000 0.000000 -0.000000 -0.121501
  4 17.597597 0.000000 0.000000 -0.002613 0.026036 0.099967
  5 3.793090 6.407221 0.000000 0.000000 -0.000000 1.570796
  6 0.000005 -0.000003 -3.713255 6.280565 -3.123995 6.258640
  7 18.045725 0.000000 0.000000 0.000000 -0.000000 -0.127551
  8 17.597597 0.000000 0.000000 0.002950 -0.017289 0.103055
  9 3.793090 6.407221 0.000000 0.000000 -0.000000 1.570796
 10 0.935740 0.000000 0.000000 0.000000 -0.000000 0.000000
 11 0.935741 0.000000 0.000000 0.000000 -0.000000 0.000000
 12 1.293670 0.684478 -0.000001 -0.000004 -0.000001 -0.007924
 13 5.309685 -0.003834 0.000000 -0.224662 -0.031052 -0.136031
 14 4.826790 -0.004591 0.000000 -0.121213 -0.014597 -0.120440
 15 5.792767 -0.005304 0.000000 -0.104177 -0.009875 -0.095402
 16 6.662317 -0.001453 0.000000 0.000000 -0.000001 0.471000
 17 2.046985 -0.000002 0.000000 0.590236 0.417085 -0.225714
 18 -3.112024 1.517254 4.341911 1.125728 -1.083598 1.593985
 19 4.827230 0.000000 0.000001 -0.777965 0.253302 -0.805890
 20 11.139763 0.000000 0.000000 0.000000 -0.000000 -1.371174
 21 10.314597 0.000001 0.000000 -2.987507 -0.064632 0.326449
 22 2.975834 -0.386307 -0.044143 -0.015250 -0.040890 0.340334
 23 1.438886 0.000000 0.000000 0.000000 -0.000000 0.662793
 24 1.485303 0.000000 0.000000 0.000000 -0.000000 0.688984
 25 -2.869898 1.399663 -4.140396 -0.633064 1.287783 2.055907
 26 4.972048 0.000000 0.000001 1.228303 -0.184772 -2.038391
 27 11.585355 0.000000 0.000000 0.000000 -0.000000 -0.621770
 28 10.127057 0.000000 0.000001 1.721618 0.262810 0.362604
 29 2.683750 -0.427338 0.044205 -0.005738 0.043239 -0.157060
 30 1.438885 -0.000001 0.000000 0.000000 -0.000000 0.732589
 31 1.485305 0.000001 0.000000 0.000000 -0.000000 1.168627
time 22
  0 0.235347 -0.235347 3.532833 -0.000000 -0.000000 -1.571254
  1 0.000000 0.000000 0.000000 -1.570795 -1.570796 0.000000
  2 -0.000005 0.000007 3.713255 -6.281131 3.115177 6.261712
  3 18.045721 0.000000 0.000000 0.000000 -0.000000 -0.121501
  4 17.597597 0.000000 0.000000 -0.002613 0.026036 0.099967
  5 3.793090 6.407221 0.000000 0.000000 -0.000000 1.570796
  6 0.000005 -0.000003 -3.713255 6.280565 -3.123995 6.258640
  7 18.045725 0.000000 0.000000 0.000000 -0.000000 -0.127551
  8 17.597597 0.000000 0.000000 0.002950 -0.017289 0.103055
  9 3.793090 6.407221 0.000000 0.000000 -0.000000 1.570796
 10 0.935740 0.000000 0.000000 0.000000 -0.000000 0.000000
 11 0.935741 0.000000 0.000000 0.000000 -0.000000 0.000000
 12 1.293670 0.684478 -0.000001 -0.000004 -0.000001 -0.007924
 13 5.309685 -0.003834 0.000000 -0.224662 -0.031052 -0.136031
 14 4.826790 -0.004591 0.000000 -0.121180 -0.014921 -0.122733
 15 5.792767 -0.005304 0.000000 -0.104177 -0.009875 -0.095402
 16 6.662317 -0.001453 0.000000 0.000000 -0.000001 0.471000
 17 2.046985 -0.000002 0.000000 0.590193 0.416860 -0.223422
 18 -3.112024 1.517254 4.341911 1.130522 -1.084905 1.588328
 19 4.827230 0.000000 0.000001 -0.779903 0.257642 -0.805890
 20 11.139763 0.000000 0.000000 0.000000 -0.000000 -1.371174
 21 10.314597 0.000001 0.000000 -2.987507 -0.064632 0.326449
 22 2.975834 -0.386307 -0.044143 -0.015250 -0.040890 0.340334
 23 1.438886 0.000000 0.000000 0.000000 -0.000000 0.662793
 24 1.485303 0.000000 0.000000 0.000000 -0.000000 0.688984
 25 -2.869898 1.399663 -4.140396 -0.641117 1.290779 2.047662
 26 4.972048 0.000000 0.000001 1.232944 -0.184933 -2.038655
 27 11.585355 0.000000 0.000000 0.000000 -0.000000 -0.621770
 28 10.127057 0.000000 0.000001 1.721618 0.262810 0.362604
 29 2.683750 -0.427338 0.044205 -0.005738 0.043239 -0.157060
 30 1.438885 -0.000001 0.000000 0.000000 -0.000000 0.732589
 31 1.485305 0.000001 0.000000 0.000000 -0.000000 1.168627
time 23
  0 0.235347 -0.235347 3.532833 -0.000000 -0.000000 -1.571254
  1 0.000000 0.000000 0.000000 -1.570795 -1.570796 0.000000
  2 -0.000005 0.000007 3.713255 -6.281131 3.115177 6.261712
  3 18.045721 0.000000 0.000000 0.000000 -0.000000 -0.121501
  4 17.597597 0.000000 0.000000 -0.002613 0.026036 0.099967
  5 3.793090 6.407221 0.000000 0.000000 -0.000000 1.570796
  6 0.000005 -0.000003 -3.713255 6.280565 -3.123995 6.258640
  7 18.045725 0.000000 0.000000 0.000000 -0.000000 -0.127551
  8 17.597597 0.000000 0.000000 0.002950 -0.017289 0.103055
  9 3.793090 6.407221 0.000000 0.000000 -0.000000 1.570796
 10 0.935740 0.000000 0.000000 0.000000 -0.000000 0.000000
 11 0.935741 0.000000 0.000000 0.000000 -0.000000 0.000000
 12 1.293670 0.684478 -0.000001 -0.000004 -0.000001 -0.007924
 13 5.309685 -0.003834 0.000000 -0.224662 -0.031052 -0.136031
 14 4.826790 -0.004591 0.000000 -0.121164 -0.015161 -0.125114
 15 5.792767 -0.005304 0.000000 -0.104177 -0.009875 -0.095402
 16 6.662317 -0.001453 0.000000 0.000000 -0.000001 0.471000
 17 2.046985 -0.000002 0.000000 0.590150 0.416612 -0.220950
 18 -3.112024 1.517254 4.341911 1.136466 -1.086251 1.582096
 19 4.827230 0.000000 0.000001 -0.781724 0.262493 -0.805890
 20 11.139763 0.000000 0.000000 0.000000 -0.000000 -1.371174
 21 10.314597 0.000001 0.000000 -2.987507 -0.064632 0.326449
 22 2.975834 -0.386307 -0.044143 -0.015250 -0.040890 0.340334
 23 1.438886 0.000000 0.000000 0.000000 -0.000000 0.662793
 24 1.485303 0.000000 0.000000 0.000000 -0.000000 0.688984
 25 -2.869898 1.399663 -4.140396 -0.649554 1.293973 2.038842
 26 4.972048 0.000000 0.000001 1.237740 -0.185174 -2.039116
 27 11.585355 0.000000 0.000000 0.000000 -0.000000 -0.621770
 28 10.127057 0.000000 0.000001 1.721618 0.262810 0.362604
 29 2.683750 -0.427338 0.044205 -0.005738 0.043239 -0.157060
 30 1.438885 -0.000001 0.000000 0.000000 -0.000000 0.732589
 31 1.485305 0.000001 0.000000 0.000000 -0.000000 1.168627
time 24
  0 0.235347 -0.235347 3.532833 -0.000000 -0.000000 -1.571254
  1 0.000000 0.000000 0.000000 -1.570795 -1.570796 0.000000
  2 -0.000005 0.000007 3.713255 -6.281131 3.115177 6.261712
  3 18.045721 0.000000 0.000000 0.000000 -0.000000 -0.121501
  4 17.597597 0.000000 0.000000 -0.002613 0.026036 0.099967
  5 3.793090 6.407221 0.000000 0.000000 -0.000000 1.570796
  6 0.000005 -0.000003 -3.713255 6.280565 -3.123995 6.258640
  7 18.045725 0.000000 0.000000 0.000000 -0.000000 -0.127551
  8 17.597597 0.000000 0.000000 0.002950 -0.017289 0.103055
  9 3.793090 6.407221 0.000000 0.000000 -0.000000 1.570796
 10 0.935740 0.000000 0.000000 0.000000 -0.000000 0.000000
 11 0.935741 0.000000 0.000000 0.000000 -0.000000 0.000000
 12 1.293670 0.684478 -0.000001 -0.000004 -0.000001 -0.007924
 13 5.309685 -0.003834 0.000000 -0.224662 -0.031052 -0.136031
 14 4.826790 -0.004591 0.000000 -0.121098 -0.015460 -0.127451
 15 5.792767 -0.005304 0.000000 -0.104177 -0.009875 -0.095402
 16 6.662317 -0.001453 0.000000 0.000000 -0.000001 0.471000
 17 2.046985 -0.000002 0.000000 0.590107 0.416365 -0.218477
 18 -3.112024 1.517254 4.341911 1.141931 -1.087559 1.575960
 19 4.827230 0.000000 0.000001 -0.783662 0.266748 -0.805890
 20 11.139763 0.000000 0.000000 0.000000 -0.000000 -1.371174
 21 10.314597 0.000001 0.000000 -2.987507 -0.064632 0.326449
 22 2.975834 -0.386307 -0.044143 -0.015250 -0.040890 0.340334
 23 1.438886 0.000000 0.000000 0.000000 -0.000000 0.662793
 24 1.485303 0.000000 0.000000 0.000000 -0.000000 0.688984
 25 -2.869898 1.399663 -4.140396 -0.657991 1.297167 2.029830
 26 4.972048 0.000000 0.000001 1.242691 -0.185496 -2.039577
 27 11.585355 0.000000 0.000000 0.000000 -0.000000 -0.621770
 28 10.127057 0.000000 0.000001 1.721618 0.262810 0.362604
 29 2.683750 -0.427338 0.044205 -0.005738 0.043239 -0.157060
 30 1.438885 -0.000001 0.000000 0.000000 -0.000000 0.732589
 31 1.485305 0.000001 0.000000 0.000000 -0.000000 1.168627
time 25
  0 0.235347 -0.235347 3.532833 -0.000000 -0.000000 -1.571254
  1 0.000000 0.000000 0.000000 -1.570795 -1.570796 0.000000
  2 -0.000005 0.000007 3.713255 -6.281131 3.115177 6.261712
  3 18.045721 0.000000 0.000000 0.000000 -0.000000 -0.121501
  4 17.597597 0.000000 0.000000 -0.002613 0.026036 0.099967
  5 3.793090 6.407221 0.000000 0.000000 -0.000000 1.570796
  6 0.000005 -0.000003 -3.713255 6.280565 -3.123995 6.258640
  7 18.045725 0.000000 0.000000 0.000000 -0.000000 -0.127551
  8 17.597597 0.000000 0.000000 0.002950 -0.017289 0.103055
  9 3.793090 6.407221 0.000000 0.000000 -0.000000 1.570796
 10 0.935740 0.000000 0.000000 0.000000 -0.000000 0.000000
 11 0.935741 0.000000 0.000000 0.000000 -0.000000 0.000000
 12 1.293670 0.684478 -0.000001 -0.000004 -0.000001 -0.007924
 13 5.309685 -0.003834 0.000000 -0.224662 -0.031052 -0.136031
 14 4.826790 -0.004591 0.000000 -0.121065 -0.015784 -0.129788
 15 5.792767 -0.005304 0.000000 -0.104177 -0.009875 -0.095402
 16 6.662317 -0.001453 0.000000 0.000000 -0.000001 0.471000
 17 2.046985 -0.000002 0.000000 0.590064 0.416117 -0.216320
 18 -3.112024 1.517254 4.341911 1.147204 -1.088905 1.569345
 19 4.827230 0.000000 0.000001 -0.785542 0.271173 -0.805890
 20 11.139763 0.000000 0.000000 0.000000 -0.000000 -1.371174
 21 10.314597 0.000001 0.000000 -2.987507 -0.064632 0.326449
 22 2.975834 -0.386307 -0.044143 -0.015250 -0.040890 0.340334
 23 1.438886 0.000000 0.000000 0.000000 -0.000000 0.662793
 24 1.485303 0.000000 0.000000 0.000000 -0.000000 0.688984
 25 -2.869898 1.399663 -4.140396 -0.666907 1.300304 2.020818
 26 4.972048 0.000000 0.000001 1.247487 -0.185657 -2.039972
 27 11.585355 0.000000 0.000000 0.000000 -0.000000 -0.621770
 28 10.127057 0.000000 0.000001 1.721618 0.262810 0.362604
 29 2.683750 -0.427338 0.044205 -0.005738 0.043239 -0.157060
 30 1.438885 -0.000001 0.000000 0.000000 -0.000000 0.732589
 31 1.485305 0.000001 0.000000 0.000000 -0.000000 1.168627
time 26
  0 0.235347 -0.235347 3.532833 -0.000000 -0.000000 -1.571254
  1 0.000000 0.000000 0.000000 -1.570795 -1.570796 0.000000
  2 -0.000005 0.000007 3.713255 -6.281131 3.115177 6.261712
  3 18.045721 0.000000 0.000000 0.000000 -0.000000 -0.121501
  4 17.597597 0.000000 0.000000 -0.002613 0.026036 0.099967
  5 3.793090 6.407221 0.000000 0.000000 -0.000000 1.570796
  6 0.000005 -0.000003 -3.713255 6.280565 -3.123995 6.258640
  7 18.045725 0.000000 0.000000 0.000000 -0.000000 -0.127551
  8 17.597597 0.000000 0.000000 0.002950 -0.017289 0.103055
  9 3.793090 6.407221 0.000000 0.000000 -0.000000 1.570796
 10 0.935740 0.000000 0.000000 0.000000 -0.000000 0.000000
 11 0.935741 0.000000 0.000000 0.000000 -0.000000 0.000000
 12 1.293670 0.684478 -0.000001 -0.000004 -0.000001 -0.007924
 13 5.309685 -0.003834 0.000000 -0.224662 -0.031052 -0.136031
 14 4.826790 -0.004591 0.000000 -0.121049 -0.016011 -0.132037
 15 5.792767 -0.005304 0.000000 -0.104177 -0.009875 -0.095402
 16 6.662317 -0.001453 0.000000 0.000000 -0.000001 0.471000
 17 2.046985 -0.000002 0.000000 0.590021 0.415892 -0.214073
 18 -3.112024 1.517254 4.341911 1.152477 -1.090136 1.563592
 19 4.827230 0.000000 0.000001 -0.787304 0.275428 -0.806065
 20 11.139763 0.000000 0.000000 0.000000 -0.000000 -1.371174
 21 10.314597 0.000001 0.000000 -2.987507 -0.064632 0.326449
 22 2.975834 -0.386307 -0.044143 -0.015250 -0.040890 0.340334
 23 1.438886 0.000000 0.000000 0.000000 -0.000000 0.662793
 24 1.485303 0.000000 0.000000 0.000000 -0.000000 0.688984
 25 -2.869898 1.399663 -4.140396 -0.675344 1.303300 2.012189
 26 4.972048 0.000000 0.000001 1.252051 -0.185818 -2.040236
 27 11.585355 0.000000 0.000000 0.000000 -0.000000 -0.621770
 28 10.127057 0.000000 0.000001 1.721618 0.262810 0.362604
 29 2.683750 -0.427338 0.044205 -0.005738 0.043239 -0.157060
 30 1.438885 -0.000001 0.000000 0.000000 -0.000000 0.732589
 31 1.485305 0.000001 0.000000 0.000000 -0.000000 1.168627
time 27
  0 0.235347 -0.235347 3.532833 -0.000000 -0.000000 -1.571254
  1 0.000000 0.000000 0.000000 -1.570795 -1.570796 0.000000
  2 -0.000005 0.000007 3.713255 -6.281131 3.115177 6.261712
  3 18.045721 0.000000 0.000000 0.000000 -0.000000 -0.121501
  4 17.597597 0.000000 0.000000 -0.002613 0.026036 0.099967
  5 3.793090 6.407221 0.000000 0.000000 -0.000000 1.570796
  6 0.000005 -0.000003 -3.713255 6.280565 -3.123995 6.258640
  7 18.045725 0.000000 0.000000 0.000000 -0.000000 -0.127551
  8 17.597597 0.000000 0.000000 0.002950 -0.017289 0.103055
  9 3.793090 6.407221 0.000000 0.000000 -0.000000 1.570796
 10 0.935740 0.000000 0.000000 0.000000 -0.000000 0.000000
 11 0.935741 0.000000 0.000000 0.000000 -0.000000 0.000000
 12 1.293670 0.684478 -0.000001 -0.000004 -0.000001 -0.007924
 13 5.309685 -0.003834 0.000000 -0.224662 -0.031052 -0.136031
 14 4.826790 -0.004591 0.000000 -0.121016 -0.016263 -0.134154
 15 5.792767 -0.005304 0.000000 -0.104177 -0.009875 -0.095402
 16 6.662317 -0.001453 0.000000 0.000000 -0.000001 0.471000
 17 2.046985 -0.000002 0.000000 0.589805 0.415667 -0.212050
 18 -3.112024 1.517254 4.341911 1.157654 -1.091213 1.558223
 19 4.827230 0.000000 0.000001 -0.788890 0.279428 -0.806065
 20 11.139763 0.000000 0.000000 0.000000 -0.000000 -1.371174
 21 10.314597 0.000001 0.000000 -2.987507 -0.064632 0.326449
 22 2.975834 -0.386307 -0.044143 -0.015250 -0.040890 0.340334
 23 1.438886 0.000000 0.000000 0.000000 -0.000000 0.662793
 24 1.485303 0.000000 0.000000 0.000000 -0.000000 0.688984
 25 -2.869898 1.399663 -4.140396 -0.683397 1.305957 2.003944
 26 4.972048 0.000000 0.000001 1.256228 -0.186059 -2.040697
 27 11.585355 0.000000 0.000000 0.000000 -0.000000 -0.621770
 28 10.127057 0.000000 0.000001 1.721618 0.262810 0.362604
 29 2.683750 -0.427338 0.044205 -0.005738 0.043239 -0.157060
 30 1.438885 -0.000001 0.000000 0.000000 -0.000000 0.732589
 31 1.485305 0.000001 0.000000 0.000000 -0.000000 1.168627
time 28
  0 0.235347 -0.235347 3.532833 -0.000000 -0.000000 -1.571254
  1 0.000000 0.000000 0.000000 -1.570795 -1.570796 0.000000
  2 -0.000005 0.000007 3.713255 -6.281131 3.115177 6.261712
  3 18.045721 0.000000 0.000000 0.000000 -0.000000 -0.121501
  4 17.597597 0.000000 0.000000 -0.002613 0.026036 0.099967
  5 3.793090 6.407221 0.000000 0.000000 -0.000000 1.570796
  6 0.000005 -0.000003 -3.713255 6.280565 -3.123995 6.258640
  7 18.045725 0.000000 0.000000 0.000000 -0.000000 -0.127551
  8 17.597597 0.000000 0.000000 0.002950 -0.017289 0.103055
  9 3.793090 6.407221 0.000000 0.000000 -0.000000 1.570796
 10 0.935740 0.000000 0.000000 0.000000 -0.000000 0.000000
 11 0.935741 0.000000 0.000000 0.000000 -0.000000 0.000000
 12 1.293670 0.684478 -0.000001 -0.000004 -0.000001 -0.007924
 13 5.309685 -0.003834 0.000000 -0.224662 -0.031052 -0.136031
 14 4.826790 -0.004591 0.000000 -0.120983 -0.016527 -0.135962
 15 5.792767 -0.005304 0.000000 -0.104177 -0.009875 -0.095402
 16 6.662317 -0.001453 0.000000 0.000000 -0.000001 0.471000
 17 2.046985 -0.000002 0.000000 0.589762 0.415487 -0.210252
 18 -3.112024 1.517254 4.341911 1.161489 -1.092213 1.553142
 19 4.827230 0.000000 0.000001 -0.790358 0.282747 -0.806065
 20 11.139763 0.000000 0.000000 0.000000 -0.000000 -1.371174
 21 10.314597 0.000001 0.000000 -2.987507 -0.064632 0.326449
 22 2.975834 -0.386307 -0.044143 -0.015250 -0.040890 0.340334
 23 1.438886 0.000000 0.000000 0.000000 -0.000000 0.662793
 24 1.485303 0.000000 0.000000 0.000000 -0.000000 0.688984
 25 -2.869898 1.399663 -4.140396 -0.690492 1.308246 1.996370
 26 4.972048 0.000000 0.000001 1.259941 -0.186220 -2.041026
 27 11.585355 0.000000 0.000000 0.000000 -0.000000 -0.621770
 28 10.127057 0.000000 0.000001 1.721618 0.262810 0.362604
 29 2.683750 -0.427338 0.044205 -0.005738 0.043239 -0.157060
 30 1.438885 -0.000001 0.000000 0.000000 -0.000000 0.732589
 31 1.485305 0.000001 0.000000 0.000000 -0.000000 1.168627
time 29
  0 0.235347 -0.235347 3.532833 -0.000000 -0.000000 -1.571254
  1 0.000000 0.000000 0.000000 -1.570795 -1.570796 0.000000
  2 -0.000005 0.000007 3.713255 -6.281131 3.115177 6.261712
  3 18.045721 0.000000 0.000000 0.000000 -0.000000 -0.121501
  4 17.597597 0.000000 0.000000 -0.002613 0.026036 0.099967
  5 3.793090 6.407221 0.000000 0.000000 -0.000000 1.570796
  6 0.000005 -0.000003 -3.713255 6.280565 -3.123995 6.258640
  7 18.045725 0.000000 0.000000 0.000000 -0.000000 -0.127551
  8 17.597597 0.000000 0.000000 0.002950 -0.017289 0.103055
  9 3.793090 6.407221 0.000000 0.000000 -0.000000 1.570796
 10 0.935740 0.000000 0.000000 0.000000 -0.000000 0.000000
 11 0.935741 0.000000 0.000000 0.000000 -0.000000 0.000000
 12 1.293670 0.684478 -0.000001 -0.000004 -0.000001 -0.007924
 13 5.309685 -0.003834 0.000000 -0.224662 -0.031052 -0.136031
 14 4.826790 -0.004591 0.000000 -0.120934 -0.016707 -0.137439
 15 5.792767 -0.005304 0.000000 -0.104177 -0.009875 -0.095402
 16 6.662317 -0.001453 0.000000 0.000000 -0.000001 0.471000
 17 2.046985 -0.000002 0.000000 0.589719 0.415329 -0.208814
 18 -3.112024 1.517254 4.341911 1.165324 -1.092982 1.549211
 19 4.827230 0.000000 0.000001 -0.791474 0.285555 -0.806240
 20 11.139763 0.000000 0.000000 0.000000 -0.000000 -1.371174
 21 10.314597 0.000001 0.000000 -2.987507 -0.064632 0.326449
 22 2.975834 -0.386307 -0.044143 -0.015250 -0.040890 0.340334
 23 1.438886 0.000000 0.000000 0.000000 -0.000000 0.662793
 24 1.485303 0.000000 0.000000 0.000000 -0.000000 0.688984
 25 -2.869898 1.399663 -4.140396 -0.696340 1.310253 1.990234
 26 4.972048 0.000000 0.000001 1.262803 -0.186381 -2.041290
 27 11.585355 0.000000 0.000000 0.000000 -0.000000 -0.621770
 28 10.127057 0.000000 0.000001 1.721618 0.262810 0.362604
 29 2.683750 -0.427338 0.044205 -0.005738 0.043239 -0.157060
 30 1.438885 -0.000001 0.000000 0.000000 -0.000000 0.732589
 31 1.485305 0.000001 0.000000 0.000000 -0.000000 1.168627
time 30
  0 0.235347 -0.235347 3.532833 -0.000000 -0.000000 -1.571254
  1 0.000000 0.000000 0.000000 -1.570795 -1.570796 0.000000
  2 -0.000005 0.000007 3.713255 -6.281131 3.115177 6.261712
  3 18.045721 0.000000 0.000000 0.000000 -0.000000 -0.121501
  4 17.597597 0.000000 0.000000 -0.002613 0.026036 0.099967
  5 3.793090 6.407221 0.000000 0.000000 -0.000000 1.570796
  6 0.000005 -0.000003 -3.713255 6.280565 -3.123995 6.258640
  7 18.045725 0.000000 0.000000 0.000000 -0.000000 -0.127551
  8 17.597597 0.000000 0.000000 0.002950 -0.017289 0.103055
  9 3.793090 6.407221 0.000000 0.000000 -0.000000 1.570796
 10 0.935740 0.000000 0.000000 0.000000 -0.000000 0.000000
 11 0.935741 0.000000 0.000000 0.000000 -0.000000 0.000000
 12 1.293670 0.684478 -0.000001 -0.000004 -0.000001 -0.007924
 13 5.309685 -0.003834 0.000000 -0.224662 -0.031052 -0.136031
 14 4.826790 -0.004591 0.000000 -0.120934 -0.016790 -0.138453
 15 5.792767 -0.005304 0.000000 -0.104177 -0.009875 -0.095402
 16 6.662317 -0.001453 0.000000 0.000000 -0.000001 0.471000
 17 2.046985 -0.000002 0.000000 0.589719 0.415217 -0.207735
 18 -3.112024 1.517254 4.341911 1.167624 -1.093559 1.546622
 19 4.827230 0.000000 0.000001 -0.792355 0.287853 -0.806240
 20 11.139763 0.000000 0.000000 0.000000 -0.000000 -1.371174
 21 10.314597 0.000001 0.000000 -2.987507 -0.064632 0.326449
 22 2.975834 -0.386307 -0.044143 -0.015250 -0.040890 0.340334
 23 1.438886 0.000000 0.000000 0.000000 -0.000000 0.662793
 24 1.485303 0.000000 0.000000 0.000000 -0.000000 0.688984
 25 -2.869898 1.399663 -4.140396 -0.700750 1.311553 1.985824
 26 4.972048 0.000000 0.000001 1.264969 -0.186381 -2.041553
 27 11.585355 0.000000 0.000000 0.000000 -0.000000 -0.621770
 28 10.127057 0.000000 0.000001 1.721618 0.262810 0.362604
 29 2.683750 -0.427338 0.044205 -0.005738 0.043239 -0.157060
 30 1.438885 -0.000001 0.000000 0.000000 -0.000000 0.732589
 31 1.485305 0.000001 0.000000 0.000000 -0.000000 1.168627
end
