version 1
nodes
  0 "Bip01"  -1
  1 "Bip01 Pelvis"   0
  2 "Bip01 L Leg"   1
  3 "Bip01 L Leg1"   2
  4 "Bip01 L Foot"   3
  5 "Bip01 L Toe0"   4
  6 "Bip01 R Leg"   1
  7 "Bip01 R Leg1"   6
  8 "Bip01 R Foot"   7
  9 "Bip01 R Toe0"   8
 10 "Bip01 R Toe01"   9
 11 "Bip01 R Toe02"  10
 12 "Bip01 Spine"   1
 13 "Bip01 Spine1"  12
 14 "Bip01 Spine2"  13
 15 "Bip01 Spine3"  14
 16 "Bip01 Neck"  15
 17 "Bip01 Head"  16
 18 "Bip01 L Arm"  16
 19 "Bip01 L Arm1"  18
 20 "Bip01 L Arm2"  19
 21 "Bip01 L Hand"  20
 22 "Bip01 L Finger1"  21
 23 "Bip01 L Finger11"  22
 24 "Bip01 L Finger12"  23
 25 "Bip01 R Arm"  16
 26 "Bip01 R Arm1"  25
 27 "Bip01 R Arm2"  26
 28 "Bip01 R Hand"  27
 29 "Bip01 R Finger1"  28
 30 "Bip01 R Finger11"  29
 31 "Bip01 R Finger12"  30
end
skeleton
time 0
  0 0.235347 -0.235347 3.532833 -0.000000 -0.000000 -1.571254
  1 0.000000 0.000000 0.000000 -1.570795 -1.570796 0.000000
  2 -0.000005 0.000007 3.713255 -6.279788 3.158894 6.191818
  3 18.045721 0.000000 0.000000 0.000000 -0.000000 -0.243566
  4 17.597597 0.000000 0.000000 -0.001675 -0.017562 0.152217
  5 3.793090 6.407221 0.000000 0.000000 -0.000000 1.570796
  6 0.000005 -0.000003 -3.713255 0.355278 3.115745 -0.017353
  7 18.045725 0.000000 0.000000 0.000000 -0.000000 -0.267080
  8 17.597597 0.000000 0.000000 0.202624 0.017977 0.241823
  9 3.793090 6.407221 0.000000 0.000000 -0.000000 1.570796
 10 0.935740 0.000000 0.000000 0.000000 -0.000000 0.000000
 11 0.935741 0.000000 0.000000 0.000000 -0.000000 0.000000
 12 1.293670 0.684478 -0.000001 -0.000004 -0.000001 0.061735
 13 5.309685 -0.003834 0.000000 -0.258329 0.042905 0.160106
 14 4.826790 -0.004591 0.000000 0.000000 0.000000 0.183077
 15 5.792767 -0.005304 0.000000 0.000000 -0.000000 0.287817
 16 6.662317 -0.001453 0.000000 0.000000 -0.000001 0.209256
 17 2.046985 -0.000002 0.000000 0.150661 -0.214812 0.104786
 18 -3.393283 0.661759 4.341911 1.008188 -1.207639 1.954191
 19 4.827230 0.000000 0.000001 -0.377853 0.911301 -0.791713
 20 11.139763 0.000000 0.000000 0.000000 -0.000000 -1.914924
 21 10.314597 0.000001 0.000000 -1.174525 -0.598122 -0.222470
 22 2.975834 -0.386307 -0.044143 0.001097 -0.043611 -0.043588
 23 1.438886 0.000000 0.000000 0.000000 -0.000000 1.334476
 24 1.485303 0.000000 0.000000 0.000000 -0.000000 0.793621
 25 -3.131625 0.610576 -4.140396 -1.212809 1.046068 1.768863
 26 4.972048 0.000000 0.000001 0.156089 -0.753329 -0.225251
 27 11.585355 0.000000 0.000000 0.000000 -0.000000 -1.961934
 28 10.127057 0.000000 0.000001 1.667089 0.765311 -0.200791
 29 2.683750 -0.427338 0.044205 -0.005738 0.043239 -0.157060
 30 1.438885 -0.000001 0.000000 0.000000 -0.000000 0.732589
 31 1.485305 0.000001 0.000000 0.000000 -0.000000 1.168627
time 1
  0 0.235347 -0.235347 3.532833 -0.000000 -0.000000 -1.571254
  1 0.000000 0.000000 0.000000 -1.570795 -1.570796 0.000000
  2 -0.000005 0.000007 3.713255 -6.279788 3.158894 6.191818
  3 18.045721 0.000000 0.000000 0.000000 -0.000000 -0.243566
  4 17.597597 0.000000 0.000000 -0.001675 -0.017562 0.152217
  5 3.793090 6.407221 0.000000 0.000000 -0.000000 1.570796
  6 0.000005 -0.000003 -3.713255 0.355278 3.115745 -0.017353
  7 18.045725 0.000000 0.000000 0.000000 -0.000000 -0.267080
  8 17.597597 0.000000 0.000000 0.202624 0.017977 0.241823
  9 3.793090 6.407221 0.000000 0.000000 -0.000000 1.570796
 10 0.935740 0.000000 0.000000 0.000000 -0.000000 0.000000
 11 0.935741 0.000000 0.000000 0.000000 -0.000000 0.000000
 12 1.293670 0.684478 -0.000001 -0.000004 -0.000001 0.061735
 13 5.309685 -0.003834 0.000000 -0.257276 0.048873 0.182938
 14 4.826790 -0.004591 0.000000 0.037914 -0.007047 0.183011
 15 5.792767 -0.005304 0.000000 0.000000 -0.000000 0.287817
 16 6.662317 -0.001453 0.000000 0.000000 -0.000001 0.209256
 17 2.046985 -0.000002 0.000000 0.122183 -0.188090 0.086897
 18 -3.393283 0.661759 4.341911 1.008188 -1.207639 1.954191
 19 4.827230 0.000000 0.000001 -0.535384 0.724590 -0.948708
 20 11.139763 0.000000 0.000000 0.000000 -0.000000 -1.598794
 21 10.314597 0.000001 0.000000 -1.344939 -0.598122 -0.222470
 22 2.975834 -0.386307 -0.044143 0.001097 -0.043611 -0.043588
 23 1.438886 0.000000 0.000000 0.000000 -0.000000 1.334476
 24 1.485303 0.000000 0.000000 0.000000 -0.000000 0.793621
 25 -3.131625 0.610576 -4.140396 -1.212809 1.046068 1.768863
 26 4.972048 0.000000 0.000001 0.390706 -0.671440 -0.538672
 27 11.585355 0.000000 0.000000 0.000000 -0.000000 -1.659510
 28 10.127057 0.000000 0.000001 1.741302 0.715093 -0.135363
 29 2.683750 -0.427338 0.044205 -0.005738 0.043239 -0.157060
 30 1.438885 -0.000001 0.000000 0.000000 -0.000000 0.732589
 31 1.485305 0.000001 0.000000 0.000000 -0.000000 1.168627
time 2
  0 0.235347 -0.235347 3.532833 -0.000000 -0.000000 -1.571254
  1 0.000000 0.000000 0.000000 -1.570795 -1.570796 0.000000
  2 -0.000005 0.000007 3.713255 -6.279788 3.158894 6.191818
  3 18.045721 0.000000 0.000000 0.000000 -0.000000 -0.243566
  4 17.597597 0.000000 0.000000 -0.001675 -0.017562 0.152217
  5 3.793090 6.407221 0.000000 0.000000 -0.000000 1.570796
  6 0.000005 -0.000003 -3.713255 0.355278 3.115745 -0.017353
  7 18.045725 0.000000 0.000000 0.000000 -0.000000 -0.267080
  8 17.597597 0.000000 0.000000 0.202624 0.017977 0.241823
  9 3.793090 6.407221 0.000000 0.000000 -0.000000 1.570796
 10 0.935740 0.000000 0.000000 0.000000 -0.000000 0.000000
 11 0.935741 0.000000 0.000000 0.000000 -0.000000 0.000000
 12 1.293670 0.684478 -0.000001 -0.000004 -0.000001 0.061735
 13 5.309685 -0.003834 0.000000 -0.255403 0.057957 0.217631
 14 4.826790 -0.004591 0.000000 0.095565 -0.017701 0.182239
 15 5.792767 -0.005304 0.000000 0.000000 -0.000000 0.287817
 16 6.662317 -0.001453 0.000000 0.000000 -0.000001 0.209256
 17 2.046985 -0.000002 0.000000 0.077291 -0.149729 0.058850
 18 -3.393283 0.661759 4.341911 1.008188 -1.207639 1.954191
 19 4.827230 0.000000 0.000001 -0.690389 0.428099 -1.107716
 20 11.139763 0.000000 0.000000 0.000000 -0.000000 -1.123442
 21 10.314597 0.000001 0.000000 -1.601279 -0.598122 -0.222470
 22 2.975834 -0.386307 -0.044143 0.001097 -0.043611 -0.043588
 23 1.438886 0.000000 0.000000 0.000000 -0.000000 1.334476
 24 1.485303 0.000000 0.000000 0.000000 -0.000000 0.793621
 25 -3.131625 0.610576 -4.140396 -1.212809 1.046068 1.768863
 26 4.972048 0.000000 0.000001 0.621610 -0.450388 -0.899983
 27 11.585355 0.000000 0.000000 0.000000 -0.000000 -1.206540
 28 10.127057 0.000000 0.000001 1.839212 0.633662 -0.051185
 29 2.683750 -0.427338 0.044205 -0.005738 0.043239 -0.157060
 30 1.438885 -0.000001 0.000000 0.000000 -0.000000 0.732589
 31 1.485305 0.000001 0.000000 0.000000 -0.000000 1.168627
time 3
  0 0.235347 -0.235347 3.532833 -0.000000 -0.000000 -1.571254
  1 0.000000 0.000000 0.000000 -1.570795 -1.570796 0.000000
  2 -0.000005 0.000007 3.713255 -6.279788 3.158894 6.191818
  3 18.045721 0.000000 0.000000 0.000000 -0.000000 -0.243566
  4 17.597597 0.000000 0.000000 -0.001675 -0.017562 0.152217
  5 3.793090 6.407221 0.000000 0.000000 -0.000000 1.570796
  6 0.000005 -0.000003 -3.713255 0.355278 3.115745 -0.017353
  7 18.045725 0.000000 0.000000 0.000000 -0.000000 -0.267080
  8 17.597597 0.000000 0.000000 0.202624 0.017977 0.241823
  9 3.793090 6.407221 0.000000 0.000000 -0.000000 1.570796
 10 0.935740 0.000000 0.000000 0.000000 -0.000000 0.000000
 11 0.935741 0.000000 0.000000 0.000000 -0.000000 0.000000
 12 1.293670 0.684478 -0.000001 -0.000004 -0.000001 0.061735
 13 5.309685 -0.003834 0.000000 -0.253775 0.064968 0.244628
 14 4.826790 -0.004591 0.000000 0.140375 -0.026031 0.181247
 15 5.792767 -0.005304 0.000000 0.000000 -0.000000 0.287817
 16 6.662317 -0.001453 0.000000 0.000000 -0.000001 0.209256
 17 2.046985 -0.000002 0.000000 0.040584 -0.121882 0.035971
 18 -3.393283 0.661759 4.341911 1.008188 -1.207639 1.954191
 19 4.827230 0.000000 0.000001 -0.786364 0.183094 -1.185776
 20 11.139763 0.000000 0.000000 0.000000 -0.000000 -0.721324
 21 10.314597 0.000001 0.000000 -1.818070 -0.598122 -0.222470
 22 2.975834 -0.386307 -0.044143 0.001097 -0.043611 -0.043588
 23 1.438886 0.000000 0.000000 0.000000 -0.000000 1.334476
 24 1.485303 0.000000 0.000000 0.000000 -0.000000 0.793621
 25 -3.131625 0.610576 -4.140396 -1.212809 1.046068 1.768863
 26 4.972048 0.000000 0.000001 0.716988 -0.215259 -1.127309
 27 11.585355 0.000000 0.000000 0.000000 -0.000000 -0.810863
 28 10.127057 0.000000 0.000001 1.911259 0.560217 0.008869
 29 2.683750 -0.427338 0.044205 -0.005738 0.043239 -0.157060
 30 1.438885 -0.000001 0.000000 0.000000 -0.000000 0.732589
 31 1.485305 0.000001 0.000000 0.000000 -0.000000 1.168627
time 4
  0 0.235347 -0.235347 3.532833 -0.000000 -0.000000 -1.571254
  1 0.000000 0.000000 0.000000 -1.570795 -1.570796 0.000000
  2 -0.000005 0.000007 3.713255 -6.279788 3.158894 6.191818
  3 18.045721 0.000000 0.000000 0.000000 -0.000000 -0.243566
  4 17.597597 0.000000 0.000000 -0.001675 -0.017562 0.152217
  5 3.793090 6.407221 0.000000 0.000000 -0.000000 1.570796
  6 0.000005 -0.000003 -3.713255 0.355278 3.115745 -0.017353
  7 18.045725 0.000000 0.000000 0.000000 -0.000000 -0.267080
  8 17.597597 0.000000 0.000000 0.202624 0.017977 0.241823
  9 3.793090 6.407221 0.000000 0.000000 -0.000000 1.570796
 10 0.935740 0.000000 0.000000 0.000000 -0.000000 0.000000
 11 0.935741 0.000000 0.000000 0.000000 -0.000000 0.000000
 12 1.293670 0.684478 -0.000001 -0.000004 -0.000001 0.061735
 13 5.309685 -0.003834 0.000000 -0.253187 0.067198 0.253066
 14 4.826790 -0.004591 0.000000 0.154365 -0.028547 0.180872
 15 5.792767 -0.005304 0.000000 0.000000 -0.000000 0.287817
 16 6.662317 -0.001453 0.000000 0.000000 -0.000001 0.209256
 17 2.046985 -0.000002 0.000000 0.029081 -0.113552 0.028960
 18 -3.393283 0.661759 4.341911 1.008188 -1.207639 1.954191
 19 4.827230 0.000000 0.000001 -0.824014 0.104546 -1.173962
 20 11.139763 0.000000 0.000000 0.000000 -0.000000 -0.557337
 21 10.314597 0.000001 0.000000 -1.906783 -0.598122 -0.222470
 22 2.975834 -0.386307 -0.044143 0.001097 -0.043611 -0.043588
 23 1.438886 0.000000 0.000000 0.000000 -0.000000 1.334476
 24 1.485303 0.000000 0.000000 0.000000 -0.000000 0.793621
 25 -3.131625 0.610576 -4.140396 -1.212809 1.046068 1.768863
 26 4.972048 0.000000 0.000001 0.744372 -0.112858 -1.208332
 27 11.585355 0.000000 0.000000 0.000000 -0.000000 -0.625268
 28 10.127057 0.000000 0.000001 1.938269 0.529491 0.030796
 29 2.683750 -0.427338 0.044205 -0.005738 0.043239 -0.157060
 30 1.438885 -0.000001 0.000000 0.000000 -0.000000 0.732589
 31 1.485305 0.000001 0.000000 0.000000 -0.000000 1.168627
time 5
  0 0.235347 -0.235347 3.532833 -0.000000 -0.000000 -1.571254
  1 0.000000 0.000000 0.000000 -1.570795 -1.570796 0.000000
  2 -0.000005 0.000007 3.713255 -6.279788 3.158894 6.191818
  3 18.045721 0.000000 0.000000 0.000000 -0.000000 -0.243566
  4 17.597597 0.000000 0.000000 -0.001675 -0.017562 0.152217
  5 3.793090 6.407221 0.000000 0.000000 -0.000000 1.570796
  6 0.000005 -0.000003 -3.713255 0.355278 3.115745 -0.017353
  7 18.045725 0.000000 0.000000 0.000000 -0.000000 -0.267080
  8 17.597597 0.000000 0.000000 0.202624 0.017977 0.241823
  9 3.793090 6.407221 0.000000 0.000000 -0.000000 1.570796
 10 0.935740 0.000000 0.000000 0.000000 -0.000000 0.000000
 11 0.935741 0.000000 0.000000 0.000000 -0.000000 0.000000
 12 1.293670 0.684478 -0.000001 -0.000004 -0.000001 0.061735
 13 5.309685 -0.003834 0.000000 -0.253530 0.065807 0.247869
 14 4.826790 -0.004591 0.000000 0.145761 -0.026965 0.181181
 15 5.792767 -0.005304 0.000000 0.000000 -0.000000 0.287817
 16 6.662317 -0.001453 0.000000 0.000000 -0.000001 0.209256
 17 2.046985 -0.000002 0.000000 0.036276 -0.118662 0.033365
 18 -3.393283 0.661759 4.341911 1.008188 -1.207639 1.954191
 19 4.827230 0.000000 0.000001 -0.809800 0.179945 -1.089514
 20 11.139763 0.000000 0.000000 0.000000 -0.000000 -0.613261
 21 10.314597 0.000001 0.000000 -1.876763 -0.598122 -0.222470
 22 2.975834 -0.386307 -0.044143 0.001097 -0.043611 -0.043588
 23 1.438886 0.000000 0.000000 0.000000 -0.000000 1.334476
 24 1.485303 0.000000 0.000000 0.000000 -0.000000 0.793621
 25 -3.131625 0.610576 -4.140396 -1.212809 1.046068 1.768863
 26 4.972048 0.000000 0.000001 0.763169 -0.141736 -1.175857
 27 11.585355 0.000000 0.000000 0.000000 -0.000000 -0.627227
 28 10.127057 0.000000 0.000001 1.929223 0.540049 0.023461
 29 2.683750 -0.427338 0.044205 -0.005738 0.043239 -0.157060
 30 1.438885 -0.000001 0.000000 0.000000 -0.000000 0.732589
 31 1.485305 0.000001 0.000000 0.000000 -0.000000 1.168627
time 6
  0 0.235347 -0.235347 3.532833 -0.000000 -0.000000 -1.571254
  1 0.000000 0.000000 0.000000 -1.570795 -1.570796 0.000000
  2 -0.000005 0.000007 3.713255 -6.279788 3.158894 6.191818
  3 18.045721 0.000000 0.000000 0.000000 -0.000000 -0.243566
  4 17.597597 0.000000 0.000000 -0.001675 -0.017562 0.152217
  5 3.793090 6.407221 0.000000 0.000000 -0.000000 1.570796
  6 0.000005 -0.000003 -3.713255 0.355278 3.115745 -0.017353
  7 18.045725 0.000000 0.000000 0.000000 -0.000000 -0.267080
  8 17.597597 0.000000 0.000000 0.202624 0.017977 0.241823
  9 3.793090 6.407221 0.000000 0.000000 -0.000000 1.570796
 10 0.935740 0.000000 0.000000 0.000000 -0.000000 0.000000
 11 0.935741 0.000000 0.000000 0.000000 -0.000000 0.000000
 12 1.293670 0.684478 -0.000001 -0.000004 -0.000001 0.061735
 13 5.309685 -0.003834 0.000000 -0.254289 0.062787 0.236209
 14 4.826790 -0.004591 0.000000 0.126418 -0.023454 0.181666
 15 5.792767 -0.005304 0.000000 0.000000 -0.000000 0.287817
 16 6.662317 -0.001453 0.000000 0.000000 -0.000001 0.209256
 17 2.046985 -0.000002 0.000000 0.052303 -0.130369 0.043343
 18 -3.393283 0.661759 4.341911 1.008188 -1.207639 1.954191
 19 4.827230 0.000000 0.000001 -0.761460 0.315936 -0.965948
 20 11.139763 0.000000 0.000000 0.000000 -0.000000 -0.756364
 21 10.314597 0.000001 0.000000 -1.799196 -0.598122 -0.222470
 22 2.975834 -0.386307 -0.044143 0.001097 -0.043611 -0.043588
 23 1.438886 0.000000 0.000000 0.000000 -0.000000 1.334476
 24 1.485303 0.000000 0.000000 0.000000 -0.000000 0.793621
 25 -3.131625 0.610576 -4.140396 -1.212809 1.046068 1.768863
 26 4.972048 0.000000 0.000001 0.774463 -0.225475 -1.099379
 27 11.585355 0.000000 0.000000 0.000000 -0.000000 -0.702220
 28 10.127057 0.000000 0.000001 1.905271 0.566850 0.004005
 29 2.683750 -0.427338 0.044205 -0.005738 0.043239 -0.157060
 30 1.438885 -0.000001 0.000000 0.000000 -0.000000 0.732589
 31 1.485305 0.000001 0.000000 0.000000 -0.000000 1.168627
time 7
  0 0.235347 -0.235347 3.532833 -0.000000 -0.000000 -1.571254
  1 0.000000 0.000000 0.000000 -1.570795 -1.570796 0.000000
  2 -0.000005 0.000007 3.713255 -6.279788 3.158894 6.191818
  3 18.045721 0.000000 0.000000 0.000000 -0.000000 -0.243566
  4 17.597597 0.000000 0.000000 -0.001675 -0.017562 0.152217
  5 3.793090 6.407221 0.000000 0.000000 -0.000000 1.570796
  6 0.000005 -0.000003 -3.713255 0.355278 3.115745 -0.017353
  7 18.045725 0.000000 0.000000 0.000000 -0.000000 -0.267080
  8 17.597597 0.000000 0.000000 0.202624 0.017977 0.241823
  9 3.793090 6.407221 0.000000 0.000000 -0.000000 1.570796
 10 0.935740 0.000000 0.000000 0.000000 -0.000000 0.000000
 11 0.935741 0.000000 0.000000 0.000000 -0.000000 0.000000
 12 1.293670 0.684478 -0.000001 -0.000004 -0.000001 0.061735
 13 5.309685 -0.003834 0.000000 -0.255183 0.059120 0.221904
 14 4.826790 -0.004591 0.000000 0.102675 -0.019044 0.182151
 15 5.792767 -0.005304 0.000000 0.000000 -0.000000 0.287817
 16 6.662317 -0.001453 0.000000 0.000000 -0.000001 0.209256
 17 2.046985 -0.000002 0.000000 0.071604 -0.145204 0.055344
 18 -3.393283 0.661759 4.341911 1.008188 -1.207639 1.954191
 19 4.827230 0.000000 0.000001 -0.678348 0.471160 -0.816479
 20 11.139763 0.000000 0.000000 0.000000 -0.000000 -0.938011
 21 10.314597 0.000001 0.000000 -1.701316 -0.598122 -0.222470
 22 2.975834 -0.386307 -0.044143 0.001097 -0.043611 -0.043588
 23 1.438886 0.000000 0.000000 0.000000 -0.000000 1.334476
 24 1.485303 0.000000 0.000000 0.000000 -0.000000 0.793621
 25 -3.131625 0.610576 -4.140396 -1.212809 1.046068 1.768863
 26 4.972048 0.000000 0.000001 0.768197 -0.332140 -0.999187
 27 11.585355 0.000000 0.000000 0.000000 -0.000000 -0.812542
 28 10.127057 0.000000 0.000001 1.873675 0.600310 -0.022276
 29 2.683750 -0.427338 0.044205 -0.005738 0.043239 -0.157060
 30 1.438885 -0.000001 0.000000 0.000000 -0.000000 0.732589
 31 1.485305 0.000001 0.000000 0.000000 -0.000000 1.168627
time 8
  0 0.235347 -0.235347 3.532833 -0.000000 -0.000000 -1.571254
  1 0.000000 0.000000 0.000000 -1.570795 -1.570796 0.000000
  2 -0.000005 0.000007 3.713255 -6.279788 3.158894 6.191818
  3 18.045721 0.000000 0.000000 0.000000 -0.000000 -0.243566
  4 17.597597 0.000000 0.000000 -0.001675 -0.017562 0.152217
  5 3.793090 6.407221 0.000000 0.000000 -0.000000 1.570796
  6 0.000005 -0.000003 -3.713255 0.355278 3.115745 -0.017353
  7 18.045725 0.000000 0.000000 0.000000 -0.000000 -0.267080
  8 17.597597 0.000000 0.000000 0.202624 0.017977 0.241823
  9 3.793090 6.407221 0.000000 0.000000 -0.000000 1.570796
 10 0.935740 0.000000 0.000000 0.000000 -0.000000 0.000000
 11 0.935741 0.000000 0.000000 0.000000 -0.000000 0.000000
 12 1.293670 0.684478 -0.000001 -0.000004 -0.000001 0.061735
 13 5.309685 -0.003834 0.000000 -0.256003 0.055225 0.207002
 14 4.826790 -0.004591 0.000000 0.077930 -0.014429 0.182592
 15 5.792767 -0.005304 0.000000 0.000000 -0.000000 0.287817
 16 6.662317 -0.001453 0.000000 0.000000 -0.000001 0.209256
 17 2.046985 -0.000002 0.000000 0.091336 -0.161165 0.067615
 18 -3.393283 0.661759 4.341911 1.008188 -1.207639 1.954191
 19 4.827230 0.000000 0.000001 -0.542961 0.632851 -0.626317
 20 11.139763 0.000000 0.000000 0.000000 -0.000000 -1.154137
 21 10.314597 0.000001 0.000000 -1.584741 -0.598122 -0.222470
 22 2.975834 -0.386307 -0.044143 0.001097 -0.043611 -0.043588
 23 1.438886 0.000000 0.000000 0.000000 -0.000000 1.334476
 24 1.485303 0.000000 0.000000 0.000000 -0.000000 0.793621
 25 -3.131625 0.610576 -4.140396 -1.212809 1.046068 1.768863
 26 4.972048 0.000000 0.000001 0.736791 -0.454008 -0.868496
 27 11.585355 0.000000 0.000000 0.000000 -0.000000 -0.954555
 28 10.127057 0.000000 0.000001 1.833415 0.639049 -0.056206
 29 2.683750 -0.427338 0.044205 -0.005738 0.043239 -0.157060
 30 1.438885 -0.000001 0.000000 0.000000 -0.000000 0.732589
 31 1.485305 0.000001 0.000000 0.000000 -0.000000 1.168627
time 9
  0 0.235347 -0.235347 3.532833 -0.000000 -0.000000 -1.571254
  1 0.000000 0.000000 0.000000 -1.570795 -1.570796 0.000000
  2 -0.000005 0.000007 3.713255 -6.279788 3.158894 6.191818
  3 18.045721 0.000000 0.000000 0.000000 -0.000000 -0.243566
  4 17.597597 0.000000 0.000000 -0.001675 -0.017562 0.152217
  5 3.793090 6.407221 0.000000 0.000000 -0.000000 1.570796
  6 0.000005 -0.000003 -3.713255 0.355278 3.115745 -0.017353
  7 18.045725 0.000000 0.000000 0.000000 -0.000000 -0.267080
  8 17.597597 0.000000 0.000000 0.202624 0.017977 0.241823
  9 3.793090 6.407221 0.000000 0.000000 -0.000000 1.570796
 10 0.935740 0.000000 0.000000 0.000000 -0.000000 0.000000
 11 0.935741 0.000000 0.000000 0.000000 -0.000000 0.000000
 12 1.293670 0.684478 -0.000001 -0.000004 -0.000001 0.061735
 13 5.309685 -0.003834 0.000000 -0.256799 0.051462 0.192607
 14 4.826790 -0.004591 0.000000 0.054006 -0.009995 0.182879
 15 5.792767 -0.005304 0.000000 0.000000 -0.000000 0.287817
 16 6.662317 -0.001453 0.000000 0.000000 -0.000001 0.209256
 17 2.046985 -0.000002 0.000000 0.109991 -0.177104 0.079121
 18 -3.393283 0.661759 4.341911 1.008188 -1.207639 1.954191
 19 4.827230 0.000000 0.000001 -0.331099 0.782884 -0.376560
 20 11.139763 0.000000 0.000000 0.000000 -0.000000 -1.403481
 21 10.314597 0.000001 0.000000 -1.450279 -0.598122 -0.222470
 22 2.975834 -0.386307 -0.044143 0.001097 -0.043611 -0.043588
 23 1.438886 0.000000 0.000000 0.000000 -0.000000 1.334476
 24 1.485303 0.000000 0.000000 0.000000 -0.000000 0.793621
 25 -3.131625 0.610576 -4.140396 -1.212809 1.046068 1.768863
 26 4.972048 0.000000 0.000001 0.666089 -0.582070 -0.694921
 27 11.585355 0.000000 0.000000 0.000000 -0.000000 -1.130427
 28 10.127057 0.000000 0.000001 1.783409 0.682472 -0.098805
 29 2.683750 -0.427338 0.044205 -0.005738 0.043239 -0.157060
 30 1.438885 -0.000001 0.000000 0.000000 -0.000000 0.732589
 31 1.485305 0.000001 0.000000 0.000000 -0.000000 1.168627
time 10
  0 0.235347 -0.235347 3.532833 -0.000000 -0.000000 -1.571254
  1 0.000000 0.000000 0.000000 -1.570795 -1.570796 0.000000
  2 -0.000005 0.000007 3.713255 -6.279788 3.158894 6.191818
  3 18.045721 0.000000 0.000000 0.000000 -0.000000 -0.243566
  4 17.597597 0.000000 0.000000 -0.001675 -0.017562 0.152217
  5 3.793090 6.407221 0.000000 0.000000 -0.000000 1.570796
  6 0.000005 -0.000003 -3.713255 0.355278 3.115745 -0.017353
  7 18.045725 0.000000 0.000000 0.000000 -0.000000 -0.267080
  8 17.597597 0.000000 0.000000 0.202624 0.017977 0.241823
  9 3.793090 6.407221 0.000000 0.000000 -0.000000 1.570796
 10 0.935740 0.000000 0.000000 0.000000 -0.000000 0.000000
 11 0.935741 0.000000 0.000000 0.000000 -0.000000 0.000000
 12 1.293670 0.684478 -0.000001 -0.000004 -0.000001 0.061735
 13 5.309685 -0.003834 0.000000 -0.257460 0.047938 0.179408
 14 4.826790 -0.004591 0.000000 0.032052 -0.005908 0.183055
 15 5.792767 -0.005304 0.000000 0.000000 -0.000000 0.287817
 16 6.662317 -0.001453 0.000000 0.000000 -0.000001 0.209256
 17 2.046985 -0.000002 0.000000 0.126750 -0.192142 0.089864
 18 -3.393283 0.661759 4.341911 1.008188 -1.207639 1.954191
 19 4.827230 0.000000 0.000001 -0.099560 0.879984 -0.138092
 20 11.139763 0.000000 0.000000 0.000000 -0.000000 -1.632642
 21 10.314597 0.000001 0.000000 -1.326603 -0.598122 -0.222470
 22 2.975834 -0.386307 -0.044143 0.001097 -0.043611 -0.043588
 23 1.438886 0.000000 0.000000 0.000000 -0.000000 1.334476
 24 1.485303 0.000000 0.000000 0.000000 -0.000000 0.793621
 25 -3.131625 0.610576 -4.140396 -1.212809 1.046068 1.768863
 26 4.972048 0.000000 0.000001 0.554234 -0.683989 -0.507778
 27 11.585355 0.000000 0.000000 0.000000 -0.000000 -1.317911
 28 10.127057 0.000000 0.000001 1.733785 0.720724 -0.141992
 29 2.683750 -0.427338 0.044205 -0.005738 0.043239 -0.157060
 30 1.438885 -0.000001 0.000000 0.000000 -0.000000 0.732589
 31 1.485305 0.000001 0.000000 0.000000 -0.000000 1.168627
time 11
  0 0.235347 -0.235347 3.532833 -0.000000 -0.000000 -1.571254
  1 0.000000 0.000000 0.000000 -1.570795 -1.570796 0.000000
  2 -0.000005 0.000007 3.713255 -6.279788 3.158894 6.191818
  3 18.045721 0.000000 0.000000 0.000000 -0.000000 -0.243566
  4 17.597597 0.000000 0.000000 -0.001675 -0.017562 0.152217
  5 3.793090 6.407221 0.000000 0.000000 -0.000000 1.570796
  6 0.000005 -0.000003 -3.713255 0.355278 3.115745 -0.017353
  7 18.045725 0.000000 0.000000 0.000000 -0.000000 -0.267080
  8 17.597597 0.000000 0.000000 0.202624 0.017977 0.241823
  9 3.793090 6.407221 0.000000 0.000000 -0.000000 1.570796
 10 0.935740 0.000000 0.000000 0.000000 -0.000000 0.000000
 11 0.935741 0.000000 0.000000 0.000000 -0.000000 0.000000
 12 1.293670 0.684478 -0.000001 -0.000004 -0.000001 0.061735
 13 5.309685 -0.003834 0.000000 -0.257974 0.044978 0.168145
 14 4.826790 -0.004591 0.000000 0.013366 -0.002481 0.183077
 15 5.792767 -0.005304 0.000000 0.000000 -0.000000 0.287817
 16 6.662317 -0.001453 0.000000 0.000000 -0.000001 0.209256
 17 2.046985 -0.000002 0.000000 0.140795 -0.205267 0.098674
 18 -3.393283 0.661759 4.341911 1.008188 -1.207639 1.954191
 19 4.827230 0.000000 0.000001 -0.106315 0.941767 -0.291674
 20 11.139763 0.000000 0.000000 0.000000 -0.000000 -1.826413
 21 10.314597 0.000001 0.000000 -1.222072 -0.598122 -0.222470
 22 2.975834 -0.386307 -0.044143 0.001097 -0.043611 -0.043588
 23 1.438886 0.000000 0.000000 0.000000 -0.000000 1.334476
 24 1.485303 0.000000 0.000000 0.000000 -0.000000 0.793621
 25 -3.131625 0.610576 -4.140396 -1.212809 1.046068 1.768863
 26 4.972048 0.000000 0.000001 0.351410 -0.745526 -0.321359
 27 11.585355 0.000000 0.000000 0.000000 -0.000000 -1.637684
 28 10.127057 0.000000 0.000001 1.688684 0.751531 -0.181649
 29 2.683750 -0.427338 0.044205 -0.005738 0.043239 -0.157060
 30 1.438885 -0.000001 0.000000 0.000000 -0.000000 0.732589
 31 1.485305 0.000001 0.000000 0.000000 -0.000000 1.168627
time 12
  0 0.235347 -0.235347 3.532833 -0.000000 -0.000000 -1.571254
  1 0.000000 0.000000 0.000000 -1.570795 -1.570796 0.000000
  2 -0.000005 0.000007 3.713255 -6.279788 3.158894 6.191818
  3 18.045721 0.000000 0.000000 0.000000 -0.000000 -0.243566
  4 17.597597 0.000000 0.000000 -0.001675 -0.017562 0.152217
  5 3.793090 6.407221 0.000000 0.000000 -0.000000 1.570796
  6 0.000005 -0.000003 -3.713255 0.355278 3.115745 -0.017353
  7 18.045725 0.000000 0.000000 0.000000 -0.000000 -0.267080
  8 17.597597 0.000000 0.000000 0.202624 0.017977 0.241823
  9 3.793090 6.407221 0.000000 0.000000 -0.000000 1.570796
 10 0.935740 0.000000 0.000000 0.000000 -0.000000 0.000000
 11 0.935741 0.000000 0.000000 0.000000 -0.000000 0.000000
 12 1.293670 0.684478 -0.000001 -0.000004 -0.000001 0.061735
 13 5.309685 -0.003834 0.000000 -0.258329 0.042905 0.160106
 14 4.826790 -0.004591 0.000000 0.000000 0.000000 0.183077
 15 5.792767 -0.005304 0.000000 0.000000 -0.000000 0.287817
 16 6.662317 -0.001453 0.000000 0.000000 -0.000001 0.209256
 17 2.046985 -0.000002 0.000000 0.150661 -0.214812 0.104786
 18 -3.393283 0.661759 4.341911 1.008188 -1.207639 1.954191
 19 4.827230 0.000000 0.000001 -0.377853 0.911301 -0.791713
 20 11.139763 0.000000 0.000000 0.000000 -0.000000 -1.914924
 21 10.314597 0.000001 0.000000 -1.174525 -0.598122 -0.222470
 22 2.975834 -0.386307 -0.044143 0.001097 -0.043611 -0.043588
 23 1.438886 0.000000 0.000000 0.000000 -0.000000 1.334476
 24 1.485303 0.000000 0.000000 0.000000 -0.000000 0.793621
 25 -3.131625 0.610576 -4.140396 -1.212809 1.046068 1.768863
 26 4.972048 0.000000 0.000001 0.156089 -0.753329 -0.225251
 27 11.585355 0.000000 0.000000 0.000000 -0.000000 -1.961934
 28 10.127057 0.000000 0.000001 1.667089 0.765311 -0.200791
 29 2.683750 -0.427338 0.044205 -0.005738 0.043239 -0.157060
 30 1.438885 -0.000001 0.000000 0.000000 -0.000000 0.732589
 31 1.485305 0.000001 0.000000 0.000000 -0.000000 1.168627
end
