version 1
nodes
  0 "Bip01"  -1
  1 "Bip01 Pelvis"   0
  2 "Bip01 L Leg"   1
  3 "Bip01 L Leg1"   2
  4 "Bip01 L Foot"   3
  5 "Bip01 L Toe0"   4
  6 "Bip01 R Leg"   1
  7 "Bip01 R Leg1"   6
  8 "Bip01 R Foot"   7
  9 "Bip01 R Toe0"   8
 10 "Bip01 R Toe01"   9
 11 "Bip01 R Toe02"  10
 12 "Bip01 Spine"   1
 13 "Bip01 Spine1"  12
 14 "Bip01 Spine2"  13
 15 "Bip01 Spine3"  14
 16 "Bip01 Neck"  15
 17 "Bip01 Head"  16
 18 "Bip01 L Arm"  16
 19 "Bip01 L Arm1"  18
 20 "Bip01 L Arm2"  19
 21 "Bip01 L Hand"  20
 22 "Bip01 L Finger1"  21
 23 "Bip01 L Finger11"  22
 24 "Bip01 L Finger12"  23
 25 "Bip01 R Arm"  16
 26 "Bip01 R Arm1"  25
 27 "Bip01 R Arm2"  26
 28 "Bip01 R Hand"  27
 29 "Bip01 R Finger1"  28
 30 "Bip01 R Finger11"  29
 31 "Bip01 R Finger12"  30
end
skeleton
time 0
  0 0.235347 -0.235347 3.532833 -0.000000 -0.000000 -1.571254
  1 0.000000 0.000000 0.000000 -1.570795 -1.570796 0.000000
  2 -0.000005 0.000007 3.713255 -6.281131 3.115177 6.261712
  3 18.045721 0.000000 0.000000 0.000000 -0.000000 -0.121501
  4 17.597597 0.000000 0.000000 -0.002613 0.026036 0.099967
  5 3.793090 6.407221 0.000000 0.000000 -0.000000 1.570796
  6 0.000005 -0.000003 -3.713255 6.280565 -3.123995 6.258640
  7 18.045725 0.000000 0.000000 0.000000 -0.000000 -0.127551
  8 17.597597 0.000000 0.000000 0.002950 -0.017289 0.103055
  9 3.793090 6.407221 0.000000 0.000000 -0.000000 1.570796
 10 0.935740 0.000000 0.000000 0.000000 -0.000000 0.000000
 11 0.935741 0.000000 0.000000 0.000000 -0.000000 0.000000
 12 1.293670 0.684478 -0.000001 -0.000004 -0.000001 -0.103850
 13 5.309685 -0.003834 0.000000 -0.268478 -0.032275 -0.117725
 14 4.826790 -0.004591 0.000000 -0.268747 -0.029961 -0.109261
 15 5.792767 -0.005304 0.000000 -0.139201 -0.009588 -0.069054
 16 6.662317 -0.001453 0.000000 0.000000 -0.000001 0.471000
 17 2.046985 -0.000002 0.000000 0.538192 0.256055 -0.244143
 18 -3.112024 1.517254 4.341911 1.141931 -1.117252 1.569728
 19 4.827230 0.000000 0.000001 -1.153525 -0.204540 -1.229094
 20 11.139763 0.000000 0.000000 0.000000 -0.000000 -1.010333
 21 10.314597 0.000001 0.000000 -0.863808 0.363052 -0.290867
 22 2.975834 -0.386307 -0.044143 -0.011691 -0.042029 0.253088
 23 1.438886 0.000000 0.000000 0.000000 -0.000000 0.741304
 24 1.485303 0.000000 0.000000 0.000000 -0.000000 0.531981
 25 -2.869898 1.399663 -4.140396 -0.000013 1.370795 2.669783
 26 4.972048 0.000000 0.000001 1.036850 -0.590114 -1.749343
 27 11.585355 0.000000 0.000000 0.000000 -0.000000 -1.837551
 28 10.127057 0.000000 0.000001 1.949353 -0.006416 0.977737
 29 2.683750 -0.427338 0.044205 -0.005738 0.043239 -0.157060
 30 1.438885 -0.000001 0.000000 0.000000 -0.000000 0.732589
 31 1.485305 0.000001 0.000000 0.000000 -0.000000 1.168627
time 1
  0 0.235347 -0.235347 3.532833 -0.000000 -0.000000 -1.571254
  1 0.000000 0.000000 0.000000 -1.570795 -1.570796 0.000000
  2 -0.000005 0.000007 3.713255 -6.281131 3.115177 6.261712
  3 18.045721 0.000000 0.000000 0.000000 -0.000000 -0.121501
  4 17.597597 0.000000 0.000000 -0.002613 0.026036 0.099967
  5 3.793090 6.407221 0.000000 0.000000 -0.000000 1.570796
  6 0.000005 -0.000003 -3.713255 6.280565 -3.123995 6.258640
  7 18.045725 0.000000 0.000000 0.000000 -0.000000 -0.127551
  8 17.597597 0.000000 0.000000 0.002950 -0.017289 0.103055
  9 3.793090 6.407221 0.000000 0.000000 -0.000000 1.570796
 10 0.935740 0.000000 0.000000 0.000000 -0.000000 0.000000
 11 0.935741 0.000000 0.000000 0.000000 -0.000000 0.000000
 12 1.293670 0.684478 -0.000001 -0.000004 -0.000001 -0.148448
 13 5.309685 -0.003834 0.000000 -0.268478 -0.032275 -0.117725
 14 4.826790 -0.004591 0.000000 -0.323360 -0.035906 -0.107453
 15 5.792767 -0.005304 0.000000 -0.255607 -0.017462 -0.067497
 16 6.662317 -0.001453 0.000000 0.000000 -0.000001 0.471000
 17 2.046985 -0.000002 0.000000 0.618843 0.097501 -0.211690
 18 -3.112024 1.517254 4.341911 1.141931 -1.117252 1.569728
 19 4.827230 0.000000 0.000001 -1.132380 -0.310235 -1.172912
 20 11.139763 0.000000 0.000000 0.000000 -0.000000 -1.106763
 21 10.314597 0.000001 0.000000 -0.894727 0.391313 -0.262167
 22 2.975834 -0.386307 -0.044143 -0.008215 -0.042832 0.172678
 23 1.438886 0.000000 0.000000 0.000000 -0.000000 0.649757
 24 1.485303 0.000000 0.000000 0.000000 -0.000000 0.531981
 25 -2.869898 1.399663 -4.140396 -0.000013 1.370795 2.669783
 26 4.972048 0.000000 0.000001 1.107088 -0.610546 -1.841828
 27 11.585355 0.000000 0.000000 0.000000 -0.000000 -1.973407
 28 10.127057 0.000000 0.000001 1.828701 -0.014294 1.053991
 29 2.683750 -0.427338 0.044205 -0.005738 0.043239 -0.157060
 30 1.438885 -0.000001 0.000000 0.000000 -0.000000 0.732589
 31 1.485305 0.000001 0.000000 0.000000 -0.000000 1.168627
time 2
  0 0.235347 -0.235347 3.532833 -0.000000 -0.000000 -1.571254
  1 0.000000 0.000000 0.000000 -1.570795 -1.570796 0.000000
  2 -0.000005 0.000007 3.713255 -6.281131 3.115177 6.261712
  3 18.045721 0.000000 0.000000 0.000000 -0.000000 -0.121501
  4 17.597597 0.000000 0.000000 -0.002613 0.026036 0.099967
  5 3.793090 6.407221 0.000000 0.000000 -0.000000 1.570796
  6 0.000005 -0.000003 -3.713255 6.280565 -3.123995 6.258640
  7 18.045725 0.000000 0.000000 0.000000 -0.000000 -0.127551
  8 17.597597 0.000000 0.000000 0.002950 -0.017289 0.103055
  9 3.793090 6.407221 0.000000 0.000000 -0.000000 1.570796
 10 0.935740 0.000000 0.000000 0.000000 -0.000000 0.000000
 11 0.935741 0.000000 0.000000 0.000000 -0.000000 0.000000
 12 1.293670 0.684478 -0.000001 -0.000004 -0.000001 -0.202756
 13 5.309685 -0.003834 0.000000 -0.268478 -0.032275 -0.117725
 14 4.826790 -0.004591 0.000000 -0.389894 -0.042953 -0.104896
 15 5.792767 -0.005304 0.000000 -0.397400 -0.026726 -0.064341
 16 6.662317 -0.001453 0.000000 0.000000 -0.000001 0.471000
 17 2.046985 -0.000002 0.000000 0.719097 -0.100675 -0.226973
 18 -3.112024 1.517254 4.341911 1.141931 -1.117252 1.569728
 19 4.827230 0.000000 0.000001 -1.091147 -0.440354 -1.115417
 20 11.139763 0.000000 0.000000 0.000000 -0.000000 -1.238443
 21 10.314597 0.000001 0.000000 -0.935982 0.430640 -0.224523
 22 2.975834 -0.386307 -0.044143 -0.003541 -0.043479 0.064165
 23 1.438886 0.000000 0.000000 0.000000 -0.000000 0.526594
 24 1.485303 0.000000 0.000000 0.000000 -0.000000 0.531981
 25 -2.869898 1.399663 -4.140396 -0.000013 1.370795 2.669783
 26 4.972048 0.000000 0.000001 1.192333 -0.632909 -1.944128
 27 11.585355 0.000000 0.000000 0.000000 -0.000000 -2.141163
 28 10.127057 0.000000 0.000001 1.665815 -0.009827 1.150407
 29 2.683750 -0.427338 0.044205 -0.005738 0.043239 -0.157060
 30 1.438885 -0.000001 0.000000 0.000000 -0.000000 0.732589
 31 1.485305 0.000001 0.000000 0.000000 -0.000000 1.168627
time 3
  0 0.235347 -0.235347 3.532833 -0.000000 -0.000000 -1.571254
  1 0.000000 0.000000 0.000000 -1.570795 -1.570796 0.000000
  2 -0.000005 0.000007 3.713255 -6.281131 3.115177 6.261712
  3 18.045721 0.000000 0.000000 0.000000 -0.000000 -0.121501
  4 17.597597 0.000000 0.000000 -0.002613 0.026036 0.099967
  5 3.793090 6.407221 0.000000 0.000000 -0.000000 1.570796
  6 0.000005 -0.000003 -3.713255 6.280565 -3.123995 6.258640
  7 18.045725 0.000000 0.000000 0.000000 -0.000000 -0.127551
  8 17.597597 0.000000 0.000000 0.002950 -0.017289 0.103055
  9 3.793090 6.407221 0.000000 0.000000 -0.000000 1.570796
 10 0.935740 0.000000 0.000000 0.000000 -0.000000 0.000000
 11 0.935741 0.000000 0.000000 0.000000 -0.000000 0.000000
 12 1.293670 0.684478 -0.000001 -0.000004 -0.000001 -0.217237
 13 5.309685 -0.003834 0.000000 -0.268478 -0.032275 -0.117725
 14 4.826790 -0.004591 0.000000 -0.407628 -0.044738 -0.104124
 15 5.792767 -0.005304 0.000000 -0.435148 -0.029111 -0.063282
 16 6.662317 -0.001453 0.000000 0.000000 -0.000001 0.471000
 17 2.046985 -0.000002 0.000000 0.748178 -0.152521 -0.241536
 18 -3.112024 1.517254 4.341911 1.141931 -1.117252 1.569728
 19 4.827230 0.000000 0.000001 -1.078225 -0.460438 -1.107716
 20 11.139763 0.000000 0.000000 0.000000 -0.000000 -1.327164
 21 10.314597 0.000001 0.000000 -0.959441 0.454597 -0.202730
 22 2.975834 -0.386307 -0.044143 -0.000797 -0.043611 0.000035
 23 1.438886 0.000000 0.000000 0.000000 -0.000000 0.453458
 24 1.485303 0.000000 0.000000 0.000000 -0.000000 0.531981
 25 -2.869898 1.399663 -4.140396 -0.000013 1.370795 2.669783
 26 4.972048 0.000000 0.000001 1.229386 -0.628726 -1.957566
 27 11.585355 0.000000 0.000000 0.000000 -0.000000 -2.174603
 28 10.127057 0.000000 0.000001 1.569752 0.000000 1.177394
 29 2.683750 -0.427338 0.044205 -0.005738 0.043239 -0.157060
 30 1.438885 -0.000001 0.000000 0.000000 -0.000000 0.732589
 31 1.485305 0.000001 0.000000 0.000000 -0.000000 1.168627
time 4
  0 0.235347 -0.235347 3.532833 -0.000000 -0.000000 -1.571254
  1 0.000000 0.000000 0.000000 -1.570795 -1.570796 0.000000
  2 -0.000005 0.000007 3.713255 -6.281131 3.115177 6.261712
  3 18.045721 0.000000 0.000000 0.000000 -0.000000 -0.121501
  4 17.597597 0.000000 0.000000 -0.002613 0.026036 0.099967
  5 3.793090 6.407221 0.000000 0.000000 -0.000000 1.570796
  6 0.000005 -0.000003 -3.713255 6.280565 -3.123995 6.258640
  7 18.045725 0.000000 0.000000 0.000000 -0.000000 -0.127551
  8 17.597597 0.000000 0.000000 0.002950 -0.017289 0.103055
  9 3.793090 6.407221 0.000000 0.000000 -0.000000 1.570796
 10 0.935740 0.000000 0.000000 0.000000 -0.000000 0.000000
 11 0.935741 0.000000 0.000000 0.000000 -0.000000 0.000000
 12 1.293670 0.684478 -0.000001 -0.000004 -0.000001 -0.213085
 13 5.309685 -0.003834 0.000000 -0.268478 -0.032275 -0.117725
 14 4.826790 -0.004591 0.000000 -0.402521 -0.044211 -0.104278
 15 5.792767 -0.005304 0.000000 -0.424272 -0.028380 -0.063635
 16 6.662317 -0.001453 0.000000 0.000000 -0.000001 0.471000
 17 2.046985 -0.000002 0.000000 0.743008 -0.137100 -0.236412
 18 -3.112024 1.517254 4.341911 1.141931 -1.117252 1.569728
 19 4.827230 0.000000 0.000001 -1.127916 -0.358232 -1.041995
 20 11.139763 0.000000 0.000000 0.000000 -0.000000 -1.379584
 21 10.314597 0.000001 0.000000 -0.959441 0.454597 -0.202730
 22 2.975834 -0.386307 -0.044143 -0.000797 -0.043611 0.000035
 23 1.438886 0.000000 0.000000 0.000000 -0.000000 0.453458
 24 1.485303 0.000000 0.000000 0.000000 -0.000000 0.531981
 25 -2.869898 1.399663 -4.140396 -0.000013 1.370795 2.669783
 26 4.972048 0.000000 0.000001 1.223971 -0.626795 -1.972519
 27 11.585355 0.000000 0.000000 0.000000 -0.000000 -2.053857
 28 10.127057 0.000000 0.000001 1.535289 0.003059 1.128872
 29 2.683750 -0.427338 0.044205 -0.005738 0.043239 -0.157060
 30 1.438885 -0.000001 0.000000 0.000000 -0.000000 0.732589
 31 1.485305 0.000001 0.000000 0.000000 -0.000000 1.168627
time 5
  0 0.235347 -0.235347 3.532833 -0.000000 -0.000000 -1.571254
  1 0.000000 0.000000 0.000000 -1.570795 -1.570796 0.000000
  2 -0.000005 0.000007 3.713255 -6.281131 3.115177 6.261712
  3 18.045721 0.000000 0.000000 0.000000 -0.000000 -0.121501
  4 17.597597 0.000000 0.000000 -0.002613 0.026036 0.099967
  5 3.793090 6.407221 0.000000 0.000000 -0.000000 1.570796
  6 0.000005 -0.000003 -3.713255 6.280565 -3.123995 6.258640
  7 18.045725 0.000000 0.000000 0.000000 -0.000000 -0.127551
  8 17.597597 0.000000 0.000000 0.002950 -0.017289 0.103055
  9 3.793090 6.407221 0.000000 0.000000 -0.000000 1.570796
 10 0.935740 0.000000 0.000000 0.000000 -0.000000 0.000000
 11 0.935741 0.000000 0.000000 0.000000 -0.000000 0.000000
 12 1.293670 0.684478 -0.000001 -0.000004 -0.000001 -0.203392
 13 5.309685 -0.003834 0.000000 -0.268478 -0.032275 -0.117725
 14 4.826790 -0.004591 0.000000 -0.390666 -0.043025 -0.104852
 15 5.792767 -0.005304 0.000000 -0.399015 -0.026822 -0.064341
 16 6.662317 -0.001453 0.000000 0.000000 -0.000001 0.471000
 17 2.046985 -0.000002 0.000000 0.730557 -0.101125 -0.225939
 18 -3.112024 1.517254 4.341911 1.141931 -1.117252 1.569728
 19 4.827230 0.000000 0.000001 -1.186535 -0.192030 -0.952909
 20 11.139763 0.000000 0.000000 0.000000 -0.000000 -1.421842
 21 10.314597 0.000001 0.000000 -0.959441 0.454597 -0.202730
 22 2.975834 -0.386307 -0.044143 -0.000797 -0.043611 0.000035
 23 1.438886 0.000000 0.000000 0.000000 -0.000000 0.453458
 24 1.485303 0.000000 0.000000 0.000000 -0.000000 0.531981
 25 -2.869898 1.399663 -4.140396 -0.000013 1.370795 2.669783
 26 4.972048 0.000000 0.000001 1.200378 -0.629450 -1.997880
 27 11.585355 0.000000 0.000000 0.000000 -0.000000 -1.861896
 28 10.127057 0.000000 0.000001 1.522421 0.002301 1.046146
 29 2.683750 -0.427338 0.044205 -0.005738 0.043239 -0.157060
 30 1.438885 -0.000001 0.000000 0.000000 -0.000000 0.732589
 31 1.485305 0.000001 0.000000 0.000000 -0.000000 1.168627
time 6
  0 0.235347 -0.235347 3.532833 -0.000000 -0.000000 -1.571254
  1 0.000000 0.000000 0.000000 -1.570795 -1.570796 0.000000
  2 -0.000005 0.000007 3.713255 -6.281131 3.115177 6.261712
  3 18.045721 0.000000 0.000000 0.000000 -0.000000 -0.121501
  4 17.597597 0.000000 0.000000 -0.002613 0.026036 0.099967
  5 3.793090 6.407221 0.000000 0.000000 -0.000000 1.570796
  6 0.000005 -0.000003 -3.713255 6.280565 -3.123995 6.258640
  7 18.045725 0.000000 0.000000 0.000000 -0.000000 -0.127551
  8 17.597597 0.000000 0.000000 0.002950 -0.017289 0.103055
  9 3.793090 6.407221 0.000000 0.000000 -0.000000 1.570796
 10 0.935740 0.000000 0.000000 0.000000 -0.000000 0.000000
 11 0.935741 0.000000 0.000000 0.000000 -0.000000 0.000000
 12 1.293670 0.684478 -0.000001 -0.000004 -0.000001 -0.191221
 13 5.309685 -0.003834 0.000000 -0.268478 -0.032275 -0.117725
 14 4.826790 -0.004591 0.000000 -0.375691 -0.041467 -0.105491
 15 5.792767 -0.005304 0.000000 -0.367186 -0.024748 -0.065130
 16 6.662317 -0.001453 0.000000 0.000000 -0.000001 0.471000
 17 2.046985 -0.000002 0.000000 0.715004 -0.055560 -0.215646
 18 -3.112024 1.517254 4.341911 1.141931 -1.117252 1.569728
 19 4.827230 0.000000 0.000001 -1.221013 -0.026169 -0.881937
 20 11.139763 0.000000 0.000000 0.000000 -0.000000 -1.448192
 21 10.314597 0.000001 0.000000 -0.959441 0.454597 -0.202730
 22 2.975834 -0.386307 -0.044143 -0.000797 -0.043611 0.000035
 23 1.438886 0.000000 0.000000 0.000000 -0.000000 0.453458
 24 1.485303 0.000000 0.000000 0.000000 -0.000000 0.531981
 25 -2.869898 1.399663 -4.140396 -0.000013 1.370795 2.669783
 26 4.972048 0.000000 0.000001 1.170751 -0.633150 -2.016719
 27 11.585355 0.000000 0.000000 0.000000 -0.000000 -1.673152
 28 10.127057 0.000000 0.000001 1.526116 0.000352 0.962831
 29 2.683750 -0.427338 0.044205 -0.005738 0.043239 -0.157060
 30 1.438885 -0.000001 0.000000 0.000000 -0.000000 0.732589
 31 1.485305 0.000001 0.000000 0.000000 -0.000000 1.168627
time 7
  0 0.235347 -0.235347 3.532833 -0.000000 -0.000000 -1.571254
  1 0.000000 0.000000 0.000000 -1.570795 -1.570796 0.000000
  2 -0.000005 0.000007 3.713255 -6.281131 3.115177 6.261712
  3 18.045721 0.000000 0.000000 0.000000 -0.000000 -0.121501
  4 17.597597 0.000000 0.000000 -0.002613 0.026036 0.099967
  5 3.793090 6.407221 0.000000 0.000000 -0.000000 1.570796
  6 0.000005 -0.000003 -3.713255 6.280565 -3.123995 6.258640
  7 18.045725 0.000000 0.000000 0.000000 -0.000000 -0.127551
  8 17.597597 0.000000 0.000000 0.002950 -0.017289 0.103055
  9 3.793090 6.407221 0.000000 0.000000 -0.000000 1.570796
 10 0.935740 0.000000 0.000000 0.000000 -0.000000 0.000000
 11 0.935741 0.000000 0.000000 0.000000 -0.000000 0.000000
 12 1.293670 0.684478 -0.000001 -0.000004 -0.000001 -0.178297
 13 5.309685 -0.003834 0.000000 -0.268478 -0.032275 -0.117725
 14 4.826790 -0.004591 0.000000 -0.359895 -0.039789 -0.106064
 15 5.792767 -0.005304 0.000000 -0.333434 -0.022603 -0.065919
 16 6.662317 -0.001453 0.000000 0.000000 -0.000001 0.471000
 17 2.046985 -0.000002 0.000000 0.698288 -0.007091 -0.208050
 18 -3.112024 1.517254 4.341911 1.141931 -1.117252 1.569728
 19 4.827230 0.000000 0.000001 -1.231703 0.099440 -0.841682
 20 11.139763 0.000000 0.000000 0.000000 -0.000000 -1.454429
 21 10.314597 0.000001 0.000000 -0.959441 0.454597 -0.202730
 22 2.975834 -0.386307 -0.044143 -0.000797 -0.043611 0.000035
 23 1.438886 0.000000 0.000000 0.000000 -0.000000 0.453458
 24 1.485303 0.000000 0.000000 0.000000 -0.000000 0.531981
 25 -2.869898 1.399663 -4.140396 -0.000013 1.370795 2.669783
 26 4.972048 0.000000 0.000001 1.141975 -0.635000 -2.019552
 27 11.585355 0.000000 0.000000 0.000000 -0.000000 -1.530720
 28 10.127057 0.000000 0.000001 1.542742 -0.000623 0.898109
 29 2.683750 -0.427338 0.044205 -0.005738 0.043239 -0.157060
 30 1.438885 -0.000001 0.000000 0.000000 -0.000000 0.732589
 31 1.485305 0.000001 0.000000 0.000000 -0.000000 1.168627
time 8
  0 0.235347 -0.235347 3.532833 -0.000000 -0.000000 -1.571254
  1 0.000000 0.000000 0.000000 -1.570795 -1.570796 0.000000
  2 -0.000005 0.000007 3.713255 -6.281131 3.115177 6.261712
  3 18.045721 0.000000 0.000000 0.000000 -0.000000 -0.121501
  4 17.597597 0.000000 0.000000 -0.002613 0.026036 0.099967
  5 3.793090 6.407221 0.000000 0.000000 -0.000000 1.570796
  6 0.000005 -0.000003 -3.713255 6.280565 -3.123995 6.258640
  7 18.045725 0.000000 0.000000 0.000000 -0.000000 -0.127551
  8 17.597597 0.000000 0.000000 0.002950 -0.017289 0.103055
  9 3.793090 6.407221 0.000000 0.000000 -0.000000 1.570796
 10 0.935740 0.000000 0.000000 0.000000 -0.000000 0.000000
 11 0.935741 0.000000 0.000000 0.000000 -0.000000 0.000000
 12 1.293670 0.684478 -0.000001 -0.000004 -0.000001 -0.165591
 13 5.309685 -0.003834 0.000000 -0.268478 -0.032275 -0.117725
 14 4.826790 -0.004591 0.000000 -0.344345 -0.038147 -0.106748
 15 5.792767 -0.005304 0.000000 -0.300349 -0.020434 -0.066604
 16 6.662317 -0.001453 0.000000 0.000000 -0.000001 0.471000
 17 2.046985 -0.000002 0.000000 0.680753 0.040207 -0.204454
 18 -3.112024 1.517254 4.341911 1.141931 -1.117252 1.569728
 19 4.827230 0.000000 0.000001 -1.229060 0.159436 -0.840457
 20 11.139763 0.000000 0.000000 0.000000 -0.000000 -1.439432
 21 10.314597 0.000001 0.000000 -0.959441 0.454597 -0.202730
 22 2.975834 -0.386307 -0.044143 -0.000797 -0.043611 0.000035
 23 1.438886 0.000000 0.000000 0.000000 -0.000000 0.453458
 24 1.485303 0.000000 0.000000 0.000000 -0.000000 0.531981
 25 -2.869898 1.399663 -4.140396 -0.000013 1.370795 2.669783
 26 4.972048 0.000000 0.000001 1.119310 -0.632024 -2.001503
 27 11.585355 0.000000 0.000000 0.000000 -0.000000 -1.459923
 28 10.127057 0.000000 0.000001 1.569752 0.000000 0.863473
 29 2.683750 -0.427338 0.044205 -0.005738 0.043239 -0.157060
 30 1.438885 -0.000001 0.000000 0.000000 -0.000000 0.732589
 31 1.485305 0.000001 0.000000 0.000000 -0.000000 1.168627
time 9
  0 0.235347 -0.235347 3.532833 -0.000000 -0.000000 -1.571254
  1 0.000000 0.000000 0.000000 -1.570795 -1.570796 0.000000
  2 -0.000005 0.000007 3.713255 -6.281131 3.115177 6.261712
  3 18.045721 0.000000 0.000000 0.000000 -0.000000 -0.121501
  4 17.597597 0.000000 0.000000 -0.002613 0.026036 0.099967
  5 3.793090 6.407221 0.000000 0.000000 -0.000000 1.570796
  6 0.000005 -0.000003 -3.713255 6.280565 -3.123995 6.258640
  7 18.045725 0.000000 0.000000 0.000000 -0.000000 -0.127551
  8 17.597597 0.000000 0.000000 0.002950 -0.017289 0.103055
  9 3.793090 6.407221 0.000000 0.000000 -0.000000 1.570796
 10 0.935740 0.000000 0.000000 0.000000 -0.000000 0.000000
 11 0.935741 0.000000 0.000000 0.000000 -0.000000 0.000000
 12 1.293670 0.684478 -0.000001 -0.000004 -0.000001 -0.153688
 13 5.309685 -0.003834 0.000000 -0.268478 -0.032275 -0.117725
 14 4.826790 -0.004591 0.000000 -0.329731 -0.036589 -0.107277
 15 5.792767 -0.005304 0.000000 -0.269206 -0.018324 -0.067289
 16 6.662317 -0.001453 0.000000 0.000000 -0.000001 0.471000
 17 2.046985 -0.000002 0.000000 0.663262 0.084444 -0.203914
 18 -3.112024 1.517254 4.341911 1.141931 -1.117252 1.569728
 19 4.827230 0.000000 0.000001 -1.222364 0.149309 -0.877299
 20 11.139763 0.000000 0.000000 0.000000 -0.000000 -1.392969
 21 10.314597 0.000001 0.000000 -0.947307 0.442075 -0.214039
 22 2.975834 -0.386307 -0.044143 -0.002199 -0.043563 0.033421
 23 1.438886 0.000000 0.000000 0.000000 -0.000000 0.491465
 24 1.485303 0.000000 0.000000 0.000000 -0.000000 0.531981
 25 -2.869898 1.399663 -4.140396 -0.000013 1.370795 2.669783
 26 4.972048 0.000000 0.000001 1.101132 -0.625508 -1.968237
 27 11.585355 0.000000 0.000000 0.000000 -0.000000 -1.462372
 28 10.127057 0.000000 0.000001 1.619822 0.002193 0.856530
 29 2.683750 -0.427338 0.044205 -0.005738 0.043239 -0.157060
 30 1.438885 -0.000001 0.000000 0.000000 -0.000000 0.732589
 31 1.485305 0.000001 0.000000 0.000000 -0.000000 1.168627
time 10
  0 0.235347 -0.235347 3.532833 -0.000000 -0.000000 -1.571254
  1 0.000000 0.000000 0.000000 -1.570795 -1.570796 0.000000
  2 -0.000005 0.000007 3.713255 -6.281131 3.115177 6.261712
  3 18.045721 0.000000 0.000000 0.000000 -0.000000 -0.121501
  4 17.597597 0.000000 0.000000 -0.002613 0.026036 0.099967
  5 3.793090 6.407221 0.000000 0.000000 -0.000000 1.570796
  6 0.000005 -0.000003 -3.713255 6.280565 -3.123995 6.258640
  7 18.045725 0.000000 0.000000 0.000000 -0.000000 -0.127551
  8 17.597597 0.000000 0.000000 0.002950 -0.017289 0.103055
  9 3.793090 6.407221 0.000000 0.000000 -0.000000 1.570796
 10 0.935740 0.000000 0.000000 0.000000 -0.000000 0.000000
 11 0.935741 0.000000 0.000000 0.000000 -0.000000 0.000000
 12 1.293670 0.684478 -0.000001 -0.000004 -0.000001 -0.142689
 13 5.309685 -0.003834 0.000000 -0.268478 -0.032275 -0.117725
 14 4.826790 -0.004591 0.000000 -0.316283 -0.035151 -0.107762
 15 5.792767 -0.005304 0.000000 -0.240524 -0.016455 -0.067746
 16 6.662317 -0.001453 0.000000 0.000000 -0.000001 0.471000
 17 2.046985 -0.000002 0.000000 0.645296 0.124673 -0.206476
 18 -3.112024 1.517254 4.341911 1.141931 -1.117252 1.569728
 19 4.827230 0.000000 0.000001 -1.214317 0.091781 -0.936719
 20 11.139763 0.000000 0.000000 0.000000 -0.000000 -1.317423
 21 10.314597 0.000001 0.000000 -0.928522 0.423488 -0.231181
 22 2.975834 -0.386307 -0.044143 -0.004380 -0.043395 0.083682
 23 1.438886 0.000000 0.000000 0.000000 -0.000000 0.548645
 24 1.485303 0.000000 0.000000 0.000000 -0.000000 0.531981
 25 -2.869898 1.399663 -4.140396 -0.000013 1.370795 2.669783
 26 4.972048 0.000000 0.000001 1.083727 -0.618349 -1.929175
 27 11.585355 0.000000 0.000000 0.000000 -0.000000 -1.511761
 28 10.127057 0.000000 0.000001 1.695118 0.004900 0.866219
 29 2.683750 -0.427338 0.044205 -0.005738 0.043239 -0.157060
 30 1.438885 -0.000001 0.000000 0.000000 -0.000000 0.732589
 31 1.485305 0.000001 0.000000 0.000000 -0.000000 1.168627
time 11
  0 0.235347 -0.235347 3.532833 -0.000000 -0.000000 -1.571254
  1 0.000000 0.000000 0.000000 -1.570795 -1.570796 0.000000
  2 -0.000005 0.000007 3.713255 -6.281131 3.115177 6.261712
  3 18.045721 0.000000 0.000000 0.000000 -0.000000 -0.121501
  4 17.597597 0.000000 0.000000 -0.002613 0.026036 0.099967
  5 3.793090 6.407221 0.000000 0.000000 -0.000000 1.570796
  6 0.000005 -0.000003 -3.713255 6.280565 -3.123995 6.258640
  7 18.045725 0.000000 0.000000 0.000000 -0.000000 -0.127551
  8 17.597597 0.000000 0.000000 0.002950 -0.017289 0.103055
  9 3.793090 6.407221 0.000000 0.000000 -0.000000 1.570796
 10 0.935740 0.000000 0.000000 0.000000 -0.000000 0.000000
 11 0.935741 0.000000 0.000000 0.000000 -0.000000 0.000000
 12 1.293670 0.684478 -0.000001 -0.000004 -0.000001 -0.132678
 13 5.309685 -0.003834 0.000000 -0.268478 -0.032275 -0.117725
 14 4.826790 -0.004591 0.000000 -0.304050 -0.033833 -0.108203
 15 5.792767 -0.005304 0.000000 -0.214451 -0.014645 -0.068182
 16 6.662317 -0.001453 0.000000 0.000000 -0.000001 0.471000
 17 2.046985 -0.000002 0.000000 0.626598 0.160625 -0.211466
 18 -3.112024 1.517254 4.341911 1.141931 -1.117252 1.569728
 19 4.827230 0.000000 0.000001 -1.203451 0.010169 -1.007866
 20 11.139763 0.000000 0.000000 0.000000 -0.000000 -1.230384
 21 10.314597 0.000001 0.000000 -0.907580 0.403379 -0.250345
 22 2.975834 -0.386307 -0.044143 -0.006777 -0.043132 0.138962
 23 1.438886 0.000000 0.000000 0.000000 -0.000000 0.611496
 24 1.485303 0.000000 0.000000 0.000000 -0.000000 0.531981
 25 -2.869898 1.399663 -4.140396 -0.000013 1.370795 2.669783
 26 4.972048 0.000000 0.000001 1.068488 -0.611109 -1.887807
 27 11.585355 0.000000 0.000000 0.000000 -0.000000 -1.588224
 28 10.127057 0.000000 0.000001 1.778058 0.005983 0.886773
 29 2.683750 -0.427338 0.044205 -0.005738 0.043239 -0.157060
 30 1.438885 -0.000001 0.000000 0.000000 -0.000000 0.732589
 31 1.485305 0.000001 0.000000 0.000000 -0.000000 1.168627
time 12
  0 0.235347 -0.235347 3.532833 -0.000000 -0.000000 -1.571254
  1 0.000000 0.000000 0.000000 -1.570795 -1.570796 0.000000
  2 -0.000005 0.000007 3.713255 -6.281131 3.115177 6.261712
  3 18.045721 0.000000 0.000000 0.000000 -0.000000 -0.121501
  4 17.597597 0.000000 0.000000 -0.002613 0.026036 0.099967
  5 3.793090 6.407221 0.000000 0.000000 -0.000000 1.570796
  6 0.000005 -0.000003 -3.713255 6.280565 -3.123995 6.258640
  7 18.045725 0.000000 0.000000 0.000000 -0.000000 -0.127551
  8 17.597597 0.000000 0.000000 0.002950 -0.017289 0.103055
  9 3.793090 6.407221 0.000000 0.000000 -0.000000 1.570796
 10 0.935740 0.000000 0.000000 0.000000 -0.000000 0.000000
 11 0.935741 0.000000 0.000000 0.000000 -0.000000 0.000000
 12 1.293670 0.684478 -0.000001 -0.000004 -0.000001 -0.123705
 13 5.309685 -0.003834 0.000000 -0.268478 -0.032275 -0.117725
 14 4.826790 -0.004591 0.000000 -0.293049 -0.032598 -0.108556
 15 5.792767 -0.005304 0.000000 -0.190988 -0.013063 -0.068514
 16 6.662317 -0.001453 0.000000 0.000000 -0.000001 0.471000
 17 2.046985 -0.000002 0.000000 0.607168 0.192210 -0.218118
 18 -3.112024 1.517254 4.341911 1.141931 -1.117252 1.569728
 19 4.827230 0.000000 0.000001 -1.189648 -0.072549 -1.080500
 20 11.139763 0.000000 0.000000 0.000000 -0.000000 -1.147129
 21 10.314597 0.000001 0.000000 -0.888615 0.385574 -0.267876
 22 2.975834 -0.386307 -0.044143 -0.008959 -0.042688 0.188826
 23 1.438886 0.000000 0.000000 0.000000 -0.000000 0.668168
 24 1.485303 0.000000 0.000000 0.000000 -0.000000 0.531981
 25 -2.869898 1.399663 -4.140396 -0.000013 1.370795 2.669783
 26 4.972048 0.000000 0.000001 1.056266 -0.604272 -1.846966
 27 11.585355 0.000000 0.000000 0.000000 -0.000000 -1.671893
 28 10.127057 0.000000 0.000001 1.852908 0.004494 0.912662
 29 2.683750 -0.427338 0.044205 -0.005738 0.043239 -0.157060
 30 1.438885 -0.000001 0.000000 0.000000 -0.000000 0.732589
 31 1.485305 0.000001 0.000000 0.000000 -0.000000 1.168627
time 13
  0 0.235347 -0.235347 3.532833 -0.000000 -0.000000 -1.571254
  1 0.000000 0.000000 0.000000 -1.570795 -1.570796 0.000000
  2 -0.000005 0.000007 3.713255 -6.281131 3.115177 6.261712
  3 18.045721 0.000000 0.000000 0.000000 -0.000000 -0.121501
  4 17.597597 0.000000 0.000000 -0.002613 0.026036 0.099967
  5 3.793090 6.407221 0.000000 0.000000 -0.000000 1.570796
  6 0.000005 -0.000003 -3.713255 6.280565 -3.123995 6.258640
  7 18.045725 0.000000 0.000000 0.000000 -0.000000 -0.127551
  8 17.597597 0.000000 0.000000 0.002950 -0.017289 0.103055
  9 3.793090 6.407221 0.000000 0.000000 -0.000000 1.570796
 10 0.935740 0.000000 0.000000 0.000000 -0.000000 0.000000
 11 0.935741 0.000000 0.000000 0.000000 -0.000000 0.000000
 12 1.293670 0.684478 -0.000001 -0.000004 -0.000001 -0.115753
 13 5.309685 -0.003834 0.000000 -0.268478 -0.032275 -0.117725
 14 4.826790 -0.004591 0.000000 -0.283328 -0.031543 -0.108798
 15 5.792767 -0.005304 0.000000 -0.170263 -0.011697 -0.068722
 16 6.662317 -0.001453 0.000000 0.000000 -0.000001 0.471000
 17 2.046985 -0.000002 0.000000 0.586100 0.219202 -0.226074
 18 -3.112024 1.517254 4.341911 1.141931 -1.117252 1.569728
 19 4.827230 0.000000 0.000001 -1.174729 -0.140459 -1.145521
 20 11.139763 0.000000 0.000000 0.000000 -0.000000 -1.079642
 21 10.314597 0.000001 0.000000 -0.874324 0.372530 -0.281067
 22 2.975834 -0.386307 -0.044143 -0.010517 -0.042377 0.225811
 23 1.438886 0.000000 0.000000 0.000000 -0.000000 0.710365
 24 1.485303 0.000000 0.000000 0.000000 -0.000000 0.531981
 25 -2.869898 1.399663 -4.140396 -0.000013 1.370795 2.669783
 26 4.972048 0.000000 0.000001 1.046906 -0.598319 -1.808628
 27 11.585355 0.000000 0.000000 0.000000 -0.000000 -1.746537
 28 10.127057 0.000000 0.000001 1.908520 0.000975 0.938472
 29 2.683750 -0.427338 0.044205 -0.005738 0.043239 -0.157060
 30 1.438885 -0.000001 0.000000 0.000000 -0.000000 0.732589
 31 1.485305 0.000001 0.000000 0.000000 -0.000000 1.168627
time 14
  0 0.235347 -0.235347 3.532833 -0.000000 -0.000000 -1.571254
  1 0.000000 0.000000 0.000000 -1.570795 -1.570796 0.000000
  2 -0.000005 0.000007 3.713255 -6.281131 3.115177 6.261712
  3 18.045721 0.000000 0.000000 0.000000 -0.000000 -0.121501
  4 17.597597 0.000000 0.000000 -0.002613 0.026036 0.099967
  5 3.793090 6.407221 0.000000 0.000000 -0.000000 1.570796
  6 0.000005 -0.000003 -3.713255 6.280565 -3.123995 6.258640
  7 18.045725 0.000000 0.000000 0.000000 -0.000000 -0.127551
  8 17.597597 0.000000 0.000000 0.002950 -0.017289 0.103055
  9 3.793090 6.407221 0.000000 0.000000 -0.000000 1.570796
 10 0.935740 0.000000 0.000000 0.000000 -0.000000 0.000000
 11 0.935741 0.000000 0.000000 0.000000 -0.000000 0.000000
 12 1.293670 0.684478 -0.000001 -0.000004 -0.000001 -0.109023
 13 5.309685 -0.003834 0.000000 -0.268478 -0.032275 -0.117725
 14 4.826790 -0.004591 0.000000 -0.275069 -0.030693 -0.109129
 15 5.792767 -0.005304 0.000000 -0.152702 -0.010499 -0.068971
 16 6.662317 -0.001453 0.000000 0.000000 -0.000001 0.471000
 17 2.046985 -0.000002 0.000000 0.563266 0.240949 -0.234883
 18 -3.112024 1.517254 4.341911 1.141931 -1.117252 1.569728
 19 4.827230 0.000000 0.000001 -1.161983 -0.184371 -1.196365
 20 11.139763 0.000000 0.000000 0.000000 -0.000000 -1.034371
 21 10.314597 0.000001 0.000000 -0.866145 0.365182 -0.288627
 22 2.975834 -0.386307 -0.044143 -0.011379 -0.042149 0.247045
 23 1.438886 0.000000 0.000000 0.000000 -0.000000 0.734363
 24 1.485303 0.000000 0.000000 0.000000 -0.000000 0.531981
 25 -2.869898 1.399663 -4.140396 -0.000013 1.370795 2.669783
 26 4.972048 0.000000 0.000001 1.040563 -0.593171 -1.775165
 27 11.585355 0.000000 0.000000 0.000000 -0.000000 -1.802432
 28 10.127057 0.000000 0.000001 1.940180 -0.003005 0.960752
 29 2.683750 -0.427338 0.044205 -0.005738 0.043239 -0.157060
 30 1.438885 -0.000001 0.000000 0.000000 -0.000000 0.732589
 31 1.485305 0.000001 0.000000 0.000000 -0.000000 1.168627
time 15
  0 0.235347 -0.235347 3.532833 -0.000000 -0.000000 -1.571254
  1 0.000000 0.000000 0.000000 -1.570795 -1.570796 0.000000
  2 -0.000005 0.000007 3.713255 -6.281131 3.115177 6.261712
  3 18.045721 0.000000 0.000000 0.000000 -0.000000 -0.121501
  4 17.597597 0.000000 0.000000 -0.002613 0.026036 0.099967
  5 3.793090 6.407221 0.000000 0.000000 -0.000000 1.570796
  6 0.000005 -0.000003 -3.713255 6.280565 -3.123995 6.258640
  7 18.045725 0.000000 0.000000 0.000000 -0.000000 -0.127551
  8 17.597597 0.000000 0.000000 0.002950 -0.017289 0.103055
  9 3.793090 6.407221 0.000000 0.000000 -0.000000 1.570796
 10 0.935740 0.000000 0.000000 0.000000 -0.000000 0.000000
 11 0.935741 0.000000 0.000000 0.000000 -0.000000 0.000000
 12 1.293670 0.684478 -0.000001 -0.000004 -0.000001 -0.103850
 13 5.309685 -0.003834 0.000000 -0.268478 -0.032275 -0.117725
 14 4.826790 -0.004591 0.000000 -0.268747 -0.029961 -0.109261
 15 5.792767 -0.005304 0.000000 -0.139201 -0.009588 -0.069054
 16 6.662317 -0.001453 0.000000 0.000000 -0.000001 0.471000
 17 2.046985 -0.000002 0.000000 0.538192 0.256055 -0.244143
 18 -3.112024 1.517254 4.341911 1.141931 -1.117252 1.569728
 19 4.827230 0.000000 0.000001 -1.153525 -0.204540 -1.229094
 20 11.139763 0.000000 0.000000 0.000000 -0.000000 -1.010333
 21 10.314597 0.000001 0.000000 -0.863808 0.363052 -0.290867
 22 2.975834 -0.386307 -0.044143 -0.011691 -0.042029 0.253088
 23 1.438886 0.000000 0.000000 0.000000 -0.000000 0.741304
 24 1.485303 0.000000 0.000000 0.000000 -0.000000 0.531981
 25 -2.869898 1.399663 -4.140396 -0.000013 1.370795 2.669783
 26 4.972048 0.000000 0.000001 1.036850 -0.590114 -1.749343
 27 11.585355 0.000000 0.000000 0.000000 -0.000000 -1.837551
 28 10.127057 0.000000 0.000001 1.949353 -0.006416 0.977737
 29 2.683750 -0.427338 0.044205 -0.005738 0.043239 -0.157060
 30 1.438885 -0.000001 0.000000 0.000000 -0.000000 0.732589
 31 1.485305 0.000001 0.000000 0.000000 -0.000000 1.168627
end
