version 1
nodes
  0 "Bip01"  -1
  1 "Bip01 Pelvis"   0
  2 "Bip01 L Leg"   1
  3 "Bip01 L Leg1"   2
  4 "Bip01 L Foot"   3
  5 "Bip01 L Toe0"   4
  6 "Bip01 R Leg"   1
  7 "Bip01 R Leg1"   6
  8 "Bip01 R Foot"   7
  9 "Bip01 R Toe0"   8
 10 "Bip01 R Toe01"   9
 11 "Bip01 R Toe02"  10
 12 "Bip01 Spine"   1
 13 "Bip01 Spine1"  12
 14 "Bip01 Spine2"  13
 15 "Bip01 Spine3"  14
 16 "Bip01 Neck"  15
 17 "Bip01 Head"  16
 18 "Bip01 L Arm"  16
 19 "Bip01 L Arm1"  18
 20 "Bip01 L Arm2"  19
 21 "Bip01 L Hand"  20
 22 "Bip01 L Finger1"  21
 23 "Bip01 L Finger11"  22
 24 "Bip01 L Finger12"  23
 25 "Bip01 R Arm"  16
 26 "Bip01 R Arm1"  25
 27 "Bip01 R Arm2"  26
 28 "Bip01 R Hand"  27
 29 "Bip01 R Finger1"  28
 30 "Bip01 R Finger11"  29
 31 "Bip01 R Finger12"  30
end
skeleton
time 0
  0 0.235347 -0.235347 3.532833 -0.000000 -0.000000 -1.571254
  1 0.000000 0.000000 0.000000 -1.570795 -1.570796 0.000000
  2 -0.000005 0.000007 3.713255 -6.281131 3.115177 6.261712
  3 18.045721 0.000000 0.000000 0.000000 -0.000000 -0.121501
  4 17.597597 0.000000 0.000000 -0.002613 0.026036 0.099967
  5 3.793090 6.407221 0.000000 0.000000 -0.000000 1.570796
  6 0.000005 -0.000003 -3.713255 6.280565 -3.123995 6.258640
  7 18.045725 0.000000 0.000000 0.000000 -0.000000 -0.127551
  8 17.597597 0.000000 0.000000 0.002950 -0.017289 0.103055
  9 3.793090 6.407221 0.000000 0.000000 -0.000000 1.570796
 10 0.935740 0.000000 0.000000 0.000000 -0.000000 0.000000
 11 0.935741 0.000000 0.000000 0.000000 -0.000000 0.000000
 12 1.293670 0.684478 -0.000001 -0.000004 -0.000001 0.306054
 13 5.309685 -0.003834 0.000000 0.000000 -0.000000 -0.000013
 14 4.826790 -0.004591 0.000000 -0.173330 0.019775 0.111663
 15 5.792767 -0.005304 0.000000 -0.138174 0.019451 0.138180
 16 6.662317 -0.001453 0.000000 0.000000 -0.000001 0.471000
 17 2.046985 -0.000002 0.000000 0.254577 -0.184691 -0.061026
 18 -3.112024 1.517254 4.341911 1.021706 -1.200331 1.679890
 19 4.827230 0.000000 0.000001 0.100848 0.743993 -0.910291
 20 11.139763 0.000000 0.000000 0.000000 -0.000000 -0.786849
 21 10.314597 0.000001 0.000000 -3.878403 0.130307 -0.281129
 22 2.975834 -0.386307 -0.044143 -0.000797 -0.043611 0.000035
 23 1.438886 0.000000 0.000000 0.000000 -0.000000 0.872170
 24 1.485303 0.000000 0.000000 0.000000 -0.000000 0.906977
 25 -2.869898 1.399663 -4.140396 0.672346 1.317206 3.326706
 26 4.972048 0.000000 0.000001 -1.089322 -1.024254 0.318132
 27 11.585355 0.000000 0.000000 0.000000 -0.000000 -1.839579
 28 10.127057 0.000000 0.000001 1.597654 0.255717 0.214724
 29 2.683750 -0.427338 0.044205 -0.005738 0.043239 -0.157060
 30 1.438885 -0.000001 0.000000 0.000000 -0.000000 0.732589
 31 1.485305 0.000001 0.000000 0.000000 -0.000000 1.168627
time 1
  0 0.235347 -0.235347 3.532833 -0.000000 -0.000000 -1.571254
  1 0.000000 0.000000 0.000000 -1.570795 -1.570796 0.000000
  2 -0.000005 0.000007 3.713255 -6.281131 3.115177 6.261712
  3 18.045721 0.000000 0.000000 0.000000 -0.000000 -0.121501
  4 17.597597 0.000000 0.000000 -0.002613 0.026036 0.099967
  5 3.793090 6.407221 0.000000 0.000000 -0.000000 1.570796
  6 0.000005 -0.000003 -3.713255 6.280565 -3.123995 6.258640
  7 18.045725 0.000000 0.000000 0.000000 -0.000000 -0.127551
  8 17.597597 0.000000 0.000000 0.002950 -0.017289 0.103055
  9 3.793090 6.407221 0.000000 0.000000 -0.000000 1.570796
 10 0.935740 0.000000 0.000000 0.000000 -0.000000 0.000000
 11 0.935741 0.000000 0.000000 0.000000 -0.000000 0.000000
 12 1.293670 0.684478 -0.000001 -0.000004 -0.000001 0.306054
 13 5.309685 -0.003834 0.000000 0.000000 -0.000000 -0.000013
 14 4.826790 -0.004591 0.000000 -0.173281 0.019906 0.112721
 15 5.792767 -0.005304 0.000000 -0.138141 0.019655 0.139633
 16 6.662317 -0.001453 0.000000 0.000000 -0.000001 0.471000
 17 2.046985 -0.000002 0.000000 0.254663 -0.184556 -0.063543
 18 -3.112024 1.517254 4.341911 1.015761 -1.198985 1.685834
 19 4.827230 0.000000 0.000001 0.102610 0.739823 -0.909503
 20 11.139763 0.000000 0.000000 0.000000 -0.000000 -0.786849
 21 10.314597 0.000001 0.000000 -3.878403 0.130307 -0.281129
 22 2.975834 -0.386307 -0.044143 -0.000797 -0.043611 0.000035
 23 1.438886 0.000000 0.000000 0.000000 -0.000000 0.872170
 24 1.485303 0.000000 0.000000 0.000000 -0.000000 0.906977
 25 -2.869898 1.399663 -4.140396 0.663238 1.314097 3.316927
 26 4.972048 0.000000 0.000001 -1.082747 -1.021680 0.311940
 27 11.585355 0.000000 0.000000 0.000000 -0.000000 -1.839579
 28 10.127057 0.000000 0.000001 1.597654 0.255717 0.214724
 29 2.683750 -0.427338 0.044205 -0.005738 0.043239 -0.157060
 30 1.438885 -0.000001 0.000000 0.000000 -0.000000 0.732589
 31 1.485305 0.000001 0.000000 0.000000 -0.000000 1.168627
time 2
  0 0.235347 -0.235347 3.532833 -0.000000 -0.000000 -1.571254
  1 0.000000 0.000000 0.000000 -1.570795 -1.570796 0.000000
  2 -0.000005 0.000007 3.713255 -6.281131 3.115177 6.261712
  3 18.045721 0.000000 0.000000 0.000000 -0.000000 -0.121501
  4 17.597597 0.000000 0.000000 -0.002613 0.026036 0.099967
  5 3.793090 6.407221 0.000000 0.000000 -0.000000 1.570796
  6 0.000005 -0.000003 -3.713255 6.280565 -3.123995 6.258640
  7 18.045725 0.000000 0.000000 0.000000 -0.000000 -0.127551
  8 17.597597 0.000000 0.000000 0.002950 -0.017289 0.103055
  9 3.793090 6.407221 0.000000 0.000000 -0.000000 1.570796
 10 0.935740 0.000000 0.000000 0.000000 -0.000000 0.000000
 11 0.935741 0.000000 0.000000 0.000000 -0.000000 0.000000
 12 1.293670 0.684478 -0.000001 -0.000004 -0.000001 0.306054
 13 5.309685 -0.003834 0.000000 0.000000 -0.000000 -0.000013
 14 4.826790 -0.004591 0.000000 -0.173248 0.020170 0.114132
 15 5.792767 -0.005304 0.000000 -0.138109 0.019882 0.141585
 16 6.662317 -0.001453 0.000000 0.000000 -0.000001 0.471000
 17 2.046985 -0.000002 0.000000 0.254922 -0.184376 -0.067049
 18 -3.112024 1.517254 4.341911 1.008188 -1.197177 1.693888
 19 4.827230 0.000000 0.000001 0.105077 0.734717 -0.908628
 20 11.139763 0.000000 0.000000 0.000000 -0.000000 -0.786849
 21 10.314597 0.000001 0.000000 -3.878403 0.130307 -0.281129
 22 2.975834 -0.386307 -0.044143 -0.000797 -0.043611 0.000035
 23 1.438886 0.000000 0.000000 0.000000 -0.000000 0.872170
 24 1.485303 0.000000 0.000000 0.000000 -0.000000 0.906977
 25 -2.869898 1.399663 -4.140396 0.650391 1.309716 3.303888
 26 4.972048 0.000000 0.000001 -1.074006 -1.018221 0.303706
 27 11.585355 0.000000 0.000000 0.000000 -0.000000 -1.839579
 28 10.127057 0.000000 0.000001 1.597654 0.255717 0.214724
 29 2.683750 -0.427338 0.044205 -0.005738 0.043239 -0.157060
 30 1.438885 -0.000001 0.000000 0.000000 -0.000000 0.732589
 31 1.485305 0.000001 0.000000 0.000000 -0.000000 1.168627
time 3
  0 0.235347 -0.235347 3.532833 -0.000000 -0.000000 -1.571254
  1 0.000000 0.000000 0.000000 -1.570795 -1.570796 0.000000
  2 -0.000005 0.000007 3.713255 -6.281131 3.115177 6.261712
  3 18.045721 0.000000 0.000000 0.000000 -0.000000 -0.121501
  4 17.597597 0.000000 0.000000 -0.002613 0.026036 0.099967
  5 3.793090 6.407221 0.000000 0.000000 -0.000000 1.570796
  6 0.000005 -0.000003 -3.713255 6.280565 -3.123995 6.258640
  7 18.045725 0.000000 0.000000 0.000000 -0.000000 -0.127551
  8 17.597597 0.000000 0.000000 0.002950 -0.017289 0.103055
  9 3.793090 6.407221 0.000000 0.000000 -0.000000 1.570796
 10 0.935740 0.000000 0.000000 0.000000 -0.000000 0.000000
 11 0.935741 0.000000 0.000000 0.000000 -0.000000 0.000000
 12 1.293670 0.684478 -0.000001 -0.000004 -0.000001 0.306054
 13 5.309685 -0.003834 0.000000 0.000000 -0.000000 -0.000013
 14 4.826790 -0.004591 0.000000 -0.173199 0.020530 0.115940
 15 5.792767 -0.005304 0.000000 -0.138060 0.020266 0.144014
 16 6.662317 -0.001453 0.000000 0.000000 -0.000001 0.471000
 17 2.046985 -0.000002 0.000000 0.255051 -0.184173 -0.071274
 18 -3.112024 1.517254 4.341911 0.999559 -1.194908 1.703667
 19 4.827230 0.000000 0.000001 0.107955 0.727994 -0.907403
 20 11.139763 0.000000 0.000000 0.000000 -0.000000 -0.786849
 21 10.314597 0.000001 0.000000 -3.878403 0.130307 -0.281129
 22 2.975834 -0.386307 -0.044143 -0.000797 -0.043611 0.000035
 23 1.438886 0.000000 0.000000 0.000000 -0.000000 0.872170
 24 1.485303 0.000000 0.000000 0.000000 -0.000000 0.906977
 25 -2.869898 1.399663 -4.140396 0.635818 1.304459 3.288357
 26 4.972048 0.000000 0.000001 -1.063563 -1.014038 0.293891
 27 11.585355 0.000000 0.000000 0.000000 -0.000000 -1.839579
 28 10.127057 0.000000 0.000001 1.597654 0.255717 0.214724
 29 2.683750 -0.427338 0.044205 -0.005738 0.043239 -0.157060
 30 1.438885 -0.000001 0.000000 0.000000 -0.000000 0.732589
 31 1.485305 0.000001 0.000000 0.000000 -0.000000 1.168627
time 4
  0 0.235347 -0.235347 3.532833 -0.000000 -0.000000 -1.571254
  1 0.000000 0.000000 0.000000 -1.570795 -1.570796 0.000000
  2 -0.000005 0.000007 3.713255 -6.281131 3.115177 6.261712
  3 18.045721 0.000000 0.000000 0.000000 -0.000000 -0.121501
  4 17.597597 0.000000 0.000000 -0.002613 0.026036 0.099967
  5 3.793090 6.407221 0.000000 0.000000 -0.000000 1.570796
  6 0.000005 -0.000003 -3.713255 6.280565 -3.123995 6.258640
  7 18.045725 0.000000 0.000000 0.000000 -0.000000 -0.127551
  8 17.597597 0.000000 0.000000 0.002950 -0.017289 0.103055
  9 3.793090 6.407221 0.000000 0.000000 -0.000000 1.570796
 10 0.935740 0.000000 0.000000 0.000000 -0.000000 0.000000
 11 0.935741 0.000000 0.000000 0.000000 -0.000000 0.000000
 12 1.293670 0.684478 -0.000001 -0.000004 -0.000001 0.306054
 13 5.309685 -0.003834 0.000000 0.000000 -0.000000 -0.000013
 14 4.826790 -0.004591 0.000000 -0.173199 0.020841 0.118013
 15 5.792767 -0.005304 0.000000 -0.138011 0.020602 0.146734
 16 6.662317 -0.001453 0.000000 0.000000 -0.000001 0.471000
 17 2.046985 -0.000002 0.000000 0.255094 -0.183925 -0.075948
 18 -3.112024 1.517254 4.341911 0.989301 -1.192254 1.714693
 19 4.827230 0.000000 0.000001 0.111303 0.720335 -0.906178
 20 11.139763 0.000000 0.000000 0.000000 -0.000000 -0.786849
 21 10.314597 0.000001 0.000000 -3.878403 0.130307 -0.281129
 22 2.975834 -0.386307 -0.044143 -0.000797 -0.043611 0.000035
 23 1.438886 0.000000 0.000000 0.000000 -0.000000 0.872170
 24 1.485303 0.000000 0.000000 0.000000 -0.000000 0.906977
 25 -2.869898 1.399663 -4.140396 0.619424 1.298269 3.271579
 26 4.972048 0.000000 0.000001 -1.051805 -1.009051 0.283022
 27 11.585355 0.000000 0.000000 0.000000 -0.000000 -1.839579
 28 10.127057 0.000000 0.000001 1.597654 0.255717 0.214724
 29 2.683750 -0.427338 0.044205 -0.005738 0.043239 -0.157060
 30 1.438885 -0.000001 0.000000 0.000000 -0.000000 0.732589
 31 1.485305 0.000001 0.000000 0.000000 -0.000000 1.168627
time 5
  0 0.235347 -0.235347 3.532833 -0.000000 -0.000000 -1.571254
  1 0.000000 0.000000 0.000000 -1.570795 -1.570796 0.000000
  2 -0.000005 0.000007 3.713255 -6.281131 3.115177 6.261712
  3 18.045721 0.000000 0.000000 0.000000 -0.000000 -0.121501
  4 17.597597 0.000000 0.000000 -0.002613 0.026036 0.099967
  5 3.793090 6.407221 0.000000 0.000000 -0.000000 1.570796
  6 0.000005 -0.000003 -3.713255 6.280565 -3.123995 6.258640
  7 18.045725 0.000000 0.000000 0.000000 -0.000000 -0.127551
  8 17.597597 0.000000 0.000000 0.002950 -0.017289 0.103055
  9 3.793090 6.407221 0.000000 0.000000 -0.000000 1.570796
 10 0.935740 0.000000 0.000000 0.000000 -0.000000 0.000000
 11 0.935741 0.000000 0.000000 0.000000 -0.000000 0.000000
 12 1.293670 0.684478 -0.000001 -0.000004 -0.000001 0.306054
 13 5.309685 -0.003834 0.000000 0.000000 -0.000000 -0.000013
 14 4.826790 -0.004591 0.000000 -0.173133 0.021273 0.120173
 15 5.792767 -0.005304 0.000000 -0.137945 0.021057 0.149724
 16 6.662317 -0.001453 0.000000 0.000000 -0.000001 0.471000
 17 2.046985 -0.000002 0.000000 0.255396 -0.183655 -0.081207
 18 -3.112024 1.517254 4.341911 0.978371 -1.189369 1.726869
 19 4.827230 0.000000 0.000001 0.114769 0.712080 -0.904865
 20 11.139763 0.000000 0.000000 0.000000 -0.000000 -0.786849
 21 10.314597 0.000001 0.000000 -3.878403 0.130307 -0.281129
 22 2.975834 -0.386307 -0.044143 -0.000797 -0.043611 0.000035
 23 1.438886 0.000000 0.000000 0.000000 -0.000000 0.872170
 24 1.485303 0.000000 0.000000 0.000000 -0.000000 0.906977
 25 -2.869898 1.399663 -4.140396 0.602838 1.291514 3.254322
 26 4.972048 0.000000 0.000001 -1.039119 -1.003420 0.271165
 27 11.585355 0.000000 0.000000 0.000000 -0.000000 -1.839579
 28 10.127057 0.000000 0.000001 1.597654 0.255717 0.214724
 29 2.683750 -0.427338 0.044205 -0.005738 0.043239 -0.157060
 30 1.438885 -0.000001 0.000000 0.000000 -0.000000 0.732589
 31 1.485305 0.000001 0.000000 0.000000 -0.000000 1.168627
time 6
  0 0.235347 -0.235347 3.532833 -0.000000 -0.000000 -1.571254
  1 0.000000 0.000000 0.000000 -1.570795 -1.570796 0.000000
  2 -0.000005 0.000007 3.713255 -6.281131 3.115177 6.261712
  3 18.045721 0.000000 0.000000 0.000000 -0.000000 -0.121501
  4 17.597597 0.000000 0.000000 -0.002613 0.026036 0.099967
  5 3.793090 6.407221 0.000000 0.000000 -0.000000 1.570796
  6 0.000005 -0.000003 -3.713255 6.280565 -3.123995 6.258640
  7 18.045725 0.000000 0.000000 0.000000 -0.000000 -0.127551
  8 17.597597 0.000000 0.000000 0.002950 -0.017289 0.103055
  9 3.793090 6.407221 0.000000 0.000000 -0.000000 1.570796
 10 0.935740 0.000000 0.000000 0.000000 -0.000000 0.000000
 11 0.935741 0.000000 0.000000 0.000000 -0.000000 0.000000
 12 1.293670 0.684478 -0.000001 -0.000004 -0.000001 0.306054
 13 5.309685 -0.003834 0.000000 0.000000 -0.000000 -0.000013
 14 4.826790 -0.004591 0.000000 -0.173084 0.021632 0.122510
 15 5.792767 -0.005304 0.000000 -0.137880 0.021440 0.152859
 16 6.662317 -0.001453 0.000000 0.000000 -0.000001 0.471000
 17 2.046985 -0.000002 0.000000 0.255568 -0.183363 -0.086916
 18 -3.112024 1.517254 4.341911 0.966675 -1.186215 1.739141
 19 4.827230 0.000000 0.000001 0.118528 0.703485 -0.903465
 20 11.139763 0.000000 0.000000 0.000000 -0.000000 -0.786849
 21 10.314597 0.000001 0.000000 -3.878403 0.130307 -0.281129
 22 2.975834 -0.386307 -0.044143 -0.000797 -0.043611 0.000035
 23 1.438886 0.000000 0.000000 0.000000 -0.000000 0.872170
 24 1.485303 0.000000 0.000000 0.000000 -0.000000 0.906977
 25 -2.869898 1.399663 -4.140396 0.586156 1.284335 3.236969
 26 4.972048 0.000000 0.000001 -1.026046 -0.997548 0.258715
 27 11.585355 0.000000 0.000000 0.000000 -0.000000 -1.839579
 28 10.127057 0.000000 0.000001 1.597654 0.255717 0.214724
 29 2.683750 -0.427338 0.044205 -0.005738 0.043239 -0.157060
 30 1.438885 -0.000001 0.000000 0.000000 -0.000000 0.732589
 31 1.485305 0.000001 0.000000 0.000000 -0.000000 1.168627
time 7
  0 0.235347 -0.235347 3.532833 -0.000000 -0.000000 -1.571254
  1 0.000000 0.000000 0.000000 -1.570795 -1.570796 0.000000
  2 -0.000005 0.000007 3.713255 -6.281131 3.115177 6.261712
  3 18.045721 0.000000 0.000000 0.000000 -0.000000 -0.121501
  4 17.597597 0.000000 0.000000 -0.002613 0.026036 0.099967
  5 3.793090 6.407221 0.000000 0.000000 -0.000000 1.570796
  6 0.000005 -0.000003 -3.713255 6.280565 -3.123995 6.258640
  7 18.045725 0.000000 0.000000 0.000000 -0.000000 -0.127551
  8 17.597597 0.000000 0.000000 0.002950 -0.017289 0.103055
  9 3.793090 6.407221 0.000000 0.000000 -0.000000 1.570796
 10 0.935740 0.000000 0.000000 0.000000 -0.000000 0.000000
 11 0.935741 0.000000 0.000000 0.000000 -0.000000 0.000000
 12 1.293670 0.684478 -0.000001 -0.000004 -0.000001 0.306054
 13 5.309685 -0.003834 0.000000 0.000000 -0.000000 -0.000013
 14 4.826790 -0.004591 0.000000 -0.173051 0.022100 0.124958
 15 5.792767 -0.005304 0.000000 -0.137799 0.021932 0.156036
 16 6.662317 -0.001453 0.000000 0.000000 -0.000001 0.471000
 17 2.046985 -0.000002 0.000000 0.255611 -0.183070 -0.092399
 18 -3.112024 1.517254 4.341911 0.955266 -1.183023 1.751030
 19 4.827230 0.000000 0.000001 0.122170 0.694975 -0.902240
 20 11.139763 0.000000 0.000000 0.000000 -0.000000 -0.786849
 21 10.314597 0.000001 0.000000 -3.878403 0.130307 -0.281129
 22 2.975834 -0.386307 -0.044143 -0.000797 -0.043611 0.000035
 23 1.438886 0.000000 0.000000 0.000000 -0.000000 0.872170
 24 1.485303 0.000000 0.000000 0.000000 -0.000000 0.906977
 25 -2.869898 1.399663 -4.140396 0.569953 1.276845 3.219999
 26 4.972048 0.000000 0.000001 -1.013205 -0.991595 0.246660
 27 11.585355 0.000000 0.000000 0.000000 -0.000000 -1.839579
 28 10.127057 0.000000 0.000001 1.597654 0.255717 0.214724
 29 2.683750 -0.427338 0.044205 -0.005738 0.043239 -0.157060
 30 1.438885 -0.000001 0.000000 0.000000 -0.000000 0.732589
 31 1.485305 0.000001 0.000000 0.000000 -0.000000 1.168627
time 8
  0 0.235347 -0.235347 3.532833 -0.000000 -0.000000 -1.571254
  1 0.000000 0.000000 0.000000 -1.570795 -1.570796 0.000000
  2 -0.000005 0.000007 3.713255 -6.281131 3.115177 6.261712
  3 18.045721 0.000000 0.000000 0.000000 -0.000000 -0.121501
  4 17.597597 0.000000 0.000000 -0.002613 0.026036 0.099967
  5 3.793090 6.407221 0.000000 0.000000 -0.000000 1.570796
  6 0.000005 -0.000003 -3.713255 6.280565 -3.123995 6.258640
  7 18.045725 0.000000 0.000000 0.000000 -0.000000 -0.127551
  8 17.597597 0.000000 0.000000 0.002950 -0.017289 0.103055
  9 3.793090 6.407221 0.000000 0.000000 -0.000000 1.570796
 10 0.935740 0.000000 0.000000 0.000000 -0.000000 0.000000
 11 0.935741 0.000000 0.000000 0.000000 -0.000000 0.000000
 12 1.293670 0.684478 -0.000001 -0.000004 -0.000001 0.306054
 13 5.309685 -0.003834 0.000000 0.000000 -0.000000 -0.000013
 14 4.826790 -0.004591 0.000000 -0.172969 0.022459 0.127339
 15 5.792767 -0.005304 0.000000 -0.137734 0.022327 0.159171
 16 6.662317 -0.001453 0.000000 0.000000 -0.000001 0.471000
 17 2.046985 -0.000002 0.000000 0.255913 -0.182800 -0.098107
 18 -3.112024 1.517254 4.341911 0.944528 -1.179792 1.763110
 19 4.827230 0.000000 0.000001 0.125929 0.685954 -0.900927
 20 11.139763 0.000000 0.000000 0.000000 -0.000000 -0.786849
 21 10.314597 0.000001 0.000000 -3.878403 0.130307 -0.281129
 22 2.975834 -0.386307 -0.044143 -0.000797 -0.043611 0.000035
 23 1.438886 0.000000 0.000000 0.000000 -0.000000 0.872170
 24 1.485303 0.000000 0.000000 0.000000 -0.000000 0.906977
 25 -2.869898 1.399663 -4.140396 0.554422 1.269468 3.204084
 26 4.972048 0.000000 0.000001 -1.000519 -0.985401 0.234474
 27 11.585355 0.000000 0.000000 0.000000 -0.000000 -1.839579
 28 10.127057 0.000000 0.000001 1.597654 0.255717 0.214724
 29 2.683750 -0.427338 0.044205 -0.005738 0.043239 -0.157060
 30 1.438885 -0.000001 0.000000 0.000000 -0.000000 0.732589
 31 1.485305 0.000001 0.000000 0.000000 -0.000000 1.168627
time 9
  0 0.235347 -0.235347 3.532833 -0.000000 -0.000000 -1.571254
  1 0.000000 0.000000 0.000000 -1.570795 -1.570796 0.000000
  2 -0.000005 0.000007 3.713255 -6.281131 3.115177 6.261712
  3 18.045721 0.000000 0.000000 0.000000 -0.000000 -0.121501
  4 17.597597 0.000000 0.000000 -0.002613 0.026036 0.099967
  5 3.793090 6.407221 0.000000 0.000000 -0.000000 1.570796
  6 0.000005 -0.000003 -3.713255 6.280565 -3.123995 6.258640
  7 18.045725 0.000000 0.000000 0.000000 -0.000000 -0.127551
  8 17.597597 0.000000 0.000000 0.002950 -0.017289 0.103055
  9 3.793090 6.407221 0.000000 0.000000 -0.000000 1.570796
 10 0.935740 0.000000 0.000000 0.000000 -0.000000 0.000000
 11 0.935741 0.000000 0.000000 0.000000 -0.000000 0.000000
 12 1.293670 0.684478 -0.000001 -0.000004 -0.000001 0.306054
 13 5.309685 -0.003834 0.000000 0.000000 -0.000000 -0.000013
 14 4.826790 -0.004591 0.000000 -0.172936 0.022903 0.129588
 15 5.792767 -0.005304 0.000000 -0.137668 0.022795 0.162244
 16 6.662317 -0.001453 0.000000 0.000000 -0.000001 0.471000
 17 2.046985 -0.000002 0.000000 0.256085 -0.182507 -0.103366
 18 -3.112024 1.517254 4.341911 0.934078 -1.176561 1.774711
 19 4.827230 0.000000 0.000001 0.129453 0.677614 -0.899877
 20 11.139763 0.000000 0.000000 0.000000 -0.000000 -0.786849
 21 10.314597 0.000001 0.000000 -3.878403 0.130307 -0.281129
 22 2.975834 -0.386307 -0.044143 -0.000797 -0.043611 0.000035
 23 1.438886 0.000000 0.000000 0.000000 -0.000000 0.872170
 24 1.485303 0.000000 0.000000 0.000000 -0.000000 0.906977
 25 -2.869898 1.399663 -4.140396 0.540712 1.262204 3.189320
 26 4.972048 0.000000 0.000001 -0.988761 -0.979368 0.223473
 27 11.585355 0.000000 0.000000 0.000000 -0.000000 -1.839579
 28 10.127057 0.000000 0.000001 1.597654 0.255717 0.214724
 29 2.683750 -0.427338 0.044205 -0.005738 0.043239 -0.157060
 30 1.438885 -0.000001 0.000000 0.000000 -0.000000 0.732589
 31 1.485305 0.000001 0.000000 0.000000 -0.000000 1.168627
time 10
  0 0.235347 -0.235347 3.532833 -0.000000 -0.000000 -1.571254
  1 0.000000 0.000000 0.000000 -1.570795 -1.570796 0.000000
  2 -0.000005 0.000007 3.713255 -6.281131 3.115177 6.261712
  3 18.045721 0.000000 0.000000 0.000000 -0.000000 -0.121501
  4 17.597597 0.000000 0.000000 -0.002613 0.026036 0.099967
  5 3.793090 6.407221 0.000000 0.000000 -0.000000 1.570796
  6 0.000005 -0.000003 -3.713255 6.280565 -3.123995 6.258640
  7 18.045725 0.000000 0.000000 0.000000 -0.000000 -0.127551
  8 17.597597 0.000000 0.000000 0.002950 -0.017289 0.103055
  9 3.793090 6.407221 0.000000 0.000000 -0.000000 1.570796
 10 0.935740 0.000000 0.000000 0.000000 -0.000000 0.000000
 11 0.935741 0.000000 0.000000 0.000000 -0.000000 0.000000
 12 1.293670 0.684478 -0.000001 -0.000004 -0.000001 0.306054
 13 5.309685 -0.003834 0.000000 0.000000 -0.000000 -0.000013
 14 4.826790 -0.004591 0.000000 -0.172887 0.023226 0.131638
 15 5.792767 -0.005304 0.000000 -0.137603 0.023142 0.165047
 16 6.662317 -0.001453 0.000000 0.000000 -0.000001 0.471000
 17 2.046985 -0.000002 0.000000 0.256128 -0.182259 -0.108400
 18 -3.112024 1.517254 4.341911 0.924299 -1.173638 1.784778
 19 4.827230 0.000000 0.000001 0.132625 0.669785 -0.899002
 20 11.139763 0.000000 0.000000 0.000000 -0.000000 -0.786849
 21 10.314597 0.000001 0.000000 -3.878403 0.130307 -0.281129
 22 2.975834 -0.386307 -0.044143 -0.000797 -0.043611 0.000035
 23 1.438886 0.000000 0.000000 0.000000 -0.000000 0.872170
 24 1.485303 0.000000 0.000000 0.000000 -0.000000 0.906977
 25 -2.869898 1.399663 -4.140396 0.527961 1.255477 3.176377
 26 4.972048 0.000000 0.000001 -0.978086 -0.973898 0.213197
 27 11.585355 0.000000 0.000000 0.000000 -0.000000 -1.839579
 28 10.127057 0.000000 0.000001 1.597654 0.255717 0.214724
 29 2.683750 -0.427338 0.044205 -0.005738 0.043239 -0.157060
 30 1.438885 -0.000001 0.000000 0.000000 -0.000000 0.732589
 31 1.485305 0.000001 0.000000 0.000000 -0.000000 1.168627
time 11
  0 0.235347 -0.235347 3.532833 -0.000000 -0.000000 -1.571254
  1 0.000000 0.000000 0.000000 -1.570795 -1.570796 0.000000
  2 -0.000005 0.000007 3.713255 -6.281131 3.115177 6.261712
  3 18.045721 0.000000 0.000000 0.000000 -0.000000 -0.121501
  4 17.597597 0.000000 0.000000 -0.002613 0.026036 0.099967
  5 3.793090 6.407221 0.000000 0.000000 -0.000000 1.570796
  6 0.000005 -0.000003 -3.713255 6.280565 -3.123995 6.258640
  7 18.045725 0.000000 0.000000 0.000000 -0.000000 -0.127551
  8 17.597597 0.000000 0.000000 0.002950 -0.017289 0.103055
  9 3.793090 6.407221 0.000000 0.000000 -0.000000 1.570796
 10 0.935740 0.000000 0.000000 0.000000 -0.000000 0.000000
 11 0.935741 0.000000 0.000000 0.000000 -0.000000 0.000000
 12 1.293670 0.684478 -0.000001 -0.000004 -0.000001 0.306054
 13 5.309685 -0.003834 0.000000 0.000000 -0.000000 -0.000013
 14 4.826790 -0.004591 0.000000 -0.172854 0.023610 0.133579
 15 5.792767 -0.005304 0.000000 -0.137538 0.023538 0.167580
 16 6.662317 -0.001453 0.000000 0.000000 -0.000001 0.471000
 17 2.046985 -0.000002 0.000000 0.256171 -0.182034 -0.112850
 18 -3.112024 1.517254 4.341911 0.915958 -1.170907 1.794078
 19 4.827230 0.000000 0.000001 0.135562 0.662892 -0.898127
 20 11.139763 0.000000 0.000000 0.000000 -0.000000 -0.786849
 21 10.314597 0.000001 0.000000 -3.878403 0.130307 -0.281129
 22 2.975834 -0.386307 -0.044143 -0.000797 -0.043611 0.000035
 23 1.438886 0.000000 0.000000 0.000000 -0.000000 0.872170
 24 1.485303 0.000000 0.000000 0.000000 -0.000000 0.906977
 25 -2.869898 1.399663 -4.140396 0.517415 1.249457 3.165064
 26 4.972048 0.000000 0.000001 -0.968649 -0.968750 0.203975
 27 11.585355 0.000000 0.000000 0.000000 -0.000000 -1.839579
 28 10.127057 0.000000 0.000001 1.597654 0.255717 0.214724
 29 2.683750 -0.427338 0.044205 -0.005738 0.043239 -0.157060
 30 1.438885 -0.000001 0.000000 0.000000 -0.000000 0.732589
 31 1.485305 0.000001 0.000000 0.000000 -0.000000 1.168627
time 12
  0 0.235347 -0.235347 3.532833 -0.000000 -0.000000 -1.571254
  1 0.000000 0.000000 0.000000 -1.570795 -1.570796 0.000000
  2 -0.000005 0.000007 3.713255 -6.281131 3.115177 6.261712
  3 18.045721 0.000000 0.000000 0.000000 -0.000000 -0.121501
  4 17.597597 0.000000 0.000000 -0.002613 0.026036 0.099967
  5 3.793090 6.407221 0.000000 0.000000 -0.000000 1.570796
  6 0.000005 -0.000003 -3.713255 6.280565 -3.123995 6.258640
  7 18.045725 0.000000 0.000000 0.000000 -0.000000 -0.127551
  8 17.597597 0.000000 0.000000 0.002950 -0.017289 0.103055
  9 3.793090 6.407221 0.000000 0.000000 -0.000000 1.570796
 10 0.935740 0.000000 0.000000 0.000000 -0.000000 0.000000
 11 0.935741 0.000000 0.000000 0.000000 -0.000000 0.000000
 12 1.293670 0.684478 -0.000001 -0.000004 -0.000001 0.306054
 13 5.309685 -0.003834 0.000000 0.000000 -0.000000 -0.000013
 14 4.826790 -0.004591 0.000000 -0.172805 0.023837 0.135122
 15 5.792767 -0.005304 0.000000 -0.137489 0.023777 0.169677
 16 6.662317 -0.001453 0.000000 0.000000 -0.000001 0.471000
 17 2.046985 -0.000002 0.000000 0.256473 -0.181832 -0.116761
 18 -3.112024 1.517254 4.341911 0.909055 -1.168638 1.801844
 19 4.827230 0.000000 0.000001 0.137911 0.657105 -0.897514
 20 11.139763 0.000000 0.000000 0.000000 -0.000000 -0.786849
 21 10.314597 0.000001 0.000000 -3.878403 0.130307 -0.281129
 22 2.975834 -0.386307 -0.044143 -0.000797 -0.043611 0.000035
 23 1.438886 0.000000 0.000000 0.000000 -0.000000 0.872170
 24 1.485303 0.000000 0.000000 0.000000 -0.000000 0.906977
 25 -2.869898 1.399663 -4.140396 0.509074 1.244313 3.156052
 26 4.972048 0.000000 0.000001 -0.960836 -0.964406 0.196663
 27 11.585355 0.000000 0.000000 0.000000 -0.000000 -1.839579
 28 10.127057 0.000000 0.000001 1.597654 0.255717 0.214724
 29 2.683750 -0.427338 0.044205 -0.005738 0.043239 -0.157060
 30 1.438885 -0.000001 0.000000 0.000000 -0.000000 0.732589
 31 1.485305 0.000001 0.000000 0.000000 -0.000000 1.168627
time 13
  0 0.235347 -0.235347 3.532833 -0.000000 -0.000000 -1.571254
  1 0.000000 0.000000 0.000000 -1.570795 -1.570796 0.000000
  2 -0.000005 0.000007 3.713255 -6.281131 3.115177 6.261712
  3 18.045721 0.000000 0.000000 0.000000 -0.000000 -0.121501
  4 17.597597 0.000000 0.000000 -0.002613 0.026036 0.099967
  5 3.793090 6.407221 0.000000 0.000000 -0.000000 1.570796
  6 0.000005 -0.000003 -3.713255 6.280565 -3.123995 6.258640
  7 18.045725 0.000000 0.000000 0.000000 -0.000000 -0.127551
  8 17.597597 0.000000 0.000000 0.002950 -0.017289 0.103055
  9 3.793090 6.407221 0.000000 0.000000 -0.000000 1.570796
 10 0.935740 0.000000 0.000000 0.000000 -0.000000 0.000000
 11 0.935741 0.000000 0.000000 0.000000 -0.000000 0.000000
 12 1.293670 0.684478 -0.000001 -0.000004 -0.000001 0.306054
 13 5.309685 -0.003834 0.000000 0.000000 -0.000000 -0.000013
 14 4.826790 -0.004591 0.000000 -0.172772 0.024041 0.136379
 15 5.792767 -0.005304 0.000000 -0.137456 0.024005 0.171338
 16 6.662317 -0.001453 0.000000 0.000000 -0.000001 0.471000
 17 2.046985 -0.000002 0.000000 0.256559 -0.181697 -0.119592
 18 -3.112024 1.517254 4.341911 0.903782 -1.166830 1.807213
 19 4.827230 0.000000 0.000001 0.139732 0.652765 -0.897164
 20 11.139763 0.000000 0.000000 0.000000 -0.000000 -0.786849
 21 10.314597 0.000001 0.000000 -3.878403 0.130307 -0.281129
 22 2.975834 -0.386307 -0.044143 -0.000797 -0.043611 0.000035
 23 1.438886 0.000000 0.000000 0.000000 -0.000000 0.872170
 24 1.485303 0.000000 0.000000 0.000000 -0.000000 0.906977
 25 -2.869898 1.399663 -4.140396 0.502267 1.240356 3.149245
 26 4.972048 0.000000 0.000001 -0.954725 -0.961108 0.190998
 27 11.585355 0.000000 0.000000 0.000000 -0.000000 -1.839579
 28 10.127057 0.000000 0.000001 1.597654 0.255717 0.214724
 29 2.683750 -0.427338 0.044205 -0.005738 0.043239 -0.157060
 30 1.438885 -0.000001 0.000000 0.000000 -0.000000 0.732589
 31 1.485305 0.000001 0.000000 0.000000 -0.000000 1.168627
time 14
  0 0.235347 -0.235347 3.532833 -0.000000 -0.000000 -1.571254
  1 0.000000 0.000000 0.000000 -1.570795 -1.570796 0.000000
  2 -0.000005 0.000007 3.713255 -6.281131 3.115177 6.261712
  3 18.045721 0.000000 0.000000 0.000000 -0.000000 -0.121501
  4 17.597597 0.000000 0.000000 -0.002613 0.026036 0.099967
  5 3.793090 6.407221 0.000000 0.000000 -0.000000 1.570796
  6 0.000005 -0.000003 -3.713255 6.280565 -3.123995 6.258640
  7 18.045725 0.000000 0.000000 0.000000 -0.000000 -0.127551
  8 17.597597 0.000000 0.000000 0.002950 -0.017289 0.103055
  9 3.793090 6.407221 0.000000 0.000000 -0.000000 1.570796
 10 0.935740 0.000000 0.000000 0.000000 -0.000000 0.000000
 11 0.935741 0.000000 0.000000 0.000000 -0.000000 0.000000
 12 1.293670 0.684478 -0.000001 -0.000004 -0.000001 0.306054
 13 5.309685 -0.003834 0.000000 0.000000 -0.000000 -0.000013
 14 4.826790 -0.004591 0.000000 -0.172739 0.024233 0.137084
 15 5.792767 -0.005304 0.000000 -0.137424 0.024197 0.172397
 16 6.662317 -0.001453 0.000000 0.000000 -0.000001 0.471000
 17 2.046985 -0.000002 0.000000 0.256602 -0.181584 -0.121300
 18 -3.112024 1.517254 4.341911 0.900139 -1.165676 1.811144
 19 4.827230 0.000000 0.000001 0.140907 0.649701 -0.896814
 20 11.139763 0.000000 0.000000 0.000000 -0.000000 -0.786849
 21 10.314597 0.000001 0.000000 -3.878403 0.130307 -0.281129
 22 2.975834 -0.386307 -0.044143 -0.000797 -0.043611 0.000035
 23 1.438886 0.000000 0.000000 0.000000 -0.000000 0.872170
 24 1.485303 0.000000 0.000000 0.000000 -0.000000 0.906977
 25 -2.869898 1.399663 -4.140396 0.498432 1.237812 3.145122
 26 4.972048 0.000000 0.000001 -0.951012 -0.959097 0.187375
 27 11.585355 0.000000 0.000000 0.000000 -0.000000 -1.839579
 28 10.127057 0.000000 0.000001 1.597654 0.255717 0.214724
 29 2.683750 -0.427338 0.044205 -0.005738 0.043239 -0.157060
 30 1.438885 -0.000001 0.000000 0.000000 -0.000000 0.732589
 31 1.485305 0.000001 0.000000 0.000000 -0.000000 1.168627
time 15
  0 0.235347 -0.235347 3.532833 -0.000000 -0.000000 -1.571254
  1 0.000000 0.000000 0.000000 -1.570795 -1.570796 0.000000
  2 -0.000005 0.000007 3.713255 -6.281131 3.115177 6.261712
  3 18.045721 0.000000 0.000000 0.000000 -0.000000 -0.121501
  4 17.597597 0.000000 0.000000 -0.002613 0.026036 0.099967
  5 3.793090 6.407221 0.000000 0.000000 -0.000000 1.570796
  6 0.000005 -0.000003 -3.713255 6.280565 -3.123995 6.258640
  7 18.045725 0.000000 0.000000 0.000000 -0.000000 -0.127551
  8 17.597597 0.000000 0.000000 0.002950 -0.017289 0.103055
  9 3.793090 6.407221 0.000000 0.000000 -0.000000 1.570796
 10 0.935740 0.000000 0.000000 0.000000 -0.000000 0.000000
 11 0.935741 0.000000 0.000000 0.000000 -0.000000 0.000000
 12 1.293670 0.684478 -0.000001 -0.000004 -0.000001 0.306054
 13 5.309685 -0.003834 0.000000 0.000000 -0.000000 -0.000013
 14 4.826790 -0.004591 0.000000 -0.172739 0.024281 0.137415
 15 5.792767 -0.005304 0.000000 -0.137424 0.024245 0.172750
 16 6.662317 -0.001453 0.000000 0.000000 -0.000001 0.471000
 17 2.046985 -0.000002 0.000000 0.256645 -0.181562 -0.122154
 18 -3.112024 1.517254 4.341911 0.899180 -1.165330 1.812582
 19 4.827230 0.000000 0.000001 0.141318 0.648680 -0.896639
 20 11.139763 0.000000 0.000000 0.000000 -0.000000 -0.786849
 21 10.314597 0.000001 0.000000 -3.878403 0.130307 -0.281129
 22 2.975834 -0.386307 -0.044143 -0.000797 -0.043611 0.000035
 23 1.438886 0.000000 0.000000 0.000000 -0.000000 0.872170
 24 1.485303 0.000000 0.000000 0.000000 -0.000000 0.906977
 25 -2.869898 1.399663 -4.140396 0.496994 1.236936 3.143588
 26 4.972048 0.000000 0.000001 -0.949774 -0.958212 0.185860
 27 11.585355 0.000000 0.000000 0.000000 -0.000000 -1.839579
 28 10.127057 0.000000 0.000001 1.597654 0.255717 0.214724
 29 2.683750 -0.427338 0.044205 -0.005738 0.043239 -0.157060
 30 1.438885 -0.000001 0.000000 0.000000 -0.000000 0.732589
 31 1.485305 0.000001 0.000000 0.000000 -0.000000 1.168627
time 16
  0 0.235347 -0.235347 3.532833 -0.000000 -0.000000 -1.571254
  1 0.000000 0.000000 0.000000 -1.570795 -1.570796 0.000000
  2 -0.000005 0.000007 3.713255 -6.281131 3.115177 6.261712
  3 18.045721 0.000000 0.000000 0.000000 -0.000000 -0.121501
  4 17.597597 0.000000 0.000000 -0.002613 0.026036 0.099967
  5 3.793090 6.407221 0.000000 0.000000 -0.000000 1.570796
  6 0.000005 -0.000003 -3.713255 6.280565 -3.123995 6.258640
  7 18.045725 0.000000 0.000000 0.000000 -0.000000 -0.127551
  8 17.597597 0.000000 0.000000 0.002950 -0.017289 0.103055
  9 3.793090 6.407221 0.000000 0.000000 -0.000000 1.570796
 10 0.935740 0.000000 0.000000 0.000000 -0.000000 0.000000
 11 0.935741 0.000000 0.000000 0.000000 -0.000000 0.000000
 12 1.293670 0.684478 -0.000001 -0.000004 -0.000001 0.306054
 13 5.309685 -0.003834 0.000000 0.000000 -0.000000 -0.000013
 14 4.826790 -0.004591 0.000000 -0.172739 0.024233 0.137084
 15 5.792767 -0.005304 0.000000 -0.137424 0.024197 0.172397
 16 6.662317 -0.001453 0.000000 0.000000 -0.000001 0.471000
 17 2.046985 -0.000002 0.000000 0.256602 -0.181584 -0.121300
 18 -3.112024 1.517254 4.341911 0.900139 -1.165676 1.811144
 19 4.827230 0.000000 0.000001 0.140907 0.649701 -0.896814
 20 11.139763 0.000000 0.000000 0.000000 -0.000000 -0.786849
 21 10.314597 0.000001 0.000000 -3.878403 0.130307 -0.281129
 22 2.975834 -0.386307 -0.044143 -0.000797 -0.043611 0.000035
 23 1.438886 0.000000 0.000000 0.000000 -0.000000 0.872170
 24 1.485303 0.000000 0.000000 0.000000 -0.000000 0.906977
 25 -2.869898 1.399663 -4.140396 0.498432 1.237812 3.145122
 26 4.972048 0.000000 0.000001 -0.951012 -0.959097 0.187375
 27 11.585355 0.000000 0.000000 0.000000 -0.000000 -1.839579
 28 10.127057 0.000000 0.000001 1.597654 0.255717 0.214724
 29 2.683750 -0.427338 0.044205 -0.005738 0.043239 -0.157060
 30 1.438885 -0.000001 0.000000 0.000000 -0.000000 0.732589
 31 1.485305 0.000001 0.000000 0.000000 -0.000000 1.168627
time 17
  0 0.235347 -0.235347 3.532833 -0.000000 -0.000000 -1.571254
  1 0.000000 0.000000 0.000000 -1.570795 -1.570796 0.000000
  2 -0.000005 0.000007 3.713255 -6.281131 3.115177 6.261712
  3 18.045721 0.000000 0.000000 0.000000 -0.000000 -0.121501
  4 17.597597 0.000000 0.000000 -0.002613 0.026036 0.099967
  5 3.793090 6.407221 0.000000 0.000000 -0.000000 1.570796
  6 0.000005 -0.000003 -3.713255 6.280565 -3.123995 6.258640
  7 18.045725 0.000000 0.000000 0.000000 -0.000000 -0.127551
  8 17.597597 0.000000 0.000000 0.002950 -0.017289 0.103055
  9 3.793090 6.407221 0.000000 0.000000 -0.000000 1.570796
 10 0.935740 0.000000 0.000000 0.000000 -0.000000 0.000000
 11 0.935741 0.000000 0.000000 0.000000 -0.000000 0.000000
 12 1.293670 0.684478 -0.000001 -0.000004 -0.000001 0.306054
 13 5.309685 -0.003834 0.000000 0.000000 -0.000000 -0.000013
 14 4.826790 -0.004591 0.000000 -0.172772 0.024041 0.136379
 15 5.792767 -0.005304 0.000000 -0.137456 0.024005 0.171338
 16 6.662317 -0.001453 0.000000 0.000000 -0.000001 0.471000
 17 2.046985 -0.000002 0.000000 0.256559 -0.181697 -0.119592
 18 -3.112024 1.517254 4.341911 0.903782 -1.166830 1.807213
 19 4.827230 0.000000 0.000001 0.139732 0.652765 -0.897164
 20 11.139763 0.000000 0.000000 0.000000 -0.000000 -0.786849
 21 10.314597 0.000001 0.000000 -3.878403 0.130307 -0.281129
 22 2.975834 -0.386307 -0.044143 -0.000797 -0.043611 0.000035
 23 1.438886 0.000000 0.000000 0.000000 -0.000000 0.872170
 24 1.485303 0.000000 0.000000 0.000000 -0.000000 0.906977
 25 -2.869898 1.399663 -4.140396 0.502267 1.240356 3.149245
 26 4.972048 0.000000 0.000001 -0.954725 -0.961108 0.190998
 27 11.585355 0.000000 0.000000 0.000000 -0.000000 -1.839579
 28 10.127057 0.000000 0.000001 1.597654 0.255717 0.214724
 29 2.683750 -0.427338 0.044205 -0.005738 0.043239 -0.157060
 30 1.438885 -0.000001 0.000000 0.000000 -0.000000 0.732589
 31 1.485305 0.000001 0.000000 0.000000 -0.000000 1.168627
time 18
  0 0.235347 -0.235347 3.532833 -0.000000 -0.000000 -1.571254
  1 0.000000 0.000000 0.000000 -1.570795 -1.570796 0.000000
  2 -0.000005 0.000007 3.713255 -6.281131 3.115177 6.261712
  3 18.045721 0.000000 0.000000 0.000000 -0.000000 -0.121501
  4 17.597597 0.000000 0.000000 -0.002613 0.026036 0.099967
  5 3.793090 6.407221 0.000000 0.000000 -0.000000 1.570796
  6 0.000005 -0.000003 -3.713255 6.280565 -3.123995 6.258640
  7 18.045725 0.000000 0.000000 0.000000 -0.000000 -0.127551
  8 17.597597 0.000000 0.000000 0.002950 -0.017289 0.103055
  9 3.793090 6.407221 0.000000 0.000000 -0.000000 1.570796
 10 0.935740 0.000000 0.000000 0.000000 -0.000000 0.000000
 11 0.935741 0.000000 0.000000 0.000000 -0.000000 0.000000
 12 1.293670 0.684478 -0.000001 -0.000004 -0.000001 0.306054
 13 5.309685 -0.003834 0.000000 0.000000 -0.000000 -0.000013
 14 4.826790 -0.004591 0.000000 -0.172805 0.023837 0.135122
 15 5.792767 -0.005304 0.000000 -0.137489 0.023777 0.169677
 16 6.662317 -0.001453 0.000000 0.000000 -0.000001 0.471000
 17 2.046985 -0.000002 0.000000 0.256473 -0.181832 -0.116761
 18 -3.112024 1.517254 4.341911 0.909055 -1.168638 1.801844
 19 4.827230 0.000000 0.000001 0.137911 0.657105 -0.897514
 20 11.139763 0.000000 0.000000 0.000000 -0.000000 -0.786849
 21 10.314597 0.000001 0.000000 -3.878403 0.130307 -0.281129
 22 2.975834 -0.386307 -0.044143 -0.000797 -0.043611 0.000035
 23 1.438886 0.000000 0.000000 0.000000 -0.000000 0.872170
 24 1.485303 0.000000 0.000000 0.000000 -0.000000 0.906977
 25 -2.869898 1.399663 -4.140396 0.509074 1.244313 3.156052
 26 4.972048 0.000000 0.000001 -0.960836 -0.964406 0.196663
 27 11.585355 0.000000 0.000000 0.000000 -0.000000 -1.839579
 28 10.127057 0.000000 0.000001 1.597654 0.255717 0.214724
 29 2.683750 -0.427338 0.044205 -0.005738 0.043239 -0.157060
 30 1.438885 -0.000001 0.000000 0.000000 -0.000000 0.732589
 31 1.485305 0.000001 0.000000 0.000000 -0.000000 1.168627
time 19
  0 0.235347 -0.235347 3.532833 -0.000000 -0.000000 -1.571254
  1 0.000000 0.000000 0.000000 -1.570795 -1.570796 0.000000
  2 -0.000005 0.000007 3.713255 -6.281131 3.115177 6.261712
  3 18.045721 0.000000 0.000000 0.000000 -0.000000 -0.121501
  4 17.597597 0.000000 0.000000 -0.002613 0.026036 0.099967
  5 3.793090 6.407221 0.000000 0.000000 -0.000000 1.570796
  6 0.000005 -0.000003 -3.713255 6.280565 -3.123995 6.258640
  7 18.045725 0.000000 0.000000 0.000000 -0.000000 -0.127551
  8 17.597597 0.000000 0.000000 0.002950 -0.017289 0.103055
  9 3.793090 6.407221 0.000000 0.000000 -0.000000 1.570796
 10 0.935740 0.000000 0.000000 0.000000 -0.000000 0.000000
 11 0.935741 0.000000 0.000000 0.000000 -0.000000 0.000000
 12 1.293670 0.684478 -0.000001 -0.000004 -0.000001 0.306054
 13 5.309685 -0.003834 0.000000 0.000000 -0.000000 -0.000013
 14 4.826790 -0.004591 0.000000 -0.172854 0.023610 0.133579
 15 5.792767 -0.005304 0.000000 -0.137538 0.023538 0.167580
 16 6.662317 -0.001453 0.000000 0.000000 -0.000001 0.471000
 17 2.046985 -0.000002 0.000000 0.256171 -0.182034 -0.112850
 18 -3.112024 1.517254 4.341911 0.915958 -1.170907 1.794078
 19 4.827230 0.000000 0.000001 0.135562 0.662892 -0.898127
 20 11.139763 0.000000 0.000000 0.000000 -0.000000 -0.786849
 21 10.314597 0.000001 0.000000 -3.878403 0.130307 -0.281129
 22 2.975834 -0.386307 -0.044143 -0.000797 -0.043611 0.000035
 23 1.438886 0.000000 0.000000 0.000000 -0.000000 0.872170
 24 1.485303 0.000000 0.000000 0.000000 -0.000000 0.906977
 25 -2.869898 1.399663 -4.140396 0.517415 1.249457 3.165064
 26 4.972048 0.000000 0.000001 -0.968649 -0.968750 0.203975
 27 11.585355 0.000000 0.000000 0.000000 -0.000000 -1.839579
 28 10.127057 0.000000 0.000001 1.597654 0.255717 0.214724
 29 2.683750 -0.427338 0.044205 -0.005738 0.043239 -0.157060
 30 1.438885 -0.000001 0.000000 0.000000 -0.000000 0.732589
 31 1.485305 0.000001 0.000000 0.000000 -0.000000 1.168627
time 20
  0 0.235347 -0.235347 3.532833 -0.000000 -0.000000 -1.571254
  1 0.000000 0.000000 0.000000 -1.570795 -1.570796 0.000000
  2 -0.000005 0.000007 3.713255 -6.281131 3.115177 6.261712
  3 18.045721 0.000000 0.000000 0.000000 -0.000000 -0.121501
  4 17.597597 0.000000 0.000000 -0.002613 0.026036 0.099967
  5 3.793090 6.407221 0.000000 0.000000 -0.000000 1.570796
  6 0.000005 -0.000003 -3.713255 6.280565 -3.123995 6.258640
  7 18.045725 0.000000 0.000000 0.000000 -0.000000 -0.127551
  8 17.597597 0.000000 0.000000 0.002950 -0.017289 0.103055
  9 3.793090 6.407221 0.000000 0.000000 -0.000000 1.570796
 10 0.935740 0.000000 0.000000 0.000000 -0.000000 0.000000
 11 0.935741 0.000000 0.000000 0.000000 -0.000000 0.000000
 12 1.293670 0.684478 -0.000001 -0.000004 -0.000001 0.306054
 13 5.309685 -0.003834 0.000000 0.000000 -0.000000 -0.000013
 14 4.826790 -0.004591 0.000000 -0.172887 0.023226 0.131638
 15 5.792767 -0.005304 0.000000 -0.137603 0.023142 0.165047
 16 6.662317 -0.001453 0.000000 0.000000 -0.000001 0.471000
 17 2.046985 -0.000002 0.000000 0.256128 -0.182259 -0.108400
 18 -3.112024 1.517254 4.341911 0.924299 -1.173638 1.784778
 19 4.827230 0.000000 0.000001 0.132625 0.669785 -0.899002
 20 11.139763 0.000000 0.000000 0.000000 -0.000000 -0.786849
 21 10.314597 0.000001 0.000000 -3.878403 0.130307 -0.281129
 22 2.975834 -0.386307 -0.044143 -0.000797 -0.043611 0.000035
 23 1.438886 0.000000 0.000000 0.000000 -0.000000 0.872170
 24 1.485303 0.000000 0.000000 0.000000 -0.000000 0.906977
 25 -2.869898 1.399663 -4.140396 0.527961 1.255477 3.176377
 26 4.972048 0.000000 0.000001 -0.978086 -0.973898 0.213197
 27 11.585355 0.000000 0.000000 0.000000 -0.000000 -1.839579
 28 10.127057 0.000000 0.000001 1.597654 0.255717 0.214724
 29 2.683750 -0.427338 0.044205 -0.005738 0.043239 -0.157060
 30 1.438885 -0.000001 0.000000 0.000000 -0.000000 0.732589
 31 1.485305 0.000001 0.000000 0.000000 -0.000000 1.168627
time 21
  0 0.235347 -0.235347 3.532833 -0.000000 -0.000000 -1.571254
  1 0.000000 0.000000 0.000000 -1.570795 -1.570796 0.000000
  2 -0.000005 0.000007 3.713255 -6.281131 3.115177 6.261712
  3 18.045721 0.000000 0.000000 0.000000 -0.000000 -0.121501
  4 17.597597 0.000000 0.000000 -0.002613 0.026036 0.099967
  5 3.793090 6.407221 0.000000 0.000000 -0.000000 1.570796
  6 0.000005 -0.000003 -3.713255 6.280565 -3.123995 6.258640
  7 18.045725 0.000000 0.000000 0.000000 -0.000000 -0.127551
  8 17.597597 0.000000 0.000000 0.002950 -0.017289 0.103055
  9 3.793090 6.407221 0.000000 0.000000 -0.000000 1.570796
 10 0.935740 0.000000 0.000000 0.000000 -0.000000 0.000000
 11 0.935741 0.000000 0.000000 0.000000 -0.000000 0.000000
 12 1.293670 0.684478 -0.000001 -0.000004 -0.000001 0.306054
 13 5.309685 -0.003834 0.000000 0.000000 -0.000000 -0.000013
 14 4.826790 -0.004591 0.000000 -0.172936 0.022903 0.129588
 15 5.792767 -0.005304 0.000000 -0.137668 0.022795 0.162244
 16 6.662317 -0.001453 0.000000 0.000000 -0.000001 0.471000
 17 2.046985 -0.000002 0.000000 0.256085 -0.182507 -0.103366
 18 -3.112024 1.517254 4.341911 0.934078 -1.176561 1.774711
 19 4.827230 0.000000 0.000001 0.129453 0.677614 -0.899877
 20 11.139763 0.000000 0.000000 0.000000 -0.000000 -0.786849
 21 10.314597 0.000001 0.000000 -3.878403 0.130307 -0.281129
 22 2.975834 -0.386307 -0.044143 -0.000797 -0.043611 0.000035
 23 1.438886 0.000000 0.000000 0.000000 -0.000000 0.872170
 24 1.485303 0.000000 0.000000 0.000000 -0.000000 0.906977
 25 -2.869898 1.399663 -4.140396 0.540712 1.262204 3.189320
 26 4.972048 0.000000 0.000001 -0.988761 -0.979368 0.223473
 27 11.585355 0.000000 0.000000 0.000000 -0.000000 -1.839579
 28 10.127057 0.000000 0.000001 1.597654 0.255717 0.214724
 29 2.683750 -0.427338 0.044205 -0.005738 0.043239 -0.157060
 30 1.438885 -0.000001 0.000000 0.000000 -0.000000 0.732589
 31 1.485305 0.000001 0.000000 0.000000 -0.000000 1.168627
time 22
  0 0.235347 -0.235347 3.532833 -0.000000 -0.000000 -1.571254
  1 0.000000 0.000000 0.000000 -1.570795 -1.570796 0.000000
  2 -0.000005 0.000007 3.713255 -6.281131 3.115177 6.261712
  3 18.045721 0.000000 0.000000 0.000000 -0.000000 -0.121501
  4 17.597597 0.000000 0.000000 -0.002613 0.026036 0.099967
  5 3.793090 6.407221 0.000000 0.000000 -0.000000 1.570796
  6 0.000005 -0.000003 -3.713255 6.280565 -3.123995 6.258640
  7 18.045725 0.000000 0.000000 0.000000 -0.000000 -0.127551
  8 17.597597 0.000000 0.000000 0.002950 -0.017289 0.103055
  9 3.793090 6.407221 0.000000 0.000000 -0.000000 1.570796
 10 0.935740 0.000000 0.000000 0.000000 -0.000000 0.000000
 11 0.935741 0.000000 0.000000 0.000000 -0.000000 0.000000
 12 1.293670 0.684478 -0.000001 -0.000004 -0.000001 0.306054
 13 5.309685 -0.003834 0.000000 0.000000 -0.000000 -0.000013
 14 4.826790 -0.004591 0.000000 -0.172969 0.022459 0.127339
 15 5.792767 -0.005304 0.000000 -0.137734 0.022327 0.159171
 16 6.662317 -0.001453 0.000000 0.000000 -0.000001 0.471000
 17 2.046985 -0.000002 0.000000 0.255913 -0.182800 -0.098107
 18 -3.112024 1.517254 4.341911 0.944528 -1.179792 1.763110
 19 4.827230 0.000000 0.000001 0.125929 0.685954 -0.900927
 20 11.139763 0.000000 0.000000 0.000000 -0.000000 -0.786849
 21 10.314597 0.000001 0.000000 -3.878403 0.130307 -0.281129
 22 2.975834 -0.386307 -0.044143 -0.000797 -0.043611 0.000035
 23 1.438886 0.000000 0.000000 0.000000 -0.000000 0.872170
 24 1.485303 0.000000 0.000000 0.000000 -0.000000 0.906977
 25 -2.869898 1.399663 -4.140396 0.554422 1.269468 3.204084
 26 4.972048 0.000000 0.000001 -1.000519 -0.985401 0.234474
 27 11.585355 0.000000 0.000000 0.000000 -0.000000 -1.839579
 28 10.127057 0.000000 0.000001 1.597654 0.255717 0.214724
 29 2.683750 -0.427338 0.044205 -0.005738 0.043239 -0.157060
 30 1.438885 -0.000001 0.000000 0.000000 -0.000000 0.732589
 31 1.485305 0.000001 0.000000 0.000000 -0.000000 1.168627
time 23
  0 0.235347 -0.235347 3.532833 -0.000000 -0.000000 -1.571254
  1 0.000000 0.000000 0.000000 -1.570795 -1.570796 0.000000
  2 -0.000005 0.000007 3.713255 -6.281131 3.115177 6.261712
  3 18.045721 0.000000 0.000000 0.000000 -0.000000 -0.121501
  4 17.597597 0.000000 0.000000 -0.002613 0.026036 0.099967
  5 3.793090 6.407221 0.000000 0.000000 -0.000000 1.570796
  6 0.000005 -0.000003 -3.713255 6.280565 -3.123995 6.258640
  7 18.045725 0.000000 0.000000 0.000000 -0.000000 -0.127551
  8 17.597597 0.000000 0.000000 0.002950 -0.017289 0.103055
  9 3.793090 6.407221 0.000000 0.000000 -0.000000 1.570796
 10 0.935740 0.000000 0.000000 0.000000 -0.000000 0.000000
 11 0.935741 0.000000 0.000000 0.000000 -0.000000 0.000000
 12 1.293670 0.684478 -0.000001 -0.000004 -0.000001 0.306054
 13 5.309685 -0.003834 0.000000 0.000000 -0.000000 -0.000013
 14 4.826790 -0.004591 0.000000 -0.173051 0.022100 0.124958
 15 5.792767 -0.005304 0.000000 -0.137799 0.021932 0.156036
 16 6.662317 -0.001453 0.000000 0.000000 -0.000001 0.471000
 17 2.046985 -0.000002 0.000000 0.255611 -0.183070 -0.092399
 18 -3.112024 1.517254 4.341911 0.955266 -1.183023 1.751030
 19 4.827230 0.000000 0.000001 0.122170 0.694975 -0.902240
 20 11.139763 0.000000 0.000000 0.000000 -0.000000 -0.786849
 21 10.314597 0.000001 0.000000 -3.878403 0.130307 -0.281129
 22 2.975834 -0.386307 -0.044143 -0.000797 -0.043611 0.000035
 23 1.438886 0.000000 0.000000 0.000000 -0.000000 0.872170
 24 1.485303 0.000000 0.000000 0.000000 -0.000000 0.906977
 25 -2.869898 1.399663 -4.140396 0.569953 1.276845 3.219999
 26 4.972048 0.000000 0.000001 -1.013205 -0.991595 0.246660
 27 11.585355 0.000000 0.000000 0.000000 -0.000000 -1.839579
 28 10.127057 0.000000 0.000001 1.597654 0.255717 0.214724
 29 2.683750 -0.427338 0.044205 -0.005738 0.043239 -0.157060
 30 1.438885 -0.000001 0.000000 0.000000 -0.000000 0.732589
 31 1.485305 0.000001 0.000000 0.000000 -0.000000 1.168627
time 24
  0 0.235347 -0.235347 3.532833 -0.000000 -0.000000 -1.571254
  1 0.000000 0.000000 0.000000 -1.570795 -1.570796 0.000000
  2 -0.000005 0.000007 3.713255 -6.281131 3.115177 6.261712
  3 18.045721 0.000000 0.000000 0.000000 -0.000000 -0.121501
  4 17.597597 0.000000 0.000000 -0.002613 0.026036 0.099967
  5 3.793090 6.407221 0.000000 0.000000 -0.000000 1.570796
  6 0.000005 -0.000003 -3.713255 6.280565 -3.123995 6.258640
  7 18.045725 0.000000 0.000000 0.000000 -0.000000 -0.127551
  8 17.597597 0.000000 0.000000 0.002950 -0.017289 0.103055
  9 3.793090 6.407221 0.000000 0.000000 -0.000000 1.570796
 10 0.935740 0.000000 0.000000 0.000000 -0.000000 0.000000
 11 0.935741 0.000000 0.000000 0.000000 -0.000000 0.000000
 12 1.293670 0.684478 -0.000001 -0.000004 -0.000001 0.306054
 13 5.309685 -0.003834 0.000000 0.000000 -0.000000 -0.000013
 14 4.826790 -0.004591 0.000000 -0.173084 0.021632 0.122510
 15 5.792767 -0.005304 0.000000 -0.137880 0.021440 0.152859
 16 6.662317 -0.001453 0.000000 0.000000 -0.000001 0.471000
 17 2.046985 -0.000002 0.000000 0.255568 -0.183363 -0.086916
 18 -3.112024 1.517254 4.341911 0.966675 -1.186215 1.739141
 19 4.827230 0.000000 0.000001 0.118528 0.703485 -0.903465
 20 11.139763 0.000000 0.000000 0.000000 -0.000000 -0.786849
 21 10.314597 0.000001 0.000000 -3.878403 0.130307 -0.281129
 22 2.975834 -0.386307 -0.044143 -0.000797 -0.043611 0.000035
 23 1.438886 0.000000 0.000000 0.000000 -0.000000 0.872170
 24 1.485303 0.000000 0.000000 0.000000 -0.000000 0.906977
 25 -2.869898 1.399663 -4.140396 0.586156 1.284335 3.236969
 26 4.972048 0.000000 0.000001 -1.026046 -0.997548 0.258715
 27 11.585355 0.000000 0.000000 0.000000 -0.000000 -1.839579
 28 10.127057 0.000000 0.000001 1.597654 0.255717 0.214724
 29 2.683750 -0.427338 0.044205 -0.005738 0.043239 -0.157060
 30 1.438885 -0.000001 0.000000 0.000000 -0.000000 0.732589
 31 1.485305 0.000001 0.000000 0.000000 -0.000000 1.168627
time 25
  0 0.235347 -0.235347 3.532833 -0.000000 -0.000000 -1.571254
  1 0.000000 0.000000 0.000000 -1.570795 -1.570796 0.000000
  2 -0.000005 0.000007 3.713255 -6.281131 3.115177 6.261712
  3 18.045721 0.000000 0.000000 0.000000 -0.000000 -0.121501
  4 17.597597 0.000000 0.000000 -0.002613 0.026036 0.099967
  5 3.793090 6.407221 0.000000 0.000000 -0.000000 1.570796
  6 0.000005 -0.000003 -3.713255 6.280565 -3.123995 6.258640
  7 18.045725 0.000000 0.000000 0.000000 -0.000000 -0.127551
  8 17.597597 0.000000 0.000000 0.002950 -0.017289 0.103055
  9 3.793090 6.407221 0.000000 0.000000 -0.000000 1.570796
 10 0.935740 0.000000 0.000000 0.000000 -0.000000 0.000000
 11 0.935741 0.000000 0.000000 0.000000 -0.000000 0.000000
 12 1.293670 0.684478 -0.000001 -0.000004 -0.000001 0.306054
 13 5.309685 -0.003834 0.000000 0.000000 -0.000000 -0.000013
 14 4.826790 -0.004591 0.000000 -0.173133 0.021273 0.120173
 15 5.792767 -0.005304 0.000000 -0.137945 0.021057 0.149724
 16 6.662317 -0.001453 0.000000 0.000000 -0.000001 0.471000
 17 2.046985 -0.000002 0.000000 0.255396 -0.183655 -0.081207
 18 -3.112024 1.517254 4.341911 0.978371 -1.189369 1.726869
 19 4.827230 0.000000 0.000001 0.114769 0.712080 -0.904865
 20 11.139763 0.000000 0.000000 0.000000 -0.000000 -0.786849
 21 10.314597 0.000001 0.000000 -3.878403 0.130307 -0.281129
 22 2.975834 -0.386307 -0.044143 -0.000797 -0.043611 0.000035
 23 1.438886 0.000000 0.000000 0.000000 -0.000000 0.872170
 24 1.485303 0.000000 0.000000 0.000000 -0.000000 0.906977
 25 -2.869898 1.399663 -4.140396 0.602838 1.291514 3.254322
 26 4.972048 0.000000 0.000001 -1.039119 -1.003420 0.271165
 27 11.585355 0.000000 0.000000 0.000000 -0.000000 -1.839579
 28 10.127057 0.000000 0.000001 1.597654 0.255717 0.214724
 29 2.683750 -0.427338 0.044205 -0.005738 0.043239 -0.157060
 30 1.438885 -0.000001 0.000000 0.000000 -0.000000 0.732589
 31 1.485305 0.000001 0.000000 0.000000 -0.000000 1.168627
time 26
  0 0.235347 -0.235347 3.532833 -0.000000 -0.000000 -1.571254
  1 0.000000 0.000000 0.000000 -1.570795 -1.570796 0.000000
  2 -0.000005 0.000007 3.713255 -6.281131 3.115177 6.261712
  3 18.045721 0.000000 0.000000 0.000000 -0.000000 -0.121501
  4 17.597597 0.000000 0.000000 -0.002613 0.026036 0.099967
  5 3.793090 6.407221 0.000000 0.000000 -0.000000 1.570796
  6 0.000005 -0.000003 -3.713255 6.280565 -3.123995 6.258640
  7 18.045725 0.000000 0.000000 0.000000 -0.000000 -0.127551
  8 17.597597 0.000000 0.000000 0.002950 -0.017289 0.103055
  9 3.793090 6.407221 0.000000 0.000000 -0.000000 1.570796
 10 0.935740 0.000000 0.000000 0.000000 -0.000000 0.000000
 11 0.935741 0.000000 0.000000 0.000000 -0.000000 0.000000
 12 1.293670 0.684478 -0.000001 -0.000004 -0.000001 0.306054
 13 5.309685 -0.003834 0.000000 0.000000 -0.000000 -0.000013
 14 4.826790 -0.004591 0.000000 -0.173199 0.020841 0.118013
 15 5.792767 -0.005304 0.000000 -0.138011 0.020602 0.146734
 16 6.662317 -0.001453 0.000000 0.000000 -0.000001 0.471000
 17 2.046985 -0.000002 0.000000 0.255094 -0.183925 -0.075948
 18 -3.112024 1.517254 4.341911 0.989301 -1.192254 1.714693
 19 4.827230 0.000000 0.000001 0.111303 0.720335 -0.906178
 20 11.139763 0.000000 0.000000 0.000000 -0.000000 -0.786849
 21 10.314597 0.000001 0.000000 -3.878403 0.130307 -0.281129
 22 2.975834 -0.386307 -0.044143 -0.000797 -0.043611 0.000035
 23 1.438886 0.000000 0.000000 0.000000 -0.000000 0.872170
 24 1.485303 0.000000 0.000000 0.000000 -0.000000 0.906977
 25 -2.869898 1.399663 -4.140396 0.619424 1.298269 3.271579
 26 4.972048 0.000000 0.000001 -1.051805 -1.009051 0.283022
 27 11.585355 0.000000 0.000000 0.000000 -0.000000 -1.839579
 28 10.127057 0.000000 0.000001 1.597654 0.255717 0.214724
 29 2.683750 -0.427338 0.044205 -0.005738 0.043239 -0.157060
 30 1.438885 -0.000001 0.000000 0.000000 -0.000000 0.732589
 31 1.485305 0.000001 0.000000 0.000000 -0.000000 1.168627
time 27
  0 0.235347 -0.235347 3.532833 -0.000000 -0.000000 -1.571254
  1 0.000000 0.000000 0.000000 -1.570795 -1.570796 0.000000
  2 -0.000005 0.000007 3.713255 -6.281131 3.115177 6.261712
  3 18.045721 0.000000 0.000000 0.000000 -0.000000 -0.121501
  4 17.597597 0.000000 0.000000 -0.002613 0.026036 0.099967
  5 3.793090 6.407221 0.000000 0.000000 -0.000000 1.570796
  6 0.000005 -0.000003 -3.713255 6.280565 -3.123995 6.258640
  7 18.045725 0.000000 0.000000 0.000000 -0.000000 -0.127551
  8 17.597597 0.000000 0.000000 0.002950 -0.017289 0.103055
  9 3.793090 6.407221 0.000000 0.000000 -0.000000 1.570796
 10 0.935740 0.000000 0.000000 0.000000 -0.000000 0.000000
 11 0.935741 0.000000 0.000000 0.000000 -0.000000 0.000000
 12 1.293670 0.684478 -0.000001 -0.000004 -0.000001 0.306054
 13 5.309685 -0.003834 0.000000 0.000000 -0.000000 -0.000013
 14 4.826790 -0.004591 0.000000 -0.173199 0.020530 0.115940
 15 5.792767 -0.005304 0.000000 -0.138060 0.020266 0.144014
 16 6.662317 -0.001453 0.000000 0.000000 -0.000001 0.471000
 17 2.046985 -0.000002 0.000000 0.255051 -0.184173 -0.071274
 18 -3.112024 1.517254 4.341911 0.999559 -1.194908 1.703667
 19 4.827230 0.000000 0.000001 0.107955 0.727994 -0.907403
 20 11.139763 0.000000 0.000000 0.000000 -0.000000 -0.786849
 21 10.314597 0.000001 0.000000 -3.878403 0.130307 -0.281129
 22 2.975834 -0.386307 -0.044143 -0.000797 -0.043611 0.000035
 23 1.438886 0.000000 0.000000 0.000000 -0.000000 0.872170
 24 1.485303 0.000000 0.000000 0.000000 -0.000000 0.906977
 25 -2.869898 1.399663 -4.140396 0.635818 1.304459 3.288357
 26 4.972048 0.000000 0.000001 -1.063563 -1.014038 0.293891
 27 11.585355 0.000000 0.000000 0.000000 -0.000000 -1.839579
 28 10.127057 0.000000 0.000001 1.597654 0.255717 0.214724
 29 2.683750 -0.427338 0.044205 -0.005738 0.043239 -0.157060
 30 1.438885 -0.000001 0.000000 0.000000 -0.000000 0.732589
 31 1.485305 0.000001 0.000000 0.000000 -0.000000 1.168627
time 28
  0 0.235347 -0.235347 3.532833 -0.000000 -0.000000 -1.571254
  1 0.000000 0.000000 0.000000 -1.570795 -1.570796 0.000000
  2 -0.000005 0.000007 3.713255 -6.281131 3.115177 6.261712
  3 18.045721 0.000000 0.000000 0.000000 -0.000000 -0.121501
  4 17.597597 0.000000 0.000000 -0.002613 0.026036 0.099967
  5 3.793090 6.407221 0.000000 0.000000 -0.000000 1.570796
  6 0.000005 -0.000003 -3.713255 6.280565 -3.123995 6.258640
  7 18.045725 0.000000 0.000000 0.000000 -0.000000 -0.127551
  8 17.597597 0.000000 0.000000 0.002950 -0.017289 0.103055
  9 3.793090 6.407221 0.000000 0.000000 -0.000000 1.570796
 10 0.935740 0.000000 0.000000 0.000000 -0.000000 0.000000
 11 0.935741 0.000000 0.000000 0.000000 -0.000000 0.000000
 12 1.293670 0.684478 -0.000001 -0.000004 -0.000001 0.306054
 13 5.309685 -0.003834 0.000000 0.000000 -0.000000 -0.000013
 14 4.826790 -0.004591 0.000000 -0.173248 0.020170 0.114132
 15 5.792767 -0.005304 0.000000 -0.138109 0.019882 0.141585
 16 6.662317 -0.001453 0.000000 0.000000 -0.000001 0.471000
 17 2.046985 -0.000002 0.000000 0.254922 -0.184376 -0.067049
 18 -3.112024 1.517254 4.341911 1.008188 -1.197177 1.693888
 19 4.827230 0.000000 0.000001 0.105077 0.734717 -0.908628
 20 11.139763 0.000000 0.000000 0.000000 -0.000000 -0.786849
 21 10.314597 0.000001 0.000000 -3.878403 0.130307 -0.281129
 22 2.975834 -0.386307 -0.044143 -0.000797 -0.043611 0.000035
 23 1.438886 0.000000 0.000000 0.000000 -0.000000 0.872170
 24 1.485303 0.000000 0.000000 0.000000 -0.000000 0.906977
 25 -2.869898 1.399663 -4.140396 0.650391 1.309716 3.303888
 26 4.972048 0.000000 0.000001 -1.074006 -1.018221 0.303706
 27 11.585355 0.000000 0.000000 0.000000 -0.000000 -1.839579
 28 10.127057 0.000000 0.000001 1.597654 0.255717 0.214724
 29 2.683750 -0.427338 0.044205 -0.005738 0.043239 -0.157060
 30 1.438885 -0.000001 0.000000 0.000000 -0.000000 0.732589
 31 1.485305 0.000001 0.000000 0.000000 -0.000000 1.168627
time 29
  0 0.235347 -0.235347 3.532833 -0.000000 -0.000000 -1.571254
  1 0.000000 0.000000 0.000000 -1.570795 -1.570796 0.000000
  2 -0.000005 0.000007 3.713255 -6.281131 3.115177 6.261712
  3 18.045721 0.000000 0.000000 0.000000 -0.000000 -0.121501
  4 17.597597 0.000000 0.000000 -0.002613 0.026036 0.099967
  5 3.793090 6.407221 0.000000 0.000000 -0.000000 1.570796
  6 0.000005 -0.000003 -3.713255 6.280565 -3.123995 6.258640
  7 18.045725 0.000000 0.000000 0.000000 -0.000000 -0.127551
  8 17.597597 0.000000 0.000000 0.002950 -0.017289 0.103055
  9 3.793090 6.407221 0.000000 0.000000 -0.000000 1.570796
 10 0.935740 0.000000 0.000000 0.000000 -0.000000 0.000000
 11 0.935741 0.000000 0.000000 0.000000 -0.000000 0.000000
 12 1.293670 0.684478 -0.000001 -0.000004 -0.000001 0.306054
 13 5.309685 -0.003834 0.000000 0.000000 -0.000000 -0.000013
 14 4.826790 -0.004591 0.000000 -0.173281 0.019906 0.112721
 15 5.792767 -0.005304 0.000000 -0.138141 0.019655 0.139633
 16 6.662317 -0.001453 0.000000 0.000000 -0.000001 0.471000
 17 2.046985 -0.000002 0.000000 0.254663 -0.184556 -0.063543
 18 -3.112024 1.517254 4.341911 1.015761 -1.198985 1.685834
 19 4.827230 0.000000 0.000001 0.102610 0.739823 -0.909503
 20 11.139763 0.000000 0.000000 0.000000 -0.000000 -0.786849
 21 10.314597 0.000001 0.000000 -3.878403 0.130307 -0.281129
 22 2.975834 -0.386307 -0.044143 -0.000797 -0.043611 0.000035
 23 1.438886 0.000000 0.000000 0.000000 -0.000000 0.872170
 24 1.485303 0.000000 0.000000 0.000000 -0.000000 0.906977
 25 -2.869898 1.399663 -4.140396 0.663238 1.314097 3.316927
 26 4.972048 0.000000 0.000001 -1.082747 -1.021680 0.311940
 27 11.585355 0.000000 0.000000 0.000000 -0.000000 -1.839579
 28 10.127057 0.000000 0.000001 1.597654 0.255717 0.214724
 29 2.683750 -0.427338 0.044205 -0.005738 0.043239 -0.157060
 30 1.438885 -0.000001 0.000000 0.000000 -0.000000 0.732589
 31 1.485305 0.000001 0.000000 0.000000 -0.000000 1.168627
time 30
  0 0.235347 -0.235347 3.532833 -0.000000 -0.000000 -1.571254
  1 0.000000 0.000000 0.000000 -1.570795 -1.570796 0.000000
  2 -0.000005 0.000007 3.713255 -6.281131 3.115177 6.261712
  3 18.045721 0.000000 0.000000 0.000000 -0.000000 -0.121501
  4 17.597597 0.000000 0.000000 -0.002613 0.026036 0.099967
  5 3.793090 6.407221 0.000000 0.000000 -0.000000 1.570796
  6 0.000005 -0.000003 -3.713255 6.280565 -3.123995 6.258640
  7 18.045725 0.000000 0.000000 0.000000 -0.000000 -0.127551
  8 17.597597 0.000000 0.000000 0.002950 -0.017289 0.103055
  9 3.793090 6.407221 0.000000 0.000000 -0.000000 1.570796
 10 0.935740 0.000000 0.000000 0.000000 -0.000000 0.000000
 11 0.935741 0.000000 0.000000 0.000000 -0.000000 0.000000
 12 1.293670 0.684478 -0.000001 -0.000004 -0.000001 0.306054
 13 5.309685 -0.003834 0.000000 0.000000 -0.000000 -0.000013
 14 4.826790 -0.004591 0.000000 -0.173330 0.019775 0.111663
 15 5.792767 -0.005304 0.000000 -0.138174 0.019451 0.138180
 16 6.662317 -0.001453 0.000000 0.000000 -0.000001 0.471000
 17 2.046985 -0.000002 0.000000 0.254577 -0.184691 -0.061026
 18 -3.112024 1.517254 4.341911 1.021706 -1.200331 1.679890
 19 4.827230 0.000000 0.000001 0.100848 0.743993 -0.910291
 20 11.139763 0.000000 0.000000 0.000000 -0.000000 -0.786849
 21 10.314597 0.000001 0.000000 -3.878403 0.130307 -0.281129
 22 2.975834 -0.386307 -0.044143 -0.000797 -0.043611 0.000035
 23 1.438886 0.000000 0.000000 0.000000 -0.000000 0.872170
 24 1.485303 0.000000 0.000000 0.000000 -0.000000 0.906977
 25 -2.869898 1.399663 -4.140396 0.672346 1.317206 3.326706
 26 4.972048 0.000000 0.000001 -1.089322 -1.024254 0.318132
 27 11.585355 0.000000 0.000000 0.000000 -0.000000 -1.839579
 28 10.127057 0.000000 0.000001 1.597654 0.255717 0.214724
 29 2.683750 -0.427338 0.044205 -0.005738 0.043239 -0.157060
 30 1.438885 -0.000001 0.000000 0.000000 -0.000000 0.732589
 31 1.485305 0.000001 0.000000 0.000000 -0.000000 1.168627
end
