version 1
nodes
  0 "Bip01"  -1
  1 "Bip01 Pelvis"   0
  2 "Bip01 L Leg"   1
  3 "Bip01 L Leg1"   2
  4 "Bip01 L Foot"   3
  5 "Bip01 L Toe0"   4
  6 "Bip01 R Leg"   1
  7 "Bip01 R Leg1"   6
  8 "Bip01 R Foot"   7
  9 "Bip01 R Toe0"   8
 10 "Bip01 R Toe01"   9
 11 "Bip01 R Toe02"  10
 12 "Bip01 Spine"   1
 13 "Bip01 Spine1"  12
 14 "Bip01 Spine2"  13
 15 "Bip01 Spine3"  14
 16 "Bip01 Neck"  15
 17 "Bip01 Head"  16
 18 "Bip01 L Arm"  16
 19 "Bip01 L Arm1"  18
 20 "Bip01 L Arm2"  19
 21 "Bip01 L Hand"  20
 22 "Bip01 L Finger1"  21
 23 "Bip01 L Finger11"  22
 24 "Bip01 L Finger12"  23
 25 "Bip01 R Arm"  16
 26 "Bip01 R Arm1"  25
 27 "Bip01 R Arm2"  26
 28 "Bip01 R Hand"  27
 29 "Bip01 R Finger1"  28
 30 "Bip01 R Finger11"  29
 31 "Bip01 R Finger12"  30
end
skeleton
time 0
  0 0.235347 -0.235347 3.532833 -0.000000 -0.000000 -1.571254
  1 0.000000 0.000000 0.000000 -1.570795 -1.570796 0.000000
  2 -0.000005 0.000007 3.713255 -6.281131 3.115177 6.261712
  3 18.045721 0.000000 0.000000 0.000000 -0.000000 -0.121501
  4 17.597597 0.000000 0.000000 -0.002613 0.026036 0.099967
  5 3.793090 6.407221 0.000000 0.000000 -0.000000 1.570796
  6 0.000005 -0.000003 -3.713255 6.280565 -3.123995 6.258640
  7 18.045725 0.000000 0.000000 0.000000 -0.000000 -0.127551
  8 17.597597 0.000000 0.000000 0.002950 -0.017289 0.103055
  9 3.793090 6.407221 0.000000 0.000000 -0.000000 1.570796
 10 0.935740 0.000000 0.000000 0.000000 -0.000000 0.000000
 11 0.935741 0.000000 0.000000 0.000000 -0.000000 0.000000
 12 1.293670 0.684478 -0.000001 -0.000004 -0.000001 0.061869
 13 5.309685 -0.003834 0.000000 -0.221112 0.050743 0.221108
 14 4.826790 -0.004591 0.000000 -0.152362 0.037883 0.241240
 15 5.792767 -0.005304 0.000000 -0.206771 0.032610 0.153586
 16 6.662317 -0.001453 0.000000 0.000000 -0.000001 0.471000
 17 2.046985 -0.000002 0.000000 0.505535 -0.039194 -0.235243
 18 -3.112024 1.517254 4.341911 0.999080 -1.044327 1.739141
 19 4.827230 0.000000 0.000001 -0.353125 0.507583 -0.603389
 20 11.139763 0.000000 0.000000 0.000000 -0.000000 -1.045303
 21 10.314597 0.000001 0.000000 -2.987507 -0.064632 0.326449
 22 2.975834 -0.386307 -0.044143 -0.023088 -0.037007 0.541079
 23 1.438886 0.000000 0.000000 0.000000 -0.000000 0.784940
 24 1.485303 0.000000 0.000000 0.000000 -0.000000 0.688984
 25 -2.869898 1.399663 -4.140396 -1.187882 0.734767 1.639722
 26 4.972048 0.000000 0.000001 0.527005 -0.428669 -1.004325
 27 11.585355 0.000000 0.000000 0.000000 -0.000000 -0.911601
 28 10.127057 0.000000 0.000001 2.052614 0.054576 0.642281
 29 2.683750 -0.427338 0.044205 -0.005738 0.043239 -0.157060
 30 1.438885 -0.000001 0.000000 0.000000 -0.000000 0.732589
 31 1.485305 0.000001 0.000000 0.000000 -0.000000 1.168627
time 1
  0 0.235347 -0.235347 3.532833 -0.000000 -0.000000 -1.571254
  1 0.000000 0.000000 0.000000 -1.570795 -1.570796 0.000000
  2 -0.000005 0.000007 3.713255 -6.281131 3.115177 6.261712
  3 18.045721 0.000000 0.000000 0.000000 -0.000000 -0.121501
  4 17.597597 0.000000 0.000000 -0.002613 0.026036 0.099967
  5 3.793090 6.407221 0.000000 0.000000 -0.000000 1.570796
  6 0.000005 -0.000003 -3.713255 6.280565 -3.123995 6.258640
  7 18.045725 0.000000 0.000000 0.000000 -0.000000 -0.127551
  8 17.597597 0.000000 0.000000 0.002950 -0.017289 0.103055
  9 3.793090 6.407221 0.000000 0.000000 -0.000000 1.570796
 10 0.935740 0.000000 0.000000 0.000000 -0.000000 0.000000
 11 0.935741 0.000000 0.000000 0.000000 -0.000000 0.000000
 12 1.293670 0.684478 -0.000001 -0.000004 -0.000001 0.061869
 13 5.309685 -0.003834 0.000000 -0.222520 0.044019 0.191503
 14 4.826790 -0.004591 0.000000 -0.214413 0.052469 0.235530
 15 5.792767 -0.005304 0.000000 -0.284712 0.044667 0.150596
 16 6.662317 -0.001453 0.000000 0.000000 -0.000001 0.471000
 17 2.046985 -0.000002 0.000000 0.622979 -0.119765 -0.217668
 18 -3.112024 1.517254 4.341911 0.999080 -1.044327 1.739141
 19 4.827230 0.000000 0.000001 -0.184728 0.749099 -0.317840
 20 11.139763 0.000000 0.000000 0.000000 -0.000000 -1.678264
 21 10.314597 0.000001 0.000000 -2.987507 -0.064632 0.326449
 22 2.975834 -0.386307 -0.044143 -0.023088 -0.037007 0.541079
 23 1.438886 0.000000 0.000000 0.000000 -0.000000 0.784940
 24 1.485303 0.000000 0.000000 0.000000 -0.000000 0.688984
 25 -2.869898 1.399663 -4.140396 -0.332214 1.158616 2.363468
 26 4.972048 0.000000 0.000001 0.173881 -0.821945 -1.335993
 27 11.585355 0.000000 0.000000 0.000000 -0.000000 -1.386469
 28 10.127057 0.000000 0.000001 1.979930 0.174828 0.694490
 29 2.683750 -0.427338 0.044205 -0.005738 0.043239 -0.157060
 30 1.438885 -0.000001 0.000000 0.000000 -0.000000 0.732589
 31 1.485305 0.000001 0.000000 0.000000 -0.000000 1.168627
time 2
  0 0.235347 -0.235347 3.532833 -0.000000 -0.000000 -1.571254
  1 0.000000 0.000000 0.000000 -1.570795 -1.570796 0.000000
  2 -0.000005 0.000007 3.713255 -6.281131 3.115177 6.261712
  3 18.045721 0.000000 0.000000 0.000000 -0.000000 -0.121501
  4 17.597597 0.000000 0.000000 -0.002613 0.026036 0.099967
  5 3.793090 6.407221 0.000000 0.000000 -0.000000 1.570796
  6 0.000005 -0.000003 -3.713255 6.280565 -3.123995 6.258640
  7 18.045725 0.000000 0.000000 0.000000 -0.000000 -0.127551
  8 17.597597 0.000000 0.000000 0.002950 -0.017289 0.103055
  9 3.793090 6.407221 0.000000 0.000000 -0.000000 1.570796
 10 0.935740 0.000000 0.000000 0.000000 -0.000000 0.000000
 11 0.935741 0.000000 0.000000 0.000000 -0.000000 0.000000
 12 1.293670 0.684478 -0.000001 -0.000004 -0.000001 0.061869
 13 5.309685 -0.003834 0.000000 -0.224050 0.035295 0.152809
 14 4.826790 -0.004591 0.000000 -0.295824 0.070565 0.226622
 15 5.792767 -0.005304 0.000000 -0.386769 0.059947 0.145239
 16 6.662317 -0.001453 0.000000 0.000000 -0.000001 0.471000
 17 2.046985 -0.000002 0.000000 0.774674 -0.231359 -0.214207
 18 -3.112024 1.517254 4.341911 0.999080 -1.044327 1.739141
 19 4.827230 0.000000 0.000001 -0.100970 0.865006 0.019428
 20 11.139763 0.000000 0.000000 0.000000 -0.000000 -1.723886
 21 10.314597 0.000001 0.000000 -2.987507 -0.064632 0.326449
 22 2.975834 -0.386307 -0.044143 -0.023088 -0.037007 0.541079
 23 1.438886 0.000000 0.000000 0.000000 -0.000000 0.784940
 24 1.485303 0.000000 0.000000 0.000000 -0.000000 0.688984
 25 -2.869898 1.399663 -4.140396 -0.957978 0.947794 1.812773
 26 4.972048 0.000000 0.000001 0.219288 -0.701686 -1.196541
 27 11.585355 0.000000 0.000000 0.000000 -0.000000 -1.237391
 28 10.127057 0.000000 0.000001 1.895206 0.311403 0.296156
 29 2.683750 -0.427338 0.044205 -0.005738 0.043239 -0.157060
 30 1.438885 -0.000001 0.000000 0.000000 -0.000000 0.732589
 31 1.485305 0.000001 0.000000 0.000000 -0.000000 1.168627
time 3
  0 0.235347 -0.235347 3.532833 -0.000000 -0.000000 -1.571254
  1 0.000000 0.000000 0.000000 -1.570795 -1.570796 0.000000
  2 -0.000005 0.000007 3.713255 -6.281131 3.115177 6.261712
  3 18.045721 0.000000 0.000000 0.000000 -0.000000 -0.121501
  4 17.597597 0.000000 0.000000 -0.002613 0.026036 0.099967
  5 3.793090 6.407221 0.000000 0.000000 -0.000000 1.570796
  6 0.000005 -0.000003 -3.713255 6.280565 -3.123995 6.258640
  7 18.045725 0.000000 0.000000 0.000000 -0.000000 -0.127551
  8 17.597597 0.000000 0.000000 0.002950 -0.017289 0.103055
  9 3.793090 6.407221 0.000000 0.000000 -0.000000 1.570796
 10 0.935740 0.000000 0.000000 0.000000 -0.000000 0.000000
 11 0.935741 0.000000 0.000000 0.000000 -0.000000 0.000000
 12 1.293670 0.684478 -0.000001 -0.000004 -0.000001 0.061869
 13 5.309685 -0.003834 0.000000 -0.224601 0.031448 0.135969
 14 4.826790 -0.004591 0.000000 -0.331373 0.078164 0.222345
 15 5.792767 -0.005304 0.000000 -0.431283 0.066419 0.142436
 16 6.662317 -0.001453 0.000000 0.000000 -0.000001 0.471000
 17 2.046985 -0.000002 0.000000 0.841151 -0.281178 -0.220096
 18 -3.112024 1.517254 4.341911 0.999080 -1.044327 1.739141
 19 4.827230 0.000000 0.000001 -0.047050 0.898876 0.205215
 20 11.139763 0.000000 0.000000 0.000000 -0.000000 -1.665930
 21 10.314597 0.000001 0.000000 -2.987507 -0.064632 0.326449
 22 2.975834 -0.386307 -0.044143 -0.023088 -0.037007 0.541079
 23 1.438886 0.000000 0.000000 0.000000 -0.000000 0.784940
 24 1.485303 0.000000 0.000000 0.000000 -0.000000 0.688984
 25 -2.869898 1.399663 -4.140396 -1.031417 0.893244 1.754578
 26 4.972048 0.000000 0.000001 0.261833 -0.666694 -1.258988
 27 11.585355 0.000000 0.000000 0.000000 -0.000000 -1.080127
 28 10.127057 0.000000 0.000001 2.005156 0.131757 0.676878
 29 2.683750 -0.427338 0.044205 -0.005738 0.043239 -0.157060
 30 1.438885 -0.000001 0.000000 0.000000 -0.000000 0.732589
 31 1.485305 0.000001 0.000000 0.000000 -0.000000 1.168627
time 4
  0 0.235347 -0.235347 3.532833 -0.000000 -0.000000 -1.571254
  1 0.000000 0.000000 0.000000 -1.570795 -1.570796 0.000000
  2 -0.000005 0.000007 3.713255 -6.281131 3.115177 6.261712
  3 18.045721 0.000000 0.000000 0.000000 -0.000000 -0.121501
  4 17.597597 0.000000 0.000000 -0.002613 0.026036 0.099967
  5 3.793090 6.407221 0.000000 0.000000 -0.000000 1.570796
  6 0.000005 -0.000003 -3.713255 6.280565 -3.123995 6.258640
  7 18.045725 0.000000 0.000000 0.000000 -0.000000 -0.127551
  8 17.597597 0.000000 0.000000 0.002950 -0.017289 0.103055
  9 3.793090 6.407221 0.000000 0.000000 -0.000000 1.570796
 10 0.935740 0.000000 0.000000 0.000000 -0.000000 0.000000
 11 0.935741 0.000000 0.000000 0.000000 -0.000000 0.000000
 12 1.293670 0.684478 -0.000001 -0.000004 -0.000001 0.061869
 13 5.309685 -0.003834 0.000000 -0.224185 0.034420 0.148970
 14 4.826790 -0.004591 0.000000 -0.303919 0.072351 0.225652
 15 5.792767 -0.005304 0.000000 -0.396928 0.061385 0.144637
 16 6.662317 -0.001453 0.000000 0.000000 -0.000001 0.471000
 17 2.046985 -0.000002 0.000000 0.789753 -0.242705 -0.215106
 18 -3.112024 1.517254 4.341911 0.999080 -1.044327 1.739141
 19 4.827230 0.000000 0.000001 -0.155771 0.813350 0.054170
 20 11.139763 0.000000 0.000000 0.000000 -0.000000 -1.568519
 21 10.314597 0.000001 0.000000 -2.987507 -0.064632 0.326449
 22 2.975834 -0.386307 -0.044143 -0.023088 -0.037007 0.541079
 23 1.438886 0.000000 0.000000 0.000000 -0.000000 0.784940
 24 1.485303 0.000000 0.000000 0.000000 -0.000000 0.688984
 25 -2.869898 1.399663 -4.140396 -1.088174 0.843160 1.710764
 26 4.972048 0.000000 0.000001 0.316523 -0.623497 -1.214128
 27 11.585355 0.000000 0.000000 0.000000 -0.000000 -1.018356
 28 10.127057 0.000000 0.000001 2.024012 0.093776 0.693627
 29 2.683750 -0.427338 0.044205 -0.005738 0.043239 -0.157060
 30 1.438885 -0.000001 0.000000 0.000000 -0.000000 0.732589
 31 1.485305 0.000001 0.000000 0.000000 -0.000000 1.168627
time 5
  0 0.235347 -0.235347 3.532833 -0.000000 -0.000000 -1.571254
  1 0.000000 0.000000 0.000000 -1.570795 -1.570796 0.000000
  2 -0.000005 0.000007 3.713255 -6.281131 3.115177 6.261712
  3 18.045721 0.000000 0.000000 0.000000 -0.000000 -0.121501
  4 17.597597 0.000000 0.000000 -0.002613 0.026036 0.099967
  5 3.793090 6.407221 0.000000 0.000000 -0.000000 1.570796
  6 0.000005 -0.000003 -3.713255 6.280565 -3.123995 6.258640
  7 18.045725 0.000000 0.000000 0.000000 -0.000000 -0.127551
  8 17.597597 0.000000 0.000000 0.002950 -0.017289 0.103055
  9 3.793090 6.407221 0.000000 0.000000 -0.000000 1.570796
 10 0.935740 0.000000 0.000000 0.000000 -0.000000 0.000000
 11 0.935741 0.000000 0.000000 0.000000 -0.000000 0.000000
 12 1.293670 0.684478 -0.000001 -0.000004 -0.000001 0.061869
 13 5.309685 -0.003834 0.000000 -0.223193 0.040352 0.175297
 14 4.826790 -0.004591 0.000000 -0.248452 0.060187 0.231936
 15 5.792767 -0.005304 0.000000 -0.327433 0.051078 0.148499
 16 6.662317 -0.001453 0.000000 0.000000 -0.000001 0.471000
 17 2.046985 -0.000002 0.000000 0.686440 -0.165871 -0.213443
 18 -3.112024 1.517254 4.341911 0.999080 -1.044327 1.739141
 19 4.827230 0.000000 0.000001 -0.268956 0.678976 -0.195762
 20 11.139763 0.000000 0.000000 0.000000 -0.000000 -1.425206
 21 10.314597 0.000001 0.000000 -2.987507 -0.064632 0.326449
 22 2.975834 -0.386307 -0.044143 -0.023088 -0.037007 0.541079
 23 1.438886 0.000000 0.000000 0.000000 -0.000000 0.784940
 24 1.485303 0.000000 0.000000 0.000000 -0.000000 0.688984
 25 -2.869898 1.399663 -4.140396 -1.133426 0.797598 1.677592
 26 4.972048 0.000000 0.000001 0.397204 -0.551583 -1.139166
 27 11.585355 0.000000 0.000000 0.000000 -0.000000 -0.972254
 28 10.127057 0.000000 0.000001 2.036370 0.075286 0.675466
 29 2.683750 -0.427338 0.044205 -0.005738 0.043239 -0.157060
 30 1.438885 -0.000001 0.000000 0.000000 -0.000000 0.732589
 31 1.485305 0.000001 0.000000 0.000000 -0.000000 1.168627
time 6
  0 0.235347 -0.235347 3.532833 -0.000000 -0.000000 -1.571254
  1 0.000000 0.000000 0.000000 -1.570795 -1.570796 0.000000
  2 -0.000005 0.000007 3.713255 -6.281131 3.115177 6.261712
  3 18.045721 0.000000 0.000000 0.000000 -0.000000 -0.121501
  4 17.597597 0.000000 0.000000 -0.002613 0.026036 0.099967
  5 3.793090 6.407221 0.000000 0.000000 -0.000000 1.570796
  6 0.000005 -0.000003 -3.713255 6.280565 -3.123995 6.258640
  7 18.045725 0.000000 0.000000 0.000000 -0.000000 -0.127551
  8 17.597597 0.000000 0.000000 0.002950 -0.017289 0.103055
  9 3.793090 6.407221 0.000000 0.000000 -0.000000 1.570796
 10 0.935740 0.000000 0.000000 0.000000 -0.000000 0.000000
 11 0.935741 0.000000 0.000000 0.000000 -0.000000 0.000000
 12 1.293670 0.684478 -0.000001 -0.000004 -0.000001 0.061869
 13 5.309685 -0.003834 0.000000 -0.222018 0.046512 0.202494
 14 4.826790 -0.004591 0.000000 -0.191343 0.047087 0.237779
 15 5.792767 -0.005304 0.000000 -0.255754 0.040184 0.151821
 16 6.662317 -0.001453 0.000000 0.000000 -0.000001 0.471000
 17 2.046985 -0.000002 0.000000 0.579767 -0.089239 -0.222702
 18 -3.112024 1.517254 4.341911 0.999080 -1.044327 1.739141
 19 4.827230 0.000000 0.000001 -0.322406 0.575068 -0.429242
 20 11.139763 0.000000 0.000000 0.000000 -0.000000 -1.220012
 21 10.314597 0.000001 0.000000 -2.987507 -0.064632 0.326449
 22 2.975834 -0.386307 -0.044143 -0.023088 -0.037007 0.541079
 23 1.438886 0.000000 0.000000 0.000000 -0.000000 0.784940
 24 1.485303 0.000000 0.000000 0.000000 -0.000000 0.688984
 25 -2.869898 1.399663 -4.140396 -1.165256 0.762042 1.655541
 26 4.972048 0.000000 0.000001 0.474404 -0.478784 -1.061634
 27 11.585355 0.000000 0.000000 0.000000 -0.000000 -0.938185
 28 10.127057 0.000000 0.000001 2.045352 0.063997 0.655343
 29 2.683750 -0.427338 0.044205 -0.005738 0.043239 -0.157060
 30 1.438885 -0.000001 0.000000 0.000000 -0.000000 0.732589
 31 1.485305 0.000001 0.000000 0.000000 -0.000000 1.168627
time 7
  0 0.235347 -0.235347 3.532833 -0.000000 -0.000000 -1.571254
  1 0.000000 0.000000 0.000000 -1.570795 -1.570796 0.000000
  2 -0.000005 0.000007 3.713255 -6.281131 3.115177 6.261712
  3 18.045721 0.000000 0.000000 0.000000 -0.000000 -0.121501
  4 17.597597 0.000000 0.000000 -0.002613 0.026036 0.099967
  5 3.793090 6.407221 0.000000 0.000000 -0.000000 1.570796
  6 0.000005 -0.000003 -3.713255 6.280565 -3.123995 6.258640
  7 18.045725 0.000000 0.000000 0.000000 -0.000000 -0.127551
  8 17.597597 0.000000 0.000000 0.002950 -0.017289 0.103055
  9 3.793090 6.407221 0.000000 0.000000 -0.000000 1.570796
 10 0.935740 0.000000 0.000000 0.000000 -0.000000 0.000000
 11 0.935741 0.000000 0.000000 0.000000 -0.000000 0.000000
 12 1.293670 0.684478 -0.000001 -0.000004 -0.000001 0.061869
 13 5.309685 -0.003834 0.000000 -0.221112 0.050743 0.221108
 14 4.826790 -0.004591 0.000000 -0.152362 0.037883 0.241240
 15 5.792767 -0.005304 0.000000 -0.206771 0.032610 0.153586
 16 6.662317 -0.001453 0.000000 0.000000 -0.000001 0.471000
 17 2.046985 -0.000002 0.000000 0.505535 -0.039194 -0.235243
 18 -3.112024 1.517254 4.341911 0.999080 -1.044327 1.739141
 19 4.827230 0.000000 0.000001 -0.353125 0.507583 -0.603389
 20 11.139763 0.000000 0.000000 0.000000 -0.000000 -1.045303
 21 10.314597 0.000001 0.000000 -2.987507 -0.064632 0.326449
 22 2.975834 -0.386307 -0.044143 -0.023088 -0.037007 0.541079
 23 1.438886 0.000000 0.000000 0.000000 -0.000000 0.784940
 24 1.485303 0.000000 0.000000 0.000000 -0.000000 0.688984
 25 -2.869898 1.399663 -4.140396 -1.187882 0.734767 1.639722
 26 4.972048 0.000000 0.000001 0.527005 -0.428669 -1.004325
 27 11.585355 0.000000 0.000000 0.000000 -0.000000 -0.911601
 28 10.127057 0.000000 0.000001 2.052614 0.054576 0.642281
 29 2.683750 -0.427338 0.044205 -0.005738 0.043239 -0.157060
 30 1.438885 -0.000001 0.000000 0.000000 -0.000000 0.732589
 31 1.485305 0.000001 0.000000 0.000000 -0.000000 1.168627
end
