version 1
nodes
  0 "Bone01"  -1
  1 "Bone02"   0
  2 "Bone03"   1
  3 "Bone04"   2
  4 "Bone05"   3
  5 "Bone06"   4
  6 "Bone08"   4
  7 "Bone09"   6
  8 "Bone10"   7
  9 "Bone11"   8
 10 "Bone12"   9
 11 "Bone16"   8
 12 "Bone17"  11
 13 "Bone26"   4
 14 "Bone27"  13
 15 "Bone29"   4
 16 "Bone30"  15
 17 "Bone32"   4
 18 "Bone33"  17
 19 "Bone19"   1
 20 "Bone20"  19
 21 "Bone21"  20
 22 "Bone22"  21
 23 "Bone23"  22
 24 "Bone24"  23
end
skeleton
time 0
  0 -1.996623 1.996623 -11.523515 1.570796 0.000000 1.570662
  1 0.000000 0.000000 0.000000 0.000000 0.000000 0.000000
  2 -8.878141 -0.048395 -1.142586 0.000000 0.000000 0.000000
  3 -11.856707 1.258262 0.000000 0.000000 0.000000 0.000000
  4 -1.905335 1.742210 1.054457 0.000000 0.000000 0.000000
  5 -0.970945 0.822710 0.686170 0.000000 0.000000 0.000000
  6 -1.880297 3.401037 0.088130 0.000000 0.000000 0.000000
  7 0.000000 0.000000 0.000000 0.000000 0.000000 0.000000
  8 -2.717426 0.092903 0.000000 0.000000 0.000000 0.000000
  9 -0.348388 -1.695488 0.000000 0.000000 0.000000 0.000000
 10 -0.278710 -0.859357 0.000000 0.000000 0.000000 0.000000
 11 -4.733720 0.512310 0.000000 0.000000 0.000000 0.000000
 12 1.323730 -3.668185 0.000000 0.000000 0.000000 0.000000
 13 -1.841841 -0.252357 -0.413176 0.000000 1.570796 0.000000
 14 0.000000 0.000000 0.000000 0.000000 0.000000 0.000000
 15 -1.655434 -1.018065 -0.614096 0.000000 1.570796 0.000000
 16 0.000000 0.000000 0.000000 0.000000 0.000000 0.000000
 17 -1.431746 -1.846478 -1.038433 0.000000 1.570796 0.000000
 18 0.000000 0.000000 0.000000 0.000000 0.000000 0.000000
 19 -13.236908 -3.969946 9.111436 0.000000 0.000000 0.000000
 20 0.000000 0.000000 0.000000 0.000000 0.000000 0.000000
 21 -13.544948 3.169006 -6.601963 0.000000 0.000000 0.000000
 22 -3.124472 1.877203 -0.786219 0.000000 0.000000 0.000000
 23 -1.143314 1.676258 -0.050264 0.000000 0.000000 0.000000
 24 -0.625989 1.347690 -0.418034 0.000000 0.000000 0.000000
end
