version 1
nodes
  0 "Cylinder01"  -1
  1 "sdsd"   0
end
skeleton
time 0
  0 0.008853 -0.007686 0.747225 1.570796 0.000000 1.570796
  1 1.516803 0.008412 -0.018048 0.000000 -1.570796 0.000000
end
triangles
back.bmp
  1 -0.0092 1.5091 0.7556 -0.0000 1.0000 -0.0000 0.5000 0.5000
  1 0.2308 1.5091 1.4956 -0.0000 1.0000 -0.0000 0.3333 0.0833
  1 0.7608 1.5091 0.7556 -0.0000 1.0000 -0.0000 0.0000 0.5000
back.bmp
  1 -0.0092 1.5091 0.7556 -0.0000 1.0000 -0.0000 0.5000 0.5000
  1 -0.6392 1.5091 1.2056 -0.0000 1.0000 -0.0000 0.9167 0.2500
  1 0.2308 1.5091 1.4956 -0.0000 1.0000 -0.0000 0.3333 0.0833
back.bmp
  1 -0.0092 1.5091 0.7556 -0.0000 1.0000 -0.0000 0.5000 0.5000
  1 -0.6392 1.5091 0.3056 -0.0000 1.0000 -0.0000 0.9167 0.7500
  1 -0.6392 1.5091 1.2056 -0.0000 1.0000 -0.0000 0.9167 0.2500
back.bmp
  1 -0.0092 1.5091 0.7556 -0.0000 1.0000 -0.0000 0.5000 0.5000
  1 0.2308 1.5091 0.0156 -0.0000 1.0000 -0.0000 0.3333 1.0000
  1 -0.6392 1.5091 0.3056 -0.0000 1.0000 -0.0000 0.9167 0.7500
back.bmp
  1 -0.0092 1.5091 0.7556 -0.0000 1.0000 -0.0000 0.5000 0.5000
  1 0.7608 1.5091 0.7556 -0.0000 1.0000 -0.0000 0.0000 0.5000
  1 0.2308 1.5091 0.0156 -0.0000 1.0000 -0.0000 0.3333 1.0000
bulletCHROME.bmp
  1 0.2308 -1.4909 1.4956 0.5242 0.0000 0.8516 0.0000 0.0156
  1 0.7608 -1.4909 0.7556 0.9719 -0.0000 -0.2354 0.0000 0.0156
  1 0.7608 1.5091 0.7556 0.9719 0.0000 0.2354 0.0000 0.0156
bulletCHROME.bmp
  1 0.7608 1.5091 0.7556 0.9719 0.0000 0.2354 0.0000 0.0156
  1 0.7608 -1.4909 0.7556 0.9719 -0.0000 -0.2354 0.0000 0.0156
  1 0.2308 1.5091 0.0156 0.5242 -0.0000 -0.8516 0.0000 0.0156
bulletCHROME.bmp
  1 0.7608 -1.4909 0.7556 0.9719 -0.0000 -0.2354 0.0000 0.0156
  1 0.2308 -1.4909 0.0156 0.0765 -0.0000 -0.9971 0.0000 0.0156
  1 0.2308 1.5091 0.0156 0.5242 -0.0000 -0.8516 0.0000 0.0156
bulletCHROME.bmp
  1 0.2308 1.5091 0.0156 0.5242 -0.0000 -0.8516 0.0000 0.0156
  1 0.2308 -1.4909 0.0156 0.0765 -0.0000 -0.9971 0.0000 0.0156
  1 -0.6392 1.5091 0.3056 -0.6479 -0.0000 -0.7617 0.0000 0.0156
bulletCHROME.bmp
  1 0.2308 -1.4909 0.0156 0.0765 -0.0000 -0.9971 0.0000 0.0156
  1 -0.6392 -1.4909 0.3056 -0.9246 -0.0000 -0.3808 0.0000 0.0156
  1 -0.6392 1.5091 0.3056 -0.6479 -0.0000 -0.7617 0.0000 0.0156
bulletCHROME.bmp
  1 -0.6392 1.5091 0.3056 -0.6479 -0.0000 -0.7617 0.0000 0.0156
  1 -0.6392 -1.4909 0.3056 -0.9246 -0.0000 -0.3808 0.0000 0.0156
  1 -0.6392 1.5091 1.2056 -0.9246 0.0000 0.3808 0.0000 0.0156
bulletCHROME.bmp
  1 -0.6392 -1.4909 0.3056 -0.9246 -0.0000 -0.3808 0.0000 0.0156
  1 -0.6392 -1.4909 1.2056 -0.6479 0.0000 0.7617 0.0000 0.0156
  1 -0.6392 1.5091 1.2056 -0.9246 0.0000 0.3808 0.0000 0.0156
bulletCHROME.bmp
  1 -0.6392 1.5091 1.2056 -0.9246 0.0000 0.3808 0.0000 0.0156
  1 -0.6392 -1.4909 1.2056 -0.6479 0.0000 0.7617 0.0000 0.0156
  1 0.2308 1.5091 1.4956 0.0765 0.0000 0.9971 0.0000 0.0156
bulletCHROME.bmp
  1 -0.6392 -1.4909 1.2056 -0.6479 0.0000 0.7617 0.0000 0.0156
  1 0.2308 -1.4909 1.4956 0.5242 0.0000 0.8516 0.0000 0.0156
  1 0.2308 1.5091 1.4956 0.0765 0.0000 0.9971 0.0000 0.0156
bulletCHROME.bmp
  1 0.2308 1.5091 1.4956 0.0765 0.0000 0.9971 0.0000 0.0156
  1 0.2308 -1.4909 1.4956 0.5242 0.0000 0.8516 0.0000 0.0156
  1 0.7608 1.5091 0.7556 0.9719 0.0000 0.2354 0.0000 0.0156
front.bmp
  1 -0.0092 -1.4909 0.7556 0.0000 -1.0000 0.0000 0.5000 0.5000
  1 0.7608 -1.4909 0.7556 0.0000 -1.0000 0.0000 0.0000 0.5000
  1 0.2308 -1.4909 1.4956 0.0000 -1.0000 0.0000 0.3333 0.0833
front.bmp
  1 -0.0092 -1.4909 0.7556 0.0000 -1.0000 0.0000 0.5000 0.5000
  1 0.2308 -1.4909 0.0156 0.0000 -1.0000 0.0000 0.3333 1.0000
  1 0.7608 -1.4909 0.7556 0.0000 -1.0000 0.0000 0.0000 0.5000
front.bmp
  1 -0.0092 -1.4909 0.7556 0.0000 -1.0000 0.0000 0.5000 0.5000
  1 -0.6392 -1.4909 0.3056 0.0000 -1.0000 0.0000 0.9167 0.7500
  1 0.2308 -1.4909 0.0156 0.0000 -1.0000 0.0000 0.3333 1.0000
front.bmp
  1 -0.0092 -1.4909 0.7556 0.0000 -1.0000 0.0000 0.5000 0.5000
  1 -0.6392 -1.4909 1.2056 0.0000 -1.0000 0.0000 0.9167 0.2500
  1 -0.6392 -1.4909 0.3056 0.0000 -1.0000 0.0000 0.9167 0.7500
front.bmp
  1 -0.0092 -1.4909 0.7556 0.0000 -1.0000 0.0000 0.5000 0.5000
  1 0.2308 -1.4909 1.4956 0.0000 -1.0000 0.0000 0.3333 0.0833
  1 -0.6392 -1.4909 1.2056 0.0000 -1.0000 0.0000 0.9167 0.2500
end
