version 1
nodes
  0 "Bip01" -1
  1 "Bip01 Pelvis" 0
  2 "Bip01 Spine" 1
  3 "Bip01 Spine1" 2
  4 "Bip01 Spine2" 3
  5 "Bip01 Spine3" 4
  6 "Bip01 Neck" 5
  7 "Bip01 L Clavicle" 6
  8 "Bip01 L UpperArm" 7
  9 "Bip01 L Forearm" 8
 10 "Bip01 L Hand" 9
 11 "Bip01 L Finger0" 10
 12 "Bip01 L Finger01" 11
 13 "Bip01 L Finger02" 12
 14 "Bip01 L Finger1" 10
 15 "Bip01 L Finger11" 14
 16 "Bip01 L Finger12" 15
 17 "Bip01 L Finger2" 10
 18 "Bip01 L Finger21" 17
 19 "Bip01 L Finger22" 18
 20 "Bip01 L Finger3" 10
 21 "Bip01 L Finger31" 20
 22 "Bip01 L Finger32" 21
 23 "Bip01 L Finger4" 10
 24 "Bip01 L Finger41" 23
 25 "Bip01 L Finger42" 24
 26 "L_Arm_bone" 9
 27 "Bip01 R Clavicle" 6
 28 "Bip01 R UpperArm" 27
 29 "Bip01 R Forearm" 28
 30 "Bip01 R Hand" 29
 31 "Bip01 R Finger0" 30
 32 "Bip01 R Finger01" 31
 33 "Bip01 R Finger02" 32
 34 "Bip01 R Finger1" 30
 35 "Bip01 R Finger11" 34
 36 "Bip01 R Finger12" 35
 37 "Bip01 R Finger2" 30
 38 "Bip01 R Finger21" 37
 39 "Bip01 R Finger22" 38
 40 "Bip01 R Finger3" 30
 41 "Bip01 R Finger31" 40
 42 "Bip01 R Finger32" 41
 43 "Bip01 R Finger4" 30
 44 "Bip01 R Finger41" 43
 45 "Bip01 R Finger42" 44
 46 "R_Arm_bone" 29
 47 "tripmine" -1
end
skeleton
time 0
  0   0.001490 -5.273599 -28.602463 0.000000 0.000000 -1.570795
  1   0.000000 0.000000 0.000000 -1.570795 -1.570451 0.000000
  2   1.326317 -0.003921 0.000002 -0.000004 -0.000001 0.000796
  3   4.926312 -0.003923 0.000000 0.000000 0.000000 0.000000
  4   4.926314 -0.003923 0.000000 0.000000 0.000000 0.000000
  5   4.926313 -0.003923 0.000000 0.000000 0.000000 0.000000
  6   4.926363 -0.001508 0.000000 0.000000 0.000000 0.030000
  7   0.000002 0.001504 1.894737 -0.000014 -1.370796 3.110810
  8   4.926316 0.000000 0.000002 -0.853681 1.147675 -1.006455
  9   11.368427 0.000000 -0.000001 0.000000 0.000000 -2.170328
 10   11.368419 -0.000001 0.000001 -1.633704 -0.258101 -0.336456
 11   1.126229 0.104084 -1.358370 1.623019 0.609990 0.482172
 12   2.373625 0.000000 0.000000 0.000000 0.000000 0.689338
 13   1.071903 0.000000 -0.000001 0.000000 0.000000 0.017444
 14   3.789472 -0.000905 -1.136842 0.096509 0.124026 0.669109
 15   1.136843 0.000001 0.000001 0.000000 0.000000 0.680130
 16   1.136841 -0.000001 -0.000001 0.000000 0.000000 0.523157
 17   3.789472 -0.000301 -0.378948 0.051980 0.058857 0.734496
 18   1.326317 0.000000 0.000000 0.000000 0.000000 0.680234
 19   1.326316 0.000000 0.000000 0.000000 0.000000 0.453352
 20   3.789472 0.000302 0.378947 -0.000554 0.000565 0.802799
 21   1.136844 0.000000 0.000000 0.000000 0.000000 0.366165
 22   1.136840 0.000000 0.000000 0.000000 0.000000 0.828600
 23   3.789472 0.000905 1.136842 -0.095330 -0.113743 0.694856
 24   0.947368 0.000000 0.000000 0.000000 0.000000 0.287630
 25   0.947369 0.000000 0.000000 0.000000 0.000000 0.828611
 26   8.530909 0.189987 -0.101291 1.257615 -1.594313 -1.282459
 27   0.000002 0.001514 -1.894737 -0.000014 1.370796 3.110783
 28   4.926316 0.000000 0.000000 0.863887 -1.134879 -1.000720
 29   11.368425 0.000000 0.000000 0.000000 0.000000 -2.170796
 30   11.368418 0.000000 0.000000 1.603798 0.138652 -0.355498
 31   1.126232 0.104084 1.358370 -1.623023 -0.609987 0.482175
 32   2.373624 0.000000 0.000000 0.000000 0.000000 0.689320
 33   1.071902 0.000001 0.000000 0.000000 0.000000 0.017445
 34   3.789474 -0.000905 1.136842 -0.089881 -0.128904 0.616568
 35   1.136842 0.000000 -0.000001 0.000000 0.000000 0.627764
 36   1.136840 0.000000 0.000001 0.000000 0.000000 0.470806
 37   3.789474 -0.000302 0.378948 -0.049367 -0.061062 0.690817
 38   1.326317 0.000000 0.000000 0.000000 0.000000 0.636598
 39   1.326315 0.000000 0.000000 0.000000 0.000000 0.409715
 40   3.789474 0.000302 -0.378947 0.000602 -0.000529 0.732966
 41   1.136842 0.000000 0.000000 0.000000 0.000000 0.296355
 42   1.136842 -0.000001 0.000000 0.000000 0.000000 0.758787
 43   3.789475 0.000905 -1.136842 0.092321 0.116200 0.668617
 44   0.947368 0.000000 0.000000 0.000000 0.000000 0.261434
 45   0.947369 0.000000 0.000000 0.000000 0.000000 0.802406
 46   8.551309 0.194140 -0.071740 1.257627 -1.547274 -1.282471
 47   -0.001297 -16.730980 -5.347572 0.296706 0.000000 -0.000027
end
