version 1
nodes
  0 "Xbow biped"  -1
  1 "Xbow biped Pelvis"   0
  2 "Xbow biped Spine"   1
  3 "Xbow biped Spine1"   2
  4 "Xbow biped Spine2"   3
  5 "Xbow biped Spine3"   4
  6 "Xbow biped Neck"   5
  7 "Xbow biped R Arm"   6
  8 "Xbow biped R Arm1"   7
  9 "Xbow biped R Arm2"   8
 10 "Xbow biped R Hand"   9
 11 "crossbow parent"  10
 12 "grip"  11
 13 "LeftArm"  12
 14 "LA1"  13
 15 "LA2"  14
 16 "LA3"  15
 17 "LA4"  16
 18 "RightArm"  12
 19 "RA1"  18
 20 "RA2"  19
 21 "RA3"  20
 22 "RA4"  21
 23 "Slide"  12
 24 "Bolt"  23
 25 "Bone18"  24
 26 "Clip Master"  12
 27 "Bone20"  26
 28 "Ammo Rotator"  26
 29 "Ammobone01"  28
 30 "Ammomid01"  29
 31 "Ammobone02"  28
 32 "Ammomid02"  31
 33 "Ammobone03"  28
 34 "Ammomid03"  33
 35 "Ammobone"  28
 36 "Ammomid"  35
 37 "Xbow biped L Arm"   6
 38 "Xbow biped L Arm1"  37
 39 "Xbow biped L Arm2"  38
 40 "Xbow biped L Hand"  39
 41 "Xbow biped L Finger0"  40
 42 "Xbow biped L Finger01"  41
 43 "Xbow biped L Finger02"  42
 44 "Xbow biped L Finger1"  40
 45 "Xbow biped L Finger11"  44
 46 "Xbow biped L Finger12"  45
 47 "Xbow biped L Finger2"  40
 48 "Xbow biped L Finger21"  47
 49 "Xbow biped L Finger22"  48
 50 "Xbow biped L Finger3"  40
 51 "Xbow biped L Finger31"  50
 52 "Xbow biped L Finger32"  51
 53 "Xbow biped L Finger4"  40
 54 "Xbow biped L Finger41"  53
 55 "Xbow biped L Finger42"  54
end
skeleton
time 0
  0 0.000000 3.724260 39.395706 0.000000 0.000000 -1.570795
  1 0.000000 0.000000 0.000000 -1.570795 -1.570796 0.000000
  2 1.326317 -0.003921 0.000002 -0.000004 -0.000001 0.000796
  3 4.926312 -0.003780 0.001048 -0.270389 0.000213 -0.000029
  4 4.926315 -0.003923 0.000000 0.000000 0.000000 0.000000
  5 4.926314 -0.003923 0.000000 0.000000 0.000000 0.000000
  6 4.926314 -0.001509 0.000000 0.000000 0.000000 0.000000
  7 0.000000 0.001514 -1.894737 -0.000014 1.370797 3.140783
  8 4.926316 0.000000 -0.000003 -0.791820 -1.162758 0.685480
  9 11.368423 0.000000 0.000000 0.000000 0.000000 -2.285262
 10 11.368423 -0.000001 0.000000 1.570000 0.000000 0.601833
 11 3.791503 1.946522 4.704311 -0.166073 -0.064016 1.709421
 12 0.000000 -9.111859 0.000000 0.000000 0.000000 0.000000
 13 4.000000 -10.388144 -0.000001 0.000000 0.000000 0.000000
 14 2.500000 -0.000001 -0.000001 0.000000 0.000000 0.000000
 15 2.500000 -0.000001 -0.000001 0.000000 0.000000 0.000000
 16 2.500000 -0.000001 -0.000001 0.000000 0.000000 0.000000
 17 2.500000 -0.000001 -0.000001 0.000000 0.000000 0.000000
 18 -4.000001 -10.388144 -0.000001 0.000000 0.000000 0.000000
 19 -2.500000 -0.000001 -0.000001 0.000000 0.000000 0.000000
 20 -2.500000 -0.000001 -0.000001 0.000000 0.000000 0.000000
 21 -2.500001 -0.000001 -0.000001 0.000000 0.000000 0.000000
 22 -2.499999 -0.000001 -0.000001 0.000000 0.000000 0.000000
 23 0.036119 -16.859829 0.485728 0.000000 0.000000 0.000000
 24 0.003826 -3.389289 -0.526929 0.000000 0.000000 0.000000
 25 -0.039945 -0.553359 -0.000001 0.000000 0.000000 0.000000
 26 -0.000001 0.554309 -11.834427 0.000000 0.000000 0.000000
 27 0.000000 1.057548 0.252414 0.000000 0.000000 0.000000
 28 0.000000 -13.871448 1.252414 -0.104667 0.000000 0.000000
 29 -0.000001 33.929256 -2.033620 0.104666 0.000000 0.000000
 30 0.000000 15.500001 0.000000 0.000000 0.000000 0.000000
 31 -0.000285 31.830973 -8.042091 0.104667 0.000000 0.000000
 32 0.000000 15.500000 0.000001 0.000000 0.000000 0.000000
 33 -0.000001 30.838583 -13.999427 0.104667 0.000000 0.000000
 34 0.000000 15.500000 0.000001 0.000000 0.000000 0.000000
 35 -0.000033 37.149738 3.857888 0.104666 0.000000 0.000000
 36 0.000000 15.500001 -0.000003 0.000000 0.000000 0.000000
 37 0.000000 0.001504 1.894737 -0.000014 -1.370796 3.110810
 38 4.926316 0.000000 0.000003 1.378175 2.404587 1.230193
 39 11.368423 0.000002 0.000000 0.000000 0.000000 -0.888768
 40 11.368421 0.000000 0.000000 -2.112005 -0.231064 0.433120
 41 1.126230 0.104082 -1.358370 2.166025 0.635106 0.519043
 42 2.373623 -0.000001 -0.000001 0.000000 0.000000 0.409944
 43 1.071903 0.000001 0.000002 0.000000 0.000000 0.471000
 44 3.789473 -0.000907 -1.136841 0.100752 0.120615 0.703804
 45 1.136845 -0.000001 -0.000001 0.000000 0.000000 0.523333
 46 1.136843 0.000003 -0.000001 0.000000 0.000000 0.453556
 47 3.789474 -0.000304 -0.378947 0.049888 0.060639 0.699260
 48 1.326317 0.000000 0.000000 0.000000 0.000000 0.523333
 49 1.326316 0.000002 0.000001 0.000000 0.000000 0.462278
 50 3.789475 0.000300 0.378947 -0.000610 0.000512 0.697778
 51 1.136844 0.000000 0.000001 0.000000 0.000000 0.523333
 52 1.136841 0.000001 0.000000 0.000000 0.000000 0.453556
 53 3.789474 0.000903 1.136843 -0.096294 -0.112933 0.703284
 54 0.947368 -0.000001 0.000000 0.000000 0.000000 0.523333
 55 0.947371 0.000001 -0.000001 0.000000 0.000000 0.453556
end
triangles
xbow_sleeve.bmp
 39 -5.5545 -13.6574 54.0859 -0.7504 0.6010 0.2752 0.0000 0.0900
 39 -5.1645 -13.7208 55.3241 -0.7832 0.5340 0.3185 0.0769 0.0600
 39 -0.6380 -5.4989 49.8990 -0.8432 0.5297 0.0917 0.1731 1.0000
xbow_sleeve.bmp
 39 -0.6380 -5.4989 49.8990 -0.8432 0.5297 0.0917 0.1731 1.0000
 39 -5.1645 -13.7208 55.3241 -0.7832 0.5340 0.3185 0.0769 0.0600
 39 -0.6515 -4.9281 53.0980 -0.6907 0.4964 0.5258 0.4231 0.9500
xbow_sleeve.bmp
 39 -5.1645 -13.7208 55.3241 -0.7832 0.5340 0.3185 0.0769 0.0600
 39 -4.0851 -14.1177 56.3878 -0.3224 0.3877 0.8636 0.3269 0.0200
 39 -0.6515 -4.9281 53.0980 -0.6907 0.4964 0.5258 0.4231 0.9500
xbow_sleeve.bmp
 39 -0.6515 -4.9281 53.0980 -0.6907 0.4964 0.5258 0.4231 0.9500
 39 -4.0851 -14.1177 56.3878 -0.3224 0.3877 0.8636 0.3269 0.0200
 39 1.2285 -5.1952 54.2695 0.4693 -0.0015 0.8830 0.8269 0.9400
xbow_sleeve.bmp
 39 -4.0851 -14.1177 56.3878 -0.3224 0.3877 0.8636 0.3269 0.0200
 39 -3.4022 -14.5048 56.4565 0.3191 0.0656 0.9455 0.4615 0.0100
 39 1.2285 -5.1952 54.2695 0.4693 -0.0015 0.8830 0.8269 0.9400
xbow_sleeve.bmp
 39 1.2285 -5.1952 54.2695 0.4693 -0.0015 0.8830 0.8269 0.9400
 39 -3.4022 -14.5048 56.4565 0.3191 0.0656 0.9455 0.4615 0.0100
 39 -2.7437 -14.8999 55.9508 0.8199 -0.2437 0.5180 0.5192 0.0100
xbow_sleeve.bmp
 39 3.3595 -6.8577 51.5701 0.6960 -0.2177 0.6842 0.9231 0.9500
 39 1.2285 -5.1952 54.2695 0.4693 -0.0015 0.8830 0.8269 0.9400
 39 -2.7009 -15.1202 55.0756 0.8513 -0.2998 0.4305 0.4423 0.0200
xbow_sleeve.bmp
 39 -2.7009 -15.1202 55.0756 0.8513 -0.2998 0.4305 0.4423 0.0200
 39 1.2285 -5.1952 54.2695 0.4693 -0.0015 0.8830 0.8269 0.9400
 39 -2.7437 -14.8999 55.9508 0.8199 -0.2437 0.5180 0.5192 0.0100
rubbergloveCHROME.bmp
 44 -5.9507 -19.2505 55.3276 -0.1456 0.8293 0.5394 0.0000 0.0156
 44 -5.5242 -19.5267 55.8182 0.3130 0.2354 0.9201 0.0000 0.0156
 40 -5.4912 -18.7838 55.0292 -0.5110 0.2422 0.8248 0.0000 0.0156
rubbergloveCHROME.bmp
 40 -5.4912 -18.7838 55.0292 -0.5110 0.2422 0.8248 0.0000 0.0156
 44 -5.5242 -19.5267 55.8182 0.3130 0.2354 0.9201 0.0000 0.0156
 40 -4.9356 -19.0809 55.5732 0.3138 -0.2032 0.9275 0.0000 0.0156
rubbergloveCHROME.bmp
 44 -5.5242 -19.5267 55.8182 0.3130 0.2354 0.9201 0.0000 0.0156
 40 -4.4534 -19.0351 55.0617 0.8592 -0.4732 0.1944 0.0000 0.0156
 40 -4.9356 -19.0809 55.5732 0.3138 -0.2032 0.9275 0.0000 0.0156
rubbergloveCHROME.bmp
 40 -4.9356 -19.0809 55.5732 0.3138 -0.2032 0.9275 0.0000 0.0156
 40 -4.4534 -19.0351 55.0617 0.8592 -0.4732 0.1944 0.0000 0.0156
 40 -4.2059 -18.0818 55.3789 0.8227 -0.3933 0.4105 0.0000 0.0156
rubbergloveCHROME.bmp
 40 -4.4534 -19.0351 55.0617 0.8592 -0.4732 0.1944 0.0000 0.0156
 40 -3.7323 -16.8162 55.2667 0.8685 -0.1568 -0.4703 0.0000 0.0156
 40 -4.2059 -18.0818 55.3789 0.8227 -0.3933 0.4105 0.0000 0.0156
rubbergloveCHROME.bmp
 40 -4.2059 -18.0818 55.3789 0.8227 -0.3933 0.4105 0.0000 0.0156
 40 -3.7323 -16.8162 55.2667 0.8685 -0.1568 -0.4703 0.0000 0.0156
 40 -4.0356 -17.6642 55.4390 0.8893 -0.4522 -0.0679 0.0000 0.0156
rubbergloveCHROME.bmp
 40 -3.7323 -16.8162 55.2667 0.8685 -0.1568 -0.4703 0.0000 0.0156
 40 -3.4302 -16.6867 55.8714 0.9793 -0.0338 0.1996 0.0000 0.0156
 40 -4.0356 -17.6642 55.4390 0.8893 -0.4522 -0.0679 0.0000 0.0156
rubbergloveCHROME.bmp
 40 -4.0356 -17.6642 55.4390 0.8893 -0.4522 -0.0679 0.0000 0.0156
 40 -3.4302 -16.6867 55.8714 0.9793 -0.0338 0.1996 0.0000 0.0156
 41 -3.8572 -17.7825 56.5704 0.9734 -0.0413 0.2255 0.0000 0.0156
rubbergloveCHROME.bmp
 40 -3.4302 -16.6867 55.8714 0.9793 -0.0338 0.1996 0.0000 0.0156
 40 -4.5117 -15.3400 56.0691 -0.1020 0.3536 0.9298 0.0000 0.0156
 41 -3.8572 -17.7825 56.5704 0.9734 -0.0413 0.2255 0.0000 0.0156
rubbergloveCHROME.bmp
 41 -3.8572 -17.7825 56.5704 0.9734 -0.0413 0.2255 0.0000 0.0156
 40 -4.5117 -15.3400 56.0691 -0.1020 0.3536 0.9298 0.0000 0.0156
 41 -4.4297 -17.3622 56.9577 -0.3033 0.4483 0.8408 0.0000 0.0156
rubbergloveCHROME.bmp
 40 -4.5117 -15.3400 56.0691 -0.1020 0.3536 0.9298 0.0000 0.0156
 40 -5.0901 -16.6711 56.0100 -0.8248 -0.0244 0.5649 0.0000 0.0156
 41 -4.4297 -17.3622 56.9577 -0.3033 0.4483 0.8408 0.0000 0.0156
rubbergloveCHROME.bmp
 41 -4.4297 -17.3622 56.9577 -0.3033 0.4483 0.8408 0.0000 0.0156
 40 -5.0901 -16.6711 56.0100 -0.8248 -0.0244 0.5649 0.0000 0.0156
 40 -4.6717 -17.7440 56.1382 -0.6516 -0.1191 0.7492 0.0000 0.0156
rubbergloveCHROME.bmp
 40 -5.0901 -16.6711 56.0100 -0.8248 -0.0244 0.5649 0.0000 0.0156
 40 -5.3473 -16.8896 55.4271 -0.8550 -0.1141 0.5060 0.0000 0.0156
 40 -4.6717 -17.7440 56.1382 -0.6516 -0.1191 0.7492 0.0000 0.0156
rubbergloveCHROME.bmp
 40 -4.6717 -17.7440 56.1382 -0.6516 -0.1191 0.7492 0.0000 0.0156
 40 -5.3473 -16.8896 55.4271 -0.8550 -0.1141 0.5060 0.0000 0.0156
 40 -5.4912 -18.7838 55.0292 -0.5110 0.2422 0.8248 0.0000 0.0156
rubbergloveCHROME.bmp
 40 -5.3473 -16.8896 55.4271 -0.8550 -0.1141 0.5060 0.0000 0.0156
 40 -5.8097 -14.6299 54.7457 -0.7897 0.1703 0.5894 0.0000 0.0156
 40 -5.4912 -18.7838 55.0292 -0.5110 0.2422 0.8248 0.0000 0.0156
rubbergloveCHROME.bmp
 40 -5.4912 -18.7838 55.0292 -0.5110 0.2422 0.8248 0.0000 0.0156
 40 -5.8097 -14.6299 54.7457 -0.7897 0.1703 0.5894 0.0000 0.0156
 40 -6.0839 -18.3943 54.4429 -0.3206 0.3554 0.8780 0.0000 0.0156
rubbergloveCHROME.bmp
 40 -5.8097 -14.6299 54.7457 -0.7897 0.1703 0.5894 0.0000 0.0156
 40 -6.6519 -18.0664 53.8848 -0.2836 0.3763 0.8820 0.0000 0.0156
 40 -6.0839 -18.3943 54.4429 -0.3206 0.3554 0.8780 0.0000 0.0156
rubbergloveCHROME.bmp
 40 -6.0839 -18.3943 54.4429 -0.3206 0.3554 0.8780 0.0000 0.0156
 40 -6.6519 -18.0664 53.8848 -0.2836 0.3763 0.8820 0.0000 0.0156
 50 -6.6973 -18.7713 54.7163 0.3762 0.1954 0.9057 0.0000 0.0156
rubbergloveCHROME.bmp
 40 -6.6519 -18.0664 53.8848 -0.2836 0.3763 0.8820 0.0000 0.0156
 50 -7.2075 -18.4210 54.2089 -0.0217 0.8169 0.5764 0.0000 0.0156
 50 -6.6973 -18.7713 54.7163 0.3762 0.1954 0.9057 0.0000 0.0156
rubbergloveCHROME.bmp
 50 -6.6973 -18.7713 54.7163 0.3762 0.1954 0.9057 0.0000 0.0156
 50 -7.2075 -18.4210 54.2089 -0.0217 0.8169 0.5764 0.0000 0.0156
 51 -7.3938 -19.0330 55.1422 0.5327 0.2729 0.8011 0.0000 0.0156
rubbergloveCHROME.bmp
 50 -7.2075 -18.4210 54.2089 -0.0217 0.8169 0.5764 0.0000 0.0156
 51 -7.8478 -18.7271 54.6899 0.2651 0.8968 0.3542 0.0000 0.0156
 51 -7.3938 -19.0330 55.1422 0.5327 0.2729 0.8011 0.0000 0.0156
rubbergloveCHROME.bmp
 51 -7.3938 -19.0330 55.1422 0.5327 0.2729 0.8011 0.0000 0.0156
 51 -7.8478 -18.7271 54.6899 0.2651 0.8968 0.3542 0.0000 0.0156
 52 -8.2629 -18.9337 55.9534 0.2684 0.1296 0.9546 0.0000 0.0156
rubbergloveCHROME.bmp
 51 -7.8478 -18.7271 54.6899 0.2651 0.8968 0.3542 0.0000 0.0156
 52 -8.5889 -18.6947 55.6255 -0.5726 0.5922 0.5669 0.0000 0.0156
 52 -8.2629 -18.9337 55.9534 0.2684 0.1296 0.9546 0.0000 0.0156
rubbergloveCHROME.bmp
 52 -8.2629 -18.9337 55.9534 0.2684 0.1296 0.9546 0.0000 0.0156
 52 -8.5889 -18.6947 55.6255 -0.5726 0.5922 0.5669 0.0000 0.0156
 52 -8.5823 -19.0785 55.7846 -0.7471 -0.2733 0.6059 0.0000 0.0156
rubbergloveCHROME.bmp
 52 -8.5889 -18.6947 55.6255 -0.5726 0.5922 0.5669 0.0000 0.0156
 52 -8.6063 -19.1310 55.5130 -0.8102 -0.5808 0.0795 0.0000 0.0156
 52 -8.5823 -19.0785 55.7846 -0.7471 -0.2733 0.6059 0.0000 0.0156
rubbergloveCHROME.bmp
 52 -8.5823 -19.0785 55.7846 -0.7471 -0.2733 0.6059 0.0000 0.0156
 52 -8.6063 -19.1310 55.5130 -0.8102 -0.5808 0.0795 0.0000 0.0156
 52 -8.4147 -19.2681 55.6993 -0.3416 -0.8725 0.3493 0.0000 0.0156
rubbergloveCHROME.bmp
 52 -8.6063 -19.1310 55.5130 -0.8102 -0.5808 0.0795 0.0000 0.0156
 51 -7.9487 -19.3188 54.4654 -0.4689 -0.8728 -0.1353 0.0000 0.0156
 52 -8.4147 -19.2681 55.6993 -0.3416 -0.8725 0.3493 0.0000 0.0156
rubbergloveCHROME.bmp
 52 -8.4147 -19.2681 55.6993 -0.3416 -0.8725 0.3493 0.0000 0.0156
 51 -7.9487 -19.3188 54.4654 -0.4689 -0.8728 -0.1353 0.0000 0.0156
 51 -7.5606 -19.5963 54.8771 0.1438 -0.9655 0.2171 0.0000 0.0156
rubbergloveCHROME.bmp
 51 -7.9487 -19.3188 54.4654 -0.4689 -0.8728 -0.1353 0.0000 0.0156
 51 -7.6541 -19.4932 54.5894 -0.2463 -0.9345 -0.2569 0.0000 0.0156
 51 -7.5606 -19.5963 54.8771 0.1438 -0.9655 0.2171 0.0000 0.0156
rubbergloveCHROME.bmp
 51 -7.5606 -19.5963 54.8771 0.1438 -0.9655 0.2171 0.0000 0.0156
 51 -7.6541 -19.4932 54.5894 -0.2463 -0.9345 -0.2569 0.0000 0.0156
 51 -6.9373 -19.3771 54.2335 0.0721 -0.9624 -0.2621 0.0000 0.0156
rubbergloveCHROME.bmp
 48 -6.3485 -19.8555 54.8661 0.2453 -0.9690 -0.0302 0.0000 0.0156
 48 -7.1811 -20.1085 55.5589 0.2155 -0.9226 0.3200 0.0000 0.0156
 48 -7.2140 -20.0257 55.2170 -0.1637 -0.9649 -0.2053 0.0000 0.0156
rubbergloveCHROME.bmp
 48 -7.2140 -20.0257 55.2170 -0.1637 -0.9649 -0.2053 0.0000 0.0156
 48 -7.1811 -20.1085 55.5589 0.2155 -0.9226 0.3200 0.0000 0.0156
 48 -7.4774 -19.9222 55.1996 -0.3999 -0.9043 -0.1493 0.0000 0.0156
rubbergloveCHROME.bmp
 48 -7.1811 -20.1085 55.5589 0.2155 -0.9226 0.3200 0.0000 0.0156
 49 -8.0537 -19.8534 56.2726 -0.2973 -0.8817 0.3662 0.0000 0.0156
 48 -7.4774 -19.9222 55.1996 -0.3999 -0.9043 -0.1493 0.0000 0.0156
rubbergloveCHROME.bmp
 48 -7.4774 -19.9222 55.1996 -0.3999 -0.9043 -0.1493 0.0000 0.0156
 49 -8.0537 -19.8534 56.2726 -0.2973 -0.8817 0.3662 0.0000 0.0156
 49 -8.2066 -19.7561 56.0848 -0.7868 -0.6166 0.0273 0.0000 0.0156
rubbergloveCHROME.bmp
 49 -8.0537 -19.8534 56.2726 -0.2973 -0.8817 0.3662 0.0000 0.0156
 49 -8.2038 -19.6795 56.3604 -0.7809 -0.2590 0.5684 0.0000 0.0156
 49 -8.2066 -19.7561 56.0848 -0.7868 -0.6166 0.0273 0.0000 0.0156
rubbergloveCHROME.bmp
 49 -8.2066 -19.7561 56.0848 -0.7868 -0.6166 0.0273 0.0000 0.0156
 49 -8.2038 -19.6795 56.3604 -0.7809 -0.2590 0.5684 0.0000 0.0156
 49 -8.2032 -19.2929 56.1593 -0.6367 0.6244 0.4525 0.0000 0.0156
rubbergloveCHROME.bmp
 49 -8.2038 -19.6795 56.3604 -0.7809 -0.2590 0.5684 0.0000 0.0156
 49 -7.9342 -19.5013 56.5038 0.2183 0.2045 0.9542 0.0000 0.0156
 49 -8.2032 -19.2929 56.1593 -0.6367 0.6244 0.4525 0.0000 0.0156
rubbergloveCHROME.bmp
 49 -8.2032 -19.2929 56.1593 -0.6367 0.6244 0.4525 0.0000 0.0156
 49 -7.9342 -19.5013 56.5038 0.2183 0.2045 0.9542 0.0000 0.0156
 48 -7.4357 -19.3272 55.3502 0.1941 0.9220 0.3351 0.0000 0.0156
rubbergloveCHROME.bmp
 49 -7.9342 -19.5013 56.5038 0.2183 0.2045 0.9542 0.0000 0.0156
 48 -7.0547 -19.5679 55.7923 0.4626 0.3110 0.8302 0.0000 0.0156
 48 -7.4357 -19.3272 55.3502 0.1941 0.9220 0.3351 0.0000 0.0156
rubbergloveCHROME.bmp
 48 -7.4357 -19.3272 55.3502 0.1941 0.9220 0.3351 0.0000 0.0156
 48 -7.0547 -19.5679 55.7923 0.4626 0.3110 0.8302 0.0000 0.0156
 47 -6.6511 -18.9268 54.7810 -0.1137 0.8145 0.5689 0.0000 0.0156
rubbergloveCHROME.bmp
 48 -7.0547 -19.5679 55.7923 0.4626 0.3110 0.8302 0.0000 0.0156
 47 -6.1112 -19.2294 55.3044 0.3011 0.2125 0.9296 0.0000 0.0156
 47 -6.6511 -18.9268 54.7810 -0.1137 0.8145 0.5689 0.0000 0.0156
rubbergloveCHROME.bmp
 47 -6.6511 -18.9268 54.7810 -0.1137 0.8145 0.5689 0.0000 0.0156
 47 -6.1112 -19.2294 55.3044 0.3011 0.2125 0.9296 0.0000 0.0156
 40 -6.0839 -18.3943 54.4429 -0.3206 0.3554 0.8780 0.0000 0.0156
rubbergloveCHROME.bmp
 47 -6.1112 -19.2294 55.3044 0.3011 0.2125 0.9296 0.0000 0.0156
 40 -5.4912 -18.7838 55.0292 -0.5110 0.2422 0.8248 0.0000 0.0156
 40 -6.0839 -18.3943 54.4429 -0.3206 0.3554 0.8780 0.0000 0.0156
rubbergloveCHROME.bmp
 40 -5.8097 -14.6299 54.7457 -0.7897 0.1703 0.5894 0.0000 0.0156
 40 -7.1910 -17.7016 53.3533 -0.6526 0.6862 0.3213 0.0000 0.0156
 40 -6.6519 -18.0664 53.8848 -0.2836 0.3763 0.8820 0.0000 0.0156
rubbergloveCHROME.bmp
 40 -6.6519 -18.0664 53.8848 -0.2836 0.3763 0.8820 0.0000 0.0156
 40 -7.1910 -17.7016 53.3533 -0.6526 0.6862 0.3213 0.0000 0.0156
 53 -7.1027 -18.2802 54.0221 0.4156 0.1331 0.8998 0.0000 0.0156
rubbergloveCHROME.bmp
 40 -7.1910 -17.7016 53.3533 -0.6526 0.6862 0.3213 0.0000 0.0156
 53 -7.5849 -17.8860 53.6161 0.0449 0.7648 0.6427 0.0000 0.0156
 53 -7.1027 -18.2802 54.0221 0.4156 0.1331 0.8998 0.0000 0.0156
rubbergloveCHROME.bmp
 53 -7.1027 -18.2802 54.0221 0.4156 0.1331 0.8998 0.0000 0.0156
 53 -7.5849 -17.8860 53.6161 0.0449 0.7648 0.6427 0.0000 0.0156
 54 -7.6760 -18.5238 54.3112 0.5493 0.1563 0.8209 0.0000 0.0156
rubbergloveCHROME.bmp
 53 -7.5849 -17.8860 53.6161 0.0449 0.7648 0.6427 0.0000 0.0156
 54 -8.0827 -18.2046 53.9800 0.3408 0.8303 0.4409 0.0000 0.0156
 54 -7.6760 -18.5238 54.3112 0.5493 0.1563 0.8209 0.0000 0.0156
rubbergloveCHROME.bmp
 54 -7.6760 -18.5238 54.3112 0.5493 0.1563 0.8209 0.0000 0.0156
 54 -8.0827 -18.2046 53.9800 0.3408 0.8303 0.4409 0.0000 0.0156
 55 -8.2730 -18.4797 55.0670 0.3508 0.0179 0.9363 0.0000 0.0156
rubbergloveCHROME.bmp
 54 -8.0827 -18.2046 53.9800 0.3408 0.8303 0.4409 0.0000 0.0156
 55 -8.6257 -18.1919 54.7716 -0.4672 0.6098 0.6403 0.0000 0.0156
 55 -8.2730 -18.4797 55.0670 0.3508 0.0179 0.9363 0.0000 0.0156
rubbergloveCHROME.bmp
 55 -8.2730 -18.4797 55.0670 0.3508 0.0179 0.9363 0.0000 0.0156
 55 -8.6257 -18.1919 54.7716 -0.4672 0.6098 0.6403 0.0000 0.0156
 55 -8.6831 -18.5804 54.8687 -0.7460 -0.2628 0.6118 0.0000 0.0156
rubbergloveCHROME.bmp
 55 -8.6257 -18.1919 54.7716 -0.4672 0.6098 0.6403 0.0000 0.0156
 55 -8.7003 -18.6073 54.6289 -0.8580 -0.5134 0.0176 0.0000 0.0156
 55 -8.6831 -18.5804 54.8687 -0.7460 -0.2628 0.6118 0.0000 0.0156
rubbergloveCHROME.bmp
 55 -8.6831 -18.5804 54.8687 -0.7460 -0.2628 0.6118 0.0000 0.0156
 55 -8.7003 -18.6073 54.6289 -0.8580 -0.5134 0.0176 0.0000 0.0156
 55 -8.5180 -18.7751 54.7657 -0.3868 -0.8879 0.2489 0.0000 0.0156
rubbergloveCHROME.bmp
 55 -8.7003 -18.6073 54.6289 -0.8580 -0.5134 0.0176 0.0000 0.0156
 54 -8.2077 -18.6847 53.7601 -0.5831 -0.8018 -0.1311 0.0000 0.0156
 55 -8.5180 -18.7751 54.7657 -0.3868 -0.8879 0.2489 0.0000 0.0156
rubbergloveCHROME.bmp
 55 -8.5180 -18.7751 54.7657 -0.3868 -0.8879 0.2489 0.0000 0.0156
 54 -8.2077 -18.6847 53.7601 -0.5831 -0.8018 -0.1311 0.0000 0.0156
 54 -7.8508 -18.9757 54.0485 0.0957 -0.9089 0.4058 0.0000 0.0156
rubbergloveCHROME.bmp
 54 -8.2077 -18.6847 53.7601 -0.5831 -0.8018 -0.1311 0.0000 0.0156
 54 -7.9457 -18.8979 53.8129 -0.6704 -0.7401 0.0538 0.0000 0.0156
 54 -7.8508 -18.9757 54.0485 0.0957 -0.9089 0.4058 0.0000 0.0156
rubbergloveCHROME.bmp
 42 -4.5159 -18.4662 57.4221 0.1486 0.3142 0.9377 0.0000 0.0156
 42 -4.9117 -19.3388 57.3722 -0.3550 -0.1149 0.9278 0.0000 0.0156
 42 -4.6180 -19.3810 57.3148 0.5558 -0.5439 0.6287 0.0000 0.0156
rubbergloveCHROME.bmp
 42 -4.6180 -19.3810 57.3148 0.5558 -0.5439 0.6287 0.0000 0.0156
 42 -4.9117 -19.3388 57.3722 -0.3550 -0.1149 0.9278 0.0000 0.0156
 42 -4.5958 -19.6348 57.0540 0.7989 -0.5951 0.0876 0.0000 0.0156
rubbergloveCHROME.bmp
 42 -4.9117 -19.3388 57.3722 -0.3550 -0.1149 0.9278 0.0000 0.0156
 43 -4.9521 -20.1888 56.8567 0.1253 -0.9771 0.1717 0.0000 0.0156
 42 -4.5958 -19.6348 57.0540 0.7989 -0.5951 0.0876 0.0000 0.0156
rubbergloveCHROME.bmp
 42 -4.5958 -19.6348 57.0540 0.7989 -0.5951 0.0876 0.0000 0.0156
 43 -4.9521 -20.1888 56.8567 0.1253 -0.9771 0.1717 0.0000 0.0156
 43 -5.0335 -20.0338 56.6559 0.0986 -0.7339 -0.6720 0.0000 0.0156
rubbergloveCHROME.bmp
 43 -4.9521 -20.1888 56.8567 0.1253 -0.9771 0.1717 0.0000 0.0156
 43 -5.1299 -20.0569 56.8597 -0.6394 -0.7178 -0.2756 0.0000 0.0156
 43 -5.0335 -20.0338 56.6559 0.0986 -0.7339 -0.6720 0.0000 0.0156
rubbergloveCHROME.bmp
 43 -5.0335 -20.0338 56.6559 0.0986 -0.7339 -0.6720 0.0000 0.0156
 43 -5.1299 -20.0569 56.8597 -0.6394 -0.7178 -0.2756 0.0000 0.0156
 43 -5.3346 -19.8473 56.9187 -0.9184 -0.3809 -0.1071 0.0000 0.0156
rubbergloveCHROME.bmp
 43 -5.1299 -20.0569 56.8597 -0.6394 -0.7178 -0.2756 0.0000 0.0156
 43 -5.2755 -19.9979 57.1724 -0.8015 -0.4399 0.4051 0.0000 0.0156
 43 -5.3346 -19.8473 56.9187 -0.9184 -0.3809 -0.1071 0.0000 0.0156
rubbergloveCHROME.bmp
 43 -5.3346 -19.8473 56.9187 -0.9184 -0.3809 -0.1071 0.0000 0.0156
 43 -5.2755 -19.9979 57.1724 -0.8015 -0.4399 0.4051 0.0000 0.0156
 42 -5.0887 -19.2522 57.0892 -0.8372 0.2786 0.4707 0.0000 0.0156
rubbergloveCHROME.bmp
 43 -5.2755 -19.9979 57.1724 -0.8015 -0.4399 0.4051 0.0000 0.0156
 42 -4.9117 -19.3388 57.3722 -0.3550 -0.1149 0.9278 0.0000 0.0156
 42 -5.0887 -19.2522 57.0892 -0.8372 0.2786 0.4707 0.0000 0.0156
rubbergloveCHROME.bmp
 42 -5.0887 -19.2522 57.0892 -0.8372 0.2786 0.4707 0.0000 0.0156
 42 -4.9117 -19.3388 57.3722 -0.3550 -0.1149 0.9278 0.0000 0.0156
 41 -4.8586 -18.3087 56.8975 -0.7608 0.4346 0.4819 0.0000 0.0156
rubbergloveCHROME.bmp
 42 -4.9117 -19.3388 57.3722 -0.3550 -0.1149 0.9278 0.0000 0.0156
 41 -4.6057 -18.2634 57.2390 -0.3280 0.4783 0.8146 0.0000 0.0156
 41 -4.8586 -18.3087 56.8975 -0.7608 0.4346 0.4819 0.0000 0.0156
rubbergloveCHROME.bmp
 41 -4.8586 -18.3087 56.8975 -0.7608 0.4346 0.4819 0.0000 0.0156
 41 -4.6057 -18.2634 57.2390 -0.3280 0.4783 0.8146 0.0000 0.0156
 40 -4.6717 -17.7440 56.1382 -0.6516 -0.1191 0.7492 0.0000 0.0156
rubbergloveCHROME.bmp
 41 -4.6057 -18.2634 57.2390 -0.3280 0.4783 0.8146 0.0000 0.0156
 41 -4.4297 -17.3622 56.9577 -0.3033 0.4483 0.8408 0.0000 0.0156
 40 -4.6717 -17.7440 56.1382 -0.6516 -0.1191 0.7492 0.0000 0.0156
rubbergloveCHROME.bmp
 45 -5.7059 -20.1295 55.4193 0.2163 -0.9757 -0.0355 0.0000 0.0156
 45 -6.3744 -20.2985 56.0064 0.1960 -0.9071 0.3725 0.0000 0.0156
 45 -6.4272 -20.2665 55.6778 -0.1703 -0.9822 -0.0793 0.0000 0.0156
rubbergloveCHROME.bmp
 45 -6.4272 -20.2665 55.6778 -0.1703 -0.9822 -0.0793 0.0000 0.0156
 45 -6.3744 -20.2985 56.0064 0.1960 -0.9071 0.3725 0.0000 0.0156
 45 -6.6811 -20.1251 55.6338 -0.3964 -0.9147 -0.0790 0.0000 0.0156
rubbergloveCHROME.bmp
 45 -6.3744 -20.2985 56.0064 0.1960 -0.9071 0.3725 0.0000 0.0156
 46 -7.1855 -20.0638 56.5895 -0.3129 -0.8481 0.4276 0.0000 0.0156
 45 -6.6811 -20.1251 55.6338 -0.3964 -0.9147 -0.0790 0.0000 0.0156
rubbergloveCHROME.bmp
 45 -6.6811 -20.1251 55.6338 -0.3964 -0.9147 -0.0790 0.0000 0.0156
 46 -7.1855 -20.0638 56.5895 -0.3129 -0.8481 0.4276 0.0000 0.0156
 46 -7.3304 -19.9896 56.3971 -0.7735 -0.6310 0.0601 0.0000 0.0156
rubbergloveCHROME.bmp
 46 -7.1855 -20.0638 56.5895 -0.3129 -0.8481 0.4276 0.0000 0.0156
 46 -7.3257 -19.8981 56.6332 -0.8030 -0.2168 0.5551 0.0000 0.0156
 46 -7.3304 -19.9896 56.3971 -0.7735 -0.6310 0.0601 0.0000 0.0156
rubbergloveCHROME.bmp
 46 -7.3304 -19.9896 56.3971 -0.7735 -0.6310 0.0601 0.0000 0.0156
 46 -7.3257 -19.8981 56.6332 -0.8030 -0.2168 0.5551 0.0000 0.0156
 46 -7.3412 -19.5485 56.4392 -0.6780 0.6209 0.3934 0.0000 0.0156
rubbergloveCHROME.bmp
 46 -7.3257 -19.8981 56.6332 -0.8030 -0.2168 0.5551 0.0000 0.0156
 46 -7.0619 -19.6806 56.7970 0.1511 0.2766 0.9490 0.0000 0.0156
 46 -7.3412 -19.5485 56.4392 -0.6780 0.6209 0.3934 0.0000 0.0156
rubbergloveCHROME.bmp
 46 -7.3412 -19.5485 56.4392 -0.6780 0.6209 0.3934 0.0000 0.0156
 46 -7.0619 -19.6806 56.7970 0.1511 0.2766 0.9490 0.0000 0.0156
 45 -6.6157 -19.6018 55.7652 0.1587 0.9467 0.2803 0.0000 0.0156
rubbergloveCHROME.bmp
 46 -7.0619 -19.6806 56.7970 0.1511 0.2766 0.9490 0.0000 0.0156
 45 -6.2769 -19.7911 56.2020 0.4332 0.3534 0.8292 0.0000 0.0156
 45 -6.6157 -19.6018 55.7652 0.1587 0.9467 0.2803 0.0000 0.0156
rubbergloveCHROME.bmp
 45 -6.6157 -19.6018 55.7652 0.1587 0.9467 0.2803 0.0000 0.0156
 45 -6.2769 -19.7911 56.2020 0.4332 0.3534 0.8292 0.0000 0.0156
 44 -5.9507 -19.2505 55.3276 -0.1456 0.8293 0.5394 0.0000 0.0156
rubbergloveCHROME.bmp
 45 -6.2769 -19.7911 56.2020 0.4332 0.3534 0.8292 0.0000 0.0156
 44 -5.5242 -19.5267 55.8182 0.3130 0.2354 0.9201 0.0000 0.0156
 44 -5.9507 -19.2505 55.3276 -0.1456 0.8293 0.5394 0.0000 0.0156
rubbergloveCHROME.bmp
 41 -4.2001 -18.7272 56.9338 0.8517 -0.4995 0.1585 0.0000 0.0156
 41 -4.4711 -18.7913 56.5116 0.8196 -0.4674 -0.3314 0.0000 0.0156
 41 -3.8572 -17.7825 56.5704 0.9734 -0.0413 0.2255 0.0000 0.0156
rubbergloveCHROME.bmp
 41 -4.2001 -18.7272 56.9338 0.8517 -0.4995 0.1585 0.0000 0.0156
 42 -4.7948 -19.5509 56.6935 0.7784 -0.4164 -0.4698 0.0000 0.0156
 41 -4.4711 -18.7913 56.5116 0.8196 -0.4674 -0.3314 0.0000 0.0156
rubbergloveCHROME.bmp
 41 -4.2001 -18.7272 56.9338 0.8517 -0.4995 0.1585 0.0000 0.0156
 42 -4.5958 -19.6348 57.0540 0.7989 -0.5951 0.0876 0.0000 0.0156
 42 -4.7948 -19.5509 56.6935 0.7784 -0.4164 -0.4698 0.0000 0.0156
rubbergloveCHROME.bmp
 41 -4.2001 -18.7272 56.9338 0.8517 -0.4995 0.1585 0.0000 0.0156
 42 -4.6180 -19.3810 57.3148 0.5558 -0.5439 0.6287 0.0000 0.0156
 42 -4.5958 -19.6348 57.0540 0.7989 -0.5951 0.0876 0.0000 0.0156
rubbergloveCHROME.bmp
 41 -4.2001 -18.7272 56.9338 0.8517 -0.4995 0.1585 0.0000 0.0156
 42 -4.2307 -18.7836 57.1057 0.9608 0.1457 0.2360 0.0000 0.0156
 42 -4.6180 -19.3810 57.3148 0.5558 -0.5439 0.6287 0.0000 0.0156
rubbergloveCHROME.bmp
 41 -4.2001 -18.7272 56.9338 0.8517 -0.4995 0.1585 0.0000 0.0156
 41 -4.6057 -18.2634 57.2390 -0.3280 0.4783 0.8146 0.0000 0.0156
 42 -4.2307 -18.7836 57.1057 0.9608 0.1457 0.2360 0.0000 0.0156
rubbergloveCHROME.bmp
 41 -4.2001 -18.7272 56.9338 0.8517 -0.4995 0.1585 0.0000 0.0156
 41 -4.4395 -18.1882 57.3180 -0.2875 -0.2510 0.9243 0.0000 0.0156
 41 -4.6057 -18.2634 57.2390 -0.3280 0.4783 0.8146 0.0000 0.0156
rubbergloveCHROME.bmp
 41 -4.2001 -18.7272 56.9338 0.8517 -0.4995 0.1585 0.0000 0.0156
 41 -4.1359 -18.5238 57.0901 0.7267 -0.3655 0.5816 0.0000 0.0156
 41 -4.4395 -18.1882 57.3180 -0.2875 -0.2510 0.9243 0.0000 0.0156
rubbergloveCHROME.bmp
 41 -4.2001 -18.7272 56.9338 0.8517 -0.4995 0.1585 0.0000 0.0156
 41 -3.8572 -17.7825 56.5704 0.9734 -0.0413 0.2255 0.0000 0.0156
 41 -4.1359 -18.5238 57.0901 0.7267 -0.3655 0.5816 0.0000 0.0156
rubbergloveCHROME.bmp
 40 -5.4912 -18.7838 55.0292 -0.5110 0.2422 0.8248 0.0000 0.0156
 47 -6.1112 -19.2294 55.3044 0.3011 0.2125 0.9296 0.0000 0.0156
 40 -4.9952 -18.8528 54.5527 0.6019 -0.4482 0.6609 0.0000 0.0156
rubbergloveCHROME.bmp
 40 -4.9952 -18.8528 54.5527 0.6019 -0.4482 0.6609 0.0000 0.0156
 47 -6.1112 -19.2294 55.3044 0.3011 0.2125 0.9296 0.0000 0.0156
 47 -5.9700 -19.7081 54.8280 0.5488 -0.6024 0.5796 0.0000 0.0156
rubbergloveCHROME.bmp
 47 -6.1112 -19.2294 55.3044 0.3011 0.2125 0.9296 0.0000 0.0156
 48 -7.0547 -19.5679 55.7923 0.4626 0.3110 0.8302 0.0000 0.0156
 47 -5.9700 -19.7081 54.8280 0.5488 -0.6024 0.5796 0.0000 0.0156
rubbergloveCHROME.bmp
 47 -5.9700 -19.7081 54.8280 0.5488 -0.6024 0.5796 0.0000 0.0156
 48 -7.0547 -19.5679 55.7923 0.4626 0.3110 0.8302 0.0000 0.0156
 48 -7.1811 -20.1085 55.5589 0.2155 -0.9226 0.3200 0.0000 0.0156
rubbergloveCHROME.bmp
 48 -7.0547 -19.5679 55.7923 0.4626 0.3110 0.8302 0.0000 0.0156
 49 -7.9342 -19.5013 56.5038 0.2183 0.2045 0.9542 0.0000 0.0156
 48 -7.1811 -20.1085 55.5589 0.2155 -0.9226 0.3200 0.0000 0.0156
rubbergloveCHROME.bmp
 48 -7.1811 -20.1085 55.5589 0.2155 -0.9226 0.3200 0.0000 0.0156
 49 -7.9342 -19.5013 56.5038 0.2183 0.2045 0.9542 0.0000 0.0156
 49 -8.0537 -19.8534 56.2726 -0.2973 -0.8817 0.3662 0.0000 0.0156
rubbergloveCHROME.bmp
 49 -7.9342 -19.5013 56.5038 0.2183 0.2045 0.9542 0.0000 0.0156
 49 -8.2038 -19.6795 56.3604 -0.7809 -0.2590 0.5684 0.0000 0.0156
 49 -8.0537 -19.8534 56.2726 -0.2973 -0.8817 0.3662 0.0000 0.0156
rubbergloveCHROME.bmp
 40 -6.6519 -18.0664 53.8848 -0.2836 0.3763 0.8820 0.0000 0.0156
 53 -7.1027 -18.2802 54.0221 0.4156 0.1331 0.8998 0.0000 0.0156
 40 -6.1605 -18.0380 53.3837 0.5818 -0.5927 0.5570 0.0000 0.0156
rubbergloveCHROME.bmp
 40 -6.1605 -18.0380 53.3837 0.5818 -0.5927 0.5570 0.0000 0.0156
 53 -7.1027 -18.2802 54.0221 0.4156 0.1331 0.8998 0.0000 0.0156
 53 -7.0001 -18.7275 53.4838 0.5694 -0.5710 0.5914 0.0000 0.0156
rubbergloveCHROME.bmp
 53 -7.1027 -18.2802 54.0221 0.4156 0.1331 0.8998 0.0000 0.0156
 54 -7.6760 -18.5238 54.3112 0.5493 0.1563 0.8209 0.0000 0.0156
 53 -7.0001 -18.7275 53.4838 0.5694 -0.5710 0.5914 0.0000 0.0156
rubbergloveCHROME.bmp
 53 -7.0001 -18.7275 53.4838 0.5694 -0.5710 0.5914 0.0000 0.0156
 54 -7.6760 -18.5238 54.3112 0.5493 0.1563 0.8209 0.0000 0.0156
 54 -7.8508 -18.9757 54.0485 0.0957 -0.9089 0.4058 0.0000 0.0156
rubbergloveCHROME.bmp
 54 -7.6760 -18.5238 54.3112 0.5493 0.1563 0.8209 0.0000 0.0156
 55 -8.2730 -18.4797 55.0670 0.3508 0.0179 0.9363 0.0000 0.0156
 54 -7.8508 -18.9757 54.0485 0.0957 -0.9089 0.4058 0.0000 0.0156
rubbergloveCHROME.bmp
 54 -7.8508 -18.9757 54.0485 0.0957 -0.9089 0.4058 0.0000 0.0156
 55 -8.2730 -18.4797 55.0670 0.3508 0.0179 0.9363 0.0000 0.0156
 55 -8.5180 -18.7751 54.7657 -0.3868 -0.8879 0.2489 0.0000 0.0156
rubbergloveCHROME.bmp
 55 -8.2730 -18.4797 55.0670 0.3508 0.0179 0.9363 0.0000 0.0156
 55 -8.6831 -18.5804 54.8687 -0.7460 -0.2628 0.6118 0.0000 0.0156
 55 -8.5180 -18.7751 54.7657 -0.3868 -0.8879 0.2489 0.0000 0.0156
rubbergloveCHROME.bmp
 40 -6.0839 -18.3943 54.4429 -0.3206 0.3554 0.8780 0.0000 0.0156
 50 -6.6973 -18.7713 54.7163 0.3762 0.1954 0.9057 0.0000 0.0156
 40 -5.5927 -18.3883 53.9429 0.6005 -0.5344 0.5948 0.0000 0.0156
rubbergloveCHROME.bmp
 40 -5.5927 -18.3883 53.9429 0.6005 -0.5344 0.5948 0.0000 0.0156
 50 -6.6973 -18.7713 54.7163 0.3762 0.1954 0.9057 0.0000 0.0156
 50 -6.5375 -19.2829 54.1540 0.5484 -0.6814 0.4846 0.0000 0.0156
rubbergloveCHROME.bmp
 50 -6.6973 -18.7713 54.7163 0.3762 0.1954 0.9057 0.0000 0.0156
 51 -7.3938 -19.0330 55.1422 0.5327 0.2729 0.8011 0.0000 0.0156
 50 -6.5375 -19.2829 54.1540 0.5484 -0.6814 0.4846 0.0000 0.0156
rubbergloveCHROME.bmp
 50 -6.5375 -19.2829 54.1540 0.5484 -0.6814 0.4846 0.0000 0.0156
 51 -7.3938 -19.0330 55.1422 0.5327 0.2729 0.8011 0.0000 0.0156
 51 -7.5606 -19.5963 54.8771 0.1438 -0.9655 0.2171 0.0000 0.0156
rubbergloveCHROME.bmp
 51 -7.3938 -19.0330 55.1422 0.5327 0.2729 0.8011 0.0000 0.0156
 52 -8.2629 -18.9337 55.9534 0.2684 0.1296 0.9546 0.0000 0.0156
 51 -7.5606 -19.5963 54.8771 0.1438 -0.9655 0.2171 0.0000 0.0156
rubbergloveCHROME.bmp
 51 -7.5606 -19.5963 54.8771 0.1438 -0.9655 0.2171 0.0000 0.0156
 52 -8.2629 -18.9337 55.9534 0.2684 0.1296 0.9546 0.0000 0.0156
 52 -8.4147 -19.2681 55.6993 -0.3416 -0.8725 0.3493 0.0000 0.0156
rubbergloveCHROME.bmp
 52 -8.2629 -18.9337 55.9534 0.2684 0.1296 0.9546 0.0000 0.0156
 52 -8.5823 -19.0785 55.7846 -0.7471 -0.2733 0.6059 0.0000 0.0156
 52 -8.4147 -19.2681 55.6993 -0.3416 -0.8725 0.3493 0.0000 0.0156
rubbergloveCHROME.bmp
 39 -3.9143 -15.2115 55.8300 0.9598 0.0112 0.2806 0.0000 0.0156
 40 -4.4534 -19.0351 55.0617 0.8592 -0.4732 0.1944 0.0000 0.0156
 40 -4.3669 -17.9447 54.4890 0.9891 -0.1199 -0.0857 0.0000 0.0156
rubbergloveCHROME.bmp
 39 -3.9143 -15.2115 55.8300 0.9598 0.0112 0.2806 0.0000 0.0156
 40 -3.7323 -16.8162 55.2667 0.8685 -0.1568 -0.4703 0.0000 0.0156
 40 -4.4534 -19.0351 55.0617 0.8592 -0.4732 0.1944 0.0000 0.0156
rubbergloveCHROME.bmp
 39 -3.9143 -15.2115 55.8300 0.9598 0.0112 0.2806 0.0000 0.0156
 40 -3.4302 -16.6867 55.8714 0.9793 -0.0338 0.1996 0.0000 0.0156
 40 -3.7323 -16.8162 55.2667 0.8685 -0.1568 -0.4703 0.0000 0.0156
rubbergloveCHROME.bmp
 39 -3.9143 -15.2115 55.8300 0.9598 0.0112 0.2806 0.0000 0.0156
 40 -4.5117 -15.3400 56.0691 -0.1020 0.3536 0.9298 0.0000 0.0156
 40 -3.4302 -16.6867 55.8714 0.9793 -0.0338 0.1996 0.0000 0.0156
rubbergloveCHROME.bmp
 39 -3.9143 -15.2115 55.8300 0.9598 0.0112 0.2806 0.0000 0.0156
 39 -4.0619 -13.4356 55.8314 -0.0649 0.1356 0.9886 0.0000 0.0156
 40 -4.5117 -15.3400 56.0691 -0.1020 0.3536 0.9298 0.0000 0.0156
rubbergloveCHROME.bmp
 39 -3.9143 -15.2115 55.8300 0.9598 0.0112 0.2806 0.0000 0.0156
 39 -3.1084 -13.9136 55.4561 0.7499 -0.6516 0.1147 0.0000 0.0156
 39 -4.0619 -13.4356 55.8314 -0.0649 0.1356 0.9886 0.0000 0.0156
rubbergloveCHROME.bmp
 39 -3.9143 -15.2115 55.8300 0.9598 0.0112 0.2806 0.0000 0.0156
 40 -4.8880 -14.7414 54.0461 0.6081 -0.7109 -0.3534 0.0000 0.0156
 39 -3.1084 -13.9136 55.4561 0.7499 -0.6516 0.1147 0.0000 0.0156
rubbergloveCHROME.bmp
 44 -5.3472 -20.0219 55.3586 0.6645 -0.6694 0.3322 0.0000 0.0156
 45 -6.3744 -20.2985 56.0064 0.1960 -0.9071 0.3725 0.0000 0.0156
 45 -5.7059 -20.1295 55.4193 0.2163 -0.9757 -0.0355 0.0000 0.0156
rubbergloveCHROME.bmp
 44 -5.3472 -20.0219 55.3586 0.6645 -0.6694 0.3322 0.0000 0.0156
 45 -6.2769 -19.7911 56.2020 0.4332 0.3534 0.8292 0.0000 0.0156
 45 -6.3744 -20.2985 56.0064 0.1960 -0.9071 0.3725 0.0000 0.0156
rubbergloveCHROME.bmp
 44 -5.3472 -20.0219 55.3586 0.6645 -0.6694 0.3322 0.0000 0.0156
 44 -5.5242 -19.5267 55.8182 0.3130 0.2354 0.9201 0.0000 0.0156
 45 -6.2769 -19.7911 56.2020 0.4332 0.3534 0.8292 0.0000 0.0156
rubbergloveCHROME.bmp
 44 -5.3472 -20.0219 55.3586 0.6645 -0.6694 0.3322 0.0000 0.0156
 40 -4.4534 -19.0351 55.0617 0.8592 -0.4732 0.1944 0.0000 0.0156
 44 -5.5242 -19.5267 55.8182 0.3130 0.2354 0.9201 0.0000 0.0156
rubbergloveCHROME.bmp
 44 -5.3472 -20.0219 55.3586 0.6645 -0.6694 0.3322 0.0000 0.0156
 44 -4.9489 -19.3896 54.8000 0.7285 -0.6511 -0.2132 0.0000 0.0156
 40 -4.4534 -19.0351 55.0617 0.8592 -0.4732 0.1944 0.0000 0.0156
rubbergloveCHROME.bmp
 44 -5.3472 -20.0219 55.3586 0.6645 -0.6694 0.3322 0.0000 0.0156
 44 -5.3335 -19.9604 55.1514 0.8054 -0.5866 -0.0850 0.0000 0.0156
 44 -4.9489 -19.3896 54.8000 0.7285 -0.6511 -0.2132 0.0000 0.0156
rubbergloveCHROME.bmp
 41 -4.1064 -17.6280 56.9867 0.3480 0.5920 0.7269 0.0000 0.0156
 41 -4.6057 -18.2634 57.2390 -0.3280 0.4783 0.8146 0.0000 0.0156
 41 -4.4395 -18.1882 57.3180 -0.2875 -0.2510 0.9243 0.0000 0.0156
rubbergloveCHROME.bmp
 41 -4.1064 -17.6280 56.9867 0.3480 0.5920 0.7269 0.0000 0.0156
 41 -4.4297 -17.3622 56.9577 -0.3033 0.4483 0.8408 0.0000 0.0156
 41 -4.6057 -18.2634 57.2390 -0.3280 0.4783 0.8146 0.0000 0.0156
rubbergloveCHROME.bmp
 41 -4.1064 -17.6280 56.9867 0.3480 0.5920 0.7269 0.0000 0.0156
 41 -3.8572 -17.7825 56.5704 0.9734 -0.0413 0.2255 0.0000 0.0156
 41 -4.4297 -17.3622 56.9577 -0.3033 0.4483 0.8408 0.0000 0.0156
rubbergloveCHROME.bmp
 41 -4.1064 -17.6280 56.9867 0.3480 0.5920 0.7269 0.0000 0.0156
 41 -4.1359 -18.5238 57.0901 0.7267 -0.3655 0.5816 0.0000 0.0156
 41 -3.8572 -17.7825 56.5704 0.9734 -0.0413 0.2255 0.0000 0.0156
rubbergloveCHROME.bmp
 45 -6.2769 -19.7911 56.2020 0.4332 0.3534 0.8292 0.0000 0.0156
 46 -7.0619 -19.6806 56.7970 0.1511 0.2766 0.9490 0.0000 0.0156
 45 -6.3744 -20.2985 56.0064 0.1960 -0.9071 0.3725 0.0000 0.0156
rubbergloveCHROME.bmp
 45 -6.3744 -20.2985 56.0064 0.1960 -0.9071 0.3725 0.0000 0.0156
 46 -7.0619 -19.6806 56.7970 0.1511 0.2766 0.9490 0.0000 0.0156
 46 -7.1855 -20.0638 56.5895 -0.3129 -0.8481 0.4276 0.0000 0.0156
rubbergloveCHROME.bmp
 46 -7.0619 -19.6806 56.7970 0.1511 0.2766 0.9490 0.0000 0.0156
 46 -7.3257 -19.8981 56.6332 -0.8030 -0.2168 0.5551 0.0000 0.0156
 46 -7.1855 -20.0638 56.5895 -0.3129 -0.8481 0.4276 0.0000 0.0156
rubbergloveCHROME.bmp
 40 -4.0356 -17.6642 55.4390 0.8893 -0.4522 -0.0679 0.0000 0.0156
 40 -4.6717 -17.7440 56.1382 -0.6516 -0.1191 0.7492 0.0000 0.0156
 40 -4.2059 -18.0818 55.3789 0.8227 -0.3933 0.4105 0.0000 0.0156
rubbergloveCHROME.bmp
 40 -4.2059 -18.0818 55.3789 0.8227 -0.3933 0.4105 0.0000 0.0156
 40 -4.6717 -17.7440 56.1382 -0.6516 -0.1191 0.7492 0.0000 0.0156
 40 -4.9356 -19.0809 55.5732 0.3138 -0.2032 0.9275 0.0000 0.0156
rubbergloveCHROME.bmp
 40 -4.6717 -17.7440 56.1382 -0.6516 -0.1191 0.7492 0.0000 0.0156
 40 -5.4912 -18.7838 55.0292 -0.5110 0.2422 0.8248 0.0000 0.0156
 40 -4.9356 -19.0809 55.5732 0.3138 -0.2032 0.9275 0.0000 0.0156
rubbergloveCHROME.bmp
 40 -5.0901 -16.6711 56.0100 -0.8248 -0.0244 0.5649 0.0000 0.0156
 40 -4.5117 -15.3400 56.0691 -0.1020 0.3536 0.9298 0.0000 0.0156
 40 -5.8097 -14.6299 54.7457 -0.7897 0.1703 0.5894 0.0000 0.0156
rubbergloveCHROME.bmp
 40 -5.8097 -14.6299 54.7457 -0.7897 0.1703 0.5894 0.0000 0.0156
 40 -4.5117 -15.3400 56.0691 -0.1020 0.3536 0.9298 0.0000 0.0156
 39 -4.7794 -13.5087 54.2252 -0.6629 0.4810 0.5738 0.0000 0.0156
rubbergloveCHROME.bmp
 40 -4.5117 -15.3400 56.0691 -0.1020 0.3536 0.9298 0.0000 0.0156
 39 -4.0619 -13.4356 55.8314 -0.0649 0.1356 0.9886 0.0000 0.0156
 39 -4.7794 -13.5087 54.2252 -0.6629 0.4810 0.5738 0.0000 0.0156
rubbergloveCHROME.bmp
 43 -5.1299 -20.0569 56.8597 -0.6394 -0.7178 -0.2756 0.0000 0.0156
 43 -4.9521 -20.1888 56.8567 0.1253 -0.9771 0.1717 0.0000 0.0156
 43 -5.2755 -19.9979 57.1724 -0.8015 -0.4399 0.4051 0.0000 0.0156
rubbergloveCHROME.bmp
 43 -5.2755 -19.9979 57.1724 -0.8015 -0.4399 0.4051 0.0000 0.0156
 43 -4.9521 -20.1888 56.8567 0.1253 -0.9771 0.1717 0.0000 0.0156
 42 -4.9117 -19.3388 57.3722 -0.3550 -0.1149 0.9278 0.0000 0.0156
rubbergloveCHROME.bmp
 42 -4.2307 -18.7836 57.1057 0.9608 0.1457 0.2360 0.0000 0.0156
 41 -4.6057 -18.2634 57.2390 -0.3280 0.4783 0.8146 0.0000 0.0156
 42 -4.5159 -18.4662 57.4221 0.1486 0.3142 0.9377 0.0000 0.0156
rubbergloveCHROME.bmp
 42 -4.5159 -18.4662 57.4221 0.1486 0.3142 0.9377 0.0000 0.0156
 41 -4.6057 -18.2634 57.2390 -0.3280 0.4783 0.8146 0.0000 0.0156
 42 -4.9117 -19.3388 57.3722 -0.3550 -0.1149 0.9278 0.0000 0.0156
rubbergloveCHROME.bmp
 40 -5.8097 -14.6299 54.7457 -0.7897 0.1703 0.5894 0.0000 0.0156
 40 -6.2665 -16.0020 53.4247 -0.7839 0.4385 -0.4396 0.0000 0.0156
 40 -7.1910 -17.7016 53.3533 -0.6526 0.6862 0.3213 0.0000 0.0156
rubbergloveCHROME.bmp
 40 -7.1910 -17.7016 53.3533 -0.6526 0.6862 0.3213 0.0000 0.0156
 40 -6.2665 -16.0020 53.4247 -0.7839 0.4385 -0.4396 0.0000 0.0156
 40 -6.6560 -17.6559 52.8522 -0.6519 0.3748 -0.6592 0.0000 0.0156
rubbergloveCHROME.bmp
 41 -3.8572 -17.7825 56.5704 0.9734 -0.0413 0.2255 0.0000 0.0156
 41 -4.4711 -18.7913 56.5116 0.8196 -0.4674 -0.3314 0.0000 0.0156
 40 -4.0356 -17.6642 55.4390 0.8893 -0.4522 -0.0679 0.0000 0.0156
rubbergloveCHROME.bmp
 42 -4.5958 -19.6348 57.0540 0.7989 -0.5951 0.0876 0.0000 0.0156
 43 -5.0335 -20.0338 56.6559 0.0986 -0.7339 -0.6720 0.0000 0.0156
 42 -4.7948 -19.5509 56.6935 0.7784 -0.4164 -0.4698 0.0000 0.0156
rubbergloveCHROME.bmp
 48 -7.1811 -20.1085 55.5589 0.2155 -0.9226 0.3200 0.0000 0.0156
 48 -6.3485 -19.8555 54.8661 0.2453 -0.9690 -0.0302 0.0000 0.0156
 47 -5.9700 -19.7081 54.8280 0.5488 -0.6024 0.5796 0.0000 0.0156
rubbergloveCHROME.bmp
 40 -4.8880 -14.7414 54.0461 0.6081 -0.7109 -0.3534 0.0000 0.0156
 39 -3.7845 -14.0094 53.8336 0.5201 -0.8355 -0.1773 0.0000 0.0156
 39 -3.1084 -13.9136 55.4561 0.7499 -0.6516 0.1147 0.0000 0.0156
rubbergloveCHROME.bmp
 50 -6.5375 -19.2829 54.1540 0.5484 -0.6814 0.4846 0.0000 0.0156
 51 -7.5606 -19.5963 54.8771 0.1438 -0.9655 0.2171 0.0000 0.0156
 51 -6.9373 -19.3771 54.2335 0.0721 -0.9624 -0.2621 0.0000 0.0156
rubbergloveCHROME.bmp
 40 -5.8097 -14.6299 54.7457 -0.7897 0.1703 0.5894 0.0000 0.0156
 40 -5.3473 -16.8896 55.4271 -0.8550 -0.1141 0.5060 0.0000 0.0156
 40 -5.0901 -16.6711 56.0100 -0.8248 -0.0244 0.5649 0.0000 0.0156
GLOVE_handpak.bmp.bmp
 40 -4.8880 -14.7414 54.0461 0.4590 0.8882 -0.0195 0.0000 0.0313
 39 -3.9143 -15.2115 55.8300 0.4590 0.8882 -0.0195 0.8929 0.0156
 40 -4.6218 -14.9014 53.8546 0.4590 0.8882 -0.0195 0.0000 0.0625
GLOVE_handpak.bmp.bmp
 39 -3.6524 -15.5181 55.6040 0.6979 0.7028 -0.1381 0.8393 0.0469
 40 -4.6218 -14.9014 53.8546 0.6979 0.7028 -0.1381 0.0000 0.0625
 39 -3.9143 -15.2115 55.8300 0.6979 0.7028 -0.1381 0.8929 0.0156
GLOVE_handpak.bmp.bmp
 39 -3.9143 -15.2115 55.8300 0.2203 -0.4679 0.8559 0.8929 0.0156
 40 -4.3669 -17.9447 54.4890 0.2203 -0.4679 0.8559 0.9464 1.0000
 39 -3.6524 -15.5181 55.6040 0.2203 -0.4679 0.8559 0.8393 0.0469
GLOVE_handpak.bmp.bmp
 40 -4.2184 -17.6277 54.3213 0.9241 -0.3468 0.1603 0.8571 0.8906
 39 -3.6524 -15.5181 55.6040 0.9241 -0.3468 0.1603 0.8393 0.0469
 40 -4.3669 -17.9447 54.4890 0.9241 -0.3468 0.1603 0.9464 1.0000
GLOVED_knuckle.bmp
 41 -4.4395 -18.1882 57.3180 0.6417 0.0814 0.7627 0.0000 1.0000
 41 -4.1359 -18.5238 57.0901 0.6417 0.0814 0.7627 0.0000 0.1429
 41 -4.1064 -17.6280 56.9867 0.6417 0.0814 0.7627 0.0000 0.7143
GLOVED_knuckle.bmp
 42 -4.2307 -18.7836 57.1057 0.5966 -0.1290 0.7921 0.0000 0.1429
 42 -4.5159 -18.4662 57.4221 0.5966 -0.1290 0.7921 0.0000 1.0000
 42 -4.6180 -19.3810 57.3148 0.5966 -0.1290 0.7921 0.2500 0.5714
end
