6

weapon			320 320hud1				0	0	80	20
weapon_s		320 320hud1				0	20	80	20
crosshair		320 crosshairs				0	0	32	32

weapon			640 hud_weapon_normal_crowbar		0	0	256	5000
weapon_s		640 hud_weapon_normal_crowbar		0	0	256	128
crosshair		640 xhair_crowbar			0	0	256	256