8

weapon			320 320hud1				80	120	80	20
weapon_s		320 320hud1				80	140	80	20
ammo			320 320hud2				0	34	18	18
crosshair		320 crosshairs				72	48	24	24

weapon			640 hud_weapon_normal_egon		0	0	256	5000
weapon_s		640 hud_weapon_normal_egon		0	0	256	128
ammo			640 hud_ammo_gauss			0	0	24	24
crosshair		640 xhair_egon				0	0	256	256