8

weapon			320 320hud1				160	0	80	20
weapon_s		320 320hud1				160	20	80	20
ammo			320 320hud2				36	34	18	18
crosshair		320 crosshairs				0	0	32	32

weapon			640 hud_weapon_normal_handgrenade	0	0	256	5000
weapon_s		640 hud_weapon_normal_handgrenade	0	0	256	128
ammo			640 hud_ammo_handgrenade		0	0	24	24
crosshair		640 xhair_handgrenade			0	0	256	256