6

weapon			320 320hud2				0	36	80	20
weapon_s		320 320hud2				0	104	80	20
ammo			320 320hud2				90	52	18	18

weapon			640 hud_weapon_unknown			0	0	256	5000
weapon_s		640 hud_weapon_unknown			0	0	256	128
ammo			640 hud_ammo_unknown			0	0	24	24
crosshair		640 xhair_unknown			0	0	32	32