8

weapon			320 320hud1				160	80	80	20
weapon_s		320 320hud1				160	100	80	20
ammo			320 320hud2				72	34	18	18
crosshair		320 crosshairs				0	0	32	32

weapon			640 hud_weapon_normal_tripmine		0	0	256	5000
weapon_s		640 hud_weapon_normal_tripmine		0	0	256	128
ammo			640 hud_ammo_tripmine			0	0	24	24
crosshair		640 xhair_tripmine			0	0	256	256