version 1
nodes
  0 "Xbow biped"  -1
  1 "Xbow biped Pelvis"   0
  2 "Xbow biped Spine"   1
  3 "Xbow biped Spine1"   2
  4 "Xbow biped Spine2"   3
  5 "Xbow biped Spine3"   4
  6 "Xbow biped Neck"   5
  7 "Xbow biped R Arm"   6
  8 "Xbow biped R Arm1"   7
  9 "Xbow biped R Arm2"   8
 10 "Xbow biped R Hand"   9
 11 "crossbow parent"  10
 12 "grip"  11
 13 "LeftArm"  12
 14 "LA1"  13
 15 "LA2"  14
 16 "LA3"  15
 17 "LA4"  16
 18 "RightArm"  12
 19 "RA1"  18
 20 "RA2"  19
 21 "RA3"  20
 22 "RA4"  21
 23 "Slide"  12
 24 "Bolt"  23
 25 "Bone18"  24
 26 "Clip Master"  12
 27 "Bone20"  26
 28 "Ammo Rotator"  26
 29 "Ammobone01"  28
 30 "Ammomid01"  29
 31 "Ammobone02"  28
 32 "Ammomid02"  31
 33 "Ammobone03"  28
 34 "Ammomid03"  33
 35 "Ammobone"  28
 36 "Ammomid"  35
 37 "Xbow biped L Arm"   6
 38 "Xbow biped L Arm1"  37
 39 "Xbow biped L Arm2"  38
 40 "Xbow biped L Hand"  39
 41 "Xbow biped L Finger0"  40
 42 "Xbow biped L Finger01"  41
 43 "Xbow biped L Finger02"  42
 44 "Xbow biped L Finger1"  40
 45 "Xbow biped L Finger11"  44
 46 "Xbow biped L Finger12"  45
 47 "Xbow biped L Finger2"  40
 48 "Xbow biped L Finger21"  47
 49 "Xbow biped L Finger22"  48
 50 "Xbow biped L Finger3"  40
 51 "Xbow biped L Finger31"  50
 52 "Xbow biped L Finger32"  51
 53 "Xbow biped L Finger4"  40
 54 "Xbow biped L Finger41"  53
 55 "Xbow biped L Finger42"  54
end
skeleton
time 0
  0 -2.643122 2.643122 -25.602371 0.000000 0.000000 -1.457349
  1 0.000000 0.000000 0.000000 -1.570795 -1.570796 0.000000
  2 1.326317 -0.003921 0.000002 -0.000004 -0.000001 0.000796
  3 4.926312 -0.003780 0.001048 -0.270389 0.000213 -0.000029
  4 4.926315 -0.003923 0.000000 0.000000 0.000000 0.000000
  5 4.926314 -0.003923 0.000000 0.000000 0.000000 0.000000
  6 4.926314 -0.001509 0.000000 0.000000 0.000000 0.029961
  7 0.000000 0.001514 -1.894737 -0.000014 1.370797 3.110821
  8 4.926316 0.000000 -0.000003 -0.791820 -1.162758 0.685480
  9 11.368423 0.000000 0.000000 0.000000 0.000000 -2.285262
 10 11.368423 -0.000001 0.000000 1.570000 0.000000 0.601833
 11 3.791503 1.946522 4.704311 -0.166073 -0.064016 1.709421
 12 0.000000 -9.111859 0.000000 0.000000 0.000000 0.000000
 13 4.000000 -10.388144 -0.000001 0.000000 0.000000 0.183160
 14 2.500000 -0.000001 -0.000001 0.000000 0.000000 0.210198
 15 2.500000 -0.000001 -0.000001 0.000000 0.000000 0.244749
 16 2.500000 -0.000001 -0.000001 0.000000 0.000000 0.282932
 17 2.500000 -0.000001 -0.000001 0.000000 0.000000 0.323692
 18 -4.000001 -10.388144 -0.000001 0.000000 0.000000 -0.183160
 19 -2.500000 -0.000001 -0.000001 0.000000 0.000000 -0.210198
 20 -2.500000 -0.000001 -0.000001 0.000000 0.000000 -0.244749
 21 -2.500001 -0.000001 -0.000001 0.000000 0.000000 -0.282932
 22 -2.499999 -0.000001 -0.000001 0.000000 0.000000 -0.323692
 23 0.036119 5.093966 0.485728 0.000000 0.000000 0.000000
 24 0.003826 -3.389289 -0.526929 0.000000 0.000000 0.000000
 25 -0.039945 -0.553359 -0.000001 0.000000 0.000000 0.000000
 26 -0.000001 0.554309 -2.759931 0.000000 0.000000 0.000000
 27 0.000000 1.057548 0.252414 0.000000 0.000000 0.000000
 28 0.000000 -13.871448 1.252414 -0.104667 0.000000 0.000000
 29 -0.000001 0.049316 0.079726 -0.104717 0.000000 0.000000
 30 0.000000 15.500001 0.000000 0.000000 0.000000 0.000000
 31 -0.000285 0.040940 0.075344 -0.209401 0.000000 0.000000
 32 0.000000 15.500000 0.000001 0.000000 0.000000 0.000000
 33 -0.000001 0.040768 0.079128 -0.314120 0.000000 0.000000
 34 0.000000 15.500000 0.000001 0.000000 0.000000 0.000000
 35 -0.000033 0.043137 0.084335 0.000041 0.000000 0.000000
 36 0.000000 15.500001 -0.000003 0.000000 0.000000 0.000000
 37 0.000000 0.001504 1.894737 -0.000014 -1.370796 3.110810
 38 4.926316 0.000000 0.000003 0.967488 2.459543 1.058421
 39 11.368423 0.000002 0.000000 0.000000 0.000000 -0.888768
 40 11.368421 0.000000 0.000000 -1.773865 -0.214765 0.357703
 41 1.126230 0.104082 -1.358370 2.166025 0.635106 0.519043
 42 2.373623 -0.000001 -0.000001 0.000000 0.000000 0.409944
 43 1.071903 0.000001 0.000002 0.000000 0.000000 0.471000
 44 3.789473 -0.000907 -1.136841 0.100752 0.120615 0.703804
 45 1.136845 -0.000001 -0.000001 0.000000 0.000000 0.523333
 46 1.136843 0.000003 -0.000001 0.000000 0.000000 0.453556
 47 3.789474 -0.000304 -0.378947 0.049888 0.060639 0.699260
 48 1.326317 0.000000 0.000000 0.000000 0.000000 0.523333
 49 1.326316 0.000002 0.000001 0.000000 0.000000 0.462278
 50 3.789475 0.000300 0.378947 -0.000610 0.000512 0.697778
 51 1.136844 0.000000 0.000001 0.000000 0.000000 0.523333
 52 1.136841 0.000001 0.000000 0.000000 0.000000 0.453556
 53 3.789474 0.000903 1.136843 -0.096294 -0.112933 0.703284
 54 0.947368 -0.000001 0.000000 0.000000 0.000000 0.523333
 55 0.947371 0.000001 -0.000001 0.000000 0.000000 0.453556
end
