version 1
nodes
  0 "Hands biped"  -1
  1 "Bip01 Pelvis"   0
  2 "Bip01 Spine"   1
  3 "Bip01 Spine1"   2
  4 "Bip01 Spine2"   3
  5 "Bip01 Spine3"   4
  6 "Bip01 Neck"   5
  7 "Bip01 R Arm"   6
  8 "Bip01 R Arm1"   7
  9 "Bip01 R Arm2"   8
 10 "Bip01 R Hand"   9
 11 "Gauss"  10
 12 "Bone01"  11
 13 "Bip01 L Arm"   6
 14 "Bip01 L Arm1"  13
 15 "Bip01 L Arm2"  14
 16 "Bip01 L Hand"  15
 17 "Bip01 L Finger0"  16
 18 "Bip01 L Finger01"  17
 19 "Bip01 L Finger02"  18
 20 "Bip01 L Finger1"  16
 21 "Bip01 L Finger11"  20
 22 "Bip01 L Finger12"  21
 23 "Bip01 L Finger2"  16
 24 "Bip01 L Finger21"  23
 25 "Bip01 L Finger22"  24
 26 "Bip01 L Finger3"  16
 27 "Bip01 L Finger31"  26
 28 "Bip01 L Finger32"  27
 29 "Bip01 L Finger4"  16
 30 "Bip01 L Finger41"  29
 31 "Bip01 L Finger42"  30
end
skeleton
time 0
  0 0.004700 -0.004700 -24.602341 0.000000 0.000000 -1.570795
  1 0.000000 0.000000 0.000000 -1.570795 -1.570796 0.000000
  2 1.326317 -0.003921 0.000002 -0.000004 -0.000001 0.000796
  3 4.926312 -0.003923 0.000000 0.000000 0.000000 0.000000
  4 4.926314 -0.003923 0.000000 0.000000 0.000000 0.000000
  5 4.926313 -0.003923 0.000000 0.000000 0.000000 0.000000
  6 4.926317 -0.001509 0.000000 0.000000 0.000000 0.000000
  7 -0.000001 0.001514 -1.894737 -0.000014 1.370797 3.140783
  8 4.926316 0.000000 -0.000001 -1.154046 -1.002881 1.145660
  9 11.368422 0.000001 0.000000 0.000000 0.000000 -1.909099
 10 11.368423 0.000002 0.000000 1.570000 0.000000 0.000000
 11 5.131148 0.792373 6.213490 1.538294 0.174579 3.074105
 12 -4.536896 0.292514 0.000000 0.000000 0.000000 0.000000
 13 -0.000001 0.001503 1.894737 -0.000014 -1.370797 3.140810
 14 4.926316 0.000000 0.000002 -0.679097 0.872525 -1.224289
 15 11.368422 0.000002 0.000001 0.000000 0.000000 -1.091279
 16 11.368421 -0.000001 0.000002 -0.057699 -0.453204 -0.496958
 17 1.126230 0.104083 -1.358370 3.120467 0.166825 0.932330
 18 2.373624 0.000001 0.000000 0.000000 0.000000 0.558222
 19 1.071898 -0.000002 0.000000 0.000000 0.000000 0.287833
 20 3.789475 -0.000905 -1.136842 0.017436 0.470176 0.111287
 21 1.136844 0.000001 0.000000 0.000000 0.000000 1.160056
 22 1.136840 0.000000 -0.000001 0.000000 0.000000 1.116444
 23 3.789475 -0.000302 -0.378947 0.007424 0.078153 0.104926
 24 1.326317 0.000002 0.000000 0.000000 0.000000 1.160056
 25 1.326314 0.000003 0.000000 0.000000 0.000000 1.125167
 26 3.789474 0.000302 0.378948 -0.000796 -0.104583 0.104750
 27 1.136842 0.000001 0.000000 0.000000 0.000000 1.160056
 28 1.136843 0.000001 0.000000 0.000000 0.000000 1.116444
 29 3.789475 0.000906 1.136842 -0.016795 -0.260749 0.107858
 30 0.947369 0.000003 0.000001 0.000000 0.000000 1.160056
 31 0.947368 -0.000002 0.000000 0.000000 0.000000 1.116445
end
